o convex_0
v -3.145404 -3.611620 -2.030712
v -2.618535 62.523399 2.185066
v -2.881944 62.523399 2.185066
v -3.145404 62.523399 -2.030712
v -2.618535 62.523399 -2.030712
v -2.618535 -3.611620 2.185066
v -3.145404 -3.611620 1.921373
v -2.618535 -3.611620 -2.030712
v -3.145404 62.523399 1.921373
v -2.881944 -3.611620 2.185066
f 7 6 10 
f 3 2 4 
f 1 4 5 
f 4 2 5 
f 5 2 6 
f 2 3 6 
f 4 1 7 
f 1 6 7 
f 1 5 8 
f 5 6 8 
f 6 1 8 
f 3 4 9 
f 7 3 9 
f 4 7 9 
f 6 3 10 
f 3 7 10 
o convex_1
v 2.124318 62.523399 -2.557685
v 1.333860 -3.611620 -2.821171
v 1.333860 -3.611620 -2.294198
v 1.333860 62.523399 -2.821171
v 2.124318 -3.611620 -2.294198
v 1.333860 62.523399 -2.294198
v 1.597475 -3.611620 -2.821171
v 2.124318 62.523399 -2.294198
v 2.124318 -3.611620 -2.557685
v 1.597475 62.523399 -2.821171
f 11 17 20 
f 12 13 14 
f 13 12 15 
f 14 13 16 
f 11 14 16 
f 13 15 16 
f 12 14 17 
f 15 12 17 
f 15 11 18 
f 11 16 18 
f 16 15 18 
f 11 15 19 
f 17 11 19 
f 15 17 19 
f 14 11 20 
f 17 14 20 
o convex_2
v 2.651291 -3.603728 -2.030712
v 3.178263 33.269321 0.077177
v 3.178263 36.697812 -1.503327
v 3.178263 -3.603728 -2.030712
v 2.651291 -3.603728 0.077177
v 2.651291 36.697812 -2.030712
v 3.178263 -3.603728 0.077177
v 2.914777 33.269321 0.077177
v 3.178263 36.697812 -2.030712
v 2.651291 36.697812 -1.767020
v 2.914777 36.697812 -1.503327
v 2.651291 -3.343336 0.077177
f 28 30 32 
f 23 22 24 
f 21 24 25 
f 24 21 26 
f 21 25 26 
f 24 22 27 
f 25 24 27 
f 22 25 27 
f 22 23 28 
f 25 22 28 
f 23 24 29 
f 26 23 29 
f 24 26 29 
f 26 25 30 
f 23 26 30 
f 30 28 31 
f 28 23 31 
f 23 30 31 
f 25 28 32 
f 30 25 32 
o convex_3
v 2.651291 -3.601252 0.077177
v 2.914777 49.349092 2.185066
v 3.178263 49.349092 1.921373
v 2.914777 -3.601252 2.185066
v 3.178263 -3.601252 0.077177
v 2.914777 33.269605 0.077177
v 2.651291 49.349092 2.185066
v 2.651291 -3.601252 2.185066
v 3.178263 -3.601252 1.921373
v 3.178263 33.269605 0.077177
v 2.651291 49.349092 1.657681
v 3.178263 49.349092 1.657681
v 2.651291 -3.342073 0.077177
f 33 43 45 
f 35 34 36 
f 36 33 37 
f 37 33 38 
f 34 35 39 
f 36 34 39 
f 36 39 40 
f 33 36 40 
f 39 33 40 
f 35 36 41 
f 36 37 41 
f 37 35 41 
f 35 37 42 
f 37 38 42 
f 42 38 43 
f 33 39 43 
f 39 35 43 
f 43 35 44 
f 35 42 44 
f 42 43 44 
f 38 33 45 
f 43 38 45 
o convex_4
v -1.037593 61.992558 2.975524
v -1.564436 -3.611620 2.712038
v -1.301014 -3.611620 2.712038
v -1.301014 62.523399 2.712038
v -1.564436 62.523399 2.975524
v -1.564436 -3.611620 2.975524
v -1.037593 -3.080779 2.712038
v -1.037593 -3.080779 2.975524
v -1.564436 62.523399 2.712038
v -1.037593 61.992558 2.712038
v -1.301014 -3.611620 2.975524
v -1.301014 62.523399 2.975524
f 49 50 57 
f 48 47 49 
f 50 47 51 
f 47 48 51 
f 46 50 51 
f 48 49 52 
f 52 46 53 
f 46 51 53 
f 48 52 53 
f 49 47 54 
f 50 49 54 
f 47 50 54 
f 49 46 55 
f 52 49 55 
f 46 52 55 
f 51 48 56 
f 53 51 56 
f 48 53 56 
f 46 49 57 
f 50 46 57 
o convex_5
v 0.279915 62.523399 -3.348143
v -0.247057 -3.611620 -3.611629
v -0.247057 -3.611620 -3.348143
v -0.247057 62.523399 -3.611629
v 0.279915 -3.611620 -3.611629
v 0.279915 -3.611620 -3.348143
v -0.247057 62.523399 -3.348143
v 0.279915 62.523399 -3.611629
f 62 61 65 
f 59 60 61 
f 60 59 62 
f 59 61 62 
f 58 60 63 
f 62 58 63 
f 60 62 63 
f 60 58 64 
f 61 60 64 
f 58 61 64 
f 61 58 65 
f 58 62 65 
o convex_6
v 0.806888 62.523399 -3.084683
v -0.510543 -3.080779 -3.348117
v 0.543298 -3.611620 -3.348117
v -0.510543 -3.080779 -3.084683
v -0.510543 61.992558 -3.348117
v 0.806888 -3.611620 -3.084683
v 0.806888 62.523399 -3.348117
v -0.510543 61.992558 -3.084683
v 0.806888 -3.611620 -3.348117
v 0.543298 62.523399 -3.348117
v 0.543298 -3.611620 -3.084683
v 0.543298 62.523399 -3.084683
f 75 73 77 
f 67 68 69 
f 68 67 70 
f 67 69 70 
f 66 69 71 
f 68 70 72 
f 66 71 72 
f 69 66 73 
f 70 69 73 
f 71 68 74 
f 68 72 74 
f 72 71 74 
f 66 72 75 
f 72 70 75 
f 70 73 75 
f 69 68 76 
f 68 71 76 
f 71 69 76 
f 73 66 77 
f 66 75 77 
o convex_7
v 2.387701 29.851119 2.448552
v 1.333860 -3.611620 1.658093
v 1.333860 -3.611620 2.712038
v 2.651291 -3.611620 1.658093
v 1.597578 29.851119 2.185066
v 2.651291 29.851119 1.921580
v 2.651291 -3.611620 2.185066
v 1.333860 29.851119 2.712038
v 1.860910 -3.611620 2.712038
v 2.124241 29.851119 1.921580
v 1.860910 29.851119 2.712038
v 1.333860 29.851119 2.448552
v 2.651291 29.851119 2.185066
v 2.387701 -3.611620 2.448552
v 1.333860 -3.346302 1.658093
v 2.651291 -3.346302 1.658093
f 92 83 93 
f 80 79 81 
f 82 78 83 
f 80 81 84 
f 81 83 84 
f 79 80 85 
f 78 82 85 
f 80 84 86 
f 85 80 86 
f 82 83 87 
f 78 85 88 
f 86 78 88 
f 85 86 88 
f 79 85 89 
f 85 82 89 
f 83 78 90 
f 78 84 90 
f 84 83 90 
f 84 78 91 
f 78 86 91 
f 86 84 91 
f 81 79 92 
f 82 87 92 
f 87 83 92 
f 79 89 92 
f 89 82 92 
f 83 81 93 
f 81 92 93 
o convex_8
v 2.651291 62.520201 2.185066
v 1.333860 29.854317 2.448552
v 1.333860 29.854317 2.712038
v 1.333860 62.520201 2.712038
v 1.333860 62.520201 1.658093
v 2.651291 29.854317 1.921580
v 1.860910 29.854317 2.712038
v 2.651291 62.520201 1.658093
v 2.124241 29.854317 1.921580
v 1.860910 62.520201 2.712038
v 2.387701 29.854317 2.448552
v 2.651291 29.854317 2.185066
v 2.387701 62.520201 2.448552
v 1.597578 29.854317 2.185066
v 1.333860 62.254806 1.658093
v 2.651291 62.254806 1.658093
f 108 101 109 
f 95 96 97 
f 97 94 98 
f 95 97 98 
f 96 95 99 
f 96 99 100 
f 97 96 100 
f 98 94 101 
f 94 99 101 
f 99 95 102 
f 94 97 103 
f 97 100 103 
f 103 100 104 
f 100 99 104 
f 104 99 105 
f 99 94 105 
f 94 104 105 
f 94 103 106 
f 103 104 106 
f 104 94 106 
f 102 95 107 
f 102 107 108 
f 95 98 108 
f 98 101 108 
f 99 102 108 
f 107 95 108 
f 99 108 109 
f 101 99 109 
o convex_9
v 2.651291 36.704234 -2.030712
v 3.178263 61.993951 -1.503740
v 2.914777 61.993951 -1.503740
v 3.178263 36.704234 -1.503740
v 3.178263 61.993951 -2.030712
v 2.651291 61.993951 -2.030712
v 3.178263 36.704234 -2.030712
v 2.651291 36.704234 -1.767226
v 2.651291 61.993951 -1.767226
v 2.914777 36.704234 -1.503740
f 117 113 119 
f 111 112 113 
f 112 111 114 
f 111 113 114 
f 114 110 115 
f 112 114 115 
f 113 110 116 
f 110 114 116 
f 114 113 116 
f 110 113 117 
f 115 110 117 
f 115 117 118 
f 112 115 118 
f 117 112 118 
f 113 112 119 
f 112 117 119 
o convex_10
v 1.333860 62.259913 -2.294198
v 3.178263 62.523399 1.921115
v 2.914674 62.523399 2.185066
v 3.178263 61.996427 1.921115
v 3.178263 62.523399 -2.030687
v 1.333860 62.523399 1.658042
v 3.178263 61.996427 -2.030687
v 1.861039 61.996427 -2.030248
v 1.333860 62.259913 1.658042
v 1.333860 62.523399 -2.294198
v 2.651265 61.996427 2.185066
v 2.651265 61.996427 -2.294198
v 2.651265 62.523399 -2.294198
v 2.651265 62.523399 2.185066
v 1.861039 61.996427 -2.294198
v 2.914674 61.996427 2.185066
f 130 123 135 
f 121 122 123 
f 122 121 124 
f 121 123 124 
f 122 124 125 
f 124 123 126 
f 126 123 127 
f 125 120 128 
f 120 127 128 
f 120 125 129 
f 125 124 129 
f 127 123 130 
f 125 128 130 
f 128 127 130 
f 124 126 131 
f 126 127 131 
f 120 129 131 
f 131 129 132 
f 129 124 132 
f 124 131 132 
f 122 125 133 
f 130 122 133 
f 125 130 133 
f 127 120 134 
f 120 131 134 
f 131 127 134 
f 123 122 135 
f 122 130 135 
o convex_11
v 3.178263 49.351568 1.658093
v 2.914777 61.996427 2.185066
v 2.651291 61.996427 2.185066
v 2.914777 49.351568 2.185066
v 2.651291 61.996427 1.658093
v 2.651291 49.351568 1.658093
v 3.178263 61.996427 1.658093
v 3.178263 49.351568 1.921580
v 2.651291 49.351568 2.185066
v 3.178263 61.996427 1.921580
f 143 142 145 
f 137 138 139 
f 138 137 140 
f 138 140 141 
f 136 139 141 
f 140 136 141 
f 136 140 142 
f 140 137 142 
f 137 139 143 
f 139 136 143 
f 136 142 143 
f 139 138 144 
f 138 141 144 
f 141 139 144 
f 142 137 145 
f 137 143 145 
o convex_12
v -1.301001 61.996427 2.712038
v -1.827974 -3.084647 2.185066
v -1.564487 -3.084647 2.185066
v -1.827974 -3.084647 2.712038
v -1.827974 61.996427 2.185066
v -1.827974 61.996427 2.712038
v -1.301001 -3.084647 2.712038
v -1.301001 61.996427 2.448552
v -1.564487 61.996427 2.185066
v -1.301001 -3.084647 2.448552
f 153 152 155 
f 147 148 149 
f 148 147 150 
f 147 149 150 
f 149 146 151 
f 146 150 151 
f 150 149 151 
f 149 148 152 
f 146 149 152 
f 150 146 153 
f 146 152 153 
f 148 150 154 
f 150 153 154 
f 153 148 154 
f 152 148 155 
f 148 153 155 
o convex_13
v 0.543402 62.523399 3.502496
v -0.510543 -3.611620 2.975524
v -0.510543 -3.611620 3.502496
v -0.510543 62.523399 2.975524
v 0.543402 -3.611620 2.975524
v 0.543402 -3.611620 3.502496
v -0.510543 62.523399 3.502496
v 0.543402 62.523399 2.975524
f 160 159 163 
f 157 158 159 
f 158 157 160 
f 157 159 160 
f 156 158 161 
f 160 156 161 
f 158 160 161 
f 158 156 162 
f 159 158 162 
f 156 159 162 
f 159 156 163 
f 156 160 163 
o convex_14
v 1.860910 -3.084750 -2.294198
v 2.651291 -3.348159 1.658093
v 2.651291 -3.611620 1.658093
v 1.333860 -3.348159 1.658093
v 1.333860 -3.611620 -2.294198
v 2.651291 -3.611620 -2.294198
v 2.651291 -3.084750 -1.766891
v 1.333860 -3.611620 1.658093
v 1.333860 -3.348159 -2.294198
v 2.651291 -3.084750 -2.294198
v 1.860910 -3.084750 -2.030351
v 2.387701 -3.084750 -1.766891
f 174 167 175 
f 166 165 167 
f 166 168 169 
f 165 166 169 
f 168 164 169 
f 167 165 170 
f 165 169 170 
f 166 167 171 
f 167 168 171 
f 168 166 171 
f 167 164 172 
f 164 168 172 
f 168 167 172 
f 169 164 173 
f 164 170 173 
f 170 169 173 
f 164 167 174 
f 170 164 174 
f 170 174 175 
f 167 170 175 
o convex_15
v 2.387753 61.996427 -1.767278
v 1.860832 -3.084647 -2.294198
v 2.651291 -3.084647 -2.294198
v 1.860832 61.996427 -2.294198
v 2.651291 -3.084647 -1.767278
v 2.651291 61.996427 -2.294198
v 1.860832 -3.084647 -2.030738
v 2.651291 61.996427 -1.767278
v 1.860832 61.996427 -2.030738
v 2.387753 -3.084647 -1.767278
f 182 180 185 
f 178 177 179 
f 177 178 180 
f 178 179 181 
f 179 176 181 
f 180 178 181 
f 179 177 182 
f 177 180 182 
f 176 180 183 
f 181 176 183 
f 180 181 183 
f 176 179 184 
f 179 182 184 
f 182 176 184 
f 180 176 185 
f 176 182 185 
o convex_16
v -2.618303 61.996427 -2.292625
v 1.333860 62.523399 2.974647
v 1.070021 62.523399 3.238365
v 1.070021 61.996427 3.238365
v 1.333860 61.996427 -3.084425
v -0.774141 62.523399 -3.348143
v -2.618303 62.523399 2.183492
v -2.354464 61.996427 2.447855
v 1.333860 62.523399 -3.084425
v -2.618303 62.523399 -2.292625
v -1.037206 62.523399 3.237076
v -0.774141 61.996427 -3.348143
v -1.037206 61.996427 3.237076
v 1.333860 61.996427 2.974647
v -2.618303 61.996427 2.183492
v 0.543118 61.996427 -3.347498
v 0.543118 62.523399 -3.347498
v -1.827561 62.523399 -2.820706
v -2.354464 62.523399 2.447855
v -1.827561 61.996427 -2.820706
v -0.774141 61.996427 3.239010
v -0.774141 62.523399 3.239010
v -0.511076 61.996427 -3.348143
v -0.511076 61.996427 3.239010
v -0.511076 62.523399 -3.348143
v -0.511076 62.523399 3.239010
f 207 209 211 
f 187 188 189 
f 189 186 190 
f 188 187 191 
f 188 191 192 
f 186 189 193 
f 187 190 194 
f 191 187 194 
f 192 191 195 
f 186 192 195 
f 188 192 196 
f 190 186 197 
f 193 189 198 
f 196 193 198 
f 187 189 199 
f 189 190 199 
f 190 187 199 
f 192 186 200 
f 186 193 200 
f 193 192 200 
f 194 190 201 
f 190 197 201 
f 191 194 202 
f 194 201 202 
f 186 195 203 
f 195 191 203 
f 191 197 203 
f 192 193 204 
f 196 192 204 
f 193 196 204 
f 197 186 205 
f 186 203 205 
f 203 197 205 
f 198 189 206 
f 196 198 206 
f 188 196 207 
f 196 206 207 
f 197 191 208 
f 201 197 208 
f 202 201 208 
f 189 188 209 
f 206 189 209 
f 207 206 209 
f 191 202 210 
f 208 191 210 
f 202 208 210 
f 188 207 211 
f 209 188 211 
o convex_17
v -1.564487 61.996427 -2.294198
v -1.827974 -3.084647 -2.821171
v -1.301001 -3.084647 -2.821171
v -1.827974 -3.084647 -2.294198
v -1.827974 61.996427 -2.821171
v -1.301001 61.996427 -2.821171
v -1.301001 -3.084647 -2.557685
v -1.827974 61.996427 -2.294198
v -1.564487 -3.084647 -2.294198
v -1.301001 61.996427 -2.557685
f 218 217 221 
f 213 214 215 
f 214 213 216 
f 213 215 216 
f 216 212 217 
f 214 216 217 
f 215 214 218 
f 214 217 218 
f 215 212 219 
f 212 216 219 
f 216 215 219 
f 212 215 220 
f 215 218 220 
f 218 212 220 
f 217 212 221 
f 212 218 221 
o convex_18
v -2.618122 -3.611620 -2.293270
v 1.333860 -3.084854 2.974647
v 1.070033 -3.084854 3.238365
v 1.070033 -3.611620 3.238365
v 1.333860 -3.611620 -3.084425
v -0.774045 -3.084854 -3.348143
v -2.618122 -3.084854 2.184137
v -2.354683 -3.611620 2.447855
v 1.333860 -3.084854 -3.084425
v -2.618122 -3.084854 -2.293270
v -0.774045 -3.084854 3.239010
v -0.774045 -3.611620 -3.348143
v 1.333860 -3.611620 2.974647
v -0.774045 -3.611620 3.239010
v -2.618122 -3.611620 2.184137
v 0.542767 -3.084854 -3.346209
v 0.542767 -3.611620 -3.346209
v -1.827030 -3.084854 -2.820706
v -2.354683 -3.084854 2.447855
v -1.827030 -3.611620 -2.820706
v -0.510992 -3.611620 -3.348143
v -0.510992 -3.084854 -3.348143
v -0.510992 -3.611620 3.239010
v -0.510992 -3.084854 3.239010
f 232 244 245 
f 223 224 225 
f 225 222 226 
f 224 223 227 
f 224 227 228 
f 222 225 229 
f 223 226 230 
f 227 223 230 
f 228 227 231 
f 222 228 231 
f 224 228 232 
f 226 222 233 
f 223 225 234 
f 225 226 234 
f 226 223 234 
f 229 225 235 
f 232 229 235 
f 228 222 236 
f 222 229 236 
f 229 228 236 
f 230 226 237 
f 227 230 237 
f 226 233 238 
f 237 226 238 
f 222 231 239 
f 231 227 239 
f 227 233 239 
f 228 229 240 
f 232 228 240 
f 229 232 240 
f 233 222 241 
f 222 239 241 
f 239 233 241 
f 233 227 242 
f 238 233 242 
f 237 238 242 
f 227 237 243 
f 242 227 243 
f 237 242 243 
f 225 224 244 
f 235 225 244 
f 232 235 244 
f 224 232 245 
f 244 224 245 
o convex_19
v -2.618432 -3.084647 -2.294198
v -2.354946 61.996427 -1.767278
v -2.354946 61.996427 -2.294198
v -2.618432 61.996427 -1.767278
v -2.354946 -3.084647 -1.767278
v -2.618432 61.996427 -2.294198
v -2.354946 -3.084647 -2.294198
v -2.618432 -3.084647 -1.767278
f 250 249 253 
f 247 248 249 
f 248 247 250 
f 247 249 250 
f 248 246 251 
f 249 248 251 
f 246 249 251 
f 246 248 252 
f 250 246 252 
f 248 250 252 
f 249 246 253 
f 246 250 253 
o convex_20
v -1.301001 -3.084647 -3.084657
v -1.037593 61.996427 -2.557685
v -1.037593 61.996427 -3.084657
v -1.301001 61.996427 -2.557685
v -1.037593 -3.084647 -2.557685
v -1.301001 -3.084647 -2.557685
v -1.037593 -3.084647 -3.084657
v -1.301001 61.996427 -3.084657
f 254 257 261 
f 255 256 257 
f 256 255 258 
f 255 257 258 
f 257 254 259 
f 254 258 259 
f 258 257 259 
f 254 256 260 
f 258 254 260 
f 256 258 260 
f 256 254 261 
f 257 256 261 
o convex_21
v -2.618432 -3.084647 1.921580
v -2.354946 61.996427 2.185066
v -2.354946 61.996427 1.921580
v -2.618432 61.996427 2.185066
v -2.354946 -3.084647 2.185066
v -2.618432 61.996427 1.921580
v -2.354946 -3.084647 1.921580
v -2.618432 -3.084647 2.185066
f 266 265 269 
f 263 264 265 
f 264 263 266 
f 263 265 266 
f 264 262 267 
f 265 264 267 
f 262 265 267 
f 262 264 268 
f 266 262 268 
f 264 266 268 
f 265 262 269 
f 262 266 269 
o convex_22
v -0.774029 61.996427 -2.821171
v -1.037515 -3.084647 -3.084657
v -0.774029 -3.084647 -3.084657
v -1.037515 61.996427 -3.084657
v -1.037515 -3.084647 -2.821171
v -0.774029 -3.084647 -2.821171
v -0.774029 61.996427 -3.084657
v -1.037515 61.996427 -2.821171
f 273 274 277 
f 272 271 273 
f 271 272 274 
f 273 271 274 
f 272 270 275 
f 270 274 275 
f 274 272 275 
f 270 272 276 
f 272 273 276 
f 273 270 276 
f 270 273 277 
f 274 270 277 
o convex_23
v 1.333860 61.996427 2.975318
v 0.543402 -3.084647 2.975318
v 1.070322 -3.084647 2.448552
v 1.070322 -3.084647 3.239010
v 0.543402 61.996427 2.975318
v 1.333860 61.996427 2.448552
v 0.543402 61.996427 3.239010
v 1.333860 -3.084647 2.975318
v 0.543402 -3.084647 3.239010
v 1.070322 61.996427 3.239010
v 1.333860 -3.084647 2.448552
v 1.070322 61.996427 2.448552
f 282 283 289 
f 279 280 281 
f 280 279 282 
f 282 278 283 
f 278 282 284 
f 282 279 284 
f 281 280 285 
f 278 281 285 
f 283 278 285 
f 279 281 286 
f 284 279 286 
f 281 284 286 
f 281 278 287 
f 284 281 287 
f 278 284 287 
f 280 283 288 
f 285 280 288 
f 283 285 288 
f 280 282 289 
f 283 280 289 
o convex_24
v -0.510543 61.996427 3.239010
v -0.774029 -3.084647 2.975524
v -0.510543 -3.084647 2.975524
v -0.774029 -3.084647 3.239010
v -0.774029 61.996427 2.975524
v -0.774029 61.996427 3.239010
v -0.510543 61.996427 2.975524
v -0.510543 -3.084647 3.239010
f 290 293 297 
f 291 292 293 
f 292 291 294 
f 291 293 294 
f 293 290 295 
f 290 294 295 
f 294 293 295 
f 290 292 296 
f 294 290 296 
f 292 294 296 
f 292 290 297 
f 293 292 297 
o convex_25
v -1.037515 -3.607777 1.921580
v -0.774029 35.643971 3.239010
v -0.774029 35.643971 2.711961
v -0.774029 -3.607777 3.239010
v -1.037515 35.643971 3.239010
v -1.037515 -3.607777 3.239010
v -0.774029 -3.607777 1.921580
v -1.037515 35.643971 2.711961
v -0.774029 -3.342666 1.921580
v -1.037515 -3.342666 1.921580
f 306 298 307 
f 300 299 301 
f 299 300 302 
f 301 299 302 
f 298 301 303 
f 302 298 303 
f 301 302 303 
f 300 301 304 
f 301 298 304 
f 298 302 305 
f 302 300 305 
f 304 298 306 
f 300 304 306 
f 305 300 306 
f 305 306 307 
f 298 305 307 
o convex_26
v 1.070322 61.996427 -2.557685
v 0.543402 -3.084647 -3.084657
v 1.333860 -3.084647 -3.084657
v 0.543402 61.996427 -3.084657
v 1.070322 -3.084647 -2.557685
v 1.333860 61.996427 -3.084657
v 1.333860 -3.084647 -2.557685
v 0.543402 -3.084647 -2.821171
v 1.333860 61.996427 -2.557685
v 0.543402 61.996427 -2.821171
f 315 312 317 
f 310 309 311 
f 309 310 312 
f 310 311 313 
f 311 308 313 
f 308 312 314 
f 312 310 314 
f 310 313 314 
f 311 309 315 
f 309 312 315 
f 313 308 316 
f 308 314 316 
f 314 313 316 
f 308 311 317 
f 312 308 317 
f 311 315 317 
o convex_27
v -2.091460 61.996427 -2.030738
v -2.354946 -3.084647 -2.294173
v -2.091460 -3.084647 -2.294173
v -2.354946 -3.084647 -2.030738
v -2.354946 61.996427 -2.294173
v -2.091460 -3.084647 -2.030738
v -2.091460 61.996427 -2.294173
v -2.354946 61.996427 -2.030738
f 322 321 325 
f 319 320 321 
f 320 319 322 
f 319 321 322 
f 320 318 323 
f 321 320 323 
f 318 321 323 
f 318 320 324 
f 322 318 324 
f 320 322 324 
f 321 318 325 
f 318 322 325 
o convex_28
v -2.091434 -3.084647 2.185066
v -1.827974 61.996427 2.448552
v -1.827974 61.996427 2.185066
v -1.827974 -3.084647 2.448552
v -2.091434 61.996427 2.448552
v -2.091434 -3.084647 2.448552
v -1.827974 -3.084647 2.185066
v -2.091434 61.996427 2.185066
f 330 328 333 
f 328 327 329 
f 327 328 330 
f 329 327 330 
f 326 329 331 
f 330 326 331 
f 329 330 331 
f 326 328 332 
f 328 329 332 
f 329 326 332 
f 328 326 333 
f 326 330 333 
o convex_29
v -2.354946 -3.084647 1.921580
v -2.091460 61.996427 2.448552
v -2.091460 61.996427 1.921580
v -2.354946 61.996427 2.448552
v -2.091460 -3.084647 2.448552
v -2.354946 -3.084647 2.448552
v -2.091460 -3.084647 1.921580
v -2.354946 61.996427 1.921580
f 334 337 341 
f 335 336 337 
f 336 335 338 
f 335 337 338 
f 337 334 339 
f 334 338 339 
f 338 337 339 
f 334 336 340 
f 338 334 340 
f 336 338 340 
f 336 334 341 
f 337 336 341 
o convex_30
v -0.774029 -3.084647 -3.348143
v -0.510543 61.996427 -2.821325
v -0.510543 61.996427 -3.348143
v -0.774029 61.996427 -2.821325
v -0.510543 -3.084647 -2.821325
v -0.774029 61.996427 -3.348143
v -0.510543 -3.084647 -3.348143
v -0.774029 -3.084647 -2.821325
f 346 345 349 
f 343 344 345 
f 344 343 346 
f 343 345 346 
f 344 342 347 
f 345 344 347 
f 342 345 347 
f 342 344 348 
f 346 342 348 
f 344 346 348 
f 345 342 349 
f 342 346 349 
o convex_31
v -2.091434 -3.084647 -2.557530
v -1.827974 61.996427 -2.030712
v -1.827974 61.996427 -2.557530
v -2.091434 61.996427 -2.030712
v -1.827974 -3.084647 -2.030712
v -2.091434 61.996427 -2.557530
v -1.827974 -3.084647 -2.557530
v -2.091434 -3.084647 -2.030712
f 354 353 357 
f 351 352 353 
f 352 351 354 
f 351 353 354 
f 352 350 355 
f 353 352 355 
f 350 353 355 
f 350 352 356 
f 354 350 356 
f 352 354 356 
f 353 350 357 
f 350 354 357 
o convex_32
v -1.037515 35.650393 2.712038
v -0.774029 61.996427 3.239010
v -1.037515 61.996427 3.239010
v -0.774029 35.650393 3.239010
v -0.774029 61.996427 2.712038
v -0.774029 35.650393 2.712038
v -1.037515 35.650393 3.239010
v -1.037515 61.996427 2.712038
f 360 362 365 
f 359 360 361 
f 360 359 362 
f 359 361 362 
f 361 358 363 
f 358 362 363 
f 362 361 363 
f 360 358 364 
f 361 360 364 
f 358 361 364 
f 358 360 365 
f 362 358 365 
