o convex_0
v 24.861099 44.013608 -26.329694
v -27.329754 39.998655 -30.344254
v -27.329754 39.998655 -26.329694
v 27.541271 39.998655 -30.344254
v -25.986983 44.013608 -27.667881
v -24.649582 41.337235 -23.652666
v 27.541271 39.998655 -26.329694
v -25.986983 44.013608 -23.652666
v 27.541271 41.337235 -30.344254
v -27.329754 41.337235 -30.344254
v 24.861099 44.013608 -27.667881
v -23.312181 44.013608 -23.652666
v 27.541271 41.337235 -26.329694
v -25.986983 41.337235 -23.652666
v -27.329754 41.337235 -26.329694
v -23.312181 42.675029 -23.652666
f 12 6 16 
f 3 2 4 
f 3 4 7 
f 6 3 7 
f 1 5 8 
f 4 2 9 
f 7 4 9 
f 2 3 10 
f 8 5 10 
f 9 2 10 
f 5 9 10 
f 5 1 11 
f 9 5 11 
f 8 6 12 
f 1 8 12 
f 7 9 13 
f 11 1 13 
f 9 11 13 
f 1 12 13 
f 12 7 13 
f 3 6 14 
f 6 8 14 
f 8 3 14 
f 3 8 15 
f 10 3 15 
f 8 10 15 
f 6 7 16 
f 7 12 16 
o convex_1
v -31.339205 181.862297 -33.021675
v 28.879589 201.931429 -34.358421
v 28.879589 200.593487 -31.682965
v -32.683025 201.931429 -31.682965
v -32.683025 201.931429 -35.696739
v 28.879589 184.540146 -31.682965
v 28.879589 199.255545 -35.696739
v -31.339205 181.862297 -31.682965
v 28.879589 184.540146 -33.021675
v -32.683025 199.253580 -35.696739
v 28.879589 201.931429 -35.696739
v -23.312443 181.862297 -33.021675
v -23.312443 181.862297 -31.682965
v -32.683025 199.253580 -31.682965
v -31.339205 201.931429 -31.682965
v -23.312443 199.253580 -35.696739
f 28 26 32 
f 20 18 21 
f 18 19 22 
f 19 20 22 
f 18 22 23 
f 22 20 24 
f 23 22 25 
f 20 21 26 
f 21 23 26 
f 17 24 26 
f 21 18 27 
f 23 21 27 
f 18 23 27 
f 24 17 28 
f 25 22 28 
f 23 25 28 
f 17 26 28 
f 22 24 29 
f 24 28 29 
f 28 22 29 
f 24 20 30 
f 20 26 30 
f 26 24 30 
f 19 18 31 
f 20 19 31 
f 18 20 31 
f 26 23 32 
f 23 28 32 
o convex_2
v -30.006652 201.931429 35.233313
v -31.344708 181.862297 24.523890
v -30.006652 181.862297 24.523890
v -31.344708 201.931429 -31.682572
v -32.682501 201.931429 35.233313
v -30.006652 184.540146 -31.682572
v -32.682501 199.255545 -31.682572
v -30.006652 200.593487 -31.682572
v -31.344708 184.540146 -31.682572
v -31.344708 181.862297 32.554320
v -32.682501 199.253580 35.233313
v -32.682501 201.931429 -31.682572
v -30.006652 181.862297 32.554320
v -30.006652 199.253580 35.233313
v -30.006652 201.931429 33.890542
v -32.682501 199.253580 24.523890
f 34 43 48 
f 33 36 37 
f 33 35 38 
f 35 34 38 
f 36 38 39 
f 33 38 40 
f 38 36 40 
f 38 34 41 
f 39 38 41 
f 34 39 41 
f 34 35 42 
f 33 37 43 
f 37 39 43 
f 34 42 43 
f 37 36 44 
f 36 39 44 
f 39 37 44 
f 35 33 45 
f 42 35 45 
f 43 42 45 
f 43 45 46 
f 33 43 46 
f 45 33 46 
f 36 33 47 
f 33 40 47 
f 40 36 47 
f 39 34 48 
f 43 39 48 
o convex_3
v 30.217907 184.536967 32.556678
v -30.006390 181.860332 24.526772
v -30.006390 181.860332 32.556678
v 30.217907 181.860332 24.526772
v -30.006390 184.536967 31.217312
v 30.217907 184.536967 24.526772
v 30.217907 181.860332 32.556678
v -30.006390 183.198649 24.526772
v -30.006390 184.536967 32.556678
v 28.873825 184.536967 24.526772
f 54 56 58 
f 51 50 52 
f 50 51 53 
f 52 50 54 
f 49 52 54 
f 53 49 54 
f 49 51 55 
f 51 52 55 
f 52 49 55 
f 50 53 56 
f 54 50 56 
f 51 49 57 
f 49 53 57 
f 53 51 57 
f 53 54 58 
f 56 53 58 
o convex_4
v -21.976942 50.705197 -8.932874
v -25.990651 41.336973 -23.652142
v -24.652923 41.336973 -23.652142
v -25.990651 41.336973 21.844241
v -20.638166 44.013739 -26.324192
v -23.314670 50.705197 -26.324192
v -23.314670 48.027513 25.865089
v -24.652923 48.027513 25.865089
v -23.314670 42.675815 21.844241
v -25.990651 44.014656 -23.652142
v -20.638166 50.705197 -23.647033
v -24.652923 41.336973 21.844241
v -25.990651 44.014656 21.844241
v -24.652923 48.027513 -26.329301
v -23.314670 44.014656 25.865089
v -23.314670 50.705197 -8.932874
v -20.638166 50.705197 -26.324192
v -24.652923 44.014656 -26.329301
v -20.638166 44.013739 -24.985612
v -24.652923 44.014656 25.865089
v -20.638166 49.365438 -23.647033
v -23.314670 44.014656 -26.329301
v -23.314670 48.027513 -26.329301
f 80 72 81 
f 60 61 62 
f 60 62 68 
f 64 59 69 
f 59 65 69 
f 62 61 70 
f 61 63 70 
f 62 66 71 
f 68 62 71 
f 66 68 71 
f 66 64 72 
f 60 68 72 
f 68 66 72 
f 65 66 73 
f 69 65 73 
f 62 70 73 
f 70 67 73 
f 59 64 74 
f 65 59 74 
f 64 66 74 
f 66 65 74 
f 64 69 75 
f 69 63 75 
f 72 64 75 
f 61 60 76 
f 60 72 76 
f 63 69 77 
f 70 63 77 
f 67 70 77 
f 73 67 77 
f 66 62 78 
f 62 73 78 
f 73 66 78 
f 69 73 79 
f 77 69 79 
f 73 77 79 
f 63 61 80 
f 75 63 80 
f 61 76 80 
f 76 72 80 
f 72 75 81 
f 75 80 81 
o convex_5
v -11.269942 169.803813 -23.652666
v -23.314801 50.705197 -24.990983
v -23.314801 50.705197 -22.314348
v -11.269942 50.705197 -24.990983
v -23.314801 169.803813 -24.990983
v -23.314801 169.803813 -22.314348
v -11.269942 50.705197 -23.652666
v -11.269942 169.803813 -24.990983
v -21.974257 169.803813 -22.314348
v -21.974257 50.705197 -22.314348
f 90 84 91 
f 84 83 85 
f 83 84 86 
f 85 83 86 
f 82 86 87 
f 86 84 87 
f 84 85 88 
f 85 82 88 
f 82 85 89 
f 86 82 89 
f 85 86 89 
f 82 87 90 
f 87 84 90 
f 88 82 91 
f 84 88 91 
f 82 90 91 
o convex_6
v 23.526318 169.803813 21.850136
v 15.496412 50.705197 23.188454
v 15.496412 50.705197 24.526772
v 15.496412 169.803813 23.188454
v 23.526318 50.705197 24.526772
v 23.526318 169.803813 24.526772
v 23.526318 50.705197 21.850136
v 15.496412 169.803813 24.526772
v 22.186952 169.803813 21.850136
v 22.186952 50.705197 21.850136
f 93 100 101 
f 93 94 95 
f 94 93 96 
f 94 96 97 
f 92 95 97 
f 96 92 97 
f 92 96 98 
f 96 93 98 
f 95 94 99 
f 94 97 99 
f 97 95 99 
f 93 95 100 
f 95 92 100 
f 92 98 100 
f 100 98 101 
f 98 93 101 
o convex_7
v -31.344708 184.536967 -31.682572
v -23.314801 183.198649 24.526772
v -23.314801 181.860332 24.526772
v -23.314801 183.198649 -31.682572
v -31.344708 181.860332 24.526772
v -31.344708 181.860332 -31.682572
v -31.344708 184.536967 24.526772
v -23.314801 181.860332 -31.682572
v -30.005342 184.536967 -31.682572
v -30.005342 184.536967 24.526772
f 103 110 111 
f 103 104 105 
f 104 103 106 
f 104 106 107 
f 102 105 107 
f 106 102 107 
f 102 106 108 
f 106 103 108 
f 105 104 109 
f 104 107 109 
f 107 105 109 
f 103 105 110 
f 105 102 110 
f 102 108 110 
f 110 108 111 
f 108 103 111 
o convex_8
v -1.901718 13.231515 -26.329301
v 26.202954 2.527594 25.865089
v 4.791573 13.231515 -14.276975
v 26.202954 1.187442 -26.329301
v 22.183677 1.187442 20.510771
v 22.183677 1.187442 -26.329301
v 26.202954 2.527594 -26.329301
v -1.901718 15.908937 -24.985612
v -0.561959 15.908937 -26.329301
v 24.860444 1.187442 25.865089
v 0.777799 11.892804 -18.297823
v 2.114807 13.231515 -15.620663
v 24.860444 2.527594 25.865089
v 26.202954 1.187442 25.865089
v 19.509662 2.527594 16.489922
v -1.901718 13.231515 -23.647033
v 3.451815 13.231515 -14.276975
v 19.509662 3.864863 16.489922
v 11.482114 6.540844 1.765546
v -0.561959 14.570226 -20.969873
v -0.561959 15.908937 -24.985612
v -1.901718 15.908937 -26.329301
v 2.114807 11.892804 -15.620663
v -1.901718 14.570226 -23.647033
v 11.482114 7.879554 1.765546
f 123 130 136 
f 112 115 117 
f 115 116 117 
f 113 115 118 
f 115 112 118 
f 118 112 120 
f 113 118 120 
f 116 115 121 
f 113 114 124 
f 121 113 124 
f 115 113 125 
f 113 121 125 
f 121 115 125 
f 116 121 126 
f 121 124 126 
f 112 117 127 
f 117 116 127 
f 119 112 127 
f 114 119 128 
f 124 114 128 
f 123 124 128 
f 124 123 129 
f 126 124 129 
f 116 126 130 
f 127 116 130 
f 122 127 130 
f 128 119 131 
f 123 128 131 
f 114 113 132 
f 119 114 132 
f 113 120 132 
f 120 119 132 
f 112 119 133 
f 120 112 133 
f 119 120 133 
f 127 122 134 
f 123 127 134 
f 122 130 134 
f 130 123 134 
f 119 127 135 
f 127 123 135 
f 131 119 135 
f 123 131 135 
f 129 123 136 
f 126 129 136 
f 130 126 136 
o convex_9
v 31.555569 201.935097 -24.987138
v 28.879982 181.865833 -33.009613
v 30.218169 181.865833 -33.009613
v 28.879589 181.865833 24.521139
v 28.879589 201.935097 -35.697525
v 32.894542 201.931168 24.521139
v 28.879589 200.591252 24.521139
v 32.894542 199.257231 -35.697525
v 30.218562 181.865833 24.521139
v 32.894542 199.253301 24.521139
v 32.894542 201.935097 -35.697525
v 31.555569 201.931168 24.521139
v 28.879589 199.257231 -35.697525
v 28.879589 201.935097 -34.353569
v 32.894542 199.253301 -24.987138
v 28.879589 181.865833 -24.987138
v 30.218562 181.865833 -24.987138
v 32.894542 201.935097 -24.987138
f 142 147 154 
f 138 139 140 
f 141 140 143 
f 140 142 143 
f 139 138 144 
f 140 139 145 
f 142 140 145 
f 144 142 146 
f 142 145 146 
f 141 137 147 
f 144 141 147 
f 142 144 147 
f 142 137 148 
f 143 142 148 
f 140 141 149 
f 144 138 149 
f 141 144 149 
f 137 141 150 
f 141 143 150 
f 148 137 150 
f 143 148 150 
f 139 144 151 
f 144 146 151 
f 146 145 151 
f 138 140 152 
f 149 138 152 
f 140 149 152 
f 145 139 153 
f 139 151 153 
f 151 145 153 
f 137 142 154 
f 147 137 154 
o convex_10
v -24.653119 14.573108 31.218360
v 23.526318 39.996166 31.218360
v 23.526318 39.996166 29.880042
v -24.653119 39.996166 31.218360
v 23.526318 14.573108 32.556678
v -24.653119 38.657194 32.556678
v -24.653119 39.996166 29.880042
v 23.526318 14.573108 31.218360
v 23.526318 38.657194 32.556678
v -24.653119 14.573108 32.556678
v 23.526318 37.318221 29.880042
v -24.653119 37.318221 29.880042
f 161 165 166 
f 156 157 158 
f 157 156 159 
f 156 158 160 
f 158 155 160 
f 158 157 161 
f 155 158 161 
f 159 155 162 
f 157 159 162 
f 159 156 163 
f 156 160 163 
f 160 159 163 
f 155 159 164 
f 159 160 164 
f 160 155 164 
f 161 157 165 
f 157 162 165 
f 165 162 166 
f 155 161 166 
f 162 155 166 
o convex_11
v -30.000757 184.538670 31.218360
v 27.535638 201.933394 35.233313
v 27.535638 199.256759 35.233313
v -30.000757 201.933394 35.233313
v 27.535638 200.593374 31.218360
v 27.535638 184.538670 32.556940
v -30.000757 200.593374 31.218360
v -30.000757 184.538670 32.556940
v 27.535638 184.538670 31.218360
v -30.000757 199.256759 35.233313
v 27.535638 201.933394 33.894734
v -30.000757 201.933394 33.894734
f 170 177 178 
f 169 168 170 
f 168 169 171 
f 171 169 172 
f 167 170 173 
f 171 167 173 
f 170 167 174 
f 172 169 174 
f 167 172 174 
f 167 171 175 
f 172 167 175 
f 171 172 175 
f 169 170 176 
f 174 169 176 
f 170 174 176 
f 170 168 177 
f 168 171 177 
f 171 173 177 
f 177 173 178 
f 173 170 178 
o convex_12
v 4.788822 151.074571 19.173501
v -4.578354 128.332208 21.850136
v -4.578354 128.332208 23.187406
v -4.578354 155.093323 23.187930
v 6.128188 128.332208 24.526772
v -4.576257 129.673539 19.174025
v 6.128188 148.397149 24.526772
v 4.785678 129.673539 19.174025
v -4.578354 153.751992 19.174025
v 4.788822 155.093323 23.187930
v 0.774917 128.332208 24.526772
v 4.787774 153.754612 19.173501
v 6.128188 128.332208 23.187406
v 3.450505 148.397149 24.526772
v 6.128188 148.397149 23.187406
v 4.788822 155.093323 21.850136
v -4.578354 155.093323 21.850136
v 4.785678 128.332208 21.850136
v 0.774917 129.673539 24.526772
v 4.788822 136.361852 19.173501
v -0.561304 153.754612 19.173501
v -4.578354 136.361852 19.174025
v -4.578354 148.402389 23.187930
v 3.450505 136.361852 19.173501
v -0.561304 152.415901 19.173501
f 202 184 203 
f 180 181 182 
f 181 180 183 
f 180 184 186 
f 180 182 187 
f 182 185 188 
f 181 183 189 
f 183 185 189 
f 183 180 191 
f 185 183 191 
f 185 182 192 
f 189 185 192 
f 188 185 193 
f 179 190 193 
f 185 191 193 
f 191 179 193 
f 182 188 194 
f 188 193 194 
f 193 190 194 
f 187 182 195 
f 182 194 195 
f 194 190 195 
f 180 186 196 
f 191 180 196 
f 186 191 196 
f 182 189 197 
f 192 182 197 
f 189 192 197 
f 186 184 198 
f 190 179 198 
f 179 191 198 
f 191 186 198 
f 187 195 199 
f 195 190 199 
f 190 198 199 
f 184 180 200 
f 180 187 200 
f 187 199 200 
f 182 181 201 
f 181 189 201 
f 189 182 201 
f 198 184 202 
f 199 198 202 
f 199 202 203 
f 184 200 203 
f 200 199 203 
o convex_13
v 26.200596 2.525760 -26.329301
v -30.000757 -1.489194 -33.020890
v -30.000757 -1.489194 -26.329301
v 27.535638 -1.489194 -33.020890
v -4.572982 3.864077 -33.020890
v 27.535638 -1.489194 -26.329301
v -30.000757 1.187442 -26.329301
v 27.535638 3.864077 -33.020890
v 19.508483 3.864077 -26.329301
v -30.000757 1.187442 -33.020890
v -4.572982 3.864077 -31.680738
v 23.524877 3.864077 -26.329301
v 27.535638 1.187442 -26.329301
v 27.535638 3.864077 -31.680738
f 204 216 217 
f 206 205 207 
f 207 205 208 
f 204 206 209 
f 206 207 209 
f 206 204 210 
f 205 206 210 
f 207 208 211 
f 209 207 211 
f 210 204 212 
f 211 208 212 
f 208 205 213 
f 205 210 213 
f 210 208 213 
f 208 210 214 
f 210 212 214 
f 212 208 214 
f 212 204 215 
f 211 212 215 
f 204 209 216 
f 209 211 216 
f 216 211 217 
f 215 204 217 
f 211 215 217 
o convex_14
v -23.314801 50.717397 -22.310025
v -21.976484 50.709407 21.850136
v -23.314801 50.709407 21.850136
v -21.976484 128.304440 21.841491
v -23.314801 128.304440 21.841491
v -21.976484 128.304440 -22.310025
v -21.976484 50.717397 -22.310025
v -23.314801 128.304440 -22.310025
v -23.314801 46.690637 -8.927110
v -21.976484 46.690637 21.850136
v -21.976484 46.690637 -8.927110
v -23.314801 46.690637 21.850136
f 227 220 229 
f 220 219 221 
f 218 220 222 
f 220 221 222 
f 221 219 223 
f 222 221 223 
f 223 219 224 
f 218 223 224 
f 218 222 225 
f 223 218 225 
f 222 223 225 
f 220 218 226 
f 218 224 226 
f 219 220 227 
f 224 219 227 
f 226 224 228 
f 224 227 228 
f 227 226 228 
f 220 226 229 
f 226 227 229 
o convex_15
v 4.787905 169.815472 -23.652797
v -11.269942 50.712795 -24.990852
v 16.834730 50.712795 -24.990852
v -11.269942 50.712795 -23.652797
v -11.269942 169.792155 -24.990852
v 16.834730 50.712795 -23.652797
v 16.834730 169.803814 -24.990852
v -11.269942 169.792155 -23.652797
v 16.834730 169.803814 -23.652797
v -4.576651 169.815472 -24.990852
v -4.576651 169.815472 -23.652797
v 4.787905 169.815472 -24.990852
f 236 239 241 
f 231 232 233 
f 232 231 234 
f 231 233 234 
f 233 232 235 
f 230 233 235 
f 232 234 236 
f 235 232 236 
f 233 230 237 
f 234 233 237 
f 230 235 238 
f 236 230 238 
f 235 236 238 
f 236 234 239 
f 234 237 239 
f 239 237 240 
f 237 230 240 
f 230 239 240 
f 230 236 241 
f 239 230 241 
o convex_16
v 23.526318 169.803813 -22.314348
v 16.834730 50.705197 -24.990983
v 16.834730 50.705197 -23.652666
v 16.834730 169.803813 -24.990983
v 23.526318 50.705197 -24.990983
v 23.526318 169.803813 -24.990983
v 23.526318 50.705197 -22.314348
v 16.834730 169.803813 -23.652666
v 22.186821 50.705197 -22.314348
v 22.186821 169.803813 -22.314348
f 244 250 251 
f 243 244 245 
f 244 243 246 
f 243 245 246 
f 245 242 247 
f 242 246 247 
f 246 245 247 
f 246 242 248 
f 244 246 248 
f 245 244 249 
f 242 245 249 
f 248 242 250 
f 244 248 250 
f 242 249 251 
f 249 244 251 
f 250 242 251 
o convex_17
v -16.623868 169.803813 23.188454
v -23.314146 50.705197 21.850136
v -23.314146 50.705197 24.526772
v -23.314146 169.803813 21.850136
v -23.314146 169.803813 24.526772
v -16.623868 50.705197 24.526772
v -16.623868 50.705197 23.188454
v -16.623868 169.803813 24.526772
v -21.975436 50.705197 21.850136
v -21.975436 169.803813 21.850136
f 252 260 261 
f 253 254 255 
f 252 255 256 
f 255 254 256 
f 256 254 257 
f 254 253 257 
f 252 257 258 
f 257 253 258 
f 252 256 259 
f 256 257 259 
f 257 252 259 
f 253 255 260 
f 252 258 260 
f 258 253 260 
f 255 252 261 
f 260 255 261 
o convex_18
v 6.127140 169.813376 24.526772
v -16.623213 50.712795 23.188454
v 15.496412 50.712795 23.188454
v -4.578354 169.813376 23.188454
v -16.623213 50.712795 24.526772
v -16.623213 169.790060 24.526772
v 15.496412 50.712795 24.526772
v 15.496412 169.801718 23.188454
v -16.623213 169.790060 23.188454
v 15.496412 169.801718 24.526772
v -4.578354 169.813376 24.526772
v 6.127140 169.813376 23.188454
f 262 269 273 
f 264 263 265 
f 263 264 266 
f 263 266 267 
f 266 262 267 
f 262 266 268 
f 266 264 268 
f 264 265 269 
f 268 264 269 
f 265 263 270 
f 263 267 270 
f 267 265 270 
f 262 268 271 
f 269 262 271 
f 268 269 271 
f 262 265 272 
f 265 267 272 
f 267 262 272 
f 265 262 273 
f 269 265 273 
o convex_19
v 22.188001 169.803814 -22.310025
v 23.526318 169.792155 21.845813
v 23.526318 169.815472 5.788752
v 23.526318 50.712795 -22.310025
v 22.188001 50.712795 21.845813
v 22.188001 169.792155 21.845813
v 22.188001 50.712795 -22.310025
v 23.526318 50.712795 21.845813
v 23.526318 169.803814 -22.310025
v 22.188001 169.815472 -2.237618
v 22.188001 169.815472 5.788752
v 23.526318 169.815472 -2.237618
f 282 283 285 
f 276 275 277 
f 278 275 279 
f 275 276 279 
f 274 278 279 
f 274 277 280 
f 278 274 280 
f 277 278 280 
f 277 275 281 
f 278 277 281 
f 275 278 281 
f 276 277 282 
f 277 274 282 
f 274 279 283 
f 282 274 283 
f 279 276 284 
f 283 279 284 
f 276 283 284 
f 276 282 285 
f 283 276 285 
o convex_20
v 28.879589 183.198649 -24.990983
v -23.314801 181.860332 -33.020890
v -23.314801 184.536967 -33.020890
v 28.879589 181.860332 -33.020890
v -23.314801 181.860332 -24.990983
v 28.879589 184.536967 -33.020890
v 28.879589 181.860332 -24.990983
v -23.314801 183.198649 -24.990983
v -23.314801 184.536967 -31.681524
v 28.879589 184.536967 -31.681524
f 291 294 295 
f 287 288 289 
f 288 287 290 
f 287 289 290 
f 289 288 291 
f 286 289 291 
f 289 286 292 
f 286 290 292 
f 290 289 292 
f 290 286 293 
f 288 290 293 
f 291 288 294 
f 293 286 294 
f 288 293 294 
f 286 291 295 
f 294 286 295 
o convex_21
v -21.976484 183.198649 -0.901265
v -23.314801 169.816782 -24.990983
v -23.314801 183.198649 -24.990983
v -20.638166 169.816782 -24.990983
v -23.314801 169.816782 -0.901265
v -20.638166 183.198649 -24.990983
v -23.314801 183.198649 -0.901265
v -21.976484 169.816782 -0.901265
v -20.638166 169.816782 -23.651618
v -20.638166 183.198649 -23.651618
f 304 301 305 
f 297 298 299 
f 298 297 300 
f 297 299 300 
f 298 296 301 
f 299 298 301 
f 296 298 302 
f 300 296 302 
f 298 300 302 
f 296 300 303 
f 300 299 303 
f 299 301 304 
f 296 303 304 
f 303 299 304 
f 301 296 305 
f 296 304 305 
o convex_22
v -4.578354 3.865387 -33.020890
v 27.541271 17.247254 -31.682703
v 12.817681 9.219444 -26.329301
v -4.578354 17.245944 -29.006984
v 27.541271 3.864077 -33.020890
v -4.578354 17.245944 -33.020890
v 20.847587 3.865387 -26.329301
v -3.235844 15.907103 -26.329301
v 27.541271 17.247254 -33.020890
v -4.578354 3.865387 -31.682703
v 16.829490 3.865387 -26.329301
v -1.896478 13.230729 -26.329301
v 27.541271 3.864077 -31.682703
v -0.560256 15.907103 -26.329301
v 20.847587 5.204229 -26.329301
v -3.235844 14.568261 -26.329301
v -4.578354 14.568261 -29.006984
v -3.235844 17.245944 -29.006984
v 8.805872 17.247254 -31.682703
v 20.847587 3.864077 -31.682703
v 8.805872 17.247254 -33.020890
v 20.847587 3.864077 -33.020890
f 310 325 327 
f 306 309 311 
f 310 306 311 
f 312 308 313 
f 307 310 314 
f 310 311 314 
f 309 306 315 
f 312 313 316 
f 316 313 317 
f 315 316 317 
f 310 307 318 
f 307 312 318 
f 312 316 318 
f 308 307 319 
f 313 308 319 
f 309 313 319 
f 307 308 320 
f 308 312 320 
f 312 307 320 
f 317 313 321 
f 315 317 321 
f 313 309 322 
f 309 315 322 
f 321 313 322 
f 315 321 322 
f 307 309 323 
f 319 307 323 
f 309 319 323 
f 309 307 324 
f 311 309 324 
f 307 314 324 
f 315 306 325 
f 316 315 325 
f 310 318 325 
f 318 316 325 
f 314 311 326 
f 311 324 326 
f 324 314 326 
f 306 310 327 
f 325 306 327 
o convex_23
v 27.540223 41.336580 29.878994
v 23.526318 14.573239 31.216526
v 28.877755 14.573239 25.865089
v 30.217907 14.573239 32.556678
v 23.526318 41.336580 27.205241
v 30.217907 38.658936 25.865089
v 23.526318 38.658936 32.556678
v 30.217907 38.658936 32.556678
v 30.217907 14.573239 25.865089
v 23.526318 14.573239 32.556678
v 24.866470 39.997758 25.865089
v 27.540223 41.336580 25.865089
v 23.526318 41.336580 29.878994
v 23.526318 39.997758 27.205241
v 24.866470 41.336580 25.865089
f 332 339 342 
f 329 330 331 
f 332 329 334 
f 331 333 335 
f 334 331 335 
f 328 334 335 
f 331 330 336 
f 330 333 336 
f 333 331 336 
f 329 331 337 
f 334 329 337 
f 331 334 337 
f 330 329 338 
f 333 330 338 
f 333 338 339 
f 332 328 339 
f 335 333 339 
f 328 335 339 
f 328 332 340 
f 334 328 340 
f 332 334 340 
f 329 332 341 
f 338 329 341 
f 332 338 341 
f 338 332 342 
f 339 338 342 
o convex_24
v 23.526318 181.860463 -24.990983
v 28.879589 183.198649 24.526772
v 28.879589 181.860463 24.526772
v 28.879589 183.198649 -24.990983
v 23.526318 183.198649 24.526772
v 23.526318 181.860463 24.526772
v 28.879589 181.860463 -24.990983
v 23.526318 183.198649 -24.990983
f 347 346 350 
f 344 345 346 
f 345 344 347 
f 344 346 347 
f 343 345 348 
f 347 343 348 
f 345 347 348 
f 345 343 349 
f 346 345 349 
f 343 346 349 
f 346 343 350 
f 343 347 350 
o convex_25
v 27.541271 184.538277 31.216264
v 32.894542 201.935097 35.233313
v 32.894542 201.935097 24.526772
v 27.541271 201.935097 35.233313
v 28.880113 200.594915 24.526772
v 30.217907 184.538277 24.526772
v 30.217907 184.538277 32.555630
v 32.894542 199.258139 35.233313
v 28.879589 184.538277 24.526772
v 27.541271 200.594915 31.217312
v 27.541271 184.538277 32.555630
v 32.894542 199.258139 24.526772
v 27.541271 199.258139 35.233313
v 31.556224 201.935097 24.526772
v 27.541271 201.935097 33.893948
v 28.879589 197.919660 24.526772
v 27.541271 197.919660 31.216264
f 366 351 367 
f 352 353 354 
f 355 353 356 
f 351 356 357 
f 353 352 358 
f 352 354 358 
f 357 356 358 
f 355 356 359 
f 356 351 359 
f 351 354 360 
f 354 351 361 
f 351 357 361 
f 356 353 362 
f 353 358 362 
f 358 356 362 
f 358 354 363 
f 357 358 363 
f 354 361 363 
f 361 357 363 
f 354 353 364 
f 353 355 364 
f 364 355 365 
f 360 354 365 
f 355 360 365 
f 354 364 365 
f 359 351 366 
f 355 359 366 
f 360 355 366 
f 360 366 367 
f 351 360 367 
o convex_26
v -23.310478 169.816782 21.850136
v 20.845360 183.198649 24.526772
v 20.845360 169.816782 24.526772
v -23.310478 169.816782 24.526772
v -21.970589 183.198649 21.850136
v -23.310478 183.198649 24.526772
v 20.845360 169.816782 23.188454
v 20.845360 183.198649 23.188454
v -23.310478 183.198649 21.850136
v -21.970589 169.816782 21.850136
f 372 374 377 
f 370 369 371 
f 368 370 371 
f 369 372 373 
f 371 369 373 
f 368 371 373 
f 370 368 374 
f 369 370 374 
f 374 372 375 
f 372 369 375 
f 369 374 375 
f 372 368 376 
f 373 372 376 
f 368 373 376 
f 368 372 377 
f 374 368 377 
o convex_27
v -30.006390 1.187442 -33.020890
v -25.991437 39.998655 -26.329301
v -28.667810 39.998655 -26.329301
v -28.667810 1.187442 -26.329301
v -25.991437 38.657586 -33.020890
v -25.991437 1.187442 -33.020890
v -30.006390 38.657586 -33.020890
v -30.006390 38.657586 -26.329301
v -30.006390 1.187442 -26.329301
v -25.991437 1.187442 -31.681393
v -25.991437 39.998655 -31.681393
v -25.991437 38.657586 -26.329301
v -28.667810 39.998655 -31.681393
f 388 384 390 
f 379 380 381 
f 382 379 383 
f 381 378 383 
f 378 382 383 
f 382 378 384 
f 381 380 385 
f 380 384 385 
f 384 378 385 
f 378 381 386 
f 381 385 386 
f 385 378 386 
f 383 379 387 
f 381 383 387 
f 380 379 388 
f 379 382 388 
f 382 384 388 
f 379 381 389 
f 387 379 389 
f 381 387 389 
f 384 380 390 
f 380 388 390 
o convex_28
v 28.878541 39.994594 -26.329301
v 22.188001 17.252625 -33.020890
v 27.540747 -1.485133 -33.020890
v 30.217907 38.654442 -33.020890
v 30.217907 -1.485133 -26.329301
v 23.527366 39.994594 -26.329301
v 22.188001 38.654442 -33.020890
v 27.540747 -1.485133 -26.329301
v 30.217907 -1.485133 -33.020890
v 30.217907 38.654442 -26.329301
v 22.188001 17.252625 -31.680738
v 22.188001 39.994594 -29.006984
v 23.527366 35.982261 -26.329301
v 28.878541 39.994594 -31.680738
v 22.188001 39.994594 -31.680738
v 22.188001 38.654442 -29.006984
f 403 402 406 
f 393 392 394 
f 395 391 396 
f 394 392 397 
f 392 393 398 
f 393 395 398 
f 395 396 398 
f 393 394 399 
f 394 395 399 
f 395 393 399 
f 394 391 400 
f 391 395 400 
f 395 394 400 
f 397 392 401 
f 392 398 401 
f 396 391 402 
f 397 401 402 
f 398 396 403 
f 401 398 403 
f 396 402 403 
f 391 394 404 
f 394 397 404 
f 402 391 404 
f 402 404 405 
f 397 402 405 
f 404 397 405 
f 402 401 406 
f 401 403 406 
o convex_29
v -13.946577 27.955468 -33.020497
v -4.576913 39.997476 -29.005936
v 22.188001 39.995249 -29.005936
v -4.576913 17.249481 -31.682048
v 22.188001 38.657001 -33.020497
v 22.188001 17.249481 -33.020497
v -13.946577 38.657001 -33.020497
v -13.946577 38.657001 -29.005936
v 22.188001 17.249481 -31.682048
v -4.576913 17.249481 -33.020497
v -13.946577 39.997476 -31.682048
v -13.946577 27.955468 -31.682048
v 22.188001 39.995249 -31.682048
v 22.188001 38.657001 -29.005936
v -13.946577 39.997476 -29.005936
v -4.576913 39.997476 -31.682048
f 419 411 422 
f 411 409 412 
f 407 411 412 
f 411 407 413 
f 409 408 414 
f 413 407 414 
f 412 409 415 
f 410 412 415 
f 414 410 415 
f 410 407 416 
f 412 410 416 
f 407 412 416 
f 411 413 417 
f 413 414 417 
f 407 410 418 
f 410 414 418 
f 414 407 418 
f 408 409 419 
f 409 411 419 
f 409 414 420 
f 415 409 420 
f 414 415 420 
f 414 408 421 
f 408 417 421 
f 417 414 421 
f 417 408 422 
f 411 417 422 
f 408 419 422 
o convex_30
v 23.522650 41.337104 29.880042
v -25.989734 41.337104 21.850136
v -25.989734 44.013608 21.850136
v -24.651285 38.660599 29.880042
v 26.199548 41.337104 23.189502
v -25.989734 44.013608 27.201311
v 24.861099 44.013608 27.202097
v 23.522650 38.660599 28.541463
v 24.861099 44.013608 23.189502
v -24.651285 41.337104 29.880042
v 23.522650 38.660599 29.880042
v -24.651285 38.660599 28.541463
v 26.199548 42.674832 28.541463
v -25.989734 41.337104 28.541463
v -23.307728 44.013608 21.850136
v 26.199548 41.337104 28.541463
v 26.199548 42.674832 23.189502
v -24.651285 41.337104 21.850136
v -25.989734 42.674832 28.541463
v -23.307728 42.674832 21.850136
v -8.579684 44.013608 27.202097
f 441 432 443 
f 425 424 428 
f 425 428 429 
f 425 429 431 
f 426 423 432 
f 423 429 432 
f 423 426 433 
f 426 430 433 
f 430 427 433 
f 424 430 434 
f 430 426 434 
f 429 423 435 
f 423 433 435 
f 428 424 436 
f 426 432 436 
f 424 434 436 
f 434 426 436 
f 424 425 437 
f 425 431 437 
f 433 427 438 
f 427 435 438 
f 435 433 438 
f 431 429 439 
f 429 435 439 
f 435 427 439 
f 427 437 439 
f 437 431 439 
f 430 424 440 
f 427 430 440 
f 424 437 440 
f 428 436 441 
f 436 432 441 
f 437 427 442 
f 427 440 442 
f 440 437 442 
f 429 428 443 
f 432 429 443 
f 428 441 443 
o convex_31
v -24.653119 1.187442 31.218360
v 30.217907 14.570619 32.556678
v 30.217907 1.187442 32.556678
v 30.217907 14.570619 29.880042
v -24.653119 14.570619 32.556678
v 30.217907 1.187442 29.880042
v -24.653119 1.187442 32.556678
v -24.653119 14.570619 31.218360
v 28.875135 14.570619 29.880042
v 28.875135 1.187442 29.880042
f 452 449 453 
f 445 446 447 
f 446 445 448 
f 445 447 448 
f 446 444 449 
f 447 446 449 
f 444 446 450 
f 448 444 450 
f 446 448 450 
f 444 448 451 
f 448 447 451 
f 447 449 452 
f 444 451 452 
f 451 447 452 
f 449 444 453 
f 444 452 453 
o convex_32
v 22.188525 50.705197 21.845813
v 22.188001 41.336973 -26.329301
v 26.202954 41.336973 -26.329301
v 26.202954 41.336973 23.188454
v 23.525794 50.705197 -26.324454
v 23.526842 41.336973 23.188454
v 20.849683 44.013739 -24.986660
v 20.849683 50.705197 -26.324454
v 23.526318 50.705197 21.845813
v 26.202954 42.675815 23.188454
v 22.188525 45.353498 21.845813
v 26.202954 42.675815 -26.329301
v 20.849683 50.705197 -23.648867
v 23.526842 44.013739 23.188454
v 20.849683 44.013739 -26.324454
v 22.188001 41.336973 -23.648867
v 24.863588 44.013739 23.188454
v 20.849683 49.365438 -23.648867
v 24.864636 46.691423 -26.324454
v 24.864636 46.691423 21.845813
v 22.188001 44.013739 -26.329301
v 23.526318 50.705197 -8.928289
v 24.863588 44.013739 -26.329301
f 465 474 476 
f 455 456 457 
f 455 457 459 
f 454 458 461 
f 458 454 462 
f 457 456 463 
f 459 457 463 
f 459 454 464 
f 460 459 464 
f 456 455 465 
f 463 456 465 
f 454 461 466 
f 461 460 466 
f 464 454 466 
f 454 459 467 
f 462 454 467 
f 459 463 467 
f 455 460 468 
f 461 455 468 
f 460 461 468 
f 455 459 469 
f 460 455 469 
f 459 460 469 
f 463 462 470 
f 462 467 470 
f 467 463 470 
f 460 464 471 
f 466 460 471 
f 464 466 471 
f 465 458 472 
f 463 465 472 
f 462 463 473 
f 472 462 473 
f 463 472 473 
f 461 458 474 
f 455 461 474 
f 465 455 474 
f 458 462 475 
f 472 458 475 
f 462 472 475 
f 458 465 476 
f 474 458 476 
o convex_33
v -23.314801 128.327624 -22.314348
v -21.976484 169.807351 -6.254535
v -23.314801 169.807351 -6.254535
v -21.976484 128.327624 -6.254535
v -21.976484 169.807351 -22.314348
v -23.314801 169.807351 -22.314348
v -23.314801 128.327624 -6.254535
v -21.976484 128.327624 -22.314348
f 481 480 484 
f 478 479 480 
f 479 478 481 
f 478 480 481 
f 477 479 482 
f 481 477 482 
f 479 481 482 
f 479 477 483 
f 480 479 483 
f 477 480 483 
f 480 477 484 
f 477 481 484 
o convex_34
v 12.822003 31.973381 -11.611474
v 19.510841 42.675005 -26.329301
v 19.510841 44.013608 -26.329301
v 24.862933 35.984869 -24.989149
v 10.145106 42.675005 -8.932874
v 7.469912 29.293292 -10.273025
v 7.466506 42.675005 -10.273025
v 22.187738 44.013608 -22.312252
v 22.182630 35.983428 -26.324192
v 8.808360 29.293292 -8.936280
v 24.862933 41.334960 -26.325895
v 18.168987 38.657753 -16.965269
v 7.466506 42.675005 -8.932874
v 24.862933 35.984869 -26.325895
v 10.146809 30.634778 -8.936280
v 18.174095 44.013608 -19.638760
v 24.862933 41.334960 -24.989149
v 15.497198 42.675005 -14.286669
v 22.187738 44.013608 -26.329301
v 7.469912 29.293292 -8.936280
v 18.168987 35.983428 -16.965269
v 11.483555 30.634778 -10.273025
v 8.808360 29.293292 -10.273025
v 18.174095 44.013608 -22.312252
v 19.509138 44.013608 -19.638760
v 15.500604 41.334960 -14.288371
v 7.466506 41.336401 -10.273025
v 10.145106 41.336401 -8.932874
v 7.466506 41.336401 -8.932874
v 23.522781 35.984869 -26.325895
v 22.187738 42.675005 -26.329301
f 503 498 515 
f 487 486 491 
f 490 486 493 
f 488 494 498 
f 495 488 498 
f 492 487 500 
f 491 497 500 
f 497 489 500 
f 495 492 501 
f 488 495 501 
f 496 488 501 
f 496 501 502 
f 492 489 502 
f 501 492 502 
f 486 487 503 
f 487 492 503 
f 492 495 503 
f 495 498 503 
f 490 494 504 
f 488 496 505 
f 494 488 506 
f 499 494 506 
f 505 485 506 
f 488 505 506 
f 490 493 507 
f 494 490 507 
f 493 498 507 
f 498 494 507 
f 487 491 508 
f 500 487 508 
f 491 500 508 
f 489 492 509 
f 492 500 509 
f 500 489 509 
f 496 502 510 
f 502 489 510 
f 485 505 510 
f 505 496 510 
f 506 485 510 
f 499 506 510 
f 486 490 511 
f 491 486 511 
f 497 491 511 
f 490 504 511 
f 489 497 512 
f 494 499 512 
f 504 494 512 
f 510 489 512 
f 499 510 512 
f 497 511 513 
f 511 504 513 
f 512 497 513 
f 504 512 513 
f 493 486 514 
f 486 498 514 
f 498 493 514 
f 498 486 515 
f 486 503 515 
o convex_35
v 4.788036 153.754638 -19.637713
v -4.578354 128.330244 -24.990983
v -4.578354 128.330244 -22.314348
v -4.578354 155.090834 -24.989935
v 4.789870 128.330244 -24.990983
v 4.788036 155.090834 -24.989935
v -4.578354 153.752018 -19.637713
v 4.788036 129.669059 -19.637713
v -4.578354 129.671679 -19.637713
v -4.578354 155.090834 -22.314348
v 4.789870 128.330244 -22.314348
v 4.788036 155.090834 -22.314348
v 4.788953 151.077007 -19.637713
v 4.788953 151.077007 -24.989411
v 4.788953 132.346690 -19.637713
v -0.561828 153.754638 -19.637713
v -0.561828 129.669059 -19.637713
v 4.789870 129.669059 -24.990983
v -4.578354 129.669059 -24.990983
v 4.789870 129.669059 -22.314348
f 533 528 535 
f 517 518 519 
f 518 517 520 
f 519 518 522 
f 516 522 523 
f 523 522 524 
f 522 518 524 
f 521 519 525 
f 519 522 525 
f 518 520 526 
f 523 518 526 
f 525 516 527 
f 521 525 527 
f 516 523 528 
f 527 516 528 
f 521 527 528 
f 521 528 529 
f 523 526 530 
f 528 523 530 
f 526 528 530 
f 522 516 531 
f 516 525 531 
f 525 522 531 
f 518 523 532 
f 523 524 532 
f 524 518 532 
f 520 517 533 
f 519 521 533 
f 526 520 533 
f 521 529 533 
f 529 528 533 
f 517 519 534 
f 533 517 534 
f 519 533 534 
f 528 526 535 
f 526 533 535 
o convex_36
v 19.512413 128.336531 -4.915170
v 23.526318 155.087707 5.790324
v 23.526318 169.811411 -2.238796
v 18.173047 153.751772 4.450958
v 23.526318 128.332470 5.790324
v 23.526318 128.336531 -6.254535
v 18.173047 153.751772 -4.915170
v 18.173047 129.668405 4.450958
v 22.186952 169.811411 -6.254535
v 18.173047 129.672465 -4.915170
v 20.849683 155.087707 5.790324
v 23.526318 169.811411 -6.254535
v 20.849683 128.336531 -6.254535
v 20.849683 128.332470 5.790324
v 22.186952 169.811411 -2.238796
v 20.849683 155.087707 -6.254535
v 19.512413 128.332470 4.450958
v 19.512413 128.332470 -2.238796
v 23.526318 128.332470 -2.238796
v 18.173047 129.668405 -2.238796
f 553 543 555 
f 538 537 540 
f 538 540 541 
f 539 542 543 
f 542 539 544 
f 543 542 545 
f 537 538 546 
f 540 537 546 
f 539 543 546 
f 538 541 547 
f 544 538 547 
f 541 544 547 
f 544 541 548 
f 545 542 548 
f 536 545 548 
f 540 546 549 
f 546 543 549 
f 538 544 550 
f 544 539 550 
f 546 538 550 
f 539 546 550 
f 542 544 551 
f 544 548 551 
f 548 542 551 
f 549 543 552 
f 540 549 552 
f 536 548 553 
f 548 541 553 
f 540 552 553 
f 552 543 553 
f 541 540 554 
f 540 553 554 
f 553 541 554 
f 545 536 555 
f 543 545 555 
f 536 553 555 
o convex_37
v 24.862540 14.571740 3.113164
v 15.497460 13.232519 -11.607806
v 15.497460 14.571740 -11.607806
v 6.128188 19.923904 -7.592067
v 26.199810 10.556437 5.790324
v 27.541271 11.894478 -7.592067
v 10.146285 21.260766 -7.590364
v 24.862540 9.218396 -7.592067
v 23.525270 14.571740 -8.930647
v 27.541271 13.232519 5.790324
v 7.467554 21.260766 -6.253487
v 7.467554 18.584684 -6.253487
v 27.541271 9.218396 -7.592067
v 19.511365 14.571740 -11.607806
v 24.862540 9.218396 -3.576328
v 6.128188 21.260766 -8.930647
v 23.525270 13.232519 4.451744
v 27.541271 9.218396 -0.902575
v 27.541271 13.232519 0.436005
v 19.507173 17.247822 -2.241154
v 8.806920 21.260766 -8.930647
v 10.146285 21.260766 -6.251784
v 27.541271 10.556437 5.790324
v 7.467554 18.584684 -8.930647
v 15.497460 13.232519 -10.269227
v 19.511365 13.232519 -11.607806
v 26.199810 13.232519 5.790324
v 23.525270 11.894478 4.451744
v 22.185904 11.894478 1.774585
v 20.846539 15.909781 -8.927241
v 6.128188 19.923904 -8.930647
v 22.185904 15.909781 1.772882
f 575 577 587 
f 566 559 567 
f 561 565 568 
f 557 558 569 
f 564 561 569 
f 557 563 570 
f 563 568 570 
f 558 557 571 
f 559 566 571 
f 566 562 571 
f 569 558 571 
f 566 567 572 
f 568 565 573 
f 560 570 573 
f 570 568 573 
f 561 564 574 
f 565 561 574 
f 556 565 574 
f 574 564 575 
f 571 562 576 
f 569 571 576 
f 562 566 577 
f 575 562 577 
f 565 560 578 
f 560 573 578 
f 573 565 578 
f 557 567 579 
f 567 559 579 
f 567 557 580 
f 557 570 580 
f 570 567 580 
f 563 557 581 
f 561 568 581 
f 568 563 581 
f 557 569 581 
f 569 561 581 
f 560 565 582 
f 572 560 582 
f 566 572 582 
f 565 577 582 
f 577 566 582 
f 567 560 583 
f 560 572 583 
f 572 567 583 
f 560 567 584 
f 567 570 584 
f 570 560 584 
f 564 569 585 
f 562 575 585 
f 575 564 585 
f 576 562 585 
f 569 576 585 
f 571 557 586 
f 559 571 586 
f 557 579 586 
f 579 559 586 
f 565 556 587 
f 556 574 587 
f 574 575 587 
f 577 565 587 
o convex_38
v -23.314801 155.097122 -2.239582
v -21.976484 183.198649 21.850136
v -21.976484 183.198649 -0.900217
v -21.976484 128.327624 21.850136
v -23.314801 183.198649 21.850136
v -23.314801 128.327624 21.850136
v -21.976484 128.327624 5.791896
v -23.314801 183.198649 -0.900217
v -23.314801 128.327624 5.791896
v -21.976484 155.097122 -2.239582
v -23.314801 169.813900 -2.239582
v -21.976484 169.813900 -2.239582
f 598 590 599 
f 590 589 591 
f 589 590 592 
f 591 589 592 
f 592 588 593 
f 591 592 593 
f 590 591 594 
f 591 593 594 
f 588 592 595 
f 592 590 595 
f 593 588 596 
f 588 594 596 
f 594 593 596 
f 594 588 597 
f 590 594 597 
f 588 595 598 
f 595 590 598 
f 597 588 598 
f 597 598 599 
f 590 597 599 
o convex_39
v 23.526318 183.198649 24.526772
v 20.849683 169.816782 -24.990983
v 23.526318 169.816782 -24.990983
v 20.849683 183.198649 -24.990983
v 20.849683 169.816782 24.526772
v 23.526318 183.198649 -24.990983
v 23.526318 169.816782 24.526772
v 20.849683 183.198649 24.526772
f 603 604 607 
f 602 601 603 
f 601 602 604 
f 603 601 604 
f 600 602 605 
f 602 603 605 
f 603 600 605 
f 602 600 606 
f 600 604 606 
f 604 602 606 
f 600 603 607 
f 604 600 607 
o convex_40
v -23.312705 34.645384 -31.682572
v -25.991437 1.187442 -33.020890
v -4.578354 1.187442 -33.020890
v -5.917719 15.905530 -30.344254
v -4.578354 27.951176 -33.020890
v -25.991437 1.187442 -31.682572
v -25.989341 31.966391 -33.020890
v -4.578354 1.187442 -31.682572
v -13.947625 34.645384 -31.682572
v -25.989341 31.966391 -31.682572
v -4.578354 27.951176 -31.682572
v -13.947625 34.645384 -33.020890
v -4.578354 17.248302 -30.344254
v -23.312705 34.645384 -33.020890
v -5.917719 17.248302 -30.344254
v -4.578354 15.905530 -30.344254
v -25.991437 27.951176 -31.682572
v -25.991437 27.951176 -33.020890
f 624 614 625 
f 610 609 612 
f 609 610 613 
f 612 609 614 
f 610 612 615 
f 613 610 615 
f 611 613 615 
f 608 614 617 
f 615 612 618 
f 612 616 618 
f 612 614 619 
f 608 616 619 
f 616 612 619 
f 615 618 620 
f 618 616 620 
f 614 608 621 
f 608 619 621 
f 619 614 621 
f 613 611 622 
f 616 608 622 
f 608 617 622 
f 611 620 622 
f 620 616 622 
f 611 615 623 
f 620 611 623 
f 615 620 623 
f 609 613 624 
f 617 614 624 
f 613 622 624 
f 622 617 624 
f 614 609 625 
f 609 624 625 
o convex_41
v 30.217907 1.187442 32.554451
v -24.653119 -1.489194 9.807504
v -24.653119 -0.150876 9.807504
v 30.217907 -1.489194 9.807504
v -24.653119 -1.489194 32.554451
v 30.217907 1.187442 9.807504
v -24.653119 1.187442 32.554451
v 30.217907 -1.489194 32.554451
v 24.862933 1.187442 9.807504
v -24.653119 1.187442 31.216264
f 634 628 635 
f 627 628 629 
f 628 627 630 
f 627 629 630 
f 629 628 631 
f 626 629 631 
f 630 626 632 
f 628 630 632 
f 626 631 632 
f 629 626 633 
f 626 630 633 
f 630 629 633 
f 631 628 634 
f 632 631 634 
f 632 634 635 
f 628 632 635 
o convex_42
v -30.006390 1.187442 -26.329301
v -24.654167 -0.150876 24.526772
v -24.654167 -1.489194 24.526772
v -24.654167 -0.150876 -26.329301
v -30.006390 -1.489194 24.526772
v -30.006390 -1.489194 -26.329301
v -30.006390 1.187442 24.526772
v -24.654167 -1.489194 -26.329301
v -28.667679 1.187442 -26.329301
v -28.667679 1.187442 24.526772
f 639 644 645 
f 637 638 639 
f 638 637 640 
f 638 640 641 
f 636 639 641 
f 640 636 641 
f 636 640 642 
f 640 637 642 
f 639 638 643 
f 638 641 643 
f 641 639 643 
f 639 636 644 
f 636 642 644 
f 644 642 645 
f 637 639 645 
f 642 637 645 
o convex_43
v -28.668072 37.319793 24.526772
v -30.006259 1.190979 -26.329301
v -28.668072 1.190979 -26.329301
v -30.006259 1.190979 24.526772
v -30.006259 37.319793 -26.329301
v -28.668072 37.319793 -26.329301
v -28.668072 1.190979 24.526772
v -30.006259 37.319793 24.526772
f 650 649 653 
f 647 648 649 
f 648 647 650 
f 647 649 650 
f 646 648 651 
f 650 646 651 
f 648 650 651 
f 648 646 652 
f 649 648 652 
f 646 649 652 
f 649 646 653 
f 646 650 653 
o convex_44
v -30.006390 -1.489194 24.526772
v -24.654167 38.654049 32.556678
v -24.654167 41.336973 29.879518
v -30.006390 38.654049 32.556678
v -24.654167 -1.489194 32.556678
v -24.654167 41.336973 24.526772
v -24.654167 -1.489194 24.526772
v -30.006390 38.654049 24.526772
v -30.006390 -1.489194 32.556678
v -27.330278 41.336973 29.879518
v -27.330278 41.336973 24.526772
f 663 659 664 
f 655 656 657 
f 656 655 658 
f 655 657 658 
f 656 658 659 
f 659 658 660 
f 658 654 660 
f 654 659 660 
f 654 657 661 
f 659 654 661 
f 657 654 662 
f 654 658 662 
f 658 657 662 
f 657 656 663 
f 656 659 663 
f 661 657 663 
f 661 663 664 
f 659 661 664 
o convex_45
v 30.217776 37.319793 -8.922657
v 28.879720 14.570619 -8.922657
v 30.217776 14.570619 -8.922657
v 28.879720 37.319793 25.861683
v 30.217776 14.570619 25.861683
v 28.879720 34.645384 -26.327598
v 30.217776 37.319793 25.861683
v 28.879720 14.570619 25.861683
v 30.217776 14.575072 -26.327598
v 28.879720 14.575072 -26.327598
v 30.217776 34.645384 -26.327598
v 28.879720 37.319793 -8.922657
f 670 668 676 
f 667 665 669 
f 666 667 669 
f 666 668 670 
f 665 668 671 
f 669 665 671 
f 668 669 671 
f 668 666 672 
f 669 668 672 
f 666 669 672 
f 665 667 673 
f 667 666 673 
f 670 673 674 
f 666 670 674 
f 673 666 674 
f 670 665 675 
f 665 673 675 
f 673 670 675 
f 668 665 676 
f 665 670 676 
o convex_46
v 27.541271 11.892935 7.122232
v 28.879589 1.187442 -26.329301
v 27.541271 7.879030 -6.252879
v 28.879589 1.187442 29.878077
v 30.217907 14.570619 -26.329301
v 30.217645 14.569309 29.878077
v 30.217907 1.187442 9.801656
v 28.879589 14.570619 -26.329301
v 30.217907 1.187442 -26.329301
v 28.879589 14.569309 29.878077
v 30.217645 1.187442 29.878077
v 27.541271 13.231777 4.448310
v 27.541271 10.555404 -6.252879
v 27.541271 9.216562 3.111349
v 27.541271 10.555404 7.122232
v 27.541271 7.879030 -3.573456
v 27.541271 11.892935 -2.236495
v 27.541271 13.231777 5.785271
v 30.217907 14.570619 9.801656
v 28.879589 14.570619 9.801656
f 695 684 696 
f 679 678 680 
f 680 678 683 
f 678 679 684 
f 681 678 684 
f 678 681 685 
f 681 683 685 
f 683 678 685 
f 677 680 686 
f 680 682 686 
f 682 680 687 
f 683 682 687 
f 680 683 687 
f 679 677 688 
f 684 679 689 
f 679 688 689 
f 677 679 690 
f 690 680 691 
f 680 677 691 
f 677 690 691 
f 679 680 692 
f 690 679 692 
f 680 690 692 
f 688 684 693 
f 684 689 693 
f 689 688 693 
f 677 686 694 
f 688 677 694 
f 684 688 694 
f 683 681 695 
f 682 683 695 
f 681 684 695 
f 686 682 695 
f 686 695 696 
f 694 686 696 
f 684 694 696 
o convex_47
v -19.300896 128.336531 -4.915170
v -21.975436 155.087707 5.790324
v -21.975436 169.811411 -2.238796
v -23.314801 128.336531 -6.254535
v -17.961531 129.668405 4.450958
v -23.314801 128.332470 5.790324
v -17.961531 153.751772 -4.915170
v -23.314801 169.811411 -6.254535
v -17.961531 153.751772 4.450958
v -23.314801 155.087707 5.790324
v -17.961531 129.672465 -4.915170
v -20.638166 128.336531 -6.254535
v -21.975436 169.811411 -6.254535
v -23.314801 169.811411 -2.238796
v -21.975436 128.332470 5.790324
v -20.638166 155.087707 -6.254535
v -19.300896 128.332470 4.450958
v -19.300896 128.332470 -2.238796
v -23.314801 128.332470 -2.238796
v -17.961531 129.668405 -2.238796
f 701 714 716 
f 700 702 704 
f 699 698 705 
f 698 701 705 
f 703 699 705 
f 701 703 705 
f 698 699 706 
f 702 698 706 
f 704 702 706 
f 703 701 707 
f 703 707 708 
f 700 704 708 
f 707 697 708 
f 708 704 709 
f 699 703 709 
f 704 699 709 
f 699 704 710 
f 706 699 710 
f 704 706 710 
f 701 698 711 
f 698 702 711 
f 703 708 712 
f 708 709 712 
f 709 703 712 
f 701 711 713 
f 711 702 713 
f 700 708 714 
f 708 697 714 
f 701 713 714 
f 713 702 714 
f 702 700 715 
f 700 714 715 
f 714 702 715 
f 697 707 716 
f 707 701 716 
f 714 697 716 
o convex_48
v 4.785774 18.587923 -16.964352
v -17.957021 41.336973 -23.650439
v -17.957021 41.336973 -24.989018
v 20.849683 15.912952 -8.932874
v 3.445674 21.265515 -8.934577
v -20.637221 30.626606 -24.989018
v -12.605267 30.626606 -26.325895
v -23.313098 41.336973 -24.989018
v 12.813405 14.571536 -10.271454
v 20.849683 15.912952 -10.271454
v 6.121551 22.604311 -8.934577
v -15.281144 27.954254 -26.325895
v 15.489283 14.571536 -12.946910
v -17.957021 39.995557 -26.327598
v 19.505260 17.249128 -8.932874
v -23.313098 41.336973 -26.327598
v 8.801751 17.249128 -8.932874
v -17.957021 39.995557 -22.313562
v -0.561658 22.604311 -20.973279
v -19.292798 30.626606 -23.650439
v 0.769797 29.287810 -15.625772
v -1.897435 30.626606 -19.634699
v 3.445674 22.604311 -8.934577
v -20.637221 30.626606 -26.325895
v 20.849683 14.571536 -8.932874
v 4.785774 22.604311 -18.296120
v -23.313098 39.995557 -24.989018
v 0.769797 21.265515 -11.610033
v 12.813405 14.571536 -12.946910
v -7.249189 23.940487 -20.973279
v -3.237535 31.965402 -19.634699
v -12.605267 27.954254 -26.325895
f 735 729 748 
f 718 719 724 
f 720 726 731 
f 724 719 732 
f 719 730 732 
f 730 728 732 
f 720 731 733 
f 731 727 733 
f 718 724 734 
f 727 718 734 
f 726 729 735 
f 722 721 736 
f 718 727 737 
f 727 731 737 
f 730 719 738 
f 723 730 738 
f 724 721 739 
f 721 733 739 
f 733 727 739 
f 734 724 739 
f 727 734 739 
f 732 728 740 
f 726 720 741 
f 725 729 741 
f 729 726 741 
f 720 733 741 
f 733 725 741 
f 735 723 742 
f 726 735 742 
f 738 726 742 
f 723 738 742 
f 721 724 743 
f 724 732 743 
f 736 721 743 
f 722 736 743 
f 740 722 743 
f 732 740 743 
f 721 722 744 
f 722 725 744 
f 733 721 744 
f 725 733 744 
f 728 717 745 
f 717 729 745 
f 729 725 745 
f 725 722 746 
f 722 740 746 
f 740 728 746 
f 728 745 746 
f 745 725 746 
f 719 718 747 
f 731 726 747 
f 718 737 747 
f 737 731 747 
f 738 719 747 
f 726 738 747 
f 717 728 748 
f 729 717 748 
f 730 723 748 
f 728 730 748 
f 723 735 748 
o convex_49
v -0.565103 23.938915 -2.239058
v -23.313622 14.571315 27.203407
v -24.653119 14.571315 27.203407
v -20.634629 38.651290 24.522318
v 8.804823 29.295086 -7.590626
v -15.283192 38.651290 13.822719
v -24.653119 3.870369 24.522318
v 6.125830 41.336973 -8.931171
v -17.955635 6.548455 21.848302
v 0.774393 41.336973 1.775502
v -24.653119 37.314147 24.522318
v 6.125830 27.954144 -8.931171
v 8.804823 41.336973 -7.590626
v 3.450112 35.980802 -0.898514
v -12.607474 37.314147 16.489660
v -0.565103 41.336973 -2.239058
v -24.653119 37.314147 27.199870
v -23.313622 2.529427 27.203407
v -11.271252 11.897028 12.482174
v -13.943695 10.556086 17.833742
v -15.283192 11.897028 13.819182
v -23.313622 38.651290 23.181773
v -23.313622 3.870369 23.185310
v 8.804823 29.295086 -8.931171
v 0.774393 22.601772 1.775502
v -23.313622 37.314147 27.199870
v 4.786333 25.279857 -4.913074
v -1.901325 41.336973 3.116046
v -24.653119 2.529427 27.203407
v 8.804823 41.336973 -8.931171
v -3.240822 18.597939 5.793599
v -23.313622 2.529427 25.862862
f 766 777 780 
f 752 750 757 
f 755 751 759 
f 749 756 760 
f 756 758 761 
f 761 758 762 
f 753 761 762 
f 758 752 763 
f 762 758 763 
f 756 749 764 
f 758 756 764 
f 751 750 765 
f 759 751 765 
f 750 751 766 
f 757 750 766 
f 752 757 768 
f 763 752 768 
f 762 763 768 
f 759 754 769 
f 755 759 769 
f 764 749 769 
f 754 764 769 
f 754 759 770 
f 764 754 770 
f 765 752 770 
f 759 765 770 
f 749 760 771 
f 760 767 771 
f 755 769 771 
f 769 749 771 
f 760 756 772 
f 761 753 772 
f 753 762 773 
f 768 757 773 
f 762 768 773 
f 750 752 774 
f 765 750 774 
f 752 765 774 
f 767 760 775 
f 760 772 775 
f 772 753 775 
f 752 758 776 
f 758 764 776 
f 770 752 776 
f 764 770 776 
f 751 755 777 
f 766 751 777 
f 756 761 778 
f 772 756 778 
f 761 772 778 
f 757 767 779 
f 753 773 779 
f 773 757 779 
f 767 775 779 
f 775 753 779 
f 757 766 780 
f 767 757 780 
f 755 771 780 
f 771 767 780 
f 777 755 780 
o convex_50
v -8.591342 42.675291 -26.329301
v 20.841561 50.705197 -23.652666
v 20.841561 49.365045 -23.652666
v -20.630045 50.705197 -23.652666
v 20.841561 50.705197 -26.329301
v -20.630045 50.705197 -26.329301
v 19.509793 42.675291 -24.990983
v -20.630045 44.013870 -24.990983
v 19.509793 42.675291 -26.329301
v -8.591342 42.675291 -24.990983
v -20.630045 44.013870 -26.329301
v -20.630045 49.365045 -23.652666
v 20.841561 44.013870 -26.329301
v 20.841561 44.013870 -24.990983
f 787 793 794 
f 783 782 784 
f 782 783 785 
f 784 782 785 
f 785 781 786 
f 784 785 786 
f 784 786 788 
f 781 785 789 
f 787 781 789 
f 787 783 790 
f 781 787 790 
f 788 781 790 
f 786 781 791 
f 781 788 791 
f 788 786 791 
f 783 784 792 
f 784 788 792 
f 790 783 792 
f 788 790 792 
f 785 783 793 
f 789 785 793 
f 787 789 793 
f 783 787 794 
f 793 783 794 
o convex_51
v 27.541271 41.336318 25.861683
v 28.879589 34.645384 -26.327598
v 30.217907 34.645384 -26.327598
v 24.864636 41.336973 -26.327598
v 24.864636 39.998131 25.861683
v 30.217907 38.658634 -26.327598
v 30.217907 37.323068 25.861683
v 27.541271 41.336973 -26.327598
v 28.879589 34.645384 -8.932874
v 24.864636 39.997476 -26.327598
v 27.541271 37.323068 25.861683
v 30.217907 38.660599 25.861683
v 24.864636 41.336318 25.861683
v 30.217907 34.645384 -8.932874
v 30.217907 38.660599 -8.922657
v 27.541271 41.336973 -8.932874
v 24.864636 39.997476 -8.932874
v 24.864636 41.336973 -8.932874
f 807 810 812 
f 797 796 798 
f 797 798 800 
f 795 799 801 
f 797 800 801 
f 800 798 802 
f 796 797 803 
f 798 796 804 
f 799 798 804 
f 796 803 804 
f 801 799 805 
f 799 803 805 
f 803 801 805 
f 795 801 806 
f 801 800 806 
f 799 795 807 
f 798 799 807 
f 797 801 808 
f 803 797 808 
f 801 803 808 
f 800 802 809 
f 806 800 809 
f 802 806 809 
f 802 798 810 
f 795 806 810 
f 806 802 810 
f 807 795 810 
f 803 799 811 
f 799 804 811 
f 804 803 811 
f 798 807 812 
f 810 798 812 
o convex_52
v 23.525270 44.013608 21.850136
v 23.525270 50.705197 24.525724
v 23.525270 49.365700 25.865089
v -23.314801 50.705197 24.525724
v -23.314801 44.013608 25.865089
v -23.314801 50.705197 21.850136
v 24.864636 44.013608 25.865089
v 23.525270 50.705197 21.850136
v -23.314801 46.691947 21.850136
v -23.314801 49.365700 25.865089
v -23.314801 44.013608 24.525724
v 24.864636 46.691947 21.850136
v 24.864636 46.691947 25.865089
v 24.864636 44.013608 21.850136
f 813 824 826 
f 815 814 816 
f 816 814 818 
f 817 816 818 
f 817 813 819 
f 815 817 819 
f 818 814 820 
f 813 818 820 
f 818 813 821 
f 817 818 821 
f 815 816 822 
f 816 817 822 
f 817 815 822 
f 813 817 823 
f 821 813 823 
f 817 821 823 
f 820 814 824 
f 813 820 824 
f 814 815 825 
f 815 819 825 
f 824 814 825 
f 819 824 825 
f 819 813 826 
f 824 819 826 
o convex_53
v -25.989996 33.306919 -29.006984
v -13.948935 39.998262 -29.006984
v -13.948935 39.998262 -31.680738
v -15.286831 29.293162 -26.329956
v -24.649743 39.998262 -26.329301
v -25.989996 31.969699 -33.020890
v -25.989996 38.658946 -33.020890
v -13.948935 34.645188 -33.020890
v -23.311847 31.969699 -26.329301
v -19.302875 38.658946 -26.329301
v -25.989996 39.998262 -31.680738
v -15.286831 29.293162 -27.667488
v -13.948935 38.658946 -33.020890
v -17.962622 29.293162 -26.329956
v -25.989996 39.998262 -27.669453
v -23.314205 31.969699 -33.020890
v -15.286831 31.969699 -26.329956
v -25.989996 31.969699 -31.681393
v -20.636056 39.998262 -26.329301
v -25.989996 37.321725 -27.669453
v -13.948935 34.645188 -31.680738
v -17.962622 29.293162 -27.667488
v -13.948935 38.658946 -29.006984
v -24.649743 38.658946 -26.329301
v -16.625905 31.969699 -26.329301
v -16.625905 33.306919 -26.329301
f 836 851 852 
f 828 829 831 
f 832 827 833 
f 832 833 834 
f 829 828 834 
f 831 835 836 
f 831 829 837 
f 833 827 837 
f 829 833 837 
f 834 830 838 
f 833 829 839 
f 834 833 839 
f 829 834 839 
f 830 835 840 
f 838 830 840 
f 837 827 841 
f 831 837 841 
f 832 834 842 
f 838 832 842 
f 834 838 842 
f 830 828 843 
f 828 836 843 
f 827 832 844 
f 835 827 844 
f 840 835 844 
f 828 831 845 
f 836 828 845 
f 831 836 845 
f 827 835 846 
f 841 827 846 
f 831 841 846 
f 834 828 847 
f 830 834 847 
f 832 838 848 
f 838 840 848 
f 844 832 848 
f 840 844 848 
f 828 830 849 
f 847 828 849 
f 830 847 849 
f 835 831 850 
f 846 835 850 
f 831 846 850 
f 835 830 851 
f 836 835 851 
f 830 843 851 
f 851 843 852 
f 843 836 852 
o convex_54
v 30.217907 1.187442 9.805277
v -24.653119 -1.489194 -26.329301
v -24.653119 -1.489194 9.805277
v 30.217907 -1.489194 -26.329301
v 24.862933 1.187442 -26.329301
v 30.217907 -1.489194 9.805277
v -24.653119 -0.150876 9.805277
v -24.653119 -0.150876 -26.329301
v 30.217907 1.187442 -26.329301
v 24.862933 1.187442 9.805277
f 857 859 862 
f 855 854 856 
f 856 854 857 
f 853 855 858 
f 855 856 858 
f 856 853 858 
f 855 853 859 
f 854 855 859 
f 859 857 860 
f 857 854 860 
f 854 859 860 
f 853 856 861 
f 857 853 861 
f 856 857 861 
f 853 857 862 
f 859 853 862 
o convex_55
v -30.006390 37.322413 -26.329301
v -24.654167 41.336580 24.526772
v -24.654167 39.998131 24.526772
v -30.006390 38.660861 24.526772
v -27.330016 41.336580 -26.329301
v -24.654167 39.998131 -26.329301
v -27.330016 37.322413 24.526772
v -27.330016 37.322413 -26.329301
v -27.330016 41.336580 24.526772
v -30.006390 37.322413 24.526772
v -30.006390 38.660861 -26.329301
v -24.654167 41.336580 -26.329301
f 868 867 874 
f 865 864 866 
f 864 865 868 
f 863 867 868 
f 868 865 869 
f 865 866 869 
f 869 863 870 
f 863 868 870 
f 868 869 870 
f 866 864 871 
f 867 866 871 
f 864 867 871 
f 866 863 872 
f 869 866 872 
f 863 869 872 
f 863 866 873 
f 867 863 873 
f 866 867 873 
f 867 864 874 
f 864 868 874 
o convex_56
v -20.634105 169.816782 -24.990852
v 20.845622 183.198649 -23.652797
v 20.845622 183.198649 -24.990852
v -20.634105 183.198649 -23.652797
v 20.845622 169.816782 -23.652797
v 20.845622 169.816782 -24.990852
v -20.634105 183.198649 -24.990852
v -20.634105 169.816782 -23.652797
f 879 878 882 
f 876 877 878 
f 877 876 879 
f 876 878 879 
f 875 877 880 
f 879 875 880 
f 877 879 880 
f 877 875 881 
f 878 877 881 
f 875 878 881 
f 878 875 882 
f 875 879 882 
