v -24.136365950107574 44.0904838239293 25.850479572120257
v -29.58850860595703 37.121506806615166 32.17292419277089
v 29.995208978652954 37.121506806615166 32.17292419277089
v 24.075713753700256 44.09048382393026 25.850485532584734
v 24.075713753700256 44.09048382393026 25.850485532584734
v 29.995208978652954 37.121506806615166 32.17292419277089
v 29.995208978652954 37.12149627033204 -32.49832102455241
v 24.075713753700256 44.090475298508835 -26.478178531822614
v -24.136395752429962 44.09047529850738 -26.47818747251933
v -29.58850860595703 37.12149627033204 -32.49832102455241
v -29.58850860595703 37.121506806615166 32.17292419277089
v -24.136365950107574 44.0904838239293 25.850479572120257
v 24.075713753700256 44.090475298508835 -26.478178531822614
v 29.995208978652954 37.12149627033204 -32.49832102455241
v -29.58850860595703 37.12149627033204 -32.49832102455241
v -24.136395752429962 44.09047529850738 -26.47818747251933
v -29.58850860595703 37.12149627033204 -32.49832102455241
v 29.995208978652954 37.12149627033204 -32.49832102455241
v 29.995208978652954 1.260090540084542 -32.49831518198787
v -29.58850860595703 1.260090540084542 -32.49831518198787
v 29.995208978652954 37.121506806615166 32.17292419277089
v -29.58850860595703 37.121506806615166 32.17292419277089
v -29.58850860595703 1.2601010763676677 32.17293003533543
v 29.995208978652954 1.2601010763676677 32.17293003533543
v -29.58850860595703 37.121506806615166 32.17292419277089
v -29.58850860595703 37.12149627033204 -32.49832102455241
v -29.58850860595703 1.260090540084542 -32.49831518198787
v -29.58850860595703 1.2601010763676677 32.17293003533543
v 29.995208978652954 37.12149627033204 -32.49832102455241
v 29.995208978652954 37.121506806615166 32.17292419277089
v 29.995208978652954 1.2601010763676677 32.17293003533543
v 29.995208978652954 1.260090540084542 -32.49831518198787
v -30.00788688659668 182.67411650457325 -32.85108502586477
v -30.00788688659668 182.67411650457325 -32.85108502586477
v -30.007857084274292 182.67412710653267 32.223278325003456
v -30.007857084274292 182.67412710653267 32.223278325003456
v -30.00788688659668 182.67411650457325 -32.85108502586477
v -30.00788688659668 182.67411650457325 -32.85108502586477
v 29.947203397750854 182.6740926627168 -32.851076085164166
v 29.947203397750854 182.6740926627168 -32.851076085164166
v -30.007857084274292 182.67412710653267 32.223278325003456
v -30.007857084274292 182.67412710653267 32.223278325003456
v 29.947203397750854 182.6741032646762 32.22328726570406
v 29.947203397750854 182.6741032646762 32.22328726570406
v 29.947203397750854 182.6741032646762 32.22328726570406
v 29.947203397750854 182.6741032646762 32.22328726570406
v 29.947203397750854 182.6740926627168 -32.851076085164166
v 29.947203397750854 182.6740926627168 -32.851076085164166
v -30.007857084274292 182.67412710653267 32.223278325003456
v -30.00788688659668 182.67411650457325 -32.85108502586477
v -22.466163337230682 182.700391565618 -24.66533627421345
v -22.466133534908295 182.70039950033066 24.037583208971366
v -30.00788688659668 182.67411650457325 -32.85108502586477
v 29.947203397750854 182.6740926627168 -32.851076085164166
v 22.40545153617859 182.70036772376127 -24.66532882362897
v -22.466163337230682 182.700391565618 -24.66533627421345
v 29.947203397750854 182.6740926627168 -32.851076085164166
v 29.947203397750854 182.6741032646762 32.22328726570406
v 22.40545153617859 182.70037565847394 24.037590659555846
v 22.40545153617859 182.70036772376127 -24.66532882362897
v 29.947203397750854 182.6741032646762 32.22328726570406
v -30.007857084274292 182.67412710653267 32.223278325003456
v -22.466133534908295 182.70039950033066 24.037583208971366
v 22.40545153617859 182.70037565847394 24.037590659555846
v -22.466163337230682 51.72550276404328 -24.665314935695747
v -22.466133534908295 51.72551069875595 24.037604547489067
v -22.466133534908295 129.2648561271659 4.5564247174983326
v -22.466133534908295 129.26485454022304 -5.1841611162895855
v -22.466163337230682 182.700391565618 -24.66533627421345
v 22.40545153617859 182.70036772376127 -24.66532882362897
v 4.4568173587322235 155.4598172057249 -24.665327365812242
v -4.517499357461929 155.45982912665386 -24.665327365814186
v 22.40545153617859 182.70037565847394 24.037590659555846
v 22.40545153617859 51.725510698757155 24.037611998069664
v 22.40545153617859 129.26484420623834 4.5564332856679615
v 22.40545153617859 155.45981004562432 4.556429017966363
v -22.466133534908295 51.72551069875595 24.037604547489067
v 22.40545153617859 51.725510698757155 24.037611998069664
v 4.4568173587322235 129.2648473801224 24.03759489495999
v -4.517499357461929 129.2648473801224 24.03759489495999
v 22.40545153617859 51.72550276404449 -24.66530748511515
v 24.075713753700256 44.090475298508835 -26.478178531822614
v -24.136395752429962 44.09047529850738 -26.47818747251933
v -22.466163337230682 51.72550276404328 -24.665314935695747
v -22.466133534908295 51.72551069875595 24.037604547489067
v -24.136365950107574 44.0904838239293 25.850479572120257
v 24.075713753700256 44.09048382393026 25.850485532584734
v 22.40545153617859 51.725510698757155 24.037611998069664
v -30.00788688659668 200.71494044103565 -32.85108796508804
v -30.007857084274292 200.71495104299507 32.223275385780184
v -32.01386630535126 201.44520366364824 34.40054949394933
v -32.01386630535126 201.44519235224234 -35.028365291435804
v 29.947203397750854 182.6740926627168 -32.851076085164166
v -30.00788688659668 182.67411650457325 -32.85108502586477
v -30.00788688659668 200.71494044103565 -32.85108796508804
v 29.947203397750854 200.7149165991792 -32.85107902438744
v 29.947203397750854 182.6741032646762 32.22328726570406
v 29.947203397750854 182.6740926627168 -32.851076085164166
v 29.947203397750854 200.7149165991792 -32.85107902438744
v 29.947203397750854 200.7149272011386 32.22328432648079
v -30.007857084274292 182.67412710653267 32.223278325003456
v 29.947203397750854 182.6741032646762 32.22328726570406
v 29.947203397750854 200.7149272011386 32.22328432648079
v -30.007857084274292 200.71495104299507 32.223275385780184
v -30.00788688659668 182.67411650457325 -32.85108502586477
v -30.007857084274292 182.67412710653267 32.223278325003456
v -30.007857084274292 200.71495104299507 32.223275385780184
v -30.00788688659668 200.71494044103565 -32.85108796508804
v -30.007857084274292 200.71495104299507 32.223275385780184
v 29.947203397750854 200.7149272011386 32.22328432648079
v 31.953182816505432 201.44517982179275 34.4005643951144
v -32.01386630535126 201.44520366364824 34.40054949394933
v 29.947203397750854 200.7149165991792 -32.85107902438744
v -30.00788688659668 200.71494044103565 -32.85108796508804
v -32.01386630535126 201.44519235224234 -35.028365291435804
v 31.953182816505432 201.44516851038688 -35.02835039027073
v 29.947203397750854 200.7149272011386 32.22328432648079
v 29.947203397750854 200.7149165991792 -32.85107902438744
v 31.953182816505432 201.44516851038688 -35.02835039027073
v 31.953182816505432 201.44517982179275 34.4005643951144
v 22.40545153617859 155.45981004562432 4.556429017966363
v 22.40545153617859 129.26484420623834 4.5564332856679615
v 18.71497631072998 131.41927780298326 3.7553100010399825
v 18.71497631072998 153.3053881087694 3.7553064353400503
v 22.40545153617859 51.725510698757155 24.037611998069664
v 22.40545153617859 182.70037565847394 24.037590659555846
v 4.4568173587322235 155.45982514043735 24.037590627256453
v 4.4568173587322235 129.2648473801224 24.03759489495999
v 22.40545153617859 182.70037565847394 24.037590659555846
v -22.466133534908295 182.70039950033066 24.037583208971366
v -4.517499357461929 155.4598370613663 24.03759062725451
v 4.4568173587322235 155.45982514043735 24.037590627256453
v -22.466133534908295 182.70039950033066 24.037583208971366
v -22.466133534908295 51.72551069875595 24.037604547489067
v -4.517499357461929 129.2648473801224 24.03759489495999
v -4.517499357461929 155.4598370613663 24.03759062725451
v -4.517499357461929 129.2648473801224 24.03759489495999
v 4.4568173587322235 129.2648473801224 24.03759489495999
v 3.7187285721302032 131.41928045479042 20.03198658134985
v -3.7793800234794617 131.41928045479042 20.03198658134985
v -22.466133534908295 182.70039950033066 24.037583208971366
v -22.466163337230682 182.700391565618 -24.66533627421345
v -22.466133534908295 155.45983230053798 -5.184165383993125
v -22.466133534908295 155.45983388748084 4.556420449794793
v -22.466133534908295 51.72551069875595 24.037604547489067
v -22.466133534908295 182.70039950033066 24.037583208971366
v -22.466133534908295 155.45983388748084 4.556420449794793
v -22.466133534908295 129.2648561271659 4.5564247174983326
v -22.466163337230682 182.700391565618 -24.66533627421345
v -22.466163337230682 51.72550276404328 -24.665314935695747
v -22.466133534908295 129.26485454022304 -5.1841611162895855
v -22.466133534908295 155.45983230053798 -5.184165383993125
v -4.517499357461929 129.26483944540996 -24.665323098108704
v -4.517499357461929 155.45982912665386 -24.665327365814186
v -3.779410570859909 153.30540797291502 -20.659717562089867
v -3.779410570859909 131.41927382527098 -20.65971399638605
v 22.40545153617859 51.72550276404449 -24.66530748511515
v 22.40545153617859 182.70036772376127 -24.66532882362897
v 22.40545153617859 155.45980845868147 -5.184156815821555
v 22.40545153617859 129.26484261929548 -5.184152548119957
v 22.40545153617859 51.725510698757155 24.037611998069664
v 22.40545153617859 51.72550276404449 -24.66530748511515
v 22.40545153617859 129.26484261929548 -5.184152548119957
v 22.40545153617859 129.26484420623834 4.5564332856679615
v 22.40545153617859 182.70036772376127 -24.66532882362897
v 22.40545153617859 182.70037565847394 24.037590659555846
v 22.40545153617859 155.45981004562432 4.556429017966363
v 22.40545153617859 155.45980845868147 -5.184156815821555
v -22.466133534908295 129.26485454022304 -5.1841611162895855
v -22.466133534908295 129.2648561271659 4.5564247174983326
v -18.77562701702118 131.4192778029822 3.755303668046475
v -18.775658309459686 131.41927647707791 -4.383038906192302
v 22.40545153617859 182.70036772376127 -24.66532882362897
v 22.40545153617859 51.72550276404449 -24.66530748511515
v 4.4568173587322235 129.26483944540996 -24.665323098108704
v 4.4568173587322235 155.4598172057249 -24.665327365812242
v 22.40545153617859 51.72550276404449 -24.66530748511515
v -22.466163337230682 51.72550276404328 -24.665314935695747
v -4.517499357461929 129.26483944540996 -24.665323098108704
v 4.4568173587322235 129.26483944540996 -24.665323098108704
v -22.466163337230682 51.72550276404328 -24.665314935695747
v -22.466163337230682 182.700391565618 -24.66533627421345
v -4.517499357461929 155.45982912665386 -24.665327365814186
v -4.517499357461929 129.26483944540996 -24.665323098108704
v -22.466133534908295 129.2648561271659 4.5564247174983326
v -22.466133534908295 155.45983388748084 4.556420449794793
v -18.77562701702118 153.30541195062625 3.7553001023426584
v -18.77562701702118 131.4192778029822 3.755303668046475
v 4.4568173587322235 155.4598172057249 -24.665327365812242
v 4.4568173587322235 129.26483944540996 -24.665323098108704
v 3.7187285721302032 131.41927382527098 -20.65971399638605
v 3.7187285721302032 153.30539605198607 -20.659717562087923
v 22.40545153617859 129.26484420623834 4.5564332856679615
v 22.40545153617859 129.26484261929548 -5.184152548119957
v 18.71497631072998 131.41927647707902 -4.383032200669764
v 18.71497631072998 131.41927780298326 3.7553100010399825
v 4.4568173587322235 129.26483944540996 -24.665323098108704
v -4.517499357461929 129.26483944540996 -24.665323098108704
v -3.779410570859909 131.41927382527098 -20.65971399638605
v 3.7187285721302032 131.41927382527098 -20.65971399638605
v 4.4568173587322235 155.45982514043735 24.037590627256453
v -4.517499357461929 155.4598370613663 24.03759062725451
v -3.7793800234794617 153.30541460243447 20.031983015646034
v 3.7187285721302032 153.3054026815055 20.031983015647977
v -22.466133534908295 155.45983388748084 4.556420449794793
v -22.466133534908295 155.45983230053798 -5.184165383993125
v -18.775658309459686 153.30541062472196 -4.383042471896119
v -18.77562701702118 153.30541195062625 3.7553001023426584
v -4.517499357461929 155.4598370613663 24.03759062725451
v -4.517499357461929 129.2648473801224 24.03759489495999
v -3.7793800234794617 131.41928045479042 20.03198658134985
v -3.7793800234794617 153.30541460243447 20.031983015646034
v 22.40545153617859 155.45980845868147 -5.184156815821555
v 22.40545153617859 155.45981004562432 4.556429017966363
v 18.71497631072998 153.3053881087694 3.7553064353400503
v 18.71497631072998 153.30538678286516 -4.383035766369697
v -22.466133534908295 155.45983230053798 -5.184165383993125
v -22.466133534908295 129.26485454022304 -5.1841611162895855
v -18.775658309459686 131.41927647707791 -4.383038906192302
v -18.775658309459686 153.30541062472196 -4.383042471896119
v -4.517499357461929 155.45982912665386 -24.665327365814186
v 4.4568173587322235 155.4598172057249 -24.665327365812242
v 3.7187285721302032 153.30539605198607 -20.659717562087923
v -3.779410570859909 153.30540797291502 -20.659717562089867
v 4.4568173587322235 129.2648473801224 24.03759489495999
v 4.4568173587322235 155.45982514043735 24.037590627256453
v 3.7187285721302032 153.3054026815055 20.031983015647977
v 3.7187285721302032 131.41928045479042 20.03198658134985
v 22.40545153617859 129.26484261929548 -5.184152548119957
v 22.40545153617859 155.45980845868147 -5.184156815821555
v 18.71497631072998 153.30538678286516 -4.383035766369697
v 18.71497631072998 131.41927647707902 -4.383032200669764
v 22.40545153617859 51.725510698757155 24.037611998069664
v 24.075713753700256 44.09048382393026 25.850485532584734
v 24.075713753700256 44.090475298508835 -26.478178531822614
v 22.40545153617859 51.72550276404449 -24.66530748511515
v -22.466163337230682 51.72550276404328 -24.665314935695747
v -24.136395752429962 44.09047529850738 -26.47818747251933
v -24.136365950107574 44.0904838239293 25.850479572120257
v -22.466133534908295 51.72551069875595 24.037604547489067
f 1 2 3
f 1 3 4
f 5 6 7
f 5 7 8
f 9 10 11
f 9 11 12
f 13 14 15
f 13 15 16
f 17 18 19
f 17 19 20
f 21 22 23
f 21 23 24
f 25 26 27
f 25 27 28
f 29 30 31
f 29 31 32
f 33 34 35
f 33 35 36
f 37 38 39
f 37 39 40
f 41 42 43
f 41 43 44
f 45 46 47
f 45 47 48
f 49 50 51
f 49 51 52
f 53 54 55
f 53 55 56
f 57 58 59
f 57 59 60
f 61 62 63
f 61 63 64
f 65 66 67
f 65 67 68
f 69 70 71
f 69 71 72
f 73 74 75
f 73 75 76
f 77 78 79
f 77 79 80
f 81 82 83
f 81 83 84
f 85 86 87
f 85 87 88
f 89 90 91
f 89 91 92
f 93 94 95
f 93 95 96
f 97 98 99
f 97 99 100
f 101 102 103
f 101 103 104
f 105 106 107
f 105 107 108
f 109 110 111
f 109 111 112
f 113 114 115
f 113 115 116
f 117 118 119
f 117 119 120
f 121 122 123
f 121 123 124
f 125 126 127
f 125 127 128
f 129 130 131
f 129 131 132
f 133 134 135
f 133 135 136
f 137 138 139
f 137 139 140
f 141 142 143
f 141 143 144
f 145 146 147
f 145 147 148
f 149 150 151
f 149 151 152
f 153 154 155
f 153 155 156
f 157 158 159
f 157 159 160
f 161 162 163
f 161 163 164
f 165 166 167
f 165 167 168
f 169 170 171
f 169 171 172
f 173 174 175
f 173 175 176
f 177 178 179
f 177 179 180
f 181 182 183
f 181 183 184
f 185 186 187
f 185 187 188
f 189 190 191
f 189 191 192
f 193 194 195
f 193 195 196
f 197 198 199
f 197 199 200
f 201 202 203
f 201 203 204
f 205 206 207
f 205 207 208
f 209 210 211
f 209 211 212
f 213 214 215
f 213 215 216
f 217 218 219
f 217 219 220
f 221 222 223
f 221 223 224
f 225 226 227
f 225 227 228
f 229 230 231
f 229 231 232
f 233 234 235
f 233 235 236
f 237 238 239
f 237 239 240
v 29.995208978652954 1.260090540084542 -32.49831518198787
v 29.995208978652954 1.2601010763676677 32.17293003533543
v -29.58850860595703 1.2601010763676677 32.17293003533543
v -29.58850860595703 1.260090540084542 -32.49831518198787
f 241 242 243
f 241 243 244
v -32.01386630535126 201.44520366364824 34.40054949394933
v 31.953182816505432 201.44517982179275 34.4005643951144
v 31.953182816505432 217.04021060639968 34.40056185436141
v -32.01386630535126 217.0402582901131 34.40054695319245
v -32.01386630535126 201.44519235224234 -35.028365291435804
v -32.01386630535126 201.44520366364824 34.40054949394933
v -32.01386630535126 217.0402582901131 34.40054695319245
v -32.01386630535126 217.0402469787072 -35.02836783219268
v 31.953182816505432 201.44517982179275 34.4005643951144
v 31.953182816505432 201.44516851038688 -35.02835039027073
v 31.953182816505432 217.0401992949938 -35.02835293102372
v 31.953182816505432 217.04021060639968 34.40056185436141
v 31.953182816505432 201.44516851038688 -35.02835039027073
v -32.01386630535126 201.44519235224234 -35.028365291435804
v -32.01386630535126 217.0402469787072 -35.02836783219268
v 31.953182816505432 217.0401992949938 -35.02835293102372
v 31.953182816505432 217.0401992949938 -35.02835293102372
v -32.01386630535126 217.0402469787072 -35.02836783219268
v -0.030325743136927485 266.22362131727243 -0.31391251530648046
v 31.953182816505432 217.04021060639968 34.40056185436141
v 31.953182816505432 217.0401992949938 -35.02835293102372
v -0.030325743136927485 266.22362131727243 -0.31391251530648046
v -32.01386630535126 217.0402469787072 -35.02836783219268
v -32.01386630535126 217.0402582901131 34.40054695319245
v -0.030325743136927485 266.22362131727243 -0.31391251530648046
v -32.01386630535126 217.0402582901131 34.40054695319245
v 31.953182816505432 217.04021060639968 34.40056185436141
v -0.030325743136927485 266.22362131727243 -0.31391251530648046
f 245 246 247
f 245 247 248
f 249 250 251
f 249 251 252
f 253 254 255
f 253 255 256
f 257 258 259
f 257 259 260
f 261 262 263
f 264 265 266
f 267 268 269
f 270 271 272
v 3.7187285721302032 153.3054026815055 20.031983015647977
v -3.7793800234794617 153.30541460243447 20.031983015646034
v -3.7793800234794617 131.41928045479042 20.03198658134985
v 3.7187285721302032 131.41928045479042 20.03198658134985
v -18.77562701702118 153.30541195062625 3.7553001023426584
v -18.775658309459686 153.30541062472196 -4.383042471896119
v -18.775658309459686 131.41927647707791 -4.383038906192302
v -18.77562701702118 131.4192778029822 3.755303668046475
v 18.71497631072998 153.30538678286516 -4.383035766369697
v 18.71497631072998 153.3053881087694 3.7553064353400503
v 18.71497631072998 131.41927780298326 3.7553100010399825
v 18.71497631072998 131.41927647707902 -4.383032200669764
v -3.779410570859909 153.30540797291502 -20.659717562089867
v 3.7187285721302032 153.30539605198607 -20.659717562087923
v 3.7187285721302032 131.41927382527098 -20.65971399638605
v -3.779410570859909 131.41927382527098 -20.65971399638605
f 273 274 275
f 273 275 276
f 277 278 279
f 277 279 280
f 281 282 283
f 281 283 284
f 285 286 287
f 285 287 288
