o convex_0
v -4.058771 17.325941 -35.561948
v 1.180409 19.078399 36.120426
v 1.180409 139.710481 30.871951
v 34.404156 -0.157565 -12.827914
v -33.778607 -0.157565 13.386392
v -18.041043 139.710481 -25.057982
v 29.158301 139.710481 -11.073744
v 23.912446 -0.157565 27.370630
v -28.526078 139.710481 11.639239
v -32.023315 -0.157565 -16.322219
v 29.158301 139.710481 9.885070
v 18.673266 139.710481 -25.064999
v -21.531605 -0.157565 29.124799
v 20.415210 -0.157565 -30.313473
v -28.526078 139.710481 -11.073744
v 34.404156 19.078399 11.632223
v -19.782987 -0.157565 -30.306456
v -19.782987 139.710481 23.876324
v 16.924648 139.710481 25.623477
v 2.929028 139.710481 -30.306456
v -33.778607 34.809447 -11.073744
v -21.531605 33.070680 29.124799
v 4.677646 -0.157565 -35.561948
v -2.303479 -0.157565 36.120426
v 22.163828 19.078399 29.124799
v 22.163828 33.070680 -28.566321
v -23.280224 33.070680 -26.812151
v -33.778607 34.809447 11.639239
v 34.404156 -0.157565 11.632223
v 34.404156 17.325941 -12.827914
v -2.303479 139.710481 -30.306456
v 27.409683 139.710481 13.386392
f 19 25 32 
f 6 3 7 
f 5 4 8 
f 3 6 9 
f 4 5 10 
f 7 3 11 
f 6 7 12 
f 5 8 13 
f 4 10 14 
f 9 6 15 
f 7 11 16 
f 6 1 17 
f 14 10 17 
f 3 9 18 
f 3 2 19 
f 11 3 19 
f 6 12 20 
f 10 5 21 
f 9 15 21 
f 15 10 21 
f 5 13 22 
f 3 18 22 
f 18 9 22 
f 17 1 23 
f 14 17 23 
f 1 20 23 
f 2 3 24 
f 13 8 24 
f 3 22 24 
f 22 13 24 
f 8 16 25 
f 19 2 25 
f 2 24 25 
f 24 8 25 
f 12 7 26 
f 4 14 26 
f 20 12 26 
f 14 23 26 
f 23 20 26 
f 15 6 27 
f 10 15 27 
f 6 17 27 
f 17 10 27 
f 21 5 28 
f 9 21 28 
f 5 22 28 
f 22 9 28 
f 8 4 29 
f 4 16 29 
f 16 8 29 
f 16 4 30 
f 7 16 30 
f 4 26 30 
f 26 7 30 
f 1 6 31 
f 20 1 31 
f 6 20 31 
f 16 11 32 
f 11 19 32 
f 25 16 32 
o convex_1
v -19.791803 158.942337 -32.060455
v -25.034801 169.431756 -0.594936
v -35.526958 169.431756 -0.594936
v -4.056647 139.710481 -0.594936
v -4.056647 169.431756 -35.561948
v -21.535361 139.710481 -21.573089
v -4.056647 139.710481 -28.565807
v -4.056647 160.685554 -0.594936
v -33.774158 178.174194 -16.332830
v -32.027518 144.958955 -0.594936
v -16.295444 178.174194 -18.078442
v -35.526958 158.942337 -12.834759
v -23.288161 178.174194 -30.311419
v -25.034801 178.174194 -7.591077
v -28.528079 139.710481 -11.089147
v -25.034801 158.942337 -28.565807
v -5.806367 144.958955 -32.060455
v -28.528079 139.710481 -0.594936
v -4.056647 169.431756 -25.067737
v -9.302726 158.942337 -35.561948
v -35.526958 178.174194 -9.336689
v -32.027518 144.958955 -11.089147
v -18.048244 139.710481 -25.067737
v -14.548805 178.174194 -23.322124
v -35.526958 158.942337 -0.594936
v -4.056647 157.199121 -35.561948
v -9.302726 169.431756 -35.561948
v -33.774158 158.942337 -16.332830
v -18.048244 146.705937 -28.565807
v -23.288161 144.958955 -23.322124
v -19.791803 178.174194 -30.311419
v -14.548805 178.174194 -21.573089
f 51 56 64 
f 34 35 36 
f 37 36 39 
f 36 38 39 
f 34 36 40 
f 36 37 40 
f 36 35 42 
f 41 43 45 
f 35 34 46 
f 34 40 46 
f 40 43 46 
f 43 41 46 
f 38 36 47 
f 45 33 48 
f 41 45 48 
f 36 42 50 
f 47 36 50 
f 42 47 50 
f 40 37 51 
f 44 35 53 
f 41 44 53 
f 35 46 53 
f 46 41 53 
f 42 44 54 
f 38 47 54 
f 47 42 54 
f 39 38 55 
f 49 39 55 
f 45 43 56 
f 51 37 56 
f 42 35 57 
f 35 44 57 
f 44 42 57 
f 37 39 58 
f 39 49 58 
f 52 37 58 
f 49 52 58 
f 33 45 59 
f 45 37 59 
f 52 33 59 
f 37 52 59 
f 44 41 60 
f 41 48 60 
f 54 44 60 
f 48 33 61 
f 33 52 61 
f 52 49 61 
f 49 55 61 
f 61 55 62 
f 38 54 62 
f 55 38 62 
f 60 48 62 
f 54 60 62 
f 48 61 62 
f 37 45 63 
f 56 37 63 
f 45 56 63 
f 43 40 64 
f 40 51 64 
f 56 43 64 
o convex_2
v -35.526958 158.942337 -0.594936
v -4.056647 169.431756 36.120426
v -14.548805 178.174194 23.879576
v -4.056647 160.685554 -0.594936
v -4.056647 139.710481 29.126681
v -23.288161 158.942337 30.873321
v -28.528079 139.710481 -0.594936
v -35.526958 178.174194 9.895681
v -4.056647 139.710481 -0.594936
v -32.027518 144.958955 11.645914
v -23.288161 178.174194 30.873321
v -19.791803 139.710481 23.879576
v -23.288161 178.174194 8.149042
v -35.526958 169.431756 -0.594936
v -35.526958 158.942337 13.392553
v -7.556087 158.942337 36.120426
v -4.056647 169.431756 23.879576
v -14.548805 178.174194 20.382704
v -19.791803 144.958955 27.372854
v -35.526958 178.174194 13.392553
v -25.034801 169.431756 -0.594936
v -28.528079 139.710481 11.645914
v -32.027518 144.958955 -0.594936
v -4.056647 146.705937 32.623554
v -19.791803 178.174194 30.873321
v -7.556087 169.431756 36.120426
v -32.027518 158.942337 18.636064
v -5.806367 146.705937 32.623554
v -32.027518 178.174194 8.149042
v -4.056647 158.942337 36.120426
v -21.535361 144.958955 25.629809
v -5.806367 139.710481 29.126681
f 69 92 96 
f 68 66 69 
f 65 68 71 
f 68 69 73 
f 71 68 73 
f 69 71 73 
f 67 72 75 
f 71 69 76 
f 72 67 77 
f 68 65 78 
f 65 72 78 
f 72 65 79 
f 65 74 79 
f 67 66 81 
f 66 68 81 
f 81 68 82 
f 77 67 82 
f 68 77 82 
f 67 81 82 
f 75 72 84 
f 72 79 84 
f 77 68 85 
f 68 78 85 
f 74 71 86 
f 71 76 86 
f 76 74 86 
f 65 71 87 
f 74 65 87 
f 71 74 87 
f 69 66 88 
f 66 67 89 
f 67 75 89 
f 75 66 89 
f 66 75 90 
f 75 70 90 
f 80 66 90 
f 70 80 90 
f 74 70 91 
f 70 75 91 
f 79 74 91 
f 75 84 91 
f 84 79 91 
f 80 70 92 
f 70 83 92 
f 69 88 92 
f 88 80 92 
f 72 77 93 
f 78 72 93 
f 77 85 93 
f 85 78 93 
f 66 80 94 
f 88 66 94 
f 80 88 94 
f 70 74 95 
f 74 76 95 
f 83 70 95 
f 76 83 95 
f 76 69 96 
f 83 76 96 
f 92 83 96 
o convex_3
v 13.426858 178.174194 34.370022
v -4.056647 139.710481 16.890623
v 22.168611 139.710481 16.890623
v -0.558577 139.710481 30.873321
v -0.558577 178.174194 25.631349
v 30.910364 169.431756 16.890623
v 22.168611 158.942337 30.873321
v -2.307612 169.431756 37.866723
v -4.056647 160.685554 16.890623
v 22.168611 178.174194 30.873321
v 20.416153 144.958955 27.378673
v 1.190458 158.942337 37.866723
v 30.910364 158.942337 20.387324
v 9.932211 178.174194 22.134648
v -4.056647 144.958955 32.620645
v -0.558577 178.174194 37.866723
v -4.056647 169.431756 36.117346
v 22.168611 139.710481 20.387324
v 18.670541 178.174194 22.134648
v 18.670541 169.431756 16.890623
v 27.412294 146.705937 16.890623
v 18.670541 158.942337 32.620645
v 4.685105 144.958955 32.620645
v 16.921506 139.710481 25.631349
v -4.056647 169.431756 25.631349
v 30.910364 169.431756 20.387324
v -2.307612 158.942337 37.866723
v 25.663259 158.942337 27.378673
v -4.056647 139.710481 29.125997
v 25.663259 144.958955 20.387324
v 30.910364 157.199121 16.890623
v 1.190458 178.174194 37.866723
f 112 108 128 
f 98 99 100 
f 99 98 102 
f 102 98 105 
f 101 97 106 
f 105 101 110 
f 101 106 110 
f 105 98 111 
f 97 101 112 
f 104 108 112 
f 105 111 113 
f 112 101 113 
f 104 112 113 
f 100 99 114 
f 106 102 115 
f 102 110 115 
f 110 106 115 
f 102 105 116 
f 105 110 116 
f 110 102 116 
f 99 102 117 
f 114 99 117 
f 106 97 118 
f 103 106 118 
f 107 103 118 
f 97 108 118 
f 118 108 119 
f 108 100 119 
f 107 118 119 
f 107 119 120 
f 100 114 120 
f 114 107 120 
f 119 100 120 
f 101 105 121 
f 113 101 121 
f 105 113 121 
f 102 106 122 
f 109 102 122 
f 108 104 123 
f 100 108 123 
f 111 100 123 
f 104 113 123 
f 113 111 123 
f 106 103 124 
f 103 107 124 
f 107 109 124 
f 122 106 124 
f 109 122 124 
f 98 100 125 
f 111 98 125 
f 100 111 125 
f 109 107 126 
f 107 114 126 
f 117 109 126 
f 114 117 126 
f 102 109 127 
f 117 102 127 
f 109 117 127 
f 108 97 128 
f 97 112 128 
o convex_4
v 25.663259 169.431756 -26.822933
v -4.056647 139.710481 -28.568545
v -4.056647 139.710481 -19.826792
v -0.554641 178.174194 -26.822933
v -4.056647 169.431756 -37.310298
v 18.669001 139.710481 -25.072186
v 29.162013 169.431756 -19.826792
v 20.418378 178.174194 -32.064904
v 2.937611 158.942337 -37.310298
v -4.056647 160.685554 -19.826792
v 20.418378 139.710481 -19.826792
v 11.681246 178.174194 -21.575828
v 20.418378 158.942337 -32.064904
v 2.937611 178.174194 -37.310298
v 29.162013 158.942337 -21.575828
v 1.191485 146.705937 -33.812228
v -4.056647 158.942337 -37.310298
v 18.669001 178.174194 -21.575828
v 2.937611 139.710481 -30.314158
v 6.436365 144.958955 -32.064904
v 22.167756 144.958955 -25.072186
v -4.056647 169.431756 -25.072186
v -0.554641 178.174194 -37.310298
v 27.412636 158.942337 -25.072186
v 22.167756 178.174194 -30.314158
v 1.191485 178.174194 -25.072186
v 15.170246 169.431756 -19.826792
v 23.913881 144.958955 -19.826792
v -2.307270 146.705937 -33.812228
v 16.922875 144.958955 -28.568545
v 15.170246 158.942337 -33.812228
v 29.162013 169.431756 -21.575828
f 153 135 160 
f 130 131 133 
f 131 130 134 
f 133 131 138 
f 131 135 138 
f 131 134 139 
f 135 131 139 
f 136 132 140 
f 136 129 141 
f 132 136 142 
f 137 133 142 
f 130 133 145 
f 133 137 145 
f 137 144 145 
f 136 140 146 
f 134 130 147 
f 147 144 148 
f 144 137 148 
f 134 147 148 
f 139 134 149 
f 132 133 150 
f 133 138 150 
f 133 132 151 
f 132 142 151 
f 142 133 151 
f 141 129 152 
f 149 141 152 
f 143 149 152 
f 129 136 153 
f 146 135 153 
f 136 146 153 
f 140 132 154 
f 138 140 154 
f 132 150 154 
f 150 138 154 
f 138 135 155 
f 140 138 155 
f 135 146 155 
f 146 140 155 
f 135 139 156 
f 143 135 156 
f 139 149 156 
f 149 143 156 
f 130 145 157 
f 145 144 157 
f 147 130 157 
f 144 147 157 
f 134 148 158 
f 148 141 158 
f 149 134 158 
f 141 149 158 
f 136 141 159 
f 142 136 159 
f 137 142 159 
f 141 148 159 
f 148 137 159 
f 135 143 160 
f 152 129 160 
f 143 152 160 
f 129 153 160 
o convex_5
v -4.056647 139.710481 -19.826792
v 36.155416 178.174194 11.637870
v 32.656148 169.431756 16.888570
v -4.056647 160.685554 16.888570
v 27.413150 139.710481 13.391697
v 30.908482 169.431756 -19.826792
v -4.056647 160.685554 -19.826792
v 29.160816 139.710481 -11.082815
v -4.056647 139.710481 16.888570
v 25.661547 178.174194 -9.336176
v 36.155416 158.942337 -12.833048
v 22.166215 139.710481 -19.826792
v 36.155416 158.942337 11.637870
v 36.155416 178.174194 -12.833048
v 25.661547 178.174194 9.891231
v 23.909945 139.710481 16.888570
v 16.919281 169.431756 -19.826792
v 18.666947 169.431756 16.888570
v 32.656148 158.942337 -18.076559
v 29.160816 139.710481 9.891231
v 32.656148 158.942337 16.888570
v 27.413150 144.958955 -18.076559
v 30.908482 158.942337 -19.826792
v 29.160816 144.958955 15.138337
v 29.160816 178.174194 11.637870
v 27.413150 178.174194 -11.082815
v 34.399877 158.942337 15.138337
v 30.908482 144.958955 -12.833048
v 32.656148 178.174194 -12.833048
v 30.908482 146.705937 13.391697
v 27.413150 144.958955 16.888570
v 25.661547 144.958955 -19.826792
f 172 183 192 
f 161 164 167 
f 166 161 167 
f 165 161 168 
f 163 164 169 
f 164 161 169 
f 161 165 169 
f 167 164 170 
f 161 166 172 
f 168 161 172 
f 171 162 173 
f 168 171 173 
f 170 162 174 
f 162 171 174 
f 162 170 175 
f 170 164 175 
f 163 169 176 
f 169 165 176 
f 166 167 177 
f 174 166 177 
f 163 162 178 
f 164 163 178 
f 166 174 179 
f 174 171 179 
f 165 168 180 
f 168 173 180 
f 163 176 181 
f 168 172 182 
f 179 171 182 
f 179 182 183 
f 172 166 183 
f 166 179 183 
f 162 175 185 
f 175 164 185 
f 178 162 185 
f 164 178 185 
f 167 170 186 
f 170 174 186 
f 177 167 186 
f 162 163 187 
f 173 162 187 
f 163 181 187 
f 181 184 187 
f 171 168 188 
f 168 182 188 
f 182 171 188 
f 174 177 189 
f 186 174 189 
f 177 186 189 
f 165 180 190 
f 180 173 190 
f 184 165 190 
f 173 187 190 
f 187 184 190 
f 176 165 191 
f 181 176 191 
f 165 184 191 
f 184 181 191 
f 182 172 192 
f 183 182 192 
