v -4.612906168155462e-08 0.7166103557163981 -34.81044184915819
v 0.0 16.452007314648856 -34.62724357659808
v 20.35338133573532 16.452008392077975 -28.014030752730285
v 20.46106606721878 0.7166114388467437 -28.162235138342755
v 20.46106606721878 0.7166114388467437 -28.162235138342755
v 20.35338133573532 16.452008392077975 -28.014030752730285
v 32.93246328830719 16.452011212825123 -10.700408069443618
v 33.10669660568237 0.7166142745166446 -10.757017252371686
v 33.10669660568237 0.7166142745166446 -10.757017252371686
v 32.93246328830719 16.452011212825123 -10.700408069443618
v 32.93246328830719 16.45201469945997 10.700404198813523
v 33.10669660568237 0.7166177795981827 10.757019999100788
v 33.10669660568237 0.7166177795981827 10.757019999100788
v 32.93246328830719 16.45201469945997 10.700404198813523
v 20.3533798456192 16.452017520206876 28.01402539198407
v 20.461061596870422 0.7166206152685691 28.162240865304096
v 20.461061596870422 0.7166206152685691 28.162240865304096
v 20.3533798456192 16.452017520206876 28.01402539198407
v -3.0272094164729424e-06 16.452018597635995 34.62723821585187
v -3.0893545499566244e-06 0.7166216983979437 34.810441615655044
v -3.0893545499566244e-06 0.7166216983979437 34.810441615655044
v -3.0272094164729424e-06 16.452018597635995 34.62723821585187
v -20.35338580608368 16.45201752020639 28.01402241175183
v -20.4610675573349 0.716620615267598 28.162234904839618
v -20.4610675573349 0.716620615267598 28.162234904839618
v -20.35338580608368 16.45201752020639 28.01402241175183
v -32.93246328830719 16.452014699460335 10.700406433987702
v -33.106693625450134 0.7166177795985469 10.757022234274967
v -33.106693625450134 0.7166177795985469 10.757022234274967
v -32.93246328830719 16.452014699460335 10.700406433987702
v -32.93246328830719 16.452011212824274 -10.700413284850036
v -33.106693625450134 0.7166142745157948 -10.757022467778103
v -20.353370904922485 16.452008392077005 -28.014036713194763
v -32.93246328830719 16.452011212824274 -10.700413284850036
v -30.43871521949768 27.34666305582074 -9.890147283563241
v -18.81215274333954 27.34666044866862 -25.892733022460565
v -20.461052656173706 0.716611438844316 -28.16225003950395
v -20.353370904922485 16.452008392077005 -28.014036713194763
v 0.0 16.452007314648856 -34.62724357659808
v -4.612906168155462e-08 0.7166103557163981 -34.81044184915819
v -33.106693625450134 0.7166142745157948 -10.757022467778103
v -32.93246328830719 16.452011212824274 -10.700413284850036
v -20.353370904922485 16.452008392077005 -28.014036713194763
v -20.461052656173706 0.716611438844316 -28.16225003950395
v -4.612906168155462e-08 0.7166103557163981 -34.81044184915819
v 20.46106606721878 0.7166114388467437 -28.162235138342755
v 33.10669660568237 0.7166142745166446 -10.757017252371686
v 33.10669660568237 0.7166177795981827 10.757019999100788
v 20.461061596870422 0.7166206152685691 28.162240865304096
v -3.0893545499566244e-06 0.7166216983979437 34.810441615655044
v -20.4610675573349 0.716620615267598 28.162234904839618
v -33.106693625450134 0.7166177795985469 10.757022234274967
v -33.106693625450134 0.7166142745157948 -10.757022467778103
v -20.461052656173706 0.716611438844316 -28.16225003950395
v 18.812160193920135 27.346668885588958 25.892715171089545
v 30.43871521949768 27.34666627843781 9.890135392656699
v 32.30837881565094 32.517518323287774 10.497625834826835
v 19.96767520904541 32.51752109058057 27.483148045424826
v -32.93246328830719 16.452011212824274 -10.700413284850036
v -32.93246328830719 16.452014699460335 10.700406433987702
v -30.43871521949768 27.34666627843817 9.890137627830878
v -30.43871521949768 27.34666305582074 -9.890147283563241
v -32.93246328830719 16.452014699460335 10.700406433987702
v -20.35338580608368 16.45201752020639 28.01402241175183
v -18.812163174152374 27.346668885588958 25.892715171089545
v -30.43871521949768 27.34666627843817 9.890137627830878
v -20.35338580608368 16.45201752020639 28.01402241175183
v -3.0272094164729424e-06 16.452018597635995 34.62723821585187
v -2.6745285097717897e-06 27.346669881432057 32.005156591644656
v -18.812163174152374 27.346668885588958 25.892715171089545
v -3.0272094164729424e-06 16.452018597635995 34.62723821585187
v 20.3533798456192 16.452017520206876 28.01402539198407
v 18.812160193920135 27.346668885588958 25.892715171089545
v -2.6745285097717897e-06 27.346669881432057 32.005156591644656
v 20.3533798456192 16.452017520206876 28.01402539198407
v 32.93246328830719 16.45201469945997 10.700404198813523
v 30.43871521949768 27.34666627843781 9.890135392656699
v 18.812160193920135 27.346668885588958 25.892715171089545
v 20.35338133573532 16.452008392077975 -28.014030752730285
v 0.0 16.452007314648856 -34.62724357659808
v 1.2345119371204305e-07 27.346659452826977 -32.00516550231897
v 18.812163174152374 27.346660448670075 -25.89272408176385
v 32.93246328830719 16.45201469945997 10.700404198813523
v 32.93246328830719 16.452011212825123 -10.700408069443618
v 30.43871521949768 27.34666305582159 -9.890142068156823
v 30.43871521949768 27.34666627843781 9.890135392656699
v 32.93246328830719 16.452011212825123 -10.700408069443618
v 20.35338133573532 16.452008392077975 -28.014030752730285
v 18.812163174152374 27.346660448670075 -25.89272408176385
v 30.43871521949768 27.34666305582159 -9.890142068156823
v 0.0 16.452007314648856 -34.62724357659808
v -20.353370904922485 16.452008392077005 -28.014036713194763
v -18.81215274333954 27.34666044866862 -25.892733022460565
v 1.2345119371204305e-07 27.346659452826977 -32.00516550231897
v 19.96767967939377 32.51751213543261 -27.48315864097654
v 1.0498322211560662e-07 32.517511078421485 -33.9710467387396
v 9.997263017424984e-08 35.54776677947128 -32.34969062594741
v 19.014669954776764 35.547767786034164 -26.171451638024745
v 18.812163174152374 27.346660448670075 -25.89272408176385
v 1.2345119371204305e-07 27.346659452826977 -32.00516550231897
v 1.0498322211560662e-07 32.517511078421485 -33.9710467387396
v 19.96767967939377 32.51751213543261 -27.48315864097654
v -30.43871521949768 27.34666305582074 -9.890147283563241
v -30.43871521949768 27.34666627843817 9.890137627830878
v -32.30837881565094 32.51751832328826 10.497628815059073
v -32.30837881565094 32.517514902724926 -10.497639410610788
v -2.6745285097717897e-06 27.346669881432057 32.005156591644656
v 18.812160193920135 27.346668885588958 25.892715171089545
v 19.96767520904541 32.51752109058057 27.483148045424826
v -2.8648596384073244e-06 32.5175221475917 33.97103614318789
v 30.43871521949768 27.34666305582159 -9.890142068156823
v 18.812163174152374 27.346660448670075 -25.89272408176385
v 19.96767967939377 32.51751213543261 -27.48315864097654
v 32.30837881565094 32.51751490272577 -10.49763419520437
v -18.81215274333954 27.34666044866862 -25.892733022460565
v -30.43871521949768 27.34666305582074 -9.890147283563241
v -32.30837881565094 32.517514902724926 -10.497639410610788
v -19.967670738697052 32.517512135431645 -27.48316460144102
v -18.812163174152374 27.346668885588958 25.892715171089545
v -2.6745285097717897e-06 27.346669881432057 32.005156591644656
v -2.8648596384073244e-06 32.5175221475917 33.97103614318789
v -19.96767967939377 32.51752109058008 27.483145065192588
v 30.43871521949768 27.34666627843781 9.890135392656699
v 30.43871521949768 27.34666305582159 -9.890142068156823
v 32.30837881565094 32.51751490272577 -10.49763419520437
v 32.30837881565094 32.517518323287774 10.497625834826835
v 1.2345119371204305e-07 27.346659452826977 -32.00516550231897
v -18.81215274333954 27.34666044866862 -25.892733022460565
v -19.967670738697052 32.517512135431645 -27.48316460144102
v 1.0498322211560662e-07 32.517511078421485 -33.9710467387396
v -30.43871521949768 27.34666627843817 9.890137627830878
v -18.812163174152374 27.346668885588958 25.892715171089545
v -19.96767967939377 32.51752109058008 27.483145065192588
v -32.30837881565094 32.51751832328826 10.497628815059073
v -30.766373872756958 35.54777042124997 -9.996612201016841
v -30.766373872756958 35.54777367855777 9.996600618082585
v -27.704539895057678 35.547773516476134 9.001750668007436
v -27.704539895057678 35.54777058333185 -9.001760760825572
v -32.30837881565094 32.517514902724926 -10.497639410610788
v -32.30837881565094 32.51751832328826 10.497628815059073
v -30.766373872756958 35.54777367855777 9.996600618082585
v -30.766373872756958 35.54777042124997 -9.996612201016841
v -2.8648596384073244e-06 32.5175221475917 33.97103614318789
v 19.96767520904541 32.51752109058057 27.483148045424826
v 19.014665484428406 35.547776313773575 26.17144005509049
v -2.7281265246870134e-06 35.54777732033646 32.34967904301316
v 32.30837881565094 32.51751490272577 -10.49763419520437
v 19.96767967939377 32.51751213543261 -27.48315864097654
v 19.014669954776764 35.547767786034164 -26.171451638024745
v 30.766373872756958 35.5477704212507 -9.996607730668483
v -19.967670738697052 32.517512135431645 -27.48316460144102
v -32.30837881565094 32.517514902724926 -10.497639410610788
v -30.766373872756958 35.54777042124997 -9.996612201016841
v -19.014661014080048 35.54776778603319 -26.171457598489223
v -19.96767967939377 32.51752109058008 27.483145065192588
v -2.8648596384073244e-06 32.5175221475917 33.97103614318789
v -2.7281265246870134e-06 35.54777732033646 32.34967904301316
v -19.014669954776764 35.547776313773575 26.17144005509049
v 32.30837881565094 32.517518323287774 10.497625834826835
v 32.30837881565094 32.51751490272577 -10.49763419520437
v 30.766373872756958 35.5477704212507 -9.996607730668483
v 30.766373872756958 35.54777367855728 9.996597637850346
v 1.0498322211560662e-07 32.517511078421485 -33.9710467387396
v -19.967670738697052 32.517512135431645 -27.48316460144102
v -19.014661014080048 35.54776778603319 -26.171457598489223
v 9.997263017424984e-08 35.54776677947128 -32.34969062594741
v -32.30837881565094 32.51751832328826 10.497628815059073
v -19.96767967939377 32.51752109058008 27.483145065192588
v -19.014669954776764 35.547776313773575 26.17144005509049
v -30.766373872756958 35.54777367855777 9.996600618082585
v 19.96767520904541 32.51752109058057 27.483148045424826
v 32.30837881565094 32.517518323287774 10.497625834826835
v 30.766373872756958 35.54777367855728 9.996597637850346
v 19.014665484428406 35.547776313773575 26.17144005509049
v 17.12234914302826 35.547775889438505 23.566889931875767
v 17.12234914302826 145.08502867321383 23.566872085992266
v 10.273408144712448 115.31598988171685 25.792228269602475
v 10.273408144712448 97.24579277630913 25.79223121361124
v -2.7281265246870134e-06 35.54777732033646 32.34967904301316
v 19.014665484428406 35.547776313773575 26.17144005509049
v 17.12234914302826 35.547775889438505 23.566889931875767
v -2.6281044895881678e-06 35.547776795828845 29.130274226385655
v 30.766373872756958 35.5477704212507 -9.996607730668483
v 19.014669954776764 35.547767786034164 -26.171451638024745
v 17.12235063314438 35.547768210369235 -23.566901514810024
v 27.704539895057678 35.54777058333245 -9.001757035535274
v -19.014661014080048 35.54776778603319 -26.171457598489223
v -30.766373872756958 35.54777042124997 -9.996612201016841
v -27.704539895057678 35.54777058333185 -9.001760760825572
v -17.1223446726799 35.54776821036875 -23.566904495042262
v -19.014669954776764 35.547776313773575 26.17144005509049
v -2.7281265246870134e-06 35.54777732033646 32.34967904301316
v -2.6281044895881678e-06 35.547776795828845 29.130274226385655
v -17.122352123260498 35.547775889438014 23.56688695164353
v 30.766373872756958 35.54777367855728 9.996597637850346
v 30.766373872756958 35.5477704212507 -9.996607730668483
v 27.704539895057678 35.54777058333245 -9.001757035535274
v 27.704539895057678 35.54777351647565 9.001747687775197
v 9.997263017424984e-08 35.54776677947128 -32.34969062594741
v -19.014661014080048 35.54776778603319 -26.171457598489223
v -17.1223446726799 35.54776821036875 -23.566904495042262
v -8.145469299059016e-08 35.547767303978894 -29.13028580931991
v -30.766373872756958 35.54777367855777 9.996600618082585
v -19.014669954776764 35.547776313773575 26.17144005509049
v -17.122352123260498 35.547775889438014 23.56688695164353
v -27.704539895057678 35.547773516476134 9.001750668007436
v 19.014665484428406 35.547776313773575 26.17144005509049
v 30.766373872756958 35.54777367855728 9.996597637850346
v 27.704539895057678 35.54777351647565 9.001747687775197
v 17.12234914302826 35.547775889438505 23.566889931875767
v 19.014669954776764 35.547767786034164 -26.171451638024745
v 9.997263017424984e-08 35.54776677947128 -32.34969062594741
v -8.145469299059016e-08 35.547767303978894 -29.13028580931991
v 17.12235063314438 35.547768210369235 -23.566901514810024
v 17.12234914302826 145.08502867321383 23.566872085992266
v 27.704539895057678 145.08502630025097 9.001729841891693
v 30.735889077186584 146.89089222533684 9.986674695908418
v 18.995825946331024 146.89089485794213 26.145490914284576
v 27.704539895057678 35.54777058333245 -9.001757035535274
v 17.12235063314438 35.547768210369235 -23.566901514810024
v 17.12235063314438 145.08502099414457 -23.566919360693525
v 27.704539895057678 145.0850233671078 -9.001774881418777
v -27.704539895057678 35.54777058333185 -9.001760760825572
v -27.704539895057678 145.08502336710717 -9.001778606709076
v -23.471660912036896 115.31598326386909 -14.827831995461764
v -23.471660912036896 97.24578615846137 -14.827829051453
v -17.122352123260498 35.547775889438014 23.56688695164353
v -2.6281044895881678e-06 35.547776795828845 29.130274226385655
v -2.6281046672238517e-06 145.08502957960417 29.130256380502153
v -17.122352123260498 145.08502867321334 23.566869105760027
v 27.704539895057678 145.08502630025097 9.001729841891693
v 27.704539895057678 35.54777351647565 9.001747687775197
v 27.704539895057678 97.24578886753322 1.8003355603038027
v 27.704539895057678 115.31598597294094 1.8003326162950364
v -8.145469299059016e-08 35.547767303978894 -29.13028580931991
v -17.1223446726799 35.54776821036875 -23.566904495042262
v -17.1223446726799 145.0850209941441 -23.566922340925764
v -8.145469299059016e-08 145.08502008775423 -29.130303655203413
v -17.122352123260498 35.547775889438014 23.56688695164353
v -17.122352123260498 145.08502867321334 23.566869105760027
v -21.355226635932922 115.31598856997586 17.740819442297635
v -21.355226635932922 97.24579146456814 17.7408223863064
v 17.12234914302826 35.547775889438505 23.566889931875767
v 27.704539895057678 35.54777351647565 9.001747687775197
v 27.704539895057678 145.08502630025097 9.001729841891693
v 17.12234914302826 145.08502867321383 23.566872085992266
v 17.12235063314438 145.08502099414457 -23.566919360693525
v 17.12235063314438 35.547768210369235 -23.566901514810024
v 10.273410379886627 97.24578437212837 -25.792262900310877
v 10.273410379886627 115.31598147753608 -25.792265844319644
v -27.704539895057678 35.54777058333185 -9.001760760825572
v -27.704539895057678 35.547773516476134 9.001750668007436
v -27.704539895057678 145.08502630025146 9.001732822123932
v -27.704539895057678 145.08502336710717 -9.001778606709076
v 18.995827436447144 146.8908863386521 -26.14553877741159
v -8.520728012051393e-08 146.8908853330875 -32.317650407851346
v -1.9903747539018468e-07 151.72358246734794 -30.96983222451737
v 18.203599750995636 151.72358343097488 -25.05513219323685
v 17.12235063314438 145.08502099414457 -23.566919360693525
v -8.145469299059016e-08 145.08502008775423 -29.130303655203413
v -8.520728012051393e-08 146.8908853330875 -32.317650407851346
v 18.995827436447144 146.8908863386521 -26.14553877741159
v -27.704539895057678 145.08502336710717 -9.001778606709076
v -27.704539895057678 145.08502630025146 9.001732822123932
v -30.735889077186584 146.89089222533732 9.986677676140657
v -30.735889077186584 146.89088897125717 -9.98672404915155
v -2.6281046672238517e-06 145.08502957960417 29.130256380502153
v 17.12234914302826 145.08502867321383 23.566872085992266
v 18.995825946331024 146.89089485794213 26.145490914284576
v -2.9105040155741335e-06 146.89089586350772 32.317608505188815
v 27.704539895057678 145.0850233671078 -9.001774881418777
v 17.12235063314438 145.08502099414457 -23.566919360693525
v 18.995827436447144 146.8908863386521 -26.14553877741159
v 30.735889077186584 146.89088897125777 -9.98672032386125
v -17.1223446726799 145.0850209941441 -23.566922340925764
v -27.704539895057678 145.08502336710717 -9.001778606709076
v -30.735889077186584 146.89088897125717 -9.98672404915155
v -18.995824456214905 146.89088633865163 -26.14554175764383
v -17.122352123260498 145.08502867321334 23.566869105760027
v -2.6281046672238517e-06 145.08502957960417 29.130256380502153
v -2.9105040155741335e-06 146.89089586350772 32.317608505188815
v -18.9958319067955 146.89089485794213 26.145490914284576
v 27.704539895057678 145.08502630025097 9.001729841891693
v 27.704539895057678 145.0850233671078 -9.001774881418777
v 30.735889077186584 146.89088897125777 -9.98672032386125
v 30.735889077186584 146.89089222533684 9.986674695908418
v -8.145469299059016e-08 145.08502008775423 -29.130303655203413
v -17.1223446726799 145.0850209941441 -23.566922340925764
v -18.995824456214905 146.89088633865163 -26.14554175764383
v -8.520728012051393e-08 146.8908853330875 -32.317650407851346
v -27.704539895057678 145.08502630025146 9.001732822123932
v -17.122352123260498 145.08502867321334 23.566869105760027
v -18.9958319067955 146.89089485794213 26.145490914284576
v -30.735889077186584 146.89089222533732 9.986677676140657
v -2.906503837607488e-06 151.723592558592 30.96978278669784
v 18.203596770763397 151.7235915949641 25.055076794952846
v 21.416597068309784 160.67666295601478 29.477391291474554
v -3.383083324592917e-06 160.6766640897269 36.43606667599604
v -30.735889077186584 146.89088897125717 -9.98672404915155
v -30.735889077186584 146.89089222533732 9.986677676140657
v -29.45403754711151 151.7235890721537 9.57017676743934
v -29.45403754711151 151.72358595378637 -9.570225460200811
v -2.9105040155741335e-06 146.89089586350772 32.317608505188815
v 18.995825946331024 146.89089485794213 26.145490914284576
v 18.203596770763397 151.7235915949641 25.055076794952846
v -2.906503837607488e-06 151.723592558592 30.96978278669784
v 30.735889077186584 146.89088897125777 -9.98672032386125
v 18.995827436447144 146.8908863386521 -26.14553877741159
v 18.203599750995636 151.72358343097488 -25.05513219323685
v 29.45403754711151 151.7235859537871 -9.570220989852453
v -18.995824456214905 146.89088633865163 -26.14554175764383
v -30.735889077186584 146.89088897125717 -9.98672404915155
v -29.45403754711151 151.72358595378637 -9.570225460200811
v -18.20359379053116 151.72358343097488 -25.05513219323685
v -18.9958319067955 146.89089485794213 26.145490914284576
v -2.9105040155741335e-06 146.89089586350772 32.317608505188815
v -2.906503837607488e-06 151.723592558592 30.96978278669784
v -18.203604221343994 151.7235915949641 25.055076794952846
v 30.735889077186584 146.89089222533684 9.986674695908418
v 30.735889077186584 146.89088897125777 -9.98672032386125
v 29.45403754711151 151.7235859537871 -9.570220989852453
v 29.45403754711151 151.7235890721532 9.570173787207102
v -8.520728012051393e-08 146.8908853330875 -32.317650407851346
v -18.995824456214905 146.89088633865163 -26.14554175764383
v -18.20359379053116 151.72358343097488 -25.05513219323685
v -1.9903747539018468e-07 151.72358246734794 -30.96983222451737
v -30.735889077186584 146.89089222533732 9.986677676140657
v -18.9958319067955 146.89089485794213 26.145490914284576
v -18.203604221343994 151.7235915949641 25.055076794952846
v -29.45403754711151 151.7235890721537 9.57017676743934
v 18.995825946331024 146.89089485794213 26.145490914284576
v 30.735889077186584 146.89089222533684 9.986674695908418
v 29.45403754711151 151.7235890721532 9.570173787207102
v 18.203596770763397 151.7235915949641 25.055076794952846
v 21.416597068309784 160.67666295601478 29.477391291474554
v 34.65278148651123 160.67665998791878 11.259347844933721
v 34.65278148651123 169.3931121096534 11.25934642484343
v 21.416597068309784 169.3931150777494 29.47738987138426
v 29.45403754711151 151.7235859537871 -9.570220989852453
v 18.203599750995636 151.72358343097488 -25.05513219323685
v 21.416601538658142 160.67665335105212 -29.47744960703924
v 34.65278148651123 160.67665631914957 -11.259397219801691
v -18.20359379053116 151.72358343097488 -25.05513219323685
v -29.45403754711151 151.72358595378637 -9.570225460200811
v -34.65278148651123 160.67665631914872 -11.25940243520811
v -21.416592597961426 160.67665335105212 -29.47744960703924
v -18.203604221343994 151.7235915949641 25.055076794952846
v -2.906503837607488e-06 151.723592558592 30.96978278669784
v -3.383083324592917e-06 160.6766640897269 36.43606667599604
v -21.4166060090065 160.67666295601478 29.477391291474554
v 29.45403754711151 151.7235890721532 9.570173787207102
v 29.45403754711151 151.7235859537871 -9.570220989852453
v 34.65278148651123 160.67665631914957 -11.259397219801691
v 34.65278148651123 160.67665998791878 11.259347844933721
v -1.9903747539018468e-07 151.72358246734794 -30.96983222451737
v -18.20359379053116 151.72358343097488 -25.05513219323685
v -21.416592597961426 160.67665335105212 -29.47744960703924
v -1.977389363361226e-07 160.67665221734097 -36.43611903109625
v -29.45403754711151 151.7235890721537 9.57017676743934
v -18.203604221343994 151.7235915949641 25.055076794952846
v -21.4166060090065 160.67666295601478 29.477391291474554
v -34.65278148651123 160.67665998791927 11.25935082516596
v 18.203596770763397 151.7235915949641 25.055076794952846
v 29.45403754711151 151.7235890721532 9.570173787207102
v 34.65278148651123 160.67665998791878 11.259347844933721
v 21.416597068309784 160.67666295601478 29.477391291474554
v 18.203599750995636 151.72358343097488 -25.05513219323685
v -1.9903747539018468e-07 151.72358246734794 -30.96983222451737
v -1.977389363361226e-07 160.67665221734097 -36.43611903109625
v 21.416601538658142 160.67665335105212 -29.47744960703924
v -29.45403754711151 151.72358595378637 -9.570225460200811
v -29.45403754711151 151.7235890721537 9.57017676743934
v -34.65278148651123 160.67665998791927 11.25935082516596
v -34.65278148651123 160.67665631914872 -11.25940243520811
v 21.416597068309784 169.3931150777494 29.47738987138426
v 34.65278148651123 169.3931121096534 11.25934642484343
v 26.070892810821533 169.39311165536128 8.470921187903047
v 16.11269861459732 169.39311388839764 22.17720073392546
v 21.416601538658142 160.67665335105212 -29.47744960703924
v -1.977389363361226e-07 160.67665221734097 -36.43611903109625
v -1.977389363361226e-07 169.3931043390756 -36.43612045118654
v 21.416601538658142 169.39310547278674 -29.477451027129533
v -34.65278148651123 160.67665631914872 -11.25940243520811
v -34.65278148651123 160.67665998791927 11.25935082516596
v -34.65278148651123 169.39311210965388 11.25934940507567
v -34.65278148651123 169.39310844088334 -11.2594038552984
v -3.383083324592917e-06 160.6766640897269 36.43606667599604
v 21.416597068309784 160.67666295601478 29.477391291474554
v 21.416597068309784 169.3931150777494 29.47738987138426
v -3.383083324592917e-06 169.39311621146152 36.436065255905746
v 34.65278148651123 160.67665631914957 -11.259397219801691
v 21.416601538658142 160.67665335105212 -29.47744960703924
v 21.416601538658142 169.39310547278674 -29.477451027129533
v 34.65278148651123 169.3931084408842 -11.259398639891982
v -21.416592597961426 160.67665335105212 -29.47744960703924
v -34.65278148651123 160.67665631914872 -11.25940243520811
v -34.65278148651123 169.39310844088334 -11.2594038552984
v -21.416592597961426 169.39310547278674 -29.477451027129533
v -21.4166060090065 160.67666295601478 29.477391291474554
v -3.383083324592917e-06 160.6766640897269 36.43606667599604
v -3.383083324592917e-06 169.39311621146152 36.436065255905746
v -21.4166060090065 169.3931150777494 29.47738987138426
v 34.65278148651123 160.67665998791878 11.259347844933721
v 34.65278148651123 160.67665631914957 -11.259397219801691
v 34.65278148651123 169.3931084408842 -11.259398639891982
v 34.65278148651123 169.3931121096534 11.25934642484343
v -1.977389363361226e-07 160.67665221734097 -36.43611903109625
v -21.416592597961426 160.67665335105212 -29.47744960703924
v -21.416592597961426 169.39310547278674 -29.477451027129533
v -1.977389363361226e-07 169.3931043390756 -36.43612045118654
v -34.65278148651123 160.67665998791927 11.25935082516596
v -21.4166060090065 160.67666295601478 29.477391291474554
v -21.4166060090065 169.3931150777494 29.47738987138426
v -34.65278148651123 169.39311210965388 11.25934940507567
v -2.749707661564571e-06 169.393114741342 27.41253596475279
v 16.11269861459732 169.39311388839764 22.17720073392546
v 16.11269861459732 159.87570647110027 22.17720228450793
v -2.749707661564571e-06 159.87570732404464 27.412537515335263
v 26.070892810821533 169.3931088951762 -8.470974148009658
v 26.070892810821533 169.39311165536128 8.470921187903047
v 26.070892810821533 177.30001349175654 8.470919899705237
v 26.070892810821533 177.30001073157146 -8.470975436207468
v -34.65278148651123 169.39310844088334 -11.2594038552984
v -34.65278148651123 169.39311210965388 11.25934940507567
v -26.070892810821533 169.39311165536165 8.470923423077226
v -26.070892810821533 169.3931088951756 -8.470977873299956
v -2.749707661564571e-06 169.393114741342 27.41253596475279
v -3.383083324592917e-06 169.39311621146152 36.436065255905746
v -3.383083324592917e-06 177.30001804785678 36.43606396770794
v -2.749707661564571e-06 177.30001657773727 27.412534676554984
v 34.65278148651123 169.3931084408842 -11.259398639891982
v 21.416601538658142 169.39310547278674 -29.477451027129533
v 16.11270159482956 169.393106662139 -22.177258909438493
v 26.070892810821533 169.3931088951762 -8.470974148009658
v -34.65278148651123 169.39311210965388 11.25934940507567
v -21.4166060090065 169.3931150777494 29.47738987138426
v -21.4166060090065 177.30001691414466 29.477388583186453
v -34.65278148651123 177.30001394604915 11.25934811687786
v -21.4166060090065 169.3931150777494 29.47738987138426
v -3.383083324592917e-06 169.39311621146152 36.436065255905746
v -2.749707661564571e-06 169.393114741342 27.41253596475279
v -16.112706065177917 169.39311388839764 22.17720073392546
v -26.070892810821533 169.3931088951756 -8.470977873299956
v -16.1126971244812 169.393106662139 -22.177258909438493
v -16.1126971244812 177.30000849853425 -22.1772601976363
v -26.070892810821533 177.30001073157086 -8.470979161497766
v -1.977389363361226e-07 169.3931043390756 -36.43612045118654
v -21.416592597961426 169.39310547278674 -29.477451027129533
v -16.1126971244812 169.393106662139 -22.177258909438493
v -3.532255377081128e-07 169.3931058091951 -27.412591160033585
v -34.65278148651123 169.39310844088334 -11.2594038552984
v -26.070892810821533 169.3931088951756 -8.470977873299956
v -26.070892810821533 177.30001073157086 -8.470979161497766
v -34.65278148651123 177.3000102772786 -11.25940514349621
v 21.416601538658142 177.300007309182 -29.47745231532734
v -1.977389363361226e-07 177.30000617547086 -36.43612173938435
v -3.532255377081128e-07 177.30000764559037 -27.412592448231393
v 16.11270159482956 177.30000849853425 -22.1772601976363
v -3.383083324592917e-06 177.30001804785678 36.43606396770794
v 21.416597068309784 177.30001691414466 29.477388583186453
v 16.11269861459732 177.3000157247929 22.177199445727652
v -2.749707661564571e-06 177.30001657773727 27.412534676554984
v -21.416592597961426 177.300007309182 -29.47745231532734
v -34.65278148651123 177.3000102772786 -11.25940514349621
v -26.070892810821533 177.30001073157086 -8.470979161497766
v -16.1126971244812 177.30000849853425 -22.1772601976363
v 34.65278148651123 177.30001394604867 11.25934513664562
v 34.65278148651123 177.30001027727945 -11.259399928089792
v 26.070892810821533 177.30001073157146 -8.470975436207468
v 26.070892810821533 177.30001349175654 8.470919899705237
v -34.65278148651123 177.30001394604915 11.25934811687786
v -21.4166060090065 177.30001691414466 29.477388583186453
v -16.112706065177917 177.3000157247929 22.177199445727652
v -26.070892810821533 177.3000134917569 8.470922134879416
v 34.65278148651123 169.3931084408842 -11.259398639891982
v 26.070892810821533 169.3931088951762 -8.470974148009658
v 26.070892810821533 177.30001073157146 -8.470975436207468
v 34.65278148651123 177.30001027727945 -11.259399928089792
v 21.416601538658142 169.39310547278674 -29.477451027129533
v -1.977389363361226e-07 169.3931043390756 -36.43612045118654
v -1.977389363361226e-07 177.30000617547086 -36.43612173938435
v 21.416601538658142 177.300007309182 -29.47745231532734
v 26.070892810821533 169.39311165536128 8.470921187903047
v 34.65278148651123 169.3931121096534 11.25934642484343
v 34.65278148651123 177.30001394604867 11.25934513664562
v 26.070892810821533 177.30001349175654 8.470919899705237
v -21.416592597961426 169.39310547278674 -29.477451027129533
v -34.65278148651123 169.39310844088334 -11.2594038552984
v -34.65278148651123 177.3000102772786 -11.25940514349621
v -21.416592597961426 177.300007309182 -29.47745231532734
v -16.1126971244812 169.393106662139 -22.177258909438493
v -21.416592597961426 169.39310547278674 -29.477451027129533
v -21.416592597961426 177.300007309182 -29.47745231532734
v -16.1126971244812 177.30000849853425 -22.1772601976363
v 21.416597068309784 169.3931150777494 29.47738987138426
v 16.11269861459732 169.39311388839764 22.17720073392546
v 16.11269861459732 177.3000157247929 22.177199445727652
v 21.416597068309784 177.30001691414466 29.477388583186453
v 16.11269861459732 169.39311388839764 22.17720073392546
v -2.749707661564571e-06 169.393114741342 27.41253596475279
v -2.749707661564571e-06 177.30001657773727 27.412534676554984
v 16.11269861459732 177.3000157247929 22.177199445727652
v -21.4166060090065 169.3931150777494 29.47738987138426
v -16.112706065177917 169.39311388839764 22.17720073392546
v -16.112706065177917 177.3000157247929 22.177199445727652
v -21.4166060090065 177.30001691414466 29.477388583186453
v 34.65278148651123 169.3931121096534 11.25934642484343
v 34.65278148651123 169.3931084408842 -11.259398639891982
v 34.65278148651123 177.30001027727945 -11.259399928089792
v 34.65278148651123 177.30001394604867 11.25934513664562
v -1.977389363361226e-07 169.3931043390756 -36.43612045118654
v -3.532255377081128e-07 169.3931058091951 -27.412591160033585
v -3.532255377081128e-07 177.30000764559037 -27.412592448231393
v -1.977389363361226e-07 177.30000617547086 -36.43612173938435
v 16.11270159482956 169.393106662139 -22.177258909438493
v 21.416601538658142 169.39310547278674 -29.477451027129533
v 21.416601538658142 177.300007309182 -29.47745231532734
v 16.11270159482956 177.30000849853425 -22.1772601976363
v -16.112706065177917 169.39311388839764 22.17720073392546
v -26.070892810821533 169.39311165536165 8.470923423077226
v -26.070892810821533 177.3000134917569 8.470922134879416
v -16.112706065177917 177.3000157247929 22.177199445727652
v -3.383083324592917e-06 169.39311621146152 36.436065255905746
v 21.416597068309784 169.3931150777494 29.47738987138426
v 21.416597068309784 177.30001691414466 29.477388583186453
v -3.383083324592917e-06 177.30001804785678 36.43606396770794
v -26.070892810821533 169.39311165536165 8.470923423077226
v -34.65278148651123 169.39311210965388 11.25934940507567
v -34.65278148651123 177.30001394604915 11.25934811687786
v -26.070892810821533 177.3000134917569 8.470922134879416
v -3.532255377081128e-07 169.3931058091951 -27.412591160033585
v 16.11270159482956 169.393106662139 -22.177258909438493
v 16.11270159482956 177.30000849853425 -22.1772601976363
v -3.532255377081128e-07 177.30000764559037 -27.412592448231393
v 16.11270159482956 159.87569924484163 -22.17725735885602
v -3.532255377081128e-07 159.87569839189774 -27.412589609451114
v -16.1126971244812 159.87569924484163 -22.17725735885602
v -26.070892810821533 159.87570147787824 -8.470976322717487
v -26.070892810821533 159.8757042380643 8.470924973659695
v -16.112706065177917 159.87570647110027 22.17720228450793
v -2.749707661564571e-06 159.87570732404464 27.412537515335263
v 16.11269861459732 159.87570647110027 22.17720228450793
v 26.070892810821533 159.87570423806392 8.470922738485516
v 26.070892810821533 159.87570147787883 -8.470972597427188
v 26.070892810821533 169.3931088951762 -8.470974148009658
v 16.11270159482956 169.393106662139 -22.177258909438493
v 16.11270159482956 159.87569924484163 -22.17725735885602
v 26.070892810821533 159.87570147787883 -8.470972597427188
v -16.1126971244812 169.393106662139 -22.177258909438493
v -26.070892810821533 169.3931088951756 -8.470977873299956
v -26.070892810821533 159.87570147787824 -8.470976322717487
v -16.1126971244812 159.87569924484163 -22.17725735885602
v -16.112706065177917 169.39311388839764 22.17720073392546
v -2.749707661564571e-06 169.393114741342 27.41253596475279
v -2.749707661564571e-06 159.87570732404464 27.412537515335263
v -16.112706065177917 159.87570647110027 22.17720228450793
v 26.070892810821533 169.39311165536128 8.470921187903047
v 26.070892810821533 169.3931088951762 -8.470974148009658
v 26.070892810821533 159.87570147787883 -8.470972597427188
v 26.070892810821533 159.87570423806392 8.470922738485516
v -3.532255377081128e-07 169.3931058091951 -27.412591160033585
v -16.1126971244812 169.393106662139 -22.177258909438493
v -16.1126971244812 159.87569924484163 -22.17725735885602
v -3.532255377081128e-07 159.87569839189774 -27.412589609451114
v -26.070892810821533 169.39311165536165 8.470923423077226
v -16.112706065177917 169.39311388839764 22.17720073392546
v -16.112706065177917 159.87570647110027 22.17720228450793
v -26.070892810821533 159.8757042380643 8.470924973659695
v 16.11269861459732 169.39311388839764 22.17720073392546
v 26.070892810821533 169.39311165536128 8.470921187903047
v 26.070892810821533 159.87570423806392 8.470922738485516
v 16.11269861459732 159.87570647110027 22.17720228450793
v 16.11270159482956 169.393106662139 -22.177258909438493
v -3.532255377081128e-07 169.3931058091951 -27.412591160033585
v -3.532255377081128e-07 159.87569839189774 -27.412589609451114
v 16.11270159482956 159.87569924484163 -22.17725735885602
v -26.070892810821533 169.3931088951756 -8.470977873299956
v -26.070892810821533 169.39311165536165 8.470923423077226
v -26.070892810821533 159.8757042380643 8.470924973659695
v -26.070892810821533 159.87570147787824 -8.470976322717487
v 6.8489402532577515 115.31598129625772 -26.904944491360965
v 10.273410379886627 115.31598147753608 -25.792265844319644
v 5.339844524860382 113.77125760056404 -13.406140266495239
v 3.5598963499069214 113.77125750634059 -13.984479664402496
v 27.704539895057678 35.54777351647565 9.001747687775197
v 27.704539895057678 35.54777058333245 -9.001757035535274
v 27.704539895057678 97.2457882809046 -1.8003651980937765
v 27.704539895057678 97.24578886753322 1.8003355603038027
v 27.704539895057678 145.0850233671078 -9.001774881418777
v 27.704539895057678 145.08502630025097 9.001729841891693
v 27.704539895057678 115.31598597294094 1.8003326162950364
v 27.704539895057678 115.31598538631232 -1.8003681421025428
v 27.704539895057678 35.54777058333245 -9.001757035535274
v 27.704539895057678 145.0850233671078 -9.001774881418777
v 27.704539895057678 115.31598538631232 -1.8003681421025428
v 27.704539895057678 97.2457882809046 -1.8003651980937765
v -21.355222165584564 97.24578568386863 -17.740858543354395
v -23.471660912036896 97.24578615846137 -14.827829051453
v -12.199942022562027 98.79053109489391 -7.707117946722259
v -11.09987422823906 98.79053084821335 -9.221232386209715
v 17.12235063314438 35.547768210369235 -23.566901514810024
v -8.145469299059016e-08 35.547767303978894 -29.13028580931991
v 6.8489402532577515 97.24578419085 -26.9049415473522
v 10.273410379886627 97.24578437212837 -25.792262900310877
v -8.145469299059016e-08 145.08502008775423 -29.130303655203413
v 17.12235063314438 145.08502099414457 -23.566919360693525
v 10.273410379886627 115.31598147753608 -25.792265844319644
v 6.8489402532577515 115.31598129625772 -26.904944491360965
v -8.145469299059016e-08 35.547767303978894 -29.13028580931991
v -8.145469299059016e-08 145.08502008775423 -29.130303655203413
v 6.8489402532577515 115.31598129625772 -26.904944491360965
v 6.8489402532577515 97.24578419085 -26.9049415473522
v 27.704539895057678 115.31598538631232 -1.8003681421025428
v 27.704539895057678 115.31598597294094 1.8003326162950364
v 14.400079846382141 113.7712599371555 0.9357559470958605
v 14.400079846382141 113.77125963224162 -0.9357920871548757
v -17.1223446726799 35.54776821036875 -23.566904495042262
v -27.704539895057678 35.54777058333185 -9.001760760825572
v -23.471660912036896 97.24578615846137 -14.827829051453
v -21.355222165584564 97.24578568386863 -17.740858543354395
v -27.704539895057678 145.08502336710717 -9.001778606709076
v -17.1223446726799 145.0850209941441 -23.566922340925764
v -21.355222165584564 115.31598278927635 -17.740861487363162
v -23.471660912036896 115.31598326386909 -14.827831995461764
v -17.1223446726799 145.0850209941441 -23.566922340925764
v -17.1223446726799 35.54776821036875 -23.566904495042262
v -21.355222165584564 97.24578568386863 -17.740858543354395
v -21.355222165584564 115.31598278927635 -17.740861487363162
v 10.273410379886627 97.24578437212837 -25.792262900310877
v 6.8489402532577515 97.24578419085 -26.9049415473522
v 3.5598963499069214 98.79053007218226 -13.984477223732222
v 5.339844524860382 98.79053016640572 -13.406137825824965
v -27.704539895057678 35.547773516476134 9.001750668007436
v -17.122352123260498 35.547775889438014 23.56688695164353
v -21.355226635932922 97.24579146456814 17.7408223863064
v -23.471665382385254 97.24579098997589 14.827795874637241
v -27.704539895057678 145.08502630025146 9.001732822123932
v -27.704539895057678 35.547773516476134 9.001750668007436
v -23.471665382385254 97.24579098997589 14.827795874637241
v -23.471665382385254 115.3159880953836 14.827792930628476
v -17.122352123260498 145.08502867321334 23.566869105760027
v -27.704539895057678 145.08502630025146 9.001732822123932
v -23.471665382385254 115.3159880953836 14.827792930628476
v -21.355226635932922 115.31598856997586 17.740819442297635
v 27.704539895057678 97.24578886753322 1.8003355603038027
v 27.704539895057678 97.2457882809046 -1.8003651980937765
v 14.400079846382141 98.7905321980833 -0.9357896464846034
v 14.400079846382141 98.79053250299718 0.9357583877661328
v -2.6281044895881678e-06 35.547776795828845 29.130274226385655
v 17.12234914302826 35.547775889438505 23.566889931875767
v 10.273408144712448 97.24579277630913 25.79223121361124
v 6.848937273025513 97.2457929575875 26.904909860652563
v 17.12234914302826 145.08502867321383 23.566872085992266
v -2.6281046672238517e-06 145.08502957960417 29.130256380502153
v 6.848937273025513 115.31599006299521 26.904906916643796
v 10.273408144712448 115.31598988171685 25.792228269602475
v -2.6281046672238517e-06 145.08502957960417 29.130256380502153
v -2.6281044895881678e-06 35.547776795828845 29.130274226385655
v 6.848937273025513 97.2457929575875 26.904909860652563
v 6.848937273025513 115.31599006299521 26.904906916643796
v 14.400079846382141 98.79053250299718 0.9357583877661328
v 14.400079846382141 98.7905321980833 -0.9357896464846034
v 14.400079846382141 113.77125963224162 -0.9357920871548757
v 14.400079846382141 113.7712599371555 0.9357559470958605
v 5.339844524860382 98.79053016640572 -13.406137825824965
v 3.5598963499069214 98.79053007218226 -13.984477223732222
v 3.5598963499069214 113.77125750634059 -13.984479664402496
v 5.339844524860382 113.77125760056404 -13.406140266495239
v -11.09987422823906 98.79053084821335 -9.221232386209715
v -12.199942022562027 98.79053109489391 -7.707117946722259
v -12.199942022562027 113.77125852905223 -7.707120387392531
v -11.09987422823906 113.77125828237168 -9.22123482687999
v -12.199945747852325 98.79053360618617 7.7070842665650945
v -11.099876463413239 98.7905338528666 9.221197960994493
v -11.099876463413239 113.77126128702493 9.221195520324219
v -12.199945747852325 113.7712610403445 7.707081825894822
v 3.559894859790802 98.79053462889806 13.984445033691179
v 5.339843779802322 98.7905345346746 13.406105635783922
v 5.339843779802322 113.77126196883293 13.406103195113648
v 3.559894859790802 113.77126206305638 13.984442593020905
v -23.471665382385254 97.24579098997589 14.827795874637241
v -21.355226635932922 97.24579146456814 17.7408223863064
v -11.099876463413239 98.7905338528666 9.221197960994493
v -12.199945747852325 98.79053360618617 7.7070842665650945
v 27.704539895057678 97.2457882809046 -1.8003651980937765
v 27.704539895057678 115.31598538631232 -1.8003681421025428
v 14.400079846382141 113.77125963224162 -0.9357920871548757
v 14.400079846382141 98.7905321980833 -0.9357896464846034
v -23.471660912036896 115.31598326386909 -14.827831995461764
v -21.355222165584564 115.31598278927635 -17.740861487363162
v -11.09987422823906 113.77125828237168 -9.22123482687999
v -12.199942022562027 113.77125852905223 -7.707120387392531
v 6.848937273025513 97.2457929575875 26.904909860652563
v 10.273408144712448 97.24579277630913 25.79223121361124
v 5.339843779802322 98.7905345346746 13.406105635783922
v 3.559894859790802 98.79053462889806 13.984445033691179
v 10.273410379886627 115.31598147753608 -25.792265844319644
v 10.273410379886627 97.24578437212837 -25.792262900310877
v 5.339844524860382 98.79053016640572 -13.406137825824965
v 5.339844524860382 113.77125760056404 -13.406140266495239
v -21.355226635932922 115.31598856997586 17.740819442297635
v -23.471665382385254 115.3159880953836 14.827792930628476
v -12.199945747852325 113.7712610403445 7.707081825894822
v -11.099876463413239 113.77126128702493 9.221195520324219
v 27.704539895057678 115.31598597294094 1.8003326162950364
v 27.704539895057678 97.24578886753322 1.8003355603038027
v 14.400079846382141 98.79053250299718 0.9357583877661328
v 14.400079846382141 113.7712599371555 0.9357559470958605
v -23.471660912036896 97.24578615846137 -14.827829051453
v -23.471660912036896 115.31598326386909 -14.827831995461764
v -12.199942022562027 113.77125852905223 -7.707120387392531
v -12.199942022562027 98.79053109489391 -7.707117946722259
v 10.273408144712448 115.31598988171685 25.792228269602475
v 6.848937273025513 115.31599006299521 26.904906916643796
v 3.559894859790802 113.77126206305638 13.984442593020905
v 5.339843779802322 113.77126196883293 13.406103195113648
v 6.8489402532577515 97.24578419085 -26.9049415473522
v 6.8489402532577515 115.31598129625772 -26.904944491360965
v 3.5598963499069214 113.77125750634059 -13.984479664402496
v 3.5598963499069214 98.79053007218226 -13.984477223732222
v -21.355226635932922 97.24579146456814 17.7408223863064
v -21.355226635932922 115.31598856997586 17.740819442297635
v -11.099876463413239 113.77126128702493 9.221195520324219
v -11.099876463413239 98.7905338528666 9.221197960994493
v -21.355222165584564 115.31598278927635 -17.740861487363162
v -21.355222165584564 97.24578568386863 -17.740858543354395
v -11.09987422823906 98.79053084821335 -9.221232386209715
v -11.09987422823906 113.77125828237168 -9.22123482687999
v 10.273408144712448 97.24579277630913 25.79223121361124
v 10.273408144712448 115.31598988171685 25.792228269602475
v 5.339843779802322 113.77126196883293 13.406103195113648
v 5.339843779802322 98.7905345346746 13.406105635783922
v -23.471665382385254 115.3159880953836 14.827792930628476
v -23.471665382385254 97.24579098997589 14.827795874637241
v -12.199945747852325 98.79053360618617 7.7070842665650945
v -12.199945747852325 113.7712610403445 7.707081825894822
v 6.848937273025513 115.31599006299521 26.904906916643796
v 6.848937273025513 97.2457929575875 26.904909860652563
v 3.559894859790802 98.79053462889806 13.984445033691179
v 3.559894859790802 113.77126206305638 13.984442593020905
f 1 2 3
f 1 3 4
f 5 6 7
f 5 7 8
f 9 10 11
f 9 11 12
f 13 14 15
f 13 15 16
f 17 18 19
f 17 19 20
f 21 22 23
f 21 23 24
f 25 26 27
f 25 27 28
f 29 30 31
f 29 31 32
f 33 34 35
f 33 35 36
f 37 38 39
f 37 39 40
f 41 42 43
f 41 43 44
f 54 45 46
f 54 46 47
f 54 47 48
f 54 48 49
f 54 49 50
f 54 50 51
f 54 51 52
f 52 53 54
f 55 56 57
f 55 57 58
f 59 60 61
f 59 61 62
f 63 64 65
f 63 65 66
f 67 68 69
f 67 69 70
f 71 72 73
f 71 73 74
f 75 76 77
f 75 77 78
f 79 80 81
f 79 81 82
f 83 84 85
f 83 85 86
f 87 88 89
f 87 89 90
f 91 92 93
f 91 93 94
f 95 96 97
f 95 97 98
f 99 100 101
f 99 101 102
f 103 104 105
f 103 105 106
f 107 108 109
f 107 109 110
f 111 112 113
f 111 113 114
f 115 116 117
f 115 117 118
f 119 120 121
f 119 121 122
f 123 124 125
f 123 125 126
f 127 128 129
f 127 129 130
f 131 132 133
f 131 133 134
f 135 136 137
f 135 137 138
f 139 140 141
f 139 141 142
f 143 144 145
f 143 145 146
f 147 148 149
f 147 149 150
f 151 152 153
f 151 153 154
f 155 156 157
f 155 157 158
f 159 160 161
f 159 161 162
f 163 164 165
f 163 165 166
f 167 168 169
f 167 169 170
f 171 172 173
f 171 173 174
f 175 176 177
f 175 177 178
f 179 180 181
f 179 181 182
f 183 184 185
f 183 185 186
f 187 188 189
f 187 189 190
f 191 192 193
f 191 193 194
f 195 196 197
f 195 197 198
f 199 200 201
f 199 201 202
f 203 204 205
f 203 205 206
f 207 208 209
f 207 209 210
f 211 212 213
f 211 213 214
f 215 216 217
f 215 217 218
f 219 220 221
f 219 221 222
f 223 224 225
f 223 225 226
f 227 228 229
f 227 229 230
f 231 232 233
f 231 233 234
f 235 236 237
f 235 237 238
f 239 240 241
f 239 241 242
f 243 244 245
f 243 245 246
f 247 248 249
f 247 249 250
f 251 252 253
f 251 253 254
f 255 256 257
f 255 257 258
f 259 260 261
f 259 261 262
f 263 264 265
f 263 265 266
f 267 268 269
f 267 269 270
f 271 272 273
f 271 273 274
f 275 276 277
f 275 277 278
f 279 280 281
f 279 281 282
f 283 284 285
f 283 285 286
f 287 288 289
f 287 289 290
f 291 292 293
f 291 293 294
f 295 296 297
f 295 297 298
f 299 300 301
f 299 301 302
f 303 304 305
f 303 305 306
f 307 308 309
f 307 309 310
f 311 312 313
f 311 313 314
f 315 316 317
f 315 317 318
f 319 320 321
f 319 321 322
f 323 324 325
f 323 325 326
f 327 328 329
f 327 329 330
f 331 332 333
f 331 333 334
f 335 336 337
f 335 337 338
f 339 340 341
f 339 341 342
f 343 344 345
f 343 345 346
f 347 348 349
f 347 349 350
f 351 352 353
f 351 353 354
f 355 356 357
f 355 357 358
f 359 360 361
f 359 361 362
f 363 364 365
f 363 365 366
f 367 368 369
f 367 369 370
f 371 372 373
f 371 373 374
f 375 376 377
f 375 377 378
f 379 380 381
f 379 381 382
f 383 384 385
f 383 385 386
f 387 388 389
f 387 389 390
f 391 392 393
f 391 393 394
f 395 396 397
f 395 397 398
f 399 400 401
f 399 401 402
f 403 404 405
f 403 405 406
f 407 408 409
f 407 409 410
f 411 412 413
f 411 413 414
f 415 416 417
f 415 417 418
f 419 420 421
f 419 421 422
f 423 424 425
f 423 425 426
f 427 428 429
f 427 429 430
f 431 432 433
f 431 433 434
f 435 436 437
f 435 437 438
f 439 440 441
f 439 441 442
f 443 444 445
f 443 445 446
f 447 448 449
f 447 449 450
f 451 452 453
f 451 453 454
f 455 456 457
f 455 457 458
f 459 460 461
f 459 461 462
f 463 464 465
f 463 465 466
f 467 468 469
f 467 469 470
f 471 472 473
f 471 473 474
f 475 476 477
f 475 477 478
f 479 480 481
f 479 481 482
f 483 484 485
f 483 485 486
f 487 488 489
f 487 489 490
f 491 492 493
f 491 493 494
f 495 496 497
f 495 497 498
f 499 500 501
f 499 501 502
f 503 504 505
f 503 505 506
f 507 508 509
f 507 509 510
f 511 512 513
f 511 513 514
f 515 516 517
f 515 517 518
f 519 520 521
f 519 521 522
f 523 524 525
f 523 525 526
f 527 528 529
f 527 529 530
f 531 532 533
f 531 533 534
f 544 535 536
f 544 536 537
f 544 537 538
f 544 538 539
f 544 539 540
f 544 540 541
f 544 541 542
f 542 543 544
f 545 546 547
f 545 547 548
f 549 550 551
f 549 551 552
f 553 554 555
f 553 555 556
f 557 558 559
f 557 559 560
f 561 562 563
f 561 563 564
f 565 566 567
f 565 567 568
f 569 570 571
f 569 571 572
f 573 574 575
f 573 575 576
f 577 578 579
f 577 579 580
f 581 582 583
f 581 583 584
f 585 586 587
f 585 587 588
f 589 590 591
f 589 591 592
f 593 594 595
f 593 595 596
f 597 598 599
f 597 599 600
f 601 602 603
f 601 603 604
f 605 606 607
f 605 607 608
f 609 610 611
f 609 611 612
f 613 614 615
f 613 615 616
f 617 618 619
f 617 619 620
f 621 622 623
f 621 623 624
f 625 626 627
f 625 627 628
f 629 630 631
f 629 631 632
f 633 634 635
f 633 635 636
f 637 638 639
f 637 639 640
f 641 642 643
f 641 643 644
f 645 646 647
f 645 647 648
f 649 650 651
f 649 651 652
f 653 654 655
f 653 655 656
f 657 658 659
f 657 659 660
f 661 662 663
f 661 663 664
f 665 666 667
f 665 667 668
f 669 670 671
f 669 671 672
f 673 674 675
f 673 675 676
f 677 678 679
f 677 679 680
f 681 682 683
f 681 683 684
f 685 686 687
f 685 687 688
f 689 690 691
f 689 691 692
f 693 694 695
f 693 695 696
f 697 698 699
f 697 699 700
f 701 702 703
f 701 703 704
f 705 706 707
f 705 707 708
f 709 710 711
f 709 711 712
f 713 714 715
f 713 715 716
f 717 718 719
f 717 719 720
f 721 722 723
f 721 723 724
f 725 726 727
f 725 727 728
f 729 730 731
f 729 731 732
f 733 734 735
f 733 735 736
f 737 738 739
f 737 739 740
