o convex_0
v 74.417213 237.838098 24.375431
v -77.241167 0.546261 -19.658106
v 76.876212 0.546261 -19.658106
v -77.241167 220.696225 -19.658106
v -77.241167 0.546261 19.478985
v -77.241167 237.838098 24.375431
v 76.876212 220.696225 -19.658106
v 76.876212 0.546261 19.478985
v 76.876212 237.814871 4.798266
v 76.876212 191.336703 24.375431
v -77.241167 237.838098 4.798266
v -77.241167 191.336703 24.375431
v 76.876212 237.814871 24.375431
v 74.417213 237.838098 4.798266
f 7 11 14 
f 3 2 4 
f 2 3 5 
f 4 2 5 
f 4 5 6 
f 3 4 7 
f 5 3 8 
f 3 7 8 
f 8 7 9 
f 1 6 10 
f 5 8 10 
f 8 9 10 
f 6 1 11 
f 4 6 11 
f 7 4 11 
f 6 5 12 
f 10 6 12 
f 5 10 12 
f 9 1 13 
f 1 10 13 
f 10 9 13 
f 9 7 14 
f 1 9 14 
f 11 1 14 
