o convex_0
v 76.000839 236.417410 24.821644
v -77.248719 -0.900196 -19.666696
v 78.485637 -0.900196 -19.666696
v 78.470393 219.111066 -19.666696
v -77.248719 236.417410 5.042757
v -77.248719 -0.900196 19.873656
v 78.485637 -0.900196 19.873656
v -77.248719 219.111066 -19.666696
v -77.248719 236.417410 24.821644
v -77.248719 132.579343 24.821644
v 78.470393 182.012767 24.821644
v 76.000839 236.417410 5.042757
v 38.927037 48.579689 22.347650
v -77.248719 48.579689 22.347650
v 78.470393 233.908571 24.821644
v -30.281457 132.579343 24.821644
v 78.470393 233.908571 5.042757
v 78.485637 90.602746 -19.666696
v 78.485637 88.140367 19.873656
v 78.485637 90.602746 -2.366159
f 19 18 20 
f 3 2 4 
f 5 2 6 
f 2 3 6 
f 6 3 7 
f 4 2 8 
f 5 4 8 
f 2 5 8 
f 1 5 9 
f 5 6 9 
f 9 6 10 
f 1 9 10 
f 1 10 11 
f 5 1 12 
f 4 5 12 
f 6 7 13 
f 7 11 13 
f 10 6 14 
f 6 13 14 
f 13 10 14 
f 1 11 15 
f 11 7 15 
f 12 1 15 
f 11 10 16 
f 10 13 16 
f 13 11 16 
f 4 12 17 
f 12 15 17 
f 17 15 18 
f 3 4 18 
f 7 3 18 
f 4 17 18 
f 7 18 19 
f 15 7 19 
f 15 19 20 
f 18 15 20 
