o convex_0
v -17.246174 66.121151 -3.329364
v -26.528362 46.290112 -4.173282
v -26.528362 46.290112 -3.329364
v -17.246174 43.759514 -4.173282
v -18.091248 66.121151 -4.173282
v -17.246174 43.759514 -3.751323
v -24.840939 43.759514 -3.329364
v -24.840939 51.775991 -3.329364
v -25.262568 43.759514 -4.173282
v -17.246174 66.121151 -4.173282
v -26.528362 47.977906 -4.173282
v -18.513785 65.696466 -3.329364
v -18.513785 65.696466 -4.173282
v -26.528362 47.977906 -3.329364
v -25.685105 44.179821 -3.329364
v -17.246174 65.696466 -3.329364
v -24.840939 51.775991 -4.173282
v -25.685105 44.179821 -4.173282
v -18.091248 66.121151 -3.329364
v -25.262568 43.759514 -3.329364
f 15 9 20 
f 4 2 5 
f 4 1 6 
f 4 6 7 
f 1 3 7 
f 3 1 8 
f 2 4 9 
f 4 7 9 
f 1 4 10 
f 5 1 10 
f 4 5 10 
f 2 3 11 
f 5 2 11 
f 8 1 12 
f 12 5 13 
f 5 11 13 
f 8 12 13 
f 3 8 14 
f 11 3 14 
f 8 11 14 
f 3 2 15 
f 7 3 15 
f 6 1 16 
f 7 6 16 
f 1 7 16 
f 11 8 17 
f 13 11 17 
f 8 13 17 
f 2 9 18 
f 15 2 18 
f 9 15 18 
f 1 5 19 
f 12 1 19 
f 5 12 19 
f 9 7 20 
f 7 15 20 
o convex_1
v 26.216551 44.182630 -4.173282
v 1.746483 72.873155 -3.329364
v 15.669848 66.540549 -3.329364
v -0.362858 43.757986 -3.329364
v -17.246174 66.118755 -4.173282
v -17.246174 43.757986 -4.173282
v 15.669848 66.540549 -4.173282
v -17.246174 66.118755 -3.329364
v 26.641855 45.026217 -3.329364
v 0.058151 72.873155 -4.173282
v -17.246174 43.757986 -3.751323
v 19.888529 64.006937 -4.173282
v 19.888529 64.006937 -3.329364
v 25.795542 43.757986 -3.329364
v 26.216551 47.135186 -4.173282
v 25.795542 43.757986 -4.173282
v -4.585835 71.180280 -3.329364
v 1.746483 72.873155 -4.173282
v -14.711528 67.384137 -4.173282
v 26.216551 47.135186 -3.329364
v -16.820869 66.540549 -3.329364
v -17.246174 65.696962 -3.329364
v 0.058151 72.873155 -3.329364
v 19.042215 64.850524 -3.329364
v 20.730547 61.897968 -4.173282
v 26.641855 45.869805 -4.173282
v 19.042215 64.850524 -4.173282
v 20.730547 61.897968 -3.329364
v -14.711528 67.384137 -3.329364
v -16.820869 66.540549 -4.173282
v -4.585835 71.180280 -4.173282
v 26.641855 45.026217 -4.173282
f 46 29 52 
f 23 22 24 
f 25 21 26 
f 22 23 27 
f 21 25 27 
f 24 22 28 
f 25 26 28 
f 23 24 29 
f 27 25 30 
f 26 24 31 
f 28 26 31 
f 21 27 32 
f 23 29 33 
f 24 26 34 
f 29 24 34 
f 21 29 34 
f 21 32 35 
f 26 21 36 
f 21 34 36 
f 34 26 36 
f 28 22 37 
f 22 27 38 
f 30 22 38 
f 27 30 38 
f 30 25 39 
f 33 29 40 
f 25 28 41 
f 28 37 41 
f 24 28 42 
f 31 24 42 
f 28 31 42 
f 22 30 43 
f 37 22 43 
f 30 37 43 
f 27 23 44 
f 33 32 44 
f 23 33 44 
f 32 33 45 
f 35 32 45 
f 40 35 45 
f 21 35 46 
f 40 29 46 
f 35 40 46 
f 32 27 47 
f 27 44 47 
f 44 32 47 
f 33 40 48 
f 45 33 48 
f 40 45 48 
f 37 39 49 
f 41 37 49 
f 39 41 49 
f 39 25 50 
f 25 41 50 
f 41 39 50 
f 37 30 51 
f 30 39 51 
f 39 37 51 
f 29 21 52 
f 21 46 52 
o convex_2
v -18.932564 27.720034 -3.329364
v -9.228168 33.626138 -3.751323
v -9.228168 24.344693 -3.329364
v -9.651036 23.499123 -4.173282
v -21.466176 33.626138 -4.173282
v -21.466176 33.626138 -3.329364
v -9.228168 33.626138 -4.173282
v -19.775903 28.562630 -4.173282
v -9.651036 23.499123 -3.329364
v -17.244686 26.876447 -4.173282
v -9.228168 23.499123 -4.173282
v -20.199969 29.406218 -3.329364
v -21.466176 32.781559 -4.173282
v -21.043309 33.626138 -3.329364
v -12.606318 24.765991 -3.329364
v -21.466176 32.781559 -3.329364
v -18.932564 27.720034 -4.173282
v -20.199969 29.406218 -4.173282
v -12.606318 24.765991 -4.173282
v -9.228168 23.499123 -3.329364
v -19.775903 28.562630 -3.329364
v -17.244686 26.876447 -3.329364
v -18.088026 27.297745 -4.173282
v -18.088026 27.297745 -3.329364
f 53 75 76 
f 54 57 58 
f 53 55 58 
f 54 55 59 
f 56 57 59 
f 57 54 59 
f 57 56 60 
f 55 53 61 
f 60 56 62 
f 59 55 63 
f 56 59 63 
f 61 56 63 
f 53 58 64 
f 58 57 65 
f 57 60 65 
f 55 54 66 
f 54 58 66 
f 58 55 66 
f 61 53 67 
f 56 61 67 
f 64 58 68 
f 65 64 68 
f 58 65 68 
f 53 60 69 
f 60 62 69 
f 60 64 70 
f 65 60 70 
f 64 65 70 
f 62 56 71 
f 56 67 71 
f 67 62 71 
f 55 61 72 
f 63 55 72 
f 61 63 72 
f 60 53 73 
f 53 64 73 
f 64 60 73 
f 67 53 74 
f 62 67 74 
f 53 69 75 
f 69 62 75 
f 62 74 75 
f 75 74 76 
f 74 53 76 
o convex_3
v -0.365171 19.701120 -4.173282
v 21.155852 33.627129 -3.329364
v 21.155852 32.780609 -3.329364
v -9.228168 23.500238 -3.329364
v -9.228168 33.627129 -4.173282
v 21.155852 33.627129 -4.173282
v 17.777206 26.455562 -3.329364
v -0.787502 33.627129 -3.329364
v -0.365171 19.701120 -3.329364
v 17.777206 26.455562 -4.173282
v -9.228168 23.500238 -4.173282
v -9.228168 33.627129 -3.751323
v -3.318512 20.546277 -4.173282
v 18.621867 27.296629 -4.173282
v -1.209832 19.701120 -3.329364
v -7.961176 22.656444 -3.329364
v 18.621867 27.296629 -3.329364
v 21.155852 32.780609 -4.173282
v -9.228168 23.921453 -3.329364
v 0.901821 20.125062 -4.173282
v -8.805837 23.079023 -4.173282
v 0.901821 20.125062 -3.329364
v -1.209832 19.701120 -4.173282
v -3.318512 20.546277 -3.329364
v 19.041224 28.139060 -3.329364
v -7.961176 22.656444 -4.173282
v -8.805837 23.079023 -3.329364
v 19.041224 28.139060 -4.173282
v 11.022888 23.921453 -4.173282
v 11.022888 23.921453 -3.329364
v 18.199537 26.872688 -4.173282
v 18.199537 26.872688 -3.329364
f 83 107 108 
f 79 78 80 
f 81 78 82 
f 78 79 82 
f 77 81 82 
f 79 80 83 
f 80 78 84 
f 78 81 84 
f 83 80 85 
f 77 82 86 
f 81 77 87 
f 80 81 87 
f 81 80 88 
f 84 81 88 
f 87 77 89 
f 86 82 90 
f 77 85 91 
f 85 80 91 
f 91 80 92 
f 79 83 93 
f 82 79 94 
f 90 82 94 
f 80 84 95 
f 88 80 95 
f 84 88 95 
f 85 77 96 
f 77 86 96 
f 80 87 97 
f 87 89 97 
f 83 85 98 
f 85 96 98 
f 89 77 99 
f 77 91 99 
f 91 89 99 
f 89 91 100 
f 92 89 100 
f 91 92 100 
f 79 93 101 
f 93 90 101 
f 94 79 101 
f 89 92 102 
f 97 89 102 
f 92 97 102 
f 92 80 103 
f 80 97 103 
f 97 92 103 
f 90 94 104 
f 101 90 104 
f 94 101 104 
f 86 83 105 
f 96 86 105 
f 98 96 105 
f 98 105 106 
f 83 98 106 
f 105 83 106 
f 83 86 107 
f 86 90 107 
f 90 93 107 
f 107 93 108 
f 93 83 108 
o convex_4
v -21.043515 33.627129 -3.329364
v -25.264179 42.909566 -4.173282
v -25.264179 42.909566 -3.329364
v -16.403908 43.754145 -4.173282
v -16.403908 33.627129 -4.173282
v -16.403908 43.754145 -3.751323
v -21.887474 34.050410 -4.173282
v -16.403908 33.627129 -3.751323
v -24.840898 43.754145 -3.329364
v -25.264179 43.754145 -4.173282
v -21.887474 34.050410 -3.329364
v -21.465061 33.627129 -4.173282
v -21.465061 35.738576 -3.329364
v -23.996939 42.487276 -3.329364
v -22.731434 36.159874 -4.173282
v -25.264179 43.754145 -3.329364
v -22.731434 36.159874 -3.329364
v -21.465061 33.627129 -3.329364
v -21.043515 34.472699 -3.329364
v -24.419352 43.331855 -3.329364
f 122 114 128 
f 110 112 113 
f 113 112 114 
f 110 113 115 
f 109 113 116 
f 114 109 116 
f 113 114 116 
f 111 109 117 
f 114 112 117 
f 110 111 118 
f 112 110 118 
f 117 112 118 
f 109 111 119 
f 119 115 120 
f 113 109 120 
f 115 113 120 
f 117 109 121 
f 117 121 122 
f 121 114 122 
f 111 110 123 
f 110 115 123 
f 115 119 123 
f 111 117 124 
f 118 111 124 
f 117 118 124 
f 119 111 125 
f 111 123 125 
f 123 119 125 
f 109 119 126 
f 119 120 126 
f 120 109 126 
f 109 114 127 
f 121 109 127 
f 114 121 127 
f 114 117 128 
f 117 122 128 
o convex_5
v 21.572069 34.050410 -4.173282
v 25.797855 43.754145 -3.329364
v 25.797855 43.331855 -3.329364
v -16.402173 43.754145 -3.751323
v -0.787832 33.627129 -3.329364
v 25.797855 43.754145 -4.173282
v -16.402173 33.627129 -4.173282
v 21.154860 33.627129 -3.329364
v -16.402173 43.754145 -4.173282
v -0.362362 43.754145 -3.329364
v -16.402173 33.627129 -3.751323
v 21.154860 33.627129 -4.173282
v 23.265688 37.425751 -3.329364
v 25.372385 42.065978 -4.173282
v 23.265688 37.425751 -4.173282
v 25.372385 42.065978 -3.329364
v 21.572069 34.050410 -3.329364
v -0.787832 35.738576 -3.329364
v 25.797855 43.331855 -4.173282
f 131 142 147 
f 131 130 133 
f 130 131 134 
f 132 130 134 
f 134 129 135 
f 133 135 136 
f 131 133 136 
f 132 134 137 
f 135 132 137 
f 134 135 137 
f 130 132 138 
f 133 130 138 
f 133 132 139 
f 132 135 139 
f 135 133 139 
f 135 129 140 
f 136 135 140 
f 129 136 140 
f 131 136 141 
f 129 134 142 
f 142 141 143 
f 141 129 143 
f 129 142 143 
f 131 141 144 
f 142 131 144 
f 141 142 144 
f 136 129 145 
f 129 141 145 
f 141 136 145 
f 132 133 146 
f 138 132 146 
f 133 138 146 
f 134 131 147 
f 142 134 147 
o convex_6
v -17.246174 66.121151 7.220725
v -26.528362 46.290112 6.376725
v -25.685105 44.179821 6.376725
v -25.685105 44.179821 7.220725
v -19.779580 43.759514 7.220725
v -17.246174 65.696466 6.376725
v -19.779580 43.759514 6.798725
v -26.528362 47.977906 7.220725
v -18.513785 65.696466 6.376725
v -17.246174 55.147202 7.220725
v -18.513785 65.696466 7.220725
v -24.840939 43.759514 6.376725
v -26.528362 47.977906 6.376725
v -17.246174 55.147202 6.798725
v -25.262568 43.759514 7.220725
v -26.528362 46.290112 7.220725
v -24.840939 51.775991 6.376725
v -18.091248 66.121151 6.376725
v -24.840939 51.775991 7.220725
v -18.091248 66.121151 7.220725
v -17.246174 66.121151 6.376725
v -25.262568 43.759514 6.376725
f 159 162 169 
f 149 150 151 
f 148 151 152 
f 150 149 153 
f 151 148 155 
f 153 149 156 
f 148 152 157 
f 153 148 157 
f 152 154 157 
f 155 148 158 
f 150 153 159 
f 154 152 159 
f 153 154 159 
f 149 155 160 
f 156 149 160 
f 154 153 161 
f 153 157 161 
f 157 154 161 
f 151 150 162 
f 152 151 162 
f 159 152 162 
f 149 151 163 
f 155 149 163 
f 151 155 163 
f 158 156 164 
f 160 155 164 
f 156 160 164 
f 153 156 165 
f 156 158 165 
f 155 158 166 
f 164 155 166 
f 158 164 166 
f 158 148 167 
f 148 165 167 
f 165 158 167 
f 148 153 168 
f 165 148 168 
f 153 165 168 
f 150 159 169 
f 162 150 169 
o convex_7
v -18.088026 27.297745 6.376725
v -15.979677 33.626138 7.220725
v -9.228168 29.406218 7.220725
v -18.932564 27.720034 7.220725
v -21.466176 33.626138 6.376725
v -9.228168 23.499123 6.376725
v -9.651036 23.499123 7.220725
v -9.228168 29.406218 6.798725
v -21.466176 33.626138 7.220725
v -15.979677 33.626138 6.798725
v -20.199969 29.406218 6.376725
v -9.228168 24.344693 6.376725
v -20.199969 29.406218 7.220725
v -21.043309 33.626138 6.376725
v -9.228168 23.499123 7.220725
v -21.466176 32.781559 6.376725
v -12.606318 24.765991 6.376725
v -19.775903 28.562630 6.376725
v -21.466176 32.781559 7.220725
v -17.244686 26.876447 7.220725
v -9.651036 23.499123 6.376725
v -12.606318 24.765991 7.220725
v -18.932564 27.720034 6.376725
v -19.775903 28.562630 7.220725
v -17.244686 26.876447 6.376725
v -18.088026 27.297745 7.220725
f 189 173 195 
f 172 171 173 
f 170 174 175 
f 172 173 176 
f 171 172 177 
f 172 175 177 
f 173 171 178 
f 171 174 178 
f 174 171 179 
f 171 177 179 
f 174 170 180 
f 175 174 181 
f 177 175 181 
f 173 178 182 
f 174 179 183 
f 179 177 183 
f 181 174 183 
f 177 181 183 
f 175 172 184 
f 172 176 184 
f 176 175 184 
f 178 174 185 
f 174 180 185 
f 180 182 185 
f 170 175 186 
f 180 170 187 
f 182 180 187 
f 182 178 188 
f 178 185 188 
f 185 182 188 
f 176 173 189 
f 175 176 190 
f 186 175 190 
f 176 186 190 
f 186 176 191 
f 176 189 191 
f 189 186 191 
f 170 173 192 
f 187 170 192 
f 173 187 192 
f 173 182 193 
f 187 173 193 
f 182 187 193 
f 170 186 194 
f 189 170 194 
f 186 189 194 
f 173 170 195 
f 170 189 195 
o convex_8
v -19.778799 28.563622 -3.329282
v -26.107537 47.127999 6.376725
v -26.529849 47.127999 6.376725
v -18.934175 28.563622 6.376725
v -25.263656 45.863113 -3.329282
v -26.529849 46.284742 -3.329282
v -20.200368 29.408696 6.376725
v -18.934175 28.987068 -3.329282
v -25.263656 45.863113 6.376725
v -26.529849 46.284742 6.376725
v -18.934175 28.987068 6.376725
v -20.200368 29.408696 -3.329282
v -26.107537 47.127999 -3.329282
v -19.778799 28.563622 6.376725
v -18.934175 28.563622 -3.329282
v -25.685224 46.706371 6.376725
v -26.529849 47.127999 -3.329282
v -25.685224 46.706371 -3.329282
v -21.466562 32.783542 6.376725
v -21.466562 32.783542 -3.329282
f 214 201 215 
f 197 198 199 
f 200 196 201 
f 199 198 202 
f 196 200 203 
f 203 200 204 
f 197 199 204 
f 198 201 205 
f 202 198 205 
f 199 203 206 
f 203 204 206 
f 204 199 206 
f 201 196 207 
f 196 202 207 
f 198 197 208 
f 200 201 208 
f 196 199 209 
f 199 202 209 
f 202 196 209 
f 199 196 210 
f 196 203 210 
f 203 199 210 
f 204 200 211 
f 197 204 211 
f 208 197 211 
f 201 198 212 
f 198 208 212 
f 208 201 212 
f 200 208 213 
f 211 200 213 
f 208 211 213 
f 205 201 214 
f 202 205 214 
f 207 202 214 
f 207 214 215 
f 201 207 215 
o convex_9
v -21.043515 34.472699 6.376725
v -25.264179 42.909566 6.376725
v -25.264179 42.909566 7.220725
v -19.778877 43.754145 7.220725
v -21.465061 33.627129 7.220725
v -16.403908 35.316287 6.798725
v -16.403908 33.627129 7.220725
v -19.778877 43.754145 6.798725
v -21.887474 34.050410 6.376725
v -24.840898 43.754145 6.376725
v -16.403908 33.627129 6.798725
v -25.264179 43.754145 7.220725
v -16.403908 35.316287 7.220725
v -18.934918 42.065978 6.798725
v -22.731434 36.159874 7.220725
v -21.465061 33.627129 6.376725
v -23.996939 42.487276 6.376725
v -18.934918 42.065978 7.220725
v -21.887474 34.050410 7.220725
v -25.264179 43.754145 6.376725
v -22.731434 36.159874 6.376725
v -21.465061 35.738576 6.376725
v -21.043515 33.627129 6.376725
v -24.419352 43.331855 6.376725
f 223 232 239 
f 219 218 220 
f 219 220 222 
f 217 216 224 
f 216 217 225 
f 219 223 225 
f 216 221 226 
f 222 220 226 
f 221 222 226 
f 217 218 227 
f 218 219 227 
f 219 225 227 
f 219 222 228 
f 222 221 228 
f 223 219 229 
f 228 221 229 
f 220 218 230 
f 224 216 231 
f 220 224 231 
f 226 220 231 
f 216 225 232 
f 223 229 232 
f 219 228 233 
f 229 219 233 
f 228 229 233 
f 224 220 234 
f 220 230 234 
f 230 224 234 
f 225 217 235 
f 217 227 235 
f 227 225 235 
f 218 217 236 
f 217 224 236 
f 230 218 236 
f 224 230 236 
f 221 216 237 
f 229 221 237 
f 216 232 237 
f 232 229 237 
f 216 226 238 
f 231 216 238 
f 226 231 238 
f 225 223 239 
f 232 225 239 
o convex_10
v 8.074669 25.610106 6.376725
v 13.981847 30.672880 6.376725
v 13.981847 30.672880 5.953898
v 6.807842 28.140687 6.376725
v 6.807842 25.187537 1.312722
v 13.559103 29.406783 5.532063
v 6.807842 26.032138 1.312722
v 6.807842 25.187537 6.376725
v 8.074669 25.610106 1.735052
v 7.230586 28.140687 5.532559
v 11.871639 28.140687 6.376725
v 13.559103 30.672880 5.953898
v 7.652628 26.032138 1.312722
v 7.230586 25.187537 1.312722
v 11.871639 28.140687 4.266558
v 13.981847 29.828279 6.376725
v 13.137062 29.828279 5.110724
v 6.807842 26.453633 2.156887
v 7.230586 25.187537 6.376725
v 6.807842 28.140687 5.954394
v 13.559103 30.672880 6.376725
v 11.026854 28.984214 4.266063
v 7.652628 25.610106 1.312722
v 10.605514 29.406246 5.532559
v 13.981847 29.828279 5.953898
v 13.137062 29.406783 5.110724
v 13.559103 29.406783 6.376725
v 11.871639 28.985288 4.266558
f 256 252 267 
f 240 241 243 
f 244 243 246 
f 240 243 247 
f 243 244 247 
f 241 240 250 
f 240 248 250 
f 241 242 251 
f 244 246 252 
f 251 242 252 
f 246 251 252 
f 247 244 253 
f 248 240 253 
f 244 252 253 
f 245 250 254 
f 250 248 254 
f 242 241 255 
f 241 250 255 
f 246 243 257 
f 240 247 258 
f 253 240 258 
f 247 253 258 
f 243 251 259 
f 251 249 259 
f 257 243 259 
f 249 257 259 
f 243 241 260 
f 241 251 260 
f 251 243 260 
f 251 246 261 
f 246 257 261 
f 248 253 262 
f 253 252 262 
f 254 248 262 
f 249 251 263 
f 257 249 263 
f 251 261 263 
f 261 257 263 
f 242 255 264 
f 255 245 264 
f 256 242 264 
f 256 264 265 
f 245 254 265 
f 252 256 265 
f 262 252 265 
f 254 262 265 
f 264 245 265 
f 250 245 266 
f 245 255 266 
f 255 250 266 
f 252 242 267 
f 242 256 267 
o convex_11
v -26.106734 47.132997 -3.329282
v -17.246174 66.121151 6.376725
v -18.091248 66.121151 6.376725
v -26.106734 47.132997 6.376725
v -18.513785 65.695516 -3.329282
v -26.528362 47.978691 6.376725
v -17.246174 65.695516 -3.329282
v -26.528362 47.978691 -3.329282
v -24.419311 50.088279 6.376725
v -24.419311 50.088279 -3.329282
v -18.513785 65.695516 6.376725
v -17.246174 65.695516 6.376725
v -24.840939 51.775950 -3.329282
v -25.685105 47.556773 6.376725
v -18.091248 66.121151 -3.329282
v -26.528362 47.132997 6.376725
v -24.840939 51.775950 6.376725
v -25.685105 47.556773 -3.329282
v -17.246174 66.121151 -3.329282
v -26.528362 47.132997 -3.329282
v -25.262568 48.400609 6.376725
v -25.262568 48.400609 -3.329282
f 277 288 289 
f 269 270 271 
f 271 270 273 
f 268 272 274 
f 272 268 275 
f 269 271 276 
f 274 276 277 
f 268 274 277 
f 270 272 278 
f 273 270 278 
f 274 269 279 
f 269 276 279 
f 276 274 279 
f 272 275 280 
f 271 268 281 
f 276 271 281 
f 270 269 282 
f 272 270 282 
f 274 272 282 
f 268 271 283 
f 271 273 283 
f 273 275 283 
f 275 273 284 
f 278 272 284 
f 273 278 284 
f 272 280 284 
f 280 275 284 
f 268 277 285 
f 281 268 285 
f 269 274 286 
f 282 269 286 
f 274 282 286 
f 275 268 287 
f 268 283 287 
f 283 275 287 
f 277 276 288 
f 276 281 288 
f 281 285 288 
f 288 285 289 
f 285 277 289 
o convex_12
v 20.733562 61.897059 6.376725
v 5.963842 53.884795 6.798725
v 8.495967 43.755136 6.798725
v 26.641855 45.869887 7.220725
v 5.963842 70.760510 7.220725
v 25.797814 43.755136 6.376725
v 5.963842 70.760510 6.376725
v 8.495967 43.755136 7.220725
v 19.045479 64.852424 7.220725
v 25.797814 43.755136 7.220725
v 19.045479 64.852424 6.376725
v 26.641855 45.869887 6.376725
v 5.963842 53.884795 7.220725
v 19.889521 64.006523 7.220725
v 5.963842 69.914610 6.376725
v 25.372757 43.755136 6.376725
v 6.386875 70.760510 7.220725
v 15.673359 66.538938 6.376725
v 6.386875 70.760510 6.376725
v 26.218823 47.133451 7.220725
v 26.641855 45.023987 6.376725
v 15.673359 66.538938 7.220725
v 19.889521 64.006523 6.376725
v 20.733562 61.897059 7.220725
v 26.641855 45.023987 7.220725
v 26.218823 47.133451 6.376725
v 26.218823 44.180730 7.220725
v 26.218823 44.180730 6.376725
f 310 316 317 
f 291 294 296 
f 290 295 296 
f 291 292 297 
f 293 294 297 
f 292 295 297 
f 294 293 298 
f 293 297 299 
f 297 295 299 
f 290 296 300 
f 295 290 301 
f 294 291 302 
f 291 297 302 
f 297 294 302 
f 298 293 303 
f 300 298 303 
f 292 291 304 
f 291 296 304 
f 296 295 304 
f 295 292 305 
f 292 304 305 
f 304 295 305 
f 296 294 306 
f 294 298 306 
f 300 296 307 
f 298 300 307 
f 306 307 308 
f 296 306 308 
f 307 296 308 
f 293 301 309 
f 303 293 309 
f 301 293 310 
f 295 301 310 
f 306 298 311 
f 298 307 311 
f 307 306 311 
f 290 300 312 
f 303 290 312 
f 300 303 312 
f 290 303 313 
f 309 290 313 
f 303 309 313 
f 293 299 314 
f 310 293 314 
f 301 290 315 
f 290 309 315 
f 309 301 315 
f 299 295 316 
f 314 299 316 
f 310 314 316 
f 295 310 317 
f 316 295 317 
o convex_13
v -1.210163 20.123120 6.376725
v -19.356175 28.140134 -3.329282
v -19.356175 28.563126 -3.329282
v -19.356175 28.140134 6.376725
v -3.322106 20.546112 -3.329282
v -1.632907 20.968278 -3.329282
v -15.556809 27.296629 6.376725
v -17.244232 26.874464 6.376725
v -1.632907 20.968278 6.376725
v -3.322106 20.546112 6.376725
v -18.508911 28.563126 -3.329282
v -17.244232 26.874464 -3.329282
v -18.508911 28.563126 6.376725
v -2.055651 20.123120 -3.329282
v -15.556809 27.296629 -3.329282
v -1.210163 20.546112 -3.329282
v -18.931655 27.718795 -3.329282
v -19.356175 28.563126 6.376725
v -2.055651 20.123120 6.376725
v -1.210163 20.123120 -3.329282
v -18.931655 27.718795 6.376725
v -1.210163 20.546112 6.376725
v -10.915508 25.187454 6.376725
v -12.604707 24.765289 6.376725
v -10.915508 25.187454 -3.329282
v -12.604707 24.765289 -3.329282
f 341 329 343 
f 320 319 321 
f 319 320 322 
f 322 320 323 
f 321 318 324 
f 318 321 325 
f 324 318 326 
f 318 325 327 
f 323 320 328 
f 319 322 329 
f 321 324 330 
f 328 320 330 
f 324 328 330 
f 322 323 331 
f 327 322 331 
f 323 328 332 
f 328 324 332 
f 323 326 333 
f 331 323 333 
f 321 319 334 
f 319 329 334 
f 329 325 334 
f 320 321 335 
f 330 320 335 
f 321 330 335 
f 318 327 336 
f 331 318 336 
f 327 331 336 
f 318 331 337 
f 333 318 337 
f 331 333 337 
f 325 321 338 
f 321 334 338 
f 334 325 338 
f 326 318 339 
f 318 333 339 
f 333 326 339 
f 326 323 340 
f 324 326 340 
f 332 324 340 
f 322 327 341 
f 327 325 341 
f 325 329 341 
f 323 332 342 
f 340 323 342 
f 332 340 342 
f 329 322 343 
f 322 341 343 
o convex_14
v 5.541263 60.633660 7.220725
v -0.366162 56.415970 6.798725
v 0.056416 53.039142 6.376725
v 0.478375 64.432034 6.376725
v 5.963842 53.884464 6.798725
v 0.056416 53.039142 7.220725
v 0.478375 64.432034 7.220725
v 5.963842 53.884464 7.220725
v 5.963842 60.212114 6.798725
v -0.366162 62.322074 7.220725
v 0.900334 64.432034 6.376725
v -0.366162 62.322074 6.798725
v 0.478375 53.039142 6.376725
v 0.900334 64.432034 7.220725
v 0.056416 60.633660 6.376725
v 5.963842 60.212114 7.220725
v -0.366162 56.415970 7.220725
v 0.900334 60.212114 6.376725
v 0.478375 53.039142 7.220725
v 5.541263 60.633660 6.798725
f 352 354 363 
f 345 346 349 
f 349 344 350 
f 344 349 351 
f 351 348 352 
f 349 350 353 
f 350 347 353 
f 346 347 354 
f 347 350 354 
f 352 348 354 
f 346 345 355 
f 345 353 355 
f 353 347 355 
f 349 346 356 
f 348 351 356 
f 346 354 356 
f 350 344 357 
f 344 354 357 
f 354 350 357 
f 347 346 358 
f 346 355 358 
f 355 347 358 
f 344 351 359 
f 352 344 359 
f 351 352 359 
f 345 349 360 
f 353 345 360 
f 349 353 360 
f 354 348 361 
f 348 356 361 
f 356 354 361 
f 351 349 362 
f 349 356 362 
f 356 351 362 
f 344 352 363 
f 354 344 363 
o convex_15
v -1.209832 19.701120 6.376725
v 21.155852 33.627129 7.220725
v 21.155852 32.781972 7.220725
v -9.228168 23.500238 7.220725
v -0.787502 33.627129 6.376725
v 21.155852 32.781972 6.376725
v -7.961176 33.627129 7.220725
v 17.777206 26.455562 7.220725
v -9.228168 23.921453 6.376725
v -0.365171 19.701120 7.220725
v 17.777206 26.455562 6.376725
v -7.961176 33.627129 6.798725
v 21.155852 33.627129 6.376725
v -9.228168 28.982854 7.220725
v 0.898847 20.126425 6.376725
v 18.621867 27.297993 7.220725
v -8.805837 23.080386 6.376725
v -3.315538 20.546277 7.220725
v -9.228168 28.982854 6.798725
v 18.621867 27.297993 6.376725
v -7.961176 22.656444 7.220725
v -3.315538 20.546277 6.376725
v 0.898847 20.126425 7.220725
v -1.209832 19.701120 7.220725
v -0.365171 19.701120 6.376725
v 19.041224 28.140423 6.376725
v -7.961176 22.656444 6.376725
v -9.228168 23.500238 6.376725
v -8.805837 23.080386 7.220725
v 19.041224 28.140423 7.220725
v 7.650191 22.656444 6.376725
v 7.650191 22.656444 7.220725
f 394 371 395 
f 366 365 367 
f 365 366 369 
f 364 368 369 
f 367 365 370 
f 365 368 370 
f 366 367 371 
f 368 364 372 
f 371 367 373 
f 364 369 374 
f 370 368 375 
f 368 372 375 
f 368 365 376 
f 365 369 376 
f 369 368 376 
f 367 370 377 
f 372 367 377 
f 370 375 377 
f 364 374 378 
f 366 371 379 
f 371 374 379 
f 372 364 380 
f 373 367 381 
f 375 372 382 
f 372 377 382 
f 377 375 382 
f 374 369 383 
f 379 374 383 
f 381 367 384 
f 381 384 385 
f 380 364 385 
f 364 381 385 
f 371 373 386 
f 373 378 386 
f 364 373 387 
f 381 364 387 
f 373 381 387 
f 373 364 388 
f 364 378 388 
f 378 373 388 
f 369 366 389 
f 383 369 389 
f 379 383 389 
f 384 380 390 
f 385 384 390 
f 380 385 390 
f 367 372 391 
f 380 367 391 
f 372 380 391 
f 367 380 392 
f 384 367 392 
f 380 384 392 
f 366 379 393 
f 389 366 393 
f 379 389 393 
f 374 371 394 
f 378 374 394 
f 386 378 394 
f 386 394 395 
f 371 386 395 
o convex_16
v 5.541842 47.552643 7.220725
v -5.852166 46.288831 6.798725
v -5.852166 46.288831 7.220725
v 0.897690 40.801134 6.798725
v 0.477219 53.039142 6.376725
v 0.055631 53.039142 7.220725
v 0.055631 40.801134 6.376725
v -1.209130 40.801134 7.220725
v 5.541842 45.023822 6.798725
v 3.429444 41.645672 7.220725
v -4.162471 50.504332 6.798725
v -4.162471 42.067341 6.798725
v 4.273734 50.504332 6.798725
v -3.741999 50.928397 7.220725
v -4.162471 42.067341 7.220725
v 3.429444 41.645672 6.798725
v 4.273734 50.504332 7.220725
v 0.055631 53.039142 6.376725
v -0.364841 40.801134 6.376725
v 5.541842 47.552643 6.798725
v 5.541842 45.023822 7.220725
v 4.274849 42.489011 6.798725
v -0.365956 47.974313 6.376725
v -5.429463 47.974313 6.798725
v 0.477219 47.552643 6.376725
v -5.007876 43.755219 6.798725
v 0.477219 53.039142 7.220725
v -5.429463 47.974313 7.220725
v 0.897690 40.801134 7.220725
v 4.274849 42.489011 7.220725
v -1.209130 40.801134 6.798725
v -3.741999 50.928397 6.798725
f 409 413 427 
f 398 396 401 
f 396 398 403 
f 402 399 403 
f 396 403 405 
f 398 401 409 
f 403 398 410 
f 407 403 410 
f 399 402 411 
f 405 399 411 
f 401 396 412 
f 408 400 412 
f 396 408 412 
f 401 400 413 
f 400 402 413 
f 409 401 413 
f 402 403 414 
f 413 402 414 
f 396 404 415 
f 404 400 415 
f 400 408 415 
f 408 396 415 
f 404 396 416 
f 396 405 416 
f 402 404 417 
f 411 402 417 
f 405 411 417 
f 404 416 417 
f 397 413 418 
f 414 397 418 
f 413 414 418 
f 397 398 419 
f 413 397 419 
f 406 413 419 
f 402 400 420 
f 400 404 420 
f 404 402 420 
f 398 397 421 
f 410 398 421 
f 407 410 421 
f 397 414 421 
f 414 407 421 
f 400 401 422 
f 412 400 422 
f 401 412 422 
f 398 409 423 
f 409 406 423 
f 419 398 423 
f 406 419 423 
f 403 399 424 
f 399 405 424 
f 405 403 424 
f 416 405 425 
f 405 417 425 
f 417 416 425 
f 403 407 426 
f 414 403 426 
f 407 414 426 
f 406 409 427 
f 413 406 427 
o convex_17
v 0.055838 40.801093 7.220725
v -0.788163 33.627129 -3.329282
v -0.366162 33.627129 -3.329282
v -0.366162 43.754145 -3.329282
v -0.788163 35.738576 6.375981
v 0.055838 35.316287 -3.329282
v -0.366162 33.627129 6.375981
v -0.366162 43.754145 6.375981
v 0.055838 43.754145 -3.329282
v 0.055838 35.316287 6.375981
v 0.055838 43.754145 6.375981
v -0.788163 33.627129 6.375981
v -0.788163 35.738576 -3.329282
v -0.366162 38.690637 7.220725
v -0.366162 40.801093 7.220725
v 0.055838 38.690637 7.220725
f 441 434 443 
f 430 429 431 
f 430 431 433 
f 429 430 434 
f 430 433 434 
f 433 431 436 
f 428 433 436 
f 431 435 436 
f 433 428 437 
f 434 433 437 
f 435 428 438 
f 428 436 438 
f 436 435 438 
f 432 429 439 
f 429 434 439 
f 431 429 440 
f 429 432 440 
f 435 431 440 
f 432 435 440 
f 432 439 441 
f 439 434 441 
f 428 435 442 
f 435 432 442 
f 441 428 442 
f 432 441 442 
f 437 428 443 
f 434 437 443 
f 428 441 443 
o convex_18
v 21.578017 34.050410 -3.329282
v 25.797855 43.754145 6.376725
v 24.953689 43.754145 6.376725
v 20.733852 33.627129 6.376725
v 24.953689 43.754145 -3.329282
v 20.733852 34.472699 -3.329282
v 25.375028 42.065978 -3.329282
v 23.265853 37.425751 6.376725
v 20.733852 34.472699 6.376725
v 21.578017 34.050410 6.376725
v 25.375028 42.065978 6.376725
v 25.797855 43.331855 -3.329282
v 21.156678 33.627129 -3.329282
v 23.265853 37.425751 -3.329282
v 20.733852 33.627129 -3.329282
v 25.797855 43.754145 -3.329282
v 21.156678 33.627129 6.376725
v 25.797855 43.331855 6.376725
f 454 455 461 
f 445 446 447 
f 446 445 448 
f 448 444 449 
f 444 448 450 
f 445 447 451 
f 447 446 452 
f 446 448 452 
f 448 449 452 
f 449 447 452 
f 451 447 453 
f 444 451 453 
f 445 451 454 
f 451 450 454 
f 450 448 455 
f 454 450 455 
f 449 444 456 
f 444 453 456 
f 444 450 457 
f 451 444 457 
f 450 451 457 
f 447 449 458 
f 456 447 458 
f 449 456 458 
f 448 445 459 
f 445 455 459 
f 455 448 459 
f 453 447 460 
f 447 456 460 
f 456 453 460 
f 445 454 461 
f 455 445 461 
o convex_19
v 6.385842 33.627129 7.220725
v 25.797855 43.754145 7.220725
v 25.797855 43.331855 7.220725
v 23.264944 37.425751 6.376725
v 8.496917 43.754145 6.798725
v 21.155769 33.627129 7.220725
v 25.797855 43.754145 6.376725
v 6.385842 33.627129 6.798725
v 8.496917 43.754145 7.220725
v 20.730134 33.627129 6.376725
v 6.385842 39.111935 6.798725
v 6.385842 39.111935 7.220725
v 24.952285 43.754145 6.376725
v 23.264944 37.425751 7.220725
v 21.577604 34.050410 6.376725
v 7.653247 42.487276 6.798725
v 20.730134 34.472699 6.376725
v 25.374120 42.065978 6.376725
v 21.577604 34.050410 7.220725
v 25.374120 42.065978 7.220725
v 8.075082 43.331855 7.220725
v 6.809577 40.377812 7.220725
v 21.155769 33.627129 6.376725
v 25.797855 43.331855 6.376725
v 8.075082 43.331855 6.798725
v 6.809577 40.377812 6.798725
v 7.653247 42.487276 7.220725
f 483 482 488 
f 464 463 462 
f 464 462 467 
f 463 464 468 
f 466 463 468 
f 467 462 469 
f 462 463 470 
f 463 466 470 
f 468 465 471 
f 467 469 471 
f 471 469 472 
f 469 462 472 
f 462 470 473 
f 472 462 473 
f 466 468 474 
f 468 471 474 
f 464 467 475 
f 471 465 476 
f 465 475 476 
f 477 474 478 
f 471 472 478 
f 474 471 478 
f 465 468 479 
f 475 465 479 
f 475 467 480 
f 467 476 480 
f 476 475 480 
f 464 475 481 
f 479 464 481 
f 475 479 481 
f 470 466 482 
f 473 470 482 
f 472 473 483 
f 473 482 483 
f 467 471 484 
f 476 467 484 
f 471 476 484 
f 468 464 485 
f 464 479 485 
f 479 468 485 
f 466 474 486 
f 474 477 486 
f 482 466 486 
f 477 482 486 
f 477 478 487 
f 478 472 487 
f 483 477 487 
f 472 483 487 
f 482 477 488 
f 477 483 488 
o convex_20
v -0.366162 43.755136 -3.329282
v 0.899838 65.275044 6.376725
v 0.477632 65.275044 6.376725
v 0.477632 65.275044 -3.329282
v 0.477632 47.555245 -3.329282
v 0.055921 43.755136 6.376725
v -0.366162 47.978650 6.376725
v 0.055921 60.632338 -3.329282
v 0.899838 60.211040 -3.329282
v 0.477632 47.555245 6.376725
v 0.055921 60.632338 6.376725
v 0.899838 65.275044 -3.329282
v 0.899838 60.211040 6.376725
v -0.366162 47.978650 -3.329282
v -0.366162 43.755136 6.376725
v 0.055921 43.755136 -3.329282
f 494 489 504 
f 491 490 492 
f 489 492 493 
f 490 491 494 
f 494 491 495 
f 491 492 496 
f 492 489 496 
f 493 492 497 
f 493 497 498 
f 490 494 498 
f 494 493 498 
f 495 491 499 
f 496 495 499 
f 491 496 499 
f 492 490 500 
f 490 497 500 
f 497 492 500 
f 497 490 501 
f 498 497 501 
f 490 498 501 
f 489 495 502 
f 496 489 502 
f 495 496 502 
f 489 494 503 
f 494 495 503 
f 495 489 503 
f 489 493 504 
f 493 494 504 
o convex_21
v 19.045850 64.856903 6.376725
v 1.321839 72.028022 -3.329282
v 1.321839 72.872907 -3.329282
v 19.045850 64.856903 -3.329282
v 18.622528 64.011149 6.376725
v 1.745161 72.872907 6.376725
v 1.321839 72.028022 6.376725
v 18.622528 64.011149 -3.329282
v 15.666213 66.544939 -3.329282
v 4.698006 70.340853 6.376725
v 1.745161 72.872907 -3.329282
v 4.698006 70.340853 -3.329282
v 15.666213 66.544939 6.376725
v 19.045850 64.011149 -3.329282
v 19.045850 64.011149 6.376725
v 1.321839 72.872907 6.376725
f 511 510 520 
f 506 507 508 
f 509 505 510 
f 507 506 511 
f 509 510 511 
f 506 508 512 
f 508 507 513 
f 505 508 513 
f 509 511 514 
f 512 509 514 
f 507 510 515 
f 513 507 515 
f 510 513 515 
f 511 506 516 
f 506 512 516 
f 514 511 516 
f 512 514 516 
f 510 505 517 
f 505 513 517 
f 513 510 517 
f 508 505 518 
f 512 508 518 
f 509 512 518 
f 505 509 519 
f 518 505 519 
f 509 518 519 
f 510 507 520 
f 507 511 520 
o convex_22
v -0.788245 62.323148 7.220725
v -5.852166 54.305143 6.798725
v -5.008000 54.305143 6.798725
v -0.788245 62.323148 6.798725
v -0.366162 55.994136 7.220725
v -5.852166 60.211908 7.220725
v -5.852166 54.305143 7.220725
v -0.366162 55.994136 6.798725
v -5.430083 60.634156 6.798725
v -0.366162 62.323148 6.798725
v -0.366162 62.323148 7.220725
v -5.852166 60.211908 6.798725
v -5.008000 54.305143 7.220725
v -3.319669 61.477867 7.220725
v -2.476577 55.150424 6.798725
v -5.430083 60.634156 7.220725
v -2.476577 55.150424 7.220725
v -3.319669 61.477867 6.798725
f 529 534 538 
f 523 522 524 
f 525 521 526 
f 525 526 527 
f 522 523 527 
f 526 522 527 
f 523 524 528 
f 524 522 529 
f 524 521 530 
f 528 524 530 
f 525 528 530 
f 521 525 531 
f 530 521 531 
f 525 530 531 
f 522 526 532 
f 529 522 532 
f 526 529 532 
f 525 527 533 
f 527 523 533 
f 521 524 534 
f 526 521 534 
f 523 528 535 
f 528 525 535 
f 533 523 535 
f 529 526 536 
f 526 534 536 
f 534 529 536 
f 525 533 537 
f 535 525 537 
f 533 535 537 
f 524 529 538 
f 534 524 538 
o convex_23
v 21.155852 33.626427 6.376725
v 17.357849 26.453125 -3.329282
v 17.780552 26.453125 -3.329282
v 20.733149 33.626427 -3.329282
v 17.357849 27.297827 6.376725
v 18.624098 27.297827 6.376725
v 21.155852 32.782427 -3.329282
v 20.311190 33.204427 6.376725
v 17.357849 27.297827 -3.329282
v 18.624098 27.297827 -3.329282
v 21.155852 32.782427 6.376725
v 17.357849 26.453125 6.376725
v 20.311190 33.204427 -3.329282
v 17.780552 26.453125 6.376725
v 21.155852 33.626427 -3.329282
v 19.046057 28.141828 6.376725
v 20.733149 33.626427 6.376725
v 19.046057 28.141828 -3.329282
f 545 554 556 
f 541 540 542 
f 539 543 544 
f 541 542 545 
f 543 539 546 
f 543 546 547 
f 542 540 547 
f 540 543 547 
f 544 541 548 
f 541 545 548 
f 539 544 549 
f 545 539 549 
f 540 541 550 
f 543 540 550 
f 544 543 550 
f 546 542 551 
f 547 546 551 
f 542 547 551 
f 541 544 552 
f 550 541 552 
f 544 550 552 
f 542 539 553 
f 545 542 553 
f 539 545 553 
f 544 548 554 
f 549 544 554 
f 545 549 554 
f 539 542 555 
f 546 539 555 
f 542 546 555 
f 548 545 556 
f 554 548 556 
o convex_24
v -16.402173 33.627129 6.798725
v -8.806911 43.754145 7.220725
v -5.008165 38.270330 7.220725
v -5.008165 38.270330 6.798725
v -15.134065 43.754145 6.798725
v -16.402173 33.627129 7.220725
v -5.008165 33.627129 6.798725
v -15.134065 43.754145 7.220725
v -5.008165 33.627129 7.220725
v -8.806911 43.754145 6.798725
v -16.402173 34.050410 6.798725
v -16.402173 34.050410 7.220725
f 567 562 568 
f 558 559 560 
f 560 557 561 
f 559 558 562 
f 560 559 563 
f 557 560 563 
f 562 557 563 
f 558 561 564 
f 562 558 564 
f 559 562 565 
f 563 559 565 
f 562 563 565 
f 558 560 566 
f 560 561 566 
f 561 558 566 
f 561 557 567 
f 557 562 567 
f 564 561 567 
f 564 567 568 
f 562 564 568 
o convex_25
v -0.789278 72.451155 6.376725
v -17.246174 65.699151 -3.329282
v -17.246174 65.699151 6.376725
v -0.369260 71.605833 -3.329282
v -14.712520 67.387152 -3.329282
v -0.369260 71.605833 6.376725
v -0.789278 72.451155 -3.329282
v -16.821075 66.544473 6.376725
v -15.134231 66.121481 -3.329282
v -16.401058 65.699151 6.376725
v -4.586372 71.184824 6.376725
v -4.586372 71.184824 -3.329282
v 0.055838 72.451155 -3.329282
v -16.821075 66.544473 -3.329282
v 0.055838 72.028824 6.376725
v -15.134231 66.121481 6.376725
v -14.712520 67.387152 6.376725
v -17.246174 66.121481 6.376725
v 0.055838 72.451155 6.376725
v -16.401058 65.699151 -3.329282
v 0.055838 72.028824 -3.329282
v -17.246174 66.121481 -3.329282
v -7.965142 69.918492 6.376725
v -7.965142 69.918492 -3.329282
f 591 580 592 
f 572 570 573 
f 569 571 574 
f 572 573 575 
f 571 569 576 
f 570 572 577 
f 572 574 577 
f 571 570 578 
f 574 571 578 
f 569 575 579 
f 576 569 579 
f 575 573 580 
f 579 575 580 
f 575 569 581 
f 572 575 581 
f 573 570 582 
f 576 573 582 
f 569 574 583 
f 574 572 583 
f 577 574 584 
f 574 578 584 
f 578 577 584 
f 573 576 585 
f 576 579 585 
f 570 571 586 
f 571 576 586 
f 576 582 586 
f 581 569 587 
f 569 583 587 
f 583 581 587 
f 570 577 588 
f 577 578 588 
f 578 570 588 
f 572 581 589 
f 583 572 589 
f 581 583 589 
f 582 570 590 
f 570 586 590 
f 586 582 590 
f 579 580 591 
f 585 579 591 
f 585 591 592 
f 580 573 592 
f 573 585 592 
o convex_26
v -9.228210 43.757160 7.220725
v -17.246174 55.991533 6.798725
v -17.246174 55.991533 7.220725
v -7.962333 64.431126 6.798725
v -15.136007 43.757160 6.798725
v -7.962333 64.431126 7.220725
v -5.852166 53.884671 6.798725
v -17.246174 64.431126 6.798725
v -17.246174 64.431126 7.220725
v -15.557594 44.180151 7.220725
v -5.852166 60.211329 7.220725
v -9.228210 43.757160 6.798725
v -5.852166 53.884671 7.220725
v -16.400769 46.712029 6.798725
v -5.852166 60.211329 6.798725
v -16.400769 46.712029 7.220725
v -15.136007 43.757160 7.220725
v -15.557594 44.180151 6.798725
f 602 606 610 
f 594 596 597 
f 595 593 598 
f 597 596 599 
f 594 595 600 
f 596 594 600 
f 598 596 600 
f 598 600 601 
f 595 598 601 
f 600 595 601 
f 593 595 602 
f 598 593 603 
f 596 598 603 
f 593 597 604 
f 599 593 604 
f 597 599 604 
f 593 599 605 
f 603 593 605 
f 599 603 605 
f 595 594 606 
f 594 597 606 
f 599 596 607 
f 596 603 607 
f 603 599 607 
f 602 595 608 
f 595 606 608 
f 606 602 608 
f 597 593 609 
f 593 602 609 
f 602 597 609 
f 597 602 610 
f 606 597 610 
o convex_27
v -16.821075 66.544184 6.376725
v 0.055838 72.451155 7.220725
v 0.055838 72.451155 6.376725
v -5.431488 64.856141 7.220725
v -17.246174 66.121977 7.220725
v 0.055838 66.966391 6.798725
v -6.696621 64.434719 6.798725
v -17.246174 64.434719 7.220725
v -16.401058 65.700555 6.376725
v 0.055838 66.966391 7.220725
v -4.586372 71.183750 7.220725
v -17.246174 64.434719 6.798725
v -0.789278 72.451155 6.376725
v -0.369260 71.605957 6.376725
v -14.712520 67.387813 7.220725
v -4.586372 71.183750 6.376725
v -6.696621 64.434719 7.220725
v -0.789278 72.451155 7.220725
v -17.246174 66.121977 6.376725
v -5.431488 64.856141 6.798725
v -14.712520 67.387813 6.376725
v -16.821075 66.544184 7.220725
v -15.134231 66.121977 6.376725
v -2.056105 66.121977 6.798725
v -17.246174 65.700555 6.376725
v 0.055838 72.028163 6.376725
v -2.056105 66.121977 7.220725
v -7.965142 69.917914 6.376725
v -7.965142 69.917914 7.220725
v -3.322932 71.605957 6.376725
v -3.322932 71.605957 7.220725
f 640 621 641 
f 614 612 615 
f 613 612 616 
f 614 615 618 
f 611 613 619 
f 612 614 620 
f 616 612 620 
f 615 612 621 
f 618 615 622 
f 617 618 622 
f 619 617 622 
f 613 611 623 
f 612 613 623 
f 619 613 624 
f 615 621 625 
f 623 611 626 
f 617 614 627 
f 614 618 627 
f 618 617 627 
f 621 612 628 
f 612 623 628 
f 615 611 629 
f 611 619 629 
f 622 615 629 
f 614 617 630 
f 611 625 631 
f 626 611 631 
f 611 615 632 
f 625 611 632 
f 615 625 632 
f 617 619 633 
f 619 624 633 
f 630 617 633 
f 624 630 633 
f 616 620 634 
f 624 616 634 
f 614 630 634 
f 630 624 634 
f 619 622 635 
f 629 619 635 
f 622 629 635 
f 613 616 636 
f 624 613 636 
f 616 624 636 
f 620 614 637 
f 614 634 637 
f 634 620 637 
f 621 626 638 
f 626 631 638 
f 638 631 639 
f 625 621 639 
f 631 625 639 
f 621 638 639 
f 626 621 640 
f 623 626 640 
f 628 623 640 
f 628 640 641 
f 621 628 641 
o convex_28
v 5.963842 70.761708 7.220725
v 0.055838 67.388019 6.798725
v 0.478003 64.433150 6.376725
v 0.055838 72.872329 6.376725
v 5.963842 70.761708 6.376725
v 5.963842 65.278224 7.220725
v 0.055838 72.872329 7.220725
v 0.478003 64.433150 7.220725
v 5.963842 65.278224 6.798725
v 1.743922 72.872329 7.220725
v 1.743922 72.872329 6.376725
v 0.900169 64.433150 6.376725
v 0.055838 67.388019 7.220725
v 5.963842 70.340410 6.376725
v 0.900169 64.433150 7.220725
v 0.055838 72.028081 6.376725
v 2.588253 72.450205 7.220725
v 2.588253 72.450205 6.376725
f 658 646 659 
f 644 645 646 
f 646 642 647 
f 647 642 648 
f 645 643 648 
f 643 644 649 
f 647 648 649 
f 646 647 650 
f 648 642 651 
f 645 648 651 
f 646 645 652 
f 645 651 652 
f 644 646 653 
f 649 644 653 
f 650 647 653 
f 648 643 654 
f 643 649 654 
f 649 648 654 
f 646 650 655 
f 653 646 655 
f 650 653 655 
f 647 649 656 
f 649 653 656 
f 653 647 656 
f 644 643 657 
f 645 644 657 
f 643 645 657 
f 642 646 658 
f 651 642 658 
f 652 651 658 
f 652 658 659 
f 646 652 659 
o convex_29
v 26.219855 47.130766 6.376725
v 25.375855 43.755136 -3.329282
v 25.797855 43.755136 -3.329282
v 25.375855 48.397139 -3.329282
v 24.953854 47.552891 6.376725
v 25.375855 43.755136 6.376725
v 26.641855 45.021509 -3.329282
v 26.641855 45.021509 6.376725
v 24.953854 47.552891 -3.329282
v 26.641855 45.865757 -3.329282
v 24.953854 48.397139 6.376725
v 26.219855 44.177260 6.376725
v 25.797855 47.975015 6.376725
v 25.797855 47.975015 -3.329282
v 26.641855 45.865757 6.376725
v 24.953854 48.397139 -3.329282
v 26.219855 44.177260 -3.329282
v 25.797855 43.755136 6.376725
v 25.375855 48.397139 6.376725
v 26.219855 47.130766 -3.329282
f 669 673 679 
f 662 661 663 
f 664 661 665 
f 661 662 665 
f 660 664 665 
f 662 663 666 
f 660 665 667 
f 663 661 668 
f 661 664 668 
f 666 663 669 
f 667 666 669 
f 664 660 670 
f 668 664 670 
f 666 667 671 
f 667 665 671 
f 670 660 672 
f 669 663 673 
f 672 660 673 
f 663 672 673 
f 660 667 674 
f 669 660 674 
f 667 669 674 
f 663 668 675 
f 670 663 675 
f 668 670 675 
f 662 666 676 
f 671 662 676 
f 666 671 676 
f 665 662 677 
f 662 671 677 
f 671 665 677 
f 663 670 678 
f 672 663 678 
f 670 672 678 
f 660 669 679 
f 673 660 679 
o convex_30
v 24.531317 48.820916 -3.329282
v 19.469049 64.433150 6.376725
v 19.045850 64.433150 6.376725
v 25.375855 48.398709 6.376725
v 20.734306 61.898339 -3.329282
v 19.045850 63.587167 -3.329282
v 23.687399 50.931950 6.376725
v 25.375855 49.243122 -3.329282
v 24.952656 50.509743 6.376725
v 19.469049 62.320546 6.376725
v 20.734306 61.898339 6.376725
v 19.890388 64.009373 -3.329282
v 21.156885 57.679411 -3.329282
v 24.531317 48.820916 6.376725
v 19.045850 64.433150 -3.329282
v 25.375855 48.398709 -3.329282
v 19.890388 64.009373 6.376725
v 24.952656 50.509743 -3.329282
v 19.045850 63.587167 6.376725
v 24.952656 48.398709 6.376725
v 25.375855 49.243122 6.376725
v 21.156885 57.679411 6.376725
v 23.687399 50.931950 -3.329282
v 19.469049 64.433150 -3.329282
v 24.952656 48.398709 -3.329282
v 19.469049 62.320546 -3.329282
v 22.421522 54.306465 6.376725
v 22.421522 54.306465 -3.329282
f 706 701 707 
f 681 682 683 
f 684 680 685 
f 683 682 686 
f 680 684 687 
f 681 683 688 
f 686 682 689 
f 688 684 690 
f 681 688 690 
f 684 685 691 
f 690 684 691 
f 685 680 692 
f 683 686 693 
f 686 680 693 
f 682 681 694 
f 685 682 694 
f 691 685 694 
f 680 687 695 
f 687 683 695 
f 681 690 696 
f 691 681 696 
f 690 691 696 
f 687 684 697 
f 684 688 697 
f 688 687 697 
f 682 685 698 
f 689 682 698 
f 685 689 698 
f 693 680 699 
f 683 693 699 
f 695 683 699 
f 683 687 700 
f 687 688 700 
f 688 683 700 
f 686 689 701 
f 689 692 701 
f 680 686 702 
f 692 680 702 
f 681 691 703 
f 694 681 703 
f 691 694 703 
f 680 695 704 
f 699 680 704 
f 695 699 704 
f 689 685 705 
f 685 692 705 
f 692 689 705 
f 686 701 706 
f 702 686 706 
f 702 706 707 
f 701 692 707 
f 692 702 707 
o convex_31
v -0.366245 19.701120 -3.329282
v -0.366245 33.627129 6.376725
v -0.787956 33.627129 6.376725
v -0.366245 33.627129 -3.329282
v -1.210163 23.500238 -3.329282
v 0.055838 20.125062 6.376725
v -1.210163 19.701120 6.376725
v 0.055838 20.967493 -3.329282
v -0.787956 33.627129 -3.329282
v 0.055838 25.189189 6.376725
v -1.210163 19.701120 -3.329282
v -1.210163 23.500238 6.376725
v -0.366245 19.701120 6.376725
v 0.055838 20.125062 -3.329282
v 0.055838 24.345395 3.421029
v 0.055838 21.391434 -2.906496
v 0.055838 25.189189 5.532105
v 0.055838 22.235228 -1.219156
f 722 723 725 
f 710 709 711 
f 711 708 712 
f 709 710 713 
f 713 710 714 
f 708 711 715 
f 710 711 716 
f 711 712 716 
f 712 710 716 
f 711 709 717 
f 709 713 717 
f 713 715 717 
f 712 708 718 
f 708 714 718 
f 714 712 718 
f 710 712 719 
f 712 714 719 
f 714 710 719 
f 708 713 720 
f 714 708 720 
f 713 714 720 
f 713 708 721 
f 708 715 721 
f 715 713 721 
f 717 715 722 
f 715 711 723 
f 722 715 723 
f 711 717 724 
f 722 711 724 
f 717 722 724 
f 711 722 725 
f 723 711 725 
o convex_32
v 6.807842 27.718382 6.376725
v 0.056499 20.123120 -3.329282
v 0.056499 21.389989 -3.329282
v 0.056499 20.123120 6.376725
v 6.807842 22.656113 0.890969
v 0.056499 25.608422 6.376725
v 6.384851 22.233824 6.376725
v 6.384851 25.608422 0.890969
v 3.010170 20.968443 -3.329282
v 3.853510 26.873803 5.532105
v 0.899838 20.123120 6.376725
v 3.431840 21.812278 -3.329282
v 6.807842 25.608422 0.890969
v 6.807842 22.656113 6.376725
v 0.899838 20.123120 -3.329282
v 6.384851 27.718382 5.532105
v 0.478169 25.608422 5.532105
v 6.384851 22.233824 0.890969
v 3.010170 23.499949 -1.219156
v 4.275841 21.389989 0.890969
v 6.384851 26.452257 2.577359
v 5.963181 27.718382 6.376725
v 2.587840 21.812278 -3.329282
v 0.056499 25.608422 5.953940
v 0.056499 21.812278 -2.484661
v 4.275841 21.389989 6.376725
v 6.807842 27.718382 5.532105
v 3.431840 21.389989 -3.329282
v 3.431840 26.873803 5.953940
v 5.541511 25.186132 0.469134
v 5.541511 27.296092 5.110270
v 6.807842 26.452257 2.577359
f 746 752 757 
f 728 727 729 
f 728 729 731 
f 729 726 731 
f 726 729 732 
f 727 728 734 
f 729 727 736 
f 732 729 736 
f 734 728 737 
f 726 730 738 
f 730 737 738 
f 737 733 738 
f 730 726 739 
f 726 732 739 
f 732 730 739 
f 727 734 740 
f 736 727 740 
f 730 732 743 
f 734 730 743 
f 740 734 743 
f 742 735 744 
f 743 732 745 
f 740 743 745 
f 738 733 746 
f 744 735 746 
f 731 726 747 
f 726 741 747 
f 733 737 748 
f 737 728 748 
f 728 744 748 
f 728 731 749 
f 735 742 749 
f 744 728 750 
f 742 744 750 
f 728 749 750 
f 749 742 750 
f 732 736 751 
f 736 740 751 
f 745 732 751 
f 740 745 751 
f 726 738 752 
f 741 726 752 
f 746 741 752 
f 730 734 753 
f 737 730 753 
f 734 737 753 
f 741 735 754 
f 731 747 754 
f 747 741 754 
f 749 731 754 
f 735 749 754 
f 746 733 755 
f 744 746 755 
f 733 748 755 
f 748 744 755 
f 735 741 756 
f 746 735 756 
f 741 746 756 
f 738 746 757 
f 752 738 757 
o convex_33
v 16.511040 26.030463 6.376725
v 7.230214 23.078072 -3.329282
v 6.807842 22.655948 0.890969
v 8.073926 23.921082 6.376725
v 16.091766 26.874299 -3.329282
v 16.513105 26.030463 -3.329282
v 7.652586 22.655535 6.376725
v 16.089701 26.874712 6.376725
v 8.073926 23.921908 -3.329282
v 8.498363 23.078072 -3.329282
v 17.357849 26.874712 6.376725
v 6.807842 23.077659 6.376725
v 17.357849 26.452588 -3.329282
v 14.402278 25.186628 -3.329282
v 14.823617 26.452588 -3.329282
v 7.230214 23.499783 -3.329282
v 7.652586 22.655948 0.890969
v 17.357849 26.874299 -3.329282
v 17.357849 26.452175 6.376725
v 14.402278 25.187041 6.376725
v 14.823617 26.452175 6.376725
v 6.807842 22.655535 6.376725
v 7.230214 23.499783 6.376725
v 11.028465 23.921908 -3.329282
v 6.807842 23.078072 0.890969
v 11.028465 23.921082 1.312804
v 8.073926 23.921908 1.312804
v 11.028465 23.921082 6.376725
v 7.652586 22.655535 1.312804
v 16.513105 26.030463 1.312804
v 14.823617 26.452588 1.312804
v 16.089701 26.874712 1.312804
f 768 775 789 
f 759 762 763 
f 758 761 764 
f 761 758 765 
f 762 759 766 
f 760 759 767 
f 759 763 767 
f 765 758 768 
f 764 761 769 
f 763 762 770 
f 767 763 771 
f 762 766 772 
f 759 760 773 
f 766 759 773 
f 760 767 774 
f 770 762 775 
f 768 770 775 
f 768 758 776 
f 763 770 776 
f 770 768 776 
f 758 764 777 
f 761 765 778 
f 769 760 779 
f 764 769 779 
f 769 761 780 
f 766 773 780 
f 767 771 781 
f 774 767 781 
f 760 769 782 
f 773 760 782 
f 769 780 782 
f 780 773 782 
f 772 766 784 
f 761 778 784 
f 780 761 784 
f 766 780 784 
f 777 764 785 
f 771 777 785 
f 764 783 785 
f 783 771 785 
f 760 774 786 
f 779 760 786 
f 764 779 786 
f 781 771 786 
f 774 781 786 
f 783 764 786 
f 771 783 786 
f 771 763 787 
f 776 758 787 
f 763 776 787 
f 758 777 787 
f 777 771 787 
f 765 772 788 
f 778 765 788 
f 772 784 788 
f 784 778 788 
f 765 768 789 
f 772 765 789 
f 762 772 789 
f 775 762 789 
o convex_34
v -0.787832 33.627129 6.376725
v 6.385842 38.691133 7.220725
v 6.385842 38.691133 6.798725
v -5.008165 38.268802 7.220725
v 6.385842 33.627129 7.220725
v -5.008165 33.627129 7.220725
v -0.365130 38.691133 6.376725
v -5.008165 38.268802 6.798725
v 6.385842 33.627129 6.798725
v -5.008165 33.627129 6.798725
v -0.365130 38.691133 7.220725
v 0.056458 35.315461 6.376725
v 0.056458 38.691133 6.376725
v -0.787832 35.737792 6.376725
v -0.365130 33.627129 6.376725
f 801 798 804 
f 792 791 794 
f 791 793 794 
f 790 794 795 
f 794 793 795 
f 791 792 796 
f 793 796 797 
f 795 793 797 
f 794 790 798 
f 792 794 798 
f 790 795 799 
f 797 790 799 
f 795 797 799 
f 793 791 800 
f 791 796 800 
f 796 793 800 
f 790 796 801 
f 792 798 801 
f 796 792 802 
f 801 796 802 
f 792 801 802 
f 796 790 803 
f 797 796 803 
f 790 797 803 
f 798 790 804 
f 790 801 804 
o convex_35
v 1.321839 72.872412 6.376725
v 0.478045 65.277150 -3.329282
v 0.899632 65.277150 -3.329282
v 0.478045 65.277150 6.376725
v 0.055838 72.872412 -3.329282
v 1.321839 72.872412 -3.329282
v 0.055838 72.872412 6.376725
v 0.899632 65.277150 6.376725
v 0.055838 72.027833 -3.329282
v 1.321839 72.450122 -3.329282
v 0.055838 72.027833 6.376725
v 1.321839 72.450122 6.376725
f 812 814 816 
f 806 807 808 
f 807 806 809 
f 809 805 810 
f 807 809 810 
f 808 805 811 
f 805 809 811 
f 808 807 812 
f 805 808 812 
f 806 808 813 
f 809 806 813 
f 811 809 813 
f 810 805 814 
f 807 810 814 
f 812 807 814 
f 808 811 815 
f 813 808 815 
f 811 813 815 
f 805 812 816 
f 814 805 816 
