v -42.10960865020752 50.697130696429944 41.07559987465989
v -42.10960865020752 50.69711501388612 -55.183168564633014
v -44.51420605182648 22.816520879555366 -55.183164022307714
v -44.51420605182648 22.816536562099195 41.07560441698519
v -17.813438177108765 93.90709473337148 41.07559283486325
v -17.813438177108765 93.90707905082765 -55.18317560442966
v -35.04824638366699 78.45517689971986 -55.18317308699528
v -35.04824638366699 78.45519258226369 41.075595352297626
v -17.813438177108765 93.90709473337148 41.07559283486325
v 0.0 100.19103957857106 41.075591811078695
v 0.0 100.19102389602723 -55.18317662821421
v -17.813438177108765 93.90707905082765 -55.18317560442966
v -35.04824638366699 78.45519258226369 41.075595352297626
v -35.04824638366699 78.45517689971986 -55.18317308699528
v -42.10960865020752 50.69711501388612 -55.183168564633014
v -42.10960865020752 50.697130696429944 41.07559987465989
v -44.51420605182648 22.816536562099195 41.07560441698519
v -44.51420605182648 22.816520879555366 -55.183164022307714
v -44.56584453582764 0.5297153690344313 -55.18316039132625
v -44.56584453582764 0.5297312544039791 42.320543441300096
v -17.813438177108765 93.90707905082765 -55.18317560442966
v 0.0 100.19102389602723 -55.18317662821421
v 0.0 92.0371323326117 -55.18317529977667
v -11.942930519580841 87.86573107032838 -55.18317462016915
v -36.139461398124695 0.5297153690344313 -55.18316039132625
v -44.56584453582764 0.5297153690344313 -55.18316039132625
v -44.51420605182648 22.816520879555366 -55.183164022307714
v -36.19110584259033 21.502010474491737 -55.18316380814679
v -42.10960865020752 50.697130696429944 41.07559987465989
v -33.786508440971375 49.382618801250196 41.07560008882106
v -28.205981850624084 73.54003860200856 41.075596153077846
v -35.04824638366699 78.45519258226369 41.075595352297626
v 36.139461398124695 0.5297312544039791 42.320543441300096
v 36.139461398124695 0.5297153690344313 -55.18316039132625
v 44.56584453582764 0.5297153690344313 -55.18316039132625
v 44.56584453582764 0.5297312544039791 42.320543441300096
v -28.205981850624084 73.54002291946473 -55.18317228621506
v -35.04824638366699 78.45517689971986 -55.18317308699528
v -17.813438177108765 93.90707905082765 -55.18317560442966
v -11.942930519580841 87.86573107032838 -55.18317462016915
v -36.19110584259033 21.502010474491737 -55.18316380814679
v -44.51420605182648 22.816520879555366 -55.183164022307714
v -42.10960865020752 50.69711501388612 -55.183168564633014
v -33.786508440971375 49.38260311870637 -55.183168350471846
v -33.786508440971375 49.38260311870637 -55.183168350471846
v -42.10960865020752 50.69711501388612 -55.183168564633014
v -35.04824638366699 78.45517689971986 -55.18317308699528
v -28.205981850624084 73.54002291946473 -55.18317228621506
v 44.51420605182648 22.816536562099195 41.07560441698519
v 44.51420605182648 22.816520879555366 -55.183164022307714
v 42.10960865020752 50.69711501388612 -55.183168564633014
v 42.10960865020752 50.697130696429944 41.07559987465989
v 35.04824638366699 78.45519258226369 41.075595352297626
v 35.04824638366699 78.45517689971986 -55.18317308699528
v 17.813438177108765 93.90707905082765 -55.18317560442966
v 17.813438177108765 93.90709473337148 41.07559283486325
v 11.942930519580841 87.86573107032838 -55.18317462016915
v 11.942930519580841 87.86574675287221 41.07559381912376
v 0.0 92.03714801515554 41.075593139516236
v 0.0 92.0371323326117 -55.18317529977667
v 17.813438177108765 93.90709473337148 41.07559283486325
v 17.813438177108765 93.90707905082765 -55.18317560442966
v 0.0 100.19102389602723 -55.18317662821421
v 0.0 100.19103957857106 41.075591811078695
v 42.10960865020752 50.697130696429944 41.07559987465989
v 42.10960865020752 50.69711501388612 -55.183168564633014
v 35.04824638366699 78.45517689971986 -55.18317308699528
v 35.04824638366699 78.45519258226369 41.075595352297626
v 44.56584453582764 0.5297312544039791 42.320543441300096
v 44.56584453582764 0.5297153690344313 -55.18316039132625
v 44.51420605182648 22.816520879555366 -55.183164022307714
v 44.51420605182648 22.816536562099195 41.07560441698519
v 17.813438177108765 93.90707905082765 -55.18317560442966
v 11.942930519580841 87.86573107032838 -55.18317462016915
v 0.0 92.0371323326117 -55.18317529977667
v 0.0 100.19102389602723 -55.18317662821421
v 28.205981850624084 73.54003860200856 41.075596153077846
v 28.205981850624084 73.54002291946473 -55.18317228621506
v 33.786508440971375 49.38260311870637 -55.183168350471846
v 33.786508440971375 49.382618801250196 41.07560008882106
v 44.56584453582764 0.5297312544039791 42.320543441300096
v 44.51420605182648 22.816536562099195 41.07560441698519
v 36.19110584259033 21.502026157035566 41.07560463114612
v 36.139461398124695 0.5297312544039791 42.320543441300096
v 36.139461398124695 0.5297153690344313 -55.18316039132625
v 36.19110584259033 21.502010474491737 -55.18316380814679
v 44.51420605182648 22.816520879555366 -55.183164022307714
v 44.56584453582764 0.5297153690344313 -55.18316039132625
v 44.51420605182648 22.816536562099195 41.07560441698519
v 42.10960865020752 50.697130696429944 41.07559987465989
v 33.786508440971375 49.382618801250196 41.07560008882106
v 36.19110584259033 21.502026157035566 41.07560463114612
v 28.205981850624084 73.54002291946473 -55.18317228621506
v 11.942930519580841 87.86573107032838 -55.18317462016915
v 17.813438177108765 93.90707905082765 -55.18317560442966
v 35.04824638366699 78.45517689971986 -55.18317308699528
v 36.19110584259033 21.502010474491737 -55.18316380814679
v 33.786508440971375 49.38260311870637 -55.183168350471846
v 42.10960865020752 50.69711501388612 -55.183168564633014
v 44.51420605182648 22.816520879555366 -55.183164022307714
v 33.786508440971375 49.38260311870637 -55.183168350471846
v 28.205981850624084 73.54002291946473 -55.18317228621506
v 35.04824638366699 78.45517689971986 -55.18317308699528
v 42.10960865020752 50.69711501388612 -55.183168564633014
v -44.56584453582764 0.5297312544039791 42.320543441300096
v -44.56584453582764 0.5297153690344313 -55.18316039132625
v -36.139461398124695 0.5297153690344313 -55.18316039132625
v -36.139461398124695 0.5297312544039791 42.320543441300096
v 33.786508440971375 49.382618801250196 41.07560008882106
v 33.786508440971375 49.38260311870637 -55.183168350471846
v 36.19110584259033 21.502010474491737 -55.18316380814679
v 36.19110584259033 21.502026157035566 41.07560463114612
v 42.10960865020752 50.697130696429944 41.07559987465989
v 35.04824638366699 78.45519258226369 41.075595352297626
v 28.205981850624084 73.54003860200856 41.075596153077846
v 33.786508440971375 49.382618801250196 41.07560008882106
v 0.0 92.0371323326117 -55.18317529977667
v 0.0 92.03714801515554 41.075593139516236
v -11.942930519580841 87.86574675287221 41.07559381912376
v -11.942930519580841 87.86573107032838 -55.18317462016915
v 36.19110584259033 21.502010474491737 -55.18316380814679
v 36.139461398124695 0.5297153690344313 -55.18316039132625
v 36.139461398124695 0.5297312544039791 42.320543441300096
v 36.19110584259033 21.502026157035566 41.07560463114612
v -35.04824638366699 78.45519258226369 41.075595352297626
v -28.205981850624084 73.54003860200856 41.075596153077846
v -11.942930519580841 87.86574675287221 41.07559381912376
v -17.813438177108765 93.90709473337148 41.07559283486325
v -44.51420605182648 22.816536562099195 41.07560441698519
v -36.19110584259033 21.502026157035566 41.07560463114612
v -33.786508440971375 49.382618801250196 41.07560008882106
v -42.10960865020752 50.697130696429944 41.07559987465989
v -11.942930519580841 87.86574675287221 41.07559381912376
v 0.0 92.03714801515554 41.075593139516236
v 0.0 100.19103957857106 41.075591811078695
v -17.813438177108765 93.90709473337148 41.07559283486325
v 11.942930519580841 87.86574675287221 41.07559381912376
v 11.942930519580841 87.86573107032838 -55.18317462016915
v 28.205981850624084 73.54002291946473 -55.18317228621506
v 28.205981850624084 73.54003860200856 41.075596153077846
v 35.04824638366699 78.45519258226369 41.075595352297626
v 17.813438177108765 93.90709473337148 41.07559283486325
v 11.942930519580841 87.86574675287221 41.07559381912376
v 28.205981850624084 73.54003860200856 41.075596153077846
v -44.56584453582764 0.5297312544039791 42.320543441300096
v -36.139461398124695 0.5297312544039791 42.320543441300096
v -36.19110584259033 21.502026157035566 41.07560463114612
v -44.51420605182648 22.816536562099195 41.07560441698519
v 11.942930519580841 87.86574675287221 41.07559381912376
v 17.813438177108765 93.90709473337148 41.07559283486325
v 0.0 100.19103957857106 41.075591811078695
v 0.0 92.03714801515554 41.075593139516236
v -28.205981850624084 73.54003860200856 41.075596153077846
v -28.205981850624084 73.54002291946473 -55.18317228621506
v -11.942930519580841 87.86573107032838 -55.18317462016915
v -11.942930519580841 87.86574675287221 41.07559381912376
v -33.786508440971375 49.382618801250196 41.07560008882106
v -33.786508440971375 49.38260311870637 -55.183168350471846
v -28.205981850624084 73.54002291946473 -55.18317228621506
v -28.205981850624084 73.54003860200856 41.075596153077846
v -33.786508440971375 49.382618801250196 41.07560008882106
v -36.19110584259033 21.502026157035566 41.07560463114612
v -36.19110584259033 21.502010474491737 -55.18316380814679
v -33.786508440971375 49.38260311870637 -55.183168350471846
v -36.19110584259033 21.502026157035566 41.07560463114612
v -36.139461398124695 0.5297312544039791 42.320543441300096
v -36.139461398124695 0.5297153690344313 -55.18316039132625
v -36.19110584259033 21.502010474491737 -55.18316380814679
f 1 2 3
f 1 3 4
f 5 6 7
f 5 7 8
f 9 10 11
f 9 11 12
f 13 14 15
f 13 15 16
f 17 18 19
f 17 19 20
f 21 22 23
f 21 23 24
f 25 26 27
f 25 27 28
f 29 30 31
f 29 31 32
f 33 34 35
f 33 35 36
f 37 38 39
f 37 39 40
f 41 42 43
f 41 43 44
f 45 46 47
f 45 47 48
f 49 50 51
f 49 51 52
f 53 54 55
f 53 55 56
f 57 58 59
f 57 59 60
f 61 62 63
f 61 63 64
f 65 66 67
f 65 67 68
f 69 70 71
f 69 71 72
f 73 74 75
f 73 75 76
f 77 78 79
f 77 79 80
f 81 82 83
f 81 83 84
f 85 86 87
f 85 87 88
f 89 90 91
f 89 91 92
f 93 94 95
f 93 95 96
f 97 98 99
f 97 99 100
f 101 102 103
f 101 103 104
f 105 106 107
f 105 107 108
f 109 110 111
f 109 111 112
f 113 114 115
f 113 115 116
f 117 118 119
f 117 119 120
f 121 122 123
f 121 123 124
f 125 126 127
f 125 127 128
f 129 130 131
f 129 131 132
f 133 134 135
f 133 135 136
f 137 138 139
f 137 139 140
f 141 142 143
f 141 143 144
f 145 146 147
f 145 147 148
f 149 150 151
f 149 151 152
f 153 154 155
f 153 155 156
f 157 158 159
f 157 159 160
f 161 162 163
f 161 163 164
f 165 166 167
f 165 167 168
