o convex_0
v -27.955625 72.507339 42.097051
v -45.353402 -0.261248 -55.974141
v -45.353402 32.967556 -55.974141
v -45.353402 -0.261248 43.687184
v -35.866802 -0.261248 -55.974141
v -27.955625 72.507339 -55.974141
v -39.027866 69.330480 42.097051
v -35.866802 -0.261248 43.687184
v -37.445631 72.507339 -55.974141
v -43.772870 50.347680 42.097051
v -43.772870 50.347680 -55.974141
v -27.955625 67.756297 42.097051
v -45.353402 32.967556 42.097051
v -27.955625 67.756297 -55.974141
v -37.445631 72.507339 42.097051
v -39.027866 69.330480 -55.974141
v -45.353402 4.489795 43.687184
v -35.866802 4.489795 43.687184
v -42.190634 56.687152 42.097051
v -42.190634 56.687152 -55.974141
f 19 16 20 
f 3 2 4 
f 2 3 5 
f 4 2 5 
f 5 3 6 
f 4 5 8 
f 1 6 9 
f 6 3 9 
f 9 3 11 
f 3 10 11 
f 6 1 12 
f 1 8 12 
f 8 5 12 
f 3 4 13 
f 10 3 13 
f 5 6 14 
f 6 12 14 
f 12 5 14 
f 1 9 15 
f 15 9 16 
f 9 11 16 
f 7 15 16 
f 4 8 17 
f 13 4 17 
f 10 13 17 
f 1 15 17 
f 15 7 17 
f 8 1 18 
f 1 17 18 
f 17 8 18 
f 11 10 19 
f 7 16 19 
f 17 7 19 
f 10 17 19 
f 16 11 20 
f 11 19 20 
o convex_1
v -35.864944 80.417587 -55.974141
v 3.682891 100.982003 42.105258
v 3.682891 89.905425 42.105258
v -37.447179 72.507339 42.105258
v 3.682891 89.905425 -55.974141
v -26.371531 72.507339 -55.974141
v -16.882144 96.235296 -55.974141
v -20.042589 94.649345 42.105258
v 3.682891 100.982003 -55.974141
v -26.371531 72.507339 42.105258
v -35.864944 80.417587 42.105258
v -37.447179 72.507339 -55.974141
v -2.646051 100.982003 42.105258
v -2.646051 100.982003 -55.974141
v -20.042589 94.649345 -55.974141
v -37.447179 75.673668 42.105258
v -16.882144 96.235296 42.105258
v -34.282708 82.000752 42.105258
v -37.447179 75.673668 -55.974141
v -34.282708 82.000752 -55.974141
f 38 35 40 
f 23 22 24 
f 22 23 25 
f 25 23 26 
f 21 25 26 
f 25 21 27 
f 24 22 28 
f 22 25 29 
f 25 27 29 
f 23 24 30 
f 26 23 30 
f 24 26 30 
f 24 28 31 
f 26 24 32 
f 21 26 32 
f 28 22 33 
f 22 29 33 
f 33 29 34 
f 29 27 34 
f 27 33 34 
f 27 21 35 
f 28 27 35 
f 31 21 36 
f 24 31 36 
f 32 24 36 
f 27 28 37 
f 28 33 37 
f 33 27 37 
f 21 31 38 
f 31 28 38 
f 28 35 38 
f 21 32 39 
f 36 21 39 
f 32 36 39 
f 35 21 40 
f 21 38 40 
o convex_2
v 40.065326 66.168487 42.097051
v 35.322336 -0.261248 -55.974141
v 28.993704 63.013926 -55.974141
v 44.812962 37.702494 -55.974141
v 35.322336 -0.261248 43.687184
v 44.812962 -0.261248 43.687184
v 28.993704 69.343487 42.097051
v 38.484329 69.343487 -55.974141
v 44.812962 -0.261248 -55.974141
v 44.812962 37.702494 42.097051
v 43.230416 53.522990 -55.974141
v 28.993704 69.343487 -55.974141
v 28.993704 63.013926 42.097051
v 38.484329 69.343487 42.097051
v 43.230416 53.522990 42.097051
v 40.065326 66.168487 -55.974141
v 44.812962 4.487627 43.687184
v 35.322336 4.487627 43.687184
f 57 47 58 
f 42 43 44 
f 43 42 45 
f 45 42 46 
f 44 43 48 
f 42 44 49 
f 46 42 49 
f 44 46 49 
f 46 44 50 
f 44 48 51 
f 50 44 51 
f 43 47 52 
f 48 43 52 
f 47 48 52 
f 43 45 53 
f 47 43 53 
f 45 47 53 
f 41 48 54 
f 48 47 54 
f 51 41 55 
f 50 51 55 
f 48 41 56 
f 51 48 56 
f 41 51 56 
f 45 46 57 
f 46 50 57 
f 41 54 57 
f 54 47 57 
f 55 41 57 
f 50 55 57 
f 47 45 58 
f 45 57 58 
o convex_3
v 6.847672 99.397135 -55.974141
v 38.485258 72.511829 42.105258
v 38.485258 69.343487 42.105258
v 3.682891 89.903877 42.105258
v 27.406823 69.343487 -55.974141
v 36.901165 78.839687 -55.974141
v 19.503388 94.649035 42.105258
v 3.682891 89.903877 -55.974141
v 27.406823 69.343487 42.105258
v 3.682891 99.397135 42.105258
v 19.503388 94.649035 -55.974141
v 38.485258 69.343487 -55.974141
v 36.901165 78.839687 42.105258
v 3.682891 99.397135 -55.974141
v 28.990916 86.741419 42.105258
v 6.847672 99.397135 42.105258
v 28.990916 86.741419 -55.974141
v 16.338607 96.231735 42.105258
v 5.266985 88.324119 -55.974141
v 38.485258 72.511829 -55.974141
v 16.338607 96.231735 -55.974141
v 5.266985 88.324119 42.105258
v 32.152290 83.584845 -55.974141
v 32.152290 83.584845 42.105258
f 81 73 82 
f 61 60 62 
f 63 59 64 
f 62 60 65 
f 59 63 66 
f 61 62 67 
f 63 61 67 
f 62 65 68 
f 66 62 68 
f 64 59 69 
f 60 61 70 
f 61 63 70 
f 63 64 70 
f 60 64 71 
f 65 60 71 
f 59 66 72 
f 68 59 72 
f 66 68 72 
f 65 71 73 
f 59 68 74 
f 68 65 74 
f 64 69 75 
f 69 65 75 
f 65 73 75 
f 65 69 76 
f 59 74 76 
f 74 65 76 
f 62 66 77 
f 66 63 77 
f 63 67 77 
f 64 60 78 
f 60 70 78 
f 70 64 78 
f 69 59 79 
f 59 76 79 
f 76 69 79 
f 67 62 80 
f 62 77 80 
f 77 67 80 
f 71 64 81 
f 64 75 81 
f 75 73 81 
f 73 71 82 
f 71 81 82 
