o convex_0
v -65.583801 155.985033 18.177096
v -77.877420 114.178544 10.798758
v -53.287775 114.178544 10.798758
v -77.877420 155.985033 10.798758
v -77.877420 114.178544 18.177096
v -53.287775 114.178544 18.177096
v -53.287775 141.224265 10.798758
v -77.877420 155.985033 18.177096
v -53.287775 141.224265 18.177096
v -65.583801 155.985033 10.798758
f 1 7 10 
f 3 2 4 
f 2 3 5 
f 4 2 5 
f 1 5 6 
f 5 3 6 
f 3 4 7 
f 6 3 7 
f 1 4 8 
f 5 1 8 
f 4 5 8 
f 1 6 9 
f 7 1 9 
f 6 7 9 
f 4 1 10 
f 7 4 10 
o convex_1
v -48.365753 155.978533 18.177096
v -53.287775 114.179506 10.798758
v -43.452157 111.718857 10.798758
v -40.990545 155.978533 10.798758
v -40.990545 114.179506 18.177096
v -53.287775 114.179506 18.177096
v -53.287775 141.228357 10.798758
v -40.990545 155.978533 18.177096
v -40.990545 109.258207 13.259408
v -53.287775 141.228357 18.177096
v -48.365753 155.978533 10.798758
v -40.990545 111.718857 10.798758
v -43.452157 109.258207 15.716447
v -43.452157 109.258207 13.259408
v -40.990545 109.258207 15.716447
f 23 19 25 
f 13 12 14 
f 15 11 16 
f 14 12 17 
f 12 16 17 
f 14 11 18 
f 11 15 18 
f 15 14 18 
f 14 15 19 
f 16 11 20 
f 11 17 20 
f 17 16 20 
f 11 14 21 
f 17 11 21 
f 14 17 21 
f 13 14 22 
f 19 13 22 
f 14 19 22 
f 16 12 23 
f 19 23 24 
f 12 13 24 
f 13 19 24 
f 23 12 24 
f 15 16 25 
f 19 15 25 
f 16 23 25 
o convex_2
v 72.144453 155.983107 10.796592
v 74.603417 136.311391 -11.334089
v 72.144453 138.770596 -11.334089
v 77.062382 155.983107 -8.874884
v 77.062382 136.311391 10.796592
v 77.062382 155.983107 10.796592
v 72.144453 155.983107 -8.874884
v 74.603417 136.311391 10.796592
v 77.062382 136.311391 -11.334089
v 72.144453 138.770596 -6.415678
v 72.144453 153.523902 10.796592
v 77.062382 141.229801 -11.334089
v 72.144453 141.229801 -11.334089
f 32 37 38 
f 29 26 31 
f 26 30 31 
f 30 29 31 
f 28 26 32 
f 26 29 32 
f 28 27 33 
f 30 26 33 
f 27 30 33 
f 27 28 34 
f 29 30 34 
f 30 27 34 
f 26 28 35 
f 28 33 35 
f 35 33 36 
f 33 26 36 
f 26 35 36 
f 32 29 37 
f 34 28 37 
f 29 34 37 
f 28 32 38 
f 37 28 38 
o convex_3
v -16.396085 94.487327 -35.931197
v -40.990545 30.553287 -40.849126
v -38.530136 30.553287 -40.849126
v -16.396085 109.255559 -40.849126
v -40.990545 109.255559 -38.390402
v -40.990545 52.694079 -35.931197
v -40.990545 109.255559 -40.849126
v -16.396085 89.579991 -40.849126
v -36.069727 35.476031 -38.390402
v -36.069727 79.742207 -35.931197
v -16.396085 109.255559 -38.390402
v -16.396085 89.579991 -35.931197
v -38.530136 30.553287 -38.390402
v -38.530136 52.694079 -35.931197
v -21.316903 74.811759 -40.849126
v -40.990545 64.997087 -35.931197
v -40.990545 30.553287 -38.390402
v -18.856494 94.487327 -35.931197
v -21.316903 74.811759 -38.390402
v -36.069727 35.476031 -40.849126
v -28.693315 87.114767 -35.931197
v -38.530136 74.811759 -35.931197
f 54 48 60 
f 41 40 42 
f 43 40 44 
f 42 40 45 
f 43 42 45 
f 40 43 45 
f 41 42 46 
f 42 39 46 
f 44 39 48 
f 39 42 49 
f 43 39 49 
f 42 43 49 
f 39 44 50 
f 46 39 50 
f 47 50 51 
f 40 41 51 
f 41 47 51 
f 44 51 52 
f 50 44 52 
f 51 50 52 
f 41 46 53 
f 43 44 54 
f 44 48 54 
f 44 40 55 
f 40 51 55 
f 51 44 55 
f 39 43 56 
f 48 39 56 
f 46 50 57 
f 50 47 57 
f 53 46 57 
f 47 53 57 
f 47 41 58 
f 41 53 58 
f 53 47 58 
f 43 48 59 
f 56 43 59 
f 48 56 59 
f 48 43 60 
f 43 54 60 
o convex_4
v -16.396085 136.309465 -38.390161
v -40.990545 109.258207 -40.849607
v -40.990545 109.258207 -38.390161
v -40.990545 136.309465 -40.849607
v -16.396085 109.258207 -40.849607
v -16.396085 109.258207 -38.390161
v -40.990545 136.309465 -38.390161
v -16.396085 136.309465 -40.849607
f 65 64 68 
f 62 63 64 
f 63 62 65 
f 62 64 65 
f 61 63 66 
f 65 61 66 
f 63 65 66 
f 63 61 67 
f 64 63 67 
f 61 64 67 
f 64 61 68 
f 61 65 68 
o convex_5
v -40.990545 136.309947 -40.846719
v -16.396085 141.227876 -11.342033
v -40.990545 141.227876 -11.342033
v -16.396085 141.227876 -40.846719
v -16.396085 136.309947 -38.385828
v -40.990545 141.227876 -40.846719
v -40.990545 138.769152 -11.342033
v -16.396085 138.769152 -11.342033
v -16.396085 136.309947 -40.846719
v -40.990545 136.309947 -38.385828
f 73 75 78 
f 71 70 72 
f 72 70 73 
f 69 71 74 
f 71 72 74 
f 72 69 74 
f 71 69 75 
f 70 71 75 
f 75 73 76 
f 73 70 76 
f 70 75 76 
f 69 72 77 
f 73 69 77 
f 72 73 77 
f 69 73 78 
f 75 69 78 
o convex_6
v -16.396085 141.224024 13.258204
v -40.990545 121.552789 15.717650
v -40.990545 121.552789 18.177096
v -40.990545 155.981663 18.177096
v -16.396085 121.552789 18.177096
v -40.990545 155.981663 13.258204
v -28.693315 155.981663 18.177096
v -16.396085 121.552789 15.717650
v -16.396085 141.224024 18.177096
v -28.693315 155.981663 13.258204
v -31.148909 138.767226 13.258204
v -16.396085 138.767226 13.258204
v -40.990545 153.521494 13.258204
f 84 89 91 
f 80 81 82 
f 81 80 83 
f 82 81 83 
f 80 82 84 
f 84 82 85 
f 82 83 85 
f 79 83 86 
f 83 80 86 
f 83 79 87 
f 79 85 87 
f 85 83 87 
f 79 84 88 
f 84 85 88 
f 85 79 88 
f 84 79 89 
f 86 80 89 
f 86 89 90 
f 79 86 90 
f 89 79 90 
f 80 84 91 
f 89 80 91 
o convex_7
v 20.494161 94.504661 -35.931197
v -16.396085 92.044734 -40.849126
v 25.412571 64.985531 -40.849126
v 27.873943 128.931127 -40.849126
v -16.396085 94.504661 -35.931197
v -16.396085 128.931127 -38.390402
v 27.873943 82.205024 -35.931197
v 27.873943 128.931127 -38.390402
v -16.396085 128.931127 -40.849126
v 27.873943 64.985531 -38.390402
v -16.396085 92.044734 -35.931197
v -6.554930 99.411997 -35.931197
v 27.873943 64.985531 -40.849126
v 25.412571 64.985531 -38.390402
v 5.738929 99.411997 -35.931197
v 27.873943 87.131138 -35.931197
v 25.412571 82.205024 -35.931197
v -13.934713 96.958329 -35.931197
f 103 97 109 
f 94 93 95 
f 93 96 97 
f 92 96 98 
f 95 97 99 
f 98 95 99 
f 95 93 100 
f 93 97 100 
f 97 95 100 
f 95 98 101 
f 93 94 102 
f 96 93 102 
f 98 96 102 
f 96 92 103 
f 99 97 103 
f 94 95 104 
f 101 94 104 
f 95 101 104 
f 94 101 105 
f 101 98 105 
f 102 94 105 
f 92 99 106 
f 103 92 106 
f 99 103 106 
f 92 98 107 
f 99 92 107 
f 98 99 107 
f 98 102 108 
f 105 98 108 
f 102 105 108 
f 97 96 109 
f 96 103 109 
o convex_8
v -16.396085 128.931127 -38.390402
v 27.873943 141.228357 -35.931197
v 27.873943 141.228357 -40.849126
v 27.873943 128.931127 -38.390402
v -16.396085 141.228357 -40.849126
v -16.396085 138.767948 -35.931197
v 27.873943 128.931127 -40.849126
v -16.396085 128.931127 -40.849126
v -16.396085 141.228357 -35.931197
v 27.873943 138.767948 -35.931197
f 115 113 119 
f 112 111 113 
f 111 112 114 
f 110 113 115 
f 114 110 115 
f 112 113 116 
f 113 110 116 
f 114 112 116 
f 114 116 117 
f 110 114 117 
f 116 110 117 
f 111 114 118 
f 115 111 118 
f 114 115 118 
f 113 111 119 
f 111 115 119 
o convex_9
v 27.873943 141.228116 -11.338663
v -16.396085 138.769393 -35.930715
v -16.396085 141.228116 -35.930715
v 27.873943 138.769393 -35.930715
v -16.396085 138.769393 -11.338663
v 27.873943 138.769393 -11.338663
v 27.873943 141.228116 -35.930715
v -16.396085 141.228116 -11.338663
f 122 124 127 
f 121 122 123 
f 122 121 124 
f 121 123 124 
f 123 120 125 
f 120 124 125 
f 124 123 125 
f 122 120 126 
f 123 122 126 
f 120 123 126 
f 120 122 127 
f 124 120 127 
o convex_10
v 64.767559 155.985033 18.177096
v 57.387295 114.178544 10.798758
v 57.387295 114.178544 18.177096
v 77.062863 114.178544 10.798758
v 64.767559 155.985033 10.798758
v 77.062863 155.985033 18.177096
v 77.062863 114.178544 18.177096
v 77.062863 155.985033 10.798758
v 57.387295 141.224265 10.798758
v 57.387295 141.224265 18.177096
f 136 130 137 
f 130 129 131 
f 131 129 132 
f 128 130 133 
f 132 128 133 
f 130 131 134 
f 133 130 134 
f 131 133 134 
f 131 132 135 
f 133 131 135 
f 132 133 135 
f 129 130 136 
f 128 132 136 
f 132 129 136 
f 130 128 137 
f 128 136 137 
o convex_11
v -75.419178 121.552789 10.798758
v -77.880309 -1.407473 5.879866
v -58.206667 -1.407473 5.879866
v -77.880309 -1.407473 10.798758
v -77.880309 121.552789 5.879866
v -58.206667 116.618010 10.798758
v -58.206667 -1.407473 10.798758
v -58.206667 116.618010 8.339312
v -77.880309 121.552789 10.798758
v -72.959972 111.695266 5.879866
v -75.419178 121.552789 5.879866
v -58.206667 1.059916 5.879866
f 147 145 149 
f 139 140 141 
f 140 139 142 
f 139 141 142 
f 138 141 143 
f 141 140 144 
f 140 143 144 
f 143 141 144 
f 143 140 145 
f 138 143 145 
f 141 138 146 
f 138 142 146 
f 142 141 146 
f 140 142 147 
f 145 147 148 
f 142 138 148 
f 138 145 148 
f 147 142 148 
f 145 140 149 
f 140 147 149 
o convex_12
v -40.990545 153.524624 10.798758
v -48.368160 143.687803 -8.876810
v -48.368160 155.985033 -8.876810
v -40.990545 143.687803 -8.876810
v -48.368160 143.687803 10.798758
v -40.990545 155.985033 -8.876810
v -48.368160 155.985033 10.798758
v -45.908474 143.687803 10.798758
v -40.990545 155.985033 10.798758
v -40.990545 143.687803 -6.415438
f 157 153 159 
f 151 152 153 
f 152 151 154 
f 151 153 154 
f 153 152 155 
f 150 153 155 
f 154 150 156 
f 152 154 156 
f 155 152 156 
f 150 154 157 
f 154 153 157 
f 150 155 158 
f 156 150 158 
f 155 156 158 
f 153 150 159 
f 150 157 159 
o convex_13
v -36.072856 77.282761 -11.338663
v -40.990545 52.688301 -35.930715
v -38.529895 52.688301 -35.930715
v -40.990545 52.688301 -11.338663
v -38.529895 74.822352 -35.930715
v -33.612207 72.359536 -11.338663
v -33.612207 77.282761 -35.930715
v -40.990545 64.985531 -11.338663
v -38.529895 52.688301 -11.338663
v -40.990545 64.985531 -35.930715
v -33.612207 72.359536 -35.930715
v -38.529895 74.822352 -11.338663
v -33.612207 77.282761 -11.338663
v -36.072856 77.282761 -35.930715
f 166 164 173 
f 161 162 163 
f 162 161 164 
f 160 163 165 
f 162 164 166 
f 161 163 167 
f 163 160 167 
f 163 162 168 
f 162 165 168 
f 165 163 168 
f 164 161 169 
f 161 167 169 
f 167 164 169 
f 165 162 170 
f 162 166 170 
f 166 165 170 
f 160 164 171 
f 167 160 171 
f 164 167 171 
f 160 165 172 
f 166 160 172 
f 165 166 172 
f 164 160 173 
f 160 166 173 
o convex_14
v -36.071653 77.282761 -35.930715
v -16.396085 94.497198 -11.338663
v -16.396085 89.578547 -11.338663
v -16.396085 94.497198 -35.930715
v -36.071653 79.744614 -11.338663
v -31.152761 77.282761 -35.930715
v -31.152761 77.282761 -11.338663
v -28.691389 87.118379 -35.930715
v -18.855531 87.118379 -35.930715
v -18.855531 94.497198 -11.338663
v -36.071653 79.744614 -35.930715
v -18.855531 94.497198 -35.930715
v -28.691389 87.118379 -11.338663
v -21.314977 84.663266 -11.338663
v -36.071653 77.282761 -11.338663
v -16.396085 89.578547 -35.930715
v -21.314977 84.663266 -35.930715
v -31.152761 84.663266 -35.930715
v -31.152761 84.663266 -11.338663
v -18.855531 87.118379 -11.338663
f 187 182 193 
f 175 176 177 
f 176 175 178 
f 174 177 179 
f 176 178 180 
f 174 179 180 
f 177 174 181 
f 179 177 182 
f 175 177 183 
f 178 175 183 
f 174 178 184 
f 181 174 184 
f 177 181 185 
f 183 177 185 
f 181 183 185 
f 178 183 186 
f 183 181 186 
f 176 180 187 
f 178 174 188 
f 174 180 188 
f 180 178 188 
f 177 176 189 
f 176 182 189 
f 182 177 189 
f 180 179 190 
f 179 182 190 
f 187 180 190 
f 182 187 190 
f 184 178 191 
f 181 184 191 
f 178 186 192 
f 186 181 192 
f 191 178 192 
f 181 191 192 
f 182 176 193 
f 176 187 193 
o convex_15
v -38.529895 52.691672 -11.334089
v -33.612207 87.117175 10.796592
v -33.612207 87.117175 8.337386
v -40.990545 87.117175 10.796592
v -38.529895 52.691672 10.796592
v -33.612207 79.736671 -11.334089
v -40.990545 64.989142 -11.334089
v -40.990545 52.691672 10.796592
v -33.612207 72.359536 10.796592
v -36.072856 79.736671 -11.334089
v -33.612207 72.359536 -11.334089
v -40.990545 52.691672 -11.334089
v -40.990545 87.117175 8.337386
v -38.529895 74.819705 -11.334089
f 200 206 207 
f 195 196 197 
f 195 197 198 
f 196 195 199 
f 199 194 200 
f 197 200 201 
f 194 198 201 
f 198 197 201 
f 198 194 202 
f 195 198 202 
f 199 195 202 
f 196 199 203 
f 199 200 203 
f 194 199 204 
f 202 194 204 
f 199 202 204 
f 200 194 205 
f 201 200 205 
f 194 201 205 
f 197 196 206 
f 200 197 206 
f 196 203 206 
f 206 203 207 
f 203 200 207 
o convex_16
v -1.640853 143.687322 -6.411587
v -28.693315 138.769393 -11.333848
v -28.693315 141.228357 -11.333848
v -28.693315 138.769393 13.255797
v -1.640853 138.769874 -11.333848
v -9.018316 143.687322 13.255797
v -9.018316 138.769874 13.255797
v -28.693315 141.228357 13.255797
v -11.478353 143.687322 -8.873921
v -1.640853 141.228357 -11.333848
v -1.640853 138.769874 -6.411587
v -11.478353 143.687322 13.255797
v -1.640853 143.687322 -8.873921
v -16.395778 138.769393 13.255797
v -16.395778 138.769393 -11.333848
f 212 221 222 
f 210 209 211 
f 209 210 212 
f 208 213 214 
f 213 211 214 
f 210 211 215 
f 211 213 215 
f 213 208 216 
f 210 215 216 
f 208 212 217 
f 212 210 217 
f 212 208 218 
f 208 214 218 
f 215 213 219 
f 213 216 219 
f 216 215 219 
f 216 208 220 
f 210 216 220 
f 217 210 220 
f 208 217 220 
f 211 209 221 
f 214 211 221 
f 212 218 221 
f 218 214 221 
f 209 212 222 
f 221 209 222 
o convex_17
v -16.396085 92.039437 -35.930715
v 0.820037 99.417775 -11.338663
v 0.820037 96.957125 -11.338663
v 0.820037 99.417775 -35.930715
v -13.933991 96.957125 -11.338663
v -6.561190 99.417775 -35.930715
v -11.476952 92.039437 -11.338663
v -4.099095 94.500087 -35.930715
v -13.933991 96.957125 -35.930715
v -16.396085 94.500087 -11.338663
v -6.561190 99.417775 -11.338663
v -16.396085 92.039437 -11.338663
v -11.476952 92.039437 -35.930715
v 0.820037 96.957125 -35.930715
v -16.396085 94.500087 -35.930715
v -4.099095 94.500087 -11.338663
f 229 230 238 
f 224 225 226 
f 225 224 227 
f 224 226 228 
f 226 223 228 
f 225 227 229 
f 223 226 230 
f 228 223 231 
f 229 227 232 
f 227 231 232 
f 227 224 233 
f 224 228 233 
f 231 227 233 
f 228 231 233 
f 223 229 234 
f 232 223 234 
f 229 232 234 
f 229 223 235 
f 223 230 235 
f 230 229 235 
f 226 225 236 
f 225 230 236 
f 230 226 236 
f 231 223 237 
f 223 232 237 
f 232 231 237 
f 225 229 238 
f 230 225 238 
o convex_18
v 0.820037 96.955888 -35.930715
v 27.873943 87.123503 5.879866
v 20.493439 94.495685 5.879866
v 25.413775 89.583705 -35.930715
v 25.413775 82.204783 5.879866
v 25.413775 82.204783 -35.930715
v 8.200542 94.495685 5.879866
v 5.743022 99.417775 -35.930715
v 0.820037 99.417775 -11.342033
v 3.280205 94.497370 -11.342033
v 20.490790 94.497370 -35.930715
v 27.873943 82.204783 -35.930715
v 13.120878 96.957573 5.879866
v 3.280205 94.497370 -35.930715
v 27.873943 87.123503 -35.930715
v 27.873943 82.204783 5.879866
v 0.820037 99.417775 -35.930715
v 5.743022 99.417775 -11.342033
v 0.820037 96.955888 -11.342033
v 10.658062 92.037168 5.879866
v 8.200542 96.957573 5.879866
v 25.413775 89.583705 -11.342033
v 13.120878 96.957573 -11.337941
v 20.490790 94.497370 -11.342033
v 20.493439 94.495685 -11.337941
f 242 249 263 
f 240 241 243 
f 239 242 244 
f 243 241 245 
f 242 239 246 
f 244 243 248 
f 242 246 249 
f 243 244 250 
f 244 242 250 
f 245 241 251 
f 239 244 252 
f 244 248 252 
f 248 239 252 
f 242 240 253 
f 240 250 253 
f 250 242 253 
f 240 243 254 
f 250 240 254 
f 243 250 254 
f 246 239 255 
f 239 247 255 
f 247 246 255 
f 246 247 256 
f 251 246 256 
f 247 239 257 
f 245 247 257 
f 239 248 257 
f 257 248 258 
f 243 245 258 
f 248 243 258 
f 245 257 258 
f 247 245 259 
f 245 251 259 
f 256 247 259 
f 251 256 259 
f 241 240 260 
f 242 241 260 
f 240 242 260 
f 249 246 261 
f 246 251 261 
f 251 249 261 
f 241 249 262 
f 251 241 262 
f 249 251 262 
f 241 242 263 
f 249 241 263 
o convex_19
v -23.774423 101.878906 8.339312
v 27.873943 114.173007 10.798758
v 27.873943 114.173007 8.339312
v 27.873943 99.417775 10.798758
v -23.774423 111.713320 10.798758
v 27.873943 99.417775 8.339312
v -16.393196 99.417775 10.798758
v -16.393196 114.173007 8.339312
v -16.393196 99.417775 8.339312
v -16.393196 114.173007 10.798758
v -23.774423 111.713320 8.339312
v -23.774423 101.878906 10.798758
f 270 268 275 
f 266 265 267 
f 267 265 268 
f 264 266 269 
f 266 267 269 
f 269 267 270 
f 267 268 270 
f 266 264 271 
f 265 266 271 
f 264 269 272 
f 269 270 272 
f 270 264 272 
f 268 265 273 
f 265 271 273 
f 271 268 273 
f 264 268 274 
f 271 264 274 
f 268 271 274 
f 268 264 275 
f 264 270 275 
o convex_20
v 27.862387 111.719338 8.339312
v 27.862387 133.845927 18.177096
v 27.862387 133.845927 15.716687
v -16.396085 116.640690 8.339312
v -16.396085 114.180014 18.177096
v 57.387295 114.175682 18.177096
v -16.396085 133.845927 18.177096
v 42.624841 116.636358 8.339312
v 57.387295 124.009721 15.715724
v 57.387295 114.175682 10.798758
v -16.396085 133.845927 15.716687
v -16.396085 114.180014 8.339312
v 42.624841 131.387417 18.177096
v 42.624841 131.387417 15.716687
v 42.624841 111.719338 10.798758
v 57.387295 116.636358 10.798758
v 57.387295 124.009721 18.177096
v 42.624841 111.719338 8.339312
v 27.862387 111.719338 10.798758
v 27.862387 116.640690 8.339312
v 42.624841 114.175682 18.177096
f 294 281 296 
f 277 280 281 
f 277 278 282 
f 279 280 282 
f 280 277 282 
f 276 279 283 
f 284 281 285 
f 278 279 286 
f 282 278 286 
f 279 282 286 
f 279 276 287 
f 276 280 287 
f 280 279 287 
f 278 277 288 
f 277 281 288 
f 288 284 289 
f 283 278 289 
f 278 288 289 
f 285 281 290 
f 285 283 291 
f 284 285 291 
f 289 284 291 
f 283 289 291 
f 281 284 292 
f 288 281 292 
f 284 288 292 
f 276 283 293 
f 283 285 293 
f 290 276 293 
f 285 290 293 
f 280 276 294 
f 276 290 294 
f 290 281 294 
f 279 278 295 
f 278 283 295 
f 283 279 295 
f 281 280 296 
f 280 294 296 
o convex_21
v -16.396085 133.850019 15.717650
v 10.657340 143.687803 18.177096
v 27.873943 141.227394 18.177096
v 10.657340 143.687803 13.258204
v 27.873943 133.850019 15.717650
v -16.396085 133.850019 18.177096
v -16.396085 141.227394 13.258204
v -11.473341 143.687803 18.177096
v 27.873943 138.768911 13.258204
v 27.873943 133.850019 18.177096
v -11.473341 143.687803 13.258204
v -16.396085 138.768911 13.258204
v 27.873943 141.227394 13.258204
v -16.396085 141.227394 18.177096
f 304 303 310 
f 299 298 302 
f 297 301 302 
f 297 302 303 
f 298 300 304 
f 302 298 304 
f 301 297 305 
f 299 301 305 
f 303 300 305 
f 301 299 306 
f 299 302 306 
f 302 301 306 
f 300 303 307 
f 304 300 307 
f 303 304 307 
f 297 303 308 
f 305 297 308 
f 303 305 308 
f 298 299 309 
f 300 298 309 
f 299 305 309 
f 305 300 309 
f 303 302 310 
f 302 304 310 
o convex_22
v -11.477193 143.687803 -8.876810
v 10.657821 155.985033 18.177096
v 0.818834 155.985033 18.177096
v -11.477193 155.985033 -8.876810
v 10.657821 155.985033 -8.876810
v 10.657821 143.687803 18.177096
v -11.477193 143.687803 18.171800
v 10.657821 143.687803 -8.876810
v -11.477193 155.985033 18.171800
v 0.818834 143.687803 18.177096
f 317 316 320 
f 313 312 314 
f 311 314 315 
f 314 312 315 
f 315 312 316 
f 312 313 316 
f 314 311 317 
f 311 316 317 
f 311 315 318 
f 315 316 318 
f 316 311 318 
f 313 314 319 
f 317 313 319 
f 314 317 319 
f 316 313 320 
f 313 317 320 
o convex_23
v 37.707875 77.284687 -35.931678
v 27.873943 62.528493 -40.848645
v 40.170692 42.859666 -40.848645
v 42.630619 136.309465 -40.849607
v 27.873943 136.309465 -38.390402
v 42.630619 42.859666 -35.931678
v 27.873943 79.745578 -35.931678
v 42.630619 136.309465 -38.390402
v 27.873943 136.309465 -40.849607
v 42.630619 42.859666 -40.848645
v 27.873943 62.528493 -38.390402
v 40.170692 42.859666 -35.931678
v 30.333871 84.667359 -35.931678
v 42.630619 57.625008 -35.931678
v 27.873943 84.667359 -35.931678
v 27.873943 109.257967 -40.849607
v 42.630619 109.257967 -40.849607
f 336 324 337 
f 325 322 327 
f 326 321 327 
f 324 325 328 
f 326 324 328 
f 325 324 329 
f 322 325 329 
f 326 323 330 
f 324 326 330 
f 322 323 331 
f 327 322 331 
f 327 331 332 
f 323 326 332 
f 326 327 332 
f 331 323 332 
f 327 321 333 
f 328 325 333 
f 321 328 333 
f 321 326 334 
f 328 321 334 
f 326 328 334 
f 325 327 335 
f 327 333 335 
f 333 325 335 
f 323 322 336 
f 322 329 336 
f 329 324 336 
f 330 323 336 
f 330 336 337 
f 324 330 337 
o convex_24
v -55.745054 50.218745 -35.931197
v -58.206667 -1.413733 -40.849126
v -45.909437 -1.413733 -40.849126
v -58.206667 57.601415 -40.849126
v -58.206667 -1.413733 -35.931197
v -45.909437 57.601415 -38.390402
v -45.909437 -1.413733 -35.931197
v -45.909437 57.601415 -40.849126
v -58.206667 50.218745 -35.931197
v -45.909437 15.800944 -35.931197
v -58.206667 57.601415 -38.390402
f 346 343 348 
f 340 339 341 
f 339 340 342 
f 341 339 342 
f 338 342 344 
f 342 340 344 
f 340 343 344 
f 340 341 345 
f 343 340 345 
f 341 343 345 
f 342 338 346 
f 341 342 346 
f 338 343 346 
f 343 338 347 
f 338 344 347 
f 344 343 347 
f 343 341 348 
f 341 346 348 
o convex_25
v 59.846741 141.227876 -11.342033
v 27.873943 136.309947 -40.846719
v 27.873943 136.309947 -38.383181
v 27.873943 141.227876 -11.342033
v 59.846741 141.227876 -40.846719
v 59.846741 136.309947 -38.383181
v 27.873943 141.227876 -40.846719
v 27.873943 138.768911 -11.342033
v 59.846741 138.768911 -11.342033
v 59.846741 136.309947 -40.846719
f 353 354 358 
f 350 351 352 
f 352 349 353 
f 351 350 354 
f 353 349 354 
f 350 352 355 
f 352 353 355 
f 353 350 355 
f 352 351 356 
f 349 352 356 
f 351 354 356 
f 356 354 357 
f 354 349 357 
f 349 356 357 
f 350 353 358 
f 354 350 358 
o convex_26
v 42.630619 155.985033 13.258204
v 27.873943 131.390573 15.717650
v 27.873943 131.390573 18.177096
v 42.630619 131.390573 15.717650
v 27.873943 155.985033 18.177096
v 42.630619 155.985033 18.177096
v 27.873943 138.771800 13.258204
v 27.873943 155.985033 13.258204
v 42.630619 131.390573 18.177096
v 30.333871 138.771800 13.258204
v 42.630619 153.524624 13.258204
f 362 368 369 
f 361 360 362 
f 360 361 363 
f 363 361 364 
f 362 359 364 
f 359 363 364 
f 362 360 365 
f 360 363 365 
f 365 363 366 
f 363 359 366 
f 359 365 366 
f 361 362 367 
f 364 361 367 
f 362 364 367 
f 362 365 368 
f 365 359 368 
f 359 362 369 
f 368 359 369 
o convex_27
v 74.602454 136.309465 -35.931197
v 42.630619 -1.419511 -40.849126
v 77.062863 -1.419511 -40.849126
v 42.630619 -1.419511 -35.931197
v 42.630619 136.309465 -40.849126
v 77.062863 -1.419511 -35.931197
v 77.062863 136.309465 -40.849126
v 42.630619 136.309465 -38.390402
v 42.630619 45.335001 -35.931197
v 77.062863 136.309465 -35.931197
f 375 376 379 
f 371 372 373 
f 372 371 374 
f 371 373 374 
f 373 372 375 
f 370 373 375 
f 374 370 376 
f 372 374 376 
f 375 372 376 
f 370 374 377 
f 374 373 377 
f 373 370 378 
f 370 377 378 
f 377 373 378 
f 370 375 379 
f 376 370 379 
o convex_28
v -72.963824 3.510937 -11.342033
v -75.423029 121.541233 5.879866
v -77.882235 121.541233 5.879866
v -75.423029 121.541233 -35.930715
v -77.882235 3.510937 -35.930715
v -77.882235 3.510937 5.879866
v -72.963824 101.865666 -35.930715
v -72.963824 109.236783 5.879866
v -77.882235 121.541233 -35.930715
v -75.423029 3.510937 -35.930715
v -75.423029 3.510937 5.879866
v -72.963824 8.432717 -3.958881
v -72.963824 82.190099 5.879866
v -72.963824 99.404776 -35.930715
v -72.963824 3.510937 -6.418567
v -72.963824 109.236783 3.420180
v -72.963824 62.526085 3.420180
f 391 392 396 
f 382 381 383 
f 382 384 385 
f 381 382 385 
f 384 380 385 
f 384 383 386 
f 383 381 387 
f 381 385 387 
f 380 386 387 
f 382 383 388 
f 383 384 388 
f 384 382 388 
f 380 384 389 
f 384 386 389 
f 385 380 390 
f 387 385 390 
f 380 387 391 
f 387 390 392 
f 391 387 392 
f 386 380 393 
f 380 389 393 
f 389 386 393 
f 390 380 394 
f 391 390 394 
f 380 391 394 
f 386 383 395 
f 383 387 395 
f 387 386 395 
f 390 391 396 
f 392 390 396 
o convex_29
v 57.387295 141.223784 10.798758
v 42.630619 124.015365 15.716447
v 42.630619 124.015365 18.177096
v 42.630619 155.981904 18.177096
v 57.387295 124.015365 18.177096
v 42.630619 155.981904 10.798758
v 50.008957 155.981904 18.177096
v 57.387295 141.223784 18.177096
v 47.551919 138.773485 10.798758
v 50.008957 155.981904 10.798758
v 57.387295 124.015365 15.716447
v 57.387295 138.773485 10.798758
v 42.630619 153.522217 10.798758
f 402 405 409 
f 398 399 400 
f 399 398 401 
f 400 399 401 
f 398 400 402 
f 402 400 403 
f 400 401 403 
f 403 401 404 
f 401 397 404 
f 397 403 404 
f 402 397 405 
f 397 402 406 
f 402 403 406 
f 403 397 406 
f 397 401 407 
f 401 398 407 
f 398 405 407 
f 407 405 408 
f 405 397 408 
f 397 407 408 
f 398 402 409 
f 405 398 409 
o convex_30
v -75.417252 136.309465 -35.931197
v -77.880309 -1.407473 -40.849126
v -58.206667 -1.407473 -40.849126
v -77.880309 -1.407473 -35.931197
v -77.880309 136.309465 -40.849126
v -58.206667 136.309465 -38.390162
v -58.206667 -1.407473 -35.931197
v -58.206667 136.309465 -40.849126
v -58.206667 57.623701 -35.931197
v -77.880309 136.309465 -35.931197
f 414 413 419 
f 411 412 413 
f 412 411 414 
f 411 413 414 
f 414 410 415 
f 413 412 416 
f 410 413 416 
f 412 415 416 
f 412 414 417 
f 415 412 417 
f 414 415 417 
f 415 410 418 
f 410 416 418 
f 416 415 418 
f 413 410 419 
f 410 414 419 
o convex_31
v -77.881031 136.309947 -11.336515
v -58.206667 141.227876 -11.342774
v -58.206667 138.768911 -11.342774
v -77.879105 141.227876 -40.846719
v -58.206667 136.309947 -40.846719
v -77.881031 141.227876 -8.876810
v -77.879105 136.309947 -40.846719
v -58.206667 141.227876 -40.846719
v -75.419810 136.309947 -8.876810
v -65.586479 141.227876 -8.876810
v -58.206667 136.309947 -38.383884
v -65.586479 138.768911 -8.876810
v -77.881031 136.309947 -8.876810
v -77.881031 141.227876 -11.336515
f 425 423 433 
f 421 422 424 
f 421 423 425 
f 420 423 426 
f 424 420 426 
f 423 424 426 
f 423 421 427 
f 424 423 427 
f 421 424 427 
f 420 424 428 
f 425 428 429 
f 422 421 429 
f 421 425 429 
f 424 422 430 
f 422 428 430 
f 428 424 430 
f 428 422 431 
f 429 428 431 
f 422 429 431 
f 425 420 432 
f 420 428 432 
f 428 425 432 
f 423 420 433 
f 420 425 433 
o convex_32
v -40.992230 133.842557 -38.390161
v -58.204982 57.614656 -40.849607
v -58.204982 57.614656 -38.390161
v -58.204982 133.842557 -40.849607
v -40.992230 57.614656 -40.849607
v -40.992230 57.614656 -38.390161
v -58.204982 133.842557 -38.390161
v -40.992230 133.842557 -40.849607
f 438 437 441 
f 435 436 437 
f 436 435 438 
f 435 437 438 
f 434 436 439 
f 438 434 439 
f 436 438 439 
f 436 434 440 
f 437 436 440 
f 434 437 440 
f 437 434 441 
f 434 438 441 
o convex_33
v -58.204982 133.850019 -38.390402
v -40.992230 141.228357 -35.931197
v -40.992230 141.228357 -40.849126
v -58.204982 141.228357 -35.931197
v -40.992230 133.850019 -40.849126
v -58.204982 141.228357 -40.849126
v -40.992230 138.768430 -35.931197
v -58.204982 133.850019 -40.849126
v -40.992230 133.850019 -38.390402
v -58.204982 138.768430 -35.931197
f 442 448 451 
f 443 444 445 
f 444 443 446 
f 445 444 447 
f 442 445 447 
f 444 446 447 
f 443 445 448 
f 446 443 448 
f 446 442 449 
f 442 447 449 
f 447 446 449 
f 442 446 450 
f 448 442 450 
f 446 448 450 
f 445 442 451 
f 448 445 451 
o convex_34
v -65.585005 138.769393 -11.335533
v -40.992230 143.687322 -6.418327
v -45.912711 143.687322 10.798758
v -45.912711 138.769874 10.798758
v -40.992230 138.769874 -35.930715
v -58.204283 141.228357 -35.930715
v -65.585005 141.228357 10.794184
v -40.992230 141.228357 -35.930715
v -48.372951 143.687322 -8.879217
v -65.585005 138.769393 10.794184
v -58.204283 138.769874 -35.930715
v -65.585005 141.228357 -11.335533
v -40.992230 138.769874 -6.418327
v -48.372951 143.687322 10.798758
v -40.992230 143.687322 -8.879217
v -58.204283 138.769874 10.798758
v -58.206691 138.769393 10.794184
v -58.204283 141.228357 10.798758
v -58.206691 138.769393 -11.335533
f 456 468 470 
f 453 454 455 
f 453 456 459 
f 456 457 459 
f 459 457 460 
f 454 453 460 
f 458 452 461 
f 456 452 462 
f 457 456 462 
f 452 457 462 
f 457 452 463 
f 452 458 463 
f 460 457 463 
f 458 460 463 
f 453 455 464 
f 456 453 464 
f 455 454 465 
f 454 460 465 
f 460 458 465 
f 453 459 466 
f 459 460 466 
f 460 453 466 
f 461 455 467 
f 458 461 467 
f 455 465 467 
f 461 452 468 
f 455 461 468 
f 464 455 468 
f 456 464 468 
f 465 458 469 
f 458 467 469 
f 467 465 469 
f 452 456 470 
f 468 452 470 
o convex_35
v -33.614614 101.875776 10.798758
v -58.204982 57.607193 8.339312
v -40.992928 57.607193 8.339312
v -40.992928 109.240394 8.339312
v -58.204982 109.240394 10.798758
v -58.204982 57.607193 10.798758
v -58.204982 109.240394 8.339312
v -40.992928 57.607193 10.798758
v -33.614614 87.116212 8.339312
v -40.992928 109.240394 10.798758
v -33.614614 101.875776 8.339312
v -33.614614 87.116212 10.798758
f 478 479 482 
f 473 472 474 
f 475 472 476 
f 472 473 476 
f 471 475 476 
f 474 472 477 
f 475 474 477 
f 472 475 477 
f 471 476 478 
f 476 473 478 
f 473 474 479 
f 478 473 479 
f 471 474 480 
f 475 471 480 
f 474 475 480 
f 474 471 481 
f 479 474 481 
f 471 479 481 
f 471 478 482 
f 479 471 482 
o convex_36
v -16.396085 94.498883 -11.336256
v -33.612207 77.282761 -11.336256
v -33.612207 77.282761 5.879866
v -21.315217 96.958329 -1.499675
v -16.396085 89.578065 5.879866
v -33.612207 82.203579 -11.336256
v -21.315217 96.958329 5.879866
v -21.315217 84.663025 -11.336256
v -33.612207 82.203579 5.879866
v -31.150112 77.282761 5.879866
v -16.396085 96.958329 5.879866
v -16.396085 89.578065 -11.336256
v -31.150112 77.282761 -11.336256
v -18.858179 94.498883 -11.336256
v -21.315217 84.663025 5.879866
v -28.693074 87.120545 -11.336256
v -16.396085 96.958329 -1.499675
f 486 493 499 
f 483 484 488 
f 484 485 488 
f 486 488 489 
f 485 487 489 
f 484 483 490 
f 488 485 491 
f 489 488 491 
f 485 489 491 
f 485 484 492 
f 487 485 492 
f 487 483 493 
f 486 489 493 
f 489 487 493 
f 483 487 494 
f 490 483 494 
f 487 490 494 
f 484 490 495 
f 492 484 495 
f 490 492 495 
f 486 483 496 
f 483 488 496 
f 490 487 497 
f 487 492 497 
f 492 490 497 
f 488 486 498 
f 486 496 498 
f 496 488 498 
f 483 486 499 
f 493 483 499 
o convex_37
v -16.396085 96.958329 15.717650
v -33.612207 77.282761 5.879866
v -33.612207 77.282761 10.798758
v -33.612207 96.958329 10.798758
v -16.396085 96.958329 5.879866
v -16.396085 79.746059 8.340275
v -26.230980 96.958329 15.717650
v -16.396085 92.039437 15.717650
v -33.612207 96.958329 8.340275
v -23.777312 77.282761 10.798758
v -16.396085 89.578065 5.879866
v -21.315217 96.958329 5.879866
v -16.396085 79.746059 10.798758
v -23.777312 92.039437 15.717650
v -33.612207 82.203579 5.879866
v -31.150112 77.282761 5.879866
v -23.777312 77.282761 8.340275
v -26.230980 94.498883 15.717650
v -21.315217 84.663025 5.879866
f 515 510 518 
f 501 502 503 
f 503 500 504 
f 504 500 505 
f 503 502 506 
f 500 503 506 
f 505 500 507 
f 500 506 507 
f 501 503 508 
f 503 504 508 
f 502 501 509 
f 507 502 509 
f 501 504 510 
f 504 505 510 
f 504 501 511 
f 508 504 511 
f 505 507 512 
f 509 505 512 
f 507 509 512 
f 502 507 513 
f 507 506 513 
f 501 508 514 
f 511 501 514 
f 508 511 514 
f 509 501 515 
f 501 510 515 
f 505 509 516 
f 509 515 516 
f 515 505 516 
f 506 502 517 
f 502 513 517 
f 513 506 517 
f 510 505 518 
f 505 515 518 
o convex_38
v -16.396085 121.551826 18.177096
v -33.612207 111.715968 8.339312
v -33.612207 116.634379 8.339312
v -33.612207 121.551826 18.177096
v -33.612207 114.176136 18.177096
v -16.396085 111.715968 8.339312
v -16.396085 114.176136 18.177096
v -16.396085 116.634379 8.339312
v -16.396085 121.551826 15.716687
v -33.612207 111.715968 10.798758
v -33.612207 121.551826 15.716687
v -16.396085 111.715968 10.798758
f 525 528 530 
f 521 520 522 
f 519 522 523 
f 522 520 523 
f 520 521 524 
f 519 523 525 
f 524 519 525 
f 519 524 526 
f 524 521 526 
f 522 519 527 
f 519 526 527 
f 523 520 528 
f 520 524 528 
f 525 523 528 
f 521 522 529 
f 526 521 529 
f 522 527 529 
f 527 526 529 
f 524 525 530 
f 528 524 530 
o convex_39
v -40.988137 151.066623 -8.876810
v -28.693315 155.984552 13.258204
v -28.693315 151.066623 13.258204
v -28.693315 155.984552 -8.876810
v -40.988137 155.984552 13.258204
v -28.693315 151.066623 -8.876810
v -40.988137 155.984552 -8.876810
v -40.988137 153.525828 13.258204
v -31.154686 151.066623 13.258204
v -40.988137 151.066623 -6.415438
f 531 539 540 
f 532 533 534 
f 533 532 535 
f 532 534 535 
f 533 531 536 
f 534 533 536 
f 531 534 536 
f 534 531 537 
f 531 535 537 
f 535 534 537 
f 535 531 538 
f 533 535 538 
f 531 533 539 
f 533 538 539 
f 539 538 540 
f 538 531 540 
o convex_40
v 32.793798 45.314297 8.339312
v 27.873943 64.985531 13.258204
v 32.793798 60.062306 13.258204
v 40.169247 64.983124 3.420420
v 13.120156 62.522715 10.797795
v 42.627730 40.391071 10.797795
v 40.169247 42.853888 3.420420
v 22.954088 64.985531 3.420420
v 42.627730 64.983124 10.797795
v 18.037122 57.609119 13.258204
v 42.627730 57.604304 3.420420
v 20.495605 55.148710 8.339312
v 13.120156 64.985531 13.258204
v 22.954088 62.522715 3.420420
v 42.627730 42.853888 3.420420
v 40.169247 40.391071 10.797795
v 32.793798 57.604304 13.258204
v 40.169247 40.391071 8.339312
v 13.120156 64.985531 10.797795
v 32.793798 45.314297 10.797795
v 42.627730 64.983124 8.339312
v 13.120156 62.522715 13.258204
v 20.495605 55.148710 10.797795
v 42.627730 40.391071 8.339312
v 27.873943 64.985531 3.420420
v 15.578639 60.062306 13.258204
v 27.873943 57.604304 13.258204
f 556 557 567 
f 544 547 548 
f 542 543 549 
f 543 546 549 
f 543 542 550 
f 547 544 551 
f 549 546 551 
f 547 541 552 
f 542 548 553 
f 550 542 553 
f 545 548 554 
f 548 547 554 
f 547 552 554 
f 552 545 554 
f 547 551 555 
f 551 546 555 
f 546 543 557 
f 543 550 557 
f 556 546 557 
f 541 547 558 
f 547 555 558 
f 556 541 558 
f 546 556 558 
f 548 545 559 
f 553 548 559 
f 545 553 559 
f 552 541 560 
f 541 556 560 
f 556 550 560 
f 542 549 561 
f 551 544 561 
f 549 551 561 
f 553 545 562 
f 550 553 562 
f 552 560 563 
f 560 550 563 
f 555 546 564 
f 546 558 564 
f 558 555 564 
f 548 542 565 
f 544 548 565 
f 542 561 565 
f 561 544 565 
f 545 552 566 
f 562 545 566 
f 550 562 566 
f 552 563 566 
f 563 550 566 
f 550 556 567 
f 557 550 567 
o convex_41
v -16.396085 92.041152 -1.495583
v 8.198375 99.416571 10.798518
v 5.737966 82.202767 13.256760
v -16.396085 94.496416 13.255316
v 8.198375 94.496416 -1.498472
v -1.640853 79.743652 0.962659
v -16.396085 82.202767 10.797073
v -6.554449 99.416571 -1.495583
v -16.396085 99.416571 10.795629
v 5.737966 79.743652 0.962659
v -9.012450 79.743652 13.256760
v -9.012450 84.661882 -1.495583
v 5.737966 99.416571 -1.498472
v 8.198375 87.120997 10.798518
v 5.737966 79.743652 13.256760
v -13.935676 96.955531 -1.495583
v -16.396085 82.202767 8.337387
v -11.472859 94.496416 13.255316
v -16.396085 87.120997 13.255316
v -4.098855 84.661882 -1.495583
v -16.396085 99.416571 8.337387
v 8.198375 96.955531 -1.498472
v -16.396085 94.496416 -1.495583
v 8.198375 87.120997 8.334498
v -9.012450 79.743652 10.797073
v 8.198375 99.416571 8.334498
v -4.098855 96.955531 -1.498472
v -13.933268 87.120997 13.256760
v -4.098855 99.416571 10.798518
v -4.098855 99.416571 -1.498472
v -1.640853 87.120997 13.256760
v 3.277557 94.496416 -1.498472
f 594 572 599 
f 571 568 574 
f 568 571 576 
f 569 575 576 
f 573 577 578 
f 577 573 579 
f 575 569 580 
f 569 570 581 
f 572 569 581 
f 577 581 582 
f 578 577 582 
f 570 578 582 
f 581 570 582 
f 574 568 584 
f 578 574 584 
f 568 579 584 
f 579 573 584 
f 570 569 585 
f 569 571 585 
f 571 574 586 
f 574 578 586 
f 572 577 587 
f 579 572 587 
f 577 579 587 
f 568 576 588 
f 576 575 588 
f 575 583 588 
f 569 572 589 
f 572 580 589 
f 568 588 590 
f 588 583 590 
f 577 572 591 
f 572 581 591 
f 581 577 591 
f 573 578 592 
f 584 573 592 
f 578 584 592 
f 580 569 593 
f 569 589 593 
f 589 580 593 
f 579 568 594 
f 580 572 594 
f 568 590 594 
f 578 570 595 
f 585 571 595 
f 571 586 595 
f 586 578 595 
f 571 569 596 
f 569 576 596 
f 576 571 596 
f 575 580 597 
f 583 575 597 
f 590 583 597 
f 580 594 597 
f 594 590 597 
f 570 585 598 
f 595 570 598 
f 585 595 598 
f 572 579 599 
f 579 594 599 
o convex_42
v 10.659266 143.687322 13.255797
v -1.636520 138.769393 -11.333848
v -1.636520 138.769393 -6.413030
v 27.871054 138.769393 13.255797
v 27.871054 141.228598 -11.333848
v -1.636520 143.687322 -8.875847
v 8.201264 138.769393 13.255797
v 27.871054 138.769393 -11.333848
v 27.871054 141.228598 13.255797
v 10.659266 143.687322 -8.875847
v 8.201264 143.687322 13.255797
v -1.636520 141.228598 -11.333848
v -1.636520 143.687322 -6.413030
f 602 610 612 
f 602 601 603 
f 601 602 605 
f 602 603 606 
f 603 600 606 
f 603 601 607 
f 604 603 607 
f 601 604 607 
f 600 603 608 
f 604 600 608 
f 603 604 608 
f 600 604 609 
f 604 605 609 
f 605 600 609 
f 600 605 610 
f 602 606 610 
f 606 600 610 
f 604 601 611 
f 601 605 611 
f 605 604 611 
f 605 602 612 
f 610 605 612 
o convex_43
v -31.151798 101.879307 -3.957918
v -16.396085 101.877863 10.796832
v -23.775626 111.714042 10.798758
v -33.612207 101.879307 15.717650
v -18.859864 96.958329 -1.496546
v -33.612207 109.252831 -3.957918
v -33.612207 96.958329 10.796832
v -18.859864 96.958329 15.717650
v -33.612207 109.252831 15.717650
v -18.859864 99.418096 -1.496546
v -33.612207 111.714042 10.798758
v -23.775626 111.714042 8.339312
v -31.151798 109.252831 -3.957918
v -23.778997 96.958329 -1.496546
v -21.315217 101.877863 15.717650
v -28.693074 96.958329 15.717650
v -16.396085 96.958329 8.335461
v -33.612207 96.958329 8.335461
v -33.612207 104.336186 -3.957918
v -16.396085 101.877863 8.335461
v -31.151798 109.252831 15.717650
v -33.612207 111.714042 8.339312
v -28.693074 101.879307 -3.957918
v -18.859864 99.418096 15.717650
v -16.396085 96.958329 10.796832
v -28.693074 106.794508 -3.957918
v -21.315217 101.877863 -1.496546
f 638 625 639 
f 616 618 619 
f 619 617 620 
f 618 616 621 
f 616 620 621 
f 621 615 623 
f 618 621 623 
f 615 614 624 
f 623 615 624 
f 613 618 625 
f 613 617 626 
f 617 619 626 
f 621 620 627 
f 616 619 628 
f 620 616 628 
f 619 620 628 
f 620 617 629 
f 617 622 629 
f 619 618 630 
f 613 626 630 
f 626 619 630 
f 618 613 631 
f 613 630 631 
f 630 618 631 
f 624 614 632 
f 622 624 632 
f 614 629 632 
f 629 622 632 
f 615 621 633 
f 627 615 633 
f 621 627 633 
f 618 623 634 
f 623 624 634 
f 625 618 634 
f 624 625 634 
f 617 613 635 
f 613 625 635 
f 614 615 636 
f 615 627 636 
f 627 620 636 
f 629 614 637 
f 620 629 637 
f 614 636 637 
f 636 620 637 
f 622 617 638 
f 617 635 638 
f 635 625 638 
f 624 622 639 
f 625 624 639 
f 622 638 639 
o convex_44
v 42.630619 3.499381 -35.930715
v 72.143971 1.039935 5.879866
v 72.143971 -1.419511 5.879866
v 42.630619 3.499381 5.879866
v 42.630619 -1.419511 -35.930715
v 72.143971 -1.419511 -35.930715
v 42.630619 -1.419511 5.879866
v 72.143971 1.039935 -35.930715
v 45.094880 3.499381 -35.930715
v 45.094880 3.499381 5.879866
f 648 643 649 
f 642 641 643 
f 643 640 644 
f 642 644 645 
f 641 642 645 
f 644 640 645 
f 642 643 646 
f 643 644 646 
f 644 642 646 
f 641 645 647 
f 645 640 647 
f 640 643 648 
f 641 647 648 
f 647 640 648 
f 643 641 649 
f 641 648 649 
o convex_45
v 40.169247 67.440403 3.418976
v 40.169247 42.850517 -35.930715
v 35.252281 64.983605 -35.930715
v 42.630619 57.610082 -35.930715
v 40.169247 42.850517 3.418976
v 35.252281 74.823315 3.418976
v 37.713653 74.823315 -35.930715
v 42.630619 42.850517 3.418976
v 35.252281 64.983605 3.418976
v 42.630619 42.850517 -35.930715
v 42.630619 57.610082 3.418976
v 35.252281 74.823315 -35.930715
v 37.713653 74.823315 3.418976
v 40.169247 67.440403 -35.930715
f 656 650 663 
f 651 652 653 
f 652 651 654 
f 654 650 655 
f 653 652 656 
f 650 654 657 
f 654 651 657 
f 652 654 658 
f 655 652 658 
f 654 655 658 
f 651 653 659 
f 657 651 659 
f 653 657 659 
f 653 650 660 
f 657 653 660 
f 650 657 660 
f 652 655 661 
f 656 652 661 
f 655 656 661 
f 655 650 662 
f 650 656 662 
f 656 655 662 
f 650 653 663 
f 653 656 663 
o convex_46
v 27.873943 79.742207 -35.930715
v 37.711727 77.284205 3.418976
v 30.333389 84.660136 3.418976
v 32.792835 74.824278 3.418976
v 37.711727 77.284205 -35.930715
v 30.333389 84.660136 -35.930715
v 37.711727 74.824278 -35.930715
v 27.873943 84.660136 3.418976
v 27.873943 79.742207 3.418976
v 32.792835 74.824278 -35.930715
v 37.711727 74.824278 3.418976
v 27.873943 84.660136 -35.930715
f 671 669 675 
f 665 666 667 
f 666 665 668 
f 668 664 669 
f 666 668 669 
f 664 668 670 
f 668 665 670 
f 667 666 671 
f 666 669 671 
f 664 667 672 
f 667 671 672 
f 671 664 672 
f 667 664 673 
f 670 667 673 
f 664 670 673 
f 665 667 674 
f 670 665 674 
f 667 670 674 
f 669 664 675 
f 664 671 675 
o convex_47
v 42.630619 111.712598 10.798758
v 27.873943 87.120545 8.339312
v 27.873943 87.120545 10.798758
v 27.873943 111.712598 8.339312
v 42.630619 87.120545 8.339312
v 42.630619 87.120545 10.798758
v 27.873943 111.712598 10.798758
v 42.630619 111.712598 8.339312
f 680 679 683 
f 677 678 679 
f 678 677 680 
f 677 679 680 
f 676 678 681 
f 680 676 681 
f 678 680 681 
f 678 676 682 
f 679 678 682 
f 676 679 682 
f 679 676 683 
f 676 680 683 
o convex_48
v -55.746258 30.557139 -35.930715
v -53.288738 35.475068 -13.797868
v -55.746258 35.475068 -13.797868
v -55.746258 50.228855 -35.930715
v -50.828329 25.636803 -35.930715
v -58.205944 25.636803 -21.175484
v -50.828329 25.636803 -13.797868
v -58.205944 50.228855 -18.718445
v -58.205944 50.228855 -35.930715
v -50.828329 33.014900 -13.797868
v -50.828329 33.014900 -35.930715
v -55.746258 50.228855 -18.718445
v -58.205944 25.636803 -26.089561
v -58.205944 37.932829 -35.930715
v -58.205944 37.932829 -16.257073
v -55.746258 30.557139 -13.797868
v -53.288738 25.636803 -35.930715
v -53.288738 25.636803 -13.797868
v -58.205944 42.848351 -16.257073
v -58.205944 30.557139 -18.718445
f 699 698 703 
f 684 687 688 
f 685 686 690 
f 689 688 690 
f 686 685 691 
f 689 691 692 
f 687 684 692 
f 691 687 692 
f 685 690 693 
f 690 688 693 
f 688 687 694 
f 687 693 694 
f 693 688 694 
f 691 685 695 
f 687 691 695 
f 693 687 695 
f 685 693 695 
f 688 689 696 
f 689 692 696 
f 696 692 697 
f 692 684 697 
f 684 696 697 
f 691 689 698 
f 690 686 699 
f 686 698 699 
f 684 688 700 
f 696 684 700 
f 688 696 700 
f 689 690 701 
f 690 699 701 
f 699 689 701 
f 686 691 702 
f 698 686 702 
f 691 698 702 
f 698 689 703 
f 689 699 703 
o convex_49
v 27.873943 151.066623 -8.876810
v 42.630619 155.984552 13.258204
v 42.630619 153.525828 13.258204
v 42.630619 155.984552 -8.876810
v 27.873943 155.984552 13.258204
v 42.630619 151.066623 -8.876810
v 27.873943 151.066623 13.258204
v 27.873943 155.984552 -8.876810
v 30.333871 151.066623 13.258204
v 42.630619 151.066623 -6.415438
f 712 709 713 
f 705 706 707 
f 706 705 708 
f 705 707 708 
f 707 706 709 
f 704 707 709 
f 708 704 710 
f 706 708 710 
f 704 709 710 
f 707 704 711 
f 704 708 711 
f 708 707 711 
f 706 710 712 
f 710 709 712 
f 709 706 713 
f 706 712 713 
o convex_50
v 72.144453 -1.419511 -35.930715
v 77.062382 136.309465 10.798758
v 77.062382 136.309465 -35.930715
v 77.062382 -1.419511 10.798758
v 72.144453 116.626193 10.798758
v 77.062382 -1.419511 -35.930715
v 72.144453 -1.419511 10.798758
v 74.603417 136.309465 -35.930715
v 74.603417 136.309465 10.798758
v 72.144453 116.626193 8.337868
v 72.144453 1.047639 -35.930715
f 723 721 724 
f 716 715 717 
f 717 715 718 
f 714 716 719 
f 716 717 719 
f 717 714 719 
f 714 717 720 
f 718 714 720 
f 717 718 720 
f 716 714 721 
f 715 716 721 
f 718 715 722 
f 715 721 722 
f 714 718 723 
f 718 722 723 
f 722 721 723 
f 721 714 724 
f 714 723 724 
o convex_51
v -53.285849 25.634395 -11.336978
v -50.830255 3.501548 -35.930715
v -45.909437 3.501548 -35.930715
v -45.909437 3.501548 -8.876810
v -58.206667 3.501548 -23.629874
v -50.830255 25.634395 -35.930715
v -45.909437 15.793241 -8.876810
v -58.206667 25.634395 -26.090043
v -45.909437 15.793241 -35.930715
v -58.206667 3.501548 -28.550211
v -48.371049 23.173023 -11.336978
v -50.830255 13.340536 -8.876810
v -53.285849 25.634395 -35.930715
v -58.206667 25.634395 -21.177651
v -48.371049 3.501548 -8.876810
v -48.371049 23.173023 -35.930715
v -58.206667 13.340536 -21.177651
v -50.830255 25.634395 -11.336978
v -58.206667 15.793241 -28.550211
v -53.285849 20.711651 -35.930715
v -50.830255 18.254613 -8.876810
v -53.285849 20.711651 -11.336978
v -48.371049 18.254613 -8.876810
f 742 745 747 
f 726 727 728 
f 726 728 729 
f 727 726 730 
f 728 727 731 
f 725 730 732 
f 727 730 733 
f 731 727 733 
f 726 729 734 
f 729 732 734 
f 731 733 735 
f 728 731 736 
f 730 726 737 
f 732 730 737 
f 725 732 738 
f 732 729 738 
f 729 728 739 
f 736 729 739 
f 728 736 739 
f 733 730 740 
f 730 735 740 
f 735 733 740 
f 729 736 741 
f 725 738 741 
f 738 729 741 
f 730 725 742 
f 735 730 742 
f 731 735 742 
f 734 732 743 
f 732 737 743 
f 737 734 743 
f 726 734 744 
f 737 726 744 
f 734 737 744 
f 725 736 745 
f 736 731 745 
f 742 725 745 
f 736 725 746 
f 725 741 746 
f 741 736 746 
f 731 742 747 
f 745 731 747 
o convex_52
v 59.846741 136.309947 -40.846719
v 77.062863 141.227876 -11.342033
v 77.062863 136.309947 -11.342033
v 77.062863 141.227876 -40.846719
v 59.846741 141.227876 -11.342033
v 77.062863 136.309947 -40.846719
v 59.846741 141.227876 -40.846719
v 59.846741 138.769152 -11.342033
v 74.600769 136.309947 -11.342033
v 59.846741 136.309947 -38.385828
f 748 756 757 
f 749 750 751 
f 750 749 752 
f 749 751 752 
f 750 748 753 
f 751 750 753 
f 748 751 753 
f 751 748 754 
f 748 752 754 
f 752 751 754 
f 752 748 755 
f 750 752 755 
f 748 750 756 
f 750 755 756 
f 756 755 757 
f 755 748 757 
o convex_53
v -77.877179 -1.419511 -35.930715
v -43.449991 3.499381 5.875774
v -43.449991 -1.419511 5.875774
v -77.877179 3.499381 5.879866
v -45.910038 3.499381 -35.930715
v -77.877179 -1.419511 5.879866
v -77.877179 3.499381 -35.930715
v -45.910038 -1.419511 -35.930715
v -43.449991 3.499381 -8.878254
v -43.449991 -1.419511 -8.878254
v -58.210277 1.039935 5.879866
v -58.210277 -1.419511 5.879866
v -75.417131 3.499381 5.879866
f 761 768 770 
f 761 759 762 
f 758 760 763 
f 761 758 763 
f 758 761 764 
f 762 758 764 
f 761 762 764 
f 760 758 765 
f 758 762 765 
f 765 762 766 
f 759 760 766 
f 762 759 766 
f 760 765 767 
f 765 766 767 
f 766 760 767 
f 760 759 768 
f 761 763 768 
f 768 763 769 
f 763 760 769 
f 760 768 769 
f 759 761 770 
f 768 759 770 
o convex_54
v -65.584523 3.509011 -21.173478
v -70.500848 101.867591 3.418013
v -72.961898 101.867591 3.418013
v -70.500848 8.429829 -6.420894
v -58.208592 57.599489 -13.792853
v -60.668199 52.688301 -21.173478
v -72.961898 13.350647 -13.792853
v -58.208592 3.509011 -21.173478
v -72.961898 96.946773 -1.504329
v -70.500848 82.184320 3.418013
v -72.961898 3.509011 -8.879177
v -58.208592 15.806241 -26.092932
v -58.208592 47.786743 -13.792853
v -58.208592 52.688301 -21.173478
v -60.666755 15.806241 -26.092932
v -72.961898 82.184320 3.418013
v -72.961898 84.649543 -3.959723
v -70.500848 101.867591 0.959731
v -58.208592 3.509011 -26.092932
v -60.668199 10.895053 -16.251136
v -68.041241 82.184320 0.959731
v -72.961898 3.509011 -13.792853
v -72.961898 8.429829 -6.420894
v -63.127805 77.273131 -8.879177
v -68.041241 94.481550 0.959731
v -70.500848 3.509011 -8.879177
v -60.666755 3.509011 -26.092932
v -68.041241 92.025955 -3.959723
v -58.208592 13.350647 -18.712307
v -60.668199 67.431496 -13.792853
v -72.961898 67.431496 -6.420894
v -70.500848 84.649543 -6.420894
f 787 779 802 
f 777 773 779 
f 772 773 780 
f 773 777 781 
f 771 778 781 
f 775 778 782 
f 778 775 783 
f 775 782 784 
f 782 776 784 
f 777 776 785 
f 771 777 785 
f 776 782 785 
f 780 773 786 
f 774 780 786 
f 773 781 786 
f 777 779 787 
f 773 772 788 
f 779 773 788 
f 778 771 789 
f 782 778 789 
f 785 782 789 
f 774 778 790 
f 783 774 790 
f 772 780 791 
f 780 774 791 
f 774 783 791 
f 783 775 791 
f 777 771 792 
f 781 777 792 
f 771 781 792 
f 781 774 793 
f 774 786 793 
f 786 781 793 
f 794 788 795 
f 788 772 795 
f 772 791 795 
f 791 775 795 
f 775 794 795 
f 778 774 796 
f 781 778 796 
f 774 781 796 
f 771 785 797 
f 789 771 797 
f 785 789 797 
f 776 779 798 
f 784 776 798 
f 779 788 798 
f 788 794 798 
f 778 783 799 
f 790 778 799 
f 783 790 799 
f 775 784 800 
f 794 775 800 
f 784 798 800 
f 798 794 800 
f 776 777 801 
f 787 776 801 
f 777 787 801 
f 779 776 802 
f 776 787 802 
o convex_55
v -75.423029 136.309465 -8.876810
v -77.881994 121.555678 -35.930715
v -77.881994 136.309465 -35.930715
v -75.423029 121.555678 -35.930715
v -77.881994 121.555678 -8.876810
v -75.423029 121.555678 -8.876810
v -77.881994 136.309465 -8.876810
v -75.423029 136.309465 -35.930715
f 803 806 810 
f 804 805 806 
f 805 804 807 
f 804 806 807 
f 806 803 808 
f 803 807 808 
f 807 806 808 
f 803 805 809 
f 807 803 809 
f 805 807 809 
f 805 803 810 
f 806 805 810 
o convex_56
v -75.420863 121.552789 -8.876810
v -65.585005 155.981663 10.798758
v -65.585005 155.981663 -8.876810
v -77.881031 155.981663 10.798758
v -65.585005 128.936664 10.798758
v -77.881031 155.981663 -8.876810
v -77.881031 121.552789 10.798758
v -65.585005 128.936664 -6.415438
v -77.881031 121.552789 -8.876810
v -65.585005 138.767226 -8.876810
v -75.420863 121.552789 10.798758
f 818 815 821 
f 812 813 814 
f 813 812 815 
f 812 814 815 
f 813 811 816 
f 814 813 816 
f 814 816 817 
f 815 814 817 
f 813 815 818 
f 816 811 819 
f 817 816 819 
f 811 817 819 
f 811 813 820 
f 818 811 820 
f 813 818 820 
f 817 811 821 
f 815 817 821 
f 811 818 821 
o convex_57
v -38.530969 106.798039 -3.956955
v -60.665520 131.390573 10.798758
v -60.665520 131.390573 -6.417364
v -65.585005 128.930357 10.798758
v -33.614614 109.258255 5.879626
v -65.585005 128.930357 -6.417364
v -40.993841 116.636497 -3.956955
v -38.530969 106.798039 5.879626
v -58.202648 121.549708 -6.417364
v -33.614614 106.798039 -3.956955
v -60.665520 124.009924 10.798758
v -65.585005 131.390573 10.798758
v -40.993841 116.636497 5.879626
v -50.823422 124.007517 -6.417364
v -33.614614 109.258255 -3.956955
v -65.585005 131.390573 -6.417364
v -33.614614 106.798039 5.879626
v -58.202648 121.549708 5.879626
v -58.205778 124.009924 10.798758
v -50.823422 119.094306 -6.417364
v -58.205778 128.930357 10.798758
v -53.283164 119.094306 -6.417364
v -38.530969 114.176281 5.879626
v -60.665520 124.009924 -6.417364
v -38.530969 114.176281 -3.956955
f 844 826 846 
f 824 823 828 
f 827 824 830 
f 822 829 830 
f 829 822 831 
f 823 825 832 
f 825 827 832 
f 823 824 833 
f 825 823 833 
f 827 825 833 
f 828 823 834 
f 824 828 835 
f 830 824 835 
f 831 835 836 
f 826 831 836 
f 824 827 837 
f 833 824 837 
f 827 833 837 
f 831 826 838 
f 829 831 838 
f 832 829 838 
f 830 829 839 
f 829 832 839 
f 832 830 839 
f 823 832 840 
f 838 826 840 
f 832 838 840 
f 830 835 841 
f 835 831 841 
f 823 840 842 
f 840 826 842 
f 822 830 843 
f 831 822 843 
f 830 841 843 
f 841 831 843 
f 834 823 844 
f 828 834 844 
f 823 842 844 
f 842 826 844 
f 827 830 845 
f 832 827 845 
f 830 832 845 
f 835 828 846 
f 836 835 846 
f 826 836 846 
f 828 844 846 
o convex_58
v -48.368160 3.499381 -8.875365
v -40.990545 55.147747 5.878422
v -43.450954 55.147747 5.878422
v -40.990545 55.147747 -8.875365
v -43.450954 3.499381 5.878422
v -43.450954 3.499381 -8.875365
v -43.450954 55.147747 -8.875365
v -45.908474 35.471216 5.878422
v -40.990545 33.004066 -8.875365
v -45.908474 3.499381 5.878422
v -40.990545 33.004066 5.878422
v -48.368160 8.418514 -6.415919
v -45.908474 35.471216 -8.875365
v -48.368160 8.418514 -8.875365
v -48.368160 3.499381 -6.415919
f 856 858 861 
f 849 848 850 
f 848 849 851 
f 847 850 852 
f 851 847 852 
f 849 850 853 
f 850 847 853 
f 851 849 854 
f 849 853 854 
f 850 848 855 
f 852 850 855 
f 851 852 855 
f 847 851 856 
f 851 854 856 
f 848 851 857 
f 855 848 857 
f 851 855 857 
f 856 854 858 
f 853 847 859 
f 854 853 859 
f 858 854 859 
f 858 859 860 
f 847 858 860 
f 859 847 860 
f 847 856 861 
f 858 847 861 
o convex_59
v -45.908955 -1.413733 -40.849607
v -40.991026 55.140525 -8.876810
v -40.991026 57.601415 -38.386550
v -45.908955 57.601415 -38.386550
v -45.908955 -1.413733 -8.876810
v -40.991026 23.177838 -40.849607
v -43.450231 -1.413733 -8.876810
v -45.908955 35.464958 -8.876810
v -43.450231 -1.413733 -40.849607
v -40.991026 33.009845 -8.876810
v -43.450231 55.140525 -8.876810
v -45.908955 57.601415 -40.849607
v -40.991026 57.601415 -40.849607
v -40.991026 23.177838 -38.386550
f 871 868 875 
f 863 864 865 
f 865 862 866 
f 864 863 867 
f 866 862 868 
f 863 866 868 
f 865 866 869 
f 866 863 869 
f 862 867 870 
f 868 862 870 
f 867 868 870 
f 867 863 871 
f 863 868 871 
f 863 865 872 
f 869 863 872 
f 865 869 872 
f 865 864 873 
f 862 865 873 
f 867 862 873 
f 867 873 874 
f 864 867 874 
f 873 864 874 
f 868 867 875 
f 867 871 875 
o convex_60
v -40.992230 55.140525 5.879866
v -58.204982 -1.413733 5.879866
v -58.204982 -1.413733 10.798758
v -58.204982 57.601415 10.798758
v -43.452398 -1.413733 10.798758
v -40.992230 57.601415 10.798758
v -43.452398 -1.413733 5.879866
v -58.204982 57.601415 8.339312
v -40.992230 33.009845 10.798758
v -43.452398 55.140525 5.879866
v -40.992230 33.009845 5.879866
v -40.992230 57.601415 8.339312
v -58.204982 1.047157 5.879866
f 883 885 888 
f 877 878 879 
f 878 877 880 
f 879 878 880 
f 879 880 881 
f 877 876 882 
f 880 877 882 
f 877 879 883 
f 879 881 883 
f 876 881 884 
f 881 880 884 
f 880 882 884 
f 876 877 885 
f 883 876 885 
f 882 876 886 
f 876 884 886 
f 884 882 886 
f 881 876 887 
f 876 883 887 
f 883 881 887 
f 877 883 888 
f 885 877 888 
o convex_61
v 42.630619 3.499381 -35.930715
v 45.090065 45.309963 5.879866
v 42.630619 45.309963 5.879866
v 45.090065 3.499381 5.879866
v 45.090065 45.309963 -35.930715
v 42.630619 45.309963 -35.930715
v 42.630619 3.499381 5.879866
v 45.090065 3.499381 -35.930715
f 893 892 896 
f 890 891 892 
f 891 890 893 
f 890 892 893 
f 889 891 894 
f 893 889 894 
f 891 893 894 
f 891 889 895 
f 892 891 895 
f 889 892 895 
f 892 889 896 
f 889 893 896 
o convex_62
v 72.143971 116.622341 10.798758
v 42.630619 -1.407955 5.879866
v 72.143971 -1.407955 5.879866
v 42.630619 -1.407955 10.798758
v 42.630619 116.622341 8.339312
v 72.143971 -1.407955 10.798758
v 42.630619 116.622341 10.798758
v 72.143971 116.622341 8.339312
v 45.094880 52.696967 5.879866
v 64.762744 37.943180 5.879866
v 42.630619 52.696967 5.879866
v 72.143971 1.052935 5.879866
f 906 904 908 
f 898 899 900 
f 898 900 901 
f 899 897 902 
f 900 899 902 
f 897 900 902 
f 900 897 903 
f 897 901 903 
f 901 900 903 
f 897 899 904 
f 901 897 904 
f 899 898 905 
f 905 904 906 
f 899 905 906 
f 898 901 907 
f 901 904 907 
f 904 905 907 
f 905 898 907 
f 904 899 908 
f 899 906 908 
o convex_63
v -38.529895 106.798039 5.879866
v -33.612207 121.552789 18.177096
v -33.612207 121.552789 15.716687
v -40.990545 121.552789 18.177096
v -33.612207 101.877221 15.716687
v -40.990545 101.877221 10.799481
v -40.990545 114.172525 5.879866
v -33.612207 106.798039 5.879866
v -40.990545 114.172525 18.177096
v -33.612207 116.631971 8.340275
v -33.612207 101.877221 8.340275
v -40.990545 121.552789 15.716687
v -40.990545 106.798039 15.716687
v -40.990545 101.877221 8.340275
v -33.612207 114.172525 18.177096
v -36.072856 101.877221 15.716687
v -33.612207 109.257485 5.879866
v -40.990545 116.631971 8.340275
v -40.990545 109.257485 5.879866
v -38.529895 114.172525 5.879866
f 918 925 928 
f 910 911 912 
f 911 910 913 
f 914 912 915 
f 911 913 916 
f 909 915 916 
f 910 912 917 
f 912 914 917 
f 911 916 918 
f 913 914 919 
f 916 913 919 
f 909 916 919 
f 912 911 920 
f 915 912 920 
f 911 918 920 
f 917 914 921 
f 914 915 922 
f 909 919 922 
f 919 914 922 
f 913 910 923 
f 910 917 923 
f 917 913 923 
f 914 913 924 
f 913 917 924 
f 921 914 924 
f 917 921 924 
f 916 915 925 
f 918 916 925 
f 918 915 926 
f 915 920 926 
f 920 918 926 
f 915 909 927 
f 909 922 927 
f 922 915 927 
f 915 918 928 
f 925 915 928 
o convex_64
v 30.333389 151.066141 13.258204
v 27.873943 138.768911 -3.957918
v 30.333389 138.768911 -3.957918
v 27.873943 138.768911 13.258204
v 27.873943 151.066141 -3.957918
v 30.333389 151.066141 -3.957918
v 30.333389 138.768911 13.258204
v 27.873943 151.066141 13.258204
f 933 932 936 
f 930 931 932 
f 931 930 933 
f 930 932 933 
f 929 931 934 
f 933 929 934 
f 931 933 934 
f 931 929 935 
f 932 931 935 
f 929 932 935 
f 932 929 936 
f 929 933 936 
o convex_65
v -28.693315 151.066141 -3.957918
v -40.988137 138.768911 -11.336256
v -40.988137 138.768911 -6.418567
v -40.988137 151.066141 -6.418567
v -28.693315 141.229320 -11.336256
v -28.693315 138.768911 -3.957918
v -28.693315 151.066141 -8.876328
v -40.988137 151.066141 -8.876328
v -28.693315 138.768911 -11.336256
v -31.154686 151.066141 -3.957918
v -31.154686 138.768911 -3.957918
v -40.988137 141.229320 -11.336256
f 938 944 948 
f 938 939 940 
f 939 938 942 
f 941 937 942 
f 940 937 943 
f 937 941 943 
f 943 941 944 
f 938 940 944 
f 940 943 944 
f 938 941 945 
f 942 938 945 
f 941 942 945 
f 940 939 946 
f 937 940 946 
f 942 937 946 
f 942 946 947 
f 939 942 947 
f 946 939 947 
f 941 938 948 
f 944 941 948 
o convex_66
v -28.693315 151.066141 13.258204
v -31.152761 138.768911 -3.957918
v -28.693315 138.768911 -3.957918
v -31.152761 138.768911 13.258204
v -31.152761 151.066141 -3.957918
v -28.693315 151.066141 -3.957918
v -28.693315 138.768911 13.258204
v -31.152761 151.066141 13.258204
f 953 952 956 
f 950 951 952 
f 951 950 953 
f 950 952 953 
f 949 951 954 
f 953 949 954 
f 951 953 954 
f 951 949 955 
f 952 951 955 
f 949 952 955 
f 952 949 956 
f 949 953 956 
o convex_67
v 10.654932 64.985531 10.797795
v 8.204394 79.742207 8.338590
v 8.204394 79.742207 0.960974
v -6.558301 77.282280 13.258204
v 25.414497 67.445459 13.258204
v 15.571658 67.445459 0.960974
v 25.414497 64.985531 3.421383
v 8.201264 79.742207 13.258204
v 3.284539 77.282280 0.960974
v -6.558301 79.742207 10.797795
v 10.654932 64.985531 13.258204
v -6.558301 77.282280 10.797795
v 15.571658 74.819463 0.960974
v 25.414497 64.985531 13.258204
v 5.741337 67.445459 10.797795
v 25.414497 67.445459 3.421383
v 8.204394 72.363869 0.960974
v 18.034715 64.985531 3.421383
v 3.284539 79.742207 0.960974
v -6.558301 79.742207 13.258204
v 15.571658 74.819463 13.258204
v 18.034715 72.363869 0.960974
v 5.741337 67.445459 13.258204
v 18.034715 67.445459 0.960974
f 978 963 980 
f 958 959 964 
f 960 961 964 
f 959 962 965 
f 964 959 966 
f 961 960 967 
f 957 963 967 
f 960 966 968 
f 966 965 968 
f 962 959 969 
f 963 961 970 
f 961 967 970 
f 967 963 970 
f 962 957 971 
f 957 967 971 
f 960 968 971 
f 961 963 972 
f 969 961 972 
f 965 962 973 
f 968 965 973 
f 962 971 973 
f 971 968 973 
f 957 962 974 
f 963 957 974 
f 962 963 974 
f 959 965 975 
f 966 959 975 
f 965 966 975 
f 960 964 976 
f 964 966 976 
f 966 960 976 
f 959 958 977 
f 958 964 977 
f 964 961 977 
f 969 959 977 
f 961 969 977 
f 962 969 978 
f 972 963 978 
f 969 972 978 
f 967 960 979 
f 971 967 979 
f 960 971 979 
f 963 962 980 
f 962 978 980 
o convex_68
v -50.826162 124.011272 5.879866
v -58.204982 109.255559 8.339312
v -58.204982 109.255559 10.798758
v -40.992230 109.255559 8.339312
v -55.744813 126.471681 10.798758
v -40.992230 116.635101 10.798758
v -40.992230 111.715968 5.879866
v -58.204982 126.471681 5.879866
v -40.992230 109.255559 10.798758
v -40.992230 116.635101 5.879866
v -58.204982 126.471681 10.798758
v -58.204982 121.552548 5.879866
v -48.371049 114.174692 5.879866
v -50.826162 124.011272 10.798758
v -55.744813 126.471681 5.879866
v -43.452398 111.715968 5.879866
f 993 987 996 
f 983 982 984 
f 985 983 986 
f 984 982 987 
f 986 984 987 
f 982 983 988 
f 981 987 988 
f 983 984 989 
f 986 983 989 
f 984 986 989 
f 981 986 990 
f 987 981 990 
f 986 987 990 
f 983 985 991 
f 988 983 991 
f 985 988 991 
f 982 988 992 
f 988 987 992 
f 982 992 993 
f 992 987 993 
f 981 985 994 
f 985 986 994 
f 986 981 994 
f 985 981 995 
f 981 988 995 
f 988 985 995 
f 987 982 996 
f 982 993 996 
o convex_69
v 5.737966 99.417775 -1.498472
v -16.396085 92.039437 -11.336256
v -16.396085 94.500087 -11.336256
v 8.198375 94.500087 -11.336256
v -16.396085 92.039437 -1.498472
v -6.554449 99.417775 -11.336256
v 8.198375 94.500087 -1.498472
v -13.935676 96.957125 -1.498472
v 5.737966 99.417775 -11.336256
v -6.554449 99.417775 -1.498472
v -11.472859 92.039437 -1.498472
v -11.472859 92.039437 -11.336256
v 8.198375 96.957125 -11.336256
v -13.935676 96.957125 -11.336256
v -16.396085 94.500087 -1.498472
v 8.198375 96.957125 -1.498472
f 1009 997 1012 
f 998 999 1000 
f 999 998 1001 
f 1000 999 1002 
f 997 1001 1003 
f 1001 997 1004 
f 1000 1002 1005 
f 1002 997 1005 
f 997 1002 1006 
f 1004 997 1006 
f 1001 998 1007 
f 1000 1003 1007 
f 1003 1001 1007 
f 998 1000 1008 
f 1007 998 1008 
f 1000 1007 1008 
f 1003 1000 1009 
f 1005 997 1009 
f 1000 1005 1009 
f 1002 999 1010 
f 999 1004 1010 
f 1006 1002 1010 
f 1004 1006 1010 
f 999 1001 1011 
f 1001 1004 1011 
f 1004 999 1011 
f 997 1003 1012 
f 1003 1009 1012 
o convex_70
v 50.008957 155.985033 10.798758
v 42.630619 143.687803 -8.876810
v 50.008957 143.687803 -8.876810
v 50.008957 155.985033 -8.876810
v 42.630619 155.985033 -8.876810
v 47.549030 143.687803 10.798758
v 42.630619 155.985033 10.798758
v 50.008957 143.687803 10.798758
v 42.630619 153.524624 10.798758
v 42.630619 143.687803 -6.415438
f 1018 1021 1022 
f 1015 1014 1016 
f 1013 1015 1016 
f 1013 1016 1017 
f 1016 1014 1017 
f 1014 1015 1018 
f 1013 1017 1019 
f 1017 1014 1019 
f 1018 1013 1019 
f 1015 1013 1020 
f 1013 1018 1020 
f 1018 1015 1020 
f 1019 1014 1021 
f 1018 1019 1021 
f 1014 1018 1022 
f 1021 1014 1022 
o convex_71
v 8.198375 94.497439 5.879866
v 27.873943 99.417775 10.798758
v 27.873943 82.203338 10.798758
v 8.198375 99.417775 10.798758
v 27.873943 82.203338 5.879866
v 8.198375 89.582158 10.798758
v 27.873943 99.417775 8.339312
v 13.119193 96.955922 5.879866
v 25.414497 82.203338 5.879866
v 8.198375 89.582158 8.339312
v 8.198375 99.417775 8.339312
v 25.414497 89.582158 5.879866
v 25.414497 82.203338 10.798758
v 20.493679 94.497439 5.879866
v 10.657821 92.037271 5.879866
v 8.198375 96.955922 5.879866
v 27.873943 87.121990 5.879866
f 1034 1029 1039 
f 1025 1024 1026 
f 1024 1025 1027 
f 1025 1026 1028 
f 1026 1023 1028 
f 1026 1024 1029 
f 1024 1027 1029 
f 1027 1023 1030 
f 1023 1027 1031 
f 1027 1025 1031 
f 1031 1028 1032 
f 1028 1023 1032 
f 1023 1026 1033 
f 1026 1029 1033 
f 1029 1030 1033 
f 1027 1030 1034 
f 1025 1028 1035 
f 1031 1025 1035 
f 1028 1031 1035 
f 1030 1029 1036 
f 1029 1034 1036 
f 1034 1030 1036 
f 1023 1031 1037 
f 1031 1032 1037 
f 1032 1023 1037 
f 1030 1023 1038 
f 1023 1033 1038 
f 1033 1030 1038 
f 1029 1027 1039 
f 1027 1034 1039 
o convex_72
v 72.143971 153.524624 10.798758
v 64.765633 143.687803 -8.876810
v 64.765633 155.985033 -8.876810
v 72.143971 143.687803 -8.876810
v 64.765633 143.687803 10.798758
v 72.143971 155.985033 -8.876810
v 64.765633 155.985033 10.798758
v 67.226283 143.687803 10.798758
v 72.143971 155.985033 10.798758
v 72.143971 143.687803 -6.415438
f 1047 1043 1049 
f 1041 1042 1043 
f 1042 1041 1044 
f 1041 1043 1044 
f 1043 1042 1045 
f 1040 1043 1045 
f 1044 1040 1046 
f 1042 1044 1046 
f 1045 1042 1046 
f 1040 1044 1047 
f 1044 1043 1047 
f 1040 1045 1048 
f 1046 1040 1048 
f 1045 1046 1048 
f 1043 1040 1049 
f 1040 1047 1049 
o convex_73
v -60.667798 67.448829 -35.929271
v -72.961898 92.032216 -35.929271
v -70.502212 82.197802 -35.929271
v -63.127484 55.157136 -21.175484
v -68.042525 94.489495 -31.010379
v -60.667798 47.774706 -35.929271
v -58.208111 57.614415 -21.175484
v -72.961898 94.489495 -31.010379
v -70.502212 101.877221 -35.929271
v -58.208111 47.774706 -35.929271
v -58.208111 47.774706 -21.175484
v -65.585727 69.911404 -23.634930
v -58.208111 57.614415 -35.929271
v -60.667798 47.774706 -21.175484
v -63.127484 77.277947 -26.094376
v -72.961898 101.877221 -33.469825
v -63.127484 55.157136 -35.929271
v -70.502212 82.197802 -28.552378
v -63.127484 77.277947 -35.929271
v -60.667798 60.071695 -21.175484
v -72.961898 101.877221 -35.929271
v -70.502212 101.877221 -33.469825
v -63.127484 69.911404 -23.634930
v -63.127484 60.071695 -21.175484
v -72.961898 92.032216 -31.010379
v -68.042525 94.489495 -35.929271
v -60.667798 67.448829 -23.634930
f 1072 1056 1076 
f 1052 1051 1050 
f 1052 1050 1055 
f 1050 1051 1058 
f 1055 1050 1059 
f 1059 1056 1060 
f 1056 1053 1060 
f 1055 1059 1060 
f 1054 1057 1061 
f 1050 1056 1062 
f 1059 1050 1062 
f 1056 1059 1062 
f 1053 1055 1063 
f 1060 1053 1063 
f 1055 1060 1063 
f 1057 1054 1065 
f 1051 1057 1065 
f 1052 1055 1066 
f 1055 1053 1066 
f 1051 1052 1067 
f 1052 1066 1067 
f 1066 1053 1067 
f 1050 1058 1068 
f 1064 1050 1068 
f 1054 1064 1068 
f 1053 1056 1069 
f 1058 1051 1070 
f 1051 1065 1070 
f 1065 1058 1070 
f 1054 1058 1071 
f 1065 1054 1071 
f 1058 1065 1071 
f 1054 1061 1072 
f 1064 1054 1072 
f 1069 1056 1072 
f 1061 1069 1072 
f 1057 1053 1073 
f 1061 1057 1073 
f 1053 1069 1073 
f 1069 1061 1073 
f 1057 1051 1074 
f 1053 1057 1074 
f 1051 1067 1074 
f 1067 1053 1074 
f 1058 1054 1075 
f 1068 1058 1075 
f 1054 1068 1075 
f 1056 1050 1076 
f 1050 1064 1076 
f 1064 1072 1076 
o convex_74
v 67.221227 143.687322 10.796592
v 42.630619 138.769393 -11.334089
v 42.630619 138.769393 -6.414475
v 72.143971 138.769393 -11.334089
v 42.630619 143.687322 -8.873199
v 47.550474 138.769393 10.796592
v 72.143971 143.687322 -8.873199
v 67.221227 138.769393 10.796592
v 47.550474 143.687322 10.796592
v 72.143971 141.228357 -11.334089
v 72.143971 138.769393 -6.414475
v 42.630619 141.228357 -11.334089
v 72.143971 143.687322 -6.414475
v 42.630619 143.687322 -6.414475
f 1079 1085 1090 
f 1079 1078 1080 
f 1078 1079 1081 
f 1079 1080 1082 
f 1081 1077 1083 
f 1082 1080 1084 
f 1077 1082 1084 
f 1077 1081 1085 
f 1079 1082 1085 
f 1082 1077 1085 
f 1080 1078 1086 
f 1083 1080 1086 
f 1081 1083 1086 
f 1080 1083 1087 
f 1084 1080 1087 
f 1077 1084 1087 
f 1078 1081 1088 
f 1086 1078 1088 
f 1081 1086 1088 
f 1083 1077 1089 
f 1077 1087 1089 
f 1087 1083 1089 
f 1081 1079 1090 
f 1085 1081 1090 
o convex_75
v 37.709320 77.280354 3.420420
v 27.873943 79.739319 3.420420
v 35.252281 64.989864 3.420420
v 27.873943 79.739319 10.798758
v 42.630619 87.120545 10.798758
v 42.630619 64.989864 10.798758
v 27.873943 84.657248 3.420420
v 40.170692 64.989864 3.420420
v 27.873943 87.120545 10.798758
v 35.252281 64.989864 10.798758
v 42.630619 87.120545 8.338831
v 42.630619 64.989864 8.338831
v 27.873943 87.120545 8.338831
v 30.333871 84.657248 3.420420
v 40.170692 67.448829 3.420420
v 32.795243 82.198283 3.420420
f 1104 1101 1106 
f 1093 1092 1091 
f 1092 1093 1094 
f 1095 1094 1096 
f 1091 1092 1097 
f 1092 1094 1097 
f 1093 1091 1098 
f 1096 1093 1098 
f 1094 1095 1099 
f 1097 1094 1099 
f 1094 1093 1100 
f 1096 1094 1100 
f 1093 1096 1100 
f 1095 1096 1101 
f 1099 1095 1101 
f 1096 1098 1102 
f 1101 1096 1102 
f 1098 1101 1102 
f 1097 1099 1103 
f 1101 1097 1103 
f 1099 1101 1103 
f 1091 1097 1104 
f 1097 1101 1104 
f 1098 1091 1105 
f 1091 1101 1105 
f 1101 1098 1105 
f 1101 1091 1106 
f 1091 1104 1106 
o convex_76
v 27.873943 138.768911 -11.336256
v 42.630619 151.066141 -6.418567
v 42.630619 151.066141 -8.876328
v 27.873943 151.066141 -3.957918
v 42.630619 138.768911 -6.418567
v 27.873943 138.768911 -3.957918
v 27.873943 151.066141 -8.876328
v 42.630619 141.229320 -11.336256
v 42.630619 138.768911 -11.336256
v 30.333871 151.066141 -3.957918
v 27.873943 141.229320 -11.336256
v 30.333871 138.768911 -3.957918
f 1116 1112 1118 
f 1108 1109 1110 
f 1109 1108 1111 
f 1110 1107 1112 
f 1107 1111 1112 
f 1110 1109 1113 
f 1107 1110 1113 
f 1109 1111 1114 
f 1113 1109 1114 
f 1111 1107 1115 
f 1107 1114 1115 
f 1114 1111 1115 
f 1108 1110 1116 
f 1111 1108 1116 
f 1110 1112 1116 
f 1107 1113 1117 
f 1114 1107 1117 
f 1113 1114 1117 
f 1112 1111 1118 
f 1111 1116 1118 
