v 59.789156913757324 213.50215891451427 -59.78913805349512
v 59.789156913757324 201.23034933657237 -59.789136054163585
v 59.789156913757324 201.2303469110102 -74.67713058198036
v 59.789156913757324 213.5021564889521 -74.6771325813119
v 44.841840863227844 213.50215891451427 -59.78913805349512
v 59.789156913757324 213.50215891451427 -59.78913805349512
v 59.789156913757324 213.5021564889521 -74.6771325813119
v 44.841840863227844 213.5021564889521 -74.6771325813119
v 59.789156913757324 201.23034933657237 -59.789136054163585
v 59.789156913757324 213.50215891451427 -59.78913805349512
v 74.6771514415741 213.50215891451427 -59.78913805349512
v 74.6771514415741 201.23034933657237 -59.789136054163585
v 59.789156913757324 201.23034933657237 -59.789136054163585
v 44.841840863227844 201.23034933657237 -59.789136054163585
v 44.841840863227844 201.2303469110102 -74.67713058198036
v 59.789156913757324 201.2303469110102 -74.67713058198036
v 44.841840863227844 213.5021564889521 -74.6771325813119
v 59.789156913757324 213.5021564889521 -74.6771325813119
v 59.789156913757324 201.2303469110102 -74.67713058198036
v 44.841840863227844 201.2303469110102 -74.67713058198036
v 44.841840863227844 201.23034933657237 -59.789136054163585
v 44.841840863227844 213.50215891451427 -59.78913805349512
v 44.841840863227844 213.5021564889521 -74.6771325813119
v 44.841840863227844 201.2303469110102 -74.67713058198036
v 59.789156913757324 213.50215891451427 -59.78913805349512
v 44.841840863227844 213.50215891451427 -59.78913805349512
v 43.84947121143341 247.90143014146662 -58.46580133454446
v 58.4658145904541 247.90143014146662 -58.46580133454446
v 59.789156913757324 201.23035177179048 -44.8418736478144
v 59.789156913757324 201.23034933657237 -59.789136054163585
v 74.6771514415741 201.23034933657237 -59.789136054163585
v 74.6771514415741 201.23035177179048 -44.8418736478144
v 59.789156913757324 213.50215891451427 -59.78913805349512
v 59.789156913757324 213.50216134973238 -44.84187564714594
v 74.6771514415741 213.50216134973238 -44.84187564714594
v 74.6771514415741 213.50215891451427 -59.78913805349512
v 74.6771514415741 213.50215891451427 -59.78913805349512
v 74.6771514415741 213.50216134973238 -44.84187564714594
v 74.6771514415741 201.23035177179048 -44.8418736478144
v 74.6771514415741 201.23034933657237 -59.789136054163585
v 44.841840863227844 201.23034933657237 -59.789136054163585
v 59.789156913757324 201.23034933657237 -59.789136054163585
v 62.198323011398315 120.74314534607412 -62.19812214576942
v 46.64871394634247 120.74314534607412 -62.19812214576942
v -44.84173059463501 213.50215891451427 -59.78913805349512
v 44.841840863227844 213.50215891451427 -59.78913805349512
v 44.841840863227844 201.23034933657237 -59.789136054163585
v -44.84173059463501 201.23034933657237 -59.789136054163585
v 59.789156913757324 213.50216134973238 -44.84187564714594
v 59.789156913757324 213.50215891451427 -59.78913805349512
v 58.4658145904541 247.90143014146662 -58.46580133454446
v 58.4658145904541 247.90143252278966 -43.849344706698695
v 44.841840863227844 213.50215891451427 -59.78913805349512
v -44.84173059463501 213.50215891451427 -59.78913805349512
v -43.84925067424774 247.90143014146662 -58.46580133454446
v 43.84947121143341 247.90143014146662 -58.46580133454446
v 58.4658145904541 247.90143014146662 -58.46580133454446
v 43.84947121143341 247.90143014146662 -58.46580133454446
v 43.84947121143341 292.16205121232844 -58.46580854551486
v 58.4658145904541 292.16205121232844 -58.46580854551486
v 59.789156913757324 213.50216134973238 -44.84187564714594
v 59.789156913757324 201.23035177179048 -44.8418736478144
v 74.6771514415741 201.23035177179048 -44.8418736478144
v 74.6771514415741 213.50216134973238 -44.84187564714594
v 59.789156913757324 201.23034933657237 -59.789136054163585
v 59.789156913757324 201.23035177179048 -44.8418736478144
v 62.198323011398315 120.74314787940901 -46.648623349306405
v 62.198323011398315 120.74314534607412 -62.19812214576942
v 44.841840863227844 201.23035177179048 -44.8418736478144
v 44.841840863227844 201.23034933657237 -59.789136054163585
v 46.64871394634247 120.74314534607412 -62.19812214576942
v 46.64871394634247 120.74314787940901 -46.648623349306405
v 46.64871394634247 120.74314534607412 -62.19812214576942
v 62.198323011398315 120.74314534607412 -62.19812214576942
v 62.76024580001831 106.50212934341424 -62.76009625841374
v 47.07024097442627 106.50212934341424 -62.76009625841374
v -44.84173059463501 213.50215891451427 -59.78913805349512
v -44.84173059463501 201.23034933657237 -59.789136054163585
v -44.84173059463501 201.2303469110102 -74.67713058198036
v -44.84173059463501 213.5021564889521 -74.6771325813119
v 44.841840863227844 201.23034933657237 -59.789136054163585
v 44.841840863227844 201.23035177179048 -44.8418736478144
v -44.84173059463501 201.23035177179048 -44.8418736478144
v -44.84173059463501 201.23034933657237 -59.789136054163585
v 59.789156913757324 213.50217596106785 44.841862703722285
v 59.789156913757324 213.50216134973238 -44.84187564714594
v 58.4658145904541 247.90143252278966 -43.849344706698695
v 58.4658145904541 247.9014468107249 43.84937717898246
v 58.4658145904541 247.90143252278966 -43.849344706698695
v 58.4658145904541 247.90143014146662 -58.46580133454446
v 58.4658145904541 292.16205121232844 -58.46580854551486
v 58.4658145904541 292.1620535936515 -43.8493519176691
v -44.84173059463501 213.50215891451427 -59.78913805349512
v -59.788936376571655 213.50215891451427 -59.78913805349512
v -58.46570134162903 247.90143014146662 -58.46580133454446
v -43.84925067424774 247.90143014146662 -58.46580133454446
v -43.84925067424774 247.90143014146662 -58.46580133454446
v -43.84925067424774 247.90143252278966 -43.849344706698695
v 43.84947121143341 247.90143252278966 -43.849344706698695
v 43.84947121143341 247.90143014146662 -58.46580133454446
v 43.84947121143341 247.90143014146662 -58.46580133454446
v 43.84947121143341 247.90143252278966 -43.849344706698695
v 43.84947121143341 292.1620535936515 -43.8493519176691
v 43.84947121143341 292.16205121232844 -58.46580854551486
v 58.4658145904541 292.16205121232844 -58.46580854551486
v 43.84947121143341 292.16205121232844 -58.46580854551486
v 51.553016901016235 291.6470654080378 -68.73725635857069
v 68.73732209205627 291.6470654080378 -68.73725635857069
v 59.789156913757324 213.50217596106785 44.841862703722285
v 59.789156913757324 201.23036638312595 44.84186470305382
v 59.789156913757324 201.23035177179048 -44.8418736478144
v 59.789156913757324 213.50216134973238 -44.84187564714594
v 59.789156913757324 201.23035177179048 -44.8418736478144
v 44.841840863227844 201.23035177179048 -44.8418736478144
v 46.64871394634247 120.74314787940901 -46.648623349306405
v 62.198323011398315 120.74314787940901 -46.648623349306405
v 62.198323011398315 120.74314534607412 -62.19812214576942
v 62.198323011398315 120.74314787940901 -46.648623349306405
v 62.76024580001831 106.5021318996497 -47.07003480840916
v 62.76024580001831 106.50212934341424 -62.76009625841374
v 46.64871394634247 120.74314787940901 -46.648623349306405
v 46.64871394634247 120.74314534607412 -62.19812214576942
v -46.651166677474976 120.65118729951548 -62.20179973737019
v -46.651166677474976 120.65116599114687 -46.651353227051366
v 46.64871394634247 120.74314534607412 -62.19812214576942
v 47.07024097442627 106.50212934341424 -62.76009625841374
v -47.07001745700836 106.50212934341424 -62.76009625841374
v -46.651166677474976 120.65118729951548 -62.20179973737019
v 47.07024097442627 106.50212934341424 -62.76009625841374
v 62.76024580001831 106.50212934341424 -62.76009625841374
v 67.05445051193237 -2.3286440690369403 -67.05434284418929
v 50.290894508361816 -2.3286440690369403 -67.05434284418929
v -59.788936376571655 213.50215891451427 -59.78913805349512
v -44.84173059463501 213.50215891451427 -59.78913805349512
v -44.84173059463501 213.5021564889521 -74.6771325813119
v -59.788936376571655 213.5021564889521 -74.6771325813119
v -44.84173059463501 201.23034933657237 -59.789136054163585
v -59.788936376571655 201.23034933657237 -59.789136054163585
v -59.788936376571655 201.2303469110102 -74.67713058198036
v -44.84173059463501 201.2303469110102 -74.67713058198036
v -59.788936376571655 213.5021564889521 -74.6771325813119
v -44.84173059463501 213.5021564889521 -74.6771325813119
v -44.84173059463501 201.2303469110102 -74.67713058198036
v -59.788936376571655 201.2303469110102 -74.67713058198036
v 44.841840863227844 201.23036638312595 44.84186470305382
v -44.84173059463501 201.23036638312595 44.84186470305382
v -44.84173059463501 201.23035177179048 -44.8418736478144
v 44.841840863227844 201.23035177179048 -44.8418736478144
v -44.84173059463501 201.23034933657237 -59.789136054163585
v -44.84173059463501 201.23035177179048 -44.8418736478144
v -46.651166677474976 120.65116599114687 -46.651353227051366
v -46.651166677474976 120.65118729951548 -62.20179973737019
v 59.789156913757324 213.5021783962855 59.78912212983923
v 59.789156913757324 213.50217596106785 44.841862703722285
v 58.4658145904541 247.9014468107249 43.84937717898246
v 58.4658145904541 247.90144919204695 58.465827846363744
v 58.4658145904541 247.9014468107249 43.84937717898246
v 58.4658145904541 247.90143252278966 -43.849344706698695
v 43.84947121143341 247.90143252278966 -43.849344706698695
v 43.84947121143341 247.9014468107249 43.84937717898246
v 43.84947121143341 247.90143252278966 -43.849344706698695
v 58.4658145904541 247.90143252278966 -43.849344706698695
v 58.4658145904541 292.1620535936515 -43.8493519176691
v 43.84947121143341 292.1620535936515 -43.8493519176691
v 58.4658145904541 292.1620535936515 -43.8493519176691
v 58.4658145904541 292.16205121232844 -58.46580854551486
v 68.73732209205627 291.6470654080378 -68.73725635857069
v 68.73732209205627 291.6470682077155 -51.552957127995136
v -59.788936376571655 213.50215891451427 -59.78913805349512
v -59.788936376571655 213.50216134973238 -44.84187564714594
v -58.46570134162903 247.90143252278966 -43.849344706698695
v -58.46570134162903 247.90143014146662 -58.46580133454446
v -43.84925067424774 247.90143014146662 -58.46580133454446
v -58.46570134162903 247.90143014146662 -58.46580133454446
v -58.46570134162903 292.26092339708185 -58.465808561623184
v -43.84925067424774 292.26092339708185 -58.465808561623184
v -43.84925067424774 247.90143252278966 -43.849344706698695
v -43.84925067424774 247.90143014146662 -58.46580133454446
v -43.84925067424774 292.26092339708185 -58.465808561623184
v -43.84925067424774 292.2609257784049 -43.84935193377742
v -44.84173059463501 213.50216134973238 -44.84187564714594
v 44.841840863227844 213.50216134973238 -44.84187564714594
v 43.84947121143341 247.90143252278966 -43.849344706698695
v -43.84925067424774 247.90143252278966 -43.849344706698695
v 59.789156913757324 201.23036638312595 44.84186470305382
v 59.789156913757324 213.50217596106785 44.841862703722285
v 74.6771514415741 213.50217596106785 44.841862703722285
v 74.6771514415741 201.23036638312595 44.84186470305382
v 44.841840863227844 201.23036638312595 44.84186470305382
v 44.841840863227844 201.23035177179048 -44.8418736478144
v 59.789156913757324 201.23035177179048 -44.8418736478144
v 59.789156913757324 201.23036638312595 44.84186470305382
v 62.198323011398315 120.74314787940901 -46.648623349306405
v 46.64871394634247 120.74314787940901 -46.648623349306405
v 46.652060747146606 120.62574192982697 46.652151363313
v 62.20289468765259 120.62575385075593 46.65215136331106
v 62.76024580001831 106.5021318996497 -47.07003480840916
v 62.198323011398315 120.74314787940901 -46.648623349306405
v 62.20289468765259 120.62575385075593 46.65215136331106
v 62.76024580001831 106.50214723702598 47.0701103742004
v 62.76024580001831 106.50212934341424 -62.76009625841374
v 62.76024580001831 106.5021318996497 -47.07003480840916
v 67.05445051193237 -2.3286413379060575 -50.29078088015425
v 67.05445051193237 -2.3286440690369403 -67.05434284418929
v 47.07024097442627 106.5021318996497 -47.07003480840916
v 46.64871394634247 120.74314787940901 -46.648623349306405
v -46.651166677474976 120.65116599114687 -46.651353227051366
v -47.07001745700836 106.5021318996497 -47.07003480840916
v 47.07024097442627 106.50212934341424 -62.76009625841374
v 47.07024097442627 106.5021318996497 -47.07003480840916
v -47.07001745700836 106.5021318996497 -47.07003480840916
v -47.07001745700836 106.50212934341424 -62.76009625841374
v -62.20189332962036 120.65118729951548 -62.20179973737019
v -46.651166677474976 120.65118729951548 -62.20179973737019
v -47.07001745700836 106.50212934341424 -62.76009625841374
v -62.76013255119324 106.50212934341424 -62.76009625841374
v 47.07024097442627 106.5021318996497 -47.07003480840916
v 47.07024097442627 106.50212934341424 -62.76009625841374
v 50.290894508361816 -2.3286440690369403 -67.05434284418929
v 50.290894508361816 -2.3286413379060575 -50.29078088015425
v 50.290894508361816 -2.3286413379060575 -50.29078088015425
v 50.290894508361816 -2.3286440690369403 -67.05434284418929
v 67.05445051193237 -2.3286440690369403 -67.05434284418929
v 67.05445051193237 -2.3286413379060575 -50.29078088015425
v -59.788936376571655 201.23034933657237 -59.789136054163585
v -59.788936376571655 213.50215891451427 -59.78913805349512
v -59.788936376571655 213.5021564889521 -74.6771325813119
v -59.788936376571655 201.2303469110102 -74.67713058198036
v -59.788936376571655 201.23034933657237 -59.789136054163585
v -44.84173059463501 201.23034933657237 -59.789136054163585
v -46.651166677474976 120.65118729951548 -62.20179973737019
v -62.20189332962036 120.65118729951548 -62.20179973737019
v -44.84173059463501 201.23036638312595 44.84186470305382
v 44.841840863227844 201.23036638312595 44.84186470305382
v 44.841840863227844 201.2303688183436 59.789124129170766
v -44.84173059463501 201.2303688183436 59.789124129170766
v -59.788936376571655 201.23036638312595 44.84186470305382
v -59.788936376571655 201.23035177179048 -44.8418736478144
v -44.84173059463501 201.23035177179048 -44.8418736478144
v -44.84173059463501 201.23036638312595 44.84186470305382
v -44.84173059463501 201.23035177179048 -44.8418736478144
v -59.788936376571655 201.23035177179048 -44.8418736478144
v -62.20189332962036 120.65118983300478 -46.651353227055246
v -46.651166677474976 120.65116599114687 -46.651353227051366
v 44.841840863227844 213.5021783962855 59.78912212983923
v 59.789156913757324 213.5021783962855 59.78912212983923
v 58.4658145904541 247.90144919204695 58.465827846363744
v 43.84947121143341 247.90144919204695 58.465827846363744
v 59.789156913757324 213.50217596106785 44.841862703722285
v 59.789156913757324 213.5021783962855 59.78912212983923
v 74.6771514415741 213.5021783962855 59.78912212983923
v 74.6771514415741 213.50217596106785 44.841862703722285
v 58.4658145904541 247.90144919204695 58.465827846363744
v 58.4658145904541 247.9014468107249 43.84937717898246
v 58.4658145904541 292.31453656292217 43.84936994317175
v 58.4658145904541 292.3145389442442 58.46582061055304
v 58.4658145904541 247.9014468107249 43.84937717898246
v 43.84947121143341 247.9014468107249 43.84937717898246
v 43.84947121143341 292.31453656292217 43.84936994317175
v 58.4658145904541 292.31453656292217 43.84936994317175
v 44.841840863227844 213.50216134973238 -44.84187564714594
v 44.841840863227844 213.50217596106785 44.841862703722285
v 43.84947121143341 247.9014468107249 43.84937717898246
v 43.84947121143341 247.90143252278966 -43.849344706698695
v -59.788936376571655 213.50216134973238 -44.84187564714594
v -59.788936376571655 213.50215891451427 -59.78913805349512
v -74.67703819274902 213.50215891451427 -59.78913805349512
v -74.67703819274902 213.50216134973238 -44.84187564714594
v -59.788936376571655 213.50216134973238 -44.84187564714594
v -59.788936376571655 213.50217596106785 44.841862703722285
v -58.46570134162903 247.9014468107249 43.84937717898246
v -58.46570134162903 247.90143252278966 -43.849344706698695
v -58.46570134162903 247.90143014146662 -58.46580133454446
v -58.46570134162903 247.90143252278966 -43.849344706698695
v -58.46570134162903 292.2609257784049 -43.84935193377742
v -58.46570134162903 292.26092339708185 -58.465808561623184
v -43.84925067424774 292.26092339708185 -58.465808561623184
v -58.46570134162903 292.26092339708185 -58.465808561623184
v -68.73709559440613 291.76334214906564 -68.73725637751458
v -51.55290961265564 291.76334214906564 -68.73725637751458
v -58.46570134162903 247.90143252278966 -43.849344706698695
v -43.84925067424774 247.90143252278966 -43.849344706698695
v -43.84925067424774 292.2609257784049 -43.84935193377742
v -58.46570134162903 292.2609257784049 -43.84935193377742
v -44.84173059463501 213.50217596106785 44.841862703722285
v -44.84173059463501 213.50216134973238 -44.84187564714594
v -43.84925067424774 247.90143252278966 -43.849344706698695
v -43.84925067424774 247.9014468107249 43.84937717898246
v -44.84173059463501 213.50217596106785 44.841862703722285
v 44.841840863227844 213.50217596106785 44.841862703722285
v 44.841840863227844 213.50216134973238 -44.84187564714594
v -44.84173059463501 213.50216134973238 -44.84187564714594
v 59.789156913757324 201.2303688183436 59.789124129170766
v 59.789156913757324 201.23036638312595 44.84186470305382
v 74.6771514415741 201.23036638312595 44.84186470305382
v 74.6771514415741 201.2303688183436 59.789124129170766
v 74.6771514415741 213.50217596106785 44.841862703722285
v 74.6771514415741 213.5021783962855 59.78912212983923
v 74.6771514415741 201.2303688183436 59.789124129170766
v 74.6771514415741 201.23036638312595 44.84186470305382
v 44.841840863227844 201.23036638312595 44.84186470305382
v 59.789156913757324 201.23036638312595 44.84186470305382
v 62.20289468765259 120.62575385075593 46.65215136331106
v 46.652060747146606 120.62574192982697 46.652151363313
v 46.64871394634247 120.74314787940901 -46.648623349306405
v 47.07024097442627 106.5021318996497 -47.07003480840916
v 47.07024097442627 106.50214723702598 47.0701103742004
v 46.652060747146606 120.62574192982697 46.652151363313
v 47.07024097442627 106.5021318996497 -47.07003480840916
v 62.76024580001831 106.5021318996497 -47.07003480840916
v 62.76024580001831 106.50214723702598 47.0701103742004
v 47.07024097442627 106.50214723702598 47.0701103742004
v 62.20289468765259 120.62575385075593 46.65215136331106
v 62.20289468765259 120.62575638428163 62.20282139104391
v 62.76024580001831 106.50214979325222 62.76011519979244
v 62.76024580001831 106.50214723702598 47.0701103742004
v 62.76024580001831 106.5021318996497 -47.07003480840916
v 47.07024097442627 106.5021318996497 -47.07003480840916
v 50.290894508361816 -2.3286413379060575 -50.29078088015425
v 67.05445051193237 -2.3286413379060575 -50.29078088015425
v -46.65161371231079 120.64274117443534 46.651650681527364
v -47.07001745700836 106.50214723702598 47.0701103742004
v -47.07001745700836 106.5021318996497 -47.07003480840916
v -46.651166677474976 120.65116599114687 -46.651353227051366
v -47.07001745700836 106.50212934341424 -62.76009625841374
v -47.07001745700836 106.5021318996497 -47.07003480840916
v -50.29078125953674 -2.3286413379060575 -50.29078088015425
v -50.29078125953674 -2.3286440690369403 -67.05434284418929
v -62.20189332962036 120.65118983300478 -46.651353227055246
v -62.20189332962036 120.65118729951548 -62.20179973737019
v -62.76013255119324 106.50212934341424 -62.76009625841374
v -62.76013255119324 106.5021318996497 -47.07003480840916
v -62.76013255119324 106.50212934341424 -62.76009625841374
v -47.07001745700836 106.50212934341424 -62.76009625841374
v -50.29078125953674 -2.3286440690369403 -67.05434284418929
v -67.05434322357178 -2.3286440690369403 -67.05434284418929
v -59.788936376571655 213.50215891451427 -59.78913805349512
v -59.788936376571655 201.23034933657237 -59.789136054163585
v -74.67703819274902 201.23034933657237 -59.789136054163585
v -74.67703819274902 213.50215891451427 -59.78913805349512
v -59.788936376571655 201.23035177179048 -44.8418736478144
v -59.788936376571655 201.23034933657237 -59.789136054163585
v -62.20189332962036 120.65118729951548 -62.20179973737019
v -62.20189332962036 120.65118983300478 -46.651353227055246
v -44.84173059463501 201.23036638312595 44.84186470305382
v -44.84173059463501 201.2303688183436 59.789124129170766
v -46.65161371231079 120.64274370793288 62.202147855790365
v -46.65161371231079 120.64274117443534 46.651650681527364
v 44.841840863227844 201.2303688183436 59.789124129170766
v 44.841840863227844 201.23036638312595 44.84186470305382
v 46.652060747146606 120.62574192982697 46.652151363313
v 46.652060747146606 120.62575638428163 62.20282139104391
v 44.841840863227844 213.5021783962855 59.78912212983923
v -44.84173059463501 213.5021783962855 59.78912212983923
v -44.84173059463501 201.2303688183436 59.789124129170766
v 44.841840863227844 201.2303688183436 59.789124129170766
v -59.788936376571655 201.23036638312595 44.84186470305382
v -44.84173059463501 201.23036638312595 44.84186470305382
v -46.65161371231079 120.64274117443534 46.651650681527364
v -62.20189332962036 120.64274117443534 46.651650681527364
v -59.788936376571655 213.50217596106785 44.841862703722285
v -59.788936376571655 213.50216134973238 -44.84187564714594
v -59.788936376571655 201.23035177179048 -44.8418736478144
v -59.788936376571655 201.23036638312595 44.84186470305382
v -62.20189332962036 120.64274117443534 46.651650681527364
v -46.65161371231079 120.64274117443534 46.651650681527364
v -46.651166677474976 120.65116599114687 -46.651353227051366
v -62.20189332962036 120.65118983300478 -46.651353227055246
v -44.84173059463501 213.5021783962855 59.78912212983923
v 44.841840863227844 213.5021783962855 59.78912212983923
v 43.84947121143341 247.90144919204695 58.465827846363744
v -43.84925067424774 247.90144919204695 58.465827846363744
v 59.789156913757324 213.5021783962855 59.78912212983923
v 44.841840863227844 213.5021783962855 59.78912212983923
v 44.841840863227844 213.50218082184767 74.677116657656
v 59.789156913757324 213.50218082184767 74.677116657656
v 43.84947121143341 247.90144919204695 58.465827846363744
v 58.4658145904541 247.90144919204695 58.465827846363744
v 58.4658145904541 292.3145389442442 58.46582061055304
v 43.84947121143341 292.3145389442442 58.46582061055304
v 59.789156913757324 213.5021783962855 59.78912212983923
v 59.789156913757324 201.2303688183436 59.789124129170766
v 74.6771514415741 201.2303688183436 59.789124129170766
v 74.6771514415741 213.5021783962855 59.78912212983923
v 58.4658145904541 292.3145389442442 58.46582061055304
v 58.4658145904541 292.31453656292217 43.84936994317175
v 68.73732209205627 291.82639961914526 51.55296935646268
v 68.73732209205627 291.8264024188239 68.73727454750272
v 43.84947121143341 247.9014468107249 43.84937717898246
v 43.84947121143341 247.90144919204695 58.465827846363744
v 43.84947121143341 292.3145389442442 58.46582061055304
v 43.84947121143341 292.31453656292217 43.84936994317175
v 44.841840863227844 213.50217596106785 44.841862703722285
v -44.84173059463501 213.50217596106785 44.841862703722285
v -43.84925067424774 247.9014468107249 43.84937717898246
v 43.84947121143341 247.9014468107249 43.84937717898246
v -59.788936376571655 201.23035177179048 -44.8418736478144
v -59.788936376571655 213.50216134973238 -44.84187564714594
v -74.67703819274902 213.50216134973238 -44.84187564714594
v -74.67703819274902 201.23035177179048 -44.8418736478144
v -74.67703819274902 213.50216134973238 -44.84187564714594
v -74.67703819274902 213.50215891451427 -59.78913805349512
v -74.67703819274902 201.23034933657237 -59.789136054163585
v -74.67703819274902 201.23035177179048 -44.8418736478144
v -59.788936376571655 213.50217596106785 44.841862703722285
v -59.788936376571655 213.5021783962855 59.78912212983923
v -58.46570134162903 247.90144919204695 58.465827846363744
v -58.46570134162903 247.9014468107249 43.84937717898246
v -43.84925067424774 247.9014468107249 43.84937717898246
v -43.84925067424774 247.90143252278966 -43.849344706698695
v -58.46570134162903 247.90143252278966 -43.849344706698695
v -58.46570134162903 247.9014468107249 43.84937717898246
v -58.46570134162903 292.26092339708185 -58.465808561623184
v -58.46570134162903 292.2609257784049 -43.84935193377742
v -68.73709559440613 291.76334494874334 -51.552957146939015
v -68.73709559440613 291.76334214906564 -68.73725637751458
v -58.46570134162903 292.2622036848094 43.84936995169787
v -58.46570134162903 292.2622060661314 58.46582061907915
v -68.73709559440613 291.76484274169985 68.73727455753206
v -68.73709559440613 291.76483994202124 51.55296936649203
v 59.789156913757324 201.23036638312595 44.84186470305382
v 59.789156913757324 201.2303688183436 59.789124129170766
v 62.20289468765259 120.62575638428163 62.20282139104391
v 62.20289468765259 120.62575385075593 46.65215136331106
v -47.07001745700836 106.50214723702598 47.0701103742004
v -46.65161371231079 120.64274117443534 46.651650681527364
v 46.652060747146606 120.62574192982697 46.652151363313
v 47.07024097442627 106.50214723702598 47.0701103742004
v 47.07024097442627 106.50214723702598 47.0701103742004
v 62.76024580001831 106.50214723702598 47.0701103742004
v 67.05445051193237 -2.3286249510712347 50.29089488774431
v 50.290894508361816 -2.3286249510712347 50.29089488774431
v 62.20289468765259 120.62575638428163 62.20282139104391
v 46.652060747146606 120.62575638428163 62.20282139104391
v 47.07024097442627 106.50214979325222 62.76011519979244
v 62.76024580001831 106.50214979325222 62.76011519979244
v 62.76024580001831 106.50214723702598 47.0701103742004
v 62.76024580001831 106.50214979325222 62.76011519979244
v 67.05445051193237 -2.328622219941323 67.05445089131486
v 67.05445051193237 -2.3286249510712347 50.29089488774431
v -47.07001745700836 106.50214723702598 47.0701103742004
v -62.76013255119324 106.50214723702598 47.0701103742004
v -62.76013255119324 106.5021318996497 -47.07003480840916
v -47.07001745700836 106.5021318996497 -47.07003480840916
v -47.07001745700836 106.5021318996497 -47.07003480840916
v -62.76013255119324 106.5021318996497 -47.07003480840916
v -67.05434322357178 -2.3286413379060575 -50.29078088015425
v -50.29078125953674 -2.3286413379060575 -50.29078088015425
v -67.05434322357178 -2.3286413379060575 -50.29078088015425
v -67.05434322357178 -2.3286440690369403 -67.05434284418929
v -50.29078125953674 -2.3286440690369403 -67.05434284418929
v -50.29078125953674 -2.3286413379060575 -50.29078088015425
v -62.76013255119324 106.50214723702598 47.0701103742004
v -62.20189332962036 120.64274117443534 46.651650681527364
v -62.20189332962036 120.65118983300478 -46.651353227055246
v -62.76013255119324 106.5021318996497 -47.07003480840916
v -62.76013255119324 106.5021318996497 -47.07003480840916
v -62.76013255119324 106.50212934341424 -62.76009625841374
v -67.05434322357178 -2.3286440690369403 -67.05434284418929
v -67.05434322357178 -2.3286413379060575 -50.29078088015425
v -59.788936376571655 201.23034933657237 -59.789136054163585
v -59.788936376571655 201.23035177179048 -44.8418736478144
v -74.67703819274902 201.23035177179048 -44.8418736478144
v -74.67703819274902 201.23034933657237 -59.789136054163585
v -44.84173059463501 201.2303688183436 59.789124129170766
v -59.788936376571655 201.2303688183436 59.789124129170766
v -62.20189332962036 120.64275562886183 62.202147855788425
v -46.65161371231079 120.64274370793288 62.202147855790365
v -46.65161371231079 120.64274117443534 46.651650681527364
v -46.65161371231079 120.64274370793288 62.202147855790365
v 46.652060747146606 120.62575638428163 62.20282139104391
v 46.652060747146606 120.62574192982697 46.652151363313
v 59.789156913757324 201.2303688183436 59.789124129170766
v 44.841840863227844 201.2303688183436 59.789124129170766
v 46.652060747146606 120.62575638428163 62.20282139104391
v 62.20289468765259 120.62575638428163 62.20282139104391
v 44.841840863227844 213.5021783962855 59.78912212983923
v 44.841840863227844 201.2303688183436 59.789124129170766
v 44.841840863227844 201.23037124390578 74.67711865698753
v 44.841840863227844 213.50218082184767 74.677116657656
v -44.84173059463501 201.2303688183436 59.789124129170766
v -44.84173059463501 213.5021783962855 59.78912212983923
v -44.84173059463501 213.50218082184767 74.677116657656
v -44.84173059463501 201.23037124390578 74.67711865698753
v -59.788936376571655 201.2303688183436 59.789124129170766
v -59.788936376571655 201.23036638312595 44.84186470305382
v -62.20189332962036 120.64274117443534 46.651650681527364
v -62.20189332962036 120.64275562886183 62.202147855788425
v -59.788936376571655 213.50217596106785 44.841862703722285
v -59.788936376571655 201.23036638312595 44.84186470305382
v -74.67703819274902 201.23036638312595 44.84186470305382
v -74.67703819274902 213.50217596106785 44.841862703722285
v -59.788936376571655 213.5021783962855 59.78912212983923
v -44.84173059463501 213.5021783962855 59.78912212983923
v -43.84925067424774 247.90144919204695 58.465827846363744
v -58.46570134162903 247.90144919204695 58.465827846363744
v 43.84947121143341 247.9014468107249 43.84937717898246
v -43.84925067424774 247.9014468107249 43.84937717898246
v -43.84925067424774 247.90144919204695 58.465827846363744
v 43.84947121143341 247.90144919204695 58.465827846363744
v 59.789156913757324 201.2303688183436 59.789124129170766
v 59.789156913757324 213.5021783962855 59.78912212983923
v 59.789156913757324 213.50218082184767 74.677116657656
v 59.789156913757324 201.23037124390578 74.67711865698753
v 59.789156913757324 213.50218082184767 74.677116657656
v 44.841840863227844 213.50218082184767 74.677116657656
v 44.841840863227844 201.23037124390578 74.67711865698753
v 59.789156913757324 201.23037124390578 74.67711865698753
v 43.84947121143341 292.3145389442442 58.46582061055304
v 58.4658145904541 292.3145389442442 58.46582061055304
v 68.73732209205627 291.8264024188239 68.73727454750272
v 51.553016901016235 291.8264024188239 68.73727454750272
v -58.46570134162903 292.2622060661314 58.46582061907915
v -43.84925067424774 292.2622060661314 58.46582061907915
v -51.55290961265564 291.76484274169985 68.73727455753206
v -68.73709559440613 291.76484274169985 68.73727455753206
v -59.788936376571655 213.5021783962855 59.78912212983923
v -59.788936376571655 213.50217596106785 44.841862703722285
v -74.67703819274902 213.50217596106785 44.841862703722285
v -74.67703819274902 213.5021783962855 59.78912212983923
v -58.46570134162903 247.9014468107249 43.84937717898246
v -58.46570134162903 247.90144919204695 58.465827846363744
v -58.46570134162903 292.2622060661314 58.46582061907915
v -58.46570134162903 292.2622036848094 43.84936995169787
v -43.84925067424774 247.9014468107249 43.84937717898246
v -58.46570134162903 247.9014468107249 43.84937717898246
v -58.46570134162903 292.2622036848094 43.84936995169787
v -43.84925067424774 292.2622036848094 43.84936995169787
v -47.07001745700836 106.50214979325222 62.76011519979244
v -47.07001745700836 106.50214723702598 47.0701103742004
v 47.07024097442627 106.50214723702598 47.0701103742004
v 47.07024097442627 106.50214979325222 62.76011519979244
v 47.07024097442627 106.50214979325222 62.76011519979244
v 47.07024097442627 106.50214723702598 47.0701103742004
v 50.290894508361816 -2.3286249510712347 50.29089488774431
v 50.290894508361816 -2.328622219941323 67.05445089131486
v 50.290894508361816 -2.328622219941323 67.05445089131486
v 50.290894508361816 -2.3286249510712347 50.29089488774431
v 67.05445051193237 -2.3286249510712347 50.29089488774431
v 67.05445051193237 -2.328622219941323 67.05445089131486
v -46.65161371231079 120.64274370793288 62.202147855790365
v -47.07001745700836 106.50214979325222 62.76011519979244
v 47.07024097442627 106.50214979325222 62.76011519979244
v 46.652060747146606 120.62575638428163 62.20282139104391
v 62.76024580001831 106.50214979325222 62.76011519979244
v 47.07024097442627 106.50214979325222 62.76011519979244
v 50.290894508361816 -2.328622219941323 67.05445089131486
v 67.05445051193237 -2.328622219941323 67.05445089131486
v -62.76013255119324 106.50214723702598 47.0701103742004
v -47.07001745700836 106.50214723702598 47.0701103742004
v -50.29078125953674 -2.3286249510712347 50.29089488774431
v -67.05434322357178 -2.3286249510712347 50.29089488774431
v -62.20189332962036 120.64275562886183 62.202147855788425
v -62.20189332962036 120.64274117443534 46.651650681527364
v -62.76013255119324 106.50214723702598 47.0701103742004
v -62.76013255119324 106.50214979325222 62.76011519979244
v -59.788936376571655 201.2303688183436 59.789124129170766
v -44.84173059463501 201.2303688183436 59.789124129170766
v -44.84173059463501 201.23037124390578 74.67711865698753
v -59.788936376571655 201.23037124390578 74.67711865698753
v -46.65161371231079 120.64274370793288 62.202147855790365
v -62.20189332962036 120.64275562886183 62.202147855788425
v -62.76013255119324 106.50214979325222 62.76011519979244
v -47.07001745700836 106.50214979325222 62.76011519979244
v 44.841840863227844 201.2303688183436 59.789124129170766
v 59.789156913757324 201.2303688183436 59.789124129170766
v 59.789156913757324 201.23037124390578 74.67711865698753
v 44.841840863227844 201.23037124390578 74.67711865698753
v -44.84173059463501 213.5021783962855 59.78912212983923
v -59.788936376571655 213.5021783962855 59.78912212983923
v -59.788936376571655 213.50218082184767 74.677116657656
v -44.84173059463501 213.50218082184767 74.677116657656
v -44.84173059463501 213.50218082184767 74.677116657656
v -59.788936376571655 213.50218082184767 74.677116657656
v -59.788936376571655 201.23037124390578 74.67711865698753
v -44.84173059463501 201.23037124390578 74.67711865698753
v -59.788936376571655 201.23036638312595 44.84186470305382
v -59.788936376571655 201.2303688183436 59.789124129170766
v -74.67703819274902 201.2303688183436 59.789124129170766
v -74.67703819274902 201.23036638312595 44.84186470305382
v -74.67703819274902 213.5021783962855 59.78912212983923
v -74.67703819274902 213.50217596106785 44.841862703722285
v -74.67703819274902 201.23036638312595 44.84186470305382
v -74.67703819274902 201.2303688183436 59.789124129170766
v -58.46570134162903 247.90144919204695 58.465827846363744
v -43.84925067424774 247.90144919204695 58.465827846363744
v -43.84925067424774 292.2622060661314 58.46582061907915
v -58.46570134162903 292.2622060661314 58.46582061907915
v -43.84925067424774 247.90144919204695 58.465827846363744
v -43.84925067424774 247.9014468107249 43.84937717898246
v -43.84925067424774 292.2622036848094 43.84936995169787
v -43.84925067424774 292.2622060661314 58.46582061907915
v -59.788936376571655 201.2303688183436 59.789124129170766
v -59.788936376571655 213.5021783962855 59.78912212983923
v -74.67703819274902 213.5021783962855 59.78912212983923
v -74.67703819274902 201.2303688183436 59.789124129170766
v -47.07001745700836 106.50214723702598 47.0701103742004
v -47.07001745700836 106.50214979325222 62.76011519979244
v -50.29078125953674 -2.328622219941323 67.05445089131486
v -50.29078125953674 -2.3286249510712347 50.29089488774431
v -62.76013255119324 106.50214979325222 62.76011519979244
v -62.76013255119324 106.50214723702598 47.0701103742004
v -67.05434322357178 -2.3286249510712347 50.29089488774431
v -67.05434322357178 -2.328622219941323 67.05445089131486
v -67.05434322357178 -2.328622219941323 67.05445089131486
v -67.05434322357178 -2.3286249510712347 50.29089488774431
v -50.29078125953674 -2.3286249510712347 50.29089488774431
v -50.29078125953674 -2.328622219941323 67.05445089131486
v -59.788936376571655 213.5021783962855 59.78912212983923
v -59.788936376571655 201.2303688183436 59.789124129170766
v -59.788936376571655 201.23037124390578 74.67711865698753
v -59.788936376571655 213.50218082184767 74.677116657656
v -47.07001745700836 106.50214979325222 62.76011519979244
v -62.76013255119324 106.50214979325222 62.76011519979244
v -67.05434322357178 -2.328622219941323 67.05445089131486
v -50.29078125953674 -2.328622219941323 67.05445089131486
v 0.8408207446336746 341.1744828450269 -2.7880902246307673
v 0.8408207446336746 352.1046872365064 -2.7880920053870786
v 3.85439395904541 352.10468751998246 -1.0481282093973268
v 3.85439395904541 341.17448312850297 -1.0481264286410152
v -2.172752283513546 341.17448312850297 -1.0481264286410152
v -2.172752283513546 352.10468751998246 -1.0481282093973268
v 0.8408207446336746 352.1046872365064 -2.7880920053870786
v 0.8408207446336746 341.1744828450269 -2.7880902246307673
v 3.85439395904541 352.10468751998246 -1.0481282093973268
v 0.8408207446336746 352.1046872365064 -2.7880920053870786
v 0.8408207446336746 366.7315955388135 -2.788094388412898
v 3.85439395904541 366.7315958222896 -1.0481305924231463
v 3.85439395904541 341.17448312850297 -1.0481264286410152
v 3.85439395904541 352.10468751998246 -1.0481282093973268
v 3.85439395904541 352.10468808691644 2.4316877170054805
v 3.85439395904541 341.17448369543695 2.4316894977617918
v -2.172752283513546 341.17448369543695 2.4316894977617918
v -2.172752283513546 352.10468808691644 2.4316877170054805
v -2.172752283513546 352.10468751998246 -1.0481282093973268
v -2.172752283513546 341.17448312850297 -1.0481264286410152
v 0.8408207446336746 352.1046872365064 -2.7880920053870786
v -2.172752283513546 352.10468751998246 -1.0481282093973268
v -2.172752283513546 366.7315958222896 -1.0481305924231463
v 0.8408207446336746 366.7315955388135 -2.788094388412898
v 3.85439395904541 366.7315958222896 -1.0481305924231463
v 0.8408207446336746 366.7315955388135 -2.788094388412898
v 0.8408207446336746 381.35852768297855 -2.7880967714426017
v 3.85439395904541 381.35852796645463 -1.04813297545285
v 3.85439395904541 341.17448369543695 2.4316894977617918
v 3.85439395904541 352.10468808691644 2.4316877170054805
v 0.8408207446336746 352.1046883703925 4.171651606127489
v 0.8408207446336746 341.17448397891303 4.1716533868838015
v 0.8408207446336746 341.17448397891303 4.1716533868838015
v 0.8408207446336746 352.1046883703925 4.171651606127489
v -2.172752283513546 352.10468808691644 2.4316877170054805
v -2.172752283513546 341.17448369543695 2.4316894977617918
v -2.172752283513546 352.10468751998246 -1.0481282093973268
v -2.172752283513546 352.10468808691644 2.4316877170054805
v -2.172752283513546 366.73159638922357 2.431685333979661
v -2.172752283513546 366.7315958222896 -1.0481305924231463
v 0.8408207446336746 366.7315955388135 -2.788094388412898
v -2.172752283513546 366.7315958222896 -1.0481305924231463
v -2.172752283513546 381.35852796645463 -1.04813297545285
v 0.8408207446336746 381.35852768297855 -2.7880967714426017
v 3.85439395904541 381.35852796645463 -1.04813297545285
v 0.8408207446336746 381.35852768297855 -2.7880967714426017
v -2.172752283513546 381.35852796645463 -1.04813297545285
v -2.172752283513546 381.3585285333886 2.4316829509499573
v 0.8408207446336746 381.3585288168647 4.171646840071967
v 3.85439395904541 381.3585285333886 2.4316829509499573
v 0.8408207446336746 352.1046883703925 4.171651606127489
v 3.85439395904541 352.10468808691644 2.4316877170054805
v 3.85439395904541 366.73159638922357 2.431685333979661
v 0.8408207446336746 366.73159667269965 4.17164922310167
v -2.172752283513546 352.10468808691644 2.4316877170054805
v 0.8408207446336746 352.1046883703925 4.171651606127489
v 0.8408207446336746 366.73159667269965 4.17164922310167
v -2.172752283513546 366.73159638922357 2.431685333979661
v -2.172752283513546 366.7315958222896 -1.0481305924231463
v -2.172752283513546 366.73159638922357 2.431685333979661
v -2.172752283513546 381.3585285333886 2.4316829509499573
v -2.172752283513546 381.35852796645463 -1.04813297545285
v -2.172752283513546 366.73159638922357 2.431685333979661
v 0.8408207446336746 366.73159667269965 4.17164922310167
v 0.8408207446336746 381.3585288168647 4.171646840071967
v -2.172752283513546 381.3585285333886 2.4316829509499573
v 0.8408207446336746 366.73159667269965 4.17164922310167
v 3.85439395904541 366.73159638922357 2.431685333979661
v 3.85439395904541 381.3585285333886 2.4316829509499573
v 0.8408207446336746 381.3585288168647 4.171646840071967
f 1 2 3
f 1 3 4
f 5 6 7
f 5 7 8
f 9 10 11
f 9 11 12
f 13 14 15
f 13 15 16
f 17 18 19
f 17 19 20
f 21 22 23
f 21 23 24
f 25 26 27
f 25 27 28
f 29 30 31
f 29 31 32
f 33 34 35
f 33 35 36
f 37 38 39
f 37 39 40
f 41 42 43
f 41 43 44
f 45 46 47
f 45 47 48
f 49 50 51
f 49 51 52
f 53 54 55
f 53 55 56
f 57 58 59
f 57 59 60
f 61 62 63
f 61 63 64
f 65 66 67
f 65 67 68
f 69 70 71
f 69 71 72
f 73 74 75
f 73 75 76
f 77 78 79
f 77 79 80
f 81 82 83
f 81 83 84
f 85 86 87
f 85 87 88
f 89 90 91
f 89 91 92
f 93 94 95
f 93 95 96
f 97 98 99
f 97 99 100
f 101 102 103
f 101 103 104
f 105 106 107
f 105 107 108
f 109 110 111
f 109 111 112
f 113 114 115
f 113 115 116
f 117 118 119
f 117 119 120
f 121 122 123
f 121 123 124
f 125 126 127
f 125 127 128
f 129 130 131
f 129 131 132
f 133 134 135
f 133 135 136
f 137 138 139
f 137 139 140
f 141 142 143
f 141 143 144
f 145 146 147
f 145 147 148
f 149 150 151
f 149 151 152
f 153 154 155
f 153 155 156
f 157 158 159
f 157 159 160
f 161 162 163
f 161 163 164
f 165 166 167
f 165 167 168
f 169 170 171
f 169 171 172
f 173 174 175
f 173 175 176
f 177 178 179
f 177 179 180
f 181 182 183
f 181 183 184
f 185 186 187
f 185 187 188
f 189 190 191
f 189 191 192
f 193 194 195
f 193 195 196
f 197 198 199
f 197 199 200
f 201 202 203
f 201 203 204
f 205 206 207
f 205 207 208
f 209 210 211
f 209 211 212
f 213 214 215
f 213 215 216
f 217 218 219
f 217 219 220
f 221 222 223
f 221 223 224
f 225 226 227
f 225 227 228
f 229 230 231
f 229 231 232
f 233 234 235
f 233 235 236
f 237 238 239
f 237 239 240
f 241 242 243
f 241 243 244
f 245 246 247
f 245 247 248
f 249 250 251
f 249 251 252
f 253 254 255
f 253 255 256
f 257 258 259
f 257 259 260
f 261 262 263
f 261 263 264
f 265 266 267
f 265 267 268
f 269 270 271
f 269 271 272
f 273 274 275
f 273 275 276
f 277 278 279
f 277 279 280
f 281 282 283
f 281 283 284
f 285 286 287
f 285 287 288
f 289 290 291
f 289 291 292
f 293 294 295
f 293 295 296
f 297 298 299
f 297 299 300
f 301 302 303
f 301 303 304
f 305 306 307
f 305 307 308
f 309 310 311
f 309 311 312
f 313 314 315
f 313 315 316
f 317 318 319
f 317 319 320
f 321 322 323
f 321 323 324
f 325 326 327
f 325 327 328
f 329 330 331
f 329 331 332
f 333 334 335
f 333 335 336
f 337 338 339
f 337 339 340
f 341 342 343
f 341 343 344
f 345 346 347
f 345 347 348
f 349 350 351
f 349 351 352
f 353 354 355
f 353 355 356
f 357 358 359
f 357 359 360
f 361 362 363
f 361 363 364
f 365 366 367
f 365 367 368
f 369 370 371
f 369 371 372
f 373 374 375
f 373 375 376
f 377 378 379
f 377 379 380
f 381 382 383
f 381 383 384
f 385 386 387
f 385 387 388
f 389 390 391
f 389 391 392
f 393 394 395
f 393 395 396
f 397 398 399
f 397 399 400
f 401 402 403
f 401 403 404
f 405 406 407
f 405 407 408
f 409 410 411
f 409 411 412
f 413 414 415
f 413 415 416
f 417 418 419
f 417 419 420
f 421 422 423
f 421 423 424
f 425 426 427
f 425 427 428
f 429 430 431
f 429 431 432
f 433 434 435
f 433 435 436
f 437 438 439
f 437 439 440
f 441 442 443
f 441 443 444
f 445 446 447
f 445 447 448
f 449 450 451
f 449 451 452
f 453 454 455
f 453 455 456
f 457 458 459
f 457 459 460
f 461 462 463
f 461 463 464
f 465 466 467
f 465 467 468
f 469 470 471
f 469 471 472
f 473 474 475
f 473 475 476
f 477 478 479
f 477 479 480
f 481 482 483
f 481 483 484
f 485 486 487
f 485 487 488
f 489 490 491
f 489 491 492
f 493 494 495
f 493 495 496
f 497 498 499
f 497 499 500
f 501 502 503
f 501 503 504
f 505 506 507
f 505 507 508
f 509 510 511
f 509 511 512
f 513 514 515
f 513 515 516
f 517 518 519
f 517 519 520
f 521 522 523
f 521 523 524
f 525 526 527
f 525 527 528
f 529 530 531
f 529 531 532
f 533 534 535
f 533 535 536
f 537 538 539
f 537 539 540
f 541 542 543
f 541 543 544
f 545 546 547
f 545 547 548
f 549 550 551
f 549 551 552
f 553 554 555
f 553 555 556
f 557 558 559
f 557 559 560
f 561 562 563
f 561 563 564
f 565 566 567
f 565 567 568
f 569 570 571
f 569 571 572
f 573 574 575
f 573 575 576
f 577 578 579
f 577 579 580
f 581 582 583
f 581 583 584
f 585 586 587
f 585 587 588
f 589 590 591
f 589 591 592
f 593 594 595
f 593 595 596
f 597 598 599
f 597 599 600
f 601 602 603
f 601 603 604
f 605 606 607
f 605 607 608
f 609 610 611
f 609 611 612
f 613 614 615
f 613 615 616
f 617 618 619
f 617 619 620
f 621 622 623
f 621 623 624
f 625 626 627
f 625 627 628
f 629 630 631
f 629 631 632
f 633 634 635
f 633 635 636
f 637 638 639
f 637 639 640
f 641 642 643
f 641 643 644
f 645 646 647
f 645 647 648
f 649 650 651
f 649 651 652
f 653 654 655
f 653 655 656
f 657 658 659
f 657 659 660
f 666 661 662
f 666 662 663
f 666 663 664
f 664 665 666
f 667 668 669
f 667 669 670
f 671 672 673
f 671 673 674
f 675 676 677
f 675 677 678
f 679 680 681
f 679 681 682
f 683 684 685
f 683 685 686
v 43.84947121143341 292.16205121232844 -58.46580854551486
v 43.84947121143341 292.1620535936515 -43.8493519176691
v -43.84925067424774 292.2609257784049 -43.84935193377742
v -43.84925067424774 292.26092339708185 -58.465808561623184
v 43.84947121143341 292.16205121232844 -58.46580854551486
v -43.84925067424774 292.26092339708185 -58.465808561623184
v -51.55290961265564 291.76334214906564 -68.73725637751458
v 51.553016901016235 291.6470654080378 -68.73725635857069
v -51.55290961265564 291.76334214906564 -68.73725637751458
v -68.73709559440613 291.76334214906564 -68.73725637751458
v -68.73709559440613 298.5683806012141 -68.73725748619606
v 68.73732209205627 298.5683806012141 -68.73725748619606
v 68.73732209205627 291.6470654080378 -68.73725635857069
v 51.553016901016235 291.6470654080378 -68.73725635857069
v 43.84947121143341 292.1620535936515 -43.8493519176691
v 58.4658145904541 292.1620535936515 -43.8493519176691
v 58.4658145904541 292.31453656292217 43.84936994317175
v 43.84947121143341 292.31453656292217 43.84936994317175
v 58.4658145904541 292.31453656292217 43.84936994317175
v 58.4658145904541 292.1620535936515 -43.8493519176691
v 68.73732209205627 291.6470682077155 -51.552957127995136
v 68.73732209205627 291.82639961914526 51.55296935646268
v 68.73732209205627 291.8264024188239 68.73727454750272
v 68.73732209205627 291.82639961914526 51.55296935646268
v 68.73732209205627 291.6470682077155 -51.552957127995136
v 68.73732209205627 291.6470654080378 -68.73725635857069
v 68.73732209205627 298.5683806012141 -68.73725748619606
v 68.73732209205627 298.56840299865786 68.73727344909142
v 43.84947121143341 292.1620535936515 -43.8493519176691
v 43.84947121143341 292.31453656292217 43.84936994317175
v -43.84925067424774 292.2622036848094 43.84936995169787
v -43.84925067424774 292.2609257784049 -43.84935193377742
v -68.73709559440613 298.56840299865786 68.73727344909142
v -68.73709559440613 298.5683806012141 -68.73725748619606
v -68.73709559440613 291.76334214906564 -68.73725637751458
v -68.73709559440613 291.76334494874334 -51.552957146939015
v -68.73709559440613 291.76483994202124 51.55296936649203
v -68.73709559440613 291.76484274169985 68.73727455753206
v 10.198241472244263 341.17448163776004 -10.198241177267963
v 68.73732209205627 298.5683806012141 -68.73725748619606
v -68.73709559440613 298.5683806012141 -68.73725748619606
v -10.198129713535309 341.17448163776004 -10.198241177267963
v 51.553016901016235 291.8264024188239 68.73727454750272
v 68.73732209205627 291.8264024188239 68.73727454750272
v 68.73732209205627 298.56840299865786 68.73727344909142
v -68.73709559440613 298.56840299865786 68.73727344909142
v -68.73709559440613 291.76484274169985 68.73727455753206
v -51.55290961265564 291.76484274169985 68.73727455753206
v 10.198241472244263 341.1744849607689 10.198241767220562
v 68.73732209205627 298.56840299865786 68.73727344909142
v 68.73732209205627 298.5683806012141 -68.73725748619606
v 10.198241472244263 341.17448163776004 -10.198241177267963
v -43.84925067424774 292.2622036848094 43.84936995169787
v -58.46570134162903 292.2622036848094 43.84936995169787
v -58.46570134162903 292.2609257784049 -43.84935193377742
v -43.84925067424774 292.2609257784049 -43.84935193377742
v -10.198129713535309 341.17448163776004 -10.198241177267963
v -68.73709559440613 298.5683806012141 -68.73725748619606
v -68.73709559440613 298.56840299865786 68.73727344909142
v -10.198129713535309 341.1744849607689 10.198241767220562
v -58.46570134162903 292.2609257784049 -43.84935193377742
v -58.46570134162903 292.2622036848094 43.84936995169787
v -68.73709559440613 291.76483994202124 51.55296936649203
v -68.73709559440613 291.76334494874334 -51.552957146939015
v 0.8408207446336746 341.17448397891303 4.1716533868838015
v 10.198241472244263 341.1744849607689 10.198241767220562
v 10.198241472244263 341.17448163776004 -10.198241177267963
v -10.198129713535309 341.17448163776004 -10.198241177267963
v 0.8408207446336746 341.1744828450269 -2.7880902246307673
v 3.85439395904541 341.17448312850297 -1.0481264286410152
v 3.85439395904541 341.17448369543695 2.4316894977617918
v 0.8408207446336746 341.17448397891303 4.1716533868838015
v -2.172752283513546 341.17448369543695 2.4316894977617918
v -2.172752283513546 341.17448312850297 -1.0481264286410152
v 0.8408207446336746 341.1744828450269 -2.7880902246307673
v -10.198129713535309 341.17448163776004 -10.198241177267963
v -10.198129713535309 341.1744849607689 10.198241767220562
v 10.198241472244263 341.1744849607689 10.198241767220562
v -43.84925067424774 292.2622060661314 58.46582061907915
v -43.84925067424774 292.2622036848094 43.84936995169787
v 43.84947121143341 292.31453656292217 43.84936994317175
v 43.84947121143341 292.3145389442442 58.46582061055304
v -43.84925067424774 292.2622060661314 58.46582061907915
v 43.84947121143341 292.3145389442442 58.46582061055304
v 51.553016901016235 291.8264024188239 68.73727454750272
v -51.55290961265564 291.76484274169985 68.73727455753206
v -10.198129713535309 341.1744849607689 10.198241767220562
v -68.73709559440613 298.56840299865786 68.73727344909142
v 68.73732209205627 298.56840299865786 68.73727344909142
v 10.198241472244263 341.1744849607689 10.198241767220562
v 3.85439395904541 352.10468751998246 -1.0481282093973268
v 3.85439395904541 366.7315958222896 -1.0481305924231463
v 44.98257339000702 366.7315958222896 -1.0481305924231463
v 68.1780755519867 352.10468751998246 -1.0481282093973268
v 3.85439395904541 352.10468808691644 2.4316877170054805
v 3.85439395904541 352.10468751998246 -1.0481282093973268
v 68.1780755519867 352.10468751998246 -1.0481282093973268
v 68.1780755519867 352.10468808691644 2.4316877170054805
v 3.85439395904541 366.7315958222896 -1.0481305924231463
v 3.85439395904541 381.35852796645463 -1.04813297545285
v 68.1780755519867 381.35852796645463 -1.04813297545285
v 44.98257339000702 366.7315958222896 -1.0481305924231463
v 68.1780755519867 352.10468808691644 2.4316877170054805
v 68.1780755519867 352.10468751998246 -1.0481282093973268
v 44.98257339000702 366.7315958222896 -1.0481305924231463
v 44.98257339000702 366.73159638922357 2.431685333979661
v 3.85439395904541 366.73159638922357 2.431685333979661
v 3.85439395904541 352.10468808691644 2.4316877170054805
v 68.1780755519867 352.10468808691644 2.4316877170054805
v 44.98257339000702 366.73159638922357 2.431685333979661
v 3.85439395904541 381.35852796645463 -1.04813297545285
v 3.85439395904541 381.3585285333886 2.4316829509499573
v 68.1780755519867 381.3585285333886 2.4316829509499573
v 68.1780755519867 381.35852796645463 -1.04813297545285
v 44.98257339000702 366.73159638922357 2.431685333979661
v 44.98257339000702 366.7315958222896 -1.0481305924231463
v 68.1780755519867 381.35852796645463 -1.04813297545285
v 68.1780755519867 381.3585285333886 2.4316829509499573
v 3.85439395904541 381.3585285333886 2.4316829509499573
v 3.85439395904541 366.73159638922357 2.431685333979661
v 44.98257339000702 366.73159638922357 2.431685333979661
v 68.1780755519867 381.3585285333886 2.4316829509499573
v -43.84925067424774 305.95095872020977 43.84936772151661
v -43.84925067424774 305.9509444322745 -43.849354164164545
v -43.84925067424774 292.2609257784049 -43.84935193377742
v -43.84925067424774 292.2622036848094 43.84936995169787
v -43.84925067424774 305.95095872020977 43.84936772151661
v -43.84925067424774 292.2622036848094 43.84936995169787
v -43.84925067424774 292.2609257784049 -43.84935193377742
v -43.84925067424774 305.9509444322745 -43.849354164164545
f 687 688 689
f 687 689 690
f 691 692 693
f 691 693 694
f 695 696 697
f 695 697 698
f 695 698 699
f 695 699 700
f 701 702 703
f 701 703 704
f 705 706 707
f 705 707 708
f 714 709 710
f 714 710 711
f 714 711 712
f 712 713 714
f 715 716 717
f 715 717 718
f 724 719 720
f 720 721 722
f 720 722 723
f 720 723 724
f 725 726 727
f 725 727 728
f 729 730 731
f 729 731 732
f 729 732 733
f 729 733 734
f 735 736 737
f 735 737 738
f 739 740 741
f 739 741 742
f 743 744 745
f 743 745 746
f 747 748 749
f 747 749 750
f 757 751 752
f 757 752 753
f 753 754 755
f 753 755 756
f 753 756 757
f 764 758 759
f 760 761 762
f 760 762 763
f 763 764 759
f 759 760 763
f 765 766 767
f 765 767 768
f 769 770 771
f 769 771 772
f 773 774 775
f 773 775 776
f 777 778 779
f 777 779 780
f 781 782 783
f 781 783 784
f 785 786 787
f 785 787 788
f 789 790 791
f 789 791 792
f 793 794 795
f 793 795 796
f 797 798 799
f 797 799 800
f 801 802 803
f 801 803 804
f 805 806 807
f 805 807 808
f 809 810 811
f 809 811 812
f 813 814 815
f 813 815 816
