o convex_0
v -17.449357 126.222249 -89.190053
v -126.048354 150.067770 -168.655415
v -91.595489 128.871752 -150.110455
v -41.287617 150.067770 -83.887937
v -14.795706 83.850438 -107.726716
v -14.795706 94.455189 -113.028832
v -54.533573 152.724014 -107.735013
v -118.098550 150.067770 -155.404274
v -118.098550 152.724014 -166.000209
v -12.142055 83.850438 -113.028832
v -17.449357 107.702700 -91.836963
v -35.991465 150.074512 -91.836963
v -41.287617 152.724014 -83.887937
v -96.891642 142.119263 -155.404274
v -12.142055 110.352203 -89.190053
v -12.142055 115.644466 -94.492169
v -104.841445 136.820259 -152.740769
v -126.048354 152.724014 -163.353299
v -22.745509 89.156184 -110.373625
v -62.483376 147.418268 -105.088104
v -20.091858 86.506682 -115.675741
v -38.633966 152.724014 -83.887937
v -123.394703 150.067770 -168.655415
v -12.142055 89.156184 -113.028832
v -28.041662 136.820259 -94.492169
v -99.545293 152.724014 -150.110455
v -126.048354 150.067770 -163.353299
v -12.142055 118.287226 -89.190053
v -12.142055 86.506682 -105.088104
v -35.991465 102.396954 -113.028832
v -14.795706 97.104691 -97.139079
v -38.633966 152.724014 -91.836963
f 7 22 32 
f 8 4 13 
f 7 9 13 
f 4 11 15 
f 12 1 16 
f 15 10 16 
f 2 3 17 
f 9 2 18 
f 8 13 18 
f 13 9 18 
f 17 5 19 
f 4 8 20 
f 11 4 20 
f 3 2 21 
f 10 5 21 
f 17 3 21 
f 5 17 21 
f 1 12 22 
f 7 13 22 
f 13 4 22 
f 4 15 22 
f 2 9 23 
f 9 14 23 
f 14 10 23 
f 21 2 23 
f 10 21 23 
f 14 6 24 
f 10 14 24 
f 6 16 24 
f 16 10 24 
f 7 12 25 
f 6 14 25 
f 16 6 25 
f 12 16 25 
f 9 7 26 
f 14 9 26 
f 7 25 26 
f 25 14 26 
f 2 17 27 
f 17 8 27 
f 18 2 27 
f 8 18 27 
f 16 1 28 
f 15 16 28 
f 1 22 28 
f 22 15 28 
f 5 10 29 
f 10 15 29 
f 8 17 30 
f 19 11 30 
f 17 19 30 
f 20 8 30 
f 11 20 30 
f 15 11 31 
f 11 19 31 
f 19 5 31 
f 5 29 31 
f 29 15 31 
f 12 7 32 
f 22 12 32 
o convex_1
v -81.015631 152.730237 -126.271676
v -38.631892 184.508707 -60.060048
v -38.631892 181.857909 -60.060048
v -81.015631 184.508707 -97.123003
v -65.121729 184.508707 -94.478427
v -38.631892 155.377924 -89.195757
v -41.282950 152.730237 -81.249065
v -78.364573 158.025612 -126.271676
v -81.015631 160.676410 -113.016387
v -38.631892 179.210221 -73.302374
v -41.282950 181.857909 -60.060048
v -81.015631 184.508707 -105.069695
v -81.015631 181.857909 -97.123003
v -81.015631 152.730237 -120.963079
v -38.631892 152.730237 -89.195757
v -67.768638 155.377924 -118.318503
v -38.631892 184.508707 -68.000258
v -78.364573 179.210221 -110.371811
v -38.631892 168.619472 -81.249065
v -38.631892 152.730237 -81.249065
v -67.768638 152.730237 -118.318503
v -81.015631 158.025612 -126.271676
v -41.282950 184.508707 -60.060048
v -41.282950 160.676410 -89.195757
v -78.364573 184.508707 -105.069695
v -65.121729 158.025612 -99.774061
v -78.364573 152.730237 -126.271676
v -81.015631 179.210221 -110.371811
v -73.062457 176.562534 -107.720753
v -41.282950 179.210221 -75.946950
v -78.364573 160.676410 -110.371811
v -46.580917 160.676410 -94.478427
f 51 56 64 
f 36 34 37 
f 34 35 38 
f 36 33 41 
f 34 38 42 
f 35 34 43 
f 39 35 43 
f 33 36 44 
f 36 37 44 
f 36 41 45 
f 43 36 45 
f 39 43 45 
f 33 39 46 
f 41 33 46 
f 38 35 47 
f 39 33 47 
f 40 37 48 
f 38 47 48 
f 37 34 49 
f 34 42 49 
f 42 37 49 
f 42 38 51 
f 48 37 51 
f 35 39 52 
f 47 35 52 
f 39 47 52 
f 47 33 53 
f 40 48 53 
f 48 47 53 
f 40 33 54 
f 33 44 54 
f 50 40 54 
f 34 36 55 
f 43 34 55 
f 36 43 55 
f 38 48 56 
f 51 38 56 
f 44 37 57 
f 37 50 57 
f 50 44 57 
f 39 45 58 
f 46 39 58 
f 41 46 58 
f 33 40 59 
f 53 33 59 
f 40 53 59 
f 44 50 60 
f 54 44 60 
f 50 54 60 
f 37 40 61 
f 50 37 61 
f 40 50 61 
f 37 42 62 
f 51 37 62 
f 42 51 62 
f 45 41 63 
f 41 58 63 
f 58 45 63 
f 48 51 64 
f 56 48 64 
o convex_2
v -136.633811 152.727903 -173.944568
v -81.017705 171.270080 -110.385117
v -81.017705 168.617864 -110.385117
v -86.322626 184.503937 -94.495255
v -81.023410 192.452806 -102.444205
v -81.017705 152.724014 -128.919272
v -131.340299 163.321211 -171.292239
v -133.987055 155.376230 -158.054705
v -86.322626 152.724014 -123.630688
v -136.633811 163.321211 -168.647947
v -110.154841 155.376230 -158.046668
v -88.969382 189.800590 -102.444205
v -86.322626 181.855610 -94.495255
v -81.017705 160.676773 -126.283017
v -81.023410 184.503937 -91.842925
v -139.291976 152.727903 -165.995618
v -118.100813 168.613975 -136.868222
v -96.909651 181.855610 -126.266942
v -123.394326 152.727903 -168.647947
v -118.100813 173.910629 -147.461463
v -81.017705 152.724014 -123.630688
v -123.394326 168.613975 -160.698997
v -83.670166 192.452806 -97.139546
v -139.291976 160.672884 -173.944568
v -131.340299 158.028446 -173.944568
v -81.017705 168.617864 -120.978359
v -123.394326 158.028446 -168.647947
v -139.291976 155.376230 -165.995618
v -99.556407 184.503937 -120.970322
v -123.394326 171.266191 -150.113792
v -83.670166 189.800590 -107.740825
v -136.633811 163.321211 -171.292239
f 94 84 96 
f 66 67 70 
f 65 70 73 
f 72 73 77 
f 66 70 78 
f 70 75 78 
f 67 66 79 
f 66 69 79 
f 68 77 79 
f 77 73 79 
f 65 73 80 
f 73 72 80 
f 68 76 81 
f 77 68 81 
f 72 77 81 
f 70 65 83 
f 75 70 83 
f 70 67 85 
f 73 70 85 
f 67 79 85 
f 79 73 85 
f 84 69 86 
f 76 68 87 
f 79 69 87 
f 68 79 87 
f 65 80 88 
f 83 65 89 
f 65 88 89 
f 88 71 89 
f 69 66 90 
f 66 78 90 
f 78 75 90 
f 82 90 91 
f 75 83 91 
f 71 86 91 
f 86 82 91 
f 89 71 91 
f 83 89 91 
f 90 75 91 
f 80 72 92 
f 72 81 92 
f 74 88 92 
f 88 80 92 
f 69 84 93 
f 76 87 93 
f 87 69 93 
f 81 76 94 
f 74 92 94 
f 92 81 94 
f 76 93 94 
f 93 84 94 
f 86 69 95 
f 82 86 95 
f 69 90 95 
f 90 82 95 
f 86 71 96 
f 84 86 96 
f 71 88 96 
f 88 74 96 
f 74 94 96 
o convex_3
v -81.015631 184.515967 -102.430823
v -38.631892 210.997334 -36.211416
v -38.631892 208.346709 -36.211416
v -38.631892 184.515967 -65.354178
v -43.934008 210.997334 -54.756221
v -78.364573 187.163481 -83.879536
v -78.364573 192.458510 -99.773231
v -41.287099 216.295475 -38.862526
v -41.282950 184.515967 -60.058440
v -43.934008 205.702305 -38.862526
v -38.631892 189.810996 -65.354178
v -78.364573 195.109136 -89.175274
v -75.705217 187.163481 -102.430823
v -38.631892 216.295475 -44.158263
v -81.015631 184.515967 -89.175274
v -46.580917 208.346709 -41.507154
v -70.411399 200.407276 -81.228427
v -62.466522 195.109136 -62.703068
v -59.823761 203.051680 -75.932689
v -81.015631 189.810996 -89.175274
v -75.705217 184.515967 -102.430823
v -81.015631 192.458510 -99.773231
v -38.631892 208.346709 -52.105111
v -70.415547 195.109136 -73.294543
v -38.631892 184.515967 -60.058440
v -75.705217 187.163481 -81.228427
v -41.287099 216.295475 -44.158263
v -73.066605 197.759762 -89.175274
v -65.113431 203.051680 -70.636951
v -43.938157 189.810996 -70.649915
v -51.883033 200.407276 -49.460483
v -41.287099 210.997334 -36.211416
f 104 112 128 
f 98 99 100 
f 97 100 105 
f 105 99 106 
f 98 100 107 
f 107 100 109 
f 104 98 110 
f 98 107 110 
f 97 105 111 
f 112 102 114 
f 106 112 114 
f 109 103 115 
f 110 101 115 
f 97 111 116 
f 111 102 116 
f 100 97 117 
f 97 109 117 
f 109 100 117 
f 109 97 118 
f 103 109 118 
f 108 113 118 
f 97 116 118 
f 116 108 118 
f 101 110 119 
f 110 107 119 
f 115 101 119 
f 102 112 120 
f 112 104 120 
f 116 102 120 
f 100 99 121 
f 99 105 121 
f 105 100 121 
f 111 105 122 
f 102 111 122 
f 114 102 122 
f 105 114 122 
f 104 110 123 
f 113 104 123 
f 115 103 124 
f 110 115 124 
f 103 118 124 
f 118 113 124 
f 123 110 124 
f 113 123 124 
f 113 108 125 
f 104 113 125 
f 108 116 125 
f 120 104 125 
f 116 120 125 
f 107 109 126 
f 109 115 126 
f 119 107 126 
f 115 119 126 
f 105 106 127 
f 114 105 127 
f 106 114 127 
f 99 98 128 
f 98 104 128 
f 106 99 128 
f 112 106 128 
o convex_4
v 104.419451 287.829443 141.275677
v 144.147984 314.312020 204.851286
v 144.147984 309.013015 204.851286
v 104.419451 293.125336 165.110308
v 107.069991 298.418118 154.530968
v 93.817293 282.527327 143.932959
v 115.006829 287.829443 151.873687
v 138.846905 309.013015 188.957384
v 112.371070 290.474278 167.767589
v 93.817293 290.474278 141.275677
v 136.196365 311.657850 199.549170
v 107.069991 290.474278 167.767589
v 115.006829 293.125336 151.873687
v 101.768912 282.527327 141.275677
v 112.371070 301.062953 167.767589
v 141.492517 306.365069 194.253277
v 130.895286 298.418118 181.004210
v 117.657369 301.062953 162.477919
v 101.768912 293.125336 143.932959
v 125.604060 301.066064 188.957384
v 141.492517 314.312020 202.194005
v 93.817293 290.474278 143.932959
v 117.657369 290.474278 154.530968
v 115.006829 287.829443 154.530968
v 93.817293 285.178385 146.584017
v 141.492517 309.013015 204.851286
v 101.768912 282.527327 143.932959
v 107.069991 295.767060 167.767589
v 141.492517 311.657850 194.253277
v 93.817293 282.527327 141.275677
v 144.147984 309.013015 199.549170
v 141.492517 306.365069 199.549170
f 145 144 160 
f 134 137 140 
f 135 129 141 
f 129 135 142 
f 138 129 142 
f 135 144 145 
f 136 141 146 
f 146 141 147 
f 129 138 147 
f 138 133 147 
f 141 129 147 
f 133 146 147 
f 137 131 148 
f 132 140 148 
f 140 137 148 
f 139 130 149 
f 133 143 149 
f 143 139 149 
f 146 133 149 
f 133 138 150 
f 138 134 150 
f 143 133 150 
f 135 141 151 
f 141 136 151 
f 144 135 151 
f 136 144 151 
f 142 135 152 
f 145 137 152 
f 135 145 152 
f 140 132 153 
f 134 140 153 
f 132 150 153 
f 150 134 153 
f 131 130 154 
f 130 139 154 
f 148 131 154 
f 139 148 154 
f 137 134 155 
f 134 142 155 
f 142 152 155 
f 152 137 155 
f 139 143 156 
f 148 139 156 
f 132 148 156 
f 150 132 156 
f 143 150 156 
f 136 146 157 
f 149 130 157 
f 146 149 157 
f 134 138 158 
f 142 134 158 
f 138 142 158 
f 130 131 159 
f 131 144 159 
f 144 136 159 
f 157 130 159 
f 136 157 159 
f 131 137 160 
f 144 131 160 
f 137 145 160 
o convex_5
v 1.103555 173.916402 -67.990923
v 11.695428 176.565830 -54.749635
v -1.544996 192.453325 -36.206230
v -12.139203 173.920032 -36.206230
v -4.193548 176.569460 -83.887937
v -12.139203 187.159913 -38.861956
v 3.752107 173.916402 -36.206230
v -12.139203 173.920032 -62.688807
v 1.101222 179.217073 -78.581154
v 11.695428 173.916402 -62.693474
v -1.544996 192.453325 -41.513014
v 1.101222 173.920032 -83.887937
v 11.695428 176.565830 -62.693474
v -4.193548 192.453325 -41.513014
v 9.046876 176.565830 -44.159405
v -12.139203 176.569460 -62.688807
v -12.139203 187.159913 -36.206230
v -4.193548 173.920032 -83.887937
v 9.046876 173.916402 -44.159405
v 1.101222 176.569460 -83.887937
v 6.400658 176.565830 -38.861956
v -4.193548 189.805712 -49.456853
v 1.101222 187.158098 -36.206230
v -4.193548 181.868316 -70.632647
v -4.193548 192.453325 -36.206230
v 11.695428 173.916402 -54.749635
v -6.842100 189.805712 -44.159405
v -1.544996 179.217073 -78.581154
v 3.752107 176.565830 -36.206230
v 6.400658 173.916402 -38.861956
v -1.544996 189.805712 -49.456853
v 1.103555 173.916402 -36.206230
f 167 164 192 
f 163 164 167 
f 161 164 168 
f 164 166 168 
f 167 161 170 
f 163 162 171 
f 170 161 172 
f 170 172 173 
f 162 170 173 
f 171 162 173 
f 169 171 173 
f 163 171 174 
f 162 163 175 
f 166 165 176 
f 165 168 176 
f 168 166 176 
f 164 163 177 
f 166 164 177 
f 174 166 177 
f 161 168 178 
f 168 165 178 
f 172 161 178 
f 165 172 178 
f 167 170 179 
f 162 175 179 
f 165 169 180 
f 172 165 180 
f 173 172 180 
f 169 173 180 
f 179 175 181 
f 163 167 183 
f 175 163 183 
f 181 175 183 
f 165 166 184 
f 163 174 185 
f 177 163 185 
f 174 177 185 
f 170 162 186 
f 162 179 186 
f 179 170 186 
f 166 174 187 
f 174 182 187 
f 184 166 187 
f 182 184 187 
f 169 165 188 
f 182 169 188 
f 165 184 188 
f 184 182 188 
f 167 181 189 
f 183 167 189 
f 181 183 189 
f 167 179 190 
f 181 167 190 
f 179 181 190 
f 171 169 191 
f 174 171 191 
f 169 182 191 
f 182 174 191 
f 164 161 192 
f 161 167 192 
o convex_6
v 30.239610 83.842173 6.168174
v 24.943717 9.687192 -65.326382
v 9.051889 12.333510 -65.345051
v 24.943717 30.882625 -25.607184
v 19.645750 86.480196 16.763072
v 11.700873 41.467898 -41.504198
v 27.590626 17.642738 -65.326382
v 27.590626 9.687192 -46.778310
v 30.237536 91.781128 30.018362
v 30.239610 41.467898 -41.494863
v 22.296808 94.435742 16.763072
v 9.051889 20.280760 -54.740819
v 30.239610 36.166966 -22.965461
v 30.239610 83.842173 3.517116
v 9.051889 17.634442 -65.345051
v 27.588552 91.781128 30.018362
v 24.943717 9.687192 -46.778310
v 16.998840 75.894923 -4.426724
v 30.237536 94.435742 16.763072
v 27.590626 9.687192 -65.326382
v 19.645750 91.781128 16.763072
v 19.645750 83.842173 3.517116
v 27.588552 94.435742 30.018362
v 9.051889 25.581693 -54.740819
v 30.239610 60.008717 0.875393
v 9.051889 12.333510 -62.693993
v 14.351931 54.699489 -17.663345
v 30.239610 36.166966 -41.494863
v 22.292659 44.114216 -38.862474
v 27.590626 30.882625 -25.607184
v 22.296808 94.435742 22.065188
v 19.645750 91.781128 14.121348
f 203 214 224 
f 202 193 205 
f 193 202 206 
f 199 195 207 
f 195 204 207 
f 197 196 208 
f 196 201 208 
f 195 194 209 
f 194 200 209 
f 200 196 209 
f 196 204 209 
f 201 193 211 
f 193 206 211 
f 206 203 211 
f 194 195 212 
f 195 199 212 
f 200 194 212 
f 199 202 212 
f 205 200 212 
f 203 206 214 
f 198 210 214 
f 208 201 215 
f 201 211 215 
f 211 203 215 
f 198 207 216 
f 207 204 216 
f 210 198 216 
f 213 210 216 
f 193 201 217 
f 205 193 217 
f 200 205 217 
f 204 195 218 
f 195 209 218 
f 209 204 218 
f 196 197 219 
f 204 196 219 
f 197 213 219 
f 216 204 219 
f 213 216 219 
f 202 205 220 
f 212 202 220 
f 205 212 220 
f 202 199 221 
f 206 202 221 
f 199 207 221 
f 207 198 221 
f 198 214 221 
f 214 206 221 
f 196 200 222 
f 201 196 222 
f 200 217 222 
f 217 201 222 
f 197 208 223 
f 213 197 223 
f 203 213 223 
f 208 215 223 
f 215 203 223 
f 213 203 224 
f 210 213 224 
f 214 210 224 
o convex_7
v 67.324604 179.207887 45.912264
v 51.433554 118.287226 -28.259279
v 51.433554 120.941136 -28.259279
v 51.433554 176.559941 22.062076
v 51.433554 120.941136 -4.423612
v 72.624386 179.207887 32.662160
v 54.086557 179.207887 14.119274
v 59.382190 131.532922 6.176472
v 54.084482 120.941136 -28.259279
v 72.624386 176.559941 45.912264
v 64.679899 165.962191 37.962202
v 59.382190 131.532922 -12.351894
v 54.084482 118.287226 -7.066373
v 51.433554 179.207887 14.119274
v 56.731262 139.476762 14.119274
v 64.677824 165.962191 14.119274
v 69.973458 171.258084 43.254983
v 72.624386 176.559941 32.662160
v 54.084482 118.287226 -28.259279
v 54.084482 128.890940 -22.951977
v 51.433554 179.207887 22.062076
v 59.386339 176.559941 16.769295
v 67.324604 176.559941 45.912264
v 56.731262 123.589083 -1.773591
v 67.322530 158.024315 30.012139
v 56.731262 128.890940 -20.309217
v 72.624386 179.207887 45.912264
v 51.433554 118.287226 -7.066373
v 69.975532 176.559941 27.354858
v 56.731262 123.589083 -20.309217
v 54.088631 158.024315 -1.759070
v 51.433554 128.890940 -22.951977
f 255 244 256 
f 227 226 228 
f 228 226 229 
f 225 230 231 
f 226 227 233 
f 227 228 238 
f 225 231 238 
f 228 229 239 
f 235 228 239 
f 237 232 239 
f 239 232 241 
f 235 239 241 
f 230 234 242 
f 236 230 242 
f 226 233 243 
f 233 236 243 
f 237 226 243 
f 233 227 244 
f 228 225 245 
f 238 228 245 
f 225 238 245 
f 240 244 246 
f 225 228 247 
f 234 225 247 
f 228 235 247 
f 241 234 247 
f 235 241 247 
f 236 232 248 
f 232 237 248 
f 237 243 248 
f 232 236 249 
f 234 241 249 
f 241 232 249 
f 242 234 249 
f 236 242 249 
f 230 236 250 
f 236 233 250 
f 233 244 250 
f 244 240 250 
f 230 225 251 
f 225 234 251 
f 234 230 251 
f 229 226 252 
f 226 237 252 
f 239 229 252 
f 237 239 252 
f 231 230 253 
f 246 231 253 
f 240 246 253 
f 230 250 253 
f 250 240 253 
f 243 236 254 
f 236 248 254 
f 248 243 254 
f 238 231 255 
f 231 246 255 
f 246 244 255 
f 227 238 256 
f 244 227 256 
f 238 255 256 
o convex_8
v -22.737990 176.570572 27.371453
v 3.749254 203.054186 40.612482
v 14.344152 197.752329 40.614297
v -22.737990 173.918217 40.614297
v 24.943717 173.918217 27.371453
v 24.943717 173.918217 40.614297
v 3.749254 184.516226 22.071411
v -9.492034 200.404684 37.964276
v -12.138425 173.918217 22.071411
v -22.737990 187.160025 40.614297
v 14.344152 197.752329 37.964276
v 11.697761 173.918217 22.071411
v 24.943717 176.570572 27.371453
v 22.292659 187.160025 40.614297
v 3.749254 203.054186 37.964276
v -20.086931 176.570572 24.721432
v 1.102864 184.516226 22.071411
v -22.737990 173.918217 27.371453
v -4.189918 203.054186 40.612482
v -4.189918 203.054186 37.964276
v -22.737990 187.160025 37.964276
v 22.292659 187.160025 37.964276
v 19.636934 176.570572 24.721432
v -4.194585 181.866724 22.071411
v 24.943717 176.570572 40.614297
v -9.492034 200.404684 40.612482
v 1.102864 200.404684 35.316070
v 11.697761 176.570572 22.071411
v -12.138425 176.570572 22.071411
v -20.086931 173.918217 24.721432
v -9.492034 189.803823 30.019659
v 19.636934 173.918217 24.721432
f 268 279 288 
f 259 260 262 
f 260 261 262 
f 261 260 265 
f 260 259 266 
f 257 260 266 
f 258 259 267 
f 261 265 268 
f 265 263 268 
f 262 261 269 
f 263 267 269 
f 259 262 270 
f 267 259 270 
f 258 267 271 
f 267 263 271 
f 257 264 272 
f 263 265 273 
f 260 257 274 
f 265 260 274 
f 257 272 274 
f 259 258 275 
f 266 259 275 
f 258 271 275 
f 275 271 276 
f 273 264 276 
f 264 275 276 
f 264 257 277 
f 257 266 277 
f 266 264 277 
f 269 267 278 
f 267 270 278 
f 269 261 279 
f 263 269 279 
f 273 265 280 
f 264 273 280 
f 262 269 281 
f 270 262 281 
f 269 278 281 
f 278 270 281 
f 264 266 282 
f 266 275 282 
f 275 264 282 
f 271 263 283 
f 263 273 283 
f 276 271 283 
f 273 276 283 
f 268 263 284 
f 279 268 284 
f 263 279 284 
f 265 272 285 
f 272 280 285 
f 280 265 285 
f 272 265 286 
f 265 274 286 
f 274 272 286 
f 272 264 287 
f 264 280 287 
f 280 272 287 
f 261 268 288 
f 279 261 288 
o convex_9
v 59.380505 181.862835 -17.663085
v 56.728669 226.886482 32.667346
v 56.726854 234.825655 6.182435
v 40.837619 237.486047 -30.902040
v 46.137661 203.068966 0.875652
v 40.837619 250.732003 -9.709911
v 51.428627 211.015139 -38.855214
v 43.487640 253.385395 -22.962868
v 59.380505 216.307921 -15.009693
v 51.432258 224.233091 32.667346
v 46.137661 211.015139 -38.855214
v 59.378690 189.823010 6.175434
v 56.730484 181.862835 -30.902040
v 54.080463 242.778829 3.529044
v 59.380505 184.516227 -30.902040
v 48.785867 197.769183 3.529044
v 59.378690 205.715357 22.060780
v 54.080463 205.715357 22.060780
v 46.137661 240.139439 -30.902040
v 54.080463 184.516227 -28.255649
v 54.080463 242.778829 -1.770739
v 56.728669 187.176619 0.875652
v 40.837619 245.432221 -9.709911
v 59.378690 216.300919 6.182435
v 51.428627 213.661530 -38.855214
v 56.730484 181.862835 -17.663085
v 40.837619 253.385395 -22.962868
v 51.432258 226.886482 32.667346
v 51.432258 245.432221 0.875652
v 43.487640 234.839657 -33.555432
v 43.487640 221.586700 -33.555432
v 56.728669 221.593701 32.667346
f 298 306 320 
f 299 295 301 
f 290 291 302 
f 297 289 303 
f 289 301 303 
f 301 295 303 
f 298 293 304 
f 289 297 305 
f 300 289 305 
f 300 305 306 
f 298 304 306 
f 293 299 308 
f 299 301 308 
f 304 293 308 
f 291 297 309 
f 302 291 309 
f 307 296 309 
f 297 307 309 
f 289 300 310 
f 300 306 310 
f 306 304 310 
f 292 293 311 
f 294 292 311 
f 293 298 311 
f 298 294 311 
f 291 290 312 
f 297 291 312 
f 290 305 312 
f 305 297 312 
f 295 299 313 
f 303 295 313 
f 297 303 313 
f 307 297 313 
f 301 289 314 
f 308 301 314 
f 304 308 314 
f 289 310 314 
f 310 304 314 
f 292 294 315 
f 294 296 315 
f 296 307 315 
f 298 290 316 
f 294 298 316 
f 296 294 317 
f 290 302 317 
f 302 309 317 
f 309 296 317 
f 316 290 317 
f 294 316 317 
f 299 292 318 
f 313 299 318 
f 307 313 318 
f 292 315 318 
f 315 307 318 
f 293 292 319 
f 299 293 319 
f 292 299 319 
f 290 298 320 
f 305 290 320 
f 306 305 320 
o convex_10
v 59.384135 179.221111 24.729469
v 83.223433 279.866416 117.428083
v 83.223433 279.866416 114.778254
v 96.466277 258.675338 117.428083
v 75.273370 203.062305 72.390078
v 59.380505 248.074874 82.980316
v 72.626979 184.521344 35.328782
v 62.034156 245.424757 69.758399
v 77.923391 271.916068 117.428083
v 69.976959 179.221111 48.577923
v 91.166235 253.375106 117.428083
v 91.166235 248.084725 98.888360
v 80.562521 203.062305 72.390078
v 59.380505 253.365254 77.689734
v 59.384135 179.221111 32.678954
v 62.034156 187.171460 27.379298
v 72.626979 179.221111 35.328782
v 77.923391 279.866416 117.428083
v 96.466277 261.325455 114.778254
v 69.976959 184.521344 53.868505
v 85.869824 237.484261 104.178942
v 93.816256 248.084725 112.128426
v 77.923391 195.121808 51.227751
v 67.330568 184.521344 30.029126
v 59.384135 205.712421 40.628439
v 72.626979 179.221111 48.577923
v 62.034156 234.834144 61.817989
v 59.380505 253.365254 82.980316
v 77.923391 279.866416 114.778254
v 93.816256 248.084725 106.828770
v 75.273370 192.471692 43.278267
v 59.380505 245.424757 69.758399
f 347 345 352 
f 324 322 329 
f 326 325 329 
f 324 329 331 
f 325 330 333 
f 323 328 334 
f 321 330 335 
f 330 321 337 
f 322 323 338 
f 329 322 338 
f 326 329 338 
f 323 322 339 
f 322 324 339 
f 332 323 339 
f 325 326 340 
f 330 325 340 
f 326 335 340 
f 335 330 340 
f 329 325 341 
f 331 329 341 
f 325 333 341 
f 341 333 342 
f 324 331 342 
f 331 341 342 
f 337 327 343 
f 321 336 344 
f 337 321 344 
f 327 337 344 
f 336 321 345 
f 333 330 346 
f 330 337 346 
f 337 343 346 
f 343 333 346 
f 328 323 347 
f 323 332 347 
f 344 336 347 
f 336 345 347 
f 334 326 348 
f 326 338 348 
f 338 334 348 
f 323 334 349 
f 338 323 349 
f 334 338 349 
f 339 324 350 
f 342 333 350 
f 324 342 350 
f 333 343 350 
f 343 339 350 
f 332 339 351 
f 343 327 351 
f 339 343 351 
f 327 344 351 
f 347 332 351 
f 344 347 351 
f 326 334 352 
f 334 328 352 
f 321 335 352 
f 335 326 352 
f 345 321 352 
f 328 347 352 
o convex_11
v -12.143351 38.814085 -22.972777
v -28.034920 4.380927 -65.345051
v -28.034920 7.033521 -65.345051
v -6.848236 4.380927 -65.345051
v -9.494756 38.814085 -57.389460
v -25.382177 4.380927 -49.447866
v -20.087061 36.161492 -22.972777
v -6.848236 7.033521 -49.447866
v -14.791946 38.814085 -54.739151
v -14.791946 36.161492 -17.676826
v -12.143351 28.217193 -65.345051
v -25.382177 17.623672 -62.690077
v -28.034920 7.033521 -52.093509
v -20.087061 36.161492 -38.860630
v -17.440541 38.814085 -17.676826
v -9.494756 28.217193 -33.564679
v -20.087061 30.869787 -22.972777
v -6.848236 4.380927 -52.098175
v -9.494756 28.217193 -65.345051
v -12.143351 33.515639 -62.685411
v -22.735656 28.220564 -41.510939
v -6.848236 9.679373 -65.345051
v -9.494756 38.814085 -52.088843
v -25.382177 14.977819 -65.345051
v -9.494756 22.922118 -33.564679
v -25.382177 12.328596 -41.510939
v -6.848236 9.679373 -49.447866
v -22.735656 4.380927 -49.447866
v -28.034920 4.380927 -52.093509
v -17.440541 38.814085 -36.214988
v -9.494756 33.515639 -62.685411
v -14.791946 33.515639 -20.322469
f 380 370 384 
f 354 355 356 
f 354 356 358 
f 353 357 361 
f 356 355 363 
f 355 354 365 
f 361 364 366 
f 353 361 367 
f 362 353 367 
f 366 359 367 
f 358 362 369 
f 367 359 369 
f 362 367 369 
f 358 356 370 
f 356 360 370 
f 360 362 370 
f 356 363 371 
f 371 363 372 
f 361 357 372 
f 364 355 373 
f 365 359 373 
f 355 365 373 
f 359 366 373 
f 366 364 373 
f 360 356 374 
f 356 371 374 
f 357 353 375 
f 353 368 375 
f 374 357 375 
f 363 355 376 
f 364 361 376 
f 355 364 376 
f 372 363 376 
f 361 372 376 
f 353 362 377 
f 362 360 377 
f 368 353 377 
f 360 368 377 
f 359 365 378 
f 358 369 378 
f 369 359 378 
f 368 360 379 
f 360 374 379 
f 375 368 379 
f 374 375 379 
f 362 358 380 
f 358 370 380 
f 354 358 381 
f 365 354 381 
f 378 365 381 
f 358 378 381 
f 361 366 382 
f 367 361 382 
f 366 367 382 
f 371 372 383 
f 372 357 383 
f 357 374 383 
f 374 371 383 
f 370 362 384 
f 362 380 384 
o convex_12
v 59.380505 253.376838 80.346978
v 35.544319 179.213851 3.547894
v 35.544319 179.221111 0.879801
v 35.539652 253.376838 67.099856
v 56.729447 179.213851 30.018803
v 38.190710 240.134225 43.258147
v 59.380505 187.171035 24.729288
v 35.544319 184.528321 14.126923
v 59.380505 245.434175 67.099856
v 56.729447 248.084149 80.346978
v 38.190710 250.734124 69.752392
v 38.190710 181.871086 0.879801
v 43.488159 253.376838 59.157805
v 59.380505 179.213851 30.018803
v 35.539652 240.134225 43.258147
v 59.375838 179.221111 22.076752
v 35.539652 253.376838 59.157805
v 59.380505 248.084149 80.346978
v 59.380505 253.376838 75.041906
v 35.544319 179.213851 8.837409
v 43.488159 189.821010 11.489945
v 35.539652 250.734124 67.099856
v 56.729447 189.813749 37.968632
v 35.544319 181.871086 0.879801
v 56.729447 253.376838 80.346978
v 48.780940 181.871086 24.721510
v 56.729447 216.291715 43.258147
v 38.190710 179.221111 0.879801
v 59.375838 181.871086 22.076752
v 35.539652 245.434175 48.563219
v 48.780940 248.084149 59.157805
v 56.727113 187.163775 22.076752
f 405 411 416 
f 385 391 393 
f 388 385 397 
f 389 386 398 
f 391 385 398 
f 387 386 399 
f 390 396 399 
f 398 386 400 
f 391 398 400 
f 388 397 401 
f 399 388 401 
f 385 394 402 
f 398 385 402 
f 385 393 403 
f 397 385 403 
f 393 397 403 
f 386 389 404 
f 399 386 404 
f 396 390 405 
f 395 388 406 
f 392 395 406 
f 388 399 406 
f 404 392 406 
f 399 404 406 
f 395 389 407 
f 394 395 407 
f 389 398 407 
f 402 394 407 
f 398 402 407 
f 396 387 408 
f 387 399 408 
f 399 396 408 
f 385 388 409 
f 394 385 409 
f 395 394 409 
f 388 395 409 
f 389 395 410 
f 395 392 410 
f 404 389 410 
f 392 404 410 
f 390 393 411 
f 393 391 411 
f 405 390 411 
f 386 387 412 
f 387 396 412 
f 400 386 412 
f 396 400 412 
f 396 391 413 
f 400 396 413 
f 391 400 413 
f 397 390 414 
f 390 399 414 
f 401 397 414 
f 399 401 414 
f 393 390 415 
f 390 397 415 
f 397 393 415 
f 391 396 416 
f 396 405 416 
f 411 391 416 
o convex_13
v -9.493071 213.650639 -9.714319
v -1.552343 213.650639 -12.365377
v -4.195104 213.650639 -15.012286
v -9.493071 210.995432 -9.714319
v 6.400831 195.108272 -17.663345
v -14.791038 210.995432 -17.663345
v -14.791038 210.995432 -15.012286
v 6.400831 213.648046 -4.418426
v -4.195104 192.460844 -9.714319
v 3.749773 211.000618 3.528525
v 6.400831 187.160802 -15.012286
v -6.844087 213.650639 -17.663345
v -6.844087 192.460844 -17.663345
v 6.400831 213.648046 3.528525
v -6.844087 195.108272 -9.714319
v -14.791038 213.650639 -15.012286
v 6.398757 208.348005 -9.714319
v 3.749773 187.160802 -17.663345
v -4.195104 189.816009 -12.365377
v 6.400831 211.000618 3.528525
v 3.749773 200.405721 -17.663345
v -6.844087 192.460844 -12.365377
v 1.100789 192.460844 -9.714319
v 3.749773 213.648046 3.528525
v -4.195104 189.816009 -17.663345
v 6.400831 189.816009 -12.365377
v -14.791038 213.650639 -17.663345
v 6.400831 187.160802 -17.663345
v -4.195104 210.995432 -17.663345
v 3.749773 187.160802 -15.012286
v 6.400831 200.405721 -15.012286
v 6.400831 211.000618 -7.067410
v -1.552343 213.650639 -9.714319
f 449 432 417 
f 421 424 427 
f 421 422 428 
f 422 421 429 
f 423 422 429 
f 427 424 430 
f 426 423 431 
f 425 426 431 
f 422 423 432 
f 429 421 434 
f 426 425 436 
f 430 426 436 
f 427 430 436 
f 421 428 437 
f 423 429 438 
f 431 423 438 
f 425 431 438 
f 435 425 438 
f 425 427 439 
f 436 425 439 
f 426 430 440 
f 432 426 440 
f 429 434 441 
f 434 435 441 
f 438 429 441 
f 435 438 441 
f 427 436 442 
f 439 427 442 
f 436 439 442 
f 428 422 443 
f 422 432 443 
f 432 428 443 
f 421 427 444 
f 434 421 444 
f 427 434 444 
f 437 428 445 
f 433 437 445 
f 427 425 446 
f 434 427 446 
f 435 434 446 
f 425 435 446 
f 424 421 447 
f 421 437 447 
f 437 433 447 
f 428 424 448 
f 445 428 448 
f 433 445 448 
f 424 447 448 
f 447 433 448 
f 424 428 449 
f 430 424 449 
f 428 432 449 
f 440 430 449 
f 440 449 417 
f 423 426 417 
f 432 423 417 
f 426 432 417 
f 432 440 417 
o convex_14
v 30.232636 160.649707 -46.814610
v -38.631892 105.064086 -70.636279
v -28.021731 57.383418 -83.880678
v 1.094173 173.915884 -89.181756
v 35.533956 57.383418 -89.181756
v 32.879536 57.383418 -49.461001
v -35.969952 147.406345 -46.814610
v -38.631892 152.699127 -89.181756
v -25.374831 91.820724 -46.814610
v 35.533956 150.052736 -75.933209
v -38.631892 173.915884 -65.351792
v 16.990614 173.915884 -46.814610
v -28.021731 57.383418 -67.998183
v 35.533956 105.064086 -46.814610
v -25.374831 171.235272 -46.814610
v 32.879536 105.064086 -89.181756
v -12.132809 75.930970 -46.814610
v -28.021731 62.687607 -86.527069
v -35.969952 118.273228 -46.814610
v 38.188376 118.273228 -62.701253
v 24.931316 171.235272 -60.054862
v -38.631892 173.915884 -73.286818
v 35.533956 57.383418 -57.408471
v 35.533956 142.102156 -46.814610
v 16.990614 57.383418 -89.181756
v 19.637515 57.383418 -49.461001
v 38.188376 128.881607 -73.286818
v -38.631892 142.102156 -89.181756
v -38.631892 107.710477 -62.705401
v 35.533956 152.699127 -60.054862
v 38.188376 102.406288 -70.640427
v -4.184589 173.915884 -89.181756
f 457 471 481 
f 452 454 455 
f 453 454 457 
f 450 456 458 
f 457 451 460 
f 456 450 461 
f 453 460 461 
f 451 452 462 
f 452 455 462 
f 450 458 463 
f 460 456 464 
f 456 461 464 
f 461 460 464 
f 454 453 465 
f 453 459 465 
f 458 462 466 
f 455 463 466 
f 463 458 466 
f 458 456 468 
f 462 458 468 
f 459 453 470 
f 461 450 470 
f 453 461 470 
f 460 453 471 
f 457 460 471 
f 455 454 472 
f 463 455 472 
f 469 463 472 
f 450 463 473 
f 463 469 473 
f 454 452 474 
f 457 454 474 
f 452 467 474 
f 462 455 475 
f 455 466 475 
f 466 462 475 
f 454 465 476 
f 465 459 476 
f 473 469 476 
f 452 451 477 
f 451 457 477 
f 467 452 477 
f 457 474 477 
f 474 467 477 
f 456 460 478 
f 460 451 478 
f 451 462 478 
f 468 456 478 
f 462 468 478 
f 470 450 479 
f 459 470 479 
f 450 473 479 
f 476 459 479 
f 473 476 479 
f 472 454 480 
f 469 472 480 
f 454 476 480 
f 476 469 480 
f 453 457 481 
f 471 453 481 
o convex_15
v -4.195622 91.812687 77.687104
v -14.797002 57.383418 -44.146699
v -35.982908 120.925839 -46.802165
v -1.546120 173.915884 -46.802165
v -33.333406 144.768507 72.388877
v -28.034401 57.383418 64.435184
v -1.546120 173.915884 82.998036
v -1.546120 57.383418 67.090650
v -25.381528 171.246418 -46.802165
v -1.546120 91.812687 -46.802165
v -25.381528 173.915884 75.031638
v -35.982908 147.415158 -46.802165
v -35.982908 123.572490 51.208676
v -33.333406 110.350646 72.388877
v -20.082523 57.383418 -17.655566
v -12.147500 57.383418 -44.146699
v -35.982908 144.768507 35.301290
v -33.333406 158.001759 -38.848472
v -9.494627 62.676718 72.388877
v -17.446505 173.915884 -46.802165
v -4.195622 163.306467 82.998036
v -33.333406 99.752638 69.733411
v -28.034401 57.383418 59.136958
v -1.546120 75.921378 75.031638
v -14.797002 78.568028 -46.802165
v -12.147500 105.057346 77.687104
v -25.381528 173.915884 27.347597
v -28.034401 165.953117 75.031638
v -17.446505 57.383418 -36.205712
v -28.034401 128.865790 75.031638
v -14.797002 57.383418 69.733411
v -1.546120 57.383418 69.733411
f 512 489 513 
f 487 483 489 
f 485 488 489 
f 485 484 490 
f 484 485 491 
f 485 489 491 
f 488 485 492 
f 490 484 493 
f 493 484 494 
f 486 494 495 
f 483 487 496 
f 489 483 497 
f 491 489 497 
f 494 486 498 
f 493 494 498 
f 490 493 499 
f 493 498 499 
f 485 490 501 
f 492 485 501 
f 482 488 502 
f 484 487 503 
f 494 484 503 
f 487 495 503 
f 495 494 503 
f 487 484 504 
f 484 496 504 
f 496 487 504 
f 488 482 505 
f 489 488 505 
f 482 500 505 
f 483 484 506 
f 484 491 506 
f 497 483 506 
f 491 497 506 
f 500 482 507 
f 495 500 507 
f 482 502 507 
f 490 499 508 
f 499 492 508 
f 501 490 508 
f 492 501 508 
f 488 492 509 
f 486 495 509 
f 498 486 509 
f 492 499 509 
f 499 498 509 
f 502 488 509 
f 484 483 510 
f 496 484 510 
f 483 496 510 
f 495 507 511 
f 507 502 511 
f 509 495 511 
f 502 509 511 
f 487 489 512 
f 495 487 512 
f 500 495 512 
f 500 512 513 
f 489 505 513 
f 505 500 513 
o convex_16
v 3.750033 290.466240 3.531377
v 1.103382 240.140476 53.850918
v 3.751070 240.140476 53.850918
v 6.398757 274.567930 0.879541
v -4.194066 282.519548 0.879541
v 3.751070 250.742634 56.508199
v -1.545342 256.038787 48.558136
v 6.400831 256.038787 40.613519
v -4.194066 287.820627 3.531377
v 3.750033 269.281631 6.183213
v -1.545342 245.441555 56.502754
v 6.398757 285.170088 3.531377
v -4.194066 277.218469 6.183213
v 6.398757 256.038787 27.370675
v 3.750033 290.466240 0.879541
v -4.194066 277.218469 16.774221
v 1.103382 290.466240 3.531377
v -1.545342 245.441555 51.204527
v 1.103382 248.097021 40.613519
v 3.751070 240.140476 56.502754
v 1.103382 250.742634 56.508199
v -4.194066 287.820627 0.879541
v 6.398757 263.985478 14.133276
v 6.400831 253.388247 32.663456
v 3.750033 274.567930 0.879541
v -4.194066 274.567930 16.774221
v -1.545342 248.092095 56.502754
v -1.544305 271.932170 27.370675
v 6.398757 285.170088 0.879541
v 1.103382 253.388247 32.663456
v 6.400831 253.388247 40.613519
v 3.750033 263.985478 14.133276
f 532 543 545 
f 514 519 525 
f 519 521 525 
f 522 518 526 
f 517 518 528 
f 514 525 528 
f 520 522 529 
f 522 526 529 
f 519 514 530 
f 514 528 530 
f 515 524 531 
f 531 526 532 
f 515 531 532 
f 515 516 533 
f 524 515 533 
f 524 533 534 
f 519 530 534 
f 533 519 534 
f 518 522 535 
f 528 518 535 
f 522 530 535 
f 530 528 535 
f 516 515 536 
f 523 517 536 
f 527 516 536 
f 516 527 537 
f 533 516 537 
f 536 517 537 
f 527 536 537 
f 518 517 538 
f 517 523 538 
f 526 518 538 
f 523 526 538 
f 524 529 539 
f 529 526 539 
f 531 524 539 
f 526 531 539 
f 520 529 540 
f 529 524 540 
f 524 534 540 
f 534 520 540 
f 522 520 541 
f 530 522 541 
f 520 534 541 
f 534 530 541 
f 525 521 542 
f 517 528 542 
f 528 525 542 
f 537 517 542 
f 521 537 542 
f 526 523 543 
f 532 526 543 
f 521 519 544 
f 519 533 544 
f 537 521 544 
f 533 537 544 
f 515 532 545 
f 536 515 545 
f 523 536 545 
f 543 523 545 
o convex_17
v 35.539652 226.890372 40.614297
v 14.351013 173.915884 -17.663345
v 22.292539 173.915884 -17.663345
v 9.048798 226.890372 6.181658
v 1.103901 221.590330 8.834271
v 32.886859 173.915884 3.529044
v 35.539652 181.871132 -1.770480
v 35.539652 221.585144 27.362637
v 9.052168 197.755700 -15.010731
v 32.883488 224.240351 40.614297
v 9.052168 179.221112 -15.010731
v 1.103901 226.890372 6.181658
v 6.402746 184.521153 -17.663345
v 35.539652 173.915884 3.529044
v 35.539652 226.890372 32.662160
v 17.000436 179.221112 -7.058594
v 6.402746 192.466030 -17.663345
v 35.539652 173.915884 -4.417389
v 22.292539 176.576277 -17.663345
v 1.103901 226.890372 8.834271
v 32.886859 195.110865 19.427613
v 35.539652 224.240351 40.614297
v 14.351013 173.915884 -15.010731
v 32.883488 226.890372 40.614297
v 6.402746 184.521153 -15.010731
v 6.402746 210.990246 6.181658
v 14.351013 187.165988 -17.663345
v 32.883488 221.585144 24.710023
v 35.539652 176.576277 -4.417389
v 6.402746 197.755700 -15.010731
v 1.103901 221.590330 6.181658
v 27.588014 176.576277 0.882134
f 566 561 577 
f 547 548 551 
f 546 552 553 
f 549 552 554 
f 546 549 557 
f 549 554 557 
f 548 547 558 
f 547 556 558 
f 551 548 559 
f 552 546 559 
f 549 546 560 
f 546 553 560 
f 553 549 560 
f 558 557 562 
f 548 558 562 
f 559 548 563 
f 552 559 563 
f 548 562 564 
f 563 548 564 
f 550 555 565 
f 546 557 565 
f 557 550 565 
f 551 559 566 
f 546 555 567 
f 559 546 567 
f 555 566 567 
f 566 559 567 
f 547 551 568 
f 556 547 568 
f 551 561 568 
f 561 556 568 
f 555 546 569 
f 546 565 569 
f 565 555 569 
f 556 550 570 
f 550 558 570 
f 558 556 570 
f 555 550 571 
f 550 556 571 
f 556 561 571 
f 566 555 571 
f 561 566 571 
f 554 552 572 
f 562 554 572 
f 552 564 572 
f 564 562 572 
f 552 549 573 
f 553 552 573 
f 549 553 573 
f 552 563 574 
f 564 552 574 
f 563 564 574 
f 557 554 575 
f 554 562 575 
f 562 557 575 
f 550 557 576 
f 558 550 576 
f 557 558 576 
f 561 551 577 
f 551 566 577 
o convex_18
v 46.135513 118.281003 -33.563747
v 35.539652 60.012955 -83.871862
v 35.539652 65.317829 -83.871862
v 35.539652 115.622862 -36.213453
v 51.431628 105.041636 -17.665511
v 35.539652 67.964562 -52.097169
v 54.081501 115.634271 -30.906781
v 38.191339 112.976130 -49.447463
v 48.783570 115.634271 -12.373359
v 38.189525 60.012955 -60.039028
v 40.839397 67.964562 -75.930004
v 40.839397 73.263731 -75.930004
v 35.539652 118.275299 -44.162571
v 54.081501 118.281003 -9.723653
v 46.135513 102.394903 -20.315217
v 54.081501 112.981834 -12.373359
v 51.433443 110.329397 -38.870418
v 38.189525 60.012955 -83.871862
v 54.081501 112.981834 -30.906781
v 35.539652 118.275299 -36.213453
v 54.081501 118.281003 -28.264335
v 35.539652 60.012955 -60.039028
v 40.839397 67.964562 -52.097169
v 38.189525 73.263731 -78.579710
v 48.783570 112.981834 -12.373359
v 35.539652 102.389199 -57.396581
v 38.191339 118.275299 -44.162571
v 51.431628 118.281003 -9.723653
v 38.189525 65.317829 -83.871862
v 46.133698 110.329397 -44.162571
v 38.189525 73.263731 -46.805017
v 51.431628 115.634271 -9.723653
f 605 602 609 
f 580 579 581 
f 581 579 583 
f 584 588 589 
f 580 581 590 
f 581 583 592 
f 584 591 593 
f 584 589 594 
f 579 580 595 
f 587 579 595 
f 588 587 595 
f 589 588 595 
f 588 584 596 
f 584 593 596 
f 593 588 596 
f 581 586 597 
f 590 581 597 
f 578 590 597 
f 578 591 598 
f 591 584 598 
f 584 594 598 
f 583 579 599 
f 579 587 599 
f 587 583 599 
f 583 587 600 
f 587 588 600 
f 593 582 600 
f 588 593 600 
f 594 589 601 
f 586 581 602 
f 581 592 602 
f 580 590 603 
f 590 585 603 
f 601 580 603 
f 585 601 603 
f 590 578 604 
f 585 590 604 
f 578 598 604 
f 598 594 604 
f 591 578 605 
f 597 586 605 
f 578 597 605 
f 586 602 605 
f 595 580 606 
f 589 595 606 
f 580 601 606 
f 601 589 606 
f 601 585 607 
f 594 601 607 
f 585 604 607 
f 604 594 607 
f 582 592 608 
f 592 583 608 
f 600 582 608 
f 583 600 608 
f 592 582 609 
f 582 593 609 
f 593 591 609 
f 602 592 609 
f 591 605 609 
o convex_19
v -12.142573 57.360601 8.820010
v -12.142573 38.819530 -57.391618
v -9.493071 38.819530 -57.391618
v -12.142573 57.360601 -46.794905
v -17.440022 38.819530 -15.017731
v -17.440022 57.360601 -36.198193
v -9.493071 54.709025 8.820010
v -17.440022 57.360601 -4.427500
v -12.142573 38.819530 -20.319328
v -14.790520 38.819530 -54.740819
v -9.493071 57.360601 -12.373414
v -9.493071 46.767000 -54.740819
v -14.790520 46.767000 -54.740819
v -17.440022 38.819530 -33.553876
v -14.790520 54.709025 6.169212
v -14.790520 57.360601 -46.794905
v -9.493071 38.819530 -52.090021
v -14.790520 38.819530 -15.017731
v -9.493071 57.360601 8.820010
v -12.142573 54.709025 8.820010
v -17.440022 44.117238 -9.722616
v -17.440022 41.469292 -36.198193
v -9.493071 52.061078 0.874096
v -12.142573 41.469292 -12.373414
v -14.790520 54.709025 -49.445704
v -12.142573 41.469292 -57.391618
v -14.790520 57.360601 6.169212
v -14.790520 49.411317 0.874096
v -17.440022 54.709025 -4.427500
v -9.493071 41.469292 -57.391618
v -12.142573 44.117238 -7.071818
v -12.142573 54.709025 -49.445704
f 621 634 641 
f 611 612 614 
f 610 613 615 
f 615 614 617 
f 610 615 617 
f 614 612 618 
f 611 614 619 
f 613 610 620 
f 616 612 620 
f 620 612 621 
f 613 620 621 
f 611 619 622 
f 619 615 622 
f 614 615 623 
f 619 614 623 
f 615 613 625 
f 612 616 626 
f 618 612 626 
f 614 618 627 
f 610 616 628 
f 620 610 628 
f 616 620 628 
f 616 610 629 
f 610 624 629 
f 617 614 630 
f 614 624 630 
f 615 619 631 
f 623 615 631 
f 619 623 631 
f 616 618 632 
f 626 616 632 
f 618 626 632 
f 618 616 633 
f 627 618 633 
f 622 615 634 
f 621 622 634 
f 625 613 634 
f 615 625 634 
f 612 611 635 
f 611 622 635 
f 622 621 635 
f 610 617 636 
f 624 610 636 
f 617 624 636 
f 624 614 637 
f 614 627 637 
f 627 616 637 
f 616 629 637 
f 629 624 637 
f 624 617 638 
f 617 630 638 
f 630 624 638 
f 621 612 639 
f 612 635 639 
f 635 621 639 
f 616 627 640 
f 633 616 640 
f 627 633 640 
f 613 621 641 
f 634 613 641 
o convex_20
v 101.764244 287.819442 141.275677
v 75.274407 271.934170 117.441825
v 75.274407 271.934170 120.088216
v 93.816775 256.034378 120.088216
v 75.274407 282.519511 135.973561
v 85.869305 279.873176 117.441825
v 75.274407 293.119372 130.678446
v 96.464203 266.637870 117.434824
v 101.764244 279.869546 141.275677
v 93.816775 287.819442 130.676113
v 88.519326 290.469407 141.275677
v 96.464203 271.937800 135.971228
v 91.169347 256.034378 120.088216
v 96.464203 258.684344 117.434824
v 101.764244 285.169476 135.971228
v 99.111630 290.469407 138.624619
v 75.274407 293.119372 135.975895
v 77.924428 279.873176 117.441825
v 91.169347 282.519511 141.275677
v 77.924428 279.873176 135.973561
v 99.111630 266.637870 130.676113
v 101.764244 277.219581 133.322503
v 91.169347 256.034378 117.434824
v 77.924428 293.119372 130.678446
v 75.274407 279.873176 133.322503
v 75.274407 277.223211 117.441825
v 99.111630 290.469407 141.275677
v 80.574449 287.819442 138.624619
v 85.869305 282.519511 120.088216
v 80.574449 293.119372 135.975895
v 88.519326 285.169476 141.275677
v 96.464203 258.684344 122.734607
f 655 662 673 
f 643 644 646 
f 643 646 648 
f 650 642 652 
f 644 643 654 
f 645 653 654 
f 649 647 656 
f 642 650 656 
f 647 651 656 
f 642 656 657 
f 656 651 657 
f 648 646 658 
f 648 647 659 
f 647 649 659 
f 650 652 660 
f 653 650 660 
f 653 660 661 
f 654 653 661 
f 660 646 661 
f 650 653 662 
f 655 649 663 
f 649 656 663 
f 656 650 663 
f 650 662 663 
f 662 655 663 
f 654 643 664 
f 645 654 664 
f 649 655 664 
f 655 645 664 
f 647 648 665 
f 657 651 665 
f 648 658 665 
f 646 644 666 
f 644 654 666 
f 661 646 666 
f 654 661 666 
f 643 648 667 
f 648 659 667 
f 659 649 667 
f 664 643 667 
f 649 664 667 
f 652 642 668 
f 642 657 668 
f 658 652 668 
f 658 646 669 
f 652 658 669 
f 651 647 670 
f 647 665 670 
f 665 651 670 
f 657 665 671 
f 665 658 671 
f 668 657 671 
f 658 668 671 
f 646 660 672 
f 660 652 672 
f 669 646 672 
f 652 669 672 
f 653 645 673 
f 645 655 673 
f 662 653 673 
o convex_21
v -28.035957 -0.917040 37.941979
v -6.844087 4.380927 -54.733560
v -6.844087 -0.917040 -54.733560
v -28.035957 4.380927 -81.215619
v -28.035957 -0.917040 -81.215619
v -12.142055 1.731943 37.941979
v -28.035957 1.731943 37.941979
v -6.844087 4.380927 -81.215619
v -12.142055 -0.917040 37.941979
v -6.844087 -0.917040 -81.215619
v -28.035957 4.380927 -52.085354
v -25.382824 4.380927 -52.085354
f 675 684 685 
f 674 677 678 
f 676 674 678 
f 676 675 679 
f 677 674 680 
f 674 679 680 
f 675 676 681 
f 677 675 681 
f 678 677 681 
f 674 676 682 
f 679 674 682 
f 676 679 682 
f 676 678 683 
f 681 676 683 
f 678 681 683 
f 675 677 684 
f 677 680 684 
f 684 680 685 
f 679 675 685 
f 680 679 685 
o convex_22
v -28.032327 -0.917040 37.965313
v -4.195104 20.274829 61.803833
v -9.495145 20.274829 67.097392
v -6.845125 -0.917040 77.700069
v -30.684941 1.731943 77.700069
v -25.384899 20.274829 61.803833
v -12.145166 1.731943 37.965313
v -20.087450 20.274829 51.212825
v -6.845125 -0.917040 56.510273
v -30.684941 -0.917040 77.700069
v -28.032327 9.678894 75.047455
v -30.684941 1.731943 51.212825
v -6.845125 4.383001 77.700069
v -12.145166 20.274829 51.212825
v -28.032327 1.731943 37.965313
v -9.495145 -0.917040 43.266651
v -25.384899 20.274829 67.097392
v -4.195104 20.274829 59.155108
v -9.495145 17.623771 69.750006
v -4.195104 17.623771 59.155108
v -28.032327 12.325804 72.394841
v -12.145166 -0.917040 37.965313
v -30.684941 -0.917040 51.212825
v -28.032327 4.383001 77.700069
v -9.495145 9.678894 75.047455
v -25.384899 17.623771 69.750006
v -9.495145 1.731943 43.266651
v -28.032327 12.325804 67.097392
v -4.195104 17.623771 61.803833
f 689 705 714 
f 688 687 691 
f 691 687 693 
f 689 686 694 
f 686 689 695 
f 689 690 695 
f 695 690 697 
f 689 687 698 
f 690 689 698 
f 693 687 699 
f 692 693 699 
f 692 686 700 
f 691 693 700 
f 693 692 700 
f 697 691 700 
f 686 697 700 
f 694 686 701 
f 688 691 702 
f 699 687 703 
f 692 699 703 
f 687 688 704 
f 698 687 704 
f 689 694 705 
f 694 701 705 
f 703 687 705 
f 701 703 705 
f 690 696 706 
f 697 690 706 
f 702 691 706 
f 696 702 706 
f 686 692 707 
f 701 686 707 
f 692 701 707 
f 686 695 708 
f 697 686 708 
f 695 697 708 
f 696 690 709 
f 690 698 709 
f 698 696 709 
f 696 698 710 
f 698 704 710 
f 704 696 710 
f 688 702 711 
f 702 696 711 
f 704 688 711 
f 696 704 711 
f 701 692 712 
f 692 703 712 
f 703 701 712 
f 691 697 713 
f 697 706 713 
f 706 691 713 
f 687 689 714 
f 705 687 714 
o convex_23
v -1.546120 52.056929 64.453076
v -28.035957 49.410538 61.804092
v -25.383343 46.764148 53.859215
v -12.146204 20.274829 64.453076
v -9.496183 57.360601 48.561248
v -14.791038 20.274829 51.214380
v -14.791038 57.360601 69.753118
v -25.383343 20.274829 64.453076
v -4.196141 20.274829 59.157183
v -22.735915 57.360601 48.561248
v -1.546120 57.360601 69.753118
v -28.035957 57.360601 64.453076
v -20.085894 20.274829 51.214380
v -1.546120 49.410538 69.753118
v -4.196141 22.924850 64.453076
v -9.496183 49.410538 48.561248
v -25.383343 20.274829 61.804092
v -22.735915 49.410538 48.561248
v -12.146204 49.410538 69.753118
v -25.383343 57.360601 53.859215
v -28.035957 49.410538 64.453076
v -1.546120 57.360601 67.099985
v -14.791038 54.710580 69.753118
v -4.196141 20.274829 61.804092
v -28.035957 57.360601 61.804092
v -25.383343 28.224892 59.157183
v -1.546120 49.410538 64.453076
f 728 738 741 
f 720 718 722 
f 718 720 723 
f 721 719 724 
f 719 721 725 
f 721 724 726 
f 720 722 727 
f 715 725 728 
f 725 721 728 
f 728 718 729 
f 719 715 730 
f 723 720 730 
f 724 719 730 
f 722 716 731 
f 727 722 731 
f 717 724 732 
f 727 717 732 
f 720 727 732 
f 730 720 732 
f 724 730 732 
f 722 718 733 
f 718 728 733 
f 728 721 733 
f 717 716 734 
f 724 717 734 
f 726 724 734 
f 716 722 735 
f 726 716 735 
f 721 726 735 
f 715 719 736 
f 725 715 736 
f 719 725 736 
f 722 733 737 
f 733 721 737 
f 735 722 737 
f 721 735 737 
f 718 723 738 
f 729 718 738 
f 728 729 738 
f 716 726 739 
f 734 716 739 
f 726 734 739 
f 716 717 740 
f 717 727 740 
f 731 716 740 
f 727 731 740 
f 715 728 741 
f 730 715 741 
f 723 730 741 
f 738 723 741 
o convex_24
v 9.049815 36.173398 61.807204
v 14.348042 57.360601 77.700069
v 27.592701 57.360601 64.451261
v 22.292659 22.927184 77.700069
v 19.644453 22.927184 51.211010
v 9.049815 57.360601 48.561248
v 22.292659 57.360601 48.561248
v 9.049815 54.707987 75.050307
v 11.699836 22.927184 64.451261
v 24.942680 22.927184 61.807204
v 14.348042 22.927184 51.211010
v 16.998062 28.225670 77.700069
v 24.942680 54.707987 51.211010
v 22.292659 33.524156 77.700069
v 27.592701 44.111016 64.451261
v 11.699836 22.927184 56.513385
v 9.049815 52.058745 48.561248
v 11.699836 46.760259 77.700069
v 22.292659 49.409502 48.561248
v 9.049815 57.360601 75.050307
v 27.592701 54.707987 59.157442
v 16.998062 52.058745 77.700069
v 24.942680 28.225670 59.157442
v 19.644453 22.927184 77.700069
v 27.592701 44.111016 61.807204
v 24.942680 22.927184 64.451261
v 9.049815 36.173398 64.451261
v 9.049815 38.822641 56.513385
v 24.942680 57.360601 51.211010
v 19.644453 44.111016 77.700069
v 11.699836 57.360601 77.700069
v 11.699836 49.409502 48.561248
f 758 760 773 
f 743 744 747 
f 747 744 748 
f 747 742 749 
f 746 745 750 
f 745 746 751 
f 746 750 752 
f 745 743 753 
f 745 744 755 
f 743 745 755 
f 744 745 756 
f 750 742 757 
f 752 750 757 
f 752 757 758 
f 742 747 758 
f 747 748 758 
f 749 750 759 
f 753 743 759 
f 750 753 759 
f 746 752 760 
f 748 754 760 
f 754 746 760 
f 758 748 760 
f 743 747 761 
f 747 749 761 
f 749 759 761 
f 744 756 762 
f 744 743 763 
f 743 755 763 
f 751 746 764 
f 746 754 764 
f 750 745 765 
f 745 753 765 
f 753 750 765 
f 756 751 766 
f 754 762 766 
f 762 756 766 
f 751 764 766 
f 764 754 766 
f 745 751 767 
f 756 745 767 
f 751 756 767 
f 749 742 768 
f 742 750 768 
f 750 749 768 
f 757 742 769 
f 758 757 769 
f 742 758 769 
f 748 744 770 
f 754 748 770 
f 744 762 770 
f 762 754 770 
f 755 744 771 
f 744 763 771 
f 763 755 771 
f 759 743 772 
f 743 761 772 
f 761 759 772 
f 752 758 773 
f 760 752 773 
o convex_25
v 11.698799 83.843777 -89.187201
v 11.698799 67.962613 -99.780802
v 14.348819 67.962613 -99.780802
v 30.241684 60.009585 -89.187201
v 22.293437 102.392546 -91.834823
v 14.348819 70.609474 -89.187201
v 30.241684 65.311604 -91.836897
v 22.293437 102.392546 -89.186164
v 19.647046 102.392546 -91.834823
v 11.698799 73.252186 -99.780802
v 24.941643 60.009585 -89.187201
v 11.698799 67.962613 -94.483483
v 14.348819 73.252186 -99.780802
v 30.241684 60.009585 -91.836897
v 11.698799 83.843777 -91.836897
v 19.647046 102.392546 -89.186164
v 19.647046 62.664743 -94.483483
v 30.241684 65.311604 -89.187201
v 11.698799 75.903195 -89.187201
v 11.698799 78.550056 -97.131105
v 24.941643 60.009585 -91.836897
v 11.698799 70.609474 -91.836897
v 19.647046 62.664743 -91.836897
v 19.647046 94.447815 -89.186164
v 22.293437 94.447815 -89.186164
f 781 797 798 
f 780 778 781 
f 781 778 782 
f 775 774 783 
f 776 775 783 
f 782 778 783 
f 774 775 785 
f 780 776 786 
f 778 780 786 
f 776 783 786 
f 783 778 786 
f 775 776 787 
f 776 780 787 
f 780 777 787 
f 777 784 787 
f 774 782 788 
f 783 774 788 
f 782 774 789 
f 781 782 789 
f 777 780 791 
f 780 781 791 
f 781 777 791 
f 774 785 792 
f 789 774 792 
f 782 783 793 
f 788 782 793 
f 783 788 793 
f 775 787 794 
f 787 784 794 
f 790 775 794 
f 784 790 794 
f 784 779 795 
f 785 784 795 
f 792 785 795 
f 779 792 795 
f 785 775 796 
f 784 785 796 
f 775 790 796 
f 790 784 796 
f 784 777 797 
f 779 784 797 
f 781 789 797 
f 792 779 797 
f 789 792 797 
f 777 781 798 
f 797 777 798 
o convex_26
v 32.886001 144.776026 72.378246
v 1.103901 94.446373 -46.802165
v 24.939568 94.446373 -46.802165
v -1.546120 173.915884 -46.802165
v -1.546120 94.446373 77.677250
v -1.546120 173.915884 82.976255
v 35.539652 173.915884 -7.066373
v 32.886001 97.098987 69.735485
v 35.539652 139.470798 -46.802165
v 9.053964 173.915884 90.944987
v 35.539652 110.346498 -46.802165
v 24.939568 173.915884 69.735485
v 22.293178 171.263270 -46.802165
v 35.539652 118.288782 61.793720
v -1.546120 102.396435 -46.802165
v 24.939568 94.446373 72.378246
v 32.886001 155.370924 -46.802165
v 30.235980 94.446373 19.428650
v 30.235980 158.015758 72.378246
v 3.757552 171.263270 90.944987
v 35.539652 173.915884 0.888876
v 32.886001 107.693884 72.378246
v 3.757552 94.446373 77.677250
v 14.354005 173.915884 -46.802165
v 35.539652 142.115633 45.896706
v 9.053964 171.263270 90.944987
v 27.589589 165.965821 -46.802165
v 27.589589 168.610656 69.735485
v -1.546120 94.446373 37.954941
v 30.235980 94.446373 69.735485
v 1.103901 173.915884 88.288743
v 9.053964 99.751601 77.677250
f 824 821 830 
f 801 800 802 
f 800 801 803 
f 802 803 804 
f 802 804 805 
f 801 802 807 
f 805 804 808 
f 807 805 809 
f 801 807 809 
f 805 808 810 
f 807 802 811 
f 806 809 812 
f 809 805 812 
f 802 800 813 
f 803 802 813 
f 803 801 814 
f 805 807 815 
f 807 811 815 
f 801 809 816 
f 809 806 816 
f 814 801 816 
f 808 799 817 
f 805 810 819 
f 812 805 819 
f 817 799 819 
f 799 808 820 
f 812 799 820 
f 806 812 820 
f 814 806 820 
f 803 814 821 
f 818 803 821 
f 802 805 822 
f 811 802 822 
f 805 811 822 
f 799 812 823 
f 819 799 823 
f 812 819 823 
f 808 818 824 
f 820 808 824 
f 814 820 824 
f 818 821 824 
f 811 805 825 
f 805 815 825 
f 815 811 825 
f 810 808 826 
f 808 817 826 
f 819 810 826 
f 817 819 826 
f 800 803 827 
f 813 800 827 
f 803 813 827 
f 806 814 828 
f 816 806 828 
f 814 816 828 
f 804 803 829 
f 808 804 829 
f 803 818 829 
f 818 808 829 
f 821 814 830 
f 814 824 830 
o convex_27
v 16.992099 203.063260 80.349052
v -25.386973 173.915884 64.456706
v -22.736434 173.915884 56.508199
v -1.541971 248.080167 56.508199
v 22.293178 173.915884 56.508199
v -14.789742 229.531837 80.349052
v -9.488663 173.915884 80.349052
v 14.346486 224.239573 80.349052
v 22.293178 176.572905 75.046936
v 16.992099 213.640527 59.159257
v -17.435355 210.998025 56.508199
v -25.386973 173.915884 75.046936
v 3.749254 237.481121 80.349052
v 3.749254 248.080167 56.508199
v 24.943717 173.915884 69.749487
v 9.045407 173.915884 80.349052
v -25.386973 179.222666 64.456706
v 24.943717 179.222666 64.456706
v -17.435355 195.113976 80.349052
v -4.192511 237.481121 80.349052
v -14.789742 229.531837 75.046936
v 22.293178 187.171951 56.508199
v 3.749254 248.080167 59.159257
v -22.736434 184.522189 56.508199
v 16.992099 192.464214 80.349052
v 14.346486 224.239573 72.400545
v 22.293178 192.464214 67.107764
v -1.541971 248.080167 59.159257
v -25.386973 176.572905 75.046936
v 16.992099 210.998025 56.508199
v 24.943717 176.572905 69.749487
v -9.488663 234.831360 80.349052
f 850 858 862 
f 832 833 835 
f 833 834 835 
f 832 835 837 
f 831 836 837 
f 836 831 838 
f 834 833 841 
f 832 837 842 
f 836 838 843 
f 835 834 844 
f 837 835 845 
f 831 837 846 
f 837 845 846 
f 845 839 846 
f 833 832 847 
f 832 842 847 
f 845 835 848 
f 837 836 849 
f 842 837 849 
f 836 843 850 
f 834 841 851 
f 841 847 851 
f 847 836 851 
f 835 844 852 
f 840 848 852 
f 848 835 852 
f 843 838 853 
f 838 844 853 
f 844 834 853 
f 841 833 854 
f 833 847 854 
f 847 841 854 
f 839 831 855 
f 831 846 855 
f 846 839 855 
f 844 838 856 
f 840 844 856 
f 848 840 857 
f 856 838 857 
f 840 856 857 
f 850 843 858 
f 834 851 858 
f 851 836 858 
f 843 853 858 
f 853 834 858 
f 836 847 859 
f 847 842 859 
f 849 836 859 
f 842 849 859 
f 844 840 860 
f 852 844 860 
f 840 852 860 
f 838 831 861 
f 831 839 861 
f 839 845 861 
f 845 848 861 
f 857 838 861 
f 848 857 861 
f 836 850 862 
f 858 836 862 
o convex_28
v 16.996766 234.831360 90.944987
v -17.440022 237.481121 93.593971
v -17.440022 237.481121 96.240880
v -4.189140 173.915884 80.349052
v 6.395386 176.572905 101.540922
v -1.539638 240.130883 80.349052
v 16.996766 248.080167 98.889864
v 14.347264 200.413499 80.349052
v -12.137647 197.763737 101.540922
v -14.790520 200.413499 80.349052
v -17.440022 248.080167 98.889864
v 14.347264 200.413499 101.540922
v 9.048259 173.915884 88.298078
v -14.790520 232.181598 80.349052
v -1.539638 237.481121 101.540922
v 9.048259 232.181598 80.349052
v -4.189140 179.222666 101.540922
v -14.790520 200.413499 98.889864
v 6.395386 173.915884 80.349052
v 16.996766 248.080167 96.240880
v -6.838642 176.572905 83.002185
v -17.440022 248.080167 96.240880
v 14.347264 221.589812 80.349052
v 9.048259 173.915884 96.240880
v 11.694390 226.889335 101.540922
v 1.096381 173.915884 96.240880
v -12.137647 224.239573 101.540922
v 16.996766 245.430406 93.593971
v 1.096381 240.130883 80.349052
v -4.189140 176.572905 96.240880
v 16.996766 234.831360 96.240880
v 3.749254 173.915884 98.889864
f 888 886 894 
f 866 868 870 
f 865 864 872 
f 868 866 872 
f 864 865 873 
f 870 863 874 
f 871 867 874 
f 870 874 875 
f 872 864 876 
f 868 872 876 
f 869 873 877 
f 871 874 877 
f 870 868 878 
f 867 871 879 
f 879 871 880 
f 865 872 880 
f 873 865 880 
f 871 873 880 
f 866 870 881 
f 875 866 881 
f 870 875 881 
f 869 863 882 
f 873 869 882 
f 872 866 883 
f 880 872 883 
f 864 873 884 
f 876 864 884 
f 868 876 884 
f 882 868 884 
f 873 882 884 
f 863 870 885 
f 870 878 885 
f 874 867 886 
f 875 874 886 
f 866 875 886 
f 874 869 887 
f 869 877 887 
f 877 874 887 
f 866 886 888 
f 873 871 889 
f 877 873 889 
f 871 877 889 
f 882 863 890 
f 863 885 890 
f 885 878 890 
f 878 868 891 
f 868 882 891 
f 890 878 891 
f 882 890 891 
f 879 880 892 
f 883 866 892 
f 880 883 892 
f 888 879 892 
f 866 888 892 
f 863 869 893 
f 874 863 893 
f 869 874 893 
f 867 879 894 
f 886 867 894 
f 879 888 894 
o convex_29
v -6.842272 181.869576 104.190684
v 1.101567 208.347486 130.679743
v -1.544823 208.347486 130.679743
v -4.193548 234.831100 101.540922
v 11.698799 197.760885 101.540922
v 11.698799 226.885446 104.190684
v 9.047740 189.815231 125.377367
v -9.490997 189.815231 125.377367
v -12.142055 224.238795 101.540922
v 6.399016 176.564867 101.540922
v -1.544823 187.168580 130.679743
v -12.142055 197.760885 101.540922
v 3.750292 232.184450 109.493059
v -12.142055 224.238795 106.843297
v 9.047740 200.413239 128.029981
v -9.490997 200.413239 128.029981
v -1.544823 232.184450 109.493059
v 11.698799 226.885446 101.540922
v 1.101567 176.564867 104.190684
v 11.698799 197.760885 109.493059
v 1.101567 187.168580 130.679743
v 11.698799 221.592145 109.493059
v -9.490997 187.168580 120.083549
v -4.193548 179.222926 101.540922
v -12.142055 197.760885 106.843297
v 3.750292 234.831100 101.540922
v 3.750292 205.700836 130.679743
v 6.399016 176.564867 104.190684
v -1.544823 224.238795 117.433787
v -4.193548 205.700836 130.679743
v -6.842272 181.869576 109.493059
v -4.193548 189.815231 130.679743
f 924 910 926 
f 898 899 903 
f 903 899 904 
f 896 897 905 
f 903 904 906 
f 898 903 908 
f 903 906 908 
f 907 898 911 
f 898 908 911 
f 899 898 912 
f 900 899 912 
f 899 900 914 
f 904 899 914 
f 909 901 914 
f 896 905 915 
f 901 909 915 
f 905 913 915 
f 900 907 916 
f 914 900 916 
f 909 914 916 
f 905 902 917 
f 906 895 917 
f 895 906 918 
f 906 904 918 
f 904 913 918 
f 908 906 919 
f 902 910 919 
f 910 908 919 
f 917 902 919 
f 906 917 919 
f 898 907 920 
f 907 900 920 
f 912 898 920 
f 900 912 920 
f 907 896 921 
f 896 915 921 
f 915 909 921 
f 916 907 921 
f 909 916 921 
f 913 904 922 
f 904 914 922 
f 914 901 922 
f 901 915 922 
f 915 913 922 
f 897 896 923 
f 896 907 923 
f 907 911 923 
f 911 908 923 
f 905 897 924 
f 908 910 924 
f 897 923 924 
f 923 908 924 
f 913 905 925 
f 905 917 925 
f 917 895 925 
f 918 913 925 
f 895 918 925 
f 902 905 926 
f 910 902 926 
f 905 924 926 
o convex_30
v 9.046703 303.707819 -20.306364
v -20.089006 279.884184 -15.017472
v -20.089006 279.884184 -9.718468
v 16.996766 282.528806 -17.660233
v -1.546120 306.361256 -1.769961
v 6.400313 274.581718 0.879541
v -9.492552 279.884184 -33.557247
v -6.842532 316.952966 -17.660233
v 11.696724 282.528806 -30.907744
v 3.746661 271.928281 -17.660233
v 6.400313 306.361256 -4.419463
v -1.546120 306.361256 -28.258242
v -12.138943 306.361256 -4.419463
v -14.788964 306.361256 -17.660233
v -4.192511 282.528806 0.879541
v -14.788964 282.528806 -30.907744
v 16.996766 287.831273 -12.371341
v -4.192511 271.928281 -4.419463
v -1.546120 316.952966 -12.371341
v -9.492552 306.361256 -25.608740
v 6.400313 287.831273 0.879541
v 3.750292 279.884184 -33.557247
v -14.788964 279.884184 -30.907744
v 9.046703 306.361256 -17.660233
v 3.750292 306.361256 -25.608740
v 1.100271 287.831273 -33.557247
v -4.192511 295.769546 0.879541
v -14.788964 295.769546 -4.419463
v 11.696724 285.182243 -30.907744
v -1.546120 316.952966 -17.660233
v -20.089006 285.182243 -9.718468
v -6.842532 316.952966 -12.371341
f 945 934 958 
f 930 932 936 
f 935 930 936 
f 928 940 942 
f 932 930 943 
f 929 928 944 
f 936 932 944 
f 941 929 944 
f 932 941 944 
f 931 937 945 
f 938 933 946 
f 934 938 946 
f 940 934 946 
f 933 942 946 
f 942 940 946 
f 937 931 947 
f 941 932 947 
f 932 943 947 
f 943 937 947 
f 936 933 948 
f 935 936 948 
f 933 936 949 
f 928 942 949 
f 942 933 949 
f 944 928 949 
f 936 944 949 
f 937 943 950 
f 945 937 950 
f 950 927 951 
f 933 938 952 
f 948 933 952 
f 931 939 953 
f 947 931 953 
f 941 947 953 
f 929 941 954 
f 953 939 954 
f 941 953 954 
f 930 935 955 
f 943 930 955 
f 935 948 955 
f 927 950 955 
f 950 943 955 
f 951 927 955 
f 938 951 955 
f 952 938 955 
f 948 952 955 
f 938 934 956 
f 934 945 956 
f 945 950 956 
f 950 951 956 
f 951 938 956 
f 928 929 957 
f 939 940 957 
f 940 928 957 
f 929 954 957 
f 954 939 957 
f 939 931 958 
f 934 940 958 
f 940 939 958 
f 931 945 958 
o convex_31
v 9.058112 226.901262 8.831419
v 35.539652 256.034378 67.104134
v 32.888594 256.034378 67.104134
v 35.539652 226.901262 40.600813
v -6.844087 226.895558 11.479366
v 35.539652 256.034378 53.858437
v -1.541971 237.491752 8.831419
v 35.539652 232.197933 35.310884
v 6.402906 237.491752 11.479366
v 27.586478 245.432480 56.506384
v 32.888594 226.901262 40.600813
v -1.541971 237.491752 14.133276
v 6.402906 229.551024 6.177509
v 32.888594 253.381765 67.104134
v 9.058112 234.847695 32.668902
v -6.844087 226.895558 6.177509
v 11.705022 245.432480 27.378972
v 35.539652 250.734855 48.556581
v 35.539652 226.901262 35.310884
v -6.844087 229.551024 11.479366
v 16.994692 245.432480 27.378972
v -4.193029 234.841990 6.177509
v 32.888594 256.034378 53.858437
v 30.229238 232.197933 30.026919
v 35.539652 253.381765 67.104134
v 1.104938 234.841990 6.177509
v 6.402906 240.138661 14.133276
v 6.402906 226.895558 6.177509
v 11.705022 245.432480 30.026919
v -6.844087 229.551024 6.177509
v 32.888594 253.381765 48.556581
v 3.751847 240.138661 14.133276
f 981 985 990 
f 961 960 964 
f 960 962 964 
f 964 962 966 
f 963 962 969 
f 966 959 971 
f 960 961 972 
f 961 963 972 
f 968 969 972 
f 963 969 973 
f 969 968 973 
f 972 963 973 
f 968 972 973 
f 965 970 975 
f 964 966 976 
f 959 966 977 
f 966 962 977 
f 963 961 978 
f 961 970 978 
f 974 963 978 
f 976 967 979 
f 970 965 980 
f 971 974 980 
f 978 970 980 
f 961 964 981 
f 975 961 981 
f 966 971 982 
f 971 967 982 
f 976 966 982 
f 967 976 982 
f 962 960 983 
f 969 962 983 
f 960 972 983 
f 972 969 983 
f 967 971 984 
f 980 965 984 
f 971 980 984 
f 979 967 985 
f 964 979 985 
f 981 964 985 
f 984 965 985 
f 967 984 985 
f 962 963 986 
f 971 959 986 
f 963 974 986 
f 974 971 986 
f 959 977 986 
f 977 962 986 
f 970 961 987 
f 961 975 987 
f 975 970 987 
f 974 978 988 
f 980 974 988 
f 978 980 988 
f 964 976 989 
f 979 964 989 
f 976 979 989 
f 965 975 990 
f 975 981 990 
f 985 965 990 
o convex_32
v 51.433554 179.213851 19.422427
v 35.539652 118.299153 -41.504198
v 35.539652 123.594528 -41.504198
v 51.433554 118.299153 -30.906448
v 48.782496 120.946840 -20.308698
v 35.539652 173.906550 6.176731
v 38.190710 171.258863 -7.068966
v 51.433554 179.213851 11.472624
v 35.539652 123.594528 -30.906448
v 43.486603 120.946840 -38.850287
v 48.782496 171.258863 16.768517
v 35.539652 179.213851 0.874874
v 51.433554 118.299153 -22.956645
v 51.433554 128.889902 -25.604591
v 38.190710 123.594528 -41.504198
v 35.539652 118.299153 -36.202341
v 51.433554 171.258863 16.768517
v 35.539652 155.366776 -7.068966
v 48.782496 179.213851 19.422427
v 35.539652 179.213851 6.176731
v 43.486603 123.594528 -22.956645
v 35.539652 171.258863 -7.068966
v 38.190710 179.213851 0.874874
v 40.838656 173.906550 11.472624
v 48.782496 142.134302 -4.421019
v 43.486603 118.299153 -38.850287
v 51.433554 131.537590 -12.364859
v 48.782496 179.213851 8.824677
v 51.433554 120.946840 -30.906448
v 48.782496 176.554237 19.422427
v 48.782496 118.299153 -22.956645
v 38.190710 142.134302 -28.258501
f 1012 997 1022 
f 993 992 996 
f 991 994 998 
f 996 992 999 
f 993 996 1002 
f 991 998 1002 
f 992 994 1003 
f 994 991 1003 
f 998 994 1004 
f 1000 997 1004 
f 992 993 1005 
f 999 992 1006 
f 992 1003 1006 
f 1003 991 1007 
f 996 999 1008 
f 991 1002 1009 
f 1009 1002 1010 
f 1002 996 1010 
f 999 1006 1011 
f 1008 999 1011 
f 993 1002 1012 
f 1002 997 1012 
f 997 1002 1013 
f 1002 998 1013 
f 996 1008 1014 
f 1008 1011 1014 
f 1014 1011 1015 
f 1007 1001 1015 
f 1011 995 1015 
f 1001 1014 1015 
f 994 992 1016 
f 1000 994 1016 
f 992 1005 1016 
f 1005 1000 1016 
f 995 1003 1017 
f 1003 1007 1017 
f 1007 1015 1017 
f 1015 995 1017 
f 998 1004 1018 
f 1004 997 1018 
f 997 1013 1018 
f 1013 998 1018 
f 994 1000 1019 
f 1004 994 1019 
f 1000 1004 1019 
f 1007 991 1020 
f 1001 1007 1020 
f 991 1009 1020 
f 1009 1010 1020 
f 1010 996 1020 
f 996 1014 1020 
f 1014 1001 1020 
f 1003 995 1021 
f 1006 1003 1021 
f 995 1011 1021 
f 1011 1006 1021 
f 997 1000 1022 
f 1005 993 1022 
f 1000 1005 1022 
f 993 1012 1022 
o convex_33
v 27.593957 269.275371 112.117849
v 51.428468 240.140476 3.536044
v 54.081241 240.140476 3.536044
v 43.480260 277.225211 101.533002
v 51.431839 256.040157 82.976849
v 35.542165 245.440370 56.514731
v 19.645750 266.629054 104.179213
v 35.542165 266.629054 114.785840
v 19.645750 261.332790 106.825425
v 46.129663 256.040157 40.615680
v 43.487002 245.440370 59.160942
v 51.431839 263.979107 75.049103
v 46.129663 271.925317 106.825425
v 54.081241 240.140476 16.788883
v 51.428468 242.794053 3.536044
v 40.834229 271.925317 85.633951
v 35.542165 245.440370 51.211417
v 54.081241 245.440370 11.485570
v 40.834229 277.225211 106.825425
v 46.133034 245.440370 16.788883
v 46.129663 266.629054 106.825425
v 24.947925 261.332790 106.825425
v 22.298523 263.979107 93.583476
v 51.431839 261.329160 85.623061
v 46.129663 271.925317 85.633951
v 40.834229 277.225211 101.533002
v 48.782436 240.140476 8.839358
v 54.081241 245.440370 24.727519
v 51.431839 253.390210 75.049103
v 35.542165 269.275371 114.785840
v 48.782436 240.140476 16.788883
v 38.188197 245.440370 59.160942
f 1053 1033 1054 
f 1023 1029 1031 
f 1030 1023 1031 
f 1034 1026 1035 
f 1024 1025 1036 
f 1025 1024 1037 
f 1028 1031 1039 
f 1036 1025 1040 
f 1025 1037 1040 
f 1029 1023 1041 
f 1035 1026 1041 
f 1032 1037 1042 
f 1030 1027 1043 
f 1035 1030 1043 
f 1027 1030 1044 
f 1030 1031 1044 
f 1033 1027 1044 
f 1031 1033 1044 
f 1031 1029 1045 
f 1029 1038 1045 
f 1038 1032 1045 
f 1039 1031 1045 
f 1032 1042 1045 
f 1042 1039 1045 
f 1034 1035 1046 
f 1043 1027 1046 
f 1035 1043 1046 
f 1026 1034 1047 
f 1037 1032 1047 
f 1038 1026 1047 
f 1032 1038 1047 
f 1034 1040 1047 
f 1040 1037 1047 
f 1026 1038 1048 
f 1038 1029 1048 
f 1029 1041 1048 
f 1041 1026 1048 
f 1024 1036 1049 
f 1037 1024 1049 
f 1028 1039 1049 
f 1042 1037 1049 
f 1039 1042 1049 
f 1027 1036 1050 
f 1040 1034 1050 
f 1036 1040 1050 
f 1034 1046 1050 
f 1046 1027 1050 
f 1027 1033 1051 
f 1036 1027 1051 
f 1033 1036 1051 
f 1023 1030 1052 
f 1030 1035 1052 
f 1041 1023 1052 
f 1035 1041 1052 
f 1036 1033 1053 
f 1049 1036 1053 
f 1028 1049 1053 
f 1031 1028 1054 
f 1033 1031 1054 
f 1028 1053 1054 
o convex_34
v 1.100530 224.240610 56.508199
v -22.733582 173.915884 40.614297
v -22.733582 173.915884 56.508199
v 22.290325 173.915884 40.614297
v -12.138684 218.941087 40.614297
v 22.290325 173.915884 56.508199
v 22.290325 189.814453 40.614297
v -17.436133 208.347227 56.508199
v 16.992877 208.347227 56.508199
v -4.192511 221.590849 40.614297
v -6.841235 226.890372 56.508199
v -22.733582 187.164691 40.614297
v 19.641601 203.047704 51.207639
v 3.749255 221.590849 51.207639
v 22.290325 187.164691 56.508199
v -22.733582 184.520115 56.508199
v -12.138684 221.590849 56.508199
v -20.084857 200.403128 48.561248
v 14.344152 200.403128 40.614297
v -12.138684 221.590849 48.561248
v -4.192511 226.890372 53.857141
v -6.841235 224.240610 45.914857
v -20.084857 200.403128 53.857141
v 16.992877 208.347227 53.857141
v 19.641601 203.047704 53.857141
v -4.192511 224.240610 45.914857
v -6.841235 226.890372 53.857141
v -22.733582 187.164691 48.561248
v -6.841235 221.590849 40.614297
v 22.290325 189.814453 45.914857
v 19.641601 200.403128 56.508199
v 1.100530 224.240610 53.857141
f 1080 1075 1086 
f 1057 1056 1058 
f 1058 1056 1059 
f 1055 1057 1060 
f 1057 1058 1060 
f 1060 1058 1061 
f 1058 1059 1061 
f 1057 1055 1062 
f 1055 1060 1063 
f 1061 1059 1064 
f 1062 1055 1065 
f 1056 1057 1066 
f 1059 1056 1066 
f 1060 1061 1069 
f 1063 1060 1069 
f 1057 1062 1070 
f 1066 1057 1070 
f 1062 1065 1071 
f 1059 1066 1072 
f 1061 1064 1073 
f 1067 1061 1073 
f 1064 1068 1073 
f 1062 1071 1074 
f 1071 1065 1074 
f 1059 1072 1074 
f 1072 1062 1074 
f 1065 1055 1075 
f 1070 1062 1077 
f 1062 1072 1077 
f 1055 1063 1078 
f 1063 1067 1078 
f 1067 1073 1078 
f 1073 1068 1078 
f 1061 1067 1079 
f 1067 1063 1079 
f 1068 1064 1080 
f 1064 1076 1080 
f 1080 1076 1081 
f 1059 1074 1081 
f 1074 1065 1081 
f 1065 1075 1081 
f 1076 1059 1081 
f 1075 1080 1081 
f 1066 1070 1082 
f 1072 1066 1082 
f 1070 1077 1082 
f 1077 1072 1082 
f 1064 1059 1083 
f 1059 1076 1083 
f 1076 1064 1083 
f 1069 1061 1084 
f 1061 1079 1084 
f 1079 1069 1084 
f 1063 1069 1085 
f 1079 1063 1085 
f 1069 1079 1085 
f 1075 1055 1086 
f 1055 1078 1086 
f 1078 1068 1086 
f 1068 1080 1086 
o convex_35
v 75.274407 293.115483 133.328726
v 35.539652 266.631869 106.838889
v 35.539652 266.631869 114.786359
v 75.274407 277.230500 128.028685
v 43.489715 277.227907 106.841482
v 46.134549 287.818760 122.731236
v 69.969180 279.874972 133.328726
v 67.324345 293.115483 125.381257
v 46.134549 266.631869 106.838889
v 75.274407 282.522038 125.381257
v 38.192266 279.874972 109.491503
v 54.088502 293.115483 122.733829
v 62.030785 293.115483 130.676113
v 43.489715 269.281527 120.083808
v 46.134549 266.631869 112.138931
v 38.192266 279.874972 117.431194
v 75.274407 279.874972 133.328726
v 75.274407 277.230500 125.381257
v 62.030785 274.580842 128.028685
v 56.729447 285.169103 128.028685
v 72.621793 293.115483 128.028685
v 46.134549 271.931184 106.838889
v 59.378171 293.115483 122.733829
v 48.783274 269.281527 120.083808
v 69.969180 293.115483 133.328726
v 38.192266 269.281527 117.436380
v 35.539652 269.281527 106.838889
v 56.729447 293.115483 128.028685
v 46.134549 287.818760 117.436380
v 72.621793 277.230500 130.676113
v 75.274407 293.115483 130.676113
v 59.378171 274.580842 128.028685
f 1106 1100 1118 
f 1089 1088 1095 
f 1087 1090 1096 
f 1087 1094 1098 
f 1087 1098 1099 
f 1089 1095 1101 
f 1095 1090 1101 
f 1092 1097 1102 
f 1090 1087 1103 
f 1087 1093 1103 
f 1090 1095 1104 
f 1095 1096 1104 
f 1096 1090 1104 
f 1103 1093 1105 
f 1093 1099 1106 
f 1094 1087 1107 
f 1091 1094 1107 
f 1096 1091 1107 
f 1095 1088 1108 
f 1091 1096 1108 
f 1096 1095 1108 
f 1094 1091 1109 
f 1098 1094 1109 
f 1091 1098 1109 
f 1100 1089 1110 
f 1089 1101 1110 
f 1105 1100 1110 
f 1093 1087 1111 
f 1099 1093 1111 
f 1087 1099 1111 
f 1089 1100 1112 
f 1102 1089 1112 
f 1092 1102 1112 
f 1106 1092 1112 
f 1100 1106 1112 
f 1088 1089 1113 
f 1097 1091 1113 
f 1089 1102 1113 
f 1102 1097 1113 
f 1108 1088 1113 
f 1091 1108 1113 
f 1098 1092 1114 
f 1099 1098 1114 
f 1092 1106 1114 
f 1106 1099 1114 
f 1091 1097 1115 
f 1097 1092 1115 
f 1092 1098 1115 
f 1098 1091 1115 
f 1101 1090 1116 
f 1090 1103 1116 
f 1103 1105 1116 
f 1110 1101 1116 
f 1105 1110 1116 
f 1087 1096 1117 
f 1107 1087 1117 
f 1096 1107 1117 
f 1105 1093 1118 
f 1100 1105 1118 
f 1093 1106 1118 
o convex_36
v 51.433554 258.687510 72.402101
v 77.923391 279.872639 117.434824
v 77.923391 271.925947 117.434824
v 77.923391 253.385395 93.596045
v 51.433554 258.687510 88.301967
v 75.270777 253.385395 101.534958
v 69.973328 274.573116 98.885715
v 51.433554 266.629017 85.648316
v 72.623349 271.925947 117.434824
v 56.733596 253.385395 72.402101
v 77.923391 261.334679 96.240880
v 51.433554 253.385395 77.700587
v 56.733596 266.629017 80.354238
v 77.923391 279.872639 112.136338
v 75.270777 279.872639 117.434824
v 51.433554 266.629017 80.354238
v 56.733596 256.037749 72.402101
v 56.733596 266.629017 96.240880
v 77.923391 253.385395 101.534958
v 64.678473 274.573116 98.885715
v 64.678473 266.629017 106.837852
v 72.623349 271.925947 98.885715
v 51.433554 253.385395 72.402101
v 77.923391 256.037749 93.596045
v 72.623349 274.573116 117.434824
v 77.923391 271.925947 104.188609
v 51.433554 263.984441 88.301967
v 75.270777 279.872639 112.136338
v 59.383617 269.276186 85.648316
v 54.083575 258.687510 72.402101
v 64.678473 274.573116 101.534958
v 56.733596 269.276186 85.648316
f 1138 1147 1150 
f 1120 1121 1122 
f 1119 1123 1126 
f 1121 1120 1127 
f 1124 1121 1127 
f 1122 1124 1128 
f 1120 1122 1129 
f 1123 1119 1130 
f 1124 1123 1130 
f 1128 1124 1130 
f 1120 1129 1132 
f 1127 1120 1133 
f 1120 1132 1133 
f 1119 1126 1134 
f 1131 1119 1134 
f 1128 1119 1135 
f 1122 1128 1135 
f 1133 1126 1136 
f 1122 1121 1137 
f 1121 1124 1137 
f 1124 1122 1137 
f 1132 1125 1138 
f 1134 1126 1138 
f 1123 1124 1139 
f 1124 1127 1139 
f 1136 1123 1139 
f 1127 1136 1139 
f 1131 1125 1140 
f 1125 1132 1140 
f 1129 1135 1140 
f 1135 1131 1140 
f 1119 1128 1141 
f 1130 1119 1141 
f 1128 1130 1141 
f 1129 1122 1142 
f 1122 1135 1142 
f 1135 1129 1142 
f 1127 1133 1143 
f 1136 1127 1143 
f 1133 1136 1143 
f 1132 1129 1144 
f 1140 1132 1144 
f 1129 1140 1144 
f 1126 1123 1145 
f 1123 1136 1145 
f 1136 1126 1145 
f 1133 1132 1146 
f 1132 1138 1146 
f 1138 1133 1146 
f 1125 1131 1147 
f 1131 1134 1147 
f 1138 1125 1147 
f 1119 1131 1148 
f 1135 1119 1148 
f 1131 1135 1148 
f 1126 1133 1149 
f 1138 1126 1149 
f 1133 1138 1149 
f 1134 1138 1150 
f 1147 1134 1150 
o convex_37
v 43.483549 218.953326 -4.418685
v -1.546120 269.274723 -9.715097
v -1.546120 269.274723 -4.420500
v 43.483549 205.703688 -1.770480
v 9.057882 269.274723 -17.663345
v 11.699548 261.327533 -1.770480
v 14.350548 250.735602 -15.011509
v 40.832549 221.598067 0.879541
v 24.945215 232.196481 0.879541
v 40.832549 216.302102 -7.066891
v 6.406881 271.925947 -9.715097
v 1.109548 269.274723 -17.663345
v 1.109548 263.972275 -1.770480
v 11.699548 266.623499 -12.363303
v 3.755881 269.274723 -1.770480
v 46.134549 205.703688 0.879541
v 1.109548 263.972275 -7.068706
v 32.884215 221.604550 -7.066891
v 46.134549 213.657360 -4.418685
v 1.109548 271.925947 -17.663345
v -1.546120 271.925947 -4.420500
v 35.539882 216.302102 0.879541
v 32.884215 234.841223 -9.715097
v 32.884215 232.196481 0.879541
v 9.057882 263.972275 -17.663345
v 46.134549 213.657360 0.879541
v 9.057882 266.623499 -4.420500
v 43.483549 208.354912 -4.418685
v 11.699548 253.386826 -15.011509
v 30.237881 226.900515 -9.715097
v 32.884215 234.841223 -4.420500
v 46.134549 208.354912 -4.418685
f 1154 1178 1182 
f 1153 1152 1163 
f 1155 1161 1164 
f 1163 1159 1165 
f 1158 1159 1166 
f 1152 1162 1167 
f 1163 1152 1167 
f 1154 1167 1168 
f 1161 1155 1170 
f 1162 1152 1170 
f 1155 1162 1170 
f 1152 1153 1171 
f 1153 1163 1171 
f 1165 1161 1171 
f 1163 1165 1171 
f 1170 1152 1171 
f 1161 1170 1171 
f 1159 1163 1172 
f 1166 1159 1172 
f 1154 1166 1172 
f 1167 1154 1172 
f 1163 1167 1172 
f 1160 1155 1173 
f 1164 1151 1173 
f 1155 1164 1173 
f 1151 1169 1173 
f 1169 1160 1173 
f 1159 1158 1174 
f 1156 1165 1174 
f 1165 1159 1174 
f 1155 1160 1175 
f 1157 1162 1175 
f 1162 1155 1175 
f 1158 1166 1176 
f 1169 1151 1176 
f 1166 1169 1176 
f 1164 1161 1177 
f 1165 1156 1177 
f 1161 1165 1177 
f 1174 1158 1177 
f 1156 1174 1177 
f 1162 1157 1179 
f 1167 1162 1179 
f 1168 1167 1179 
f 1168 1179 1180 
f 1154 1168 1180 
f 1175 1160 1180 
f 1157 1175 1180 
f 1160 1178 1180 
f 1178 1154 1180 
f 1179 1157 1180 
f 1151 1164 1181 
f 1176 1151 1181 
f 1158 1176 1181 
f 1177 1158 1181 
f 1164 1177 1181 
f 1166 1154 1182 
f 1160 1169 1182 
f 1169 1166 1182 
f 1178 1160 1182 
o convex_38
v -9.493071 176.567719 16.770073
v 9.049296 176.566682 22.071411
v 9.049296 173.916921 22.071411
v 3.751218 179.213333 -17.663345
v 1.101271 184.510781 22.071411
v 1.103086 173.916921 -17.663345
v -9.493071 173.917958 22.071411
v 1.103086 179.213333 -17.663345
v 3.751218 184.510781 14.121348
v 1.101271 184.510781 14.121348
v 3.751218 173.916921 -17.663345
v 9.049296 176.566682 16.770073
v 1.103086 181.862057 -4.419723
v 3.751218 184.510781 22.071411
v -9.493071 173.917958 16.770073
v -9.493071 176.567719 22.071411
v 3.751218 181.862057 -4.419723
v 9.049296 173.916921 16.770073
v 3.751218 173.916921 22.071411
v 1.103086 173.916921 -1.770998
f 1188 1201 1202 
f 1185 1184 1187 
f 1185 1187 1189 
f 1186 1188 1190 
f 1183 1187 1192 
f 1187 1191 1192 
f 1185 1188 1193 
f 1188 1186 1193 
f 1184 1185 1194 
f 1191 1184 1194 
f 1193 1186 1194 
f 1190 1183 1195 
f 1186 1190 1195 
f 1192 1191 1195 
f 1183 1192 1195 
f 1187 1184 1196 
f 1184 1191 1196 
f 1191 1187 1196 
f 1189 1183 1197 
f 1188 1189 1197 
f 1183 1190 1197 
f 1190 1188 1197 
f 1187 1183 1198 
f 1183 1189 1198 
f 1189 1187 1198 
f 1191 1194 1199 
f 1194 1186 1199 
f 1186 1195 1199 
f 1195 1191 1199 
f 1185 1193 1200 
f 1194 1185 1200 
f 1193 1194 1200 
f 1188 1185 1201 
f 1185 1189 1201 
f 1201 1189 1202 
f 1189 1188 1202 
o convex_39
v -12.142055 25.581094 -65.346866
v -28.035957 4.380927 -81.236360
v -28.035957 4.380927 -65.346866
v -25.382824 57.360601 -83.886122
v -6.844087 4.380927 -81.236360
v -9.495145 57.360601 -67.996628
v -6.844087 57.360601 -83.886122
v -25.382824 57.360601 -67.996628
v -6.844087 4.380927 -65.346866
v -22.735915 12.336176 -83.886122
v -6.844087 57.360601 -70.644574
v -12.142055 12.336176 -83.886122
v -28.035957 7.036134 -65.346866
v -25.382824 14.981011 -65.346866
v -6.844087 9.680969 -65.346866
v -28.035957 7.036134 -81.236360
v -9.495145 25.581094 -65.346866
v -25.382824 44.115682 -83.886122
v -6.844087 54.705394 -83.886122
f 1214 1209 1221 
f 1205 1204 1207 
f 1206 1208 1209 
f 1203 1208 1210 
f 1208 1206 1210 
f 1203 1205 1211 
f 1205 1207 1211 
f 1207 1209 1211 
f 1207 1204 1212 
f 1206 1209 1212 
f 1209 1208 1213 
f 1211 1209 1213 
f 1207 1212 1214 
f 1212 1209 1214 
f 1205 1203 1215 
f 1204 1205 1215 
f 1210 1206 1215 
f 1210 1215 1216 
f 1203 1210 1216 
f 1215 1203 1216 
f 1203 1211 1217 
f 1213 1208 1217 
f 1211 1213 1217 
f 1206 1204 1218 
f 1204 1215 1218 
f 1215 1206 1218 
f 1208 1203 1219 
f 1203 1217 1219 
f 1217 1208 1219 
f 1204 1206 1220 
f 1212 1204 1220 
f 1206 1212 1220 
f 1209 1207 1221 
f 1207 1214 1221 
o convex_40
v 6.402906 7.029133 -75.937097
v 27.590626 9.678894 -49.454779
v 24.940087 9.678894 -49.454779
v 9.053445 -0.916003 -46.805536
v 27.590626 -0.916003 -81.235582
v 24.940087 9.678894 -81.235582
v 6.402906 -0.916003 -81.235582
v 27.590626 -0.916003 -54.753265
v 9.053445 9.678894 -62.700993
v 6.402906 1.733758 -46.805536
v 9.053445 9.678894 -81.235582
v 27.590626 9.678894 -73.287854
v 27.590626 7.029133 -49.454779
v 6.402906 -0.916003 -46.805536
v 27.590626 7.029133 -81.235582
v 6.402906 4.381446 -81.235582
v 6.402906 4.381446 -57.402508
v 9.053445 1.733758 -46.805536
v 6.402906 7.029133 -73.287854
f 1238 1230 1240 
f 1224 1223 1227 
f 1226 1225 1228 
f 1227 1226 1228 
f 1225 1226 1229 
f 1226 1223 1229 
f 1224 1227 1230 
f 1222 1228 1231 
f 1224 1230 1231 
f 1227 1228 1232 
f 1222 1230 1232 
f 1230 1227 1232 
f 1223 1226 1233 
f 1227 1223 1233 
f 1223 1225 1234 
f 1229 1223 1234 
f 1225 1229 1234 
f 1228 1225 1235 
f 1225 1231 1235 
f 1231 1228 1235 
f 1226 1227 1236 
f 1233 1226 1236 
f 1227 1233 1236 
f 1228 1222 1237 
f 1222 1232 1237 
f 1232 1228 1237 
f 1222 1231 1238 
f 1231 1230 1238 
f 1223 1224 1239 
f 1225 1223 1239 
f 1224 1231 1239 
f 1231 1225 1239 
f 1230 1222 1240 
f 1222 1238 1240 
o convex_41
v 9.049556 1.731943 48.561248
v 6.401090 -0.917040 -46.802165
v 6.401090 1.731943 -46.802165
v 9.049556 -0.917040 -46.802165
v 6.401090 -0.917040 48.561248
v 9.049556 1.731943 -46.802165
v 6.401090 1.731943 48.561248
v 9.049556 -0.917040 48.561248
f 1245 1244 1248 
f 1242 1243 1244 
f 1243 1242 1245 
f 1242 1244 1245 
f 1243 1241 1246 
f 1244 1243 1246 
f 1241 1244 1246 
f 1241 1243 1247 
f 1245 1241 1247 
f 1243 1245 1247 
f 1244 1241 1248 
f 1241 1245 1248 
o convex_42
v 27.592701 57.360601 -67.996628
v 9.049815 9.678894 -70.644574
v 9.049815 9.678894 -65.346866
v 9.049815 57.360601 -83.886122
v 24.942680 9.678894 -81.236360
v 27.592701 9.678894 -65.346866
v 9.049815 57.360601 -67.996628
v 24.942680 57.360601 -83.886122
v 11.699836 12.329952 -83.886122
v 27.592701 9.678894 -70.644574
v 22.292659 12.329952 -83.886122
v 27.592701 14.981011 -65.346866
v 9.049815 44.109978 -83.886122
v 11.699836 9.678894 -81.236360
v 27.592701 57.360601 -70.644574
v 9.049815 14.981011 -65.346866
v 24.942680 46.756369 -83.886122
f 1259 1256 1265 
f 1250 1251 1252 
f 1251 1250 1253 
f 1251 1253 1254 
f 1252 1251 1255 
f 1249 1252 1255 
f 1252 1249 1256 
f 1252 1256 1257 
f 1249 1254 1258 
f 1254 1253 1258 
f 1253 1257 1259 
f 1257 1256 1259 
f 1254 1249 1260 
f 1251 1254 1260 
f 1249 1255 1260 
f 1250 1252 1261 
f 1257 1250 1261 
f 1252 1257 1261 
f 1253 1250 1262 
f 1257 1253 1262 
f 1250 1257 1262 
f 1256 1249 1263 
f 1249 1258 1263 
f 1258 1256 1263 
f 1255 1251 1264 
f 1251 1260 1264 
f 1260 1255 1264 
f 1258 1253 1265 
f 1256 1258 1265 
f 1253 1259 1265 
o convex_43
v -1.547157 211.003093 40.614297
v -4.195882 192.458770 -9.716393
v 1.101567 192.458770 -9.716393
v 1.101567 208.350645 -9.716393
v -12.142055 216.296582 35.313218
v -4.197178 203.060008 35.313218
v -9.492034 197.763667 -7.060927
v -4.197178 221.592923 37.963757
v 1.102864 205.706752 37.963757
v -12.142055 211.003093 37.963757
v -1.548454 208.350645 -9.716393
v -4.195882 192.458770 -1.764775
v -9.492034 203.054304 -4.410388
v 1.101567 192.458770 -1.764775
v -6.842013 221.592923 40.614297
v 1.102864 208.353497 37.963757
v -4.197178 205.706752 40.614297
v -12.142055 216.296582 40.614297
v 1.102864 203.060008 35.313218
v -6.842013 221.592923 37.963757
v -6.840716 203.054304 -9.716393
v -9.492034 197.763667 -1.764775
v -9.492034 218.943327 35.313218
v -9.492034 205.703900 0.880838
v -9.492034 203.062860 19.419834
v -4.197178 221.592923 40.614297
v -12.142055 211.003093 32.662678
v -9.492034 208.353497 37.963757
v -12.142055 213.646986 40.614297
v -1.547157 205.706752 40.614297
v -6.840716 195.111218 -9.716393
v -9.492034 200.407559 -7.060927
f 1272 1292 1297 
f 1268 1267 1269 
f 1269 1267 1276 
f 1273 1269 1276 
f 1267 1268 1277 
f 1272 1267 1277 
f 1277 1268 1279 
f 1271 1277 1279 
f 1269 1273 1281 
f 1266 1274 1281 
f 1266 1280 1282 
f 1282 1280 1283 
f 1270 1275 1283 
f 1280 1270 1283 
f 1268 1269 1284 
f 1279 1268 1284 
f 1271 1279 1284 
f 1269 1281 1284 
f 1281 1274 1284 
f 1282 1271 1284 
f 1273 1276 1285 
f 1280 1273 1285 
f 1270 1280 1285 
f 1276 1267 1286 
f 1275 1272 1287 
f 1272 1277 1287 
f 1270 1285 1288 
f 1285 1276 1288 
f 1278 1270 1289 
f 1276 1286 1289 
f 1286 1278 1289 
f 1270 1288 1289 
f 1288 1276 1289 
f 1275 1287 1290 
f 1287 1277 1290 
f 1280 1266 1291 
f 1273 1280 1291 
f 1266 1281 1291 
f 1281 1273 1291 
f 1275 1270 1292 
f 1272 1275 1292 
f 1277 1271 1293 
f 1271 1282 1293 
f 1275 1290 1293 
f 1290 1277 1293 
f 1282 1283 1294 
f 1283 1275 1294 
f 1293 1282 1294 
f 1275 1293 1294 
f 1274 1266 1295 
f 1266 1282 1295 
f 1284 1274 1295 
f 1282 1284 1295 
f 1267 1272 1296 
f 1286 1267 1296 
f 1272 1286 1296 
f 1270 1278 1297 
f 1286 1272 1297 
f 1278 1286 1297 
f 1292 1270 1297 
o convex_44
v 19.644453 17.624030 51.211010
v 30.241684 4.385076 77.700069
v 30.241684 -0.914707 77.700069
v 6.400831 -0.914707 77.700069
v 19.644453 22.923813 77.700069
v 6.400831 -0.914707 48.561248
v 11.700614 22.923813 56.513385
v 24.941902 -0.914707 56.513385
v 24.941902 22.923813 61.807204
v 9.051889 17.624030 69.747932
v 24.941902 4.385076 53.863623
v 24.941902 22.923813 77.700069
v 14.349338 22.923813 51.211010
v 6.400831 4.385076 77.700069
v 30.241684 4.385076 72.397693
v 6.400831 1.736351 48.561248
v 19.644453 22.923813 51.211010
v 9.051889 -0.914707 48.561248
v 9.051889 17.624030 59.157442
v 24.941902 14.975306 56.513385
v 11.700614 22.923813 64.451261
v 27.590626 -0.914707 61.807204
v 27.590626 7.033800 61.807204
v 27.590626 14.975306 67.101022
v 6.400831 4.385076 56.513385
v 30.241684 -0.914707 72.397693
v 24.941902 20.272755 59.157442
v 27.590626 14.975306 77.700069
v 24.941902 7.033800 53.863623
v 27.590626 12.326582 64.451261
v 22.293178 20.272755 53.863623
v 9.051889 1.736351 48.561248
f 1314 1315 1329 
f 1300 1299 1301 
f 1301 1299 1302 
f 1300 1301 1303 
f 1300 1303 1305 
f 1304 1302 1306 
f 1302 1299 1309 
f 1306 1302 1309 
f 1304 1306 1310 
f 1301 1302 1311 
f 1303 1301 1311 
f 1302 1307 1311 
f 1299 1300 1312 
f 1304 1310 1313 
f 1303 1311 1313 
f 1308 1298 1314 
f 1310 1306 1314 
f 1313 1310 1314 
f 1305 1303 1315 
f 1298 1308 1315 
f 1308 1305 1315 
f 1303 1313 1315 
f 1314 1298 1315 
f 1307 1304 1316 
f 1311 1307 1316 
f 1304 1313 1316 
f 1302 1304 1318 
f 1307 1302 1318 
f 1304 1307 1318 
f 1300 1305 1319 
f 1305 1308 1319 
f 1312 1319 1320 
f 1319 1308 1320 
f 1306 1309 1321 
f 1299 1312 1321 
f 1313 1311 1322 
f 1311 1316 1322 
f 1316 1313 1322 
f 1312 1300 1323 
f 1300 1319 1323 
f 1319 1312 1323 
f 1314 1306 1324 
f 1320 1317 1324 
f 1309 1299 1325 
f 1299 1321 1325 
f 1321 1309 1325 
f 1308 1314 1326 
f 1317 1320 1326 
f 1320 1308 1326 
f 1312 1320 1327 
f 1306 1321 1327 
f 1321 1312 1327 
f 1324 1306 1327 
f 1320 1324 1327 
f 1314 1324 1328 
f 1324 1317 1328 
f 1326 1314 1328 
f 1317 1326 1328 
f 1313 1314 1329 
f 1315 1313 1329 
o convex_45
v -1.544823 75.921378 -118.321614
v 1.101567 173.915884 -89.185904
v 1.101567 173.915884 -91.835925
v 11.698799 70.616669 -94.489576
v -12.142055 105.057346 -89.185904
v 1.101567 139.463799 -126.271676
v -12.142055 152.708458 -94.489576
v -12.142055 83.861328 -110.371551
v 9.047740 155.355108 -89.185904
v -1.544823 57.383418 -105.086030
v 9.047740 91.812687 -110.371551
v -4.193548 139.463799 -123.621655
v 9.047740 78.568028 -89.185904
v -1.544823 97.105987 -126.271676
v 9.047740 155.355108 -97.135967
v -1.544823 168.599767 -105.086030
v 1.101567 57.383418 -110.371551
v 3.750292 97.105987 -123.621655
v 9.047740 115.643947 -110.371551
v -12.142055 152.708458 -89.185904
v 11.698799 70.616669 -99.782358
v 1.101567 163.306467 -110.371551
v 11.698799 89.166037 -89.185904
v -4.193548 60.030068 -105.086030
v 3.750292 131.523848 -123.621655
v -12.142055 128.865790 -102.436009
v -4.193548 165.953117 -105.086030
v -1.544823 173.915884 -91.835925
v -1.544823 57.383418 -110.371551
v -4.193548 94.459337 -123.621655
v -12.142055 83.861328 -105.086030
v 1.101567 97.105987 -126.271676
f 1335 1347 1361 
f 1334 1336 1337 
f 1332 1331 1338 
f 1331 1334 1338 
f 1338 1334 1342 
f 1339 1333 1342 
f 1341 1335 1343 
f 1332 1338 1344 
f 1333 1339 1346 
f 1340 1347 1348 
f 1334 1331 1349 
f 1336 1334 1349 
f 1333 1346 1350 
f 1346 1347 1350 
f 1347 1340 1350 
f 1340 1348 1350 
f 1348 1344 1350 
f 1335 1341 1351 
f 1332 1344 1351 
f 1344 1335 1351 
f 1345 1332 1351 
f 1341 1345 1351 
f 1342 1333 1352 
f 1338 1342 1352 
f 1344 1338 1352 
f 1333 1350 1352 
f 1350 1344 1352 
f 1342 1334 1353 
f 1339 1342 1353 
f 1335 1344 1354 
f 1347 1335 1354 
f 1348 1347 1354 
f 1344 1348 1354 
f 1337 1336 1355 
f 1336 1341 1355 
f 1341 1337 1355 
f 1341 1336 1356 
f 1345 1341 1356 
f 1331 1332 1357 
f 1332 1345 1357 
f 1349 1331 1357 
f 1336 1349 1357 
f 1356 1336 1357 
f 1345 1356 1357 
f 1330 1346 1358 
f 1346 1339 1358 
f 1353 1337 1358 
f 1339 1353 1358 
f 1337 1341 1359 
f 1343 1330 1359 
f 1341 1343 1359 
f 1330 1358 1359 
f 1358 1337 1359 
f 1334 1337 1360 
f 1353 1334 1360 
f 1337 1353 1360 
f 1330 1343 1361 
f 1343 1335 1361 
f 1346 1330 1361 
f 1347 1346 1361 
o convex_46
v 30.241684 78.547804 67.095836
v 9.051889 57.364231 48.567471
v -1.546120 91.792981 35.316329
v -1.546120 94.446373 77.700069
v 27.590626 94.446373 43.265355
v 9.051889 57.364231 77.700069
v 24.942680 57.364231 51.214380
v 30.241684 94.446373 69.746894
v -1.546120 81.197565 75.049011
v 27.590626 57.364231 64.453076
v 14.347782 57.364231 77.700069
v 27.590626 83.847327 43.265355
v -1.546120 94.446373 35.316329
v 22.294733 57.364231 48.567471
v 6.400831 91.792981 77.700069
v 30.241684 91.792981 53.861290
v 27.590626 60.013993 56.508199
v 1.104938 91.792981 35.316329
v 14.347782 62.663754 77.700069
v -1.546120 81.197565 72.393804
v 30.241684 89.143220 69.746894
v 14.347782 94.446373 75.049011
v 6.400831 62.663754 72.393804
v 30.241684 94.446373 53.861290
v 30.241684 78.547804 64.453076
v -1.546120 91.792981 77.700069
v 27.590626 57.364231 59.155108
v 1.104938 94.446373 35.316329
v 3.752885 94.446373 77.700069
v 6.400831 62.663754 67.095836
v 27.590626 78.547804 45.916413
v 24.942680 62.663754 48.567471
f 1375 1373 1393 
f 1367 1363 1368 
f 1366 1365 1369 
f 1365 1364 1370 
f 1367 1368 1371 
f 1365 1367 1372 
f 1367 1371 1372 
f 1364 1365 1374 
f 1365 1366 1374 
f 1363 1364 1375 
f 1368 1363 1375 
f 1365 1372 1376 
f 1369 1362 1377 
f 1373 1366 1377 
f 1366 1373 1379 
f 1364 1374 1379 
f 1375 1364 1379 
f 1373 1375 1379 
f 1372 1369 1380 
f 1376 1372 1380 
f 1364 1363 1381 
f 1370 1364 1381 
f 1362 1369 1382 
f 1371 1362 1382 
f 1369 1372 1382 
f 1372 1371 1382 
f 1369 1365 1383 
f 1380 1369 1383 
f 1376 1380 1383 
f 1367 1370 1384 
f 1366 1369 1385 
f 1369 1377 1385 
f 1377 1366 1385 
f 1362 1371 1386 
f 1377 1362 1386 
f 1378 1377 1386 
f 1367 1365 1387 
f 1365 1370 1387 
f 1370 1367 1387 
f 1371 1368 1388 
f 1368 1378 1388 
f 1386 1371 1388 
f 1378 1386 1388 
f 1374 1366 1389 
f 1366 1379 1389 
f 1379 1374 1389 
f 1365 1376 1390 
f 1383 1365 1390 
f 1376 1383 1390 
f 1363 1367 1391 
f 1381 1363 1391 
f 1370 1381 1391 
f 1367 1384 1391 
f 1384 1370 1391 
f 1368 1373 1392 
f 1373 1377 1392 
f 1377 1378 1392 
f 1378 1368 1392 
f 1373 1368 1393 
f 1368 1375 1393 
o convex_47
v -14.792076 205.703688 -20.312328
v -38.631892 173.915884 -70.643019
v -35.981871 173.915884 -70.643019
v -38.631892 205.703688 -49.443629
v -12.142055 184.513893 -44.162257
v -14.792076 173.915884 -41.511717
v -38.631892 200.401572 -44.162257
v -28.031808 205.703688 -44.162257
v -35.981871 179.218000 -70.643019
v -12.142055 205.703688 -28.263947
v -12.142055 173.915884 -49.443629
v -38.631892 173.915884 -65.341940
v -14.792076 203.052630 -20.312328
v -12.142055 203.052630 -20.312328
v -28.031808 179.218000 -49.443629
v -28.031808 176.566942 -65.341940
v -35.981871 197.756737 -57.390321
v -38.631892 205.703688 -44.162257
v -12.142055 173.915884 -41.511717
v -14.792076 195.105679 -25.613407
v -12.142055 192.454621 -38.856251
v -38.631892 179.218000 -70.643019
v -38.631892 179.218000 -60.045787
v -12.142055 176.566942 -49.443629
v -22.742138 197.756737 -30.909560
v -17.442097 176.566942 -41.511717
v -28.031808 173.915884 -65.341940
v -14.792076 203.052630 -33.565026
v -38.631892 197.756737 -57.390321
v -35.981871 205.703688 -49.443629
v -33.331850 187.164951 -62.691400
v -12.142055 205.703688 -20.312328
f 1407 1403 1425 
f 1395 1396 1399 
f 1397 1395 1400 
f 1397 1394 1401 
f 1396 1395 1402 
f 1401 1394 1403 
f 1399 1396 1404 
f 1398 1403 1404 
f 1395 1399 1405 
f 1400 1395 1405 
f 1404 1403 1407 
f 1394 1406 1407 
f 1405 1399 1408 
f 1396 1402 1409 
f 1394 1397 1411 
f 1397 1400 1411 
f 1406 1394 1411 
f 1400 1406 1411 
f 1399 1404 1412 
f 1404 1407 1412 
f 1412 1407 1413 
f 1407 1406 1413 
f 1399 1412 1413 
f 1403 1398 1414 
f 1398 1409 1414 
f 1395 1397 1415 
f 1402 1395 1415 
f 1410 1402 1415 
f 1400 1405 1416 
f 1405 1408 1416 
f 1408 1400 1416 
f 1398 1404 1417 
f 1409 1398 1417 
f 1406 1400 1418 
f 1400 1408 1418 
f 1413 1406 1418 
f 1413 1418 1419 
f 1408 1399 1419 
f 1399 1413 1419 
f 1418 1408 1419 
f 1404 1396 1420 
f 1396 1409 1420 
f 1417 1404 1420 
f 1409 1417 1420 
f 1401 1403 1421 
f 1403 1414 1421 
f 1414 1401 1421 
f 1397 1410 1422 
f 1415 1397 1422 
f 1410 1415 1422 
f 1397 1401 1423 
f 1410 1397 1423 
f 1401 1410 1423 
f 1409 1402 1424 
f 1410 1401 1424 
f 1402 1410 1424 
f 1401 1414 1424 
f 1414 1409 1424 
f 1403 1394 1425 
f 1394 1407 1425 
o convex_48
v -35.976893 218.947782 -33.556469
v 14.343634 216.301037 6.172064
v 14.343634 213.654293 6.172064
v -9.489130 229.540464 6.172064
v -38.631892 208.357952 -30.904633
v -35.976893 205.708355 -49.451149
v -1.550061 234.842509 3.525673
v -14.788757 205.708355 -17.667234
v -14.783571 221.600230 0.873837
v -30.682452 216.298185 -38.849250
v 14.343634 216.301037 3.525673
v -12.144129 205.708355 -25.611851
v 6.394193 213.654293 6.172064
v -6.844502 234.842509 6.172064
v -38.631892 216.298185 -41.501086
v -6.844502 232.190060 -4.424390
v -14.783571 226.890867 0.873837
v -35.976893 208.357952 -49.451149
v -38.631892 205.708355 -41.501086
v -30.682452 221.594526 -30.904633
v -38.631892 211.004696 -30.904633
v -9.489130 224.244123 6.172064
v -12.144129 232.190060 -4.424390
v -1.550061 229.540464 -1.772554
v -38.631892 208.357952 -49.451149
v -1.550061 234.842509 6.172064
v -17.428199 229.540464 -7.065335
v -30.682452 218.947782 -36.202860
v 14.343634 213.654293 3.525673
v -12.144129 205.708355 -17.667234
v -12.144129 208.357952 -25.611851
v 3.744380 229.540464 3.525673
f 1432 1451 1457 
f 1428 1427 1429 
f 1427 1428 1436 
f 1433 1431 1437 
f 1428 1429 1438 
f 1433 1428 1438 
f 1430 1433 1438 
f 1434 1430 1438 
f 1429 1427 1439 
f 1434 1429 1442 
f 1430 1434 1442 
f 1429 1439 1442 
f 1435 1436 1443 
f 1437 1431 1443 
f 1433 1430 1444 
f 1431 1433 1444 
f 1430 1440 1444 
f 1440 1426 1445 
f 1426 1440 1446 
f 1440 1430 1446 
f 1430 1442 1446 
f 1429 1434 1447 
f 1438 1429 1447 
f 1434 1438 1447 
f 1439 1432 1448 
f 1432 1441 1448 
f 1445 1426 1448 
f 1441 1445 1448 
f 1436 1435 1449 
f 1435 1441 1449 
f 1443 1431 1450 
f 1440 1443 1450 
f 1444 1440 1450 
f 1431 1444 1450 
f 1439 1427 1451 
f 1432 1439 1451 
f 1442 1439 1452 
f 1426 1446 1452 
f 1446 1442 1452 
f 1448 1426 1452 
f 1439 1448 1452 
f 1441 1435 1453 
f 1435 1443 1453 
f 1443 1440 1453 
f 1440 1445 1453 
f 1445 1441 1453 
f 1436 1428 1454 
f 1437 1436 1454 
f 1428 1437 1454 
f 1428 1433 1455 
f 1437 1428 1455 
f 1433 1437 1455 
f 1436 1437 1456 
f 1443 1436 1456 
f 1437 1443 1456 
f 1427 1436 1457 
f 1441 1432 1457 
f 1436 1449 1457 
f 1449 1441 1457 
f 1451 1427 1457 
o convex_49
v -6.839939 210.994171 -17.663345
v -12.142055 173.920292 -36.206230
v 3.751847 173.920292 -36.206230
v 1.103901 173.920292 -17.663345
v 19.645750 176.565092 -17.663345
v -1.540934 192.465010 -36.206230
v -12.142055 173.920292 -22.963386
v -12.142055 213.650639 -17.663345
v -12.142055 192.465010 -36.206230
v 19.645750 176.565092 -20.313365
v -9.490997 213.650639 -20.313365
v 19.645750 173.920292 -17.663345
v -12.142055 203.048101 -17.663345
v -6.839939 210.994171 -20.313365
v 1.103901 187.167630 -36.206230
v -1.540934 195.109810 -33.556210
v -12.142055 213.650639 -20.313365
v 11.695687 187.167630 -20.313365
v 19.645750 173.920292 -20.313365
v 3.751847 176.565092 -36.206230
v 11.695687 187.167630 -17.663345
v -9.490997 213.650639 -17.663345
f 1468 1465 1479 
f 1459 1460 1461 
f 1458 1461 1462 
f 1460 1459 1463 
f 1459 1461 1464 
f 1461 1458 1465 
f 1459 1464 1465 
f 1463 1459 1466 
f 1459 1465 1466 
f 1463 1466 1468 
f 1461 1460 1469 
f 1462 1461 1469 
f 1467 1462 1469 
f 1464 1461 1470 
f 1461 1465 1470 
f 1465 1464 1470 
f 1468 1458 1471 
f 1460 1463 1472 
f 1463 1467 1472 
f 1467 1463 1473 
f 1463 1468 1473 
f 1468 1471 1473 
f 1466 1465 1474 
f 1465 1468 1474 
f 1468 1466 1474 
f 1462 1467 1475 
f 1467 1473 1475 
f 1473 1471 1475 
f 1460 1467 1476 
f 1469 1460 1476 
f 1467 1469 1476 
f 1467 1460 1477 
f 1460 1472 1477 
f 1472 1467 1477 
f 1458 1462 1478 
f 1471 1458 1478 
f 1462 1475 1478 
f 1475 1471 1478 
f 1465 1458 1479 
f 1458 1468 1479 
