v 8.774957081001993 210.97856489229127 -6.199368468318845
v 0.3541809840235892 212.57654559532614 -3.6069587493571618
v 7.49850262241052 210.420798128498 0.8099860639466314
v 0.3541809840235892 212.57654559532614 -3.6069587493571618
v 5.938260315920831 211.27155950422423 -10.40123325747156
v 0.4246784942404158 211.4823779334414 -12.447583446716365
v 6.697104371131178 187.90609428681927 -5.744329134022848
v 0.3953568003115957 184.36255906230875 -8.775076590844392
v 7.237583048716178 190.31034866789963 -13.297700978342192
v 0.2744874839907152 183.03043447857158 6.381814603245502
v 0.3953568003115957 184.36255906230875 -8.775076590844392
v 6.002174277565076 184.81483181109982 3.9674840512584666
v 7.237583048716178 190.31034866789963 -13.297700978342192
v 0.3953568003115957 184.36255906230875 -8.775076590844392
v 0.45322044300733877 190.2990844296448 -16.03024853455487
v 11.464648409446378 202.40304091801815 -7.86268216876816
v 10.427362525319234 193.87406674722186 -6.975438392052396
v 7.237583048716178 190.31034866789963 -13.297700978342192
v 7.671041906795219 202.67893998436756 -14.782066560883436
v 10.427362525319234 193.87406674722186 -6.975438392052396
v 11.464648409446378 202.40304091801815 -7.86268216876816
v 9.780704709081258 201.62120377347847 1.3810740849719423
v 7.924915047440395 192.71114410264272 2.835647726014791
v 7.924915047440395 192.71114410264272 2.835647726014791
v 9.780704709081258 201.62120377347847 1.3810740849719423
v 0.26398855609156646 200.65454093040222 7.701285290726773
v 2.114704449757508 192.29467167446057 6.5627375415336715
v 7.671041906795219 202.67893998436756 -14.782066560883436
v 7.237583048716178 190.31034866789963 -13.297700978342192
v 0.45322044300733877 190.2990844296448 -16.03024853455487
v 0.4648145217003328 202.2424218900677 -17.482192431349873
v 8.774957081001993 210.97856489229127 -6.199368468318845
v 11.464648409446378 202.40304091801815 -7.86268216876816
v 7.671041906795219 202.67893998436756 -14.782066560883436
v 5.938260315920831 211.27155950422423 -10.40123325747156
v 7.49850262241052 210.420798128498 0.8099860639466314
v 9.780704709081258 201.62120377347847 1.3810740849719423
v 11.464648409446378 202.40304091801815 -7.86268216876816
v 8.774957081001993 210.97856489229127 -6.199368468318845
v 0.2759627295557845 210.0380018382786 6.201256470763653
v 0.26398855609156646 200.65454093040222 7.701285290726773
v 9.780704709081258 201.62120377347847 1.3810740849719423
v 7.49850262241052 210.420798128498 0.8099860639466314
v 0.4648145217003328 202.2424218900677 -17.482192431349873
v 0.4246784942404158 211.4823779334414 -12.447583446716365
v 5.938260315920831 211.27155950422423 -10.40123325747156
v 7.671041906795219 202.67893998436756 -14.782066560883436
v 0.26398855609156646 200.65454093040222 7.701285290726773
v 0.24363202511019066 191.9137218551541 10.252574152736983
v 2.114704449757508 192.29467167446057 6.5627375415336715
v 0.24363202511019066 191.9137218551541 10.252574152736983
v 0.26997446523491364 190.59305697319965 6.948993771928528
v 2.114704449757508 192.29467167446057 6.5627375415336715
v 6.002174277565076 184.81483181109982 3.9674840512584666
v 7.924915047440395 192.71114410264272 2.835647726014791
v 2.114704449757508 192.29467167446057 6.5627375415336715
v 0.26997446523491364 190.59305697319965 6.948993771928528
v 0.2744874839907152 183.03043447857158 6.381814603245502
v 0.2759627295557845 210.0380018382786 6.201256470763653
v 7.49850262241052 210.420798128498 0.8099860639466314
v 0.3541809840235892 212.57654559532614 -3.6069587493571618
v 0.3541809840235892 212.57654559532614 -3.6069587493571618
v 8.774957081001993 210.97856489229127 -6.199368468318845
v 5.938260315920831 211.27155950422423 -10.40123325747156
v 7.237583048716178 190.31034866789963 -13.297700978342192
v 10.427362525319234 193.87406674722186 -6.975438392052396
v 6.697104371131178 187.90609428681927 -5.744329134022848
v 6.002174277565076 184.81483181109982 3.9674840512584666
v 10.427362525319234 193.87406674722186 -6.975438392052396
v 7.924915047440395 192.71114410264272 2.835647726014791
v 6.697104371131178 187.90609428681927 -5.744329134022848
v 10.427362525319234 193.87406674722186 -6.975438392052396
v 6.002174277565076 184.81483181109982 3.9674840512584666
v 6.002174277565076 184.81483181109982 3.9674840512584666
v 0.3953568003115957 184.36255906230875 -8.775076590844392
v 6.697104371131178 187.90609428681927 -5.744329134022848
v -8.024191150696451 210.9785624698378 -6.3333340082457426
v -6.8596845936314494 210.4207925211885 0.6954856120421908
v 0.3541809840235892 212.57654559532614 -3.6069587493571618
v 0.3541809840235892 212.57654559532614 -3.6069587493571618
v 0.4246784942404158 211.4823779334414 -12.447583446716365
v -5.120843681277011 211.27154955814947 -10.489425201813141
v -5.953920072347344 187.9060986480761 -5.845214807866078
v -6.3738636929130355 190.31034206724513 -13.40624640774518
v 0.3953568003115957 184.36255906230875 -8.775076590844392
v 0.2744874839907152 183.03043447857158 6.381814603245502
v -5.413968955891859 184.8148346120599 3.87644509051065
v 0.3953568003115957 184.36255906230875 -8.775076590844392
v -6.3738636929130355 190.31034206724513 -13.40624640774518
v 0.45322044300733877 190.2990844296448 -16.03024853455487
v 0.3953568003115957 184.36255906230875 -8.775076590844392
v -10.68703662403382 202.40304551127016 -8.039331152395313
v -6.783562560059255 202.67893460544792 -14.897337222339466
v -6.3738636929130355 190.31034206724513 -13.40624640774518
v -9.664054633458383 193.874068698322 -7.135658672298497
v -9.664054633458383 193.874068698322 -7.135658672298497
v -7.318394151749513 192.71113963362498 2.7140892149899116
v -9.15072713146105 201.62120414586312 1.2301047932276319
v -10.68703662403382 202.40304551127016 -8.039331152395313
v -7.318394151749513 192.71113963362498 2.7140892149899116
v -1.5683626076299402 192.29465211872085 6.533364542437255
v 0.26398855609156646 200.65454093040222 7.701285290726773
v -9.15072713146105 201.62120414586312 1.2301047932276319
v -6.783562560059255 202.67893460544792 -14.897337222339466
v 0.4648145217003328 202.2424218900677 -17.482192431349873
v 0.45322044300733877 190.2990844296448 -16.03024853455487
v -6.3738636929130355 190.31034206724513 -13.40624640774518
v -8.024191150696451 210.9785624698378 -6.3333340082457426
v -5.120843681277011 211.27154955814947 -10.489425201813141
v -6.783562560059255 202.67893460544792 -14.897337222339466
v -10.68703662403382 202.40304551127016 -8.039331152395313
v -6.8596845936314494 210.4207925211885 0.6954856120421908
v -8.024191150696451 210.9785624698378 -6.3333340082457426
v -10.68703662403382 202.40304551127016 -8.039331152395313
v -9.15072713146105 201.62120414586312 1.2301047932276319
v 0.2759627295557845 210.0380018382786 6.201256470763653
v -6.8596845936314494 210.4207925211885 0.6954856120421908
v -9.15072713146105 201.62120414586312 1.2301047932276319
v 0.26398855609156646 200.65454093040222 7.701285290726773
v 0.4648145217003328 202.2424218900677 -17.482192431349873
v -6.783562560059255 202.67893460544792 -14.897337222339466
v -5.120843681277011 211.27154955814947 -10.489425201813141
v 0.4246784942404158 211.4823779334414 -12.447583446716365
v 0.26398855609156646 200.65454093040222 7.701285290726773
v -1.5683626076299402 192.29465211872085 6.533364542437255
v 0.24363202511019066 191.9137218551541 10.252574152736983
v 0.24363202511019066 191.9137218551541 10.252574152736983
v -1.5683626076299402 192.29465211872085 6.533364542437255
v 0.26997446523491364 190.59305697319965 6.948993771928528
v -5.413968955891859 184.8148346120599 3.87644509051065
v 0.2744874839907152 183.03043447857158 6.381814603245502
v 0.26997446523491364 190.59305697319965 6.948993771928528
v -1.5683626076299402 192.29465211872085 6.533364542437255
v -7.318394151749513 192.71113963362498 2.7140892149899116
v 0.2759627295557845 210.0380018382786 6.201256470763653
v 0.3541809840235892 212.57654559532614 -3.6069587493571618
v -6.8596845936314494 210.4207925211885 0.6954856120421908
v 0.3541809840235892 212.57654559532614 -3.6069587493571618
v -5.120843681277011 211.27154955814947 -10.489425201813141
v -8.024191150696451 210.9785624698378 -6.3333340082457426
v -6.3738636929130355 190.31034206724513 -13.40624640774518
v -5.953920072347344 187.9060986480761 -5.845214807866078
v -9.664054633458383 193.874068698322 -7.135658672298497
v -5.413968955891859 184.8148346120599 3.87644509051065
v -7.318394151749513 192.71113963362498 2.7140892149899116
v -9.664054633458383 193.874068698322 -7.135658672298497
v -5.953920072347344 187.9060986480761 -5.845214807866078
v -5.413968955891859 184.8148346120599 3.87644509051065
v -9.664054633458383 193.874068698322 -7.135658672298497
v -5.413968955891859 184.8148346120599 3.87644509051065
v -5.953920072347344 187.9060986480761 -5.845214807866078
v 0.3953568003115957 184.36255906230875 -8.775076590844392
v 0.1645536387984352 164.3027981279179 -32.207175849218785
v 5.111588892567331 186.16865204757752 -28.147648230753376
v 0.08825507089114604 184.68512167481705 -22.635923695981077
v 0.1645536387984352 164.3027981279179 -32.207175849218785
v 0.15018530655264328 189.67658246703184 -30.40197351695756
v 5.111588892567331 186.16865204757752 -28.147648230753376
v 0.1645536387984352 164.3027981279179 -32.207175849218785
v -4.846541988146095 186.16866533312518 -28.227061729078862
v 0.15018530655264328 189.67658246703184 -30.40197351695756
v 0.1645536387984352 164.3027981279179 -32.207175849218785
v 0.08825507089114604 184.68512167481705 -22.635923695981077
v -4.846541988146095 186.16866533312518 -28.227061729078862
v 0.08825507089114604 184.68512167481705 -22.635923695981077
v 5.111588892567331 186.16865204757752 -28.147648230753376
v 0.010559108897420177 203.2819607581185 -12.890499147429445
v 0.010559108897420177 203.2819607581185 -12.890499147429445
v 5.111588892567331 186.16865204757752 -28.147648230753376
v 0.15018530655264328 189.67658246703184 -30.40197351695756
v 0.010559108897420177 203.2819607581185 -12.890499147429445
v 0.010559108897420177 203.2819607581185 -12.890499147429445
v 0.15018530655264328 189.67658246703184 -30.40197351695756
v -4.846541988146095 186.16866533312518 -28.227061729078862
v 0.010559108897420177 203.2819607581185 -12.890499147429445
v 0.010559108897420177 203.2819607581185 -12.890499147429445
v -4.846541988146095 186.16866533312518 -28.227061729078862
v 0.08825507089114604 184.68512167481705 -22.635923695981077
v 0.010559108897420177 203.2819607581185 -12.890499147429445
v 0.010559108897420177 203.2819607581185 -12.890499147429445
v 0.010559108897420177 203.2819607581185 -12.890499147429445
v 0.010559108897420177 203.2819607581185 -12.890499147429445
v 0.010559108897420177 203.2819607581185 -12.890499147429445
v 0.010559108897420177 203.2819607581185 -12.890499147429445
f 1 2 3
f 4 5 6
f 7 8 9
f 10 11 12
f 13 14 15
f 16 17 18
f 16 18 19
f 20 21 22
f 20 22 23
f 24 25 26
f 24 26 27
f 28 29 30
f 28 30 31
f 32 33 34
f 32 34 35
f 36 37 38
f 36 38 39
f 40 41 42
f 40 42 43
f 44 45 46
f 44 46 47
f 48 49 50
f 51 52 53
f 58 54 55
f 58 55 56
f 56 57 58
f 59 60 61
f 62 63 64
f 65 66 67
f 68 69 70
f 71 72 73
f 74 75 76
f 77 78 79
f 80 81 82
f 83 84 85
f 86 87 88
f 89 90 91
f 92 93 94
f 92 94 95
f 96 97 98
f 96 98 99
f 100 101 102
f 100 102 103
f 104 105 106
f 104 106 107
f 108 109 110
f 108 110 111
f 112 113 114
f 112 114 115
f 116 117 118
f 116 118 119
f 120 121 122
f 120 122 123
f 124 125 126
f 127 128 129
f 134 130 131
f 134 131 132
f 132 133 134
f 135 136 137
f 138 139 140
f 141 142 143
f 144 145 146
f 147 148 149
f 150 151 152
f 153 154 155
f 156 157 158
f 159 160 161
f 162 163 164
f 165 166 167
f 165 167 168
f 169 170 171
f 169 171 172
f 173 174 175
f 173 175 176
f 177 178 179
f 177 179 180
f 181 182 183
f 181 183 184
v 16.16235987547783 125.88886941135223 -71.51749354191318
v 30.037754094181665 100.97830148246004 -35.49507603856803
v 24.85158483891915 93.0455134422587 -35.865478919225765
v 16.16235987547783 125.88886941135223 -71.51749354191318
v 22.004981643431577 101.6117943384243 -32.953716625961405
v 30.037754094181665 100.97830148246004 -35.49507603856803
v 16.16235987547783 125.88886941135223 -71.51749354191318
v 24.85158483891915 93.0455134422587 -35.865478919225765
v 22.004981643431577 101.6117943384243 -32.953716625961405
v 24.85158483891915 93.0455134422587 -35.865478919225765
v 30.037754094181665 100.97830148246004 -35.49507603856803
v 40.21321262772429 106.34567677795955 -1.0151278068306908
v 36.50200666244691 100.14658295601231 -0.8107496079602541
v 30.037754094181665 100.97830148246004 -35.49507603856803
v 22.004981643431577 101.6117943384243 -32.953716625961405
v 34.27097649050371 106.81430254377847 0.8648405144238964
v 40.21321262772429 106.34567677795955 -1.0151278068306908
v 22.004981643431577 101.6117943384243 -32.953716625961405
v 24.85158483891915 93.0455134422587 -35.865478919225765
v 36.50200666244691 100.14658295601231 -0.8107496079602541
v 34.27097649050371 106.81430254377847 0.8648405144238964
v 36.50200666244691 100.14658295601231 -0.8107496079602541
v 40.21321262772429 106.34567677795955 -1.0151278068306908
v 50.10682156218378 90.49062119978207 30.55384717398826
v 45.994470931934686 82.61163209459076 33.56417904839491
v 40.21321262772429 106.34567677795955 -1.0151278068306908
v 34.27097649050371 106.81430254377847 0.8648405144238964
v 42.07404691244719 91.1241159468747 33.095199164595854
v 50.10682156218378 90.49062119978207 30.55384717398826
v 34.27097649050371 106.81430254377847 0.8648405144238964
v 36.50200666244691 100.14658295601231 -0.8107496079602541
v 45.994470931934686 82.61163209459076 33.56417904839491
v 42.07404691244719 91.1241159468747 33.095199164595854
v 45.994470931934686 82.61163209459076 33.56417904839491
v 50.10682156218378 90.49062119978207 30.55384717398826
v 59.94431929397812 104.28609874286441 72.2542146629842
v 50.10682156218378 90.49062119978207 30.55384717398826
v 42.07404691244719 91.1241159468747 33.095199164595854
v 59.94431929397812 104.28609874286441 72.2542146629842
v 42.07404691244719 91.1241159468747 33.095199164595854
v 45.994470931934686 82.61163209459076 33.56417904839491
v 59.94431929397812 104.28609874286441 72.2542146629842
f 185 186 187
f 188 189 190
f 191 192 193
f 194 195 196
f 194 196 197
f 198 199 200
f 198 200 201
f 202 203 204
f 202 204 205
f 206 207 208
f 206 208 209
f 210 211 212
f 210 212 213
f 214 215 216
f 214 216 217
f 218 219 220
f 221 222 223
f 224 225 226
v 3.3908449304019115 119.6011870109823 -25.67407775931852
v 16.13492596914189 126.03853394167027 -27.990418702003097
v 16.839792456085057 127.28763872052924 -20.640983177980246
v 4.095711454353424 120.85029185542433 -18.324641849420544
v -25.18754863851307 165.92752711102275 -33.10115577281951
v -24.0587323275327 167.92791903759726 -21.331327487184865
v -5.371577203736866 177.36725799925148 -24.727870743930026
v -6.500392784915743 175.36686648820677 -36.497698769610366
v 3.3908449304019115 119.6011870109823 -25.67407775931852
v 4.095711454353424 120.85029185542433 -18.324641849420544
v -24.0587323275327 167.92791903759726 -21.331327487184865
v -25.18754863851307 165.92752711102275 -33.10115577281951
v 4.095711454353424 120.85029185542433 -18.324641849420544
v 16.839792456085057 127.28763872052924 -20.640983177980246
v -5.371577203736866 177.36725799925148 -24.727870743930026
v -24.0587323275327 167.92791903759726 -21.331327487184865
v 16.839792456085057 127.28763872052924 -20.640983177980246
v 16.13492596914189 126.03853394167027 -27.990418702003097
v -6.500392784915743 175.36686648820677 -36.497698769610366
v -5.371577203736866 177.36725799925148 -24.727870743930026
v 16.13492596914189 126.03853394167027 -27.990418702003097
v 3.3908449304019115 119.6011870109823 -25.67407775931852
v -25.18754863851307 165.92752711102275 -33.10115577281951
v -6.500392784915743 175.36686648820677 -36.497698769610366
v -28.175063664649656 186.52413146756234 -31.041968505925993
v -34.55849514646253 182.35367476677902 -29.631721774021784
v -25.764169747771323 175.2297611856864 -29.483348980157317
v -3.382630307234569 138.78985564657432 -26.693015200577975
v -29.106789860017976 180.35086058622176 -31.289561782070848
v -28.840892072758884 180.82206215830064 -28.517123767722993
v -3.1167343335144704 139.26105979456065 -23.92057755024014
v -11.896303013759997 193.18886798082607 -32.5832820877434
v -18.502841883498206 190.81552494890266 -35.87730328106946
v -12.890883197426405 181.57804984950747 -32.51763797530279
v -3.2433190733149786 140.31925251623545 -26.09719432022837
v -13.572912438768753 187.5423765162008 -34.66771076354655
v -14.906580236612967 187.70164966641093 -32.18273431516785
v -4.576986543266795 140.47852580862744 -23.61221812774764
v -21.214975202712814 199.0760243945567 -33.615582745402854
v -27.335658030137154 197.15420067281667 -29.259719820740216
v -20.995480928078166 187.856639212108 -30.472078974909174
v -8.051144468477386 147.1293594638951 -27.259764276503844
v -23.531538004958747 193.46074071766157 -32.15243928190437
v -22.128361816321373 194.1771656251081 -29.80787647340145
v -6.647969559906015 147.84578723430275 -24.915201781748387
f 227 228 229
f 227 229 230
f 231 232 233
f 231 233 234
f 235 236 237
f 235 237 238
f 239 240 241
f 239 241 242
f 243 244 245
f 243 245 246
f 247 248 249
f 247 249 250
f 251 252 253
f 254 255 256
f 254 256 257
f 258 259 260
f 261 262 263
f 261 263 264
f 265 266 267
f 268 269 270
f 268 270 271
v 34.4447650285244 3.4456279361420366e-05 -8.61477811858898
v 34.444771406473464 3.53453863569864e-05 11.725630435196926
v 19.010302554185667 3.108930297526332e-05 11.725632183772634
v 19.010280855858735 3.020019890491278e-05 -8.614775603991873
v 19.01028179232673 10.71197416844368 -8.614776072225968
v 19.010280855858735 3.020019890491278e-05 -8.614775603991873
v 19.010302554185667 3.108930297526332e-05 11.725632183772634
v 19.010297362502463 10.711975057550113 11.725631715539539
v 34.44476596499171 10.71197052106149 -8.614778586822727
v 34.4447650285244 3.4456279361420366e-05 -8.61477811858898
v 19.010280855858735 3.020019890491278e-05 -8.614775603991873
v 19.01028179232673 10.71197416844368 -8.614776072225968
v 34.44476927886517 10.711971410169028 11.725629966963677
v 34.444771406473464 3.53453863569864e-05 11.725630435196926
v 34.4447650285244 3.4456279361420366e-05 -8.61477811858898
v 34.44476596499171 10.71197052106149 -8.614778586822727
v 21.253270138333093 6.940536873590768 26.19320067108706
v 21.253269527111296 -0.05102467248812788 26.19320097669802
v 31.327171822960597 -0.051026869771586894 26.19320086748873
v 31.327172434182373 6.94053446086451 26.19320056187778
v 21.253269527111296 -0.05102467248812788 26.19320097669802
v 19.010302554185667 3.108930297526332e-05 11.725632183772634
v 34.444771406473464 3.53453863569864e-05 11.725630435196926
v 31.327171822960597 -0.051026869771586894 26.19320086748873
v 21.253270138333093 6.940536873590768 26.19320067108706
v 19.010297362502463 10.711975057550113 11.725631715539539
v 19.010302554185667 3.108930297526332e-05 11.725632183772634
v 21.253269527111296 -0.05102467248812788 26.19320097669802
v 31.327172434182373 6.94053446086451 26.19320056187778
v 34.44476927886517 10.711971410169028 11.725629966963677
v 19.010297362502463 10.711975057550113 11.725631715539539
v 21.253270138333093 6.940536873590768 26.19320067108706
v 31.327171822960597 -0.051026869771586894 26.19320086748873
v 34.444771406473464 3.53453863569864e-05 11.725630435196926
v 34.44476927886517 10.711971410169028 11.725629966963677
v 31.327172434182373 6.94053446086451 26.19320056187778
v 22.280319647380647 16.67770124327401 -4.315751640561646
v 19.01028179232673 10.71197416844368 -8.614776072225968
v 19.010297362502463 10.711975057550113 11.725631715539539
v 22.28032155245416 16.677701754402527 7.377505225874939
v 19.01028179232673 10.71197416844368 -8.614776072225968
v 22.280319647380647 16.67770124327401 -4.315751640561646
v 26.661837447898836 16.67770086022957 -4.315750822363763
v 31.17473055381944 16.677698933662178 -4.315751557607369
v 34.44476596499171 10.71197052106149 -8.614778586822727
v 31.17473245889266 16.677699444790612 7.3775034895343286
v 34.44476927886517 10.711971410169028 11.725629966963677
v 34.44476596499171 10.71197052106149 -8.614778586822727
v 31.17473055381944 16.677698933662178 -4.315751557607369
v 34.44476927886517 10.711971410169028 11.725629966963677
v 31.17473245889266 16.677699444790612 7.3775034895343286
v 26.206842510904703 16.677701411135118 7.377504777668149
v 22.28032155245416 16.677701754402527 7.377505225874939
v 19.010297362502463 10.711975057550113 11.725631715539539
v 10.891807692540894 43.38297413645004 -10.444156469673214
v 22.280319647380647 16.67770124327401 -4.315751640561646
v 22.28032155245416 16.677701754402527 7.377505225874939
v 13.453554507718477 38.694029181919575 3.71953258496292
v 31.73125399829263 45.50242082616359 -10.444161489532085
v 31.17473055381944 16.677698933662178 -4.315751557607369
v 26.661837447898836 16.67770086022957 -4.315750822363763
v 20.834266921448563 44.39415785489807 -13.146553313488493
v 31.202108396874134 40.49912345719834 3.719529614452974
v 31.17473245889266 16.677699444790612 7.3775034895343286
v 31.17473055381944 16.677698933662178 -4.315751557607369
v 31.73125399829263 45.50242082616359 -10.444161489532085
v 21.81621439518881 39.54453939828643 8.890830941022923
v 26.206842510904703 16.677701411135118 7.377504777668149
v 31.17473245889266 16.677699444790612 7.3775034895343286
v 31.202108396874134 40.49912345719834 3.719529614452974
v 13.453554507718477 38.694029181919575 3.71953258496292
v 22.28032155245416 16.677701754402527 7.377505225874939
v 26.206842510904703 16.677701411135118 7.377504777668149
v 21.81621439518881 39.54453939828643 8.890830941022923
v 22.280319647380647 16.67770124327401 -4.315751640561646
v 10.891807692540894 43.38297413645004 -10.444156469673214
v 20.834266921448563 44.39415785489807 -13.146553313488493
v 26.661837447898836 16.67770086022957 -4.315750822363763
v 24.81540465051426 61.37582426743836 -5.765382727864008
v 31.73125399829263 45.50242082616359 -10.444161489532085
v 20.834266921448563 44.39415785489807 -13.146553313488493
v 17.498514272467435 60.63166508535755 -7.879810450244677
v 24.815400302642313 61.37582474508528 5.161892486375531
v 31.202108396874134 40.49912345719834 3.719529614452974
v 31.73125399829263 45.50242082616359 -10.444161489532085
v 24.81540465051426 61.37582426743836 -5.765382727864008
v 17.47162694862315 60.628932738406654 10.557722132674552
v 21.81621439518881 39.54453939828643 8.890830941022923
v 31.202108396874134 40.49912345719834 3.719529614452974
v 24.815400302642313 61.37582474508528 5.161892486375531
v 10.928456248493037 59.9634705794608 -5.765381935694555
v 10.891807692540894 43.38297413645004 -10.444156469673214
v 13.453554507718477 38.694029181919575 3.71953258496292
v 10.928470285074921 59.963471057106176 5.161894714827426
v 10.928470285074921 59.963471057106176 5.161894714827426
v 13.453554507718477 38.694029181919575 3.71953258496292
v 21.81621439518881 39.54453939828643 8.890830941022923
v 17.47162694862315 60.628932738406654 10.557722132674552
v 17.498514272467435 60.63166508535755 -7.879810450244677
v 20.834266921448563 44.39415785489807 -13.146553313488493
v 10.891807692540894 43.38297413645004 -10.444156469673214
v 10.928456248493037 59.9634705794608 -5.765381935694555
v 23.793658427059857 66.24805963113572 -5.765383540391473
v 24.81540465051426 61.37582426743836 -5.765382727864008
v 17.498514272467435 60.63166508535755 -7.879810450244677
v 16.47675579270919 65.5038881927544 -7.879813560826308
v 23.793654079187988 66.24806010878267 5.161892152609879
v 24.815400302642313 61.37582474508528 5.161892486375531
v 24.81540465051426 61.37582426743836 -5.765382727864008
v 23.793658427059857 66.24805963113572 -5.765383540391473
v 16.449862340715402 65.50116810210568 10.557722852187883
v 17.47162694862315 60.628932738406654 10.557722132674552
v 24.815400302642313 61.37582474508528 5.161892486375531
v 23.793654079187988 66.24806010878267 5.161892152609879
v 9.906711805317158 64.83569416450315 5.1618945725690315
v 10.928470285074921 59.963471057106176 5.161894714827426
v 17.47162694862315 60.628932738406654 10.557722132674552
v 16.449862340715402 65.50116810210568 10.557722852187883
v 9.906710025037562 64.83569368685667 -5.765382748221485
v 10.928456248493037 59.9634705794608 -5.765381935694555
v 10.928470285074921 59.963471057106176 5.161894714827426
v 9.906711805317158 64.83569416450315 5.1618945725690315
v 16.47675579270919 65.5038881927544 -7.879813560826308
v 17.498514272467435 60.63166508535755 -7.879810450244677
v 10.928456248493037 59.9634705794608 -5.765381935694555
v 9.906710025037562 64.83569368685667 -5.765382748221485
v 23.673615390817236 80.24347518309278 -5.187955255778721
v 23.793658427059857 66.24805963113572 -5.765383540391473
v 16.47675579270919 65.5038881927544 -7.879813560826308
v 10.885964389044304 78.94715153349154 -11.403964384436225
v 23.67362415042907 80.24347588910939 10.963833610834364
v 23.793654079187988 66.24806010878267 5.161892152609879
v 23.793658427059857 66.24805963113572 -5.765383540391473
v 23.673615390817236 80.24347518309278 -5.187955255778721
v 10.87330182109997 78.93081504430462 15.124354803499742
v 16.449862340715402 65.50116810210568 10.557722852187883
v 23.793654079187988 66.24806010878267 5.161892152609879
v 23.67362415042907 80.24347588910939 10.963833610834364
v 2.8872365013854697 78.17674691176552 17.832327934930113
v 9.906711805317158 64.83569416450315 5.1618945725690315
v 16.449862340715402 65.50116810210568 10.557722852187883
v 10.87330182109997 78.93081504430462 15.124354803499742
v 2.944725685941051 78.19535059559237 -13.6653243880038
v 9.906710025037562 64.83569368685667 -5.765382748221485
v 9.906711805317158 64.83569416450315 5.1618945725690315
v 2.8872365013854697 78.17674691176552 17.832327934930113
v 10.885964389044304 78.94715153349154 -11.403964384436225
v 16.47675579270919 65.5038881927544 -7.879813560826308
v 9.906710025037562 64.83569368685667 -5.765382748221485
v 2.944725685941051 78.19535059559237 -13.6653243880038
v 18.660039516848226 112.06655872584616 11.920342835439804
v 23.67362415042907 80.24347588910939 10.963833610834364
v 23.673615390817236 80.24347518309278 -5.187955255778721
v 17.16204092426483 111.79363482456593 -4.338485809172258
v 6.966841320018527 109.0134417538436 17.509489555071035
v 10.87330182109997 78.93081504430462 15.124354803499742
v 23.67362415042907 80.24347588910939 10.963833610834364
v 18.660039516848226 112.06655872584616 11.920342835439804
v 9.218128888567568 110.1782545129254 -15.089711375710571
v 10.885964389044304 78.94715153349154 -11.403964384436225
v 2.944725685941051 78.19535059559237 -13.6653243880038
v -2.681558770820476 109.06473361518057 -19.183037090379493
v 9.218128888567568 110.1782545129254 -15.089711375710571
v 8.627872976927936 122.95472584276844 -12.838702487213787
v 15.613979340780395 122.95646609383833 -2.154913933963356
v 17.16204092426483 111.79363482456593 -4.338485809172258
v 15.613975664669141 122.95646675171771 12.895598669031065
v 18.660039516848226 112.06655872584616 11.920342835439804
v 17.16204092426483 111.79363482456593 -4.338485809172258
v 15.613979340780395 122.95646609383833 -2.154913933963356
v 6.902687075431008 121.14149339224087 19.412538131028178
v 6.966841320018527 109.0134417538436 17.509489555071035
v 18.660039516848226 112.06655872584616 11.920342835439804
v 15.613975664669141 122.95646675171771 12.895598669031065
v -2.6815636824486155 121.14015829352591 19.418609626321896
v -2.6815646349851825 108.11673494489575 20.560315404711844
v 6.966841320018527 109.0134417538436 17.509489555071035
v 6.902687075431008 121.14149339224087 19.412538131028178
v -2.681558770820476 109.06473361518057 -19.183037090379493
v -2.6815570277260083 122.95340301549513 -15.936622023155754
v 8.627872976927936 122.95472584276844 -12.838702487213787
v 9.218128888567568 110.1782545129254 -15.089711375710571
v 10.885964389044304 78.94715153349154 -11.403964384436225
v 9.218128888567568 110.1782545129254 -15.089711375710571
v 17.16204092426483 111.79363482456593 -4.338485809172258
v 23.673615390817236 80.24347518309278 -5.187955255778721
v 15.21064346192636 131.751330662561 -2.893096791752133
v 15.613979340780395 122.95646609383833 -2.154913933963356
v 8.627872976927936 122.95472584276844 -12.838702487213787
v 8.83909319695499 131.74959051446393 -9.992031130564664
v 15.210646276280187 131.75131916134694 14.381288942523145
v 15.613975664669141 122.95646675171771 12.895598669031065
v 15.613979340780395 122.95646609383833 -2.154913933963356
v 15.21064346192636 131.751330662561 -2.893096791752133
v 7.54282852543538 131.74960416310492 19.268443279824446
v 6.902687075431008 121.14149339224087 19.412538131028178
v 15.613975664669141 122.95646675171771 12.895598669031065
v 15.210646276280187 131.75131916134694 14.381288942523145
v -2.681562778554798 131.7480362506244 19.274511815344887
v -2.6815636824486155 121.14015829352591 19.418609626321896
v 6.902687075431008 121.14149339224087 19.412538131028178
v 7.54282852543538 131.74960416310492 19.268443279824446
v 8.83909319695499 131.74959051446393 -9.992031130564664
v 8.627872976927936 122.95472584276844 -12.838702487213787
v -2.6815570277260083 122.95340301549513 -15.936622023155754
v -2.6815556021852944 131.74805940028693 -11.905904494296488
v 16.05948539301336 141.76670222046303 -1.7134152397152596
v 15.21064346192636 131.751330662561 -2.893096791752133
v 8.83909319695499 131.74959051446393 -9.992031130564664
v 7.58580089976491 141.76496208156996 -12.806053882110081
v 16.059481426821215 141.7667028005141 11.556593673184185
v 15.210646276280187 131.75131916134694 14.381288942523145
v 15.21064346192636 131.751330662561 -2.893096791752133
v 16.05948539301336 141.76670222046303 -1.7134152397152596
v 8.448937666036686 141.76500013109248 18.217334540583053
v 7.54282852543538 131.74960416310492 19.268443279824446
v 15.210646276280187 131.75131916134694 14.381288942523145
v 16.059481426821215 141.7667028005141 11.556593673184185
v -2.6815552617978256 144.47463661376733 20.968653978370305
v -2.681562778554798 131.7480362506244 19.274511815344887
v 7.54282852543538 131.74960416310492 19.268443279824446
v 8.448937666036686 141.76500013109248 18.217334540583053
v 7.58580089976491 141.76496208156996 -12.806053882110081
v 8.83909319695499 131.74959051446393 -9.992031130564664
v -2.6815556021852944 131.74805940028693 -11.905904494296488
v -2.681561189198815 143.1359527810868 -14.695137606385584
v 19.580115005032642 151.4984626148872 -3.1294335818666212
v 16.05948539301336 141.76670222046303 -1.7134152397152596
v 7.58580089976491 141.76496208156996 -12.806053882110081
v 23.144154450579386 159.3077113216463 -15.725704515717553
v 24.013915099745024 159.63773785011713 11.13982828933728
v 16.059481426821215 141.7667028005141 11.556593673184185
v 16.05948539301336 141.76670222046303 -1.7134152397152596
v 19.580115005032642 151.4984626148872 -3.1294335818666212
v 10.930258042640556 153.8935785531751 19.78303027636191
v 8.448937666036686 141.76500013109248 18.217334540583053
v 16.059481426821215 141.7667028005141 11.556593673184185
v 24.013915099745024 159.63773785011713 11.13982828933728
v -2.681554452726338 155.9251107403847 19.790406103136917
v -2.6815552617978256 144.47463661376733 20.968653978370305
v 8.448937666036686 141.76500013109248 18.217334540583053
v 10.930258042640556 153.8935785531751 19.78303027636191
v 23.144154450579386 159.3077113216463 -15.725704515717553
v 7.58580089976491 141.76496208156996 -12.806053882110081
v -2.681561189198815 143.1359527810868 -14.695137606385584
v -2.681548992088953 153.891862085694 -20.830050158290092
v 56.705171757439125 106.54549637896197 19.73735024540799
v 58.905994088825516 102.8068212599872 9.116406464355688
v 61.55444828490693 106.8470990176623 19.636955005160427
v 11.654808994796932 170.8018694540104 18.391448078959282
v 11.06566031750838 157.3748585421393 22.66654432263551
v 24.013915099745024 159.63773785011713 11.13982828933728
v 21.159625276893994 170.50946967485237 10.072971159739263
v -2.681553672559374 159.51905066344514 22.650538205646164
v -2.681554452726338 155.9251107403847 19.790406103136917
v 10.930258042640556 153.8935785531751 19.78303027636191
v 11.06566031750838 157.3748585421393 22.66654432263551
v 11.06566031750838 157.3748585421393 22.66654432263551
v 11.654808994796932 170.8018694540104 18.391448078959282
v -2.681553379027987 170.80014256914737 18.398817984503836
v -2.681553672559374 159.51905066344514 22.650538205646164
v 20.93620092657947 170.62332960195639 -15.852880640411339
v 23.144154450579386 159.3077113216463 -15.725704515717553
v -2.681548992088953 153.891862085694 -20.830050158290092
v -2.6815475872444563 169.68440071120222 -20.6814094771983
v 16.451340912983 178.92802888532654 -2.332679628903646
v 20.93620092657947 170.62332960195639 -15.852880640411339
v 4.848641621391995 179.2295959256381 -8.55874838065338
v 7.705231507888656 180.51729203537235 -1.6980607236286307
v 16.451340912983 178.92802888532654 -2.332679628903646
v 7.705231507888656 180.51729203537235 -1.6980607236286307
v 4.912750440913876 180.28629803893202 4.56082508794158
v 21.159625276893994 170.50946967485237 10.072971159739263
v -2.681554016248264 179.26726100721046 9.944155560811646
v 11.654808994796932 170.8018694540104 18.391448078959282
v 21.159625276893994 170.50946967485237 10.072971159739263
v 4.912750440913876 180.28629803893202 4.56082508794158
v 11.654808994796932 170.8018694540104 18.391448078959282
v -2.681554016248264 179.26726100721046 9.944155560811646
v -2.681553379027987 170.80014256914737 18.398817984503836
v 4.848641621391995 179.2295959256381 -8.55874838065338
v 20.93620092657947 170.62332960195639 -15.852880640411339
v -2.6815475872444563 169.68440071120222 -20.6814094771983
v -2.681551840377055 178.16877669538684 -13.725320909543766
v 28.332132020079328 166.54510607422083 -12.24769491287579
v 20.93620092657947 170.62332960195639 -15.852880640411339
v 25.621628837968977 178.54223646601622 -2.6911342881303213
v 32.32391397287503 171.57139095550303 -0.752434694108179
v 23.144154450579386 159.3077113216463 -15.725704515717553
v 20.93620092657947 170.62332960195639 -15.852880640411339
v 28.332132020079328 166.54510607422083 -12.24769491287579
v 24.013915099745024 159.63773785011713 11.13982828933728
v 28.439942076562257 166.58701133000145 9.952848040326769
v 21.159625276893994 170.50946967485237 10.072971159739263
v 32.32391397287503 171.57139095550303 -0.752434694108179
v 25.621628837968977 178.54223646601622 -2.6911342881303213
v 21.159625276893994 170.50946967485237 10.072971159739263
v 28.439942076562257 166.58701133000145 9.952848040326769
v 27.910012363471232 141.25301511648752 -0.7980605655045405
v 19.580115005032642 151.4984626148872 -3.1294335818666212
v 23.144154450579386 159.3077113216463 -15.725704515717553
v 29.37603066266932 142.86652002362663 -7.3578598937949655
v 29.799181668063255 143.01249311483173 5.853144782044964
v 24.013915099745024 159.63773785011713 11.13982828933728
v 19.580115005032642 151.4984626148872 -3.1294335818666212
v 27.910012363471232 141.25301511648752 -0.7980605655045405
v 37.15792221907495 150.09423189431334 -7.927874525404164
v 28.332132020079328 166.54510607422083 -12.24769491287579
v 32.32391397287503 171.57139095550303 -0.752434694108179
v 40.04029649448037 153.0623159733535 -0.7858534827348373
v 29.37603066266932 142.86652002362663 -7.3578598937949655
v 23.144154450579386 159.3077113216463 -15.725704515717553
v 28.332132020079328 166.54510607422083 -12.24769491287579
v 37.15792221907495 150.09423189431334 -7.927874525404164
v 37.224684547502726 150.11785038436614 5.865350754322929
v 28.439942076562257 166.58701133000145 9.952848040326769
v 24.013915099745024 159.63773785011713 11.13982828933728
v 29.799181668063255 143.01249311483173 5.853144782044964
v 40.04029649448037 153.0623159733535 -0.7858534827348373
v 32.32391397287503 171.57139095550303 -0.752434694108179
v 28.439942076562257 166.58701133000145 9.952848040326769
v 37.224684547502726 150.11785038436614 5.865350754322929
v 32.08753643602129 136.77720969890737 2.641831464475512
v 27.910012363471232 141.25301511648752 -0.7980605655045405
v 29.37603066266932 142.86652002362663 -7.3578598937949655
v 33.448223923936595 136.07982575289262 -3.5892870371533716
v 40.671077488344615 142.19280244141865 -6.402705844128386
v 37.15792221907495 150.09423189431334 -7.927874525404164
v 40.04029649448037 153.0623159733535 -0.7858534827348373
v 43.34638752452075 147.06757476665874 -1.1331077450714728
v 33.448223923936595 136.07982575289262 -3.5892870371533716
v 29.37603066266932 142.86652002362663 -7.3578598937949655
v 37.15792221907495 150.09423189431334 -7.927874525404164
v 40.671077488344615 142.19280244141865 -6.402705844128386
v 33.84096406241496 140.44189294443783 7.871334805363982
v 29.799181668063255 143.01249311483173 5.853144782044964
v 27.910012363471232 141.25301511648752 -0.7980605655045405
v 32.08753643602129 136.77720969890737 2.641831464475512
v 40.73301705704061 146.6349033344851 5.6042865456754845
v 37.224684547502726 150.11785038436614 5.865350754322929
v 29.799181668063255 143.01249311483173 5.853144782044964
v 33.84096406241496 140.44189294443783 7.871334805363982
v 43.34638752452075 147.06757476665874 -1.1331077450714728
v 40.04029649448037 153.0623159733535 -0.7858534827348373
v 37.224684547502726 150.11785038436614 5.865350754322929
v 40.73301705704061 146.6349033344851 5.6042865456754845
v 35.712788070301755 128.86348722601412 5.54407843246805
v 32.08753643602129 136.77720969890737 2.641831464475512
v 33.448223923936595 136.07982575289262 -3.5892870371533716
v 37.49473046660949 127.95018389552574 -2.6161836578168725
v 46.95378626003614 135.95572940111197 -6.30063840676777
v 40.671077488344615 142.19280244141865 -6.402705844128386
v 43.34638752452075 147.06757476665874 -1.1331077450714728
v 50.457371481850544 142.3397304342332 0.6004296083879783
v 37.49473046660949 127.95018389552574 -2.6161836578168725
v 33.448223923936595 136.07982575289262 -3.5892870371533716
v 40.671077488344615 142.19280244141865 -6.402705844128386
v 46.95378626003614 135.95572940111197 -6.30063840676777
v 38.009093653997034 133.66274857993656 12.392638416056622
v 33.84096406241496 140.44189294443783 7.871334805363982
v 32.08753643602129 136.77720969890737 2.641831464475512
v 35.712788070301755 128.86348722601412 5.54407843246805
v 47.034926052304925 141.77311004500206 9.423719306404813
v 40.73301705704061 146.6349033344851 5.6042865456754845
v 33.84096406241496 140.44189294443783 7.871334805363982
v 38.009093653997034 133.66274857993656 12.392638416056622
v 50.457371481850544 142.3397304342332 0.6004296083879783
v 43.34638752452075 147.06757476665874 -1.1331077450714728
v 40.73301705704061 146.6349033344851 5.6042865456754845
v 47.034926052304925 141.77311004500206 9.423719306404813
v 49.37051256205309 118.49075763414422 9.322672283959934
v 35.712788070301755 128.86348722601412 5.54407843246805
v 37.49473046660949 127.95018389552574 -2.6161836578168725
v 50.241925781129424 118.0441622698968 5.332123034552165
v 54.86760755856923 121.95904509556323 3.530341382997807
v 46.95378626003614 135.95572940111197 -6.30063840676777
v 50.457371481850544 142.3397304342332 0.6004296083879783
v 56.58090770128665 125.0809456958145 6.9051137847813315
v 50.241925781129424 118.0441622698968 5.332123034552165
v 37.49473046660949 127.95018389552574 -2.6161836578168725
v 46.95378626003614 135.95572940111197 -6.30063840676777
v 54.86760755856923 121.95904509556323 3.530341382997807
v 50.49345718708904 120.8377291106774 12.671754696324431
v 38.009093653997034 133.66274857993656 12.392638416056622
v 35.712788070301755 128.86348722601412 5.54407843246805
v 49.37051256205309 118.49075763414422 9.322672283959934
v 54.907288839070475 124.80385556668267 11.219891755284905
v 47.034926052304925 141.77311004500206 9.423719306404813
v 38.009093653997034 133.66274857993656 12.392638416056622
v 50.49345718708904 120.8377291106774 12.671754696324431
v 56.58090770128665 125.0809456958145 6.9051137847813315
v 50.457371481850544 142.3397304342332 0.6004296083879783
v 47.034926052304925 141.77311004500206 9.423719306404813
v 54.907288839070475 124.80385556668267 11.219891755284905
v 55.97352947961232 117.52637037529709 18.496937778120365
v 50.49345718708904 120.8377291106774 12.671754696324431
v 49.37051256205309 118.49075763414422 9.322672283959934
v 50.241925781129424 118.0441622698968 5.332123034552165
v 55.842169656950546 111.98710976790548 3.6587061282254814
v 62.78369958797711 114.22707075450766 2.1358551133550963
v 54.86760755856923 121.95904509556323 3.530341382997807
v 56.58090770128665 125.0809456958145 6.9051137847813315
v 54.907288839070475 124.80385556668267 11.219891755284905
v 62.600486054024266 119.47627375573678 16.91370423836894
v 55.842169656950546 111.98710976790548 3.6587061282254814
v 50.241925781129424 118.0441622698968 5.332123034552165
v 54.86760755856923 121.95904509556323 3.530341382997807
v 62.78369958797711 114.22707075450766 2.1358551133550963
v 62.600486054024266 119.47627375573678 16.91370423836894
v 54.907288839070475 124.80385556668267 11.219891755284905
v 50.49345718708904 120.8377291106774 12.671754696324431
v 55.97352947961232 117.52637037529709 18.496937778120365
v 56.705171757439125 106.54549637896197 19.73735024540799
v 55.97352947961232 117.52637037529709 18.496937778120365
v 55.842169656950546 111.98710976790548 3.6587061282254814
v 58.905994088825516 102.8068212599872 9.116406464355688
v 58.905994088825516 102.8068212599872 9.116406464355688
v 62.78369958797711 114.22707075450766 2.1358551133550963
v 62.600486054024266 119.47627375573678 16.91370423836894
v 61.55444828490693 106.8470990176623 19.636955005160427
v 62.78369958797711 114.22707075450766 2.1358551133550963
v 58.905994088825516 102.8068212599872 9.116406464355688
v 55.842169656950546 111.98710976790548 3.6587061282254814
v 61.55444828490693 106.8470990176623 19.636955005160427
v 62.600486054024266 119.47627375573678 16.91370423836894
v 55.97352947961232 117.52637037529709 18.496937778120365
v 56.705171757439125 106.54549637896197 19.73735024540799
v 24.013915099745024 159.63773785011713 11.13982828933728
v 11.06566031750838 157.3748585421393 22.66654432263551
v 10.930258042640556 153.8935785531751 19.78303027636191
v -2.681554016248264 179.26726100721046 9.944155560811646
v 4.912750440913876 180.28629803893202 4.56082508794158
v 1.1978781244599082 188.8763233446943 4.15004232050322
v -2.68154769267519 188.85357606913126 5.999656078820335
v -2.681554016248264 179.26726100721046 9.944155560811646
v 1.1978781244599082 188.8763233446943 4.15004232050322
v -2.681551840377055 178.16877669538684 -13.725320909543766
v -2.681543712798432 188.85357549275176 -7.186357305732798
v 2.2913965354741914 188.87607781580914 -2.8791747904363323
v 4.848641621391995 179.2295959256381 -8.55874838065338
v 2.8872365013854697 78.17674691176552 17.832327934930113
v 10.87330182109997 78.93081504430462 15.124354803499742
v 6.966841320018527 109.0134417538436 17.509489555071035
v -2.6815646349851825 108.11673494489575 20.560315404711844
v 7.705231507888656 180.51729203537235 -1.6980607236286307
v 4.848641621391995 179.2295959256381 -8.55874838065338
v 2.2913965354741914 188.87607781580914 -2.8791747904363323
v 3.3461192871711694 188.5946854440331 0.46783356025623934
v 4.912750440913876 180.28629803893202 4.56082508794158
v 7.705231507888656 180.51729203537235 -1.6980607236286307
v 3.3461192871711694 188.5946854440331 0.46783356025623934
v 1.1978781244599082 188.8763233446943 4.15004232050322
v 25.621628837968977 178.54223646601622 -2.6911342881303213
v 20.93620092657947 170.62332960195639 -15.852880640411339
v 16.451340912983 178.92802888532654 -2.332679628903646
v 25.621628837968977 178.54223646601622 -2.6911342881303213
v 16.451340912983 178.92802888532654 -2.332679628903646
v 21.159625276893994 170.50946967485237 10.072971159739263
v -2.68154769267519 188.85357606913126 5.999656078820335
v 1.1978781244599082 188.8763233446943 4.15004232050322
v -2.681548279144858 192.05748335240875 0.6807232994997934
v 2.2913965354741914 188.87607781580914 -2.8791747904363323
v -2.681543712798432 188.85357549275176 -7.186357305732798
v -2.681548279144858 192.05748335240875 0.6807232994997934
v 3.3461192871711694 188.5946854440331 0.46783356025623934
v 2.2913965354741914 188.87607781580914 -2.8791747904363323
v -2.681548279144858 192.05748335240875 0.6807232994997934
v 1.1978781244599082 188.8763233446943 4.15004232050322
v 3.3461192871711694 188.5946854440331 0.46783356025623934
v -2.681548279144858 192.05748335240875 0.6807232994997934
v 2.944725685941051 78.19535059559237 -13.6653243880038
v -8.389700559188551 78.07940697267426 -13.704790894119869
v -2.681558770820476 109.06473361518057 -19.183037090379493
v -8.389700559188551 78.07940697267426 -13.704790894119869
v 2.944725685941051 78.19535059559237 -13.6653243880038
v 2.8872365013854697 78.17674691176552 17.832327934930113
v -8.274731292800256 78.20893293542474 17.835541669285934
v -39.80792883682222 4.41235766658953e-05 -8.614755297024168
v -24.373444664158026 4.007559979537852e-05 -8.61476240773431
v -24.373465862888736 4.09647135240972e-05 11.725649976150589
v -39.80793777925072 4.5012686487753066e-05 11.725655937830382
v -24.37344372769009 10.711983323302151 -8.61476287596837
v -24.3734649264208 10.711984212412 11.725649507916525
v -24.373465862888736 4.09647135240972e-05 11.725649976150589
v -24.373444664158026 4.007559979537852e-05 -8.61476240773431
v -39.80792790035452 10.711984672628013 -8.614755765258112
v -24.37344372769009 10.711983323302151 -8.61476287596837
v -24.373444664158026 4.007559979537852e-05 -8.61476240773431
v -39.80792883682222 4.41235766658953e-05 -8.614755297024168
v -39.80793684278302 10.711985561736737 11.725655469596438
v -39.80792790035452 10.711984672628013 -8.614755765258112
v -39.80792883682222 4.41235766658953e-05 -8.614755297024168
v -39.80793777925072 4.5012686487753066e-05 11.725655937830382
v -26.616439775688576 6.940544888589225 26.193223790431208
v -36.69033594338611 6.94054500325862 26.193228495752987
v -36.69033655460774 -0.051014645726735704 26.193228801363865
v -26.616440386910426 -0.051017285864503506 26.193224096042197
v -26.616440386910426 -0.051017285864503506 26.193224096042197
v -36.69033655460774 -0.051014645726735704 26.193228801363865
v -39.80793777925072 4.5012686487753066e-05 11.725655937830382
v -24.373465862888736 4.09647135240972e-05 11.725649976150589
v -26.616439775688576 6.940544888589225 26.193223790431208
v -26.616440386910426 -0.051017285864503506 26.193224096042197
v -24.373465862888736 4.09647135240972e-05 11.725649976150589
v -24.3734649264208 10.711984212412 11.725649507916525
v -36.69033594338611 6.94054500325862 26.193228495752987
v -26.616439775688576 6.940544888589225 26.193223790431208
v -24.3734649264208 10.711984212412 11.725649507916525
v -39.80793684278302 10.711985561736737 11.725655469596438
v -36.69033655460774 -0.051014645726735704 26.193228801363865
v -36.69033594338611 6.94054500325862 26.193228495752987
v -39.80793684278302 10.711985561736737 11.725655469596438
v -39.80793777925072 4.5012686487753066e-05 11.725655937830382
v -27.643485267013574 16.67770867182807 -4.3157343147140805
v -27.643483361939843 16.677709182956644 7.377523892255579
v -24.3734649264208 10.711984212412 11.725649507916525
v -24.37344372769009 10.711983323302151 -8.61476287596837
v -24.37344372769009 10.711983323302151 -8.61476287596837
v -39.80792790035452 10.711984672628013 -8.614755765258112
v -36.53789617345189 16.677707917364728 -4.3157298015548236
v -32.0250030675314 16.67770752283496 -4.315732068836296
v -27.643485267013574 16.67770867182807 -4.3157343147140805
v -36.537894268378295 16.677708428493265 7.3775275436435725
v -36.53789617345189 16.677707917364728 -4.3157298015548236
v -39.80792790035452 10.711984672628013 -8.614755765258112
v -39.80793684278302 10.711985561736737 11.725655469596438
v -39.80793684278302 10.711985561736737 11.725655469596438
v -24.3734649264208 10.711984212412 11.725649507916525
v -27.643483361939843 16.677709182956644 7.377523892255579
v -31.570010448541364 16.677709526224643 7.377525680996444
v -36.537894268378295 16.677708428493265 7.3775275436435725
v -16.254958383461943 43.382976509696256 -10.44414745078987
v -18.816701403363957 38.69403506715107 3.719545502644246
v -27.643483361939843 16.677709182956644 7.377523892255579
v -27.643485267013574 16.67770867182807 -4.3157343147140805
v -37.09439206233406 45.50243297124477 -10.444139552145796
v -26.19741218796892 44.39416503061429 -13.146539522903666
v -32.0250030675314 16.67770752283496 -4.315732068836296
v -36.53789617345189 16.677707917364728 -4.3157298015548236
v -36.56524884875492 40.499129381610274 3.719552911460186
v -37.09439206233406 45.50243297124477 -10.444139552145796
v -36.53789617345189 16.677707917364728 -4.3157298015548236
v -36.537894268378295 16.677708428493265 7.3775275436435725
v -27.17935945710287 39.54454061754126 8.890849264671058
v -36.56524884875492 40.499129381610274 3.719552911460186
v -36.537894268378295 16.677708428493265 7.3775275436435725
v -31.570010448541364 16.677709526224643 7.377525680996444
v -18.816701403363957 38.69403506715107 3.719545502644246
v -27.17935945710287 39.54454061754126 8.890849264671058
v -31.570010448541364 16.677709526224643 7.377525680996444
v -27.643483361939843 16.677709182956644 7.377523892255579
v -27.643485267013574 16.67770867182807 -4.3157343147140805
v -32.0250030675314 16.67770752283496 -4.315732068836296
v -26.19741218796892 44.39416503061429 -13.146539522903666
v -16.254958383461943 43.382976509696256 -10.44414745078987
v -30.17853841462278 61.37582907516263 -5.765365342004787
v -22.861648855657826 60.63166861375586 -7.879797746587726
v -26.19741218796892 44.39416503061429 -13.146539522903666
v -37.09439206233406 45.50243297124477 -10.444139552145796
v -30.178536634343168 61.375829552809115 5.16191207453809
v -30.17853841462278 61.37582907516263 -5.765365342004787
v -37.09439206233406 45.50243297124477 -10.444139552145796
v -36.56524884875492 40.499129381610274 3.719552911460186
v -22.834767780881958 60.62893626210457 10.557739040675468
v -30.178536634343168 61.375829552809115 5.16191207453809
v -36.56524884875492 40.499129381610274 3.719552911460186
v -27.17935945710287 39.54454061754126 8.890849264671058
v -16.291602515848957 59.9634729591145 -5.765372138851416
v -16.291619120022787 59.963473436762634 5.1619062352180825
v -18.816701403363957 38.69403506715107 3.719545502644246
v -16.254958383461943 43.382976509696256 -10.44414745078987
v -16.291619120022787 59.963473436762634 5.1619062352180825
v -22.834767780881958 60.62893626210457 10.557739040675468
v -27.17935945710287 39.54454061754126 8.890849264671058
v -18.816701403363957 38.69403506715107 3.719545502644246
v -22.861648855657826 60.63166861375586 -7.879797746587726
v -16.291602515848957 59.9634729591145 -5.765372138851416
v -16.254958383461943 43.382976509696256 -10.44414745078987
v -26.19741218796892 44.39416503061429 -13.146539522903666
v -29.156791339279852 66.2480642602121 -5.765366487459597
v -21.839889524013696 65.50389154250274 -7.879799658062896
v -22.861648855657826 60.63166861375586 -7.879797746587726
v -30.17853841462278 61.37582907516263 -5.765365342004787
v -29.156789559000178 66.24806473785861 5.161911312092731
v -29.156791339279852 66.2480642602121 -5.765366487459597
v -30.17853841462278 61.37582907516263 -5.765365342004787
v -30.178536634343168 61.375829552809115 5.16191207453809
v -21.812996192934172 65.50117144715192 10.557738278226115
v -29.156789559000178 66.24806473785861 5.161911312092731
v -30.178536634343168 61.375829552809115 5.16191207453809
v -22.834767780881958 60.62893626210457 10.557739040675468
v -15.26985978837847 64.83569636550956 5.161905472771262
v -21.812996192934172 65.50117144715192 10.557738278226115
v -22.834767780881958 60.62893626210457 10.557739040675468
v -16.291619120022787 59.963473436762634 5.1619062352180825
v -15.2698554405071 64.83569588786249 -5.76537328430569
v -15.26985978837847 64.83569636550956 5.161905472771262
v -16.291619120022787 59.963473436762634 5.1619062352180825
v -16.291602515848957 59.9634729591145 -5.765372138851416
v -21.839889524013696 65.50389154250274 -7.879799658062896
v -15.2698554405071 64.83569588786249 -5.76537328430569
v -16.291602515848957 59.9634729591145 -5.765372138851416
v -22.861648855657826 60.63166861375586 -7.879797746587726
v -29.03675179600174 80.24347979118048 -5.187938241961266
v -16.2491030463203 78.94714777756428 -11.403955367458561
v -21.839889524013696 65.50389154250274 -7.879799658062896
v -29.156791339279852 66.2480642602121 -5.765366487459597
v -29.036761420843003 80.24348049719885 10.963853688730413
v -29.03675179600174 80.24347979118048 -5.187938241961266
v -29.156791339279852 66.2480642602121 -5.765366487459597
v -29.156789559000178 66.24806473785861 5.161911312092731
v -16.236437965358558 78.93081128616339 15.124369178483304
v -29.036761420843003 80.24348049719885 10.963853688730413
v -29.156789559000178 66.24806473785861 5.161911312092731
v -21.812996192934172 65.50117144715192 10.557738278226115
v -8.274731292800256 78.20893293542474 17.835541669285934
v -16.236437965358558 78.93081128616339 15.124369178483304
v -21.812996192934172 65.50117144715192 10.557738278226115
v -15.26985978837847 64.83569636550956 5.161905472771262
v -8.389700559188551 78.07940697267426 -13.704790894119869
v -8.274731292800256 78.20893293542474 17.835541669285934
v -15.26985978837847 64.83569636550956 5.161905472771262
v -15.2698554405071 64.83569588786249 -5.76537328430569
v -16.2491030463203 78.94714777756428 -11.403955367458561
v -8.389700559188551 78.07940697267426 -13.704790894119869
v -15.2698554405071 64.83569588786249 -5.76537328430569
v -21.839889524013696 65.50389154250274 -7.879799658062896
v -24.023158655164423 112.06656245733086 11.920359747661735
v -22.52517153625138 111.79363829413307 -4.338471683115096
v -29.03675179600174 80.24347979118048 -5.187938241961266
v -29.036761420843003 80.24348049719885 10.963853688730413
v -12.329965299135607 109.01344344082466 17.509501891146947
v -24.023158655164423 112.06656245733086 11.920359747661735
v -29.036761420843003 80.24348049719885 10.963853688730413
v -16.236437965358558 78.93081128616339 15.124369178483304
v -14.581251029888547 110.17825659353392 -15.0896998381101
v -2.681558770820476 109.06473361518057 -19.183037090379493
v -8.389700559188551 78.07940697267426 -13.704790894119869
v -16.2491030463203 78.94714777756428 -11.403955367458561
v -14.581251029888547 110.17825659353392 -15.0896998381101
v -22.52517153625138 111.79363829413307 -4.338471683115096
v -20.977101161346106 122.95646929273298 -2.1549010783490594
v -13.990998279020237 122.95471556387197 -12.83869420601767
v -20.977098709305785 122.9564699506119 12.895613822701062
v -20.977101161346106 122.95646929273298 -2.1549010783490594
v -22.52517153625138 111.79363829413307 -4.338471683115096
v -24.023158655164423 112.06656245733086 11.920359747661735
v -12.265814442072315 121.1414828117036 19.412548914163267
v -20.977098709305785 122.9564699506119 12.895613822701062
v -24.023158655164423 112.06656245733086 11.920359747661735
v -12.329965299135607 109.01344344082466 17.509501891146947
v -2.6815636824486155 121.14015829352591 19.418609626321896
v -12.265814442072315 121.1414828117036 19.412548914163267
v -12.329965299135607 109.01344344082466 17.509501891146947
v -2.6815646349851825 108.11673494489575 20.560315404711844
v -2.681558770820476 109.06473361518057 -19.183037090379493
v -14.581251029888547 110.17825659353392 -15.0896998381101
v -13.990998279020237 122.95471556387197 -12.83869420601767
v -2.6815570277260083 122.95340301549513 -15.936622023155754
v -16.2491030463203 78.94714777756428 -11.403955367458561
v -29.03675179600174 80.24347979118048 -5.187938241961266
v -22.52517153625138 111.79363829413307 -4.338471683115096
v -14.581251029888547 110.17825659353392 -15.0896998381101
v -20.573770113431742 131.75132153463306 -2.8930848335789365
v -14.202216033740417 131.7495802724982 -9.99202124850686
v -13.990998279020237 122.95471556387197 -12.83869420601767
v -20.977101161346106 122.95646929273298 -2.1549010783490594
v -20.573767299077293 131.75131003341914 14.381304730790845
v -20.573770113431742 131.75132153463306 -2.8930848335789365
v -20.977101161346106 122.95646929273298 -2.1549010783490594
v -20.977098709305785 122.9564699506119 12.895613822701062
v -12.905954084247588 131.74959369449329 19.268452739506017
v -20.573767299077293 131.75131003341914 14.381304730790845
v -20.977098709305785 122.9564699506119 12.895613822701062
v -12.265814442072315 121.1414828117036 19.412548914163267
v -2.681562778554798 131.7480362506244 19.274511815344887
v -12.905954084247588 131.74959369449329 19.268452739506017
v -12.265814442072315 121.1414828117036 19.412548914163267
v -2.6815636824486155 121.14015829352591 19.418609626321896
v -14.202216033740417 131.7495802724982 -9.99202124850686
v -2.6815556021852944 131.74805940028693 -11.905904494296488
v -2.6815570277260083 122.95340301549513 -15.936622023155754
v -13.990998279020237 122.95471556387197 -12.83869420601767
v -21.422603780834642 141.76669324095067 -1.7134014729177771
v -12.948916774181242 141.76495162047092 -12.806047472503508
v -14.202216033740417 131.7495802724982 -9.99202124850686
v -20.573770113431742 131.75132153463306 -2.8930848335789365
v -21.42260161887534 141.7666938210013 11.55660897201847
v -21.422603780834642 141.76669324095067 -1.7134014729177771
v -20.573770113431742 131.75132153463306 -2.8930848335789365
v -20.573767299077293 131.75131003341914 14.381304730790845
v -13.812049559893104 141.76498982090894 18.217345827548055
v -21.42260161887534 141.7666938210013 11.55660897201847
v -20.573767299077293 131.75131003341914 14.381304730790845
v -12.905954084247588 131.74959369449329 19.268452739506017
v -2.6815552617978256 144.47463661376733 20.968653978370305
v -13.812049559893104 141.76498982090894 18.217345827548055
v -12.905954084247588 131.74959369449329 19.268452739506017
v -2.681562778554798 131.7480362506244 19.274511815344887
v -12.948916774181242 141.76495162047092 -12.806047472503508
v -2.681561189198815 143.1359527810868 -14.695137606385584
v -2.6815556021852944 131.74805940028693 -11.905904494296488
v -14.202216033740417 131.7495802724982 -9.99202124850686
v -24.94323828084675 151.49845425094182 -3.129417901882608
v -28.507274337216028 159.30770358085707 -15.725689972479238
v -12.948916774181242 141.76495162047092 -12.806047472503508
v -21.422603780834642 141.76669324095067 -1.7134014729177771
v -29.37702617477474 159.63773026140117 11.139848861119923
v -24.94323828084675 151.49845425094182 -3.129417901882608
v -21.422603780834642 141.76669324095067 -1.7134014729177771
v -21.42260161887534 141.7666938210013 11.55660897201847
v -16.293373433850366 153.89356867683998 19.783046967957752
v -29.37702617477474 159.63773026140117 11.139848861119923
v -21.42260161887534 141.7666938210013 11.55660897201847
v -13.812049559893104 141.76498982090894 18.217345827548055
v -2.681554452726338 155.9251107403847 19.790406103136917
v -16.293373433850366 153.89356867683998 19.783046967957752
v -13.812049559893104 141.76498982090894 18.217345827548055
v -2.6815552617978256 144.47463661376733 20.968653978370305
v -28.507274337216028 159.30770358085707 -15.725689972479238
v -2.681548992088953 153.891862085694 -20.830050158290092
v -2.681561189198815 143.1359527810868 -14.695137606385584
v -12.948916774181242 141.76495162047092 -12.806047472503508
v -62.06830157028192 106.5455067624713 19.737392576631585
v -66.91758114180402 106.84711024904648 19.636998916479506
v -64.2691188238751 102.8068381564508 9.116446640126313
v -17.017909626799657 170.80185970435838 18.391462708584704
v -26.522716414222348 170.50946158707467 10.072989652444555
v -29.37702617477474 159.63773026140117 11.139848861119923
v -16.42876803231309 157.37484868947777 22.66655646223637
v -2.681553672559374 159.51905066344514 22.650538205646164
v -16.42876803231309 157.37484868947777 22.66655646223637
v -16.293373433850366 153.89356867683998 19.783046967957752
v -2.681554452726338 155.9251107403847 19.790406103136917
v -16.42876803231309 157.37484868947777 22.66655646223637
v -2.681553672559374 159.51905066344514 22.650538205646164
v -2.681553379027987 170.80014256914737 18.398817984503836
v -17.017909626799657 170.80185970435838 18.391462708584704
v -26.29930049171597 170.62332147511447 -15.852866816618974
v -2.6815475872444563 169.68440071120222 -20.6814094771983
v -2.681548992088953 153.891862085694 -20.830050158290092
v -28.507274337216028 159.30770358085707 -15.725689972479238
v -21.81443462063859 178.92801997432622 -2.3326657344274384
v -13.068330859035667 180.51728159515386 -1.698051977052617
v -10.211743433183235 179.22958498595773 -8.558741330891074
v -26.29930049171597 170.62332147511447 -15.852866816618974
v -21.81443462063859 178.92801997432622 -2.3326657344274384
v -26.522716414222348 170.50946158707467 10.072989652444555
v -10.275853921196545 180.28628711046096 4.56083311611709
v -13.068330859035667 180.51728159515386 -1.698051977052617
v -2.681554016248264 179.26726100721046 9.944155560811646
v -10.275853921196545 180.28628711046096 4.56083311611709
v -26.522716414222348 170.50946158707467 10.072989652444555
v -17.017909626799657 170.80185970435838 18.391462708584704
v -17.017909626799657 170.80185970435838 18.391462708584704
v -2.681553379027987 170.80014256914737 18.398817984503836
v -2.681554016248264 179.26726100721046 9.944155560811646
v -10.211743433183235 179.22958498595773 -8.558741330891074
v -2.681551840377055 178.16877669538684 -13.725320909543766
v -2.6815475872444563 169.68440071120222 -20.6814094771983
v -26.29930049171597 170.62332147511447 -15.852866816618974
v -33.69523112355578 166.5450992405248 -12.247677147145264
v -37.687008451895416 171.57138481975218 -0.7524117975961371
v -30.98472272987596 178.5422414147018 -2.6911151075385895
v -26.29930049171597 170.62332147511447 -15.852866816618974
v -28.507274337216028 159.30770358085707 -15.725689972479238
v -33.69523112355578 166.5450992405248 -12.247677147145264
v -26.29930049171597 170.62332147511447 -15.852866816618974
v -29.37702617477474 159.63773026140117 11.139848861119923
v -26.522716414222348 170.50946158707467 10.072989652444555
v -33.803046195157876 166.58700451515617 9.952870437300495
v -37.687008451895416 171.57138481975218 -0.7524117975961371
v -33.803046195157876 166.58700451515617 9.952870437300495
v -26.522716414222348 170.50946158707467 10.072989652444555
v -30.98472272987596 178.5422414147018 -2.6911151075385895
v -33.2731366709967 141.2530204652896 -0.7980391072199939
v -34.739150697383955 142.86652562875497 -7.35784178791618
v -28.507274337216028 159.30770358085707 -15.725689972479238
v -24.94323828084675 151.49845425094182 -3.129417901882608
v -35.16229737256237 143.01249879394598 5.853167717668917
v -33.2731366709967 141.2530204652896 -0.7980391072199939
v -24.94323828084675 151.49845425094182 -3.129417901882608
v -29.37702617477474 159.63773026140117 11.139848861119923
v -42.521044239864715 150.09423886007139 -7.927849287749323
v -45.40340647692051 153.06232344308094 -0.7858257738473275
v -37.687008451895416 171.57138481975218 -0.7524117975961371
v -33.69523112355578 166.5450992405248 -12.247677147145264
v -34.739150697383955 142.86652562875497 -7.35784178791618
v -42.521044239864715 150.09423886007139 -7.927849287749323
v -33.69523112355578 166.5450992405248 -12.247677147145264
v -28.507274337216028 159.30770358085707 -15.725689972479238
v -42.58780206975903 150.11785736179698 5.86537804846867
v -35.16229737256237 143.01249879394598 5.853167717668917
v -29.37702617477474 159.63773026140117 11.139848861119923
v -33.803046195157876 166.58700451515617 9.952870437300495
v -45.40340647692051 153.06232344308094 -0.7858257738473275
v -42.58780206975903 150.11785736179698 5.86537804846867
v -33.803046195157876 166.58700451515617 9.952870437300495
v -37.687008451895416 171.57138481975218 -0.7524117975961371
v -37.45066040526201 136.77721577813105 2.641855049989138
v -38.811343917316904 136.0798320700261 -3.5892637742909956
v -34.739150697383955 142.86652562875497 -7.35784178791618
v -33.2731366709967 141.2530204652896 -0.7980391072199939
v -46.034191201474236 142.19281002143566 -6.402678695724616
v -48.709507860491065 147.06758281444257 -1.133077426883193
v -45.40340647692051 153.06232344308094 -0.7858257738473275
v -42.521044239864715 150.09423886007139 -7.927849287749323
v -38.811343917316904 136.0798320700261 -3.5892637742909956
v -46.034191201474236 142.19281002143566 -6.402678695724616
v -42.521044239864715 150.09423886007139 -7.927849287749323
v -34.739150697383955 142.86652562875497 -7.35784178791618
v -39.204082622837475 140.44189933024015 7.87136030274909
v -37.45066040526201 136.77721577813105 2.641855049989138
v -33.2731366709967 141.2530204652896 -0.7980391072199939
v -35.16229737256237 143.01249879394598 5.853167717668917
v -46.09613220926444 146.63491092533218 5.604315533556853
v -39.204082622837475 140.44189933024015 7.87136030274909
v -35.16229737256237 143.01249879394598 5.853167717668917
v -42.58780206975903 150.11785736179698 5.86537804846867
v -48.709507860491065 147.06758281444257 -1.133077426883193
v -46.09613220926444 146.63491092533218 5.604315533556853
v -42.58780206975903 150.11785736179698 5.86537804846867
v -45.40340647692051 153.06232344308094 -0.7858257738473275
v -41.07590328532249 128.86349393909632 5.544104779151249
v -42.85784850026834 127.9501909201729 -2.616157544397714
v -38.811343917316904 136.0798320700261 -3.5892637742909956
v -37.45066040526201 136.77721577813105 2.641855049989138
v -52.31690715858319 135.95573807963353 -6.300607679158493
v -55.82049207960471 142.3397397253412 0.600463392657522
v -48.709507860491065 147.06758281444257 -1.133077426883193
v -46.034191201474236 142.19281002143566 -6.402678695724616
v -42.85784850026834 127.9501909201729 -2.616157544397714
v -52.31690715858319 135.95573807963353 -6.300607679158493
v -46.034191201474236 142.19281002143566 -6.402678695724616
v -38.811343917316904 136.0798320700261 -3.5892637742909956
v -43.37221805464586 133.6627556945185 12.39266699513433
v -41.07590328532249 128.86349393909632 5.544104779151249
v -37.45066040526201 136.77721577813105 2.641855049989138
v -39.204082622837475 140.44189933024015 7.87136030274909
v -52.3980408100618 141.77311873771015 9.42375274151794
v -43.37221805464586 133.6627556945185 12.39266699513433
v -39.204082622837475 140.44189933024015 7.87136030274909
v -46.09613220926444 146.63491092533218 5.604315533556853
v -55.82049207960471 142.3397397253412 0.600463392657522
v -52.3980408100618 141.77311873771015 9.42375274151794
v -46.09613220926444 146.63491092533218 5.604315533556853
v -48.709507860491065 147.06758281444257 -1.133077426883193
v -54.73364061577842 118.49076673522045 9.32270705462015
v -55.60505214915049 118.04417152333562 5.332157514640421
v -42.85784850026834 127.9501909201729 -2.616157544397714
v -41.07590328532249 128.86349393909632 5.544104779151249
v -60.23072770103365 121.95905515778155 3.5303783278472376
v -61.944035390486526 125.08095605759651 6.905152389048254
v -55.82049207960471 142.3397397253412 0.600463392657522
v -52.31690715858319 135.95573807963353 -6.300607679158493
v -55.60505214915049 118.04417152333562 5.332157514640421
v -60.23072770103365 121.95905515778155 3.5303783278472376
v -52.31690715858319 135.95573807963353 -6.300607679158493
v -42.85784850026834 127.9501909201729 -2.616157544397714
v -55.85658680326232 120.83773840809577 12.671791939438709
v -54.73364061577842 118.49076673522045 9.32270705462015
v -41.07590328532249 128.86349393909632 5.544104779151249
v -43.37221805464586 133.6627556945185 12.39266699513433
v -60.270412106709614 124.80386563583943 11.219930053597723
v -55.85658680326232 120.83773840809577 12.671791939438709
v -43.37221805464586 133.6627556945185 12.39266699513433
v -52.3980408100618 141.77311873771015 9.42375274151794
v -61.944035390486526 125.08095605759651 6.905152389048254
v -60.270412106709614 124.80386563583943 11.219930053597723
v -52.3980408100618 141.77311873771015 9.42375274151794
v -55.82049207960471 142.3397397253412 0.600463392657522
v -61.33666084075159 117.52638063088203 18.49697680686928
v -61.20530069336399 111.98712000052265 3.6587437736388013
v -55.60505214915049 118.04417152333562 5.332157514640421
v -54.73364061577842 118.49076673522045 9.32270705462015
v -55.85658680326232 120.83773840809577 12.671791939438709
v -68.14682919691263 114.22708220082059 2.135896361138995
v -67.96361912215151 119.47628517001604 16.91374772451155
v -60.270412106709614 124.80386563583943 11.219930053597723
v -61.944035390486526 125.08095605759651 6.905152389048254
v -60.23072770103365 121.95905515778155 3.5303783278472376
v -61.20530069336399 111.98712000052265 3.6587437736388013
v -68.14682919691263 114.22708220082059 2.135896361138995
v -60.23072770103365 121.95905515778155 3.5303783278472376
v -55.60505214915049 118.04417152333562 5.332157514640421
v -67.96361912215151 119.47628517001604 16.91374772451155
v -61.33666084075159 117.52638063088203 18.49697680686928
v -55.85658680326232 120.83773840809577 12.671791939438709
v -60.270412106709614 124.80386563583943 11.219930053597723
v -62.06830157028192 106.5455067624713 19.737392576631585
v -64.2691188238751 102.8068381564508 9.116446640126313
v -61.20530069336399 111.98712000052265 3.6587437736388013
v -61.33666084075159 117.52638063088203 18.49697680686928
v -64.2691188238751 102.8068381564508 9.116446640126313
v -66.91758114180402 106.84711024904648 19.636998916479506
v -67.96361912215151 119.47628517001604 16.91374772451155
v -68.14682919691263 114.22708220082059 2.135896361138995
v -68.14682919691263 114.22708220082059 2.135896361138995
v -61.20530069336399 111.98712000052265 3.6587437736388013
v -64.2691188238751 102.8068381564508 9.116446640126313
v -66.91758114180402 106.84711024904648 19.636998916479506
v -62.06830157028192 106.5455067624713 19.737392576631585
v -61.33666084075159 117.52638063088203 18.49697680686928
v -67.96361912215151 119.47628517001604 16.91374772451155
v -29.37702617477474 159.63773026140117 11.139848861119923
v -16.293373433850366 153.89356867683998 19.783046967957752
v -16.42876803231309 157.37484868947777 22.66655646223637
v -2.681554016248264 179.26726100721046 9.944155560811646
v -6.560967980361512 188.87632402299445 4.150048180693205
v -10.275853921196545 180.28628711046096 4.56083311611709
v -2.68154769267519 188.85357606913126 5.999656078820335
v -6.560967980361512 188.87632402299445 4.150048180693205
v -2.681554016248264 179.26726100721046 9.944155560811646
v -2.681551840377055 178.16877669538684 -13.725320909543766
v -10.211743433183235 179.22958498595773 -8.558741330891074
v -7.654451912922572 188.8760664290016 -2.879170105975674
v -2.681543712798432 188.85357549275176 -7.186357305732798
v -8.274731292800256 78.20893293542474 17.835541669285934
v -2.6815646349851825 108.11673494489575 20.560315404711844
v -12.329965299135607 109.01344344082466 17.509501891146947
v -16.236437965358558 78.93081128616339 15.124369178483304
v -13.068330859035667 180.51728159515386 -1.698051977052617
v -8.709173623225627 188.59467424163915 0.4678401204268505
v -7.654451912922572 188.8760664290016 -2.879170105975674
v -10.211743433183235 179.22958498595773 -8.558741330891074
v -10.275853921196545 180.28628711046096 4.56083311611709
v -6.560967980361512 188.87632402299445 4.150048180693205
v -8.709173623225627 188.59467424163915 0.4678401204268505
v -13.068330859035667 180.51728159515386 -1.698051977052617
v -30.98472272987596 178.5422414147018 -2.6911151075385895
v -21.81443462063859 178.92801997432622 -2.3326657344274384
v -26.29930049171597 170.62332147511447 -15.852866816618974
v -30.98472272987596 178.5422414147018 -2.6911151075385895
v -26.522716414222348 170.50946158707467 10.072989652444555
v -21.81443462063859 178.92801997432622 -2.3326657344274384
v -8.274731292800256 78.20893293542474 17.835541669285934
v 2.8872365013854697 78.17674691176552 17.832327934930113
v -2.6815646349851825 108.11673494489575 20.560315404711844
v -2.68154769267519 188.85357606913126 5.999656078820335
v -2.681548279144858 192.05748335240875 0.6807232994997934
v -6.560967980361512 188.87632402299445 4.150048180693205
v -7.654451912922572 188.8760664290016 -2.879170105975674
v -2.681548279144858 192.05748335240875 0.6807232994997934
v -2.681543712798432 188.85357549275176 -7.186357305732798
v -8.709173623225627 188.59467424163915 0.4678401204268505
v -2.681548279144858 192.05748335240875 0.6807232994997934
v -7.654451912922572 188.8760664290016 -2.879170105975674
v -6.560967980361512 188.87632402299445 4.150048180693205
v -2.681548279144858 192.05748335240875 0.6807232994997934
v -8.709173623225627 188.59467424163915 0.4678401204268505
f 272 273 274
f 272 274 275
f 276 277 278
f 276 278 279
f 280 281 282
f 280 282 283
f 284 285 286
f 284 286 287
f 288 289 290
f 288 290 291
f 292 293 294
f 292 294 295
f 296 297 298
f 296 298 299
f 300 301 302
f 300 302 303
f 304 305 306
f 304 306 307
f 308 309 310
f 308 310 311
f 316 312 313
f 316 313 314
f 314 315 316
f 317 318 319
f 317 319 320
f 325 321 322
f 325 322 323
f 323 324 325
f 326 327 328
f 326 328 329
f 330 331 332
f 330 332 333
f 334 335 336
f 334 336 337
f 338 339 340
f 338 340 341
f 342 343 344
f 342 344 345
f 346 347 348
f 346 348 349
f 350 351 352
f 350 352 353
f 354 355 356
f 354 356 357
f 358 359 360
f 358 360 361
f 362 363 364
f 362 364 365
f 366 367 368
f 366 368 369
f 370 371 372
f 370 372 373
f 374 375 376
f 374 376 377
f 378 379 380
f 378 380 381
f 382 383 384
f 382 384 385
f 386 387 388
f 386 388 389
f 390 391 392
f 390 392 393
f 394 395 396
f 394 396 397
f 398 399 400
f 398 400 401
f 402 403 404
f 402 404 405
f 406 407 408
f 406 408 409
f 410 411 412
f 410 412 413
f 414 415 416
f 414 416 417
f 418 419 420
f 418 420 421
f 422 423 424
f 422 424 425
f 426 427 428
f 426 428 429
f 430 431 432
f 430 432 433
f 434 435 436
f 434 436 437
f 438 439 440
f 438 440 441
f 442 443 444
f 442 444 445
f 446 447 448
f 446 448 449
f 450 451 452
f 450 452 453
f 454 455 456
f 454 456 457
f 458 459 460
f 458 460 461
f 462 463 464
f 462 464 465
f 466 467 468
f 466 468 469
f 470 471 472
f 470 472 473
f 474 475 476
f 474 476 477
f 478 479 480
f 478 480 481
f 482 483 484
f 482 484 485
f 486 487 488
f 486 488 489
f 490 491 492
f 490 492 493
f 494 495 496
f 494 496 497
f 498 499 500
f 498 500 501
f 502 503 504
f 502 504 505
f 506 507 508
f 506 508 509
f 510 511 512
f 510 512 513
f 514 515 516
f 514 516 517
f 518 519 520
f 521 522 523
f 521 523 524
f 525 526 527
f 525 527 528
f 529 530 531
f 529 531 532
f 533 534 535
f 533 535 536
f 537 538 539
f 537 539 540
f 541 542 543
f 541 543 544
f 545 546 547
f 545 547 548
f 549 550 551
f 552 553 554
f 552 554 555
f 556 557 558
f 556 558 559
f 560 561 562
f 563 564 565
f 566 567 568
f 566 568 569
f 570 571 572
f 570 572 573
f 574 575 576
f 574 576 577
f 578 579 580
f 578 580 581
f 582 583 584
f 582 584 585
f 586 587 588
f 586 588 589
f 590 591 592
f 590 592 593
f 594 595 596
f 594 596 597
f 598 599 600
f 598 600 601
f 602 603 604
f 602 604 605
f 606 607 608
f 606 608 609
f 610 611 612
f 610 612 613
f 614 615 616
f 614 616 617
f 618 619 620
f 618 620 621
f 622 623 624
f 622 624 625
f 626 627 628
f 626 628 629
f 630 631 632
f 630 632 633
f 634 635 636
f 634 636 637
f 638 639 640
f 638 640 641
f 642 643 644
f 642 644 645
f 646 647 648
f 646 648 649
f 650 651 652
f 650 652 653
f 654 655 656
f 654 656 657
f 658 659 660
f 658 660 661
f 662 663 664
f 662 664 665
f 670 666 667
f 670 667 668
f 668 669 670
f 675 671 672
f 675 672 673
f 673 674 675
f 676 677 678
f 676 678 679
f 680 681 682
f 680 682 683
f 684 685 686
f 684 686 687
f 688 689 690
f 688 690 691
f 692 693 694
f 695 696 697
f 695 697 698
f 699 700 701
f 702 703 704
f 705 706 707
f 708 709 710
f 708 710 711
f 712 713 714
f 712 714 715
f 716 717 718
f 716 718 719
f 720 721 722
f 720 722 723
f 724 725 726
f 727 728 729
f 730 731 732
f 733 734 735
f 736 737 738
f 739 740 741
f 742 743 744
f 745 746 747
f 745 747 748
f 749 750 751
f 749 751 752
f 753 754 755
f 753 755 756
f 757 758 759
f 757 759 760
f 761 762 763
f 761 763 764
f 765 766 767
f 765 767 768
f 769 770 771
f 769 771 772
f 773 774 775
f 773 775 776
f 777 778 779
f 777 779 780
f 781 782 783
f 781 783 784
f 785 786 787
f 785 787 788
f 793 789 790
f 790 791 792
f 790 792 793
f 794 795 796
f 794 796 797
f 802 798 799
f 802 799 800
f 800 801 802
f 803 804 805
f 803 805 806
f 807 808 809
f 807 809 810
f 811 812 813
f 811 813 814
f 815 816 817
f 815 817 818
f 819 820 821
f 819 821 822
f 823 824 825
f 823 825 826
f 827 828 829
f 827 829 830
f 831 832 833
f 831 833 834
f 835 836 837
f 835 837 838
f 839 840 841
f 839 841 842
f 843 844 845
f 843 845 846
f 847 848 849
f 847 849 850
f 851 852 853
f 851 853 854
f 855 856 857
f 855 857 858
f 859 860 861
f 859 861 862
f 863 864 865
f 863 865 866
f 867 868 869
f 867 869 870
f 871 872 873
f 871 873 874
f 875 876 877
f 875 877 878
f 879 880 881
f 879 881 882
f 883 884 885
f 883 885 886
f 887 888 889
f 887 889 890
f 891 892 893
f 891 893 894
f 895 896 897
f 895 897 898
f 899 900 901
f 899 901 902
f 903 904 905
f 903 905 906
f 907 908 909
f 907 909 910
f 911 912 913
f 911 913 914
f 915 916 917
f 915 917 918
f 919 920 921
f 919 921 922
f 923 924 925
f 923 925 926
f 927 928 929
f 927 929 930
f 931 932 933
f 931 933 934
f 935 936 937
f 935 937 938
f 939 940 941
f 939 941 942
f 943 944 945
f 943 945 946
f 947 948 949
f 947 949 950
f 951 952 953
f 951 953 954
f 955 956 957
f 955 957 958
f 959 960 961
f 959 961 962
f 963 964 965
f 963 965 966
f 967 968 969
f 967 969 970
f 971 972 973
f 971 973 974
f 975 976 977
f 975 977 978
f 979 980 981
f 979 981 982
f 983 984 985
f 983 985 986
f 987 988 989
f 987 989 990
f 991 992 993
f 991 993 994
f 995 996 997
f 998 999 1000
f 998 1000 1001
f 1002 1003 1004
f 1002 1004 1005
f 1006 1007 1008
f 1006 1008 1009
f 1010 1011 1012
f 1010 1012 1013
f 1014 1015 1016
f 1014 1016 1017
f 1018 1019 1020
f 1018 1020 1021
f 1022 1023 1024
f 1022 1024 1025
f 1026 1027 1028
f 1029 1030 1031
f 1029 1031 1032
f 1033 1034 1035
f 1033 1035 1036
f 1037 1038 1039
f 1040 1041 1042
f 1043 1044 1045
f 1043 1045 1046
f 1047 1048 1049
f 1047 1049 1050
f 1051 1052 1053
f 1051 1053 1054
f 1055 1056 1057
f 1055 1057 1058
f 1059 1060 1061
f 1059 1061 1062
f 1063 1064 1065
f 1063 1065 1066
f 1067 1068 1069
f 1067 1069 1070
f 1071 1072 1073
f 1071 1073 1074
f 1075 1076 1077
f 1075 1077 1078
f 1079 1080 1081
f 1079 1081 1082
f 1083 1084 1085
f 1083 1085 1086
f 1087 1088 1089
f 1087 1089 1090
f 1091 1092 1093
f 1091 1093 1094
f 1095 1096 1097
f 1095 1097 1098
f 1099 1100 1101
f 1099 1101 1102
f 1103 1104 1105
f 1103 1105 1106
f 1107 1108 1109
f 1107 1109 1110
f 1111 1112 1113
f 1111 1113 1114
f 1115 1116 1117
f 1115 1117 1118
f 1119 1120 1121
f 1119 1121 1122
f 1123 1124 1125
f 1123 1125 1126
f 1127 1128 1129
f 1127 1129 1130
f 1131 1132 1133
f 1131 1133 1134
f 1135 1136 1137
f 1135 1137 1138
f 1139 1140 1141
f 1139 1141 1142
f 1147 1143 1144
f 1147 1144 1145
f 1145 1146 1147
f 1152 1148 1149
f 1152 1149 1150
f 1150 1151 1152
f 1153 1154 1155
f 1153 1155 1156
f 1157 1158 1159
f 1157 1159 1160
f 1161 1162 1163
f 1161 1163 1164
f 1165 1166 1167
f 1165 1167 1168
f 1169 1170 1171
f 1172 1173 1174
f 1172 1174 1175
f 1176 1177 1178
f 1179 1180 1181
f 1182 1183 1184
f 1185 1186 1187
f 1185 1187 1188
f 1189 1190 1191
f 1189 1191 1192
f 1193 1194 1195
f 1193 1195 1196
f 1197 1198 1199
f 1197 1199 1200
f 1201 1202 1203
f 1204 1205 1206
f 1207 1208 1209
f 1210 1211 1212
f 1213 1214 1215
f 1216 1217 1218
f 1219 1220 1221
