o convex_0
v -2.480611 1.971146 29.731027
v 3.898979 0.743193 28.749073
v 3.898979 0.498756 28.749073
v -0.272169 0.498756 43.469304
v -0.517111 -2.446025 28.258853
v -0.028020 3.443537 28.258853
v -4.199169 0.498756 28.258853
v -0.517111 0.988784 42.977570
v -0.028020 -2.446025 28.994183
v -0.762846 0.253742 41.997129
v -0.762846 3.443537 28.749073
v 1.689745 -0.482454 28.012230
v 0.217715 0.988784 41.750506
v 0.954126 0.253742 39.052781
v -0.028020 3.197370 30.711468
v -3.462757 -0.237439 28.749073
v -4.199169 0.743193 28.749073
v -0.517111 -2.446025 29.239294
v 3.162568 -0.237439 28.258853
v -1.989934 0.008151 28.012230
v 3.653245 0.988784 28.258853
v -0.028020 2.461751 28.012230
v -0.028020 0.498756 43.222680
v 3.407510 0.253742 30.221248
v 3.653245 0.988784 28.749073
v -1.007788 0.988784 41.260286
v -3.953434 0.253742 29.239294
v -0.762846 0.498756 42.732460
v -0.028020 0.253742 42.487350
v -0.762846 3.443537 28.258853
v -1.007788 -2.200435 28.749073
v -3.707699 1.233798 28.503963
f 30 7 32 
f 6 11 15 
f 11 8 15 
f 8 13 15 
f 7 5 16 
f 5 9 18 
f 9 5 19 
f 5 12 19 
f 5 7 20 
f 12 5 20 
f 2 3 21 
f 3 19 21 
f 19 12 21 
f 20 7 22 
f 12 20 22 
f 6 21 22 
f 21 12 22 
f 3 2 23 
f 8 4 23 
f 2 13 23 
f 13 8 23 
f 23 14 24 
f 14 9 24 
f 19 3 24 
f 9 19 24 
f 3 23 24 
f 13 2 25 
f 6 15 25 
f 15 13 25 
f 2 21 25 
f 21 6 25 
f 11 1 26 
f 8 11 26 
f 7 16 27 
f 16 10 27 
f 17 7 27 
f 17 27 28 
f 4 8 28 
f 10 4 28 
f 8 26 28 
f 26 17 28 
f 27 10 28 
f 4 10 29 
f 9 14 29 
f 18 9 29 
f 10 18 29 
f 23 4 29 
f 14 23 29 
f 11 6 30 
f 6 22 30 
f 22 7 30 
f 16 5 31 
f 10 16 31 
f 5 18 31 
f 18 10 31 
f 1 11 32 
f 7 17 32 
f 26 1 32 
f 17 26 32 
f 11 30 32 
o convex_1
v 1.444803 0.253357 -33.338890
v -5.426161 0.007959 -42.418632
v -5.426161 0.007959 -41.681836
v 4.389776 0.007959 -42.418632
v -5.426161 0.253357 -42.418632
v -2.235213 0.007959 -33.338890
v 4.389776 0.253357 -42.418632
v -2.481187 0.253357 -33.585970
v 1.444803 0.007959 -33.338890
v 4.389776 0.253357 -41.926250
v -5.426161 0.253357 -41.681836
v -2.971216 0.007959 -34.812482
v 4.389776 0.007959 -41.926250
v -2.235213 0.253357 -33.338890
v 2.671795 0.253357 -36.774901
v 2.671795 0.007959 -36.774901
v -2.971216 0.253357 -34.812482
v -2.481187 0.007959 -33.585970
v -4.199169 0.253357 -38.246715
v -4.199169 0.007959 -38.246715
v 3.162784 0.007959 -38.246715
v 3.162784 0.253357 -38.246715
f 47 53 54 
f 35 34 36 
f 34 35 37 
f 36 34 37 
f 35 36 38 
f 37 33 39 
f 36 37 39 
f 33 37 40 
f 38 36 41 
f 33 38 41 
f 39 33 42 
f 36 39 42 
f 37 35 43 
f 40 37 43 
f 35 38 44 
f 41 36 45 
f 36 42 45 
f 38 33 46 
f 33 40 46 
f 40 38 46 
f 33 41 47 
f 42 33 47 
f 41 45 48 
f 47 41 48 
f 40 43 49 
f 44 40 49 
f 38 40 50 
f 40 44 50 
f 44 38 50 
f 43 35 51 
f 49 43 51 
f 44 49 51 
f 35 44 52 
f 51 35 52 
f 44 51 52 
f 45 42 53 
f 48 45 53 
f 47 48 53 
f 42 47 54 
f 53 42 54 
o convex_2
v -0.763591 1.970954 -33.338890
v 1.690394 -0.237151 28.010716
v 1.690394 -0.482646 28.010716
v -2.235981 -0.482646 22.605994
v 1.444803 -0.973635 -33.338890
v -0.027588 2.461943 28.010716
v -2.235981 -0.973635 -33.338890
v 0.218003 1.725123 -33.338890
v -2.235981 0.253501 -32.840455
v -0.518000 2.461943 28.010716
v -2.235981 -0.728140 18.432347
v -1.990391 0.008007 28.010716
v 1.199212 0.253838 -33.338890
v -0.027588 2.461943 3.953696
v 1.690394 -0.728140 18.432347
v -0.518000 2.216449 -33.338890
v 1.690394 -0.237151 12.787414
v -1.990391 -0.482646 28.010716
v -0.518000 2.461943 -1.198807
v -2.235981 -0.237151 22.605994
v 0.218003 2.216449 22.365784
v 1.444803 -0.237151 -33.338890
v -0.027588 2.216449 -26.210662
v -2.235981 -0.973635 -29.657674
v -1.008797 1.725123 28.010716
v 1.690394 -0.728140 3.215050
v 1.444803 -0.973635 -29.657674
v 1.444803 0.253838 24.329500
v 0.218003 2.216449 28.010716
v -0.272794 2.216449 -33.338890
v -2.235981 0.253501 -33.338890
v 1.690394 -0.482646 3.215050
f 80 76 86 
f 57 56 60 
f 55 59 61 
f 59 55 62 
f 61 58 63 
f 57 60 64 
f 58 61 65 
f 57 64 66 
f 59 62 67 
f 64 60 68 
f 56 57 69 
f 57 65 69 
f 62 55 70 
f 56 69 71 
f 65 57 72 
f 58 65 72 
f 57 66 72 
f 66 58 72 
f 63 64 73 
f 64 68 73 
f 70 55 73 
f 63 58 74 
f 58 66 74 
f 67 68 75 
f 68 60 75 
f 59 67 76 
f 67 71 76 
f 67 62 77 
f 68 67 77 
f 61 59 78 
f 65 61 78 
f 69 65 78 
f 64 63 79 
f 66 64 79 
f 63 74 79 
f 74 66 79 
f 69 59 80 
f 71 69 80 
f 59 76 80 
f 59 69 81 
f 78 59 81 
f 69 78 81 
f 71 67 82 
f 56 71 82 
f 67 75 82 
f 82 75 83 
f 60 56 83 
f 75 60 83 
f 56 82 83 
f 62 70 84 
f 73 68 84 
f 70 73 84 
f 77 62 84 
f 68 77 84 
f 55 61 85 
f 61 63 85 
f 73 55 85 
f 63 73 85 
f 76 71 86 
f 71 80 86 
