v -0.3512539567655526 0.6379938740833309 43.3481181484051
v -0.3271527419918734 -2.3233260090599446 28.392791080686198
v 3.7159141874808697 0.5647075862429745 28.385073202692126
v -0.3512539567655526 0.6379938740833309 43.3481181484051
v 3.7159141874808697 0.5647075862429745 28.385073202692126
v -0.3254431988802333 3.398800923896732 28.35222046988273
v -0.3512539567655526 0.6379938740833309 43.3481181484051
v -0.3254431988802333 3.398800923896732 28.35222046988273
v -4.00737659856779 0.5819577750351388 28.342207902015442
v -0.3512539567655526 0.6379938740833309 43.3481181484051
v -4.00737659856779 0.5819577750351388 28.342207902015442
v -0.3271527419918734 -2.3233260090599446 28.392791080686198
v -0.3254431988802333 3.398800923896732 28.35222046988273
v 3.7159141874808697 0.5647075862429745 28.385073202692126
v -4.00737659856779 0.5819577750351388 28.342207902015442
v -4.00737659856779 0.5819577750351388 28.342207902015442
v 3.7159141874808697 0.5647075862429745 28.385073202692126
v -0.3271527419918734 -2.3233260090599446 28.392791080686198
v -0.36026967690425327 2.052977343848948 -33.288043708528875
v 1.3753777278228407 -0.7460012837534975 -33.27708772454612
v -2.096094413470415 -0.7458560820797651 -33.2705099101614
v -1.9778289319263722 -0.42830995432625185 29.11568810046854
v -0.24200450947249053 2.3705235115416645 29.098151048248432
v -0.36026967690425327 2.052977343848948 -33.288043708528875
v -2.096094413470415 -0.7458560820797651 -33.2705099101614
v -0.24200450947249053 2.3705235115416645 29.098151048248432
v 1.4936427402629149 -0.4284550127132962 29.10910739270568
v 1.3753777278228407 -0.7460012837534975 -33.27708772454612
v -0.36026967690425327 2.052977343848948 -33.288043708528875
v 1.4936427402629149 -0.4284550127132962 29.10910739270568
v -1.9778289319263722 -0.42830995432625185 29.11568810046854
v -2.096094413470415 -0.7458560820797651 -33.2705099101614
v 1.3753777278228407 -0.7460012837534975 -33.27708772454612
v -0.4685793547796919 0.17201815800610376 -28.66569942670998
v -5.303461505856896 0.0991132572016582 -42.25579786190252
v 4.257656808826214 0.09911054349338855 -42.29591504150662
v -0.4685792728001079 0.1720184634226669 -28.665710994956527
v 4.257657091911708 0.09911093868971577 -42.295932393167995
v -5.303461485463735 0.09911317888517601 -42.255809427659244
f 1 2 3
f 4 5 6
f 7 8 9
f 10 11 12
f 13 14 15
f 16 17 18
f 19 20 21
f 22 23 24
f 22 24 25
f 26 27 28
f 26 28 29
f 30 31 32
f 30 32 33
f 34 35 36
f 37 38 39
