v 0.032185017479562816 210.7249504077954 2.3469898867145957
v -8.88212711008093 211.2605505308806 3.0040958754059375
v -2.711897401735122 209.44330087566473 8.819924772998888
v -8.88212711008093 211.2605505308806 3.0040958754059375
v -1.803467982682065 211.09913909029345 -2.3730448487162903
v -6.703743431571041 210.94383895206008 -5.628005269934647
v 0.5766813990219077 187.60683109270283 0.8910353229159682
v -4.432944075657147 183.7367625446492 -3.732851915712331
v 2.5180251563379272 190.6938752747312 -6.1678129544491185
v -7.798226572265122 181.0991436261286 10.869832707283535
v -4.432944075657147 183.7367625446492 -3.732851915712331
v -1.9194261977544294 183.6376649954888 9.967011142620322
v 2.5180251563379272 190.6938752747312 -6.1678129544491185
v -4.432944075657147 183.7367625446492 -3.732851915712331
v -3.43234868109289 190.252895687501 -10.397838711341706
v 3.99584723923455 202.62962297352328 0.831813616136742
v 3.7752684168279558 193.99547530128012 0.9289874607230786
v 2.5180251563379272 190.6938752747312 -6.1678129544491185
v 1.8461083286131839 203.12703671585103 -6.74952299682127
v 3.7752684168279558 193.99547530128012 0.9289874607230786
v 3.99584723923455 202.62962297352328 0.831813616136742
v 0.3817814159372368 200.89348570405028 9.365179717255103
v -0.714269218175037 191.75242211305928 9.799434268765026
v -0.714269218175037 191.75242211305928 9.799434268765026
v 0.3817814159372368 200.89348570405028 9.365179717255103
v -10.134305973397105 198.457957927488 13.228795745656384
v -7.12509940171919 190.4490116701806 12.041215179117444
v 1.8461083286131839 203.12703671585103 -6.74952299682127
v 2.5180251563379272 190.6938752747312 -6.1678129544491185
v -3.43234868109289 190.252895687501 -10.397838711341706
v -4.470786611085771 202.22029039063642 -11.072207615783213
v 0.032185017479562816 210.7249504077954 2.3469898867145957
v 3.99584723923455 202.62962297352328 0.831813616136742
v 1.8461083286131839 203.12703671585103 -6.74952299682127
v -1.803467982682065 211.09913909029345 -2.3730448487162903
v -2.711897401735122 209.44330087566473 8.819924772998888
v 0.3817814159372368 200.89348570405028 9.365179717255103
v 3.99584723923455 202.62962297352328 0.831813616136742
v 0.032185017479562816 210.7249504077954 2.3469898867145957
v -10.866760884258753 207.89153586482828 12.35088134030616
v -10.134305973397105 198.457957927488 13.228795745656384
v 0.3817814159372368 200.89348570405028 9.365179717255103
v -2.711897401735122 209.44330087566473 8.819924772998888
v -4.470786611085771 202.22029039063642 -11.072207615783213
v -6.703743431571041 210.94383895206008 -5.628005269934647
v -1.803467982682065 211.09913909029345 -2.3730448487162903
v 1.8461083286131839 203.12703671585103 -6.74952299682127
v -10.134305973397105 198.457957927488 13.228795745656384
v -9.719916010898515 189.57019148387124 15.16460020156535
v -7.12509940171919 190.4490116701806 12.041215179117444
v -9.719916010898515 189.57019148387124 15.16460020156535
v -8.800882709208786 188.5478418589363 11.883034306548439
v -7.12509940171919 190.4490116701806 12.041215179117444
v -1.9194261977544294 183.6376649954888 9.967011142620322
v -0.714269218175037 191.75242211305928 9.799434268765026
v -7.12509940171919 190.4490116701806 12.041215179117444
v -8.800882709208786 188.5478418589363 11.883034306548439
v -7.798226572265122 181.0991436261286 10.869832707283535
v -10.866760884258753 207.89153586482828 12.35088134030616
v -2.711897401735122 209.44330087566473 8.819924772998888
v -8.88212711008093 211.2605505308806 3.0040958754059375
v -8.88212711008093 211.2605505308806 3.0040958754059375
v 0.032185017479562816 210.7249504077954 2.3469898867145957
v -1.803467982682065 211.09913909029345 -2.3730448487162903
v 2.5180251563379272 190.6938752747312 -6.1678129544491185
v 3.7752684168279558 193.99547530128012 0.9289874607230786
v 0.5766813990219077 187.60683109270283 0.8910353229159682
v -1.9194261977544294 183.6376649954888 9.967011142620322
v 3.7752684168279558 193.99547530128012 0.9289874607230786
v -0.714269218175037 191.75242211305928 9.799434268765026
v 0.5766813990219077 187.60683109270283 0.8910353229159682
v 3.7752684168279558 193.99547530128012 0.9289874607230786
v -1.9194261977544294 183.6376649954888 9.967011142620322
v -1.9194261977544294 183.6376649954888 9.967011142620322
v -4.432944075657147 183.7367625446492 -3.732851915712331
v 0.5766813990219077 187.60683109270283 0.8910353229159682
v -16.193600600111765 209.0896193905582 -1.6877291701571266
v -16.580032608746432 208.0455843473229 5.3714604841804885
v -8.88212711008093 211.2605505308806 3.0040958754059375
v -8.88212711008093 211.2605505308806 3.0040958754059375
v -6.703743431571041 210.94383895206008 -5.628005269934647
v -12.485118596457966 210.02257058132963 -5.02915550563705
v -11.64255861119787 186.37530970565953 -2.147411307674247
v -10.628856067697797 189.3688498940799 -9.436929540118285
v -4.432944075657147 183.7367625446492 -3.732851915712331
v -7.798226572265122 181.0991436261286 10.869832707283535
v -12.945931656146865 182.5263527921015 7.22514992221727
v -4.432944075657147 183.7367625446492 -3.732851915712331
v -10.628856067697797 189.3688498940799 -9.436929540118285
v -3.43234868109289 190.252895687501 -10.397838711341706
v -4.432944075657147 183.7367625446492 -3.732851915712331
v -17.39979168081139 200.47325121743376 -4.488444696971214
v -12.115153094641045 201.71993470169744 -10.221145477146024
v -10.628856067697797 189.3688498940799 -9.436929540118285
v -15.630419952281102 192.0396596920774 -3.8964491668921255
v -15.630419952281102 192.0396596920774 -3.8964491668921255
v -15.437317022283395 190.26854366240562 6.138387121198093
v -17.903512405928698 199.05058831816618 4.818341942454083
v -17.39979168081139 200.47325121743376 -4.488444696971214
v -15.437317022283395 190.26854366240562 6.138387121198093
v -10.682459006182363 190.0904609050664 11.156634815840903
v -10.134305973397105 198.457957927488 13.228795745656384
v -17.903512405928698 199.05058831816618 4.818341942454083
v -12.115153094641045 201.71993470169744 -10.221145477146024
v -4.470786611085771 202.22029039063642 -11.072207615783213
v -3.43234868109289 190.252895687501 -10.397838711341706
v -10.628856067697797 189.3688498940799 -9.436929540118285
v -16.193600600111765 209.0896193905582 -1.6877291701571266
v -12.485118596457966 210.02257058132963 -5.02915550563705
v -12.115153094641045 201.71993470169744 -10.221145477146024
v -17.39979168081139 200.47325121743376 -4.488444696971214
v -16.580032608746432 208.0455843473229 5.3714604841804885
v -16.193600600111765 209.0896193905582 -1.6877291701571266
v -17.39979168081139 200.47325121743376 -4.488444696971214
v -17.903512405928698 199.05058831816618 4.818341942454083
v -10.866760884258753 207.89153586482828 12.35088134030616
v -16.580032608746432 208.0455843473229 5.3714604841804885
v -17.903512405928698 199.05058831816618 4.818341942454083
v -10.134305973397105 198.457957927488 13.228795745656384
v -4.470786611085771 202.22029039063642 -11.072207615783213
v -12.115153094641045 201.71993470169744 -10.221145477146024
v -12.485118596457966 210.02257058132963 -5.02915550563705
v -6.703743431571041 210.94383895206008 -5.628005269934647
v -10.134305973397105 198.457957927488 13.228795745656384
v -10.682459006182363 190.0904609050664 11.156634815840903
v -9.719916010898515 189.57019148387124 15.16460020156535
v -9.719916010898515 189.57019148387124 15.16460020156535
v -10.682459006182363 190.0904609050664 11.156634815840903
v -8.800882709208786 188.5478418589363 11.883034306548439
v -12.945931656146865 182.5263527921015 7.22514992221727
v -7.798226572265122 181.0991436261286 10.869832707283535
v -8.800882709208786 188.5478418589363 11.883034306548439
v -10.682459006182363 190.0904609050664 11.156634815840903
v -15.437317022283395 190.26854366240562 6.138387121198093
v -10.866760884258753 207.89153586482828 12.35088134030616
v -8.88212711008093 211.2605505308806 3.0040958754059375
v -16.580032608746432 208.0455843473229 5.3714604841804885
v -8.88212711008093 211.2605505308806 3.0040958754059375
v -12.485118596457966 210.02257058132963 -5.02915550563705
v -16.193600600111765 209.0896193905582 -1.6877291701571266
v -10.628856067697797 189.3688498940799 -9.436929540118285
v -11.64255861119787 186.37530970565953 -2.147411307674247
v -15.630419952281102 192.0396596920774 -3.8964491668921255
v -12.945931656146865 182.5263527921015 7.22514992221727
v -15.437317022283395 190.26854366240562 6.138387121198093
v -15.630419952281102 192.0396596920774 -3.8964491668921255
v -11.64255861119787 186.37530970565953 -2.147411307674247
v -12.945931656146865 182.5263527921015 7.22514992221727
v -15.630419952281102 192.0396596920774 -3.8964491668921255
v -12.945931656146865 182.5263527921015 7.22514992221727
v -11.64255861119787 186.37530970565953 -2.147411307674247
v -4.432944075657147 183.7367625446492 -3.732851915712331
f 1 2 3
f 4 5 6
f 7 8 9
f 10 11 12
f 13 14 15
f 16 17 18
f 16 18 19
f 20 21 22
f 20 22 23
f 24 25 26
f 24 26 27
f 28 29 30
f 28 30 31
f 32 33 34
f 32 34 35
f 36 37 38
f 36 38 39
f 40 41 42
f 40 42 43
f 44 45 46
f 44 46 47
f 48 49 50
f 51 52 53
f 58 54 55
f 58 55 56
f 56 57 58
f 59 60 61
f 62 63 64
f 65 66 67
f 68 69 70
f 71 72 73
f 74 75 76
f 77 78 79
f 80 81 82
f 83 84 85
f 86 87 88
f 89 90 91
f 92 93 94
f 92 94 95
f 96 97 98
f 96 98 99
f 100 101 102
f 100 102 103
f 104 105 106
f 104 106 107
f 108 109 110
f 108 110 111
f 112 113 114
f 112 114 115
f 116 117 118
f 116 118 119
f 120 121 122
f 120 122 123
f 124 125 126
f 127 128 129
f 134 130 131
f 134 131 132
f 132 133 134
f 135 136 137
f 138 139 140
f 141 142 143
f 144 145 146
f 147 148 149
f 150 151 152
v 34.4447650285244 3.4456279361420366e-05 -8.61478050277477
v 34.444771406473464 3.53453863569864e-05 11.725628051011135
v 19.010302554185667 3.108930297526332e-05 11.725629799586843
v 19.010280855858735 3.020019890491278e-05 -8.614777988177664
v 19.01028179232673 10.71197416844368 -8.61477845641176
v 19.010280855858735 3.020019890491278e-05 -8.614777988177664
v 19.010302554185667 3.108930297526332e-05 11.725629799586843
v 19.010297362502463 10.711975057550113 11.725629331353748
v 34.44476596499171 10.71197052106149 -8.614780971008518
v 34.4447650285244 3.4456279361420366e-05 -8.61478050277477
v 19.010280855858735 3.020019890491278e-05 -8.614777988177664
v 19.01028179232673 10.71197416844368 -8.61477845641176
v 34.44476927886517 10.711971410169028 11.725627582777886
v 34.444771406473464 3.53453863569864e-05 11.725628051011135
v 34.4447650285244 3.4456279361420366e-05 -8.61478050277477
v 34.44476596499171 10.71197052106149 -8.614780971008518
v 21.253270138333093 6.940536873590768 26.193198286901268
v 21.253269527111296 -0.05102467248812788 26.19319859251223
v 31.327171822960597 -0.051026869771586894 26.19319848330294
v 31.327172434182373 6.94053446086451 26.19319817769199
v 21.253269527111296 -0.05102467248812788 26.19319859251223
v 19.010302554185667 3.108930297526332e-05 11.725629799586843
v 34.444771406473464 3.53453863569864e-05 11.725628051011135
v 31.327171822960597 -0.051026869771586894 26.19319848330294
v 21.253270138333093 6.940536873590768 26.193198286901268
v 19.010297362502463 10.711975057550113 11.725629331353748
v 19.010302554185667 3.108930297526332e-05 11.725629799586843
v 21.253269527111296 -0.05102467248812788 26.19319859251223
v 31.327172434182373 6.94053446086451 26.19319817769199
v 34.44476927886517 10.711971410169028 11.725627582777886
v 19.010297362502463 10.711975057550113 11.725629331353748
v 21.253270138333093 6.940536873590768 26.193198286901268
v 31.327171822960597 -0.051026869771586894 26.19319848330294
v 34.444771406473464 3.53453863569864e-05 11.725628051011135
v 34.44476927886517 10.711971410169028 11.725627582777886
v 31.327172434182373 6.94053446086451 26.19319817769199
v 22.280319647380647 16.67770124327401 -4.315754024747437
v 19.01028179232673 10.71197416844368 -8.61477845641176
v 19.010297362502463 10.711975057550113 11.725629331353748
v 22.28032155245416 16.677701754402527 7.377502841689148
v 19.01028179232673 10.71197416844368 -8.61477845641176
v 22.280319647380647 16.67770124327401 -4.315754024747437
v 26.661837447898836 16.67770086022957 -4.315753206549554
v 31.17473055381944 16.677698933662178 -4.31575394179316
v 34.44476596499171 10.71197052106149 -8.614780971008518
v 31.17473245889266 16.677699444790612 7.3775011053485375
v 34.44476927886517 10.711971410169028 11.725627582777886
v 34.44476596499171 10.71197052106149 -8.614780971008518
v 31.17473055381944 16.677698933662178 -4.31575394179316
v 34.44476927886517 10.711971410169028 11.725627582777886
v 31.17473245889266 16.677699444790612 7.3775011053485375
v 26.206842510904703 16.677701411135118 7.377502393482358
v 22.28032155245416 16.677701754402527 7.377502841689148
v 19.010297362502463 10.711975057550113 11.725629331353748
v 10.891807692540894 43.38297413645004 -10.444158853859005
v 22.280319647380647 16.67770124327401 -4.315754024747437
v 22.28032155245416 16.677701754402527 7.377502841689148
v 13.453554507718477 38.694029181919575 3.719530200777129
v 31.73125399829263 45.50242082616359 -10.444163873717876
v 31.17473055381944 16.677698933662178 -4.31575394179316
v 26.661837447898836 16.67770086022957 -4.315753206549554
v 20.834266921448563 44.39415785489807 -13.146555697674284
v 31.202108396874134 40.49912345719834 3.719527230267183
v 31.17473245889266 16.677699444790612 7.3775011053485375
v 31.17473055381944 16.677698933662178 -4.31575394179316
v 31.73125399829263 45.50242082616359 -10.444163873717876
v 21.81621439518881 39.54453939828643 8.890828556837132
v 26.206842510904703 16.677701411135118 7.377502393482358
v 31.17473245889266 16.677699444790612 7.3775011053485375
v 31.202108396874134 40.49912345719834 3.719527230267183
v 13.453554507718477 38.694029181919575 3.719530200777129
v 22.28032155245416 16.677701754402527 7.377502841689148
v 26.206842510904703 16.677701411135118 7.377502393482358
v 21.81621439518881 39.54453939828643 8.890828556837132
v 22.280319647380647 16.67770124327401 -4.315754024747437
v 10.891807692540894 43.38297413645004 -10.444158853859005
v 20.834266921448563 44.39415785489807 -13.146555697674284
v 26.661837447898836 16.67770086022957 -4.315753206549554
v 24.81540465051426 61.37582426743836 -5.765385112049799
v 31.73125399829263 45.50242082616359 -10.444163873717876
v 20.834266921448563 44.39415785489807 -13.146555697674284
v 17.498514272467435 60.63166508535755 -7.879812834430468
v 24.815400302642313 61.37582474508528 5.16189010218974
v 31.202108396874134 40.49912345719834 3.719527230267183
v 31.73125399829263 45.50242082616359 -10.444163873717876
v 24.81540465051426 61.37582426743836 -5.765385112049799
v 17.47162694862315 60.628932738406654 10.557719748488761
v 21.81621439518881 39.54453939828643 8.890828556837132
v 31.202108396874134 40.49912345719834 3.719527230267183
v 24.815400302642313 61.37582474508528 5.16189010218974
v 10.928456248493037 59.9634705794608 -5.765384319880346
v 10.891807692540894 43.38297413645004 -10.444158853859005
v 13.453554507718477 38.694029181919575 3.719530200777129
v 10.928470285074921 59.963471057106176 5.161892330641635
v 10.928470285074921 59.963471057106176 5.161892330641635
v 13.453554507718477 38.694029181919575 3.719530200777129
v 21.81621439518881 39.54453939828643 8.890828556837132
v 17.47162694862315 60.628932738406654 10.557719748488761
v 17.498514272467435 60.63166508535755 -7.879812834430468
v 20.834266921448563 44.39415785489807 -13.146555697674284
v 10.891807692540894 43.38297413645004 -10.444158853859005
v 10.928456248493037 59.9634705794608 -5.765384319880346
v 23.793658427059857 66.24805963113572 -5.765385924577264
v 24.81540465051426 61.37582426743836 -5.765385112049799
v 17.498514272467435 60.63166508535755 -7.879812834430468
v 16.47675579270919 65.5038881927544 -7.879815945012099
v 23.793654079187988 66.24806010878267 5.161889768424088
v 24.815400302642313 61.37582474508528 5.16189010218974
v 24.81540465051426 61.37582426743836 -5.765385112049799
v 23.793658427059857 66.24805963113572 -5.765385924577264
v 16.449862340715402 65.50116810210568 10.557720468002092
v 17.47162694862315 60.628932738406654 10.557719748488761
v 24.815400302642313 61.37582474508528 5.16189010218974
v 23.793654079187988 66.24806010878267 5.161889768424088
v 9.906711805317158 64.83569416450315 5.1618921883832405
v 10.928470285074921 59.963471057106176 5.161892330641635
v 17.47162694862315 60.628932738406654 10.557719748488761
v 16.449862340715402 65.50116810210568 10.557720468002092
v 9.906710025037562 64.83569368685667 -5.7653851324072765
v 10.928456248493037 59.9634705794608 -5.765384319880346
v 10.928470285074921 59.963471057106176 5.161892330641635
v 9.906711805317158 64.83569416450315 5.1618921883832405
v 16.47675579270919 65.5038881927544 -7.879815945012099
v 17.498514272467435 60.63166508535755 -7.879812834430468
v 10.928456248493037 59.9634705794608 -5.765384319880346
v 9.906710025037562 64.83569368685667 -5.7653851324072765
v 23.673615390817236 80.24347518309278 -5.187957639964512
v 23.793658427059857 66.24805963113572 -5.765385924577264
v 16.47675579270919 65.5038881927544 -7.879815945012099
v 10.885964389044304 78.94715153349154 -11.403966768622016
v 23.67362415042907 80.24347588910939 10.963831226648573
v 23.793654079187988 66.24806010878267 5.161889768424088
v 23.793658427059857 66.24805963113572 -5.765385924577264
v 23.673615390817236 80.24347518309278 -5.187957639964512
v 10.87330182109997 78.93081504430462 15.12435241931395
v 16.449862340715402 65.50116810210568 10.557720468002092
v 23.793654079187988 66.24806010878267 5.161889768424088
v 23.67362415042907 80.24347588910939 10.963831226648573
v 2.8872365013854697 78.17674691176552 17.832325550744322
v 9.906711805317158 64.83569416450315 5.1618921883832405
v 16.449862340715402 65.50116810210568 10.557720468002092
v 10.87330182109997 78.93081504430462 15.12435241931395
v 2.944725685941051 78.19535059559237 -13.66532677218959
v 9.906710025037562 64.83569368685667 -5.7653851324072765
v 9.906711805317158 64.83569416450315 5.1618921883832405
v 2.8872365013854697 78.17674691176552 17.832325550744322
v 10.885964389044304 78.94715153349154 -11.403966768622016
v 16.47675579270919 65.5038881927544 -7.879815945012099
v 9.906710025037562 64.83569368685667 -5.7653851324072765
v 2.944725685941051 78.19535059559237 -13.66532677218959
v 18.660039516848226 112.06655872584616 11.920340451254013
v 23.67362415042907 80.24347588910939 10.963831226648573
v 23.673615390817236 80.24347518309278 -5.187957639964512
v 17.16204092426483 111.79363482456593 -4.338488193358049
v 6.966841320018527 109.0134417538436 17.509487170885244
v 10.87330182109997 78.93081504430462 15.12435241931395
v 23.67362415042907 80.24347588910939 10.963831226648573
v 18.660039516848226 112.06655872584616 11.920340451254013
v 9.218128888567568 110.1782545129254 -15.089713759896362
v 10.885964389044304 78.94715153349154 -11.403966768622016
v 2.944725685941051 78.19535059559237 -13.66532677218959
v -2.681558770820476 109.06473361518057 -19.183039474565284
v 9.218128888567568 110.1782545129254 -15.089713759896362
v 8.627872976927936 122.95472584276844 -12.838704871399578
v 15.613979340780395 122.95646609383833 -2.154916318149147
v 17.16204092426483 111.79363482456593 -4.338488193358049
v 15.613975664669141 122.95646675171771 12.895596284845274
v 18.660039516848226 112.06655872584616 11.920340451254013
v 17.16204092426483 111.79363482456593 -4.338488193358049
v 15.613979340780395 122.95646609383833 -2.154916318149147
v 6.902687075431008 121.14149339224087 19.412535746842387
v 6.966841320018527 109.0134417538436 17.509487170885244
v 18.660039516848226 112.06655872584616 11.920340451254013
v 15.613975664669141 122.95646675171771 12.895596284845274
v -2.6815636824486155 121.14015829352591 19.418607242136105
v -2.6815646349851825 108.11673494489575 20.560313020526053
v 6.966841320018527 109.0134417538436 17.509487170885244
v 6.902687075431008 121.14149339224087 19.412535746842387
v -2.681558770820476 109.06473361518057 -19.183039474565284
v -2.6815570277260083 122.95340301549513 -15.936624407341546
v 8.627872976927936 122.95472584276844 -12.838704871399578
v 9.218128888567568 110.1782545129254 -15.089713759896362
v 10.885964389044304 78.94715153349154 -11.403966768622016
v 9.218128888567568 110.1782545129254 -15.089713759896362
v 17.16204092426483 111.79363482456593 -4.338488193358049
v 23.673615390817236 80.24347518309278 -5.187957639964512
v 15.21064346192636 131.751330662561 -2.893099175937924
v 15.613979340780395 122.95646609383833 -2.154916318149147
v 8.627872976927936 122.95472584276844 -12.838704871399578
v 8.83909319695499 131.74959051446393 -9.992033514750455
v 15.210646276280187 131.75131916134694 14.381286558337354
v 15.613975664669141 122.95646675171771 12.895596284845274
v 15.613979340780395 122.95646609383833 -2.154916318149147
v 15.21064346192636 131.751330662561 -2.893099175937924
v 7.54282852543538 131.74960416310492 19.268440895638655
v 6.902687075431008 121.14149339224087 19.412535746842387
v 15.613975664669141 122.95646675171771 12.895596284845274
v 15.210646276280187 131.75131916134694 14.381286558337354
v -2.681562778554798 131.7480362506244 19.274509431159096
v -2.6815636824486155 121.14015829352591 19.418607242136105
v 6.902687075431008 121.14149339224087 19.412535746842387
v 7.54282852543538 131.74960416310492 19.268440895638655
v 8.83909319695499 131.74959051446393 -9.992033514750455
v 8.627872976927936 122.95472584276844 -12.838704871399578
v -2.6815570277260083 122.95340301549513 -15.936624407341546
v -2.6815556021852944 131.74805940028693 -11.905906878482279
v 16.05948539301336 141.76670222046303 -1.7134176239010506
v 15.21064346192636 131.751330662561 -2.893099175937924
v 8.83909319695499 131.74959051446393 -9.992033514750455
v 7.58580089976491 141.76496208156996 -12.806056266295872
v 16.059481426821215 141.7667028005141 11.556591288998394
v 15.210646276280187 131.75131916134694 14.381286558337354
v 15.21064346192636 131.751330662561 -2.893099175937924
v 16.05948539301336 141.76670222046303 -1.7134176239010506
v 8.448937666036686 141.76500013109248 18.217332156397262
v 7.54282852543538 131.74960416310492 19.268440895638655
v 15.210646276280187 131.75131916134694 14.381286558337354
v 16.059481426821215 141.7667028005141 11.556591288998394
v -2.6815552617978256 144.47463661376733 20.968651594184514
v -2.681562778554798 131.7480362506244 19.274509431159096
v 7.54282852543538 131.74960416310492 19.268440895638655
v 8.448937666036686 141.76500013109248 18.217332156397262
v 7.58580089976491 141.76496208156996 -12.806056266295872
v 8.83909319695499 131.74959051446393 -9.992033514750455
v -2.6815556021852944 131.74805940028693 -11.905906878482279
v -2.681561189198815 143.1359527810868 -14.695139990571375
v 19.580115005032642 151.4984626148872 -3.1294359660524123
v 16.05948539301336 141.76670222046303 -1.7134176239010506
v 7.58580089976491 141.76496208156996 -12.806056266295872
v 23.144154450579386 159.3077113216463 -15.725706899903344
v 24.013915099745024 159.63773785011713 11.13982590515149
v 16.059481426821215 141.7667028005141 11.556591288998394
v 16.05948539301336 141.76670222046303 -1.7134176239010506
v 19.580115005032642 151.4984626148872 -3.1294359660524123
v 10.930258042640556 153.8935785531751 19.78302789217612
v 8.448937666036686 141.76500013109248 18.217332156397262
v 16.059481426821215 141.7667028005141 11.556591288998394
v 24.013915099745024 159.63773785011713 11.13982590515149
v -2.681554452726338 155.9251107403847 19.790403718951126
v -2.6815552617978256 144.47463661376733 20.968651594184514
v 8.448937666036686 141.76500013109248 18.217332156397262
v 10.930258042640556 153.8935785531751 19.78302789217612
v 23.144154450579386 159.3077113216463 -15.725706899903344
v 7.58580089976491 141.76496208156996 -12.806056266295872
v -2.681561189198815 143.1359527810868 -14.695139990571375
v -2.681548992088953 153.891862085694 -20.830052542475883
v 56.705171757439125 106.54549637896197 19.737347861222197
v 58.905994088825516 102.8068212599872 9.116404080169897
v 61.55444828490693 106.8470990176623 19.636952620974636
v 11.654808994796932 170.8018694540104 18.39144569477349
v 11.06566031750838 157.3748585421393 22.66654193844972
v 24.013915099745024 159.63773785011713 11.13982590515149
v 21.159625276893994 170.50946967485237 10.072968775553472
v -2.681553672559374 159.51905066344514 22.650535821460373
v -2.681554452726338 155.9251107403847 19.790403718951126
v 10.930258042640556 153.8935785531751 19.78302789217612
v 11.06566031750838 157.3748585421393 22.66654193844972
v 11.06566031750838 157.3748585421393 22.66654193844972
v 11.654808994796932 170.8018694540104 18.39144569477349
v -2.681553379027987 170.80014256914737 18.398815600318045
v -2.681553672559374 159.51905066344514 22.650535821460373
v 20.93620092657947 170.62332960195639 -15.85288302459713
v 23.144154450579386 159.3077113216463 -15.725706899903344
v -2.681548992088953 153.891862085694 -20.830052542475883
v -2.6815475872444563 169.68440071120222 -20.681411861384092
v 16.451340912983 178.92802888532654 -2.3326820130894372
v 20.93620092657947 170.62332960195639 -15.85288302459713
v 4.848641621391995 179.2295959256381 -8.558750764839171
v 7.705231507888656 180.51729203537235 -1.6980631078144217
v 16.451340912983 178.92802888532654 -2.3326820130894372
v 7.705231507888656 180.51729203537235 -1.6980631078144217
v 4.912750440913876 180.28629803893202 4.560822703755789
v 21.159625276893994 170.50946967485237 10.072968775553472
v -2.681554016248264 179.26726100721046 9.944153176625855
v 11.654808994796932 170.8018694540104 18.39144569477349
v 21.159625276893994 170.50946967485237 10.072968775553472
v 4.912750440913876 180.28629803893202 4.560822703755789
v 11.654808994796932 170.8018694540104 18.39144569477349
v -2.681554016248264 179.26726100721046 9.944153176625855
v -2.681553379027987 170.80014256914737 18.398815600318045
v 4.848641621391995 179.2295959256381 -8.558750764839171
v 20.93620092657947 170.62332960195639 -15.85288302459713
v -2.6815475872444563 169.68440071120222 -20.681411861384092
v -2.681551840377055 178.16877669538684 -13.725323293729558
v 28.332132020079328 166.54510607422083 -12.247697297061581
v 20.93620092657947 170.62332960195639 -15.85288302459713
v 25.621628837968977 178.54223646601622 -2.6911366723161123
v 32.32391397287503 171.57139095550303 -0.75243707829397
v 23.144154450579386 159.3077113216463 -15.725706899903344
v 20.93620092657947 170.62332960195639 -15.85288302459713
v 28.332132020079328 166.54510607422083 -12.247697297061581
v 24.013915099745024 159.63773785011713 11.13982590515149
v 28.439942076562257 166.58701133000145 9.952845656140978
v 21.159625276893994 170.50946967485237 10.072968775553472
v 32.32391397287503 171.57139095550303 -0.75243707829397
v 25.621628837968977 178.54223646601622 -2.6911366723161123
v 21.159625276893994 170.50946967485237 10.072968775553472
v 28.439942076562257 166.58701133000145 9.952845656140978
v 27.910012363471232 141.25301511648752 -0.7980629496903315
v 19.580115005032642 151.4984626148872 -3.1294359660524123
v 23.144154450579386 159.3077113216463 -15.725706899903344
v 29.37603066266932 142.86652002362663 -7.3578622779807565
v 29.799181668063255 143.01249311483173 5.853142397859173
v 24.013915099745024 159.63773785011713 11.13982590515149
v 19.580115005032642 151.4984626148872 -3.1294359660524123
v 27.910012363471232 141.25301511648752 -0.7980629496903315
v 37.15792221907495 150.09423189431334 -7.927876909589955
v 28.332132020079328 166.54510607422083 -12.247697297061581
v 32.32391397287503 171.57139095550303 -0.75243707829397
v 40.04029649448037 153.0623159733535 -0.7858558669206284
v 29.37603066266932 142.86652002362663 -7.3578622779807565
v 23.144154450579386 159.3077113216463 -15.725706899903344
v 28.332132020079328 166.54510607422083 -12.247697297061581
v 37.15792221907495 150.09423189431334 -7.927876909589955
v 37.224684547502726 150.11785038436614 5.865348370137138
v 28.439942076562257 166.58701133000145 9.952845656140978
v 24.013915099745024 159.63773785011713 11.13982590515149
v 29.799181668063255 143.01249311483173 5.853142397859173
v 40.04029649448037 153.0623159733535 -0.7858558669206284
v 32.32391397287503 171.57139095550303 -0.75243707829397
v 28.439942076562257 166.58701133000145 9.952845656140978
v 37.224684547502726 150.11785038436614 5.865348370137138
v 32.08753643602129 136.77720969890737 2.641829080289721
v 27.910012363471232 141.25301511648752 -0.7980629496903315
v 29.37603066266932 142.86652002362663 -7.3578622779807565
v 33.448223923936595 136.07982575289262 -3.5892894213391626
v 40.671077488344615 142.19280244141865 -6.402708228314177
v 37.15792221907495 150.09423189431334 -7.927876909589955
v 40.04029649448037 153.0623159733535 -0.7858558669206284
v 43.34638752452075 147.06757476665874 -1.1331101292572638
v 33.448223923936595 136.07982575289262 -3.5892894213391626
v 29.37603066266932 142.86652002362663 -7.3578622779807565
v 37.15792221907495 150.09423189431334 -7.927876909589955
v 40.671077488344615 142.19280244141865 -6.402708228314177
v 33.84096406241496 140.44189294443783 7.871332421178191
v 29.799181668063255 143.01249311483173 5.853142397859173
v 27.910012363471232 141.25301511648752 -0.7980629496903315
v 32.08753643602129 136.77720969890737 2.641829080289721
v 40.73301705704061 146.6349033344851 5.604284161489693
v 37.224684547502726 150.11785038436614 5.865348370137138
v 29.799181668063255 143.01249311483173 5.853142397859173
v 33.84096406241496 140.44189294443783 7.871332421178191
v 43.34638752452075 147.06757476665874 -1.1331101292572638
v 40.04029649448037 153.0623159733535 -0.7858558669206284
v 37.224684547502726 150.11785038436614 5.865348370137138
v 40.73301705704061 146.6349033344851 5.604284161489693
v 35.712788070301755 128.86348722601412 5.544076048282259
v 32.08753643602129 136.77720969890737 2.641829080289721
v 33.448223923936595 136.07982575289262 -3.5892894213391626
v 37.49473046660949 127.95018389552574 -2.6161860420026635
v 46.95378626003614 135.95572940111197 -6.300640790953561
v 40.671077488344615 142.19280244141865 -6.402708228314177
v 43.34638752452075 147.06757476665874 -1.1331101292572638
v 50.457371481850544 142.3397304342332 0.6004272242021873
v 37.49473046660949 127.95018389552574 -2.6161860420026635
v 33.448223923936595 136.07982575289262 -3.5892894213391626
v 40.671077488344615 142.19280244141865 -6.402708228314177
v 46.95378626003614 135.95572940111197 -6.300640790953561
v 38.009093653997034 133.66274857993656 12.39263603187083
v 33.84096406241496 140.44189294443783 7.871332421178191
v 32.08753643602129 136.77720969890737 2.641829080289721
v 35.712788070301755 128.86348722601412 5.544076048282259
v 47.034926052304925 141.77311004500206 9.423716922219022
v 40.73301705704061 146.6349033344851 5.604284161489693
v 33.84096406241496 140.44189294443783 7.871332421178191
v 38.009093653997034 133.66274857993656 12.39263603187083
v 50.457371481850544 142.3397304342332 0.6004272242021873
v 43.34638752452075 147.06757476665874 -1.1331101292572638
v 40.73301705704061 146.6349033344851 5.604284161489693
v 47.034926052304925 141.77311004500206 9.423716922219022
v 49.37051256205309 118.49075763414422 9.322669899774143
v 35.712788070301755 128.86348722601412 5.544076048282259
v 37.49473046660949 127.95018389552574 -2.6161860420026635
v 50.241925781129424 118.0441622698968 5.332120650366374
v 54.86760755856923 121.95904509556323 3.530338998812016
v 46.95378626003614 135.95572940111197 -6.300640790953561
v 50.457371481850544 142.3397304342332 0.6004272242021873
v 56.58090770128665 125.0809456958145 6.9051114005955405
v 50.241925781129424 118.0441622698968 5.332120650366374
v 37.49473046660949 127.95018389552574 -2.6161860420026635
v 46.95378626003614 135.95572940111197 -6.300640790953561
v 54.86760755856923 121.95904509556323 3.530338998812016
v 50.49345718708904 120.8377291106774 12.67175231213864
v 38.009093653997034 133.66274857993656 12.39263603187083
v 35.712788070301755 128.86348722601412 5.544076048282259
v 49.37051256205309 118.49075763414422 9.322669899774143
v 54.907288839070475 124.80385556668267 11.219889371099114
v 47.034926052304925 141.77311004500206 9.423716922219022
v 38.009093653997034 133.66274857993656 12.39263603187083
v 50.49345718708904 120.8377291106774 12.67175231213864
v 56.58090770128665 125.0809456958145 6.9051114005955405
v 50.457371481850544 142.3397304342332 0.6004272242021873
v 47.034926052304925 141.77311004500206 9.423716922219022
v 54.907288839070475 124.80385556668267 11.219889371099114
v 55.97352947961232 117.52637037529709 18.496935393934574
v 50.49345718708904 120.8377291106774 12.67175231213864
v 49.37051256205309 118.49075763414422 9.322669899774143
v 50.241925781129424 118.0441622698968 5.332120650366374
v 55.842169656950546 111.98710976790548 3.6587037440396903
v 62.78369958797711 114.22707075450766 2.1358527291693052
v 54.86760755856923 121.95904509556323 3.530338998812016
v 56.58090770128665 125.0809456958145 6.9051114005955405
v 54.907288839070475 124.80385556668267 11.219889371099114
v 62.600486054024266 119.47627375573678 16.91370185418315
v 55.842169656950546 111.98710976790548 3.6587037440396903
v 50.241925781129424 118.0441622698968 5.332120650366374
v 54.86760755856923 121.95904509556323 3.530338998812016
v 62.78369958797711 114.22707075450766 2.1358527291693052
v 62.600486054024266 119.47627375573678 16.91370185418315
v 54.907288839070475 124.80385556668267 11.219889371099114
v 50.49345718708904 120.8377291106774 12.67175231213864
v 55.97352947961232 117.52637037529709 18.496935393934574
v 56.705171757439125 106.54549637896197 19.737347861222197
v 55.97352947961232 117.52637037529709 18.496935393934574
v 55.842169656950546 111.98710976790548 3.6587037440396903
v 58.905994088825516 102.8068212599872 9.116404080169897
v 58.905994088825516 102.8068212599872 9.116404080169897
v 62.78369958797711 114.22707075450766 2.1358527291693052
v 62.600486054024266 119.47627375573678 16.91370185418315
v 61.55444828490693 106.8470990176623 19.636952620974636
v 62.78369958797711 114.22707075450766 2.1358527291693052
v 58.905994088825516 102.8068212599872 9.116404080169897
v 55.842169656950546 111.98710976790548 3.6587037440396903
v 61.55444828490693 106.8470990176623 19.636952620974636
v 62.600486054024266 119.47627375573678 16.91370185418315
v 55.97352947961232 117.52637037529709 18.496935393934574
v 56.705171757439125 106.54549637896197 19.737347861222197
v 24.013915099745024 159.63773785011713 11.13982590515149
v 11.06566031750838 157.3748585421393 22.66654193844972
v 10.930258042640556 153.8935785531751 19.78302789217612
v -2.681554016248264 179.26726100721046 9.944153176625855
v 4.912750440913876 180.28629803893202 4.560822703755789
v 1.1978781244599082 188.8763233446943 4.150039936317429
v -2.68154769267519 188.85357606913126 5.999653694634544
v -2.681554016248264 179.26726100721046 9.944153176625855
v 1.1978781244599082 188.8763233446943 4.150039936317429
v -2.681551840377055 178.16877669538684 -13.725323293729558
v -2.681543712798432 188.85357549275176 -7.186359689918589
v 2.2913965354741914 188.87607781580914 -2.8791771746221233
v 4.848641621391995 179.2295959256381 -8.558750764839171
v 2.8872365013854697 78.17674691176552 17.832325550744322
v 10.87330182109997 78.93081504430462 15.12435241931395
v 6.966841320018527 109.0134417538436 17.509487170885244
v -2.6815646349851825 108.11673494489575 20.560313020526053
v 7.705231507888656 180.51729203537235 -1.6980631078144217
v 4.848641621391995 179.2295959256381 -8.558750764839171
v 2.2913965354741914 188.87607781580914 -2.8791771746221233
v 3.3461192871711694 188.5946854440331 0.46783117607044833
v 4.912750440913876 180.28629803893202 4.560822703755789
v 7.705231507888656 180.51729203537235 -1.6980631078144217
v 3.3461192871711694 188.5946854440331 0.46783117607044833
v 1.1978781244599082 188.8763233446943 4.150039936317429
v 25.621628837968977 178.54223646601622 -2.6911366723161123
v 20.93620092657947 170.62332960195639 -15.85288302459713
v 16.451340912983 178.92802888532654 -2.3326820130894372
v 25.621628837968977 178.54223646601622 -2.6911366723161123
v 16.451340912983 178.92802888532654 -2.3326820130894372
v 21.159625276893994 170.50946967485237 10.072968775553472
v -2.68154769267519 188.85357606913126 5.999653694634544
v 1.1978781244599082 188.8763233446943 4.150039936317429
v -2.681548279144858 192.05748335240875 0.6807209153140024
v 2.2913965354741914 188.87607781580914 -2.8791771746221233
v -2.681543712798432 188.85357549275176 -7.186359689918589
v -2.681548279144858 192.05748335240875 0.6807209153140024
v 3.3461192871711694 188.5946854440331 0.46783117607044833
v 2.2913965354741914 188.87607781580914 -2.8791771746221233
v -2.681548279144858 192.05748335240875 0.6807209153140024
v 1.1978781244599082 188.8763233446943 4.150039936317429
v 3.3461192871711694 188.5946854440331 0.46783117607044833
v -2.681548279144858 192.05748335240875 0.6807209153140024
v 2.944725685941051 78.19535059559237 -13.66532677218959
v -8.389700559188551 78.07940697267426 -13.70479327830566
v -2.681558770820476 109.06473361518057 -19.183039474565284
v -8.389700559188551 78.07940697267426 -13.70479327830566
v 2.944725685941051 78.19535059559237 -13.66532677218959
v 2.8872365013854697 78.17674691176552 17.832325550744322
v -8.274731292800256 78.20893293542474 17.835539285100143
v -39.80792883682222 4.41235766658953e-05 -8.614757681209959
v -24.373444664158026 4.007559979537852e-05 -8.6147647919201
v -24.373465862888736 4.09647135240972e-05 11.725647591964798
v -39.80793777925072 4.5012686487753066e-05 11.725653553644591
v -24.37344372769009 10.711983323302151 -8.614765260154162
v -24.3734649264208 10.711984212412 11.725647123730734
v -24.373465862888736 4.09647135240972e-05 11.725647591964798
v -24.373444664158026 4.007559979537852e-05 -8.6147647919201
v -39.80792790035452 10.711984672628013 -8.614758149443903
v -24.37344372769009 10.711983323302151 -8.614765260154162
v -24.373444664158026 4.007559979537852e-05 -8.6147647919201
v -39.80792883682222 4.41235766658953e-05 -8.614757681209959
v -39.80793684278302 10.711985561736737 11.725653085410647
v -39.80792790035452 10.711984672628013 -8.614758149443903
v -39.80792883682222 4.41235766658953e-05 -8.614757681209959
v -39.80793777925072 4.5012686487753066e-05 11.725653553644591
v -26.616439775688576 6.940544888589225 26.193221406245417
v -36.69033594338611 6.94054500325862 26.193226111567196
v -36.69033655460774 -0.051014645726735704 26.193226417178074
v -26.616440386910426 -0.051017285864503506 26.193221711856406
v -26.616440386910426 -0.051017285864503506 26.193221711856406
v -36.69033655460774 -0.051014645726735704 26.193226417178074
v -39.80793777925072 4.5012686487753066e-05 11.725653553644591
v -24.373465862888736 4.09647135240972e-05 11.725647591964798
v -26.616439775688576 6.940544888589225 26.193221406245417
v -26.616440386910426 -0.051017285864503506 26.193221711856406
v -24.373465862888736 4.09647135240972e-05 11.725647591964798
v -24.3734649264208 10.711984212412 11.725647123730734
v -36.69033594338611 6.94054500325862 26.193226111567196
v -26.616439775688576 6.940544888589225 26.193221406245417
v -24.3734649264208 10.711984212412 11.725647123730734
v -39.80793684278302 10.711985561736737 11.725653085410647
v -36.69033655460774 -0.051014645726735704 26.193226417178074
v -36.69033594338611 6.94054500325862 26.193226111567196
v -39.80793684278302 10.711985561736737 11.725653085410647
v -39.80793777925072 4.5012686487753066e-05 11.725653553644591
v -27.643485267013574 16.67770867182807 -4.3157366988998715
v -27.643483361939843 16.677709182956644 7.377521508069788
v -24.3734649264208 10.711984212412 11.725647123730734
v -24.37344372769009 10.711983323302151 -8.614765260154162
v -24.37344372769009 10.711983323302151 -8.614765260154162
v -39.80792790035452 10.711984672628013 -8.614758149443903
v -36.53789617345189 16.677707917364728 -4.315732185740615
v -32.0250030675314 16.67770752283496 -4.315734453022087
v -27.643485267013574 16.67770867182807 -4.3157366988998715
v -36.537894268378295 16.677708428493265 7.3775251594577815
v -36.53789617345189 16.677707917364728 -4.315732185740615
v -39.80792790035452 10.711984672628013 -8.614758149443903
v -39.80793684278302 10.711985561736737 11.725653085410647
v -39.80793684278302 10.711985561736737 11.725653085410647
v -24.3734649264208 10.711984212412 11.725647123730734
v -27.643483361939843 16.677709182956644 7.377521508069788
v -31.570010448541364 16.677709526224643 7.3775232968106526
v -36.537894268378295 16.677708428493265 7.3775251594577815
v -16.254958383461943 43.382976509696256 -10.444149834975661
v -18.816701403363957 38.69403506715107 3.719543118458455
v -27.643483361939843 16.677709182956644 7.377521508069788
v -27.643485267013574 16.67770867182807 -4.3157366988998715
v -37.09439206233406 45.50243297124477 -10.444141936331587
v -26.19741218796892 44.39416503061429 -13.146541907089457
v -32.0250030675314 16.67770752283496 -4.315734453022087
v -36.53789617345189 16.677707917364728 -4.315732185740615
v -36.56524884875492 40.499129381610274 3.719550527274395
v -37.09439206233406 45.50243297124477 -10.444141936331587
v -36.53789617345189 16.677707917364728 -4.315732185740615
v -36.537894268378295 16.677708428493265 7.3775251594577815
v -27.17935945710287 39.54454061754126 8.890846880485267
v -36.56524884875492 40.499129381610274 3.719550527274395
v -36.537894268378295 16.677708428493265 7.3775251594577815
v -31.570010448541364 16.677709526224643 7.3775232968106526
v -18.816701403363957 38.69403506715107 3.719543118458455
v -27.17935945710287 39.54454061754126 8.890846880485267
v -31.570010448541364 16.677709526224643 7.3775232968106526
v -27.643483361939843 16.677709182956644 7.377521508069788
v -27.643485267013574 16.67770867182807 -4.3157366988998715
v -32.0250030675314 16.67770752283496 -4.315734453022087
v -26.19741218796892 44.39416503061429 -13.146541907089457
v -16.254958383461943 43.382976509696256 -10.444149834975661
v -30.17853841462278 61.37582907516263 -5.765367726190578
v -22.861648855657826 60.63166861375586 -7.879800130773517
v -26.19741218796892 44.39416503061429 -13.146541907089457
v -37.09439206233406 45.50243297124477 -10.444141936331587
v -30.178536634343168 61.375829552809115 5.161909690352299
v -30.17853841462278 61.37582907516263 -5.765367726190578
v -37.09439206233406 45.50243297124477 -10.444141936331587
v -36.56524884875492 40.499129381610274 3.719550527274395
v -22.834767780881958 60.62893626210457 10.557736656489677
v -30.178536634343168 61.375829552809115 5.161909690352299
v -36.56524884875492 40.499129381610274 3.719550527274395
v -27.17935945710287 39.54454061754126 8.890846880485267
v -16.291602515848957 59.9634729591145 -5.765374523037207
v -16.291619120022787 59.963473436762634 5.161903851032291
v -18.816701403363957 38.69403506715107 3.719543118458455
v -16.254958383461943 43.382976509696256 -10.444149834975661
v -16.291619120022787 59.963473436762634 5.161903851032291
v -22.834767780881958 60.62893626210457 10.557736656489677
v -27.17935945710287 39.54454061754126 8.890846880485267
v -18.816701403363957 38.69403506715107 3.719543118458455
v -22.861648855657826 60.63166861375586 -7.879800130773517
v -16.291602515848957 59.9634729591145 -5.765374523037207
v -16.254958383461943 43.382976509696256 -10.444149834975661
v -26.19741218796892 44.39416503061429 -13.146541907089457
v -29.156791339279852 66.2480642602121 -5.765368871645388
v -21.839889524013696 65.50389154250274 -7.879802042248687
v -22.861648855657826 60.63166861375586 -7.879800130773517
v -30.17853841462278 61.37582907516263 -5.765367726190578
v -29.156789559000178 66.24806473785861 5.16190892790694
v -29.156791339279852 66.2480642602121 -5.765368871645388
v -30.17853841462278 61.37582907516263 -5.765367726190578
v -30.178536634343168 61.375829552809115 5.161909690352299
v -21.812996192934172 65.50117144715192 10.557735894040324
v -29.156789559000178 66.24806473785861 5.16190892790694
v -30.178536634343168 61.375829552809115 5.161909690352299
v -22.834767780881958 60.62893626210457 10.557736656489677
v -15.26985978837847 64.83569636550956 5.161903088585471
v -21.812996192934172 65.50117144715192 10.557735894040324
v -22.834767780881958 60.62893626210457 10.557736656489677
v -16.291619120022787 59.963473436762634 5.161903851032291
v -15.2698554405071 64.83569588786249 -5.765375668491481
v -15.26985978837847 64.83569636550956 5.161903088585471
v -16.291619120022787 59.963473436762634 5.161903851032291
v -16.291602515848957 59.9634729591145 -5.765374523037207
v -21.839889524013696 65.50389154250274 -7.879802042248687
v -15.2698554405071 64.83569588786249 -5.765375668491481
v -16.291602515848957 59.9634729591145 -5.765374523037207
v -22.861648855657826 60.63166861375586 -7.879800130773517
v -29.03675179600174 80.24347979118048 -5.187940626147057
v -16.2491030463203 78.94714777756428 -11.403957751644352
v -21.839889524013696 65.50389154250274 -7.879802042248687
v -29.156791339279852 66.2480642602121 -5.765368871645388
v -29.036761420843003 80.24348049719885 10.963851304544622
v -29.03675179600174 80.24347979118048 -5.187940626147057
v -29.156791339279852 66.2480642602121 -5.765368871645388
v -29.156789559000178 66.24806473785861 5.16190892790694
v -16.236437965358558 78.93081128616339 15.124366794297513
v -29.036761420843003 80.24348049719885 10.963851304544622
v -29.156789559000178 66.24806473785861 5.16190892790694
v -21.812996192934172 65.50117144715192 10.557735894040324
v -8.274731292800256 78.20893293542474 17.835539285100143
v -16.236437965358558 78.93081128616339 15.124366794297513
v -21.812996192934172 65.50117144715192 10.557735894040324
v -15.26985978837847 64.83569636550956 5.161903088585471
v -8.389700559188551 78.07940697267426 -13.70479327830566
v -8.274731292800256 78.20893293542474 17.835539285100143
v -15.26985978837847 64.83569636550956 5.161903088585471
v -15.2698554405071 64.83569588786249 -5.765375668491481
v -16.2491030463203 78.94714777756428 -11.403957751644352
v -8.389700559188551 78.07940697267426 -13.70479327830566
v -15.2698554405071 64.83569588786249 -5.765375668491481
v -21.839889524013696 65.50389154250274 -7.879802042248687
v -24.023158655164423 112.06656245733086 11.920357363475944
v -22.52517153625138 111.79363829413307 -4.338474067300887
v -29.03675179600174 80.24347979118048 -5.187940626147057
v -29.036761420843003 80.24348049719885 10.963851304544622
v -12.329965299135607 109.01344344082466 17.509499506961156
v -24.023158655164423 112.06656245733086 11.920357363475944
v -29.036761420843003 80.24348049719885 10.963851304544622
v -16.236437965358558 78.93081128616339 15.124366794297513
v -14.581251029888547 110.17825659353392 -15.089702222295891
v -2.681558770820476 109.06473361518057 -19.183039474565284
v -8.389700559188551 78.07940697267426 -13.70479327830566
v -16.2491030463203 78.94714777756428 -11.403957751644352
v -14.581251029888547 110.17825659353392 -15.089702222295891
v -22.52517153625138 111.79363829413307 -4.338474067300887
v -20.977101161346106 122.95646929273298 -2.1549034625348504
v -13.990998279020237 122.95471556387197 -12.838696590203462
v -20.977098709305785 122.9564699506119 12.895611438515271
v -20.977101161346106 122.95646929273298 -2.1549034625348504
v -22.52517153625138 111.79363829413307 -4.338474067300887
v -24.023158655164423 112.06656245733086 11.920357363475944
v -12.265814442072315 121.1414828117036 19.412546529977476
v -20.977098709305785 122.9564699506119 12.895611438515271
v -24.023158655164423 112.06656245733086 11.920357363475944
v -12.329965299135607 109.01344344082466 17.509499506961156
v -2.6815636824486155 121.14015829352591 19.418607242136105
v -12.265814442072315 121.1414828117036 19.412546529977476
v -12.329965299135607 109.01344344082466 17.509499506961156
v -2.6815646349851825 108.11673494489575 20.560313020526053
v -2.681558770820476 109.06473361518057 -19.183039474565284
v -14.581251029888547 110.17825659353392 -15.089702222295891
v -13.990998279020237 122.95471556387197 -12.838696590203462
v -2.6815570277260083 122.95340301549513 -15.936624407341546
v -16.2491030463203 78.94714777756428 -11.403957751644352
v -29.03675179600174 80.24347979118048 -5.187940626147057
v -22.52517153625138 111.79363829413307 -4.338474067300887
v -14.581251029888547 110.17825659353392 -15.089702222295891
v -20.573770113431742 131.75132153463306 -2.8930872177647275
v -14.202216033740417 131.7495802724982 -9.992023632692652
v -13.990998279020237 122.95471556387197 -12.838696590203462
v -20.977101161346106 122.95646929273298 -2.1549034625348504
v -20.573767299077293 131.75131003341914 14.381302346605054
v -20.573770113431742 131.75132153463306 -2.8930872177647275
v -20.977101161346106 122.95646929273298 -2.1549034625348504
v -20.977098709305785 122.9564699506119 12.895611438515271
v -12.905954084247588 131.74959369449329 19.268450355320226
v -20.573767299077293 131.75131003341914 14.381302346605054
v -20.977098709305785 122.9564699506119 12.895611438515271
v -12.265814442072315 121.1414828117036 19.412546529977476
v -2.681562778554798 131.7480362506244 19.274509431159096
v -12.905954084247588 131.74959369449329 19.268450355320226
v -12.265814442072315 121.1414828117036 19.412546529977476
v -2.6815636824486155 121.14015829352591 19.418607242136105
v -14.202216033740417 131.7495802724982 -9.992023632692652
v -2.6815556021852944 131.74805940028693 -11.905906878482279
v -2.6815570277260083 122.95340301549513 -15.936624407341546
v -13.990998279020237 122.95471556387197 -12.838696590203462
v -21.422603780834642 141.76669324095067 -1.7134038571035681
v -12.948916774181242 141.76495162047092 -12.806049856689299
v -14.202216033740417 131.7495802724982 -9.992023632692652
v -20.573770113431742 131.75132153463306 -2.8930872177647275
v -21.42260161887534 141.7666938210013 11.556606587832679
v -21.422603780834642 141.76669324095067 -1.7134038571035681
v -20.573770113431742 131.75132153463306 -2.8930872177647275
v -20.573767299077293 131.75131003341914 14.381302346605054
v -13.812049559893104 141.76498982090894 18.217343443362264
v -21.42260161887534 141.7666938210013 11.556606587832679
v -20.573767299077293 131.75131003341914 14.381302346605054
v -12.905954084247588 131.74959369449329 19.268450355320226
v -2.6815552617978256 144.47463661376733 20.968651594184514
v -13.812049559893104 141.76498982090894 18.217343443362264
v -12.905954084247588 131.74959369449329 19.268450355320226
v -2.681562778554798 131.7480362506244 19.274509431159096
v -12.948916774181242 141.76495162047092 -12.806049856689299
v -2.681561189198815 143.1359527810868 -14.695139990571375
v -2.6815556021852944 131.74805940028693 -11.905906878482279
v -14.202216033740417 131.7495802724982 -9.992023632692652
v -24.94323828084675 151.49845425094182 -3.129420286068399
v -28.507274337216028 159.30770358085707 -15.725692356665029
v -12.948916774181242 141.76495162047092 -12.806049856689299
v -21.422603780834642 141.76669324095067 -1.7134038571035681
v -29.37702617477474 159.63773026140117 11.139846476934132
v -24.94323828084675 151.49845425094182 -3.129420286068399
v -21.422603780834642 141.76669324095067 -1.7134038571035681
v -21.42260161887534 141.7666938210013 11.556606587832679
v -16.293373433850366 153.89356867683998 19.78304458377196
v -29.37702617477474 159.63773026140117 11.139846476934132
v -21.42260161887534 141.7666938210013 11.556606587832679
v -13.812049559893104 141.76498982090894 18.217343443362264
v -2.681554452726338 155.9251107403847 19.790403718951126
v -16.293373433850366 153.89356867683998 19.78304458377196
v -13.812049559893104 141.76498982090894 18.217343443362264
v -2.6815552617978256 144.47463661376733 20.968651594184514
v -28.507274337216028 159.30770358085707 -15.725692356665029
v -2.681548992088953 153.891862085694 -20.830052542475883
v -2.681561189198815 143.1359527810868 -14.695139990571375
v -12.948916774181242 141.76495162047092 -12.806049856689299
v -62.06830157028192 106.5455067624713 19.737390192445794
v -66.91758114180402 106.84711024904648 19.636996532293715
v -64.2691188238751 102.8068381564508 9.116444255940522
v -17.017909626799657 170.80185970435838 18.391460324398913
v -26.522716414222348 170.50946158707467 10.072987268258764
v -29.37702617477474 159.63773026140117 11.139846476934132
v -16.42876803231309 157.37484868947777 22.66655407805058
v -2.681553672559374 159.51905066344514 22.650535821460373
v -16.42876803231309 157.37484868947777 22.66655407805058
v -16.293373433850366 153.89356867683998 19.78304458377196
v -2.681554452726338 155.9251107403847 19.790403718951126
v -16.42876803231309 157.37484868947777 22.66655407805058
v -2.681553672559374 159.51905066344514 22.650535821460373
v -2.681553379027987 170.80014256914737 18.398815600318045
v -17.017909626799657 170.80185970435838 18.391460324398913
v -26.29930049171597 170.62332147511447 -15.852869200804765
v -2.6815475872444563 169.68440071120222 -20.681411861384092
v -2.681548992088953 153.891862085694 -20.830052542475883
v -28.507274337216028 159.30770358085707 -15.725692356665029
v -21.81443462063859 178.92801997432622 -2.3326681186132294
v -13.068330859035667 180.51728159515386 -1.698054361238408
v -10.211743433183235 179.22958498595773 -8.558743715076865
v -26.29930049171597 170.62332147511447 -15.852869200804765
v -21.81443462063859 178.92801997432622 -2.3326681186132294
v -26.522716414222348 170.50946158707467 10.072987268258764
v -10.275853921196545 180.28628711046096 4.560830731931299
v -13.068330859035667 180.51728159515386 -1.698054361238408
v -2.681554016248264 179.26726100721046 9.944153176625855
v -10.275853921196545 180.28628711046096 4.560830731931299
v -26.522716414222348 170.50946158707467 10.072987268258764
v -17.017909626799657 170.80185970435838 18.391460324398913
v -17.017909626799657 170.80185970435838 18.391460324398913
v -2.681553379027987 170.80014256914737 18.398815600318045
v -2.681554016248264 179.26726100721046 9.944153176625855
v -10.211743433183235 179.22958498595773 -8.558743715076865
v -2.681551840377055 178.16877669538684 -13.725323293729558
v -2.6815475872444563 169.68440071120222 -20.681411861384092
v -26.29930049171597 170.62332147511447 -15.852869200804765
v -33.69523112355578 166.5450992405248 -12.247679531331055
v -37.687008451895416 171.57138481975218 -0.7524141817819281
v -30.98472272987596 178.5422414147018 -2.6911174917243805
v -26.29930049171597 170.62332147511447 -15.852869200804765
v -28.507274337216028 159.30770358085707 -15.725692356665029
v -33.69523112355578 166.5450992405248 -12.247679531331055
v -26.29930049171597 170.62332147511447 -15.852869200804765
v -29.37702617477474 159.63773026140117 11.139846476934132
v -26.522716414222348 170.50946158707467 10.072987268258764
v -33.803046195157876 166.58700451515617 9.952868053114704
v -37.687008451895416 171.57138481975218 -0.7524141817819281
v -33.803046195157876 166.58700451515617 9.952868053114704
v -26.522716414222348 170.50946158707467 10.072987268258764
v -30.98472272987596 178.5422414147018 -2.6911174917243805
v -33.2731366709967 141.2530204652896 -0.798041491405785
v -34.739150697383955 142.86652562875497 -7.357844172101971
v -28.507274337216028 159.30770358085707 -15.725692356665029
v -24.94323828084675 151.49845425094182 -3.129420286068399
v -35.16229737256237 143.01249879394598 5.853165333483126
v -33.2731366709967 141.2530204652896 -0.798041491405785
v -24.94323828084675 151.49845425094182 -3.129420286068399
v -29.37702617477474 159.63773026140117 11.139846476934132
v -42.521044239864715 150.09423886007139 -7.927851671935114
v -45.40340647692051 153.06232344308094 -0.7858281580331186
v -37.687008451895416 171.57138481975218 -0.7524141817819281
v -33.69523112355578 166.5450992405248 -12.247679531331055
v -34.739150697383955 142.86652562875497 -7.357844172101971
v -42.521044239864715 150.09423886007139 -7.927851671935114
v -33.69523112355578 166.5450992405248 -12.247679531331055
v -28.507274337216028 159.30770358085707 -15.725692356665029
v -42.58780206975903 150.11785736179698 5.865375664282879
v -35.16229737256237 143.01249879394598 5.853165333483126
v -29.37702617477474 159.63773026140117 11.139846476934132
v -33.803046195157876 166.58700451515617 9.952868053114704
v -45.40340647692051 153.06232344308094 -0.7858281580331186
v -42.58780206975903 150.11785736179698 5.865375664282879
v -33.803046195157876 166.58700451515617 9.952868053114704
v -37.687008451895416 171.57138481975218 -0.7524141817819281
v -37.45066040526201 136.77721577813105 2.6418526658033468
v -38.811343917316904 136.0798320700261 -3.5892661584767867
v -34.739150697383955 142.86652562875497 -7.357844172101971
v -33.2731366709967 141.2530204652896 -0.798041491405785
v -46.034191201474236 142.19281002143566 -6.402681079910407
v -48.709507860491065 147.06758281444257 -1.133079811068984
v -45.40340647692051 153.06232344308094 -0.7858281580331186
v -42.521044239864715 150.09423886007139 -7.927851671935114
v -38.811343917316904 136.0798320700261 -3.5892661584767867
v -46.034191201474236 142.19281002143566 -6.402681079910407
v -42.521044239864715 150.09423886007139 -7.927851671935114
v -34.739150697383955 142.86652562875497 -7.357844172101971
v -39.204082622837475 140.44189933024015 7.871357918563299
v -37.45066040526201 136.77721577813105 2.6418526658033468
v -33.2731366709967 141.2530204652896 -0.798041491405785
v -35.16229737256237 143.01249879394598 5.853165333483126
v -46.09613220926444 146.63491092533218 5.604313149371062
v -39.204082622837475 140.44189933024015 7.871357918563299
v -35.16229737256237 143.01249879394598 5.853165333483126
v -42.58780206975903 150.11785736179698 5.865375664282879
v -48.709507860491065 147.06758281444257 -1.133079811068984
v -46.09613220926444 146.63491092533218 5.604313149371062
v -42.58780206975903 150.11785736179698 5.865375664282879
v -45.40340647692051 153.06232344308094 -0.7858281580331186
v -41.07590328532249 128.86349393909632 5.544102394965458
v -42.85784850026834 127.9501909201729 -2.616159928583505
v -38.811343917316904 136.0798320700261 -3.5892661584767867
v -37.45066040526201 136.77721577813105 2.6418526658033468
v -52.31690715858319 135.95573807963353 -6.300610063344284
v -55.82049207960471 142.3397397253412 0.600461008471731
v -48.709507860491065 147.06758281444257 -1.133079811068984
v -46.034191201474236 142.19281002143566 -6.402681079910407
v -42.85784850026834 127.9501909201729 -2.616159928583505
v -52.31690715858319 135.95573807963353 -6.300610063344284
v -46.034191201474236 142.19281002143566 -6.402681079910407
v -38.811343917316904 136.0798320700261 -3.5892661584767867
v -43.37221805464586 133.6627556945185 12.39266461094854
v -41.07590328532249 128.86349393909632 5.544102394965458
v -37.45066040526201 136.77721577813105 2.6418526658033468
v -39.204082622837475 140.44189933024015 7.871357918563299
v -52.3980408100618 141.77311873771015 9.42375035733215
v -43.37221805464586 133.6627556945185 12.39266461094854
v -39.204082622837475 140.44189933024015 7.871357918563299
v -46.09613220926444 146.63491092533218 5.604313149371062
v -55.82049207960471 142.3397397253412 0.600461008471731
v -52.3980408100618 141.77311873771015 9.42375035733215
v -46.09613220926444 146.63491092533218 5.604313149371062
v -48.709507860491065 147.06758281444257 -1.133079811068984
v -54.73364061577842 118.49076673522045 9.322704670434359
v -55.60505214915049 118.04417152333562 5.33215513045463
v -42.85784850026834 127.9501909201729 -2.616159928583505
v -41.07590328532249 128.86349393909632 5.544102394965458
v -60.23072770103365 121.95905515778155 3.5303759436614466
v -61.944035390486526 125.08095605759651 6.905150004862463
v -55.82049207960471 142.3397397253412 0.600461008471731
v -52.31690715858319 135.95573807963353 -6.300610063344284
v -55.60505214915049 118.04417152333562 5.33215513045463
v -60.23072770103365 121.95905515778155 3.5303759436614466
v -52.31690715858319 135.95573807963353 -6.300610063344284
v -42.85784850026834 127.9501909201729 -2.616159928583505
v -55.85658680326232 120.83773840809577 12.671789555252918
v -54.73364061577842 118.49076673522045 9.322704670434359
v -41.07590328532249 128.86349393909632 5.544102394965458
v -43.37221805464586 133.6627556945185 12.39266461094854
v -60.270412106709614 124.80386563583943 11.219927669411932
v -55.85658680326232 120.83773840809577 12.671789555252918
v -43.37221805464586 133.6627556945185 12.39266461094854
v -52.3980408100618 141.77311873771015 9.42375035733215
v -61.944035390486526 125.08095605759651 6.905150004862463
v -60.270412106709614 124.80386563583943 11.219927669411932
v -52.3980408100618 141.77311873771015 9.42375035733215
v -55.82049207960471 142.3397397253412 0.600461008471731
v -61.33666084075159 117.52638063088203 18.49697442268349
v -61.20530069336399 111.98712000052265 3.6587413894530103
v -55.60505214915049 118.04417152333562 5.33215513045463
v -54.73364061577842 118.49076673522045 9.322704670434359
v -55.85658680326232 120.83773840809577 12.671789555252918
v -68.14682919691263 114.22708220082059 2.135893976953204
v -67.96361912215151 119.47628517001604 16.913745340325757
v -60.270412106709614 124.80386563583943 11.219927669411932
v -61.944035390486526 125.08095605759651 6.905150004862463
v -60.23072770103365 121.95905515778155 3.5303759436614466
v -61.20530069336399 111.98712000052265 3.6587413894530103
v -68.14682919691263 114.22708220082059 2.135893976953204
v -60.23072770103365 121.95905515778155 3.5303759436614466
v -55.60505214915049 118.04417152333562 5.33215513045463
v -67.96361912215151 119.47628517001604 16.913745340325757
v -61.33666084075159 117.52638063088203 18.49697442268349
v -55.85658680326232 120.83773840809577 12.671789555252918
v -60.270412106709614 124.80386563583943 11.219927669411932
v -62.06830157028192 106.5455067624713 19.737390192445794
v -64.2691188238751 102.8068381564508 9.116444255940522
v -61.20530069336399 111.98712000052265 3.6587413894530103
v -61.33666084075159 117.52638063088203 18.49697442268349
v -64.2691188238751 102.8068381564508 9.116444255940522
v -66.91758114180402 106.84711024904648 19.636996532293715
v -67.96361912215151 119.47628517001604 16.913745340325757
v -68.14682919691263 114.22708220082059 2.135893976953204
v -68.14682919691263 114.22708220082059 2.135893976953204
v -61.20530069336399 111.98712000052265 3.6587413894530103
v -64.2691188238751 102.8068381564508 9.116444255940522
v -66.91758114180402 106.84711024904648 19.636996532293715
v -62.06830157028192 106.5455067624713 19.737390192445794
v -61.33666084075159 117.52638063088203 18.49697442268349
v -67.96361912215151 119.47628517001604 16.913745340325757
v -29.37702617477474 159.63773026140117 11.139846476934132
v -16.293373433850366 153.89356867683998 19.78304458377196
v -16.42876803231309 157.37484868947777 22.66655407805058
v -2.681554016248264 179.26726100721046 9.944153176625855
v -6.560967980361512 188.87632402299445 4.150045796507414
v -10.275853921196545 180.28628711046096 4.560830731931299
v -2.68154769267519 188.85357606913126 5.999653694634544
v -6.560967980361512 188.87632402299445 4.150045796507414
v -2.681554016248264 179.26726100721046 9.944153176625855
v -2.681551840377055 178.16877669538684 -13.725323293729558
v -10.211743433183235 179.22958498595773 -8.558743715076865
v -7.654451912922572 188.8760664290016 -2.879172490161465
v -2.681543712798432 188.85357549275176 -7.186359689918589
v -8.274731292800256 78.20893293542474 17.835539285100143
v -2.6815646349851825 108.11673494489575 20.560313020526053
v -12.329965299135607 109.01344344082466 17.509499506961156
v -16.236437965358558 78.93081128616339 15.124366794297513
v -13.068330859035667 180.51728159515386 -1.698054361238408
v -8.709173623225627 188.59467424163915 0.4678377362410595
v -7.654451912922572 188.8760664290016 -2.879172490161465
v -10.211743433183235 179.22958498595773 -8.558743715076865
v -10.275853921196545 180.28628711046096 4.560830731931299
v -6.560967980361512 188.87632402299445 4.150045796507414
v -8.709173623225627 188.59467424163915 0.4678377362410595
v -13.068330859035667 180.51728159515386 -1.698054361238408
v -30.98472272987596 178.5422414147018 -2.6911174917243805
v -21.81443462063859 178.92801997432622 -2.3326681186132294
v -26.29930049171597 170.62332147511447 -15.852869200804765
v -30.98472272987596 178.5422414147018 -2.6911174917243805
v -26.522716414222348 170.50946158707467 10.072987268258764
v -21.81443462063859 178.92801997432622 -2.3326681186132294
v -8.274731292800256 78.20893293542474 17.835539285100143
v 2.8872365013854697 78.17674691176552 17.832325550744322
v -2.6815646349851825 108.11673494489575 20.560313020526053
v -2.68154769267519 188.85357606913126 5.999653694634544
v -2.681548279144858 192.05748335240875 0.6807209153140024
v -6.560967980361512 188.87632402299445 4.150045796507414
v -7.654451912922572 188.8760664290016 -2.879172490161465
v -2.681548279144858 192.05748335240875 0.6807209153140024
v -2.681543712798432 188.85357549275176 -7.186359689918589
v -8.709173623225627 188.59467424163915 0.4678377362410595
v -2.681548279144858 192.05748335240875 0.6807209153140024
v -7.654451912922572 188.8760664290016 -2.879172490161465
v -6.560967980361512 188.87632402299445 4.150045796507414
v -2.681548279144858 192.05748335240875 0.6807209153140024
v -8.709173623225627 188.59467424163915 0.4678377362410595
f 153 154 155
f 153 155 156
f 157 158 159
f 157 159 160
f 161 162 163
f 161 163 164
f 165 166 167
f 165 167 168
f 169 170 171
f 169 171 172
f 173 174 175
f 173 175 176
f 177 178 179
f 177 179 180
f 181 182 183
f 181 183 184
f 185 186 187
f 185 187 188
f 189 190 191
f 189 191 192
f 197 193 194
f 197 194 195
f 195 196 197
f 198 199 200
f 198 200 201
f 206 202 203
f 206 203 204
f 204 205 206
f 207 208 209
f 207 209 210
f 211 212 213
f 211 213 214
f 215 216 217
f 215 217 218
f 219 220 221
f 219 221 222
f 223 224 225
f 223 225 226
f 227 228 229
f 227 229 230
f 231 232 233
f 231 233 234
f 235 236 237
f 235 237 238
f 239 240 241
f 239 241 242
f 243 244 245
f 243 245 246
f 247 248 249
f 247 249 250
f 251 252 253
f 251 253 254
f 255 256 257
f 255 257 258
f 259 260 261
f 259 261 262
f 263 264 265
f 263 265 266
f 267 268 269
f 267 269 270
f 271 272 273
f 271 273 274
f 275 276 277
f 275 277 278
f 279 280 281
f 279 281 282
f 283 284 285
f 283 285 286
f 287 288 289
f 287 289 290
f 291 292 293
f 291 293 294
f 295 296 297
f 295 297 298
f 299 300 301
f 299 301 302
f 303 304 305
f 303 305 306
f 307 308 309
f 307 309 310
f 311 312 313
f 311 313 314
f 315 316 317
f 315 317 318
f 319 320 321
f 319 321 322
f 323 324 325
f 323 325 326
f 327 328 329
f 327 329 330
f 331 332 333
f 331 333 334
f 335 336 337
f 335 337 338
f 339 340 341
f 339 341 342
f 343 344 345
f 343 345 346
f 347 348 349
f 347 349 350
f 351 352 353
f 351 353 354
f 355 356 357
f 355 357 358
f 359 360 361
f 359 361 362
f 363 364 365
f 363 365 366
f 367 368 369
f 367 369 370
f 371 372 373
f 371 373 374
f 375 376 377
f 375 377 378
f 379 380 381
f 379 381 382
f 383 384 385
f 383 385 386
f 387 388 389
f 387 389 390
f 391 392 393
f 391 393 394
f 395 396 397
f 395 397 398
f 399 400 401
f 402 403 404
f 402 404 405
f 406 407 408
f 406 408 409
f 410 411 412
f 410 412 413
f 414 415 416
f 414 416 417
f 418 419 420
f 418 420 421
f 422 423 424
f 422 424 425
f 426 427 428
f 426 428 429
f 430 431 432
f 433 434 435
f 433 435 436
f 437 438 439
f 437 439 440
f 441 442 443
f 444 445 446
f 447 448 449
f 447 449 450
f 451 452 453
f 451 453 454
f 455 456 457
f 455 457 458
f 459 460 461
f 459 461 462
f 463 464 465
f 463 465 466
f 467 468 469
f 467 469 470
f 471 472 473
f 471 473 474
f 475 476 477
f 475 477 478
f 479 480 481
f 479 481 482
f 483 484 485
f 483 485 486
f 487 488 489
f 487 489 490
f 491 492 493
f 491 493 494
f 495 496 497
f 495 497 498
f 499 500 501
f 499 501 502
f 503 504 505
f 503 505 506
f 507 508 509
f 507 509 510
f 511 512 513
f 511 513 514
f 515 516 517
f 515 517 518
f 519 520 521
f 519 521 522
f 523 524 525
f 523 525 526
f 527 528 529
f 527 529 530
f 531 532 533
f 531 533 534
f 535 536 537
f 535 537 538
f 539 540 541
f 539 541 542
f 543 544 545
f 543 545 546
f 551 547 548
f 551 548 549
f 549 550 551
f 556 552 553
f 556 553 554
f 554 555 556
f 557 558 559
f 557 559 560
f 561 562 563
f 561 563 564
f 565 566 567
f 565 567 568
f 569 570 571
f 569 571 572
f 573 574 575
f 576 577 578
f 576 578 579
f 580 581 582
f 583 584 585
f 586 587 588
f 589 590 591
f 589 591 592
f 593 594 595
f 593 595 596
f 597 598 599
f 597 599 600
f 601 602 603
f 601 603 604
f 605 606 607
f 608 609 610
f 611 612 613
f 614 615 616
f 617 618 619
f 620 621 622
f 623 624 625
f 626 627 628
f 626 628 629
f 630 631 632
f 630 632 633
f 634 635 636
f 634 636 637
f 638 639 640
f 638 640 641
f 642 643 644
f 642 644 645
f 646 647 648
f 646 648 649
f 650 651 652
f 650 652 653
f 654 655 656
f 654 656 657
f 658 659 660
f 658 660 661
f 662 663 664
f 662 664 665
f 666 667 668
f 666 668 669
f 674 670 671
f 671 672 673
f 671 673 674
f 675 676 677
f 675 677 678
f 683 679 680
f 683 680 681
f 681 682 683
f 684 685 686
f 684 686 687
f 688 689 690
f 688 690 691
f 692 693 694
f 692 694 695
f 696 697 698
f 696 698 699
f 700 701 702
f 700 702 703
f 704 705 706
f 704 706 707
f 708 709 710
f 708 710 711
f 712 713 714
f 712 714 715
f 716 717 718
f 716 718 719
f 720 721 722
f 720 722 723
f 724 725 726
f 724 726 727
f 728 729 730
f 728 730 731
f 732 733 734
f 732 734 735
f 736 737 738
f 736 738 739
f 740 741 742
f 740 742 743
f 744 745 746
f 744 746 747
f 748 749 750
f 748 750 751
f 752 753 754
f 752 754 755
f 756 757 758
f 756 758 759
f 760 761 762
f 760 762 763
f 764 765 766
f 764 766 767
f 768 769 770
f 768 770 771
f 772 773 774
f 772 774 775
f 776 777 778
f 776 778 779
f 780 781 782
f 780 782 783
f 784 785 786
f 784 786 787
f 788 789 790
f 788 790 791
f 792 793 794
f 792 794 795
f 796 797 798
f 796 798 799
f 800 801 802
f 800 802 803
f 804 805 806
f 804 806 807
f 808 809 810
f 808 810 811
f 812 813 814
f 812 814 815
f 816 817 818
f 816 818 819
f 820 821 822
f 820 822 823
f 824 825 826
f 824 826 827
f 828 829 830
f 828 830 831
f 832 833 834
f 832 834 835
f 836 837 838
f 836 838 839
f 840 841 842
f 840 842 843
f 844 845 846
f 844 846 847
f 848 849 850
f 848 850 851
f 852 853 854
f 852 854 855
f 856 857 858
f 856 858 859
f 860 861 862
f 860 862 863
f 864 865 866
f 864 866 867
f 868 869 870
f 868 870 871
f 872 873 874
f 872 874 875
f 876 877 878
f 879 880 881
f 879 881 882
f 883 884 885
f 883 885 886
f 887 888 889
f 887 889 890
f 891 892 893
f 891 893 894
f 895 896 897
f 895 897 898
f 899 900 901
f 899 901 902
f 903 904 905
f 903 905 906
f 907 908 909
f 910 911 912
f 910 912 913
f 914 915 916
f 914 916 917
f 918 919 920
f 921 922 923
f 924 925 926
f 924 926 927
f 928 929 930
f 928 930 931
f 932 933 934
f 932 934 935
f 936 937 938
f 936 938 939
f 940 941 942
f 940 942 943
f 944 945 946
f 944 946 947
f 948 949 950
f 948 950 951
f 952 953 954
f 952 954 955
f 956 957 958
f 956 958 959
f 960 961 962
f 960 962 963
f 964 965 966
f 964 966 967
f 968 969 970
f 968 970 971
f 972 973 974
f 972 974 975
f 976 977 978
f 976 978 979
f 980 981 982
f 980 982 983
f 984 985 986
f 984 986 987
f 988 989 990
f 988 990 991
f 992 993 994
f 992 994 995
f 996 997 998
f 996 998 999
f 1000 1001 1002
f 1000 1002 1003
f 1004 1005 1006
f 1004 1006 1007
f 1008 1009 1010
f 1008 1010 1011
f 1012 1013 1014
f 1012 1014 1015
f 1016 1017 1018
f 1016 1018 1019
f 1020 1021 1022
f 1020 1022 1023
f 1028 1024 1025
f 1028 1025 1026
f 1026 1027 1028
f 1033 1029 1030
f 1033 1030 1031
f 1031 1032 1033
f 1034 1035 1036
f 1034 1036 1037
f 1038 1039 1040
f 1038 1040 1041
f 1042 1043 1044
f 1042 1044 1045
f 1046 1047 1048
f 1046 1048 1049
f 1050 1051 1052
f 1053 1054 1055
f 1053 1055 1056
f 1057 1058 1059
f 1060 1061 1062
f 1063 1064 1065
f 1066 1067 1068
f 1066 1068 1069
f 1070 1071 1072
f 1070 1072 1073
f 1074 1075 1076
f 1074 1076 1077
f 1078 1079 1080
f 1078 1080 1081
f 1082 1083 1084
f 1085 1086 1087
f 1088 1089 1090
f 1091 1092 1093
f 1094 1095 1096
f 1097 1098 1099
f 1100 1101 1102
