o convex_0
v 9.662698 185.318259 -161.618814
v -0.998703 153.330925 -154.958439
v 5.663498 153.330925 -154.958439
v 3.000497 166.660025 -164.283903
v 0.335146 163.998588 -153.624720
v 3.000497 181.319843 -165.617622
v 10.996547 174.650596 -164.283903
v 9.662698 165.332438 -153.624720
v 5.663498 183.981279 -160.286269
v 9.662698 160.000172 -158.956073
v 9.662698 185.318259 -165.617622
v 9.662698 158.666322 -153.624720
v 6.996174 161.330890 -161.618814
v -0.998703 161.330890 -157.623528
v 4.334346 185.318259 -162.951359
v 10.996547 181.319843 -160.286269
v 6.996174 173.316747 -165.617622
v -0.998703 153.330925 -153.624720
v 10.996547 166.660025 -157.623528
v -0.998703 161.330890 -153.624720
v 0.335146 157.332473 -158.956073
v 9.662698 181.319843 -158.956073
v 4.334346 166.660025 -153.624720
v 9.662698 166.660025 -162.951359
v 10.996547 183.981279 -164.283903
v 3.000497 181.319843 -161.618814
v 4.334346 185.318259 -165.617622
v 1.667821 166.660025 -162.951359
v 5.663498 153.330925 -153.624720
v 9.662698 175.987577 -165.617622
v 5.663498 166.660025 -164.283903
v 10.996547 167.993874 -161.618814
f 10 24 32 
f 8 5 12 
f 3 10 12 
f 10 3 13 
f 9 1 15 
f 1 11 15 
f 4 6 17 
f 6 11 17 
f 2 3 18 
f 12 5 18 
f 14 2 18 
f 8 12 19 
f 12 10 19 
f 16 8 19 
f 7 16 19 
f 6 14 20 
f 18 5 20 
f 14 18 20 
f 3 2 21 
f 13 3 21 
f 4 13 21 
f 2 14 21 
f 1 9 22 
f 16 1 22 
f 8 16 22 
f 5 8 23 
f 9 5 23 
f 8 22 23 
f 22 9 23 
f 10 13 24 
f 11 1 25 
f 7 11 25 
f 1 16 25 
f 16 7 25 
f 5 9 26 
f 15 6 26 
f 9 15 26 
f 6 20 26 
f 20 5 26 
f 11 6 27 
f 6 15 27 
f 15 11 27 
f 6 4 28 
f 14 6 28 
f 4 21 28 
f 21 14 28 
f 3 12 29 
f 18 3 29 
f 12 18 29 
f 11 7 30 
f 17 11 30 
f 7 24 30 
f 30 24 31 
f 13 4 31 
f 4 17 31 
f 24 13 31 
f 17 30 31 
f 7 19 32 
f 19 10 32 
f 24 7 32 
o convex_1
v -0.998703 183.988193 -129.631088
v 6.996695 199.975599 -121.636212
v 8.330936 206.637931 -122.970061
v 6.996695 174.659467 -129.631088
v 3.000366 207.971128 -132.296439
v 3.000366 174.659467 -121.636212
v 1.667039 205.304734 -124.303910
v 0.334624 174.659467 -133.631462
v 6.996695 210.637521 -130.964938
v -0.998703 174.659467 -124.303910
v 6.996695 174.659467 -122.970061
v 1.667039 210.637521 -128.298413
v 1.667039 190.654178 -121.636212
v 8.330936 191.987375 -128.298413
v 4.331867 210.637521 -124.303910
v 4.331867 174.659467 -132.296439
v 8.330936 187.987784 -122.970061
v 1.667039 209.304324 -130.964938
v 8.330936 209.304324 -129.631088
v -0.998703 181.325452 -124.303910
v -0.998703 175.992664 -132.296439
v 3.000366 206.637931 -122.970061
v 6.996695 211.970718 -126.968086
v 6.996695 181.325452 -121.636212
v 1.667039 175.992664 -133.631462
v 0.334624 199.975599 -126.968086
v 8.330936 198.642402 -129.631088
v 4.331867 211.970718 -129.631088
v 4.331867 207.971128 -132.296439
v 8.330936 210.637521 -125.636585
v 1.667039 179.992255 -121.636212
v 0.334624 195.976008 -124.303910
f 58 52 64 
f 36 38 40 
f 40 38 42 
f 38 36 43 
f 38 34 45 
f 36 40 48 
f 43 36 49 
f 46 35 49 
f 36 46 49 
f 37 40 50 
f 35 46 51 
f 33 42 52 
f 42 45 52 
f 42 33 53 
f 40 42 53 
f 33 50 53 
f 50 40 53 
f 34 35 54 
f 44 39 54 
f 45 34 54 
f 39 45 54 
f 35 47 54 
f 47 44 54 
f 35 34 56 
f 34 38 56 
f 38 43 56 
f 49 35 56 
f 43 49 56 
f 40 37 57 
f 48 40 57 
f 41 48 57 
f 39 44 58 
f 50 33 58 
f 44 50 58 
f 33 52 58 
f 46 36 59 
f 36 48 59 
f 48 41 59 
f 51 46 59 
f 41 51 59 
f 41 37 60 
f 44 47 60 
f 37 50 60 
f 50 44 60 
f 55 41 60 
f 47 55 60 
f 37 41 61 
f 57 37 61 
f 41 57 61 
f 47 35 62 
f 35 51 62 
f 51 41 62 
f 41 55 62 
f 55 47 62 
f 42 38 63 
f 38 45 63 
f 45 42 63 
f 45 39 64 
f 52 45 64 
f 39 58 64 
o convex_2
v -22.323593 182.652648 -54.995280
v -18.323610 231.965933 -48.331904
v -16.993936 233.293912 -49.665753
v -14.327281 187.990002 -52.332278
v -14.327281 183.990803 -60.327154
v -22.323593 226.633667 -54.995280
v -15.660608 230.632867 -53.663779
v -20.989352 182.652648 -60.327154
v -22.323593 215.969135 -49.665753
v -18.323610 187.990002 -50.998428
v -12.993953 182.652648 -56.326780
v -18.323610 223.962446 -56.326780
v -15.660608 227.961646 -49.665753
v -22.323593 231.965933 -49.665753
v -16.993936 219.968335 -48.331904
v -20.989352 182.652648 -52.332278
v -19.656938 190.651047 -60.327154
v -20.989352 233.293912 -53.663779
v -22.323593 189.323069 -58.993305
v -20.989352 222.634468 -48.331904
v -15.660608 182.652648 -52.332278
v -12.993953 185.318781 -57.660630
v -20.989352 223.962446 -56.326780
v -16.993936 230.632867 -54.995280
v -16.993936 201.315579 -49.665753
v -18.323610 234.632066 -52.332278
v -20.989352 191.984114 -50.998428
v -22.323593 190.651047 -52.332278
v -20.989352 187.990002 -60.327154
v -15.660608 187.990002 -60.327154
v -19.656938 234.632066 -49.665753
v -15.660608 225.300601 -54.995280
f 88 71 96 
f 70 65 73 
f 65 72 75 
f 72 69 75 
f 67 66 77 
f 71 67 77 
f 68 75 77 
f 70 73 78 
f 77 66 79 
f 68 77 79 
f 65 75 80 
f 69 72 81 
f 70 78 82 
f 65 70 83 
f 72 65 83 
f 66 78 84 
f 78 73 84 
f 79 66 84 
f 75 68 85 
f 74 80 85 
f 80 75 85 
f 75 69 86 
f 71 77 86 
f 77 75 86 
f 76 81 87 
f 70 82 87 
f 76 87 88 
f 87 82 88 
f 68 79 89 
f 79 84 89 
f 85 68 89 
f 74 85 89 
f 67 71 90 
f 71 88 90 
f 88 82 90 
f 80 74 91 
f 84 73 91 
f 89 84 91 
f 74 89 91 
f 73 65 92 
f 65 80 92 
f 91 73 92 
f 80 91 92 
f 81 72 93 
f 83 70 93 
f 72 83 93 
f 87 81 93 
f 70 87 93 
f 69 81 94 
f 81 76 94 
f 88 69 94 
f 76 88 94 
f 66 67 95 
f 78 66 95 
f 82 78 95 
f 67 90 95 
f 90 82 95 
f 86 69 96 
f 71 86 96 
f 69 88 96 
o convex_3
v 8.330936 14.716012 7.643061
v 5.665194 -1.272437 -7.014800
v 6.996695 6.724918 -8.347736
v -0.998703 0.061152 3.646471
v 8.330936 -1.272437 14.309959
v 6.996695 20.048278 -4.348928
v 1.667039 2.726241 11.644087
v 8.330936 -1.272437 -7.014800
v 3.000366 2.726241 -5.681864
v 8.330936 20.048278 -4.348928
v 0.334624 -1.272437 10.311151
v 6.996695 20.048278 -1.680838
v -0.998703 -1.272437 2.315752
v 6.996695 1.394740 14.309959
v 6.996695 14.716012 7.643061
v 6.996695 12.053010 -8.347736
v 8.330936 12.053010 -8.347736
v 1.667039 -1.272437 12.977023
v 3.000366 -1.272437 -5.681864
v -0.998703 0.061152 2.315752
v 0.334624 1.394740 8.978215
v 6.996695 16.049601 6.310125
v 4.331867 2.726241 12.977023
v 8.330936 20.048278 -1.680838
v 4.331867 5.391330 -7.014800
v 8.330936 1.394740 14.309959
v 0.334624 1.394740 -0.347902
v 4.331867 1.394740 -7.014800
v 1.667039 0.061152 12.977023
v 5.665194 -1.272437 14.309959
v 8.330936 6.724918 -8.347736
v 1.667039 6.724918 2.315752
f 117 108 128 
f 97 101 104 
f 101 98 104 
f 97 104 106 
f 98 101 107 
f 102 100 108 
f 106 102 108 
f 98 107 109 
f 107 100 109 
f 110 97 111 
f 102 106 113 
f 106 104 113 
f 99 112 113 
f 112 102 113 
f 107 101 114 
f 98 109 115 
f 109 105 115 
f 100 102 116 
f 109 100 116 
f 105 109 116 
f 100 107 117 
f 103 108 117 
f 108 103 118 
f 103 111 118 
f 111 97 118 
f 111 103 119 
f 110 111 119 
f 97 106 120 
f 106 108 120 
f 108 118 120 
f 118 97 120 
f 105 102 121 
f 102 112 121 
f 115 105 121 
f 101 97 122 
f 97 110 122 
f 110 101 122 
f 102 105 123 
f 116 102 123 
f 105 116 123 
f 99 98 124 
f 112 99 124 
f 98 115 124 
f 121 112 124 
f 115 121 124 
f 107 114 125 
f 117 107 125 
f 103 117 125 
f 119 103 125 
f 110 119 125 
f 101 110 126 
f 114 101 126 
f 125 114 126 
f 110 125 126 
f 98 99 127 
f 104 98 127 
f 99 113 127 
f 113 104 127 
f 108 100 128 
f 100 117 128 
o convex_4
v -4.993728 125.341225 -98.982771
v -4.996598 102.687835 -77.660133
v -7.660122 106.686274 -86.985925
v 2.999714 124.006194 -114.968390
v 2.998279 108.019088 -66.991182
v -11.661148 109.349683 -66.991182
v -8.994754 124.006194 -113.630320
v 1.665082 102.687835 -73.661184
v -11.661148 104.020648 -66.991182
v -1.001312 114.676501 -104.294352
v 2.999714 125.341225 -102.971544
v -1.001312 112.013092 -66.991182
v -6.328360 124.006194 -118.967339
v -8.994754 125.341225 -106.965405
v -7.660122 112.013092 -66.991182
v -8.991884 113.345905 -98.972596
v 1.665082 102.687835 -66.991182
v -0.999877 125.341225 -118.967339
v 1.665082 108.019088 -88.318908
v -10.325081 102.687835 -70.995219
v 2.998279 105.353461 -70.995219
v 0.331885 125.341225 -98.982771
v -7.661557 125.341225 -101.648737
v -6.326925 114.676501 -104.294352
v -2.335944 106.686274 -88.318908
v -11.661148 105.353461 -72.328201
v -0.999877 124.006194 -118.967339
v -8.994754 125.341225 -113.630320
v 2.999714 122.675598 -113.630320
v 0.331885 112.013092 -68.329253
v -10.325081 112.013092 -69.662236
v -8.991884 104.022866 -78.988028
f 148 154 160 
f 133 134 137 
f 134 133 140 
f 129 139 142 
f 134 140 143 
f 140 129 143 
f 135 141 144 
f 130 136 145 
f 133 137 145 
f 139 132 146 
f 142 139 146 
f 130 145 148 
f 145 137 148 
f 139 133 149 
f 145 136 149 
f 133 145 149 
f 136 147 149 
f 139 129 150 
f 129 140 150 
f 129 142 151 
f 143 129 151 
f 141 138 152 
f 131 144 152 
f 144 141 152 
f 130 131 153 
f 136 130 153 
f 147 136 153 
f 138 147 153 
f 131 152 153 
f 152 138 153 
f 137 134 154 
f 135 144 154 
f 148 137 154 
f 138 141 155 
f 146 132 155 
f 141 146 155 
f 141 135 156 
f 134 142 156 
f 146 141 156 
f 142 146 156 
f 154 134 156 
f 135 154 156 
f 132 139 157 
f 147 138 157 
f 139 149 157 
f 149 147 157 
f 155 132 157 
f 138 155 157 
f 133 139 158 
f 140 133 158 
f 139 150 158 
f 150 140 158 
f 142 134 159 
f 134 143 159 
f 151 142 159 
f 143 151 159 
f 131 130 160 
f 144 131 160 
f 130 148 160 
f 154 144 160 
o convex_5
v -8.995537 101.351072 0.988035
v 8.330936 97.354351 3.649471
v 5.664803 104.017118 18.303679
v 1.665604 104.017118 -5.678602
v -6.327708 104.017118 20.968377
v -4.994641 96.020545 -8.343300
v -0.997137 96.022111 8.972344
v 8.330936 96.022111 -9.680542
v -7.660774 104.017118 -3.013904
v -6.326012 97.354351 8.972344
v 0.332537 102.684095 23.639598
v 6.994478 102.683312 -1.679925
v 8.330936 96.022111 3.649471
v -2.330204 98.686591 -9.680542
v -8.995537 104.017118 10.309585
v -6.327708 102.684095 20.968377
v 8.330936 97.354351 -9.680542
v -7.662470 97.354351 0.981512
v 2.998670 96.022111 8.972344
v -8.995537 102.684095 10.309585
v 5.664803 102.683312 18.303679
v -3.661575 104.017118 -5.678602
v -0.998834 104.017118 23.639598
v 5.664803 104.017118 6.314169
v 8.330936 98.686591 0.981512
v -8.995537 104.017118 -0.345945
v -3.661575 96.020545 -9.680542
v 5.663107 98.686591 -9.680542
v -4.994641 96.020545 -3.010643
v -4.994641 98.686591 -8.346562
v -7.662470 97.354351 -1.679925
v -0.998834 102.684095 23.639598
f 183 176 192 
f 163 164 165 
f 165 164 169 
f 162 163 173 
f 168 162 173 
f 165 169 175 
f 170 167 176 
f 165 175 176 
f 162 168 177 
f 164 172 177 
f 168 174 177 
f 171 167 179 
f 173 171 179 
f 175 161 180 
f 170 176 180 
f 176 175 180 
f 161 178 180 
f 178 170 180 
f 163 171 181 
f 173 163 181 
f 171 173 181 
f 169 164 182 
f 164 174 182 
f 163 165 183 
f 171 163 183 
f 165 176 183 
f 164 163 184 
f 163 172 184 
f 172 164 184 
f 163 162 185 
f 172 163 185 
f 162 177 185 
f 177 172 185 
f 161 175 186 
f 175 169 186 
f 168 173 187 
f 174 168 187 
f 174 164 188 
f 164 177 188 
f 177 174 188 
f 167 170 189 
f 178 166 189 
f 170 178 189 
f 179 167 189 
f 173 179 189 
f 166 187 189 
f 187 173 189 
f 169 182 190 
f 182 174 190 
f 166 186 190 
f 186 169 190 
f 187 166 190 
f 174 187 190 
f 178 161 191 
f 166 178 191 
f 161 186 191 
f 186 166 191 
f 167 171 192 
f 176 167 192 
f 171 183 192 
o convex_6
v 9.663742 162.658067 -152.288523
v -4.997120 150.666516 -145.626451
v -3.663923 148.001930 -149.624738
v 6.995913 148.001930 -140.296273
v -2.329291 159.993481 -140.296273
v -0.997529 161.324861 -153.623024
v 5.662716 152.001548 -153.623024
v 6.995913 157.327068 -140.296273
v -4.997120 150.666516 -140.296273
v 8.329110 165.324480 -153.623024
v 5.664151 146.666897 -146.959648
v 9.663742 157.325242 -152.288523
v 4.330954 146.666897 -140.296273
v -2.330726 153.334755 -153.623024
v 2.999192 165.324480 -152.288523
v 4.330954 159.993481 -140.296273
v -4.997120 154.664308 -141.630774
v -3.663923 154.666135 -150.956630
v 8.329110 165.324480 -152.288523
v 0.335668 146.666897 -145.626451
v 8.330545 151.997896 -144.294559
v 8.329110 153.334755 -152.288523
v 4.330954 146.666897 -148.291541
v 9.663742 158.658448 -153.623024
v -3.662488 158.660275 -140.296273
v 6.995913 148.001930 -145.626451
v -0.997529 152.001548 -153.623024
v 9.663742 161.324861 -150.956630
v 2.999192 165.324480 -153.623024
v 0.335668 146.666897 -148.291541
v 8.330545 155.995688 -144.294559
v -2.330726 157.325242 -153.623024
f 210 198 224 
f 197 196 200 
f 194 195 201 
f 196 197 201 
f 199 198 202 
f 196 201 205 
f 203 196 205 
f 198 199 206 
f 197 200 208 
f 207 197 208 
f 194 201 209 
f 195 194 210 
f 206 195 210 
f 194 209 210 
f 209 198 210 
f 200 193 211 
f 193 202 211 
f 202 207 211 
f 207 208 211 
f 208 200 211 
f 201 195 212 
f 205 201 212 
f 203 205 212 
f 200 196 213 
f 203 199 214 
f 199 203 215 
f 203 212 215 
f 199 202 216 
f 202 193 216 
f 193 204 216 
f 204 214 216 
f 214 199 216 
f 201 197 217 
f 197 207 217 
f 198 209 217 
f 209 201 217 
f 196 203 218 
f 213 196 218 
f 204 213 218 
f 214 204 218 
f 203 214 218 
f 195 206 219 
f 206 199 219 
f 199 215 219 
f 193 200 220 
f 204 193 220 
f 213 204 220 
f 202 198 221 
f 207 202 221 
f 217 207 221 
f 198 217 221 
f 212 195 222 
f 215 212 222 
f 195 219 222 
f 219 215 222 
f 200 213 223 
f 220 200 223 
f 213 220 223 
f 198 206 224 
f 206 210 224 
o convex_7
v -6.329925 148.003815 -140.293272
v 5.663498 174.654510 -122.970191
v 6.998131 174.654510 -124.308215
v 4.331476 146.675116 -128.305327
v 6.998131 157.337586 -140.294968
v -0.997920 174.654510 -133.625200
v -6.329925 146.669637 -130.967808
v 0.334103 174.654510 -122.970191
v 6.996826 148.006555 -140.293272
v -2.331248 146.672376 -126.970695
v -2.331248 161.329163 -140.294968
v 4.331476 174.654510 -133.625200
v -2.331248 173.317592 -128.305327
v 5.663498 146.669637 -140.293272
v 6.998131 174.654510 -130.964416
v 5.663498 170.654714 -122.970191
v 6.998131 162.663341 -128.305327
v -4.995293 157.329367 -138.960336
v 4.331476 161.329163 -140.294968
v 2.998148 146.675116 -126.970695
v -6.329925 146.669637 -140.293272
v -6.329925 149.335254 -132.299048
v -2.331248 171.986153 -126.968999
v -2.331248 173.317592 -132.295656
v 5.663498 153.335050 -128.305327
v -3.664575 159.994984 -140.293272
v 6.996826 148.006555 -138.958640
v 2.998148 170.654714 -122.970191
v 6.998131 171.986153 -124.308215
v 0.334103 173.317592 -122.970191
v 5.663498 146.675116 -133.628592
v -0.997920 174.654510 -125.639455
f 248 237 256 
f 226 227 230 
f 226 230 232 
f 235 230 236 
f 230 227 236 
f 229 233 238 
f 234 231 238 
f 227 229 239 
f 236 227 239 
f 229 236 239 
f 227 226 240 
f 226 232 240 
f 229 227 241 
f 229 235 243 
f 235 236 243 
f 236 229 243 
f 238 228 244 
f 234 238 244 
f 228 240 244 
f 240 234 244 
f 231 225 245 
f 225 235 245 
f 235 229 245 
f 229 238 245 
f 238 231 245 
f 225 231 246 
f 242 225 246 
f 231 232 247 
f 246 231 247 
f 237 246 247 
f 246 237 248 
f 242 246 248 
f 235 225 250 
f 230 235 250 
f 225 242 250 
f 248 230 250 
f 242 248 250 
f 233 229 251 
f 238 233 251 
f 229 241 251 
f 241 249 251 
f 240 232 252 
f 234 240 252 
f 227 240 253 
f 240 228 253 
f 241 227 253 
f 228 249 253 
f 249 241 253 
f 232 231 254 
f 231 234 254 
f 252 232 254 
f 234 252 254 
f 228 238 255 
f 249 228 255 
f 238 251 255 
f 251 249 255 
f 232 230 256 
f 247 232 256 
f 237 247 256 
f 230 248 256 
o convex_8
v 20.326186 42.708061 -19.009137
v 26.990214 46.706021 -11.013347
v 26.990214 50.705807 -12.347196
v 22.992189 56.033377 -12.347196
v 22.992189 56.033377 -21.675792
v 26.990214 37.378665 -15.011764
v 21.659514 37.378665 -13.681046
v 20.326186 54.701941 -19.009137
v 25.656887 37.378665 -11.013347
v 20.326186 37.378665 -15.011764
v 24.324212 50.705807 -20.341943
v 20.326186 56.033377 -21.675792
v 25.656887 54.701941 -12.347196
v 21.659514 38.711927 -17.676331
v 26.990214 50.705807 -13.681046
v 21.659514 52.035417 -21.675792
v 24.324212 56.033377 -19.009137
v 26.990214 37.378665 -11.013347
v 20.326186 41.376625 -15.011764
v 26.990214 46.706021 -15.011764
v 25.656887 42.708061 -17.676331
v 20.326186 37.378665 -16.344570
v 24.324212 53.368679 -20.341943
v 25.656887 46.706021 -11.013347
v 20.326186 52.035417 -21.675792
v 24.324212 37.378665 -16.344570
v 24.324212 56.033377 -12.347196
v 21.659514 42.708061 -19.009137
v 22.992189 53.368679 -21.675792
v 25.656887 54.701941 -15.013851
v 22.992189 52.035417 -12.347196
v 20.326186 50.705807 -17.675288
f 264 275 288 
f 259 258 262 
f 263 262 265 
f 262 263 266 
f 264 257 266 
f 260 261 268 
f 264 260 268 
f 257 264 268 
f 258 259 269 
f 259 262 271 
f 269 259 271 
f 268 261 272 
f 261 260 273 
f 262 258 274 
f 258 265 274 
f 265 262 274 
f 266 260 275 
f 264 266 275 
f 262 267 276 
f 271 262 276 
f 267 262 277 
f 266 257 278 
f 262 266 278 
f 257 270 278 
f 267 261 279 
f 261 273 279 
f 273 271 279 
f 276 267 279 
f 271 276 279 
f 258 260 280 
f 265 258 280 
f 260 265 280 
f 257 268 281 
f 272 257 281 
f 268 272 281 
f 277 262 282 
f 262 278 282 
f 278 270 282 
f 260 258 283 
f 258 269 283 
f 273 260 283 
f 269 273 283 
f 270 257 284 
f 257 272 284 
f 277 282 284 
f 282 270 284 
f 261 267 285 
f 272 261 285 
f 267 277 285 
f 284 272 285 
f 277 284 285 
f 269 271 286 
f 273 269 286 
f 271 273 286 
f 265 260 287 
f 263 265 287 
f 266 263 287 
f 260 266 287 
f 260 264 288 
f 275 260 288 
o convex_9
v -16.992370 139.997651 -68.322422
v -3.667967 120.019657 -52.330321
v -10.327820 120.019657 -52.330321
v -10.327820 153.330925 -60.328328
v -3.667967 116.012368 -62.989765
v -6.332535 144.001286 -69.655097
v -12.992388 116.012368 -64.324397
v -16.992370 153.330925 -61.661004
v -14.324672 116.012368 -54.997628
v -14.324672 144.001286 -72.322405
v -0.998703 116.012368 -53.664953
v -5.000251 142.664306 -61.661004
v -0.998703 117.353002 -60.326371
v -11.660104 142.664306 -72.322405
v -14.324672 153.330925 -64.324397
v -15.658521 122.682659 -60.326371
v -15.658521 153.330925 -60.328328
v -11.658539 116.012368 -52.330321
v -6.330969 116.012368 -64.324397
v -7.664818 144.001286 -70.987773
v -4.998685 142.664306 -66.989747
v -2.334118 118.689982 -52.330321
v -16.992370 153.330925 -64.324397
v -14.324672 116.012368 -61.659047
v -16.992370 142.664306 -69.655097
v -16.992370 141.334631 -62.989765
v -0.998703 118.689982 -54.997628
v -14.324672 121.352984 -54.997628
v -10.327820 153.330925 -61.661004
v -7.664818 142.664306 -70.987773
v -15.658521 122.682659 -62.989765
v -14.324672 142.664306 -72.322405
f 313 298 320 
f 291 290 292 
f 295 293 297 
f 297 293 299 
f 299 293 301 
f 296 292 303 
f 291 292 305 
f 292 296 305 
f 290 291 306 
f 297 299 306 
f 291 305 306 
f 293 295 307 
f 295 302 307 
f 302 298 308 
f 298 303 308 
f 292 300 309 
f 301 294 309 
f 292 290 310 
f 300 292 310 
f 290 306 310 
f 306 299 310 
f 289 296 311 
f 296 303 311 
f 303 298 311 
f 295 297 312 
f 289 311 313 
f 311 298 313 
f 296 289 314 
f 297 296 314 
f 289 304 314 
f 304 297 314 
f 299 301 315 
f 309 300 315 
f 301 309 315 
f 300 310 315 
f 310 299 315 
f 296 297 316 
f 305 296 316 
f 297 306 316 
f 306 305 316 
f 303 292 317 
f 294 308 317 
f 308 303 317 
f 292 309 317 
f 309 294 317 
f 301 293 318 
f 294 301 318 
f 293 307 318 
f 307 302 318 
f 302 308 318 
f 308 294 318 
f 304 289 319 
f 297 304 319 
f 295 312 319 
f 312 297 319 
f 289 313 319 
f 313 295 319 
f 302 295 320 
f 298 302 320 
f 295 313 320 
o convex_10
v 16.327770 52.033265 -23.008598
v 13.663202 44.045823 -5.682125
v 16.327770 45.377063 -8.349954
v 20.326186 37.380491 -16.343265
v 18.993120 56.034290 -13.680524
v 12.329353 53.366331 -21.672139
v 13.663202 37.380491 -15.011894
v 12.329353 56.030638 -7.018583
v 20.326186 56.030638 -23.008598
v 12.329353 37.382317 -5.682125
v 12.329353 56.030638 -21.672139
v 20.326186 37.380491 -15.011894
v 14.995486 37.378664 -7.016887
v 13.663202 56.030638 -7.018583
v 20.326186 38.713557 -17.676331
v 12.329353 37.382317 -11.012695
v 20.326186 53.366331 -19.009398
v 16.327770 37.380491 -16.343265
v 13.663202 54.699398 -23.008598
v 20.326186 41.377864 -15.011894
v 20.326186 54.699398 -23.008598
v 12.329353 48.039544 -19.009398
v 17.659271 52.033265 -23.008598
v 17.660053 52.035091 -11.014391
v 18.992337 38.713557 -17.676331
v 13.663202 56.030638 -23.008598
v 12.329353 44.045823 -5.682125
v 13.663202 37.382317 -5.682125
v 20.326186 56.030638 -20.339072
v 16.327770 42.709104 -8.349954
v 14.995486 46.706477 -7.016887
v 13.663202 40.046623 -16.343265
f 339 321 352 
f 328 326 330 
f 326 328 331 
f 328 325 331 
f 324 329 332 
f 324 332 333 
f 328 322 334 
f 325 328 334 
f 329 324 335 
f 330 326 336 
f 327 333 336 
f 333 330 336 
f 332 329 337 
f 324 333 338 
f 333 327 338 
f 335 324 338 
f 329 321 339 
f 326 331 339 
f 323 332 340 
f 337 325 340 
f 332 337 340 
f 321 329 341 
f 329 335 341 
f 326 327 342 
f 336 326 342 
f 327 336 342 
f 335 321 343 
f 321 341 343 
f 341 335 343 
f 325 334 344 
f 323 340 344 
f 340 325 344 
f 321 335 345 
f 338 321 345 
f 335 338 345 
f 325 329 346 
f 331 325 346 
f 329 339 346 
f 339 331 346 
f 322 328 347 
f 330 322 347 
f 328 330 347 
f 323 322 348 
f 322 330 348 
f 330 333 348 
f 329 325 349 
f 325 337 349 
f 337 329 349 
f 332 323 350 
f 333 332 350 
f 323 348 350 
f 348 333 350 
f 322 323 351 
f 334 322 351 
f 323 344 351 
f 344 334 351 
f 327 326 352 
f 321 338 352 
f 338 327 352 
f 326 339 352 
o convex_11
v 5.665325 214.627980 -81.652044
v -6.329925 156.003190 -72.324231
v -6.329925 156.003190 -69.657968
v 5.665325 183.988194 -72.324231
v 4.331476 221.301532 -74.990494
v -6.329925 183.981540 -80.317151
v 1.666125 182.657475 -80.317151
v -6.329925 177.327949 -69.657968
v 5.665325 207.967735 -70.991686
v 4.331476 186.662937 -69.657968
v 4.331476 223.962968 -80.317151
v -6.329925 167.999614 -78.983432
v 5.665325 199.983426 -81.652044
v -6.329925 185.312258 -76.319517
v -4.994902 156.003190 -72.324231
v -2.330726 185.312258 -81.652044
v 4.331476 183.988194 -77.652062
v 5.665325 223.962968 -77.652062
v -4.994902 156.003190 -69.657968
v 4.331476 207.967735 -70.991686
v 0.333450 201.307491 -81.652044
v -4.994902 167.999614 -78.983432
v 5.665325 185.325565 -70.991686
v 5.665325 193.316528 -80.317151
v 4.331476 223.962968 -77.652062
v -2.330726 169.330333 -77.652062
v -6.329925 179.989385 -70.991686
v 5.665325 183.988194 -73.657950
v 2.999975 189.317720 -69.657968
v -0.998051 185.312258 -81.652044
v 4.331476 213.297262 -72.324231
v 5.665325 221.301532 -74.990494
f 383 361 384 
f 354 355 358 
f 358 355 360 
f 356 353 361 
f 360 355 362 
f 354 358 364 
f 353 356 365 
f 358 360 366 
f 363 358 366 
f 355 354 367 
f 354 364 367 
f 364 358 368 
f 353 365 368 
f 361 353 370 
f 353 363 370 
f 362 355 371 
f 355 367 371 
f 367 356 371 
f 363 353 373 
f 358 363 373 
f 353 368 373 
f 368 358 373 
f 367 364 374 
f 364 368 374 
f 356 361 375 
f 361 362 375 
f 362 371 375 
f 371 356 375 
f 365 356 376 
f 359 365 376 
f 369 359 376 
f 363 366 377 
f 357 370 377 
f 370 363 377 
f 359 369 378 
f 369 367 378 
f 374 359 378 
f 367 374 378 
f 360 357 379 
f 366 360 379 
f 357 377 379 
f 377 366 379 
f 356 367 380 
f 367 369 380 
f 376 356 380 
f 369 376 380 
f 360 362 381 
f 362 361 381 
f 372 360 381 
f 361 372 381 
f 365 359 382 
f 368 365 382 
f 359 374 382 
f 374 368 382 
f 357 360 383 
f 360 372 383 
f 372 361 383 
f 361 370 384 
f 370 357 384 
f 357 383 384 
o convex_12
v -8.996058 97.354856 -62.992113
v -12.993432 116.011455 -57.661543
v -14.326759 116.011455 -57.661543
v -7.662731 110.680998 -66.991182
v -7.662731 100.020084 -57.661543
v -11.660756 104.017927 -66.991182
v -11.660756 100.020084 -57.661543
v -7.662731 116.011455 -61.660612
v -14.326759 116.011455 -61.660612
v -7.662731 100.020084 -66.991182
v -14.326759 110.680998 -58.995784
v -11.658799 110.680998 -66.991182
v -7.662731 96.020284 -57.661543
v -7.662731 116.011455 -62.992113
v -11.658799 114.678841 -57.661543
v -10.328734 97.354856 -58.995784
v -11.660756 101.352698 -62.992113
v -10.328734 100.020084 -65.657855
v -12.993432 116.011455 -62.992113
v -14.326759 110.680998 -57.661543
v -8.996058 96.020284 -57.661543
v -8.996058 100.020084 -66.991182
v -7.662731 98.687470 -65.657855
v -14.326759 114.678841 -61.660612
v -12.993432 105.350541 -60.328198
v -11.660756 102.683356 -65.657855
v -7.662731 96.020284 -58.995784
v -8.996058 96.020284 -58.995784
v -11.660756 100.020084 -58.995784
v -10.328734 98.687470 -62.992113
v -8.996058 98.687470 -65.657855
v -10.328734 101.352698 -66.991182
f 402 410 416 
f 386 387 389 
f 389 387 391 
f 387 386 392 
f 389 388 392 
f 387 392 393 
f 388 389 394 
f 390 388 394 
f 387 393 395 
f 388 390 396 
f 390 393 396 
f 389 391 397 
f 394 389 397 
f 392 388 398 
f 393 392 398 
f 386 389 399 
f 392 386 399 
f 389 392 399 
f 388 396 403 
f 396 393 403 
f 398 388 403 
f 393 398 403 
f 391 387 404 
f 387 395 404 
f 395 391 404 
f 397 391 405 
f 391 400 405 
f 390 394 406 
f 394 397 407 
f 406 394 407 
f 393 390 408 
f 390 395 408 
f 395 393 408 
f 401 409 410 
f 395 390 410 
f 409 395 410 
f 397 405 411 
f 385 407 411 
f 407 397 411 
f 405 400 412 
f 385 411 412 
f 411 405 412 
f 391 395 413 
f 400 391 413 
f 401 400 413 
f 395 409 413 
f 409 401 413 
f 400 401 414 
f 402 385 414 
f 401 410 414 
f 410 402 414 
f 385 412 414 
f 412 400 414 
f 385 402 415 
f 402 406 415 
f 407 385 415 
f 406 407 415 
f 390 406 416 
f 406 402 416 
f 410 390 416 
o convex_13
v 16.326726 269.285012 -78.986433
v 5.665325 187.983871 -73.655210
v 5.665325 187.983871 -72.323448
v 5.665325 231.960976 -76.320821
v 5.665325 206.645889 -81.652044
v 16.326726 234.619020 -72.323448
v 12.328701 265.274071 -72.323448
v 13.660202 214.643896 -77.653627
v 10.997200 265.274071 -80.318194
v 5.665325 213.314874 -70.989599
v 16.326726 254.610060 -80.318194
v 13.660202 214.643896 -70.989599
v 17.660575 266.611051 -73.655210
v 6.999174 195.981878 -80.318194
v 10.997200 266.611051 -73.655210
v 8.331849 191.986854 -70.989599
v 5.665325 231.960976 -80.318194
v 13.660202 239.951025 -70.989599
v 17.660575 257.276063 -77.653627
v 9.665699 221.304924 -81.652044
v 9.665699 195.981878 -74.989059
v 12.328701 219.975902 -80.318194
v 16.326726 266.611051 -72.323448
v 9.665699 261.287004 -78.986433
v 8.331849 231.960976 -81.652044
v 16.326726 266.611051 -80.318194
v 16.326726 237.292981 -77.653627
v 13.660202 211.977894 -72.323448
v 12.328701 269.285012 -74.989059
v 17.660575 269.285012 -77.653627
v 6.999174 189.328809 -76.320821
v 9.665699 261.287004 -74.989059
f 440 420 448 
f 418 419 420 
f 418 420 421 
f 420 419 426 
f 418 421 430 
f 426 423 431 
f 426 419 432 
f 428 426 432 
f 421 420 433 
f 423 426 434 
f 428 422 434 
f 426 428 434 
f 429 422 435 
f 430 421 436 
f 430 424 437 
f 424 430 438 
f 436 427 438 
f 430 436 438 
f 422 429 439 
f 423 434 439 
f 434 422 439 
f 431 425 440 
f 433 420 440 
f 425 433 440 
f 421 433 441 
f 433 425 441 
f 436 421 441 
f 436 441 442 
f 425 417 442 
f 435 427 442 
f 427 436 442 
f 441 425 442 
f 422 424 443 
f 435 422 443 
f 427 435 443 
f 424 438 443 
f 438 427 443 
f 424 422 444 
f 422 428 444 
f 428 432 444 
f 437 424 444 
f 432 437 444 
f 417 425 445 
f 425 431 445 
f 431 423 445 
f 423 439 445 
f 445 439 446 
f 429 435 446 
f 439 429 446 
f 442 417 446 
f 435 442 446 
f 417 445 446 
f 419 418 447 
f 418 430 447 
f 432 419 447 
f 430 437 447 
f 437 432 447 
f 420 426 448 
f 426 431 448 
f 431 440 448 
o convex_14
v 26.990214 36.040380 -15.011242
v 12.329353 26.716481 -12.346675
v 14.995747 20.053757 -12.346675
v 26.990214 37.374881 -11.013347
v 17.660706 37.374881 -16.344570
v 13.663985 37.374881 -11.013347
v 18.995338 17.386711 -11.013347
v 22.989188 21.386302 -12.346675
v 26.990214 26.716481 -11.013347
v 21.658862 34.707835 -16.344570
v 16.330379 17.386711 -12.346675
v 12.329353 26.716481 -11.013347
v 13.663985 37.374881 -13.678958
v 26.990214 37.374881 -15.011242
v 18.995338 17.386711 -12.346675
v 26.990214 26.716481 -12.346675
v 17.660706 36.040380 -16.344570
v 16.330379 17.386711 -11.013347
v 14.995747 34.707835 -15.011242
v 20.324230 22.718847 -13.678958
v 22.989188 37.374881 -16.344570
v 18.995338 34.707835 -16.344570
v 22.989188 30.710201 -15.011242
v 12.329353 28.045112 -12.346675
v 22.989188 21.386302 -11.013347
v 25.655582 29.377656 -13.678958
v 14.995747 37.374881 -15.011242
v 22.989188 36.040380 -16.344570
v 14.995747 20.053757 -11.013347
v 12.329353 28.045112 -11.013347
v 18.995338 22.718847 -13.678958
f 470 468 479 
f 452 453 454 
f 452 454 455 
f 449 452 457 
f 452 455 457 
f 450 451 460 
f 455 454 460 
f 454 453 461 
f 452 449 462 
f 453 452 462 
f 456 455 463 
f 455 459 463 
f 457 456 464 
f 449 457 464 
f 453 458 465 
f 459 451 465 
f 451 459 466 
f 459 455 466 
f 455 460 466 
f 451 450 467 
f 465 451 467 
f 453 465 467 
f 456 463 468 
f 463 459 468 
f 458 453 469 
f 462 449 469 
f 453 462 469 
f 465 458 470 
f 459 465 470 
f 458 468 470 
f 468 458 471 
f 450 460 472 
f 454 461 472 
f 467 450 472 
f 455 456 473 
f 457 455 473 
f 456 457 473 
f 449 464 474 
f 464 456 474 
f 456 468 474 
f 471 449 474 
f 468 471 474 
f 461 453 475 
f 453 467 475 
f 472 461 475 
f 467 472 475 
f 469 449 476 
f 458 469 476 
f 449 471 476 
f 471 458 476 
f 460 451 477 
f 451 466 477 
f 466 460 477 
f 460 454 478 
f 472 460 478 
f 454 472 478 
f 468 459 479 
f 459 470 479 
o convex_15
v 12.330397 73.361546 -11.014391
v 1.666908 73.358806 -28.339820
v 1.666908 73.358806 -24.338272
v 12.330397 48.040849 -13.684177
v 20.323577 65.365104 -25.672121
v 22.989449 56.037291 -8.350867
v 17.655487 76.027026 -27.001796
v 10.997461 52.043179 -8.350867
v 3.002062 76.027026 -15.015939
v 17.657705 56.037291 -24.334097
v 17.655487 76.027026 -15.013851
v 24.324603 56.037291 -17.675288
v 12.330397 64.030993 -28.339820
v 10.997461 53.374549 -21.670573
v 13.663333 58.700032 -7.014930
v 10.997461 48.040849 -11.018566
v 1.666908 76.027026 -28.339820
v 24.324603 58.702771 -13.682089
v 17.655487 66.701953 -28.339820
v 21.656513 56.037291 -23.006510
v 22.989449 58.702771 -8.350867
v 6.998652 76.027026 -12.348240
v 17.655487 74.692916 -28.339820
v 20.323577 70.693326 -21.674748
v 10.997461 49.377698 -16.345613
v 20.323577 56.037291 -7.014930
v 6.998652 66.699214 -28.339820
v 17.657705 60.034142 -7.014930
v 13.658897 76.024287 -12.348240
v 3.002062 74.692916 -15.015939
v 24.324603 56.037291 -11.016478
v 10.997461 60.034142 -8.350867
f 494 501 511 
f 486 488 490 
f 492 489 493 
f 482 481 495 
f 481 482 496 
f 482 488 496 
f 488 486 496 
f 492 481 496 
f 489 492 498 
f 492 496 498 
f 491 483 499 
f 484 491 499 
f 498 484 499 
f 489 498 499 
f 497 490 500 
f 490 488 501 
f 494 480 501 
f 496 486 502 
f 484 498 502 
f 498 496 502 
f 486 490 503 
f 491 484 503 
f 490 497 503 
f 497 491 503 
f 484 502 503 
f 502 486 503 
f 493 489 504 
f 481 493 504 
f 495 481 504 
f 483 495 504 
f 499 483 504 
f 489 499 504 
f 494 487 505 
f 495 485 505 
f 487 495 505 
f 485 500 505 
f 481 492 506 
f 492 493 506 
f 493 481 506 
f 480 494 507 
f 494 505 507 
f 505 500 507 
f 500 490 508 
f 501 480 508 
f 490 501 508 
f 480 507 508 
f 507 500 508 
f 488 482 509 
f 487 488 509 
f 482 495 509 
f 495 487 509 
f 483 491 510 
f 495 483 510 
f 485 495 510 
f 491 497 510 
f 500 485 510 
f 497 500 510 
f 488 487 511 
f 487 494 511 
f 501 488 511 
o convex_16
v -11.661148 190.640741 2.315361
v -19.657981 169.332549 3.646862
v -19.657981 169.332549 4.980190
v -8.995537 145.339440 7.645931
v -16.992370 183.976583 7.645931
v -18.325176 190.640741 -1.683708
v -11.661148 158.667757 2.315361
v -18.325176 154.672471 7.645931
v -18.325176 198.636662 3.646862
v -12.993953 189.308979 6.311690
v -16.992370 159.999519 2.315361
v -14.326759 197.304900 -1.683708
v -8.995537 164.000153 7.645931
v -8.995537 161.336629 4.980190
v -12.993953 145.339440 6.311690
v -19.657981 189.308979 4.980190
v -12.993953 197.304900 3.646862
v -19.657981 194.641376 -0.350381
v -12.993953 177.317773 -0.350381
v -16.992370 199.973772 -0.350381
v -12.993953 197.304900 -0.350381
v -8.995537 145.339440 6.311690
v -14.326759 197.304900 4.980190
v -14.326759 165.331915 0.982034
v -18.325176 181.313059 7.645931
v -18.325176 154.672471 6.311690
v -19.657981 179.981297 0.982034
v -12.993953 181.313059 7.645931
v -14.326759 199.973772 2.315361
v -18.325176 195.973138 4.980190
v -14.326759 187.977217 -1.683708
v -15.659565 148.008312 7.645931
f 537 526 543 
f 514 513 519 
f 515 516 519 
f 516 515 524 
f 512 524 525 
f 524 515 525 
f 522 518 526 
f 513 514 527 
f 514 519 527 
f 524 512 528 
f 521 524 528 
f 513 527 529 
f 527 520 529 
f 525 518 530 
f 523 517 531 
f 517 529 531 
f 529 520 531 
f 512 525 532 
f 528 512 532 
f 530 523 532 
f 525 530 532 
f 525 515 533 
f 518 525 533 
f 515 526 533 
f 526 518 533 
f 516 521 534 
f 521 528 534 
f 522 517 535 
f 518 522 535 
f 530 518 535 
f 519 516 536 
f 527 519 536 
f 519 513 537 
f 513 522 537 
f 522 526 537 
f 522 513 538 
f 517 522 538 
f 513 529 538 
f 529 517 538 
f 521 516 539 
f 516 524 539 
f 524 521 539 
f 523 531 540 
f 531 520 540 
f 528 532 540 
f 532 523 540 
f 520 534 540 
f 534 528 540 
f 520 527 541 
f 516 534 541 
f 534 520 541 
f 536 516 541 
f 527 536 541 
f 517 523 542 
f 523 530 542 
f 535 517 542 
f 530 535 542 
f 515 519 543 
f 526 515 543 
f 519 537 543 
o convex_17
v 9.663742 190.644525 27.637493
v -4.997120 161.330890 23.641164
v -4.997120 161.330890 27.637493
v 5.662716 161.330890 23.641164
v 2.997757 190.644525 22.306923
v 5.662716 163.998327 19.641182
v 4.330954 162.664609 28.970821
v 2.997757 190.644525 28.970821
v -2.330726 161.330890 19.641182
v 8.329110 191.978243 22.306923
v 8.329110 171.994378 22.306923
v 8.329110 179.984167 28.970821
v -3.663923 161.330890 28.970821
v 5.662716 185.315911 20.974509
v -4.997120 163.998327 27.637493
v 6.995913 193.311962 28.970821
v 6.995913 165.332046 26.305079
v 2.997757 191.978243 23.641164
v -2.330726 163.998327 19.641182
v 9.663742 190.644525 23.641164
v -4.997120 162.664609 23.641164
v 5.662716 170.660659 19.641182
v 9.663742 185.315911 26.305079
v 5.662716 161.330890 20.974509
v 5.662716 193.311962 22.306923
v 2.997757 191.978243 27.637493
v -3.663923 163.998327 20.974509
v 6.995913 163.998327 20.974509
v 8.329110 193.311962 23.641164
v 2.997757 161.330890 28.970821
v 8.329110 171.994378 24.970838
v 1.667430 187.980218 24.970838
f 558 569 575 
f 546 545 547 
f 547 545 552 
f 551 550 555 
f 546 547 556 
f 550 551 556 
f 545 546 558 
f 546 556 558 
f 556 551 558 
f 555 544 559 
f 551 555 559 
f 550 547 560 
f 555 550 560 
f 549 552 562 
f 548 557 562 
f 554 549 563 
f 545 558 564 
f 561 548 564 
f 557 553 565 
f 549 562 565 
f 562 557 565 
f 563 549 565 
f 553 563 565 
f 544 555 566 
f 554 563 566 
f 563 544 566 
f 547 552 567 
f 552 549 567 
f 557 548 568 
f 553 557 568 
f 548 561 568 
f 568 561 569 
f 558 551 569 
f 551 559 569 
f 559 568 569 
f 552 545 570 
f 548 562 570 
f 562 552 570 
f 545 564 570 
f 564 548 570 
f 549 554 571 
f 560 547 571 
f 547 567 571 
f 567 549 571 
f 559 544 572 
f 563 553 572 
f 544 563 572 
f 553 568 572 
f 568 559 572 
f 547 550 573 
f 556 547 573 
f 550 556 573 
f 555 560 574 
f 566 555 574 
f 554 566 574 
f 571 554 574 
f 560 571 574 
f 564 558 575 
f 561 564 575 
f 569 561 575 
o convex_18
v 6.997609 174.657380 50.295971
v 5.665325 177.320904 59.625349
v 8.330675 191.981635 54.293344
v 9.663742 161.328411 59.625349
v 1.666908 162.667740 58.292022
v 5.665325 194.645159 48.963948
v 9.663742 190.642306 46.297293
v 8.330675 157.329342 58.292022
v 1.666908 169.326549 59.625349
v 5.665325 185.311475 47.630621
v 9.663742 194.645159 52.961321
v 5.665325 194.645159 52.961321
v 9.663742 171.997640 59.625349
v 9.663742 182.651735 47.630621
v 2.999975 158.664887 58.292022
v 2.999975 158.664887 59.625349
v 4.333041 185.311475 50.295971
v 4.333041 169.326549 52.961321
v 9.663742 195.980704 50.295971
v 8.330675 170.658311 51.629299
v 4.333041 177.320904 59.625349
v 8.330675 175.989142 59.625349
v 6.997609 194.645159 47.630621
v 5.665325 167.998571 52.961321
v 9.663742 161.328411 58.292022
v 6.997609 182.651735 47.630621
v 5.665325 191.981635 47.630621
v 4.333041 179.980644 50.295971
v 8.330675 157.329342 59.625349
v 8.330675 187.982566 46.297293
v 5.665325 157.329342 58.292022
v 1.666908 169.326549 58.292022
f 581 592 607 
f 579 577 584 
f 579 582 586 
f 581 584 587 
f 578 586 587 
f 577 579 588 
f 579 586 588 
f 582 579 589 
f 579 584 591 
f 584 580 591 
f 580 590 591 
f 590 580 593 
f 586 582 594 
f 581 587 594 
f 587 586 594 
f 576 589 595 
f 589 583 595 
f 577 578 596 
f 584 577 596 
f 578 587 596 
f 587 584 596 
f 578 577 597 
f 586 578 597 
f 577 588 597 
f 588 586 597 
f 581 594 598 
f 594 582 598 
f 593 576 599 
f 590 593 599 
f 576 595 599 
f 579 583 600 
f 589 579 600 
f 583 589 600 
f 589 576 601 
f 576 593 601 
f 593 585 601 
f 592 581 602 
f 585 592 602 
f 581 598 602 
f 580 592 603 
f 592 585 603 
f 585 593 603 
f 593 580 603 
f 583 579 604 
f 579 591 604 
f 582 589 605 
f 598 582 605 
f 601 585 605 
f 589 601 605 
f 585 602 605 
f 602 598 605 
f 591 590 606 
f 595 583 606 
f 590 599 606 
f 599 595 606 
f 583 604 606 
f 604 591 606 
f 580 584 607 
f 584 581 607 
f 592 580 607 
o convex_19
v 10.995634 166.661590 94.278295
v 1.666908 150.665314 86.281461
v 6.999957 150.665314 86.281461
v 9.661785 187.983871 88.948377
v 5.667282 178.654231 94.278295
v 12.328309 170.654267 86.281461
v 13.662159 186.646890 92.945228
v 13.662159 162.661608 88.948377
v 1.666908 161.331933 86.281461
v 4.333433 161.331933 92.945228
v 6.999957 186.646890 92.945228
v 13.662159 186.646890 88.948377
v 8.330284 183.983888 87.614528
v 8.330284 153.331969 88.948377
v 12.328309 186.646890 94.278295
v 13.662159 167.994918 92.945228
v 1.666908 153.331969 88.948377
v 12.328309 157.331951 86.281461
v 6.999957 185.317216 88.948377
v 5.667282 163.994935 94.278295
v 12.328309 161.331933 91.611379
v 1.666908 161.331933 88.948377
v 9.661785 161.331933 92.945228
v 13.662159 162.661608 87.614528
v 12.328309 183.983888 87.614528
v 10.995634 154.665296 87.614528
v 3.000757 165.331916 91.611379
v 12.328309 187.983871 92.945228
v 6.999957 150.665314 87.614528
v 8.330284 186.646890 94.278295
v 8.330284 170.654267 86.281461
v 5.667282 181.317233 92.945228
f 616 629 639 
f 610 609 613 
f 613 609 616 
f 614 615 619 
f 612 608 622 
f 615 614 623 
f 622 608 623 
f 614 622 623 
f 616 609 624 
f 610 613 625 
f 618 611 626 
f 620 616 626 
f 611 620 626 
f 608 612 627 
f 612 617 627 
f 617 624 627 
f 624 621 627 
f 615 623 628 
f 623 608 628 
f 616 624 629 
f 608 627 630 
f 627 621 630 
f 628 608 630 
f 621 628 630 
f 613 619 631 
f 619 615 631 
f 625 613 631 
f 615 625 631 
f 611 619 632 
f 619 613 632 
f 613 620 632 
f 620 611 632 
f 610 625 633 
f 625 615 633 
f 628 621 633 
f 615 628 633 
f 617 612 634 
f 624 617 634 
f 612 629 634 
f 629 624 634 
f 611 618 635 
f 619 611 635 
f 614 619 635 
f 622 614 635 
f 609 610 636 
f 624 609 636 
f 621 624 636 
f 610 633 636 
f 633 621 636 
f 618 612 637 
f 612 622 637 
f 635 618 637 
f 622 635 637 
f 613 616 638 
f 620 613 638 
f 616 620 638 
f 612 618 639 
f 618 626 639 
f 626 616 639 
f 629 612 639 
o convex_20
v 1.667039 93.353891 -15.012025
v 3.000366 76.029114 -16.345352
v 0.334624 76.030810 -28.339820
v 8.330936 78.694986 -13.678697
v -0.998703 84.025034 -9.680542
v 2.999453 88.023842 -28.339820
v -0.998703 86.690906 -28.339820
v 8.330936 81.359162 -9.680542
v 2.999453 76.030810 -28.339820
v 8.330936 76.029114 -12.347196
v -0.998703 92.020955 -17.678680
v 3.000366 76.029114 -12.347196
v 2.999453 93.353891 -16.345352
v -0.998703 80.027922 -28.339820
v 3.000366 78.694986 -9.680542
v 2.999453 89.355082 -27.006492
v 1.667039 85.356274 -9.680542
v -0.998703 92.020955 -15.012025
v 1.667039 76.030810 -17.680506
v 2.999453 93.353891 -15.012025
v 8.330936 81.359162 -11.013869
v -0.998703 81.359162 -17.680506
v 1.667039 89.355082 -27.006492
v 8.330936 78.694986 -9.680542
v -0.998703 85.356274 -9.680542
v 0.334624 81.359162 -9.680542
v 8.330936 76.029114 -13.678697
v 0.335538 88.023842 -28.339820
v 1.667039 93.353891 -16.345352
v 0.334624 76.030810 -27.002840
v 0.334624 77.363746 -21.675009
v -0.998703 80.027922 -27.002840
f 669 661 671 
f 645 642 646 
f 641 642 648 
f 642 645 648 
f 645 643 648 
f 643 647 649 
f 646 644 650 
f 642 641 651 
f 641 649 651 
f 644 646 653 
f 646 642 653 
f 647 644 654 
f 644 647 656 
f 640 650 657 
f 650 644 657 
f 652 640 659 
f 647 652 659 
f 656 647 659 
f 643 645 660 
f 647 643 660 
f 652 647 660 
f 645 655 660 
f 655 652 660 
f 644 653 661 
f 655 645 662 
f 652 655 662 
f 649 647 663 
f 651 649 663 
f 647 654 663 
f 654 651 663 
f 644 656 664 
f 640 657 664 
f 657 644 664 
f 659 640 664 
f 656 659 664 
f 654 644 665 
f 651 654 665 
f 658 651 665 
f 644 661 665 
f 661 658 665 
f 641 648 666 
f 648 643 666 
f 649 641 666 
f 643 649 666 
f 645 646 667 
f 646 650 667 
f 662 645 667 
f 650 662 667 
f 650 640 668 
f 640 652 668 
f 662 650 668 
f 652 662 668 
f 642 651 669 
f 653 642 669 
f 651 658 669 
f 661 669 670 
f 658 661 670 
f 669 658 670 
f 661 653 671 
f 653 669 671 
o convex_21
v -3.659879 128.011491 -102.986588
v -2.329552 125.344877 -121.634907
v -6.326272 126.680662 -122.968234
v -2.329552 150.662835 -148.292324
v 5.665325 146.662915 -133.630288
v -6.329143 146.665394 -129.630305
v 2.998931 125.344877 -117.644057
v 2.996061 145.329609 -146.954430
v 1.664299 126.680662 -101.644128
v -8.995537 125.344877 -109.653225
v -6.327708 143.998780 -142.954448
v 1.665734 146.665394 -125.634889
v 5.665325 145.329609 -144.283209
v -4.991640 138.668032 -140.278660
v 2.998931 125.344877 -105.653242
v -7.659469 126.680662 -104.324481
v -4.994511 150.662835 -140.292359
v 4.332128 146.665394 -126.963651
v -2.330987 146.665394 -125.634889
v -7.659469 138.665553 -134.949917
v 1.664299 140.001338 -141.621120
v 4.332128 130.678104 -117.648623
v -3.661314 146.662915 -148.292324
v -6.327708 147.996222 -142.954448
v -8.995537 125.344877 -114.981968
v -4.993075 125.344877 -101.644128
v -7.659469 141.329688 -132.278696
v -6.326272 136.003896 -136.292377
v 5.665325 146.662915 -144.283209
v -8.995537 128.011491 -112.310747
v -4.994511 150.662835 -146.954430
v -1.002095 125.344877 -121.634907
f 685 692 703 
f 673 678 681 
f 672 680 683 
f 681 678 686 
f 688 683 689 
f 676 675 689 
f 683 680 689 
f 686 676 689 
f 680 686 689 
f 675 688 689 
f 672 683 690 
f 687 672 690 
f 677 687 690 
f 688 677 690 
f 683 688 690 
f 684 678 692 
f 679 684 692 
f 684 676 693 
f 678 684 693 
f 676 686 693 
f 686 678 693 
f 675 679 694 
f 685 682 694 
f 679 692 694 
f 692 685 694 
f 677 688 695 
f 682 691 695 
f 674 673 696 
f 673 681 696 
f 680 672 697 
f 686 680 697 
f 681 686 697 
f 672 687 697 
f 687 681 697 
f 677 695 698 
f 695 691 698 
f 673 674 699 
f 685 673 699 
f 682 685 699 
f 691 682 699 
f 674 696 699 
f 696 691 699 
f 675 676 700 
f 679 675 700 
f 676 684 700 
f 684 679 700 
f 687 677 701 
f 681 687 701 
f 696 681 701 
f 691 696 701 
f 677 698 701 
f 698 691 701 
f 688 675 702 
f 675 694 702 
f 694 682 702 
f 695 688 702 
f 682 695 702 
f 678 673 703 
f 673 685 703 
f 692 678 703 
o convex_22
v 2.999492 129.337554 67.622183
v -4.995176 108.016970 34.302043
v 2.998187 108.016970 34.302043
v -2.328547 118.676219 34.302043
v 6.998131 129.337554 55.626150
v -4.996481 129.337554 56.960130
v -4.995176 116.015059 52.954929
v 5.664816 116.012972 50.293492
v 5.664816 116.012972 34.302043
v -6.329795 117.344595 34.302043
v -3.663166 128.003844 67.622183
v 1.664873 114.683436 51.617687
v 2.999492 129.337554 51.630734
v -6.329795 118.676219 52.958190
v 5.663512 128.003844 66.284942
v -0.997842 129.337554 51.630734
v 5.664816 110.684391 36.970003
v 4.330197 120.007842 36.973264
v 6.998131 122.675263 55.626150
v -6.329795 109.350680 35.642546
v -2.329852 108.016970 36.970003
v -4.996481 129.337554 63.620244
v 1.666178 125.340597 64.954223
v 4.330197 109.350680 38.307244
v -6.329795 122.673176 50.296754
v 6.998131 129.337554 63.620244
v -4.995176 109.350680 39.637962
v 0.334168 110.684391 43.633378
v 6.998131 122.675263 51.630734
v -4.996481 128.003844 52.964713
v 5.664816 110.684391 34.302043
v -3.663166 125.340597 64.954223
f 715 726 735 
f 706 705 707 
f 704 708 709 
f 706 707 712 
f 707 705 713 
f 709 708 716 
f 710 714 717 
f 715 711 718 
f 707 713 719 
f 709 716 719 
f 716 707 719 
f 712 707 721 
f 708 712 721 
f 716 708 721 
f 707 716 721 
f 718 711 722 
f 711 720 722 
f 713 705 723 
f 710 717 723 
f 717 713 723 
f 705 706 724 
f 704 709 725 
f 714 704 725 
f 717 714 725 
f 704 714 726 
f 718 704 726 
f 715 718 726 
f 711 715 727 
f 720 711 727 
f 706 720 727 
f 724 706 727 
f 709 713 728 
f 713 717 728 
f 725 709 728 
f 717 725 728 
f 708 704 729 
f 704 718 729 
f 722 708 729 
f 718 722 729 
f 723 705 730 
f 710 723 730 
f 705 724 730 
f 730 724 731 
f 715 710 731 
f 727 715 731 
f 724 727 731 
f 710 730 731 
f 712 708 732 
f 708 722 732 
f 722 720 732 
f 713 709 733 
f 719 713 733 
f 709 719 733 
f 706 712 734 
f 720 706 734 
f 712 732 734 
f 732 720 734 
f 714 710 735 
f 710 715 735 
f 726 714 735 
o convex_23
v -4.997120 129.341859 58.298806
v 12.329353 166.658981 86.281461
v 12.329353 166.658981 84.947612
v 6.995391 129.341859 66.286246
v -0.997920 144.004245 83.613763
v 5.662324 130.678788 54.294127
v -0.996224 154.663148 75.616929
v 10.994590 152.000249 86.281461
v 0.336842 141.337692 60.963374
v 3.002975 163.992429 86.281461
v 9.661524 153.329872 68.957076
v -3.660661 129.341859 68.944552
v 4.332650 140.008069 80.942933
v -3.660661 143.996939 76.947647
v 12.329353 155.992772 82.279913
v 6.995391 129.341859 56.968088
v 6.995391 166.658981 84.947612
v 0.335146 157.326048 86.281461
v -2.329291 130.678788 54.294127
v -3.660661 140.008069 63.631072
v 4.329258 133.341688 74.279949
v -2.329291 138.674793 79.609084
v 3.002975 157.326048 75.616929
v 0.335146 149.330044 86.281461
v 1.668213 132.012065 54.294127
v -4.997120 130.678788 66.292508
v 6.995391 149.330044 86.281461
v 12.329353 155.992772 86.281461
v 2.999583 130.678788 71.612250
v 8.328457 153.329872 68.957076
v 6.995391 130.678788 68.944552
v -2.330987 150.666973 75.616929
f 755 749 767 
f 743 737 745 
f 736 739 747 
f 738 737 750 
f 746 738 750 
f 746 750 751 
f 739 736 751 
f 741 746 751 
f 750 739 751 
f 737 738 752 
f 745 737 752 
f 742 745 752 
f 738 746 752 
f 745 742 753 
f 743 745 753 
f 749 740 753 
f 751 736 754 
f 741 751 754 
f 742 744 755 
f 736 749 755 
f 754 736 755 
f 744 754 755 
f 743 748 756 
f 756 748 757 
f 748 740 757 
f 740 749 757 
f 744 742 758 
f 742 752 758 
f 753 740 759 
f 743 753 759 
f 746 741 760 
f 741 754 760 
f 754 744 760 
f 736 747 761 
f 749 736 761 
f 757 749 761 
f 747 757 761 
f 740 748 762 
f 748 743 762 
f 759 740 762 
f 743 759 762 
f 737 743 763 
f 750 737 763 
f 739 750 763 
f 747 739 764 
f 756 757 764 
f 757 747 764 
f 752 746 765 
f 744 758 765 
f 758 752 765 
f 746 760 765 
f 760 744 765 
f 743 756 766 
f 763 743 766 
f 739 763 766 
f 764 739 766 
f 756 764 766 
f 753 742 767 
f 749 753 767 
f 742 755 767 
o convex_24
v -4.995815 105.350554 -4.348275
v 5.665325 108.018231 15.642765
v 4.330562 110.681211 15.642765
v -7.661948 104.019847 15.642765
v -11.661148 118.677980 4.979963
v 5.665325 102.684443 -3.015670
v 0.333059 118.677980 3.647358
v -10.324689 118.676414 15.642765
v -8.995015 104.018281 -0.348502
v 5.665325 104.018281 15.642765
v 0.333059 118.677980 11.641034
v -11.661148 113.344191 10.308429
v -1.000008 117.344141 0.982147
v 2.999192 114.678030 3.647358
v 2.999192 105.353685 -4.348275
v -7.661948 118.677980 2.314752
v -3.662749 118.677980 15.642765
v 4.330562 102.684443 6.308655
v -8.993319 104.019847 12.975597
v 1.666125 102.684443 -4.348275
v -10.328081 113.342626 0.984104
v 5.665325 104.018281 -3.015670
v -10.328081 106.687524 3.647358
v -6.328882 112.011919 -1.681108
v -11.661148 116.008737 12.975597
v 1.666125 112.011919 -1.681108
v -7.661948 104.018281 -3.015670
v 5.665325 108.018231 8.975823
v 1.666125 117.344141 8.975823
v -3.662749 106.687524 -4.348275
v -8.993319 106.685958 15.642765
v 2.999192 113.344191 0.982147
f 789 793 799 
f 769 770 771 
f 771 770 775 
f 769 771 777 
f 773 769 777 
f 774 772 778 
f 772 774 783 
f 774 780 783 
f 772 775 784 
f 775 770 784 
f 770 778 784 
f 778 772 784 
f 777 771 785 
f 773 777 785 
f 785 771 786 
f 785 786 787 
f 768 782 787 
f 782 773 787 
f 773 785 787 
f 786 776 787 
f 772 783 788 
f 769 773 789 
f 773 782 789 
f 779 772 790 
f 786 779 790 
f 776 786 790 
f 788 776 790 
f 772 788 790 
f 783 780 791 
f 768 788 791 
f 788 783 791 
f 775 772 792 
f 772 779 792 
f 779 786 792 
f 789 782 793 
f 768 787 794 
f 787 776 794 
f 788 768 794 
f 776 788 794 
f 781 769 795 
f 769 789 795 
f 789 781 795 
f 770 769 796 
f 778 770 796 
f 774 778 796 
f 769 781 796 
f 781 774 796 
f 782 768 797 
f 768 791 797 
f 791 780 797 
f 780 793 797 
f 793 782 797 
f 771 775 798 
f 786 771 798 
f 775 792 798 
f 792 786 798 
f 780 774 799 
f 774 781 799 
f 781 789 799 
f 793 780 799 
o convex_25
v -14.326759 128.006006 14.308655
v 0.333972 120.011841 11.643826
v 0.333972 118.678762 11.643826
v -8.995454 118.683067 3.647514
v -8.994019 133.335449 10.314152
v -6.331954 133.336884 22.306793
v -10.324333 118.680197 15.643808
v 0.333972 120.011841 4.982668
v -12.992139 133.336884 22.306793
v -3.665583 133.336884 15.641982
v -5.000203 121.346354 18.306810
v -14.326759 133.338319 12.977154
v -11.658954 125.342719 20.973465
v -12.992139 120.014711 10.314152
v -2.332398 130.670728 18.306810
v -2.333833 121.346354 3.647514
v -12.992139 120.014711 14.303175
v -14.326759 130.670728 19.638311
v -11.658954 133.335449 10.314152
v -11.658954 118.683067 6.315996
v -0.999213 118.680197 14.308655
v -6.331954 130.670728 22.306793
v -0.999213 118.680197 3.647514
v -7.662268 121.346354 3.647514
v -0.999213 125.341284 8.978998
v -11.658954 121.349224 6.315996
v -5.000203 124.009641 19.638311
v 0.333972 121.344919 6.315996
v -11.658954 129.339084 22.306793
v -3.665583 133.336884 19.638311
v -8.995454 120.016146 3.647514
v -12.992139 122.677997 8.980824
f 825 819 831 
f 801 802 807 
f 808 805 811 
f 809 804 811 
f 806 810 812 
f 802 801 814 
f 806 812 816 
f 800 813 816 
f 811 800 817 
f 808 811 817 
f 812 808 817 
f 800 816 817 
f 816 812 817 
f 811 804 818 
f 804 815 818 
f 806 816 819 
f 816 813 819 
f 806 802 820 
f 810 806 820 
f 802 814 820 
f 805 808 821 
f 814 805 821 
f 802 806 822 
f 807 802 822 
f 803 815 822 
f 815 807 822 
f 819 803 822 
f 806 819 822 
f 815 803 823 
f 818 815 823 
f 804 809 824 
f 809 814 824 
f 815 804 824 
f 811 818 825 
f 803 819 825 
f 812 810 826 
f 810 820 826 
f 820 814 826 
f 814 821 826 
f 821 812 826 
f 801 807 827 
f 814 801 827 
f 807 815 827 
f 824 814 827 
f 815 824 827 
f 808 812 828 
f 821 808 828 
f 812 821 828 
f 811 805 829 
f 809 811 829 
f 805 814 829 
f 814 809 829 
f 823 803 830 
f 818 823 830 
f 803 825 830 
f 825 818 830 
f 800 811 831 
f 813 800 831 
f 819 813 831 
f 811 825 831 
o convex_26
v 13.662811 37.375142 -1.683447
v 8.330936 14.719143 0.981903
v 8.330936 14.719143 4.980320
v 20.326186 20.050488 4.980320
v 9.664785 16.056415 -3.016514
v 20.326186 34.707252 -1.683447
v 17.659662 28.047506 4.980320
v 8.330936 24.048997 -3.016514
v 9.664785 21.387760 4.980320
v 20.326186 37.375142 0.981903
v 17.659662 37.375142 -3.016514
v 20.326186 20.050488 3.647253
v 17.659662 37.375142 0.981903
v 8.330936 20.052706 3.647253
v 9.664785 14.719143 0.981903
v 20.326186 26.714670 4.980320
v 13.662811 37.375142 -3.016514
v 9.664785 28.045288 -1.683447
v 10.997461 28.045288 2.314187
v 8.330936 16.056415 -3.016514
v 9.664785 14.719143 4.980320
v 13.662811 25.384051 4.980320
v 13.662811 36.040088 -0.350381
v 20.326186 37.375142 -1.683447
v 17.659662 36.040088 -3.016514
v 20.326186 34.707252 2.314187
v 8.330936 18.719870 4.980320
v 8.330936 24.048997 -1.683447
v 18.992337 28.047506 4.980320
v 9.664785 28.045288 -3.016514
v 14.995486 37.375142 -0.350381
v 12.328962 33.376633 -0.350381
f 850 854 863 
f 834 835 838 
f 833 834 839 
f 834 838 840 
f 835 837 841 
f 836 839 842 
f 832 841 842 
f 837 835 843 
f 836 837 843 
f 841 832 844 
f 839 834 845 
f 834 833 846 
f 833 836 846 
f 836 843 846 
f 838 835 847 
f 835 841 847 
f 832 842 848 
f 842 839 848 
f 832 848 849 
f 849 845 850 
f 836 833 851 
f 833 839 851 
f 839 836 851 
f 835 834 852 
f 843 835 852 
f 834 846 852 
f 846 843 852 
f 840 838 853 
f 844 840 853 
f 838 844 853 
f 850 840 854 
f 841 837 855 
f 837 842 855 
f 842 841 855 
f 837 836 856 
f 836 842 856 
f 842 837 856 
f 844 838 857 
f 841 844 857 
f 847 841 857 
f 834 840 858 
f 845 834 858 
f 840 850 858 
f 850 845 858 
f 839 845 859 
f 845 849 859 
f 849 839 859 
f 838 847 860 
f 857 838 860 
f 847 857 860 
f 848 839 861 
f 839 849 861 
f 849 848 861 
f 844 832 862 
f 840 844 862 
f 832 854 862 
f 854 840 862 
f 832 849 863 
f 849 850 863 
f 854 832 863 
o convex_27
v 18.992337 -1.273741 -7.013104
v 20.326186 0.058347 6.313126
v 12.331310 1.390957 6.313126
v 20.326186 4.056177 -7.013104
v 8.330936 -1.274263 -7.013104
v 8.330936 -1.274263 6.313126
v 8.330936 1.390957 -7.013104
v 14.994312 4.056177 -8.347736
v 8.330936 1.390957 6.313126
v 20.326186 -1.274263 6.313126
v 9.667134 -1.274263 -8.347736
v 20.326186 -1.273741 -5.681342
v 20.326186 4.056177 -5.681342
v 18.992337 2.723567 -8.347736
v 14.994312 -1.274263 -8.347736
v 16.326987 4.056177 -5.681342
v 9.667134 1.390957 -8.347736
v 20.326186 0.059390 -7.013104
v 18.992337 4.056177 -8.347736
v 14.994312 4.056177 -7.013104
v 20.326186 -1.274263 -3.016383
f 878 875 884 
f 865 866 869 
f 868 869 870 
f 871 870 872 
f 869 866 872 
f 870 869 872 
f 867 865 873 
f 869 868 873 
f 865 869 873 
f 868 870 874 
f 873 868 874 
f 867 873 875 
f 866 865 876 
f 865 867 876 
f 867 871 876 
f 872 866 876 
f 874 871 877 
f 873 874 878 
f 864 875 878 
f 874 877 878 
f 876 871 879 
f 872 876 879 
f 870 871 880 
f 874 870 880 
f 871 874 880 
f 875 864 881 
f 867 875 881 
f 877 867 881 
f 864 878 881 
f 878 877 881 
f 871 867 882 
f 867 877 882 
f 877 871 882 
f 871 872 883 
f 879 871 883 
f 872 879 883 
f 875 873 884 
f 873 878 884 
o convex_28
v -7.661687 101.351159 -72.320763
v 2.999714 102.683269 -57.661543
v 1.666386 102.683269 -57.661543
v -6.328360 94.688262 -57.661543
v 2.999714 96.021937 -58.996903
v -10.328342 102.684052 -66.990280
v 1.666386 102.684052 -69.656304
v -2.332291 101.351159 -73.652992
v -7.661687 98.686157 -57.661543
v -0.998964 94.688262 -60.329133
v -4.996337 102.684052 -73.652992
v 0.333059 94.688262 -57.661543
v -10.328342 101.351159 -68.324075
v -6.328360 94.688262 -58.996903
v 2.999714 102.683269 -65.658050
v 1.666386 101.351159 -69.656304
v -7.661687 96.021937 -57.661543
v -4.996337 101.351159 -73.652992
v 2.999714 96.021937 -57.661543
v -3.664314 94.688262 -60.329133
v -8.992406 102.684052 -70.988534
v -8.992406 100.018266 -68.324075
v -2.332291 102.684052 -73.652992
v -7.661687 96.021937 -60.329133
v 2.999714 100.017484 -64.325821
v -10.328342 101.351159 -66.990280
v -8.992406 101.351159 -70.988534
v -10.328342 102.684052 -68.324075
v 0.333059 94.688262 -58.996903
v -7.661687 102.684052 -72.320763
v 2.999714 101.350376 -65.658050
v 2.999714 98.686157 -62.993592
f 900 909 916 
f 886 887 888 
f 887 886 890 
f 890 886 891 
f 888 887 893 
f 887 890 893 
f 892 889 894 
f 890 891 895 
f 886 888 896 
f 888 894 896 
f 894 888 898 
f 886 889 899 
f 891 886 899 
f 891 899 900 
f 892 891 900 
f 889 892 900 
f 888 893 901 
f 893 890 901 
f 898 888 901 
f 892 894 902 
f 885 895 902 
f 895 892 902 
f 889 886 903 
f 886 896 903 
f 896 889 903 
f 898 885 904 
f 894 898 904 
f 902 894 904 
f 885 902 904 
f 890 895 905 
f 885 898 906 
f 891 892 907 
f 895 891 907 
f 892 895 907 
f 901 897 908 
f 898 901 908 
f 897 906 908 
f 906 898 908 
f 899 889 909 
f 890 897 910 
f 901 890 910 
f 897 901 910 
f 905 885 911 
f 897 905 911 
f 885 906 911 
f 906 897 911 
f 897 890 912 
f 890 905 912 
f 905 897 912 
f 894 889 913 
f 889 896 913 
f 896 894 913 
f 895 885 914 
f 885 905 914 
f 905 895 914 
f 900 899 915 
f 899 909 915 
f 909 900 915 
f 889 900 916 
f 909 889 916 
o convex_29
v 12.327425 85.349456 -37.667872
v -6.329925 88.018750 -42.997964
v -6.329925 88.018750 -40.333701
v 12.322728 65.368756 -29.675082
v 1.670779 89.348309 -28.341385
v -0.996906 100.015310 -44.331661
v 8.328247 81.364169 -44.331661
v 12.322728 85.349456 -28.341385
v 0.336936 76.032365 -28.341385
v 17.660445 68.041442 -28.341385
v -2.328399 82.697120 -44.331661
v -6.329925 96.013064 -40.332135
v 5.665260 96.016456 -44.331661
v -2.330748 86.682407 -28.341385
v 5.665260 68.041442 -28.341385
v 9.662089 86.692582 -44.331661
v 9.657393 88.015358 -28.341385
v -4.993735 100.015310 -44.331661
v 16.319558 78.694875 -29.675082
v 2.999924 80.027826 -44.331661
v 17.660445 68.041442 -29.675082
v 3.004621 72.043687 -33.671477
v -0.996906 100.015310 -42.999529
v 4.333766 97.349407 -41.667398
v -4.993735 100.015310 -42.999529
v -6.329925 88.025533 -44.331661
v 17.660445 72.036903 -29.675082
v 13.656570 76.035757 -37.667872
v 6.996753 78.694875 -42.999529
v -3.662241 82.693729 -40.333701
v -2.330748 84.016505 -28.341385
v 8.328247 92.017603 -44.331661
f 924 935 948 
f 924 921 925 
f 924 925 926 
f 922 923 927 
f 918 919 928 
f 923 922 929 
f 925 921 930 
f 926 925 931 
f 920 926 931 
f 923 929 932 
f 921 924 933 
f 922 927 934 
f 924 926 935 
f 927 923 936 
f 926 920 937 
f 931 925 938 
f 920 931 938 
f 936 920 938 
f 927 936 938 
f 921 933 939 
f 922 934 939 
f 929 922 940 
f 924 929 940 
f 933 924 940 
f 922 939 940 
f 939 933 940 
f 930 921 941 
f 928 930 941 
f 934 928 941 
f 921 939 941 
f 939 934 941 
f 918 928 942 
f 934 927 942 
f 928 934 942 
f 932 917 943 
f 917 935 943 
f 935 926 943 
f 926 937 943 
f 943 937 944 
f 923 932 944 
f 937 923 944 
f 932 943 944 
f 920 936 945 
f 936 923 945 
f 937 920 945 
f 923 937 945 
f 919 918 946 
f 925 919 946 
f 938 925 946 
f 927 938 946 
f 918 942 946 
f 942 927 946 
f 919 925 947 
f 928 919 947 
f 925 930 947 
f 930 928 947 
f 929 924 948 
f 917 932 948 
f 932 929 948 
f 935 917 948 
o convex_30
v -6.329925 166.656372 -78.986433
v -18.325176 154.666731 -70.991034
v -18.325176 154.666731 -69.658620
v -7.664949 144.001286 -70.990121
v -6.329925 174.654510 -69.656793
v -7.664949 182.652648 -78.986433
v -14.327150 153.334969 -76.318864
v -16.988978 166.656372 -69.658620
v -15.656303 144.001286 -69.658620
v -15.656303 161.329324 -76.318864
v -6.329925 148.000355 -69.656793
v -7.664949 179.985341 -72.324362
v -15.656303 144.001286 -72.324362
v -10.329125 166.656372 -78.986433
v -8.996450 144.001286 -72.325275
v -6.329925 182.652648 -78.986433
v -16.988978 165.320826 -72.324362
v -16.988978 150.671446 -73.654949
v -11.661800 157.330255 -77.652192
v -7.664949 182.652648 -76.318864
v -16.988978 145.340615 -70.991034
v -6.329925 179.985341 -72.324362
v -18.325176 159.989995 -70.991034
v -10.329125 173.322748 -78.986433
v -7.664949 144.001286 -69.656793
v -11.661800 149.335900 -74.986450
v -6.329925 148.000355 -70.990121
v -12.993301 157.330255 -77.652192
v -7.664949 174.654510 -69.656793
v -16.988978 166.656372 -70.991034
v -12.992127 167.991917 -77.653105
v -16.988978 145.340615 -69.658620
f 957 973 980 
f 949 953 959 
f 952 957 961 
f 954 949 962 
f 949 952 963 
f 952 961 963 
f 953 949 964 
f 949 954 964 
f 958 955 966 
f 950 958 966 
f 955 961 966 
f 962 949 967 
f 949 963 967 
f 954 956 968 
f 956 960 968 
f 964 954 968 
f 951 950 969 
f 961 957 969 
f 950 966 969 
f 966 961 969 
f 960 953 970 
f 953 964 970 
f 968 960 970 
f 964 968 970 
f 950 951 971 
f 951 956 971 
f 958 950 971 
f 965 958 971 
f 954 962 972 
f 957 952 973 
f 952 959 973 
f 959 953 973 
f 961 955 974 
f 963 961 974 
f 967 963 974 
f 952 949 975 
f 949 959 975 
f 959 952 975 
f 955 958 976 
f 962 967 976 
f 974 955 976 
f 967 974 976 
f 956 951 977 
f 953 960 977 
f 960 956 977 
f 951 973 977 
f 973 953 977 
f 956 954 978 
f 954 965 978 
f 971 956 978 
f 965 971 978 
f 965 954 979 
f 958 965 979 
f 954 972 979 
f 972 962 979 
f 976 958 979 
f 962 976 979 
f 951 969 980 
f 969 957 980 
f 973 951 980 
o convex_31
v -10.328342 166.656123 -69.656532
v -8.994362 162.655417 -60.328067
v -10.328342 162.655417 -60.328067
v -8.994362 144.003634 -69.654706
v -3.664314 171.985614 -69.656532
v -6.330317 144.003634 -61.662271
v -10.328342 144.003634 -60.328981
v -6.330317 144.003634 -69.654706
v -10.328342 167.987778 -62.993735
v -3.664314 171.985614 -68.323242
v -3.664314 162.661157 -69.656532
v -10.328342 170.656829 -69.656532
v -6.330317 173.323009 -68.323242
v -8.994362 166.656123 -61.661358
v -7.662340 148.004340 -60.328981
v -10.328342 146.669815 -62.994648
v -6.330317 146.669815 -61.662271
v -3.664314 162.661157 -68.323242
v -4.998294 173.323009 -69.656532
v -4.998294 173.323009 -68.323242
v -7.662340 144.003634 -60.328981
v -10.328342 170.656829 -68.323242
v -10.328342 166.656123 -61.661358
v -10.328342 144.003634 -61.662271
v -6.330317 173.323009 -69.656532
v -7.662340 155.997141 -69.656532
v -8.994362 155.997141 -60.328067
v -4.998294 157.331666 -69.656532
v -10.328342 150.667650 -64.327938
v -10.328342 155.997141 -60.328067
v -6.330317 155.997141 -69.656532
f 1006 1008 1011 
f 984 986 987 
f 983 981 987 
f 986 984 988 
f 981 983 989 
f 981 985 991 
f 986 988 991 
f 985 990 991 
f 985 981 992 
f 981 989 992 
f 983 982 994 
f 982 990 994 
f 987 981 996 
f 990 982 997 
f 986 990 997 
f 995 986 997 
f 982 995 997 
f 990 986 998 
f 986 991 998 
f 991 990 998 
f 990 985 999 
f 985 992 999 
f 999 993 1000 
f 994 990 1000 
f 993 994 1000 
f 990 999 1000 
f 987 986 1001 
f 986 995 1001 
f 995 982 1001 
f 992 989 1002 
f 989 993 1002 
f 993 992 1002 
f 989 983 1003 
f 993 989 1003 
f 983 994 1003 
f 994 993 1003 
f 984 987 1004 
f 996 984 1004 
f 987 996 1004 
f 992 993 1005 
f 999 992 1005 
f 993 999 1005 
f 984 981 1006 
f 988 984 1006 
f 981 991 1006 
f 982 983 1007 
f 987 1001 1007 
f 1001 982 1007 
f 991 988 1008 
f 1006 991 1008 
f 981 984 1009 
f 996 981 1009 
f 984 996 1009 
f 983 987 1010 
f 1007 983 1010 
f 987 1007 1010 
f 988 1006 1011 
f 1008 988 1011 
o convex_32
v 25.656626 53.368679 -9.678918
v 13.662159 37.378665 -7.013771
v 25.656626 37.378665 -11.012666
v 24.321994 37.380491 -0.350902
v 13.662159 56.033377 -9.678918
v 16.329988 56.033377 -5.683545
v 13.662159 40.045189 -1.685824
v 24.323429 56.033377 -12.345240
v 26.986953 40.045189 -1.685824
v 28.323020 37.378665 -11.012666
v 22.990232 56.033377 -7.014945
v 21.655600 41.376625 -0.350902
v 24.323429 48.041109 -12.345240
v 26.989823 50.705807 -12.345240
v 16.328552 37.380491 -0.350902
v 28.323020 37.378665 -5.682371
v 13.662159 56.033377 -7.014945
v 17.663185 45.372759 -1.685824
v 28.323020 42.708061 -8.346344
v 20.325273 49.372545 -3.018398
v 25.656626 48.039283 -4.350972
v 21.658470 54.700115 -12.345240
v 13.662159 54.700115 -9.678918
v 13.662159 37.378665 -1.685824
v 13.662159 53.368679 -5.683545
v 26.986953 37.378665 -1.685824
v 24.323429 54.700115 -7.014945
v 18.994946 56.033377 -5.683545
v 26.989823 50.705807 -11.011492
v 28.323020 42.708061 -11.012666
v 26.989823 46.707847 -12.345240
v 18.994946 41.376625 -0.350902
f 1031 1029 1043 
f 1016 1013 1018 
f 1016 1017 1019 
f 1013 1014 1021 
f 1019 1017 1022 
f 1015 1020 1023 
f 1014 1013 1024 
f 1024 1019 1025 
f 1015 1023 1026 
f 1013 1021 1027 
f 1017 1016 1028 
f 1016 1018 1028 
f 1020 1027 1030 
f 1027 1021 1030 
f 1017 1029 1031 
f 1023 1020 1032 
f 1020 1030 1032 
f 1022 1031 1032 
f 1031 1023 1032 
f 1016 1019 1033 
f 1019 1024 1033 
f 1033 1024 1034 
f 1013 1016 1034 
f 1024 1013 1034 
f 1016 1033 1034 
f 1018 1013 1035 
f 1015 1026 1035 
f 1026 1018 1035 
f 1013 1027 1035 
f 1017 1028 1036 
f 1028 1018 1036 
f 1029 1017 1036 
f 1018 1029 1036 
f 1020 1015 1037 
f 1027 1020 1037 
f 1015 1035 1037 
f 1035 1027 1037 
f 1012 1019 1038 
f 1019 1022 1038 
f 1022 1032 1038 
f 1022 1017 1039 
f 1017 1031 1039 
f 1031 1022 1039 
f 1019 1012 1040 
f 1025 1019 1040 
f 1030 1025 1040 
f 1032 1030 1040 
f 1012 1038 1040 
f 1038 1032 1040 
f 1021 1025 1041 
f 1030 1021 1041 
f 1025 1030 1041 
f 1021 1014 1042 
f 1014 1024 1042 
f 1025 1021 1042 
f 1024 1025 1042 
f 1018 1026 1043 
f 1026 1023 1043 
f 1029 1018 1043 
f 1023 1031 1043 
o convex_33
v 8.330936 84.033764 -45.668054
v -14.326759 109.344648 -57.661543
v -12.991605 104.016576 -57.661543
v -7.662079 93.360433 -41.668137
v -0.997398 116.002194 -53.661626
v 2.996974 96.019381 -57.661543
v -3.661053 84.026981 -45.668054
v 8.330936 92.020784 -44.334226
v -10.325733 116.012368 -50.995536
v -0.997398 116.002194 -57.661543
v -4.993989 93.350258 -57.661543
v 0.333320 101.344062 -44.334226
v -14.326759 116.012368 -54.990757
v 4.329910 81.368032 -44.334226
v 2.996974 104.013185 -57.661543
v -2.332552 116.002194 -50.997102
v -10.325733 96.022773 -54.989191
v -7.662079 96.022773 -41.668137
v -11.660887 98.685113 -50.993971
v 4.329910 81.368032 -45.668054
v -14.326759 116.012368 -57.661543
v -8.995015 94.689907 -57.661543
v 0.333320 93.350258 -57.661543
v -12.991605 110.674122 -50.995536
v 5.662846 92.020784 -53.660060
v -7.662079 90.694701 -43.001964
v 8.330936 84.033764 -44.334226
v -12.991605 106.678916 -50.995536
v 6.995782 94.683124 -44.334226
v 8.330936 89.361835 -47.000316
v -3.661053 84.026981 -44.334226
v -2.332552 84.026981 -47.000316
f 1050 1065 1075 
f 1046 1045 1049 
f 1049 1045 1053 
f 1048 1051 1053 
f 1052 1048 1053 
f 1046 1049 1054 
f 1049 1053 1058 
f 1053 1051 1058 
f 1048 1052 1059 
f 1047 1051 1061 
f 1059 1052 1061 
f 1055 1059 1061 
f 1045 1046 1062 
f 1046 1060 1062 
f 1057 1050 1063 
f 1044 1057 1063 
f 1053 1045 1064 
f 1052 1053 1064 
f 1045 1056 1064 
f 1056 1052 1064 
f 1046 1054 1065 
f 1060 1046 1065 
f 1050 1060 1065 
f 1054 1049 1066 
f 1044 1063 1066 
f 1063 1054 1066 
f 1052 1056 1067 
f 1047 1061 1067 
f 1061 1052 1067 
f 1049 1058 1068 
f 1044 1066 1068 
f 1066 1049 1068 
f 1060 1050 1069 
f 1047 1062 1069 
f 1062 1060 1069 
f 1044 1051 1070 
f 1051 1047 1070 
f 1047 1057 1070 
f 1057 1044 1070 
f 1056 1045 1071 
f 1045 1062 1071 
f 1062 1047 1071 
f 1067 1056 1071 
f 1047 1067 1071 
f 1051 1048 1072 
f 1048 1059 1072 
f 1059 1055 1072 
f 1061 1051 1072 
f 1055 1061 1072 
f 1051 1044 1073 
f 1058 1051 1073 
f 1044 1068 1073 
f 1068 1058 1073 
f 1057 1047 1074 
f 1050 1057 1074 
f 1047 1069 1074 
f 1069 1050 1074 
f 1054 1063 1075 
f 1063 1050 1075 
f 1065 1054 1075 
o convex_34
v -0.999747 116.011064 -57.661543
v -7.662731 109.348667 -66.991182
v 0.334103 102.684965 -66.991182
v 0.334103 102.684965 -57.661543
v 2.999714 106.682142 -66.991182
v -7.662731 116.011064 -61.660612
v 2.999714 102.684965 -57.661543
v 0.333059 110.681929 -66.991182
v -7.662731 110.681929 -61.660612
v -3.664314 116.011064 -62.992113
v -7.662731 112.013886 -66.991182
v -2.331509 109.348667 -57.661543
v 2.999714 102.684965 -65.657855
v 2.999714 105.351489 -58.995784
v -0.999747 116.011064 -60.328198
v -2.331509 116.011064 -57.661543
v -7.662731 109.348667 -64.323614
v -6.328882 110.681929 -60.328198
v -3.664314 112.013886 -66.991182
v 2.999714 106.682142 -62.992113
v -7.662731 116.011064 -62.992113
v 1.665864 109.348667 -66.991182
v 2.999714 104.018227 -66.991182
v 2.999714 104.018227 -57.661543
v -0.998703 105.351489 -57.661543
v -6.328882 113.345844 -60.328198
v 1.665864 102.684965 -66.991182
v -2.331509 116.011064 -61.660612
f 1085 1090 1103 
f 1077 1078 1079 
f 1078 1077 1080 
f 1079 1078 1082 
f 1076 1079 1082 
f 1080 1077 1083 
f 1081 1077 1084 
f 1081 1076 1085 
f 1077 1081 1086 
f 1083 1077 1086 
f 1079 1076 1087 
f 1082 1078 1088 
f 1080 1082 1088 
f 1082 1080 1089 
f 1076 1080 1090 
f 1085 1076 1090 
f 1076 1081 1091 
f 1087 1076 1091 
f 1077 1079 1092 
f 1084 1077 1092 
f 1079 1084 1092 
f 1081 1084 1093 
f 1087 1091 1093 
f 1085 1083 1094 
f 1083 1086 1094 
f 1086 1085 1094 
f 1080 1076 1095 
f 1076 1089 1095 
f 1089 1080 1095 
f 1081 1085 1096 
f 1085 1086 1096 
f 1086 1081 1096 
f 1080 1083 1097 
f 1090 1080 1097 
f 1083 1090 1097 
f 1078 1080 1098 
f 1080 1088 1098 
f 1076 1082 1099 
f 1089 1076 1099 
f 1082 1089 1099 
f 1084 1079 1100 
f 1079 1087 1100 
f 1093 1084 1100 
f 1087 1093 1100 
f 1091 1081 1101 
f 1081 1093 1101 
f 1093 1091 1101 
f 1088 1078 1102 
f 1078 1098 1102 
f 1098 1088 1102 
f 1083 1085 1103 
f 1090 1083 1103 
o convex_35
v -2.331509 130.675578 15.642765
v -18.325176 153.326750 7.645931
v -18.325176 153.326750 8.978998
v -12.992910 174.649292 8.979780
v -3.665358 126.674813 8.978998
v -15.657477 137.348478 15.642765
v -15.657477 154.655381 15.642765
v -4.997642 150.664531 15.642765
v -8.996058 163.990500 7.645931
v -8.996058 126.674813 8.978998
v -16.989761 177.316468 7.645931
v -3.665358 126.674813 15.642765
v -2.331509 128.013359 10.312847
v -7.663775 141.339328 7.645931
v -14.325193 133.347713 12.976632
v -16.988195 149.335900 15.642765
v -16.989761 177.316468 8.979780
v -10.328342 155.988969 15.642765
v -3.665358 145.335135 14.308915
v -18.325176 171.982115 8.979780
v -14.325193 133.347713 15.642765
v -16.988195 148.002312 7.645931
v -8.996058 126.674813 11.644348
v -11.662192 171.982115 7.645931
v -16.988195 144.006504 10.312064
v -7.663775 154.660339 7.645931
v -14.325193 142.672916 7.645931
v -2.331509 126.674813 15.642765
v -18.325176 154.655381 10.312064
v -18.325176 171.982115 7.645931
v -15.657477 177.316468 8.979780
v -11.662192 171.982115 8.979780
f 1112 1127 1135 
f 1109 1104 1110 
f 1110 1104 1111 
f 1112 1105 1114 
f 1104 1109 1115 
f 1113 1108 1115 
f 1105 1112 1117 
f 1108 1113 1117 
f 1109 1110 1119 
f 1110 1111 1121 
f 1120 1110 1121 
f 1111 1104 1122 
f 1112 1111 1122 
f 1104 1116 1122 
f 1116 1112 1122 
f 1105 1106 1123 
f 1119 1110 1123 
f 1110 1120 1123 
f 1120 1114 1123 
f 1115 1109 1124 
f 1109 1118 1124 
f 1118 1113 1124 
f 1105 1117 1125 
f 1113 1118 1125 
f 1113 1115 1126 
f 1115 1124 1126 
f 1124 1113 1126 
f 1114 1107 1127 
f 1112 1114 1127 
f 1106 1105 1128 
f 1109 1106 1128 
f 1118 1109 1128 
f 1105 1125 1128 
f 1125 1118 1128 
f 1116 1108 1129 
f 1112 1116 1129 
f 1117 1112 1129 
f 1108 1117 1129 
f 1117 1113 1130 
f 1125 1117 1130 
f 1113 1125 1130 
f 1104 1115 1131 
f 1115 1108 1131 
f 1116 1104 1131 
f 1108 1116 1131 
f 1106 1109 1132 
f 1109 1119 1132 
f 1123 1106 1132 
f 1119 1123 1132 
f 1114 1105 1133 
f 1105 1123 1133 
f 1123 1114 1133 
f 1111 1107 1134 
f 1107 1114 1134 
f 1114 1120 1134 
f 1121 1111 1134 
f 1120 1121 1134 
f 1107 1111 1135 
f 1111 1112 1135 
f 1127 1107 1135 
o convex_36
v -6.329925 96.015669 -4.343840
v 13.662159 86.690766 -8.344866
v 13.662159 81.362734 -8.344866
v 1.668082 94.684509 7.645931
v 3.000757 80.028183 -9.680020
v 3.000757 96.017364 -13.678828
v 8.329501 96.019060 3.644905
v -0.997268 85.357910 -15.011764
v -4.995293 97.351916 7.645931
v 9.660219 96.019060 -8.344866
v -0.997268 97.351916 -11.010738
v 0.335407 82.695590 -7.014148
v 13.662159 81.362734 -9.680020
v 3.000757 93.351653 -15.011764
v 12.327526 92.018797 -9.680020
v -2.329943 93.351653 -13.678828
v 3.000757 80.028183 -8.347084
v -4.995293 96.017364 7.645931
v -6.329925 94.682813 -0.356121
v 12.325570 80.029879 -8.344866
v 3.000757 97.351916 -11.010738
v -0.999225 97.351916 7.645931
v 6.996826 94.684509 4.977841
v -6.327968 97.351916 -4.343840
v 9.660219 96.019060 -0.353903
v -2.329943 86.694157 -12.343674
v -6.327968 96.017364 4.977841
v 12.325570 80.029879 -9.680020
v -0.997268 93.351653 -15.011764
v 0.333450 85.357910 -15.011764
v -3.662618 96.017364 -11.010738
v 13.662159 86.690766 -9.680020
f 1149 1150 1167 
f 1138 1137 1142 
f 1143 1140 1147 
f 1137 1138 1148 
f 1141 1145 1150 
f 1149 1141 1150 
f 1147 1140 1152 
f 1147 1152 1153 
f 1139 1144 1153 
f 1152 1139 1153 
f 1148 1138 1155 
f 1139 1152 1155 
f 1152 1140 1155 
f 1145 1141 1156 
f 1141 1146 1156 
f 1146 1144 1156 
f 1139 1142 1157 
f 1144 1139 1157 
f 1156 1144 1157 
f 1138 1142 1158 
f 1142 1139 1158 
f 1155 1138 1158 
f 1139 1155 1158 
f 1144 1146 1159 
f 1142 1137 1160 
f 1137 1150 1160 
f 1150 1145 1160 
f 1145 1156 1160 
f 1157 1142 1160 
f 1156 1157 1160 
f 1143 1147 1161 
f 1151 1143 1161 
f 1154 1136 1161 
f 1147 1154 1161 
f 1147 1153 1162 
f 1153 1144 1162 
f 1136 1154 1162 
f 1154 1147 1162 
f 1144 1159 1162 
f 1159 1136 1162 
f 1148 1155 1163 
f 1155 1140 1163 
f 1146 1141 1164 
f 1149 1143 1164 
f 1141 1149 1164 
f 1143 1151 1164 
f 1140 1143 1165 
f 1143 1149 1165 
f 1149 1148 1165 
f 1163 1140 1165 
f 1148 1163 1165 
f 1159 1146 1166 
f 1136 1159 1166 
f 1161 1136 1166 
f 1151 1161 1166 
f 1146 1164 1166 
f 1164 1151 1166 
f 1137 1148 1167 
f 1148 1149 1167 
f 1150 1137 1167 
o convex_37
v 1.667691 145.341527 62.293048
v 6.997217 157.334821 75.619017
v 8.329892 170.651136 62.291482
v -2.331509 151.999685 75.619017
v 8.329892 144.004156 68.954467
v 3.000366 171.982768 59.625349
v 9.663742 158.660712 59.625349
v -2.331509 144.001286 67.622183
v 9.663742 153.337056 75.619017
v -2.331509 144.001286 75.619017
v 0.335016 157.326211 75.619017
v 0.335016 162.655607 60.959199
v 6.997217 144.004156 63.626897
v 9.663742 169.316635 59.625349
v 1.667691 158.660712 59.625349
v 4.333041 173.320139 60.959199
v 1.667691 169.316635 62.291482
v -2.331509 149.336422 66.291465
v 9.663742 149.336422 67.622183
v 8.329892 154.668688 59.625349
v -0.997659 144.001286 64.960747
v -0.997659 158.660712 66.291465
v -0.997659 144.001286 75.619017
v 6.997217 173.320139 60.959199
v 9.663742 154.668688 75.619017
v 8.329892 146.673159 63.626897
v 1.667691 169.316635 59.625349
v 1.667691 150.668053 60.959199
v 6.997217 173.320139 59.625349
v 0.335016 158.660712 60.959199
v 9.663742 169.316635 60.959199
v -0.997659 157.326211 72.951318
f 1178 1184 1199 
f 1169 1171 1176 
f 1171 1175 1177 
f 1176 1171 1177 
f 1171 1169 1178 
f 1174 1173 1181 
f 1176 1174 1181 
f 1173 1174 1182 
f 1178 1169 1183 
f 1178 1183 1184 
f 1183 1173 1184 
f 1175 1171 1185 
f 1176 1172 1186 
f 1174 1176 1186 
f 1180 1168 1187 
f 1182 1174 1187 
f 1177 1175 1188 
f 1168 1180 1188 
f 1180 1172 1188 
f 1175 1185 1188 
f 1171 1184 1189 
f 1185 1171 1189 
f 1179 1185 1189 
f 1172 1176 1190 
f 1176 1177 1190 
f 1188 1172 1190 
f 1177 1188 1190 
f 1169 1170 1191 
f 1183 1169 1191 
f 1170 1169 1192 
f 1169 1176 1192 
f 1176 1181 1192 
f 1172 1180 1193 
f 1186 1172 1193 
f 1174 1186 1193 
f 1180 1187 1193 
f 1187 1174 1193 
f 1173 1182 1194 
f 1182 1179 1194 
f 1184 1173 1194 
f 1189 1184 1194 
f 1179 1189 1194 
f 1187 1168 1195 
f 1182 1187 1195 
f 1168 1188 1195 
f 1181 1173 1196 
f 1173 1183 1196 
f 1191 1181 1196 
f 1183 1191 1196 
f 1179 1182 1197 
f 1185 1179 1197 
f 1188 1185 1197 
f 1182 1195 1197 
f 1195 1188 1197 
f 1191 1170 1198 
f 1181 1191 1198 
f 1170 1192 1198 
f 1192 1181 1198 
f 1171 1178 1199 
f 1184 1171 1199 
o convex_38
v -1.000138 155.994902 28.969516
v -15.659565 138.672741 15.642765
v -14.324933 133.338841 15.642765
v 4.332519 161.326063 19.646269
v -3.665488 133.338841 20.975552
v -14.324933 153.326583 15.642765
v -11.661539 136.009900 24.968621
v -6.326925 159.989163 27.632406
v -3.665488 133.338841 15.642765
v 4.332519 159.989163 26.301818
v -2.332813 153.329322 15.645374
v -12.992257 147.998162 23.638033
v -2.332813 161.326063 18.311768
v -3.663531 161.326063 28.969516
v -14.324933 133.338841 20.974248
v -15.659565 151.995162 16.975962
v 4.332519 157.323583 20.978161
v -8.994232 147.998162 27.633710
v -6.326925 161.326063 23.636728
v -7.661557 133.338841 23.636728
v 1.665212 158.660483 28.969516
v -4.996207 146.674960 27.633710
v -14.324933 136.009900 22.306140
v 1.665212 161.326063 28.969516
v -7.661557 157.323583 27.632406
v -15.659565 147.998162 18.309159
v -4.998164 133.338841 22.306140
v -8.994232 154.663482 15.642765
v -6.326925 161.326063 26.301818
v 4.332519 158.660483 19.646269
v -8.994232 140.004161 26.304427
v 0.332537 161.326063 18.311768
f 1227 1212 1231 
f 1202 1201 1205 
f 1204 1202 1208 
f 1202 1205 1208 
f 1203 1212 1213 
f 1201 1202 1214 
f 1202 1204 1214 
f 1205 1201 1215 
f 1204 1208 1216 
f 1209 1204 1216 
f 1203 1209 1216 
f 1211 1206 1217 
f 1200 1213 1217 
f 1212 1205 1218 
f 1213 1212 1218 
f 1205 1215 1218 
f 1214 1204 1219 
f 1206 1214 1219 
f 1204 1209 1220 
f 1213 1200 1220 
f 1200 1217 1221 
f 1220 1200 1221 
f 1206 1211 1222 
f 1201 1214 1222 
f 1214 1206 1222 
f 1209 1203 1223 
f 1203 1213 1223 
f 1220 1209 1223 
f 1213 1220 1223 
f 1213 1207 1224 
f 1215 1211 1224 
f 1211 1217 1224 
f 1217 1213 1224 
f 1211 1215 1225 
f 1215 1201 1225 
f 1222 1211 1225 
f 1201 1222 1225 
f 1219 1204 1226 
f 1204 1220 1226 
f 1221 1219 1226 
f 1220 1221 1226 
f 1208 1205 1227 
f 1210 1208 1227 
f 1205 1212 1227 
f 1207 1213 1228 
f 1213 1218 1228 
f 1218 1215 1228 
f 1224 1207 1228 
f 1215 1224 1228 
f 1210 1203 1229 
f 1208 1210 1229 
f 1203 1216 1229 
f 1216 1208 1229 
f 1217 1206 1230 
f 1206 1219 1230 
f 1219 1221 1230 
f 1221 1217 1230 
f 1203 1210 1231 
f 1212 1203 1231 
f 1210 1227 1231 
o convex_39
v -7.662731 104.017118 18.313986
v 5.665325 114.677476 34.300217
v -2.330726 116.011977 35.634849
v 2.997365 112.013691 15.642765
v 5.665325 104.017118 22.308097
v -0.998703 106.684816 34.300217
v -7.662731 110.680494 15.642765
v -7.662731 112.012386 35.634849
v 5.665325 104.017118 15.642765
v -3.664053 117.343869 32.963628
v 5.665325 109.351210 34.300217
v 4.330693 117.342565 32.965585
v 5.665325 109.349906 15.642765
v -6.328099 104.017118 23.642729
v -7.662731 104.017118 15.642765
v -6.328099 116.010672 34.300217
v -4.996076 112.011082 15.642765
v 1.666647 104.017118 26.300252
v -6.328099 108.016709 32.963628
v -2.330726 117.342565 31.630952
v 4.330693 108.016709 34.300217
v -7.662731 112.011082 19.642747
v 4.330693 117.342565 34.300217
v -7.662731 113.345583 35.634849
v 2.997365 117.342565 31.630952
v -6.328099 116.010672 31.630952
v -4.996076 105.352924 28.967559
v -2.330726 104.017118 26.300252
v 5.665325 114.677476 30.302191
v -3.664053 117.343869 34.300217
v 1.666647 105.352924 30.300234
v -4.996076 108.016709 34.300217
f 1250 1258 1263 
f 1238 1232 1239 
f 1236 1232 1240 
f 1233 1236 1240 
f 1238 1235 1240 
f 1233 1234 1242 
f 1236 1233 1242 
f 1233 1240 1244 
f 1240 1235 1244 
f 1235 1243 1244 
f 1232 1236 1245 
f 1232 1238 1246 
f 1240 1232 1246 
f 1238 1240 1246 
f 1235 1238 1248 
f 1245 1236 1249 
f 1239 1232 1250 
f 1232 1245 1250 
f 1235 1248 1251 
f 1248 1241 1251 
f 1239 1237 1252 
f 1234 1239 1252 
f 1242 1234 1252 
f 1236 1242 1252 
f 1238 1239 1253 
f 1248 1238 1253 
f 1234 1233 1254 
f 1233 1243 1254 
f 1243 1241 1254 
f 1239 1234 1255 
f 1253 1239 1255 
f 1243 1235 1256 
f 1241 1243 1256 
f 1235 1251 1256 
f 1251 1241 1256 
f 1247 1241 1257 
f 1241 1248 1257 
f 1248 1253 1257 
f 1255 1247 1257 
f 1253 1255 1257 
f 1250 1245 1258 
f 1249 1237 1259 
f 1245 1249 1259 
f 1237 1258 1259 
f 1258 1245 1259 
f 1243 1233 1260 
f 1233 1244 1260 
f 1244 1243 1260 
f 1241 1247 1261 
f 1234 1254 1261 
f 1254 1241 1261 
f 1255 1234 1261 
f 1247 1255 1261 
f 1249 1236 1262 
f 1237 1249 1262 
f 1252 1237 1262 
f 1236 1252 1262 
f 1237 1239 1263 
f 1239 1250 1263 
f 1258 1237 1263 
o convex_40
v -18.324393 149.339684 -66.988523
v -15.660217 182.652648 -52.332017
v -12.994867 181.313319 -54.996373
v -19.655894 179.985341 -62.991140
v -10.328342 169.323679 -69.654576
v -10.328342 154.670515 -58.993757
v -22.323593 177.318034 -54.996373
v -15.659043 144.001286 -64.325862
v -18.323219 165.324610 -69.654576
v -14.327542 144.001286 -69.654576
v -16.990544 171.983419 -53.666739
v -22.323593 182.652648 -58.993757
v -15.660217 182.652648 -61.656417
v -16.991718 144.001286 -64.325862
v -10.328342 167.988134 -58.993757
v -18.324393 153.334969 -69.654576
v -16.990544 155.998493 -58.993757
v -12.994867 182.652648 -58.993757
v -19.655894 182.652648 -52.332017
v -10.328342 153.331186 -61.656417
v -20.988569 166.656372 -62.991140
v -20.988569 175.982488 -53.666739
v -16.991718 144.001286 -69.654576
v -15.660217 177.310467 -52.332017
v -20.988569 165.324610 -58.993757
v -16.990544 167.988134 -69.654576
v -10.328342 166.656372 -69.654576
v -10.328342 170.651657 -61.656417
v -11.663366 169.319896 -56.329400
v -22.323593 182.652648 -54.996373
v -19.657068 166.656372 -66.988523
v -19.655894 182.652648 -61.656417
f 1268 1289 1295 
f 1272 1268 1273 
f 1267 1272 1275 
f 1275 1265 1276 
f 1271 1269 1277 
f 1273 1271 1277 
f 1269 1268 1278 
f 1272 1273 1279 
f 1269 1274 1280 
f 1277 1269 1280 
f 1265 1266 1281 
f 1276 1265 1281 
f 1268 1276 1281 
f 1265 1275 1282 
f 1268 1269 1283 
f 1269 1271 1283 
f 1271 1273 1283 
f 1270 1275 1284 
f 1279 1264 1284 
f 1280 1274 1285 
f 1277 1280 1285 
f 1282 1270 1285 
f 1277 1264 1286 
f 1273 1277 1286 
f 1264 1279 1286 
f 1279 1273 1286 
f 1266 1265 1287 
f 1274 1269 1287 
f 1265 1282 1287 
f 1285 1274 1287 
f 1282 1285 1287 
f 1264 1277 1288 
f 1284 1264 1288 
f 1270 1284 1288 
f 1285 1270 1288 
f 1277 1285 1288 
f 1268 1272 1289 
f 1272 1267 1289 
f 1273 1268 1290 
f 1268 1283 1290 
f 1283 1273 1290 
f 1266 1278 1291 
f 1278 1268 1291 
f 1281 1266 1291 
f 1268 1281 1291 
f 1278 1266 1292 
f 1269 1278 1292 
f 1266 1287 1292 
f 1287 1269 1292 
f 1275 1270 1293 
f 1270 1282 1293 
f 1282 1275 1293 
f 1275 1272 1294 
f 1272 1279 1294 
f 1284 1275 1294 
f 1279 1284 1294 
f 1267 1275 1295 
f 1276 1268 1295 
f 1275 1276 1295 
f 1289 1267 1295 
o convex_41
v 14.994312 37.376838 -3.016514
v 8.330936 1.394610 -8.345649
v 12.328962 2.729502 -9.680281
v 13.661637 37.376838 -11.013347
v 20.326186 6.727136 -4.349580
v 8.330936 25.376892 -3.016514
v 20.326186 21.379258 -11.013347
v 8.330936 2.729502 -3.016514
v 20.326186 4.057351 -8.347214
v 10.997461 36.038423 -9.680281
v 10.997461 20.044365 -11.013347
v 16.328161 9.389878 -11.013347
v 8.330936 16.060820 -8.345649
v 14.994312 1.394610 -7.014930
v 20.326186 12.056141 -4.349580
v 14.994312 37.376838 -11.013347
v 12.328962 37.376838 -5.682647
v 10.997461 6.727136 -3.016514
v 20.326186 4.057351 -5.682647
v 20.326186 13.391034 -11.013347
v 20.326186 21.379258 -9.679498
v 8.330936 25.376892 -5.682647
v 14.994312 2.729502 -9.680281
v 13.661637 37.376838 -3.016514
v 9.665960 2.729502 -3.016514
v 10.997461 36.038423 -7.014930
v 14.994312 32.040789 -3.016514
v 10.997461 24.041999 -11.013347
v 8.330936 1.394610 -5.682647
v 14.994312 1.394610 -8.345649
v 14.994312 9.389878 -11.013347
v 10.997461 32.040789 -3.016514
f 1321 1301 1327 
f 1301 1297 1303 
f 1296 1301 1303 
f 1302 1300 1304 
f 1298 1297 1306 
f 1299 1302 1306 
f 1306 1302 1307 
f 1297 1301 1308 
f 1306 1297 1308 
f 1296 1300 1310 
f 1300 1302 1310 
f 1299 1296 1311 
f 1302 1299 1311 
f 1296 1302 1311 
f 1296 1299 1312 
f 1299 1305 1312 
f 1296 1303 1313 
f 1304 1300 1314 
f 1309 1304 1314 
f 1302 1304 1315 
f 1307 1302 1315 
f 1302 1296 1316 
f 1296 1310 1316 
f 1310 1302 1316 
f 1308 1301 1317 
f 1305 1308 1317 
f 1297 1298 1318 
f 1298 1307 1318 
f 1315 1304 1318 
f 1307 1315 1318 
f 1301 1296 1319 
f 1296 1312 1319 
f 1300 1313 1320 
f 1313 1303 1320 
f 1314 1300 1320 
f 1309 1314 1320 
f 1312 1305 1321 
f 1317 1301 1321 
f 1305 1317 1321 
f 1300 1296 1322 
f 1296 1313 1322 
f 1313 1300 1322 
f 1305 1299 1323 
f 1299 1306 1323 
f 1308 1305 1323 
f 1306 1308 1323 
f 1303 1297 1324 
f 1297 1309 1324 
f 1320 1303 1324 
f 1309 1320 1324 
f 1309 1297 1325 
f 1304 1309 1325 
f 1297 1318 1325 
f 1318 1304 1325 
f 1298 1306 1326 
f 1307 1298 1326 
f 1306 1307 1326 
f 1301 1319 1327 
f 1319 1312 1327 
f 1312 1321 1327 
o convex_42
v 10.997069 76.029766 -21.674601
v 16.327770 78.695377 -12.348208
v 14.993920 84.023469 -11.014375
v 13.661637 82.690663 -31.005170
v 8.330936 81.357858 -9.680542
v 16.327770 76.029766 -28.337504
v 10.997069 84.024251 -31.005170
v 8.330936 77.362571 -9.680542
v 16.327770 76.029766 -13.679953
v 12.329353 78.694594 -31.005170
v 16.327770 80.026617 -23.008434
v 12.329353 84.023469 -9.680542
v 8.330936 77.362571 -13.679953
v 13.661637 78.695377 -9.680542
v 14.993920 84.022686 -19.013198
v 9.664785 76.029766 -12.348208
v 10.997069 81.358640 -31.005170
v 16.327770 78.695377 -28.337504
v 10.997069 84.022686 -21.674601
v 14.993920 76.029766 -12.348208
v 14.993920 76.029766 -28.337504
v 13.661637 84.022686 -27.003671
v 16.327770 80.026617 -13.679953
v 8.330936 78.695377 -13.679953
v 13.661637 78.694594 -31.005170
v 13.661637 84.023469 -9.680542
v 8.330936 81.357858 -11.014375
v 14.993920 77.362571 -11.014375
v 12.329353 84.024251 -31.005170
v 9.664785 77.362571 -9.680542
v 16.327770 77.362571 -12.348208
v 9.664785 76.029766 -13.679953
f 1343 1340 1359 
f 1333 1329 1336 
f 1328 1333 1336 
f 1334 1331 1337 
f 1329 1333 1338 
f 1332 1335 1339 
f 1335 1332 1340 
f 1339 1335 1341 
f 1330 1338 1342 
f 1328 1336 1343 
f 1335 1340 1343 
f 1337 1328 1344 
f 1334 1337 1344 
f 1340 1334 1344 
f 1328 1340 1344 
f 1333 1331 1345 
f 1338 1333 1345 
f 1342 1338 1345 
f 1334 1332 1346 
f 1339 1334 1346 
f 1332 1339 1346 
f 1343 1336 1347 
f 1335 1343 1347 
f 1333 1328 1348 
f 1328 1337 1348 
f 1337 1333 1348 
f 1345 1331 1349 
f 1342 1345 1349 
f 1330 1329 1350 
f 1338 1330 1350 
f 1329 1338 1350 
f 1340 1332 1351 
f 1334 1340 1351 
f 1331 1333 1352 
f 1333 1337 1352 
f 1337 1331 1352 
f 1329 1330 1353 
f 1334 1339 1353 
f 1341 1329 1353 
f 1339 1341 1353 
f 1332 1334 1354 
f 1351 1332 1354 
f 1334 1351 1354 
f 1347 1336 1355 
f 1331 1334 1356 
f 1330 1342 1356 
f 1349 1331 1356 
f 1342 1349 1356 
f 1353 1330 1356 
f 1334 1353 1356 
f 1341 1335 1357 
f 1335 1347 1357 
f 1355 1341 1357 
f 1347 1355 1357 
f 1336 1329 1358 
f 1329 1341 1358 
f 1355 1336 1358 
f 1341 1355 1358 
f 1340 1328 1359 
f 1328 1343 1359 
o convex_43
v 21.660036 16.049731 -11.013347
v 21.660036 12.054445 8.978737
v 20.326186 12.054445 8.978737
v 20.326186 37.376838 0.980729
v 28.323020 37.369271 -4.348015
v 22.991537 -1.274524 -0.351946
v 28.323020 37.369271 -11.013347
v 20.326186 -1.270741 -5.682647
v 26.989954 14.721752 -0.351946
v 20.326186 22.708540 -11.013347
v 25.656104 16.049731 -9.678715
v 21.660819 0.061021 8.978737
v 26.989954 36.041293 -0.351946
v 25.656104 37.369271 -11.013347
v 24.324603 17.389060 6.311430
v 20.326186 -1.274524 7.644105
v 28.323020 25.372064 -5.682647
v 20.326186 37.376838 -1.682664
v 22.991537 -1.274524 4.978754
v 21.660036 -1.270741 -5.682647
v 28.323020 32.042224 -11.013347
v 26.989171 16.049731 -4.348015
v 21.660036 21.376778 6.311430
v 25.656104 20.041233 -11.013347
v 21.660036 1.396567 -7.013365
v 20.326186 16.049731 -11.013347
v 21.660036 37.376838 0.980729
v 24.324603 2.728329 0.980729
v 22.993102 2.728329 -5.682647
v 20.326186 0.061021 8.978737
v 28.323020 25.372064 -4.348015
v 24.324603 22.716107 4.978754
f 1386 1382 1391 
f 1362 1363 1367 
f 1366 1360 1369 
f 1367 1363 1369 
f 1361 1362 1371 
f 1368 1364 1372 
f 1366 1369 1373 
f 1361 1371 1374 
f 1371 1368 1374 
f 1368 1372 1374 
f 1367 1365 1375 
f 1362 1367 1375 
f 1366 1364 1376 
f 1369 1363 1377 
f 1366 1373 1377 
f 1373 1369 1377 
f 1368 1371 1378 
f 1375 1365 1378 
f 1371 1375 1378 
f 1365 1367 1379 
f 1360 1366 1380 
f 1366 1376 1380 
f 1380 1376 1381 
f 1376 1368 1381 
f 1370 1380 1381 
f 1362 1361 1382 
f 1363 1362 1382 
f 1360 1380 1383 
f 1380 1370 1383 
f 1379 1367 1384 
f 1370 1379 1384 
f 1360 1383 1384 
f 1383 1370 1384 
f 1369 1360 1385 
f 1367 1369 1385 
f 1360 1384 1385 
f 1384 1367 1385 
f 1364 1366 1386 
f 1372 1364 1386 
f 1377 1363 1386 
f 1366 1377 1386 
f 1363 1382 1386 
f 1378 1365 1387 
f 1368 1378 1387 
f 1365 1381 1387 
f 1381 1368 1387 
f 1365 1379 1388 
f 1379 1370 1388 
f 1381 1365 1388 
f 1370 1381 1388 
f 1371 1362 1389 
f 1362 1375 1389 
f 1375 1371 1389 
f 1364 1368 1390 
f 1376 1364 1390 
f 1368 1376 1390 
f 1361 1374 1391 
f 1374 1372 1391 
f 1382 1361 1391 
f 1372 1386 1391 
o convex_44
v 12.331310 21.381606 6.313647
v 8.330936 -1.274524 6.313647
v 20.326186 -1.274524 6.313647
v 8.330936 -1.274524 14.309959
v 20.326186 4.057351 11.643304
v 20.326186 22.715194 4.980320
v 8.330936 17.380840 4.980320
v 13.662811 10.722814 11.643304
v 18.992337 -1.274524 12.976632
v 8.330936 2.723762 14.309959
v 18.992337 24.048782 6.313647
v 20.326186 14.718621 4.980320
v 14.994312 0.059064 14.309959
v 16.325813 24.048782 6.313647
v 8.330936 13.387512 8.979389
v 8.330936 13.387512 4.980320
v 16.325813 24.048782 4.980320
v 13.662811 6.724527 12.976632
v 20.326186 22.715194 6.313647
v 20.326186 -1.274524 11.643304
v 18.992337 20.045538 7.646975
v 8.330936 17.380840 6.313647
v 12.331310 2.723762 14.309959
v 16.325813 4.057351 12.976632
v 14.994312 -1.274524 14.309959
v 12.331310 10.722814 11.643304
v 12.331310 21.381606 4.980320
v 18.992337 24.048782 4.980320
v 18.992337 0.059064 12.976632
v 10.997461 13.387512 4.980320
v 20.326186 13.387512 8.979389
v 10.997461 6.724527 12.976632
f 1409 1417 1423 
f 1393 1394 1395 
f 1396 1394 1397 
f 1393 1395 1398 
f 1395 1394 1400 
f 1398 1395 1401 
f 1397 1394 1403 
f 1398 1397 1403 
f 1401 1395 1404 
f 1399 1402 1405 
f 1398 1401 1406 
f 1405 1392 1406 
f 1401 1405 1406 
f 1394 1393 1407 
f 1393 1398 1407 
f 1398 1403 1407 
f 1397 1398 1408 
f 1392 1405 1408 
f 1405 1402 1408 
f 1402 1399 1409 
f 1396 1397 1410 
f 1397 1402 1410 
f 1394 1396 1411 
f 1400 1394 1411 
f 1396 1400 1411 
f 1402 1409 1412 
f 1410 1402 1412 
f 1392 1398 1413 
f 1406 1392 1413 
f 1398 1406 1413 
f 1401 1404 1414 
f 1409 1401 1414 
f 1404 1409 1414 
f 1404 1396 1415 
f 1409 1404 1415 
f 1396 1412 1415 
f 1412 1409 1415 
f 1395 1400 1416 
f 1404 1395 1416 
f 1400 1404 1416 
f 1399 1405 1417 
f 1405 1401 1417 
f 1409 1399 1417 
f 1398 1392 1418 
f 1392 1408 1418 
f 1408 1398 1418 
f 1402 1397 1419 
f 1397 1408 1419 
f 1408 1402 1419 
f 1400 1396 1420 
f 1404 1400 1420 
f 1396 1404 1420 
f 1403 1394 1421 
f 1394 1407 1421 
f 1407 1403 1421 
f 1396 1410 1422 
f 1412 1396 1422 
f 1410 1412 1422 
f 1401 1409 1423 
f 1417 1401 1423 
o convex_45
v 9.663742 94.687218 -9.680542
v 9.663742 84.025034 -28.339820
v 5.665325 85.360905 -28.339820
v 12.328309 84.025034 -9.680542
v 2.999714 94.685913 -9.680542
v 10.996547 86.691559 -28.339820
v 2.999714 89.358083 -28.339820
v 6.998131 97.352438 -11.013869
v 2.999714 86.692863 -25.673165
v 13.662159 85.359601 -23.008337
v 13.662159 88.024821 -9.680542
v 2.999714 97.352438 -11.013869
v 10.996547 93.352651 -12.347196
v 2.999714 90.688736 -15.012025
v 13.662159 84.025034 -23.008337
v 13.662159 84.025034 -9.680542
v 10.996547 90.688736 -20.338029
v 8.330936 88.026125 -28.339820
v 12.328309 85.359601 -28.339820
v 2.999714 97.352438 -9.680542
v 13.662159 88.024821 -15.012025
v 2.999714 92.021998 -12.347196
v 2.999714 89.358083 -17.680506
v 4.333563 89.358083 -28.339820
v 12.328309 84.025034 -28.339820
v 2.999714 86.692863 -28.339820
v 9.663742 84.025034 -24.339838
v 6.998131 97.352438 -9.680542
v 5.665325 85.360905 -27.006492
v 10.996547 93.352651 -9.680542
v 8.330936 96.017871 -12.347196
v 12.328309 86.691559 -25.673165
f 1442 1440 1455 
f 1427 1424 1428 
f 1425 1426 1429 
f 1429 1426 1430 
f 1428 1430 1432 
f 1424 1427 1434 
f 1430 1428 1435 
f 1431 1430 1435 
f 1431 1424 1436 
f 1428 1432 1437 
f 1427 1425 1438 
f 1433 1434 1438 
f 1438 1434 1439 
f 1434 1427 1439 
f 1427 1438 1439 
f 1436 1433 1440 
f 1429 1430 1441 
f 1431 1429 1441 
f 1425 1429 1442 
f 1433 1438 1442 
f 1429 1440 1442 
f 1428 1424 1443 
f 1435 1428 1443 
f 1431 1435 1443 
f 1434 1433 1444 
f 1433 1436 1444 
f 1436 1434 1444 
f 1427 1428 1445 
f 1437 1427 1445 
f 1428 1437 1445 
f 1432 1427 1446 
f 1427 1437 1446 
f 1437 1432 1446 
f 1430 1431 1447 
f 1441 1430 1447 
f 1431 1441 1447 
f 1438 1425 1448 
f 1425 1442 1448 
f 1442 1438 1448 
f 1430 1426 1449 
f 1426 1432 1449 
f 1432 1430 1449 
f 1426 1425 1450 
f 1425 1427 1450 
f 1424 1431 1451 
f 1443 1424 1451 
f 1431 1443 1451 
f 1432 1426 1452 
f 1427 1432 1452 
f 1426 1450 1452 
f 1450 1427 1452 
f 1424 1434 1453 
f 1436 1424 1453 
f 1434 1436 1453 
f 1429 1431 1454 
f 1431 1436 1454 
f 1440 1429 1454 
f 1436 1440 1454 
f 1440 1433 1455 
f 1433 1442 1455 
