o convex_0
v 6.466468 -3.681507 13.496879
v -7.081468 -4.810575 -11.342624
v -10.468452 -4.810575 -7.953209
v -7.081468 -0.294302 -9.083825
v 12.112252 -4.810575 -6.825025
v -12.727251 -4.810575 7.851095
v 6.466468 -0.294302 11.238079
v -11.596636 -0.294302 6.720480
v 7.594653 -0.294302 -7.953209
v -5.950852 -4.810575 13.496879
v 12.112252 -4.810575 6.720480
v 10.981637 -0.294302 4.461680
v 4.207669 -2.552438 -11.342624
v -12.727251 -2.552438 -3.438041
v -5.950852 -0.294302 11.238079
v 10.981637 -0.294302 -4.566225
v 5.335853 -4.810575 -11.342624
v -11.596636 -0.294302 -3.438041
v 6.466468 -4.810575 13.496879
v -7.081468 -2.552438 -11.342624
v 4.207669 -0.294302 -10.212009
v 12.112252 -2.552438 5.592296
v -12.727251 -4.810575 -4.566225
v -5.950852 -3.681507 13.496879
v 12.112252 -3.681507 -6.825025
v 6.466468 -1.423812 12.366264
v -12.727251 -3.681507 7.851095
v -5.950852 -0.294302 -10.212009
v 8.722837 -3.681507 11.238079
v -10.468452 -3.681507 -7.953209
v -10.468452 -3.681507 10.107464
v 12.112252 -2.552438 -5.696841
f 22 25 32 
f 3 2 5 
f 3 5 6 
f 7 4 8 
f 4 7 9 
f 6 5 10 
f 10 5 11 
f 9 7 12 
f 7 8 15 
f 9 12 16 
f 5 2 17 
f 2 13 17 
f 8 4 18 
f 14 8 18 
f 1 10 19 
f 10 11 19 
f 2 3 20 
f 13 2 20 
f 18 4 20 
f 4 9 21 
f 11 5 22 
f 12 7 22 
f 16 12 22 
f 3 6 23 
f 6 14 23 
f 10 1 24 
f 5 17 25 
f 17 13 25 
f 21 9 25 
f 13 21 25 
f 22 5 25 
f 7 15 26 
f 22 7 26 
f 24 1 26 
f 15 24 26 
f 14 6 27 
f 8 14 27 
f 13 20 28 
f 20 4 28 
f 4 21 28 
f 21 13 28 
f 1 19 29 
f 19 11 29 
f 11 22 29 
f 26 1 29 
f 22 26 29 
f 14 18 30 
f 20 3 30 
f 18 20 30 
f 3 23 30 
f 23 14 30 
f 6 10 31 
f 15 8 31 
f 10 24 31 
f 24 15 31 
f 27 6 31 
f 8 27 31 
f 9 16 32 
f 16 22 32 
f 25 9 32 
o convex_1
v -4.822336 -0.294302 -10.213556
v 8.723500 8.738245 -3.439146
v 9.854116 6.480108 -3.439146
v 3.078711 0.835651 -10.213556
v 8.723500 -0.294302 -3.439146
v -5.951294 5.351040 -7.954977
v 4.207669 8.738245 -7.954977
v -7.081910 -0.294302 -7.954977
v 5.338284 8.738245 -3.439146
v 8.723500 -0.294302 -6.826351
v -5.951294 5.351040 -9.084267
v 9.854116 6.480108 -4.569099
v 1.949753 8.738245 -6.826351
v 9.854116 -0.294302 -5.697725
v 5.338284 6.480108 -3.439146
v 3.078711 -0.294302 -10.213556
v 5.336626 0.835651 -9.084267
v 9.854116 -0.294302 -3.439146
v 7.594542 0.834767 -3.439146
v -7.081910 0.835651 -9.084267
v -4.822336 0.835651 -10.213556
v 8.723500 8.738245 -4.569099
v 3.078711 5.351040 -9.084267
v 8.723500 0.834767 -6.826351
v 1.949753 8.738245 -7.954977
v -7.081910 0.835651 -7.954977
v 4.207669 4.221972 -9.084267
v -7.081910 -0.294302 -9.084267
v 9.854116 1.963835 -5.697725
v 5.336626 -0.294302 -9.084267
v 8.723500 5.350156 -5.697725
f 56 59 63 
f 35 34 37 
f 33 37 40 
f 37 34 41 
f 34 39 41 
f 37 33 42 
f 34 35 44 
f 38 41 45 
f 41 39 45 
f 43 38 45 
f 37 42 46 
f 44 35 46 
f 41 40 47 
f 37 41 47 
f 33 36 48 
f 42 33 48 
f 48 36 49 
f 35 37 50 
f 46 35 50 
f 37 46 50 
f 40 37 51 
f 37 47 51 
f 47 40 51 
f 38 43 52 
f 52 43 53 
f 36 33 53 
f 43 36 53 
f 33 52 53 
f 39 34 54 
f 34 44 54 
f 44 39 54 
f 39 36 55 
f 36 43 55 
f 43 39 55 
f 46 42 56 
f 42 49 56 
f 39 43 57 
f 45 39 57 
f 43 45 57 
f 41 38 58 
f 40 41 58 
f 52 40 58 
f 38 52 58 
f 36 39 59 
f 49 36 59 
f 56 49 59 
f 33 40 60 
f 52 33 60 
f 40 52 60 
f 44 46 61 
f 56 44 61 
f 46 56 61 
f 42 48 62 
f 49 42 62 
f 48 49 62 
f 39 44 63 
f 44 56 63 
f 59 39 63 
o convex_2
v 3.078821 41.479349 13.496879
v -5.952841 41.479349 11.238743
v -5.952841 41.479349 12.367811
v -3.693931 30.190544 12.367811
v 4.208774 31.321491 11.238743
v 4.208774 49.380948 11.238743
v -4.822889 49.380948 13.496879
v 4.208774 49.380948 13.496879
v -5.952841 49.380948 11.238743
v 4.208774 31.321491 12.367811
v -3.693931 30.190544 11.238743
v -3.693931 39.224969 13.496879
v 1.949863 30.190544 12.367811
v -4.822889 33.579627 12.367811
v -4.822889 43.737485 13.496879
v -5.952841 49.380948 12.367811
v 1.949863 30.190544 11.238743
v 4.208774 44.866554 13.496879
v -4.822889 33.579627 11.238743
v -2.563979 39.224969 13.496879
f 75 76 83 
f 68 65 69 
f 69 70 71 
f 68 69 71 
f 70 64 71 
f 65 66 72 
f 69 65 72 
f 70 69 72 
f 68 71 73 
f 65 68 74 
f 64 70 75 
f 73 64 76 
f 68 73 76 
f 67 74 76 
f 75 67 76 
f 74 67 77 
f 67 75 77 
f 77 75 78 
f 70 66 78 
f 75 70 78 
f 66 77 78 
f 66 70 79 
f 72 66 79 
f 70 72 79 
f 74 68 80 
f 68 76 80 
f 76 74 80 
f 71 64 81 
f 64 73 81 
f 73 71 81 
f 66 65 82 
f 65 74 82 
f 77 66 82 
f 74 77 82 
f 64 75 83 
f 76 64 83 
o convex_3
v 3.078711 49.384706 11.238743
v 1.950306 68.574005 19.142221
v 3.079263 69.707936 16.883974
v -1.436568 56.160442 13.496990
v 1.950306 66.320068 11.238743
v -1.436568 61.802247 19.142221
v 4.208774 49.384706 13.496990
v -1.436568 49.384706 12.368253
v 4.208774 66.320068 11.238743
v 0.821900 68.574005 15.754463
v 1.950306 61.802247 19.142221
v -1.436568 50.516648 14.626500
v -1.436568 64.058174 18.012711
v 4.208774 49.384706 11.238743
v 1.950306 69.707936 14.626500
v 0.821900 68.574005 19.142221
v 4.208774 66.320068 12.368253
v 0.821900 50.516648 14.626500
v -1.436568 62.930210 16.883974
v 3.079263 58.420347 16.883974
v 1.950306 56.160442 11.238743
v 4.208774 57.292384 13.496990
v -1.436568 51.646600 12.368253
v 3.079263 69.707936 14.626500
v -1.436568 49.384706 13.496990
v -1.436568 64.058174 19.142221
v 1.950306 69.707936 16.883974
v -1.436568 60.678263 15.754463
f 102 88 111 
f 89 87 91 
f 84 90 91 
f 84 88 92 
f 86 85 94 
f 85 89 94 
f 89 91 95 
f 94 89 95 
f 87 89 96 
f 90 84 97 
f 84 92 97 
f 92 90 97 
f 92 88 98 
f 88 93 98 
f 98 93 99 
f 85 86 99 
f 89 85 99 
f 93 96 99 
f 92 86 100 
f 90 92 100 
f 90 94 101 
f 95 90 101 
f 94 95 101 
f 93 88 102 
f 87 96 102 
f 96 93 102 
f 90 86 103 
f 86 94 103 
f 94 90 103 
f 88 84 104 
f 84 91 104 
f 91 88 104 
f 86 90 105 
f 100 86 105 
f 90 100 105 
f 87 88 106 
f 88 91 106 
f 91 87 106 
f 86 92 107 
f 98 86 107 
f 92 98 107 
f 91 90 108 
f 90 95 108 
f 95 91 108 
f 96 89 109 
f 89 99 109 
f 99 96 109 
f 86 98 110 
f 98 99 110 
f 99 86 110 
f 88 87 111 
f 87 102 111 
o convex_4
v -7.081910 66.320731 19.142884
v -2.565636 86.643961 25.916631
v -4.823773 86.643961 25.916631
v -5.951957 78.738272 14.625948
v -3.695147 76.482346 14.625948
v -7.081910 82.122162 25.916631
v -5.952841 69.712578 23.657610
v -2.565636 78.738272 20.272394
v -7.081910 77.608320 14.625948
v -5.952841 66.320731 19.142884
v -7.081910 68.580636 15.755458
v -7.081910 75.358362 25.916631
v -3.695147 78.738272 14.625948
v -2.565636 84.382067 25.916631
v -4.823773 86.643961 24.786015
v -2.565636 86.643961 24.786015
v -5.951957 68.580636 15.755458
v -7.081910 71.968504 14.625948
v -2.565636 80.998177 23.657610
v -5.952841 66.320731 20.271289
v -2.565636 80.998177 19.142884
v -7.081910 69.712578 23.657610
v -5.952841 75.358362 25.916631
v -7.081910 82.122162 24.786015
v -2.565636 78.738272 19.142884
v -5.951957 71.968504 14.625948
v -2.565636 82.122162 24.786015
v -7.081910 66.320731 20.271289
f 131 133 139 
f 113 114 117 
f 115 116 120 
f 112 117 120 
f 112 120 122 
f 121 112 122 
f 113 117 123 
f 117 112 123 
f 116 115 124 
f 119 113 125 
f 113 123 125 
f 114 113 126 
f 117 114 126 
f 115 120 126 
f 124 115 126 
f 124 126 127 
f 113 119 127 
f 126 113 127 
f 116 121 128 
f 121 122 128 
f 128 122 129 
f 120 116 129 
f 122 120 129 
f 119 125 130 
f 112 121 131 
f 119 130 131 
f 116 124 132 
f 124 127 132 
f 127 119 132 
f 123 112 133 
f 131 118 133 
f 118 125 134 
f 125 123 134 
f 123 133 134 
f 133 118 134 
f 120 117 135 
f 117 126 135 
f 126 120 135 
f 121 116 136 
f 131 121 136 
f 119 131 136 
f 116 132 136 
f 132 119 136 
f 116 128 137 
f 128 129 137 
f 129 116 137 
f 125 118 138 
f 130 125 138 
f 118 131 138 
f 131 130 138 
f 112 131 139 
f 133 112 139 
o convex_5
v -18.372041 170.189825 25.917847
v -4.823773 144.229100 48.497998
v -5.954831 144.229100 48.497998
v -4.823773 130.677627 45.109467
v -24.017935 173.573383 28.176094
v -14.984504 173.573383 29.306378
v -4.823773 146.491989 38.334725
v -8.211310 136.324074 48.497998
v -19.499341 174.706982 32.694909
v -11.598846 145.358389 37.204441
v -4.823773 139.711942 39.462688
v -7.082131 131.811227 48.497998
v -17.242862 174.706982 25.917847
v -4.823773 148.750567 42.851220
v -14.984504 173.573383 31.564625
v -21.759577 174.706982 31.564625
v -22.888756 172.448403 25.917847
v -8.211310 140.841231 48.497998
v -10.469667 140.845542 40.592972
v -17.242862 174.706982 32.694909
v -10.469667 146.491989 36.076478
v -4.823773 130.677627 48.497998
v -21.759577 174.706982 24.787563
v -22.888756 172.448403 30.434341
v -7.082131 148.750567 36.076478
v -5.954831 130.677627 45.109467
v -4.823773 148.750567 39.462688
v -19.499341 162.284799 31.564625
v -19.499341 165.668357 28.176094
v -12.729904 156.638352 31.564625
v -20.630398 173.573383 32.694909
v -8.211310 139.711942 39.462688
f 165 149 171 
f 141 143 146 
f 141 142 147 
f 142 141 148 
f 146 143 150 
f 141 147 151 
f 147 144 151 
f 145 146 152 
f 141 146 153 
f 145 152 154 
f 141 153 154 
f 153 145 154 
f 148 152 155 
f 147 142 157 
f 148 141 159 
f 152 148 159 
f 141 154 159 
f 154 152 159 
f 143 141 161 
f 141 151 161 
f 152 140 162 
f 144 155 162 
f 155 152 162 
f 140 156 162 
f 156 144 162 
f 144 147 163 
f 155 144 163 
f 147 157 163 
f 157 155 163 
f 146 150 164 
f 140 152 164 
f 152 146 164 
f 150 143 165 
f 158 149 165 
f 151 158 165 
f 143 161 165 
f 161 151 165 
f 146 145 166 
f 145 153 166 
f 153 146 166 
f 151 144 167 
f 156 149 167 
f 144 156 167 
f 149 158 167 
f 158 151 167 
f 156 140 168 
f 149 156 168 
f 160 149 168 
f 160 168 169 
f 150 160 169 
f 140 164 169 
f 164 150 169 
f 168 140 169 
f 142 148 170 
f 148 155 170 
f 157 142 170 
f 155 157 170 
f 149 160 171 
f 160 150 171 
f 150 165 171 
o convex_6
v -18.372593 175.849534 25.916631
v -35.308618 219.865186 13.498758
v -33.047387 209.703902 15.757337
v -26.278614 193.912196 25.916631
v -31.920087 228.899280 11.238743
v -19.504867 195.039386 25.916631
v -35.308618 230.026469 14.626611
v -24.020698 176.976723 23.656616
v -26.278614 180.363818 25.916631
v -24.020698 187.138007 20.270184
v -18.372593 175.849534 24.787342
v -34.178003 223.252280 11.238743
v -33.047387 210.836618 19.140895
v -31.920087 228.899280 14.626611
v -19.504867 195.039386 24.787342
v -31.920087 223.252280 11.238743
v -35.308618 230.026469 11.238743
v -27.402598 188.265197 25.916631
v -33.047387 219.865186 18.014479
v -26.278614 184.878102 21.398037
v -30.791129 198.426480 21.398037
v -22.890082 174.716819 25.916631
v -35.308618 219.865186 15.757337
v -20.633824 175.849534 23.656616
v -26.278614 180.363818 24.787342
v -33.047387 230.026469 14.626611
v -35.308618 220.997901 12.368032
v -33.047387 213.090997 19.140895
v -18.372593 178.103913 24.787342
v -24.020698 195.039386 25.916631
v -33.047387 231.159185 11.238743
v -25.149656 187.138007 20.270184
f 181 195 203 
f 175 172 177 
f 172 175 180 
f 177 176 185 
f 176 177 186 
f 182 181 187 
f 183 176 187 
f 181 183 187 
f 173 178 188 
f 176 183 188 
f 180 175 189 
f 173 174 192 
f 180 189 192 
f 189 184 192 
f 172 180 193 
f 182 172 193 
f 178 173 194 
f 173 192 194 
f 192 184 194 
f 181 182 195 
f 193 179 195 
f 182 193 195 
f 174 191 196 
f 191 179 196 
f 192 174 196 
f 180 192 196 
f 193 180 196 
f 179 193 196 
f 177 185 197 
f 190 177 197 
f 178 190 197 
f 174 173 198 
f 173 188 198 
f 188 183 198 
f 191 174 198 
f 183 191 198 
f 189 175 199 
f 184 189 199 
f 175 190 199 
f 190 178 199 
f 178 194 199 
f 194 184 199 
f 177 172 200 
f 172 182 200 
f 176 186 200 
f 186 177 200 
f 182 187 200 
f 187 176 200 
f 175 177 201 
f 190 175 201 
f 177 190 201 
f 185 176 202 
f 176 188 202 
f 188 178 202 
f 197 185 202 
f 178 197 202 
f 183 181 203 
f 179 191 203 
f 191 183 203 
f 195 179 203 
o convex_7
v 17.756710 222.122769 18.014147
v 8.725047 239.062331 18.014147
v 8.725047 239.062331 20.270958
v 14.370389 192.776386 21.399363
v 18.886220 209.721363 22.529426
v 16.628305 202.946622 18.014147
v 12.112473 243.578825 20.270958
v 10.984068 244.710657 16.884084
v 20.015731 199.551128 21.399363
v 14.370389 192.776386 22.529426
v 14.370389 214.232442 16.884084
v 12.112473 235.677668 21.399363
v 8.725047 240.188747 16.884084
v 18.886220 205.199454 18.014147
v 16.628305 223.254600 16.884084
v 8.725047 248.100735 19.142553
v 18.886220 193.913633 22.529426
v 16.628305 225.518263 21.399363
v 14.370389 211.974195 22.529426
v 18.886220 196.166465 20.270958
v 14.370389 206.325869 18.014147
v 18.886220 215.358858 18.014147
v 13.243089 240.188747 18.014147
v 8.725047 245.837073 20.270958
v 18.886220 214.232442 21.399363
v 20.015731 201.814790 22.529426
v 13.243089 235.677668 21.399363
v 14.370389 234.551252 16.884084
v 8.725047 245.837073 16.884084
v 9.854558 248.100735 18.014147
v 15.497689 198.424712 19.142553
v 17.756710 214.232442 22.529426
f 230 215 235 
f 206 205 213 
f 205 207 213 
f 205 206 216 
f 207 205 216 
f 211 214 216 
f 209 214 217 
f 217 214 218 
f 214 211 218 
f 216 206 219 
f 213 207 220 
f 208 213 220 
f 206 213 222 
f 213 208 222 
f 209 217 223 
f 217 212 223 
f 220 207 223 
f 212 220 223 
f 214 209 224 
f 207 216 224 
f 216 214 224 
f 212 217 225 
f 217 218 225 
f 218 204 225 
f 221 204 226 
f 210 221 226 
f 210 219 227 
f 219 206 227 
f 206 222 227 
f 222 215 227 
f 204 221 228 
f 221 208 228 
f 225 204 228 
f 225 228 229 
f 208 220 229 
f 220 212 229 
f 212 225 229 
f 228 208 229 
f 221 210 230 
f 210 227 230 
f 227 215 230 
f 204 218 231 
f 218 211 231 
f 211 226 231 
f 226 204 231 
f 211 216 232 
f 216 219 232 
f 232 219 233 
f 219 210 233 
f 210 226 233 
f 226 211 233 
f 211 232 233 
f 223 207 234 
f 209 223 234 
f 207 224 234 
f 224 209 234 
f 208 221 235 
f 222 208 235 
f 215 222 235 
f 221 230 235 
o convex_8
v 18.886662 197.289234 25.916631
v 6.466910 172.458240 30.432904
v 7.596310 171.327735 30.432904
v 13.239663 189.393933 22.529426
v 15.497247 208.583343 23.658494
v 6.466910 181.491339 31.561973
v 12.113910 173.588745 31.561973
v 18.886662 192.770861 22.529426
v 13.239663 183.748702 31.561973
v 7.596310 184.875560 28.174768
v 14.370278 205.191828 22.529426
v 18.886662 206.318686 22.529426
v 10.983294 173.588745 29.303836
v 18.886662 192.770861 25.916631
v 17.756047 208.583343 23.658494
v 8.725710 183.748702 31.561973
v 16.627863 189.393933 22.529426
v 6.466910 175.846108 29.303836
v 6.466910 172.458240 31.561973
v 14.370278 179.233976 28.174768
v 17.756047 197.289234 27.045699
v 13.239663 176.972966 31.561973
v 10.983294 183.748702 24.787563
v 13.239663 195.031871 22.529426
v 17.756047 188.263428 25.916631
v 15.497247 208.583343 22.529426
v 9.856326 171.327735 31.561973
v 16.627863 186.006065 24.787563
v 18.886662 206.318686 23.658494
v 12.113910 173.588745 30.432904
v 6.466910 180.360834 29.303836
v 10.983294 175.846108 28.174768
f 258 252 267 
f 241 242 244 
f 243 239 246 
f 236 243 247 
f 243 246 247 
f 243 236 249 
f 236 244 249 
f 240 244 250 
f 240 241 251 
f 244 240 251 
f 241 244 251 
f 239 243 252 
f 237 241 253 
f 237 238 254 
f 241 237 254 
f 242 241 254 
f 244 236 256 
f 250 244 256 
f 244 242 257 
f 249 244 257 
f 238 237 258 
f 239 252 258 
f 237 253 258 
f 253 239 258 
f 246 239 259 
f 245 246 259 
f 239 253 259 
f 243 249 260 
f 242 255 260 
f 257 242 260 
f 249 257 260 
f 241 240 261 
f 245 241 261 
f 246 245 261 
f 247 246 261 
f 240 250 261 
f 250 247 261 
f 238 248 262 
f 254 238 262 
f 242 254 262 
f 252 243 263 
f 248 252 263 
f 243 260 263 
f 260 255 263 
f 236 247 264 
f 247 250 264 
f 256 236 264 
f 250 256 264 
f 255 242 265 
f 262 248 265 
f 242 262 265 
f 248 263 265 
f 263 255 265 
f 241 245 266 
f 253 241 266 
f 245 259 266 
f 259 253 266 
f 248 238 267 
f 252 248 267 
f 238 258 267 
o convex_9
v 6.465805 169.057220 31.561973
v 1.949974 152.130036 49.627066
v -2.564200 152.130036 49.627066
v 1.949974 141.968310 45.109025
v 12.112252 181.481834 32.691925
v -4.823773 143.101689 45.109025
v 5.336847 178.097171 31.561973
v 4.206232 141.968310 48.497114
v 10.981637 170.190598 31.561973
v -4.823773 147.615863 49.627066
v 7.594763 180.352324 33.823646
v 5.336847 151.008262 39.464567
v 12.112252 174.708640 33.823646
v -4.823773 143.101689 49.627066
v 1.953290 169.057220 39.464567
v 3.078932 147.615863 49.627066
v 4.206232 141.968310 45.109025
v 1.953290 163.421272 43.979072
v 1.953290 148.745373 40.594520
v 5.336847 170.190598 31.561973
v 12.112252 173.579130 31.561973
v -1.435242 158.907099 42.849120
v -4.823773 145.360710 45.109025
v 7.594763 181.481834 31.561973
v 0.821016 141.968310 49.627066
v 5.336847 145.360710 46.238977
v 0.822674 152.133904 39.464567
v 4.207890 175.834282 34.950062
v 12.112252 181.481834 31.561973
v 4.207890 173.579130 32.691925
v 3.082247 172.445751 34.950062
v 3.082247 163.421272 43.979072
f 278 285 299 
f 268 274 276 
f 269 270 277 
f 268 276 279 
f 269 277 281 
f 277 273 281 
f 277 270 282 
f 272 269 283 
f 280 272 283 
f 275 280 283 
f 269 281 283 
f 275 271 284 
f 279 276 284 
f 282 270 285 
f 278 282 285 
f 271 273 286 
f 268 279 286 
f 284 271 286 
f 279 284 286 
f 274 268 287 
f 276 274 288 
f 272 280 288 
f 284 276 288 
f 277 282 289 
f 273 277 290 
f 277 289 290 
f 278 272 291 
f 288 274 291 
f 273 271 292 
f 271 275 292 
f 281 273 292 
f 275 283 292 
f 283 281 292 
f 280 275 293 
f 275 284 293 
f 288 280 293 
f 284 288 293 
f 268 286 294 
f 286 273 294 
f 287 268 294 
f 273 287 294 
f 282 278 295 
f 289 282 295 
f 278 291 295 
f 291 274 295 
f 272 288 296 
f 291 272 296 
f 288 291 296 
f 287 273 297 
f 274 287 297 
f 273 290 297 
f 297 290 298 
f 290 289 298 
f 295 274 298 
f 289 295 298 
f 274 297 298 
f 270 269 299 
f 269 272 299 
f 272 278 299 
f 285 270 299 
o convex_10
v 30.175578 259.391419 57.531871
v 22.273867 188.260113 56.401587
v 23.404704 188.260113 56.401587
v 23.404704 199.553670 62.046818
v 25.661072 246.962936 55.272850
v 30.175578 236.804305 55.272850
v 26.790141 205.207411 60.917308
v 22.273867 216.487042 59.788571
v 27.917441 255.993604 58.658287
v 29.047393 255.993604 54.143340
v 22.273867 206.328411 55.272850
v 31.306414 250.346825 57.531871
v 29.047393 241.323120 59.788571
v 30.175578 243.579046 54.143340
v 22.273867 188.260113 60.917308
v 24.532888 190.529965 56.401587
v 27.917441 211.982153 57.531871
v 23.404704 196.169780 55.272850
v 25.661072 236.804305 54.143340
v 26.790141 254.872603 57.531871
v 23.404704 205.207411 62.046818
v 31.306414 254.872603 55.272850
v 23.404704 188.260113 60.917308
v 22.273867 211.982153 60.917308
v 27.917441 258.256493 55.272850
v 24.532888 239.060231 56.401587
v 24.532888 199.553670 62.046818
v 24.532888 189.395039 58.658287
v 25.661072 245.841935 58.658287
v 30.175578 254.872603 58.658287
v 26.790141 250.346825 54.143340
v 22.273867 215.366042 57.531871
f 325 310 331 
f 301 307 310 
f 306 311 312 
f 301 302 314 
f 307 301 314 
f 313 305 315 
f 305 311 316 
f 311 306 316 
f 315 305 316 
f 302 301 317 
f 301 310 317 
f 315 302 317 
f 313 315 317 
f 310 304 318 
f 309 313 318 
f 317 310 318 
f 313 317 318 
f 312 308 320 
f 314 303 320 
f 309 300 321 
f 311 305 321 
f 300 311 321 
f 305 313 321 
f 313 309 321 
f 314 302 322 
f 303 314 322 
f 307 314 323 
f 320 308 323 
f 314 320 323 
f 308 300 324 
f 300 309 324 
f 304 319 324 
f 319 308 324 
f 304 310 325 
f 319 304 325 
f 306 312 326 
f 320 303 326 
f 312 320 326 
f 303 322 326 
f 322 306 326 
f 302 315 327 
f 316 306 327 
f 315 316 327 
f 306 322 327 
f 322 302 327 
f 308 319 328 
f 307 323 328 
f 323 308 328 
f 325 307 328 
f 319 325 328 
f 300 308 329 
f 311 300 329 
f 308 312 329 
f 312 311 329 
f 318 304 330 
f 309 318 330 
f 304 324 330 
f 324 309 330 
f 310 307 331 
f 307 325 331 
o convex_11
v -9.340046 9.869192 -2.310078
v -8.210978 27.930528 7.851537
v -8.210978 27.930528 -0.051167
v -8.210978 8.740124 6.720590
v -9.340046 27.930528 7.851537
v -9.340046 12.127329 7.851537
v -8.210978 9.869192 -2.310078
v -9.340046 27.930528 -0.051167
v -8.210978 17.772671 -2.310078
v -9.340046 8.740124 6.720590
v -8.210978 12.127329 7.851537
v -9.340046 17.772671 -2.310078
v -8.210978 8.740124 1.078785
v -9.340046 24.543323 -1.180125
v -9.340046 8.740124 1.078785
v -8.210978 24.543323 -1.180125
f 343 345 347 
f 334 333 335 
f 333 334 336 
f 333 336 337 
f 336 332 337 
f 334 335 338 
f 332 336 339 
f 336 334 339 
f 338 332 340 
f 334 338 340 
f 335 337 341 
f 337 332 341 
f 335 333 342 
f 333 337 342 
f 337 335 342 
f 332 339 343 
f 340 332 343 
f 332 338 344 
f 338 335 344 
f 335 341 344 
f 339 334 345 
f 343 339 345 
f 341 332 346 
f 332 344 346 
f 344 341 346 
f 334 340 347 
f 340 343 347 
f 345 334 347 
o convex_12
v -9.340046 59.548983 7.850874
v -4.823773 76.481020 11.238743
v -4.823773 76.481020 10.104811
v -7.081910 26.803339 5.593953
v -4.823773 65.189754 1.077127
v -8.210536 26.803339 1.077127
v -8.210536 64.061600 2.207080
v -9.340046 67.446062 11.238743
v -5.953726 52.770333 11.238743
v -4.823773 56.164521 1.077127
v -8.210536 34.715006 7.850874
v -8.210536 71.958678 6.721917
v -7.081910 26.803339 1.077127
v -8.210536 53.903350 1.077127
v -9.340046 67.446062 6.721917
v -8.210536 52.770333 11.238743
v -8.210536 26.803339 5.593953
v -7.081468 75.348003 11.238743
v -7.081468 70.830524 4.465990
v -4.823773 56.164521 2.207080
v -9.340046 58.415967 10.107795
v -7.081468 65.189754 1.077127
v -4.823773 74.219849 6.721917
v -7.081468 75.348003 8.975853
v -4.823773 74.219849 11.238743
v -7.081910 34.715006 7.850874
v -8.210536 70.830524 5.593953
v -4.823773 67.450925 2.207080
v -5.953726 74.219849 6.721917
v -9.340046 61.805291 6.721917
v -5.953726 76.481020 10.104811
v -8.210536 71.958678 11.238743
f 365 359 379 
f 350 349 352 
f 349 355 356 
f 352 349 357 
f 353 352 357 
f 351 353 360 
f 357 351 360 
f 353 357 360 
f 352 353 361 
f 354 361 362 
f 348 355 362 
f 355 359 362 
f 356 355 363 
f 358 356 363 
f 353 351 364 
f 351 358 364 
f 355 349 365 
f 356 351 367 
f 357 349 367 
f 351 357 367 
f 348 353 368 
f 355 348 368 
f 363 355 368 
f 358 363 368 
f 353 364 368 
f 364 358 368 
f 352 361 369 
f 361 354 369 
f 350 352 370 
f 359 365 371 
f 349 356 372 
f 356 367 372 
f 367 349 372 
f 351 356 373 
f 358 351 373 
f 356 358 373 
f 354 362 374 
f 362 359 374 
f 369 354 374 
f 366 369 374 
f 359 371 374 
f 352 369 375 
f 369 366 375 
f 370 352 375 
f 370 375 376 
f 350 370 376 
f 366 374 376 
f 374 371 376 
f 375 366 376 
f 353 348 377 
f 361 353 377 
f 362 361 377 
f 348 362 377 
f 349 350 378 
f 365 349 378 
f 371 365 378 
f 350 376 378 
f 376 371 378 
f 359 355 379 
f 355 365 379 
o convex_13
v -3.695147 49.384706 11.238743
v -5.951736 68.576678 19.142221
v -7.081689 73.092710 18.012711
v -8.210978 53.903058 12.369027
v -7.081689 69.704526 11.238743
v -1.437231 64.060647 19.142221
v -3.695147 49.384706 14.627274
v -1.436568 51.645042 12.369027
v -7.081689 64.060647 19.142221
v -8.210978 73.092710 18.012711
v -8.210978 69.704526 11.238743
v -7.081689 49.384706 11.238743
v -1.436568 49.384706 14.627274
v -2.566520 60.674784 19.142221
v -1.437231 62.928158 16.883974
v -7.081689 73.092710 14.626500
v -7.081689 49.384706 12.369027
v -8.210978 60.677105 15.754463
v -1.437231 58.421410 14.627274
v -8.210978 53.903058 11.238743
v -3.695147 60.674784 19.142221
v -8.210978 73.092710 14.626500
v -1.436568 49.384706 12.369027
v -1.437231 61.800311 19.142221
v -8.210978 68.576678 18.012711
v -3.695147 51.645042 11.238743
v -1.437231 64.060647 18.012711
v -7.081689 68.576678 19.142221
v -1.437231 58.421410 18.012711
v -1.436568 55.033226 13.496990
v -8.210978 58.419089 14.627274
v -1.436568 55.033226 14.627274
f 392 409 411 
f 382 381 385 
f 385 381 388 
f 381 382 389 
f 384 380 390 
f 383 389 390 
f 380 386 391 
f 390 380 391 
f 386 380 392 
f 385 388 393 
f 382 385 395 
f 389 382 395 
f 384 390 395 
f 386 388 396 
f 391 386 396 
f 383 391 396 
f 389 383 397 
f 396 388 397 
f 384 394 398 
f 383 390 399 
f 391 383 399 
f 390 391 399 
f 388 386 400 
f 386 392 400 
f 393 388 400 
f 392 393 400 
f 390 389 401 
f 389 395 401 
f 395 390 401 
f 380 387 402 
f 392 380 402 
f 387 392 402 
f 392 385 403 
f 385 393 403 
f 388 389 404 
f 389 397 404 
f 397 388 404 
f 380 384 405 
f 387 380 405 
f 384 387 405 
f 394 384 406 
f 395 385 406 
f 384 395 406 
f 388 381 407 
f 381 389 407 
f 389 388 407 
f 393 392 408 
f 392 403 408 
f 403 393 408 
f 387 384 409 
f 392 387 409 
f 384 398 409 
f 398 394 409 
f 406 385 409 
f 394 406 409 
f 383 396 410 
f 397 383 410 
f 396 397 410 
f 385 392 411 
f 409 385 411 
o convex_14
v -3.692936 92.294829 39.465451
v -1.436015 123.900012 55.272408
v 3.078821 123.903217 45.111456
v -5.952841 123.900012 47.372024
v 3.078821 95.682587 40.596509
v -1.436015 115.993107 39.465451
v 3.077827 120.509049 51.883877
v -5.952841 96.807566 40.596509
v 0.820906 103.583081 47.370477
v -4.822889 119.384070 53.010293
v 3.078821 111.480370 39.465451
v 4.208774 123.893602 49.629498
v -5.952841 103.583081 39.465451
v -3.692936 95.682587 42.852435
v -2.564973 123.903217 42.852435
v 0.820906 91.160235 39.465451
v -5.952841 123.900012 51.883877
v 1.948869 123.903217 42.852435
v -1.436015 108.095818 49.629498
v 4.208774 120.509049 45.111456
v -0.307058 122.768622 55.272408
v 0.820906 91.160235 40.596509
v -4.821894 109.224002 39.465451
v 3.078821 95.682587 39.465451
v -2.563979 122.768622 55.272408
v -3.693931 106.974044 48.498440
v -4.822889 123.900012 45.111456
v -4.821894 93.419808 40.596509
v -2.564973 101.326713 46.240967
v -0.308052 122.768622 41.724472
v 3.078821 123.903217 43.980398
v -1.436015 91.160235 40.596509
f 440 425 443 
f 416 418 420 
f 412 417 422 
f 414 413 423 
f 418 416 423 
f 417 412 424 
f 412 419 424 
f 419 415 424 
f 413 414 426 
f 412 422 427 
f 415 419 428 
f 419 421 428 
f 413 426 428 
f 426 415 428 
f 426 414 429 
f 423 416 431 
f 420 418 432 
f 423 413 432 
f 418 423 432 
f 430 420 432 
f 416 420 433 
f 417 424 434 
f 426 417 434 
f 427 422 435 
f 431 416 435 
f 422 431 435 
f 416 433 435 
f 433 427 435 
f 413 428 436 
f 428 421 436 
f 432 413 436 
f 430 432 436 
f 436 421 437 
f 430 436 437 
f 424 415 438 
f 415 426 438 
f 434 424 438 
f 426 434 438 
f 419 412 439 
f 421 419 439 
f 437 421 439 
f 425 437 439 
f 420 430 440 
f 433 420 440 
f 437 425 440 
f 430 437 440 
f 422 417 441 
f 417 426 441 
f 429 422 441 
f 426 429 441 
f 414 423 442 
f 429 414 442 
f 422 429 442 
f 431 422 442 
f 423 431 442 
f 412 427 443 
f 427 433 443 
f 439 412 443 
f 425 439 443 
f 433 440 443 
o convex_15
v -7.081026 27.932407 -3.438704
v 1.950637 30.190323 7.851537
v 1.950637 29.061697 7.851537
v 0.820685 30.189660 -5.697283
v -8.210978 31.319612 1.077127
v 0.820685 27.932407 -5.697283
v -3.693157 27.932407 5.592959
v -5.952068 31.319612 -4.567330
v 0.820685 31.319612 -3.438704
v -3.694152 30.190323 7.851537
v -8.210978 27.932407 1.077127
v -4.823110 27.932407 -5.697283
v 0.820685 27.932407 4.464332
v -8.210978 31.319612 -1.181451
v -3.694152 29.061697 7.851537
v -4.823110 30.189660 -5.697283
v 1.950637 30.190323 5.592959
v 0.820685 31.319612 -4.567330
v -8.210978 27.932407 -1.181451
v -7.081026 31.319612 1.077127
v 1.950637 29.061697 5.592959
v -7.081026 30.189660 -3.438704
v -1.437231 27.932407 5.592959
f 450 456 466 
f 444 449 450 
f 451 448 452 
f 446 445 453 
f 445 448 453 
f 444 450 454 
f 453 448 454 
f 449 444 455 
f 447 449 455 
f 449 446 456 
f 450 449 456 
f 448 451 457 
f 454 448 457 
f 450 446 458 
f 446 453 458 
f 454 450 458 
f 453 454 458 
f 451 447 459 
f 455 444 459 
f 447 455 459 
f 445 446 460 
f 449 447 460 
f 452 445 460 
f 452 460 461 
f 447 451 461 
f 451 452 461 
f 460 447 461 
f 444 454 462 
f 457 444 462 
f 454 457 462 
f 448 445 463 
f 445 452 463 
f 452 448 463 
f 446 449 464 
f 460 446 464 
f 449 460 464 
f 444 457 465 
f 457 451 465 
f 451 459 465 
f 459 444 465 
f 446 450 466 
f 456 446 466 
o convex_16
v -9.340046 -0.294302 7.851980
v 1.950637 8.738245 11.238743
v 1.950637 8.738245 10.109232
v 1.950637 -0.294302 11.238743
v -4.822005 7.609177 11.238743
v -5.952620 8.738245 6.722469
v -7.081026 -0.294302 6.722469
v -4.822005 -0.294302 11.238743
v -9.340046 7.609177 6.722469
v 1.950637 -0.294302 10.109232
v -5.952620 8.738245 10.109232
v -9.340046 7.609177 7.851980
v -7.081026 1.963835 10.109232
v -5.952620 3.093788 6.722469
v -9.340046 -0.294302 6.722469
v -8.210536 8.738245 6.722469
v -3.694705 8.738245 11.238743
v -7.081026 -0.294302 10.109232
v -8.210536 8.738245 7.851980
f 482 478 485 
f 469 468 470 
f 470 468 471 
f 468 469 472 
f 470 467 473 
f 467 470 474 
f 470 471 474 
f 472 473 475 
f 469 470 476 
f 472 469 476 
f 470 473 476 
f 468 472 477 
f 475 467 478 
f 471 477 478 
f 471 478 479 
f 474 471 479 
f 478 467 479 
f 473 472 480 
f 472 476 480 
f 476 473 480 
f 473 467 481 
f 467 475 481 
f 475 473 481 
f 472 475 482 
f 477 472 482 
f 475 478 482 
f 471 468 483 
f 477 471 483 
f 468 477 483 
f 467 474 484 
f 479 467 484 
f 474 479 484 
f 478 477 485 
f 477 482 485 
o convex_17
v -19.501662 231.160069 27.045699
v -16.114899 208.589753 32.691041
v -14.985388 215.361732 31.560978
v -16.114899 201.817774 28.175762
v -19.501662 201.817774 31.560978
v -18.372151 246.971667 29.304168
v -17.243525 244.708447 27.045699
v -19.501662 201.817774 28.175762
v -19.501662 239.063658 30.432573
v -14.985388 201.817774 29.304168
v -16.114899 235.677668 30.432573
v -19.501662 246.971667 27.045699
v -14.985388 218.752141 29.304168
v -18.372151 228.901269 31.560978
v -14.985388 204.072153 31.560978
v -17.243525 227.774079 27.045699
v -16.114899 227.774079 31.560978
v -17.243525 206.330953 32.691041
v -17.243525 240.190847 30.432573
v -16.114899 201.817774 31.560978
v -16.114899 236.804858 28.175762
v -17.243525 244.708447 29.304168
v -19.501662 246.971667 29.304168
v -19.501662 207.458143 31.560978
v -18.372151 246.971667 27.045699
v -17.243525 208.589753 32.691041
v -14.985388 218.752141 30.432573
v -16.114899 206.330953 32.691041
v -18.372151 227.774079 27.045699
v -14.985388 201.817774 30.432573
v -17.243525 228.901269 31.560978
v -16.114899 236.804858 29.304168
f 512 506 517 
f 490 486 493 
f 489 490 493 
f 486 490 494 
f 490 489 495 
f 492 486 497 
f 486 494 497 
f 488 495 498 
f 495 492 498 
f 488 487 500 
f 495 488 500 
f 486 492 501 
f 495 489 501 
f 492 495 501 
f 487 488 502 
f 488 496 502 
f 494 499 504 
f 502 496 504 
f 490 495 505 
f 503 490 505 
f 498 492 506 
f 492 491 507 
f 491 504 507 
f 504 496 507 
f 506 492 507 
f 491 497 508 
f 497 494 508 
f 504 491 508 
f 494 504 508 
f 494 490 509 
f 499 494 509 
f 490 503 509 
f 491 492 510 
f 492 497 510 
f 497 491 510 
f 503 487 511 
f 499 509 511 
f 509 503 511 
f 496 488 512 
f 488 498 512 
f 498 506 512 
f 500 487 513 
f 487 503 513 
f 505 500 513 
f 503 505 513 
f 493 486 514 
f 489 493 514 
f 486 501 514 
f 501 489 514 
f 495 500 515 
f 505 495 515 
f 500 505 515 
f 487 502 516 
f 504 499 516 
f 502 504 516 
f 511 487 516 
f 499 511 516 
f 507 496 517 
f 506 507 517 
f 496 512 517 
o convex_18
v -16.114457 141.972842 59.792623
v -25.145235 167.936882 76.724707
v -26.275187 167.936882 76.724707
v -26.275187 167.936882 64.308111
v -11.598183 152.127494 59.792623
v -11.598183 139.713931 65.433999
v -26.275187 157.773278 69.949486
v -29.663277 166.802951 64.308111
v -11.598183 147.618626 56.403024
v -21.758914 167.933898 73.335107
v -22.888867 154.389388 73.335107
v -12.728136 138.585968 56.403024
v -11.598183 148.746589 65.433999
v -21.758914 167.927930 66.563865
v -14.986272 139.713931 63.178244
v -24.017051 163.416078 76.724707
v -27.403372 164.547025 75.592851
v -29.663277 167.936882 71.077364
v -28.533324 162.291099 66.563865
v -13.858088 145.359715 56.403024
v -11.598183 137.452037 57.532890
v -18.372593 156.642331 72.207230
v -21.758914 149.877536 68.819620
v -22.888867 167.933898 75.590862
v -11.598183 150.999531 64.306121
v -16.114457 147.618626 69.947497
v -17.242641 145.359715 68.817631
v -11.598183 149.874552 57.532890
v -29.663277 167.936882 64.308111
v -20.630730 166.799967 71.077364
v -21.758914 149.877536 66.563865
v -12.728136 137.452037 62.050367
f 544 532 549 
f 520 519 521 
f 522 523 526 
f 521 519 527 
f 518 525 529 
f 523 522 530 
f 521 527 531 
f 518 529 532 
f 519 520 533 
f 524 528 534 
f 533 520 534 
f 528 533 534 
f 520 521 535 
f 524 534 535 
f 534 520 535 
f 525 518 536 
f 524 535 536 
f 535 525 536 
f 529 525 537 
f 526 529 537 
f 526 523 538 
f 529 526 538 
f 523 530 539 
f 528 524 540 
f 527 519 541 
f 519 533 541 
f 539 530 541 
f 533 539 541 
f 530 522 542 
f 527 541 542 
f 541 530 542 
f 533 528 543 
f 523 539 543 
f 539 533 543 
f 528 540 544 
f 540 532 544 
f 523 543 544 
f 543 528 544 
f 526 521 545 
f 522 526 545 
f 521 531 545 
f 531 522 545 
f 521 526 546 
f 535 521 546 
f 525 535 546 
f 537 525 546 
f 526 537 546 
f 522 531 547 
f 531 527 547 
f 542 522 547 
f 527 542 547 
f 518 532 548 
f 536 518 548 
f 524 536 548 
f 540 524 548 
f 532 540 548 
f 532 529 549 
f 538 523 549 
f 529 538 549 
f 523 544 549 
o convex_19
v -34.178003 187.133144 51.886087
v -30.794113 183.748923 60.917750
v -33.052029 183.748923 60.917750
v -38.695823 204.063865 51.886087
v -33.052029 173.586645 57.530324
v -28.534208 181.489571 58.658729
v -35.307955 202.932586 50.756577
v -38.695823 195.029661 50.756577
v -34.178003 179.230218 60.917750
v -28.534208 171.327293 59.788239
v -34.178003 193.901587 50.756577
v -37.565871 189.386087 55.272408
v -28.534208 181.489571 60.917750
v -36.435918 202.932586 53.014492
v -31.923071 171.327293 60.917750
v -30.794113 179.230218 55.272408
v -35.307955 180.361497 54.144003
v -38.695823 202.932586 53.014492
v -37.565871 196.160939 49.627066
v -38.695823 204.063865 49.627066
v -34.178003 176.974071 59.788239
v -33.052029 193.901587 51.886087
v -36.435918 204.063865 49.627066
v -33.052029 176.974071 55.272408
v -28.534208 171.327293 60.917750
v -29.665156 179.230218 56.400813
v -35.307955 202.932586 51.886087
v -36.435918 189.386087 57.530324
v -37.565871 191.642234 50.756577
v -38.695823 195.029661 53.014492
v -36.435918 200.676439 54.144003
v -36.435918 196.160939 49.627066
f 578 568 581 
f 551 552 558 
f 555 556 562 
f 551 558 562 
f 559 555 562 
f 551 562 563 
f 554 559 564 
f 562 558 564 
f 550 560 565 
f 561 557 566 
f 553 557 567 
f 563 553 567 
f 557 553 569 
f 568 557 569 
f 558 561 570 
f 554 564 570 
f 564 558 570 
f 566 554 570 
f 561 566 570 
f 556 555 571 
f 553 563 572 
f 569 553 572 
f 568 569 572 
f 556 571 572 
f 571 560 572 
f 559 554 573 
f 550 565 573 
f 565 559 573 
f 566 550 573 
f 554 566 573 
f 559 562 574 
f 564 559 574 
f 562 564 574 
f 555 559 575 
f 559 565 575 
f 565 560 575 
f 571 555 575 
f 560 571 575 
f 562 556 576 
f 563 562 576 
f 572 563 576 
f 556 572 576 
f 558 552 577 
f 561 558 577 
f 552 567 577 
f 567 561 577 
f 550 566 578 
f 566 557 578 
f 557 568 578 
f 557 561 579 
f 567 557 579 
f 561 567 579 
f 552 551 580 
f 551 563 580 
f 567 552 580 
f 563 567 580 
f 560 550 581 
f 572 560 581 
f 568 572 581 
f 550 578 581 
o convex_20
v -25.147224 183.740745 77.852891
v -30.791461 167.938429 63.177876
v -31.920971 170.197008 60.920181
v -21.759798 169.069266 67.691607
v -28.533545 181.485260 60.920181
v -26.276735 167.938429 76.720728
v -33.050482 181.485260 62.049028
v -22.890414 183.740745 71.079807
v -29.661950 175.838814 73.335844
v -21.759798 167.938429 73.335844
v -28.533545 183.740745 75.593539
v -30.791461 169.069266 68.820455
v -27.405140 172.455587 60.920181
v -22.890414 183.740745 75.593539
v -24.018819 167.938429 76.720728
v -27.405140 179.226682 60.920181
v -33.050482 174.712618 63.177876
v -27.405140 167.938429 63.177876
v -27.405140 171.329391 76.722386
v -28.533545 183.740745 69.950960
v -33.050482 181.485260 60.920181
v -26.276735 173.586423 77.852891
v -21.759798 167.938429 67.691607
v -33.050482 179.226682 63.177876
v -29.661950 167.938429 71.079807
v -28.533545 169.070813 74.464691
v -26.276735 183.740745 77.852891
v -33.050482 173.583329 60.920181
v -28.533545 170.197008 60.920181
v -30.791461 167.938429 67.691607
v -22.890414 167.938429 75.593539
v -21.759798 170.200102 73.335844
f 595 591 613 
f 587 583 591 
f 582 589 592 
f 584 586 594 
f 589 582 595 
f 587 591 596 
f 589 585 597 
f 586 589 597 
f 585 594 597 
f 594 586 597 
f 593 590 598 
f 583 584 599 
f 591 583 599 
f 592 590 600 
f 589 586 601 
f 592 589 601 
f 588 592 601 
f 586 584 602 
f 598 588 602 
f 601 586 602 
f 588 601 602 
f 596 582 603 
f 587 596 603 
f 600 587 603 
f 592 600 603 
f 585 591 604 
f 594 585 604 
f 591 599 604 
f 592 588 605 
f 590 592 605 
f 588 598 605 
f 598 590 605 
f 583 587 606 
f 590 593 607 
f 587 600 607 
f 600 590 607 
f 606 587 607 
f 593 606 607 
f 582 592 608 
f 603 582 608 
f 592 603 608 
f 602 584 609 
f 598 602 609 
f 584 594 610 
f 599 584 610 
f 594 604 610 
f 604 599 610 
f 584 583 611 
f 593 598 611 
f 583 606 611 
f 606 593 611 
f 609 584 611 
f 598 609 611 
f 595 582 612 
f 591 595 612 
f 596 591 612 
f 582 596 612 
f 585 589 613 
f 591 585 613 
f 589 595 613 
o convex_21
v -24.018488 209.720524 77.853002
v -28.534208 183.743839 69.951844
v -24.018488 183.743839 69.951844
v -22.889751 240.189163 72.209649
v -22.888977 186.003907 76.722939
v -27.404698 195.038540 76.722939
v -20.630730 239.061947 75.594423
v -25.146451 232.287381 75.594423
v -20.630730 224.379964 72.209649
v -26.275187 183.743839 77.853775
v -28.534208 192.778473 71.081133
v -24.018488 236.801880 76.723712
v -22.888977 183.743839 71.081133
v -25.146451 232.287381 72.209649
v -28.534208 191.651257 74.465134
v -21.760240 220.992681 71.079586
v -27.404698 193.905688 69.951844
v -20.630730 239.061947 72.209649
v -20.630730 224.379964 75.594423
v -26.275187 199.558675 77.853002
v -21.760240 237.929096 76.723712
v -24.018488 187.131122 77.853775
v -28.534208 183.743839 74.465134
v -22.889751 241.322015 75.594423
v -24.018488 239.061947 72.209649
v -22.888977 183.743839 75.594423
v -21.760240 211.980591 76.723712
v -24.018488 196.165756 69.951844
v -21.760240 201.818742 74.465907
v -28.534208 193.905688 73.338938
v -25.146451 219.865465 71.079586
v -25.146451 226.640031 76.723712
f 633 625 645 
f 615 616 623 
f 623 616 626 
f 615 624 627 
f 624 615 628 
f 626 616 629 
f 622 626 629 
f 616 615 630 
f 615 627 630 
f 620 622 631 
f 629 617 631 
f 622 629 631 
f 622 620 632 
f 623 614 633 
f 619 623 633 
f 614 625 633 
f 625 614 634 
f 632 620 634 
f 614 623 635 
f 623 618 635 
f 634 614 635 
f 615 623 636 
f 623 619 636 
f 619 628 636 
f 628 615 636 
f 631 617 637 
f 620 631 637 
f 634 620 637 
f 625 634 637 
f 621 625 638 
f 627 621 638 
f 625 637 638 
f 637 617 638 
f 618 623 639 
f 623 626 639 
f 632 618 639 
f 618 632 640 
f 632 634 640 
f 634 635 640 
f 635 618 640 
f 629 616 641 
f 616 630 641 
f 626 622 642 
f 622 632 642 
f 639 626 642 
f 632 639 642 
f 627 624 643 
f 621 627 643 
f 628 621 643 
f 624 628 643 
f 617 629 644 
f 630 627 644 
f 627 638 644 
f 638 617 644 
f 629 641 644 
f 641 630 644 
f 625 621 645 
f 628 619 645 
f 621 628 645 
f 619 633 645 
o convex_22
v 5.337842 138.578785 48.497777
v -5.952841 123.903217 47.368488
v -5.952841 123.903217 48.497777
v 4.207227 123.906753 49.627066
v 1.949311 123.903217 42.852656
v -4.823331 135.192795 42.852656
v 0.822011 141.966542 49.627066
v 3.078821 141.966542 45.111235
v -5.952841 130.678732 48.497777
v -2.564310 123.903217 42.852656
v 4.207227 141.966542 49.627066
v 4.207227 123.906753 46.239861
v -0.308605 135.192795 42.852656
v 4.207227 141.966542 46.239861
v 5.337842 129.550658 49.627066
v 1.950416 123.906753 49.627066
v -4.823331 135.192795 45.111235
v 1.950416 141.966542 45.111235
v -4.823331 123.904985 45.111235
v 3.078821 126.162901 43.982609
v -4.823331 132.934879 42.852656
v -5.952841 130.678732 46.239861
v 5.337842 129.550658 48.497777
v 5.337842 138.578785 49.627066
v 0.822011 141.966542 48.497777
v 1.949311 125.034827 42.852656
v 3.078821 123.903217 43.982609
v 0.822011 140.834932 49.627066
v -5.952841 129.548890 46.239861
v 3.078821 123.903217 45.111235
v -4.823331 123.903217 48.497777
v -3.692715 123.903217 43.982609
f 664 655 677 
f 648 647 650 
f 647 648 654 
f 648 652 654 
f 650 647 655 
f 651 650 655 
f 652 649 656 
f 653 652 656 
f 650 651 658 
f 651 653 658 
f 656 646 659 
f 653 656 659 
f 656 649 660 
f 649 657 660 
f 648 649 661 
f 649 652 661 
f 652 651 662 
f 654 652 662 
f 653 651 663 
f 652 653 663 
f 653 659 665 
f 659 646 665 
f 651 655 666 
f 664 647 666 
f 655 664 666 
f 647 654 667 
f 662 651 667 
f 654 662 667 
f 651 666 667 
f 646 660 668 
f 660 657 668 
f 665 646 668 
f 646 656 669 
f 660 646 669 
f 656 660 669 
f 651 652 670 
f 663 651 670 
f 652 663 670 
f 650 658 671 
f 658 653 671 
f 665 650 671 
f 653 665 671 
f 648 650 672 
f 657 649 672 
f 650 665 672 
f 668 657 672 
f 665 668 672 
f 652 648 673 
f 648 661 673 
f 661 652 673 
f 666 647 674 
f 647 667 674 
f 667 666 674 
f 648 672 675 
f 672 649 675 
f 649 648 676 
f 648 675 676 
f 675 649 676 
f 655 647 677 
f 647 664 677 
o convex_23
v 12.112252 161.154847 57.529661
v 1.950637 135.193900 56.400592
v 1.950637 135.193900 57.529661
v 12.112252 143.102903 56.400592
v 1.950637 141.971957 49.627066
v 6.467463 135.193900 49.627066
v 12.112252 155.512821 51.886087
v 1.950637 144.226226 56.400592
v 10.982300 161.154847 54.144224
v 12.112252 146.488119 58.659613
v 10.982300 160.026442 58.659613
v 6.467463 135.193900 56.400592
v 12.112252 145.359714 51.886087
v 6.467463 147.616525 58.659613
v 3.080590 136.324847 49.627066
v 1.950637 144.226226 51.886087
v 7.596421 135.193900 51.886087
v 8.724384 141.974498 58.659613
v 1.950637 141.971957 57.529661
v 5.337511 141.971957 49.627066
v 12.112252 143.102903 53.016040
v 8.724384 137.458335 56.400592
v 10.982300 161.154847 57.529661
v 5.337511 135.193900 57.529661
v 1.950637 138.584199 49.627066
v 10.982300 158.898037 53.016040
v 12.112252 161.154847 54.144224
v 10.982300 141.974498 57.529661
v 4.209547 135.193900 49.627066
v 12.112252 160.026442 58.659613
v 6.467463 139.712605 49.627066
v 6.467463 143.102903 58.659613
f 695 691 709 
f 679 680 682 
f 680 679 683 
f 678 681 684 
f 682 680 685 
f 681 678 687 
f 680 683 689 
f 684 681 690 
f 683 684 690 
f 687 688 691 
f 682 683 692 
f 682 685 693 
f 686 682 693 
f 685 686 693 
f 689 683 694 
f 687 691 695 
f 685 680 696 
f 688 685 696 
f 680 691 696 
f 691 688 696 
f 683 682 697 
f 682 684 697 
f 690 681 698 
f 683 690 698 
f 694 683 698 
f 681 694 698 
f 689 694 699 
f 694 681 699 
f 686 685 700 
f 678 686 700 
f 685 688 700 
f 688 678 700 
f 680 689 701 
f 695 680 701 
f 689 699 701 
f 679 682 702 
f 692 679 702 
f 682 692 702 
f 684 682 703 
f 682 686 703 
f 703 686 704 
f 678 684 704 
f 686 678 704 
f 684 703 704 
f 681 687 705 
f 687 695 705 
f 699 681 705 
f 695 701 705 
f 701 699 705 
f 683 679 706 
f 679 692 706 
f 692 683 706 
f 687 678 707 
f 678 688 707 
f 688 687 707 
f 684 683 708 
f 683 697 708 
f 697 684 708 
f 691 680 709 
f 680 695 709 
o convex_24
v 17.757594 183.735108 60.917750
v 12.112252 145.355515 53.015156
v 13.241763 145.355515 53.015156
v 18.885999 196.163591 55.272408
v 23.402936 182.606150 56.401476
v 15.499678 154.397125 59.787797
v 12.112252 165.686703 58.658729
v 22.273425 196.163591 60.917750
v 12.112252 154.397125 51.885203
v 22.273425 196.163591 55.272408
v 17.757594 155.526083 54.144224
v 22.273425 178.090319 59.787797
v 18.885999 196.163591 59.787797
v 12.112252 148.752336 58.658729
v 12.112252 164.557745 54.144224
v 16.629189 155.526083 53.015156
v 20.015510 173.574488 60.917750
v 16.629189 153.268167 57.527892
v 13.241763 153.268167 59.787797
v 13.241763 145.355515 56.401476
v 23.402936 188.255913 59.787797
v 20.015510 170.192588 54.144224
v 13.241763 148.752336 51.885203
v 20.015510 165.686703 57.527892
v 17.757594 157.783998 58.658729
v 13.241763 165.686703 59.787797
v 18.885999 191.647760 60.917750
v 22.273425 183.735108 60.917750
v 21.143915 170.192588 55.272408
v 20.015510 180.348235 54.144224
v 22.273425 179.219277 55.272408
v 12.112252 165.686703 55.272408
f 724 716 741 
f 711 716 718 
f 713 717 719 
f 718 713 719 
f 713 716 722 
f 717 713 722 
f 716 711 723 
f 713 718 724 
f 718 716 724 
f 720 712 725 
f 717 710 726 
f 723 715 728 
f 716 723 728 
f 726 710 728 
f 715 726 728 
f 711 712 729 
f 712 720 729 
f 723 711 729 
f 715 723 729 
f 720 727 729 
f 727 715 729 
f 719 717 730 
f 714 719 730 
f 721 714 730 
f 731 725 732 
f 712 711 732 
f 711 718 732 
f 725 712 732 
f 726 715 734 
f 721 726 734 
f 727 720 734 
f 715 727 734 
f 720 733 734 
f 733 721 734 
f 728 710 735 
f 716 728 735 
f 710 717 736 
f 722 716 736 
f 717 722 736 
f 735 710 736 
f 716 735 736 
f 717 726 737 
f 726 721 737 
f 730 717 737 
f 721 730 737 
f 714 721 738 
f 720 725 738 
f 725 731 738 
f 733 720 738 
f 721 733 738 
f 718 719 739 
f 719 731 739 
f 731 732 739 
f 732 718 739 
f 719 714 740 
f 731 719 740 
f 714 738 740 
f 738 731 740 
f 716 713 741 
f 713 724 741 
o convex_25
v 15.499457 202.947063 53.013608
v 5.337842 237.934368 47.369814
v 5.337842 237.934368 48.499766
v 8.725710 243.579821 48.499766
v 14.368510 209.720700 56.401476
v 15.499457 217.622521 50.757682
v 8.725710 235.673469 46.239861
v 10.982631 213.105253 49.627729
v 12.111589 208.587985 54.141571
v 5.337842 246.964373 48.499766
v 15.499457 214.233437 55.271524
v 15.499457 206.331616 50.757682
v 7.596752 246.964373 46.239861
v 7.596752 225.524341 50.757682
v 5.337842 239.062553 46.239861
v 14.368510 204.075248 56.401476
v 7.596752 246.964373 48.499766
v 13.239552 205.203432 51.883656
v 8.725710 225.524341 47.369814
v 8.725710 221.007073 48.499766
v 5.337842 249.229804 46.239861
v 10.982631 231.160732 47.369814
v 15.499457 217.622521 53.013608
v 14.368510 211.977068 49.627729
v 15.499457 204.075248 56.401476
v 9.854668 215.361621 50.757682
v 8.725710 226.643464 51.883656
v 6.468789 242.447105 49.627729
v 15.499457 209.720700 56.401476
v 12.111589 217.622521 48.499766
v 14.368510 202.947063 55.271524
v 8.725710 241.318921 46.239861
f 763 748 773 
f 743 744 751 
f 742 747 752 
f 747 742 753 
f 745 747 754 
f 744 743 755 
f 751 744 755 
f 743 751 756 
f 754 748 756 
f 755 750 757 
f 745 754 758 
f 753 742 759 
f 749 753 759 
f 756 748 760 
f 756 760 761 
f 755 743 761 
f 743 756 761 
f 760 749 761 
f 756 751 762 
f 754 756 762 
f 751 758 762 
f 758 754 762 
f 747 745 764 
f 752 747 764 
f 758 752 764 
f 745 758 764 
f 747 753 765 
f 763 747 765 
f 748 763 765 
f 742 752 766 
f 746 757 766 
f 750 755 767 
f 749 759 767 
f 759 750 767 
f 761 749 767 
f 755 761 767 
f 751 755 768 
f 757 746 768 
f 755 757 768 
f 758 751 769 
f 768 746 769 
f 751 768 769 
f 752 758 770 
f 766 752 770 
f 746 766 770 
f 769 746 770 
f 758 769 770 
f 753 749 771 
f 760 748 771 
f 749 760 771 
f 765 753 771 
f 748 765 771 
f 757 750 772 
f 750 759 772 
f 759 742 772 
f 742 766 772 
f 766 757 772 
f 754 747 773 
f 748 754 773 
f 747 763 773 
o convex_26
v 9.854116 -0.294302 2.206196
v 4.208884 8.738245 11.238743
v 1.950637 8.738245 11.238743
v 8.724605 8.738245 2.206196
v 1.950637 -0.294302 10.107906
v 6.466358 -0.294302 11.238743
v 9.854116 5.350156 5.593401
v 7.595868 5.350156 2.206196
v 9.854116 -0.294302 6.722469
v 1.950637 8.738245 10.107906
v 7.595868 8.738245 7.851537
v 8.724605 -0.294302 2.206196
v 1.950637 -0.294302 11.238743
v 5.338395 7.609177 11.238743
v 7.595868 8.738245 2.206196
v 9.854116 6.480108 2.206196
v 8.724605 8.738245 5.593401
v 9.854116 0.834767 6.722469
v 6.466358 6.480108 10.107906
v 6.466358 0.834767 11.238743
v 8.724605 7.609177 6.722469
v 9.854116 6.480108 4.464332
f 790 794 795 
f 776 775 777 
f 775 776 779 
f 778 774 779 
f 777 774 781 
f 779 774 782 
f 774 780 782 
f 776 777 783 
f 778 776 783 
f 781 778 783 
f 777 775 784 
f 774 778 785 
f 781 774 785 
f 778 781 785 
f 776 778 786 
f 779 776 786 
f 778 779 786 
f 775 779 787 
f 784 775 787 
f 777 781 788 
f 783 777 788 
f 781 783 788 
f 774 777 789 
f 780 774 789 
f 777 784 790 
f 789 777 790 
f 779 782 791 
f 782 780 791 
f 791 792 793 
f 787 779 793 
f 779 791 793 
f 792 787 793 
f 784 787 794 
f 790 784 794 
f 791 780 794 
f 787 792 794 
f 792 791 794 
f 780 789 795 
f 789 790 795 
f 794 780 795 
o convex_27
v -1.437231 78.739599 14.625948
v -8.210978 69.708820 11.238743
v -0.308826 66.322444 5.593401
v 3.079705 66.322444 14.625948
v -4.823552 74.220895 6.723353
v 3.079705 68.581796 5.593401
v -7.081468 77.608597 14.625948
v -8.210978 69.708820 14.625948
v 0.820685 76.477595 14.625948
v -1.437231 75.350571 7.853306
v -4.823552 69.711472 5.593401
v 1.949090 65.195419 11.238743
v -3.695147 78.739599 12.367811
v 3.079705 65.195419 5.593401
v -8.210978 73.095196 11.238743
v 3.079705 69.711472 14.625948
v 1.949090 73.093870 8.980606
v -7.081468 76.480247 11.238743
v -1.437231 71.964194 5.593401
v -1.437231 78.739599 13.495995
v -4.823552 71.964194 5.593401
v 1.949090 65.195419 5.593401
v 1.949090 66.322444 14.625948
v -8.210978 73.095196 14.625948
v 3.079705 69.710146 6.723353
v -3.692936 76.480247 8.980606
v -4.823552 78.739599 13.495995
v 3.079705 65.195419 11.238743
v -1.437231 77.608597 11.238743
v 0.820685 76.477595 13.495111
v -2.565636 78.739599 12.367811
v -4.823552 78.739599 14.625948
f 822 802 827 
f 799 796 802 
f 799 802 803 
f 796 799 804 
f 798 797 806 
f 801 798 806 
f 798 801 809 
f 801 799 809 
f 797 803 810 
f 806 797 810 
f 799 801 811 
f 804 799 811 
f 801 805 812 
f 810 802 813 
f 805 801 814 
f 800 805 814 
f 801 806 814 
f 796 804 815 
f 808 796 815 
f 806 810 816 
f 813 800 816 
f 810 813 816 
f 800 814 816 
f 814 806 816 
f 797 798 817 
f 803 797 817 
f 807 803 817 
f 798 809 817 
f 809 807 817 
f 799 803 818 
f 807 799 818 
f 803 807 818 
f 803 802 819 
f 802 810 819 
f 810 803 819 
f 811 801 820 
f 801 812 820 
f 805 800 821 
f 813 808 821 
f 800 813 821 
f 796 808 822 
f 813 802 822 
f 808 813 822 
f 799 807 823 
f 809 799 823 
f 807 809 823 
f 812 805 824 
f 815 812 824 
f 804 811 825 
f 815 804 825 
f 812 815 825 
f 811 820 825 
f 820 812 825 
f 808 815 826 
f 805 821 826 
f 821 808 826 
f 824 805 826 
f 815 824 826 
f 802 796 827 
f 796 822 827 
o convex_28
v -8.210978 8.745318 -3.439146
v -3.694705 61.804458 1.077127
v -3.694705 61.804458 -0.052825
v -3.694705 8.745318 -6.826351
v -7.081026 23.419040 1.077127
v -7.081026 57.280276 -0.052825
v -5.952841 10.999617 -7.955419
v -8.210978 43.738898 1.077127
v -3.694705 45.998392 -3.439146
v -8.210978 13.259111 -4.568214
v -3.694705 9.872468 -5.697283
v -8.210978 9.872468 -1.181893
v -3.694705 56.153127 1.077127
v -3.694705 13.259111 -7.955419
v -5.952841 57.280276 -1.181893
v -7.081026 9.872468 -1.181893
v -5.952841 61.804458 1.077127
v -8.210978 23.419040 1.077127
v -4.824657 38.097956 -4.568214
v -5.952841 8.745318 -7.955419
v -8.210978 43.738898 -0.052825
v -5.952841 25.673339 -0.052825
v -5.952841 61.804458 -0.052825
v -4.824657 52.766484 -2.310078
v -5.952841 50.506990 -2.310078
v -3.694705 24.546190 -3.439146
v -8.210978 8.745318 -4.568214
v -3.694705 8.745318 -7.955419
v -7.081026 57.280276 1.077127
v -5.952841 8.745318 -3.439146
v -4.824657 13.259111 -7.955419
v -3.694705 52.766484 -2.310078
f 836 851 859 
f 830 829 831 
f 832 829 835 
f 830 831 836 
f 833 834 837 
f 828 835 837 
f 831 829 838 
f 835 828 839 
f 829 832 840 
f 838 829 840 
f 836 831 841 
f 838 832 843 
f 832 839 843 
f 839 828 843 
f 829 830 844 
f 835 829 844 
f 832 835 845 
f 839 832 845 
f 835 839 845 
f 836 841 846 
f 831 828 847 
f 837 834 847 
f 834 841 847 
f 833 837 848 
f 837 835 848 
f 832 838 849 
f 840 832 849 
f 842 833 850 
f 844 830 850 
f 833 844 850 
f 836 846 851 
f 850 830 851 
f 842 850 851 
f 834 833 852 
f 833 842 852 
f 846 834 852 
f 851 846 852 
f 842 851 852 
f 838 840 853 
f 849 838 853 
f 840 849 853 
f 828 837 854 
f 847 828 854 
f 837 847 854 
f 841 831 855 
f 831 847 855 
f 847 841 855 
f 835 844 856 
f 844 833 856 
f 833 848 856 
f 848 835 856 
f 828 831 857 
f 831 838 857 
f 843 828 857 
f 838 843 857 
f 841 834 858 
f 834 846 858 
f 846 841 858 
f 830 836 859 
f 851 830 859 
o convex_29
v 15.499457 201.811364 53.016040
v 22.273867 206.324322 60.917750
v 22.273867 208.580801 58.657845
v 22.273867 196.163591 55.273955
v 16.628747 214.226695 50.756135
v 15.499457 201.811364 57.529882
v 15.499457 215.357753 54.144003
v 20.014625 196.163591 60.917750
v 22.273867 207.453501 55.273955
v 17.758699 196.163591 56.399929
v 15.499457 207.453501 57.529882
v 15.499457 207.453501 50.756135
v 22.273867 196.163591 60.917750
v 22.273867 200.680307 54.144003
v 21.144578 206.324322 60.917750
v 21.144578 197.294649 54.144003
v 16.628747 215.357753 51.886087
v 16.628747 207.453501 50.756135
v 15.499457 211.970217 56.399929
v 18.886662 197.294649 54.144003
v 15.499457 214.226695 50.756135
v 17.758699 196.163591 58.657845
v 16.628747 205.197022 58.657845
v 16.628747 215.357753 54.144003
v 16.628747 202.940543 51.886087
v 15.499457 200.680307 54.144003
v 18.886662 208.580801 51.886087
v 20.014625 201.811364 60.917750
v 20.014625 209.709980 53.016040
v 22.273867 202.940543 54.144003
v 22.273867 208.580801 57.529882
v 18.886662 196.163591 55.273955
f 879 863 891 
f 862 861 863 
f 860 865 866 
f 862 863 868 
f 863 867 869 
f 866 865 870 
f 860 866 871 
f 863 861 872 
f 861 867 872 
f 867 863 872 
f 868 863 873 
f 861 866 874 
f 867 861 874 
f 873 863 875 
f 868 864 876 
f 871 864 877 
f 873 875 877 
f 866 870 878 
f 874 866 878 
f 870 874 878 
f 875 863 879 
f 864 871 880 
f 871 866 880 
f 866 876 880 
f 876 864 880 
f 867 865 881 
f 869 867 881 
f 865 867 882 
f 870 865 882 
f 874 870 882 
f 861 862 883 
f 866 861 883 
f 862 876 883 
f 876 866 883 
f 860 871 884 
f 871 877 884 
f 877 875 884 
f 879 860 884 
f 875 879 884 
f 865 860 885 
f 860 879 885 
f 879 869 885 
f 881 865 885 
f 869 881 885 
f 877 864 886 
f 873 877 886 
f 867 874 887 
f 882 867 887 
f 874 882 887 
f 864 868 888 
f 886 864 888 
f 886 888 889 
f 868 873 889 
f 873 886 889 
f 888 868 889 
f 862 868 890 
f 876 862 890 
f 868 876 890 
f 863 869 891 
f 869 879 891 
o convex_30
v -0.308384 67.452341 24.787342
v -7.081910 70.836894 23.658052
v -7.081910 70.836894 24.787342
v 1.950637 75.353278 23.658052
v 0.820685 62.934742 19.142221
v 0.820685 74.220231 19.142221
v -5.952841 65.192326 19.142221
v -7.081910 75.353278 23.658052
v 1.950637 75.353278 25.916631
v -3.693821 62.934742 20.272173
v -3.694705 68.580526 25.916631
v -7.081910 75.353278 25.916631
v 1.950637 69.707494 25.916631
v 1.950637 64.065357 19.142221
v -5.952841 68.579310 19.142221
v 1.950637 74.220231 19.142221
v 0.820685 62.934742 20.272173
v -5.952841 65.192326 20.272173
v -3.693821 62.934742 19.142221
v -7.081910 73.094478 25.916631
v 1.950637 64.065357 20.272173
v 0.820685 66.322941 23.658052
v -4.823773 69.707494 25.916631
v -2.565636 68.580526 25.916631
v -0.308384 66.321726 23.658052
v -5.952841 69.707494 24.787342
f 909 914 917 
f 894 893 898 
f 897 896 898 
f 893 894 899 
f 895 897 899 
f 898 893 899 
f 895 899 900 
f 899 894 903 
f 900 899 903 
f 902 900 903 
f 895 900 904 
f 900 902 904 
f 896 897 905 
f 895 904 905 
f 897 898 906 
f 899 897 906 
f 898 899 906 
f 897 895 907 
f 905 897 907 
f 895 905 907 
f 901 896 908 
f 902 901 908 
f 896 905 908 
f 894 898 909 
f 898 901 909 
f 898 896 910 
f 896 901 910 
f 901 898 910 
f 903 894 911 
f 902 903 911 
f 905 904 912 
f 904 908 912 
f 908 905 912 
f 904 892 913 
f 908 904 913 
f 901 902 914 
f 909 901 914 
f 911 894 914 
f 902 911 914 
f 892 904 915 
f 904 902 915 
f 902 908 915 
f 913 892 915 
f 913 915 916 
f 908 913 916 
f 915 908 916 
f 894 909 917 
f 914 894 917 
o convex_31
v 3.079705 32.447023 10.109453
v -4.823773 25.672723 8.980827
v -4.823773 25.672723 11.238743
v 3.079705 8.738245 11.238743
v 3.079705 18.898424 7.851537
v -3.694263 8.738245 8.980827
v -3.694263 30.189770 7.851537
v -4.823773 34.706817 11.238743
v -3.694263 8.738245 11.238743
v 3.079705 32.447023 11.238743
v 3.079705 30.189770 7.851537
v 3.079705 8.738245 10.109453
v -2.564752 34.706817 10.109453
v -0.308052 20.027050 7.851537
v -4.823773 32.447023 8.980827
v -2.564752 8.738245 8.980827
v -4.823773 34.706817 10.109453
v -2.564752 34.706817 11.238743
v -3.694263 29.061144 7.851537
v 0.820685 18.898424 7.851537
f 923 931 937 
f 918 921 922 
f 919 920 925 
f 920 921 925 
f 920 919 926 
f 921 920 926 
f 919 923 926 
f 923 921 926 
f 921 918 927 
f 925 921 927 
f 918 922 928 
f 922 924 928 
f 922 921 929 
f 921 923 929 
f 927 918 930 
f 918 928 930 
f 928 924 930 
f 924 922 931 
f 924 919 932 
f 919 925 932 
f 923 922 933 
f 922 929 933 
f 929 923 933 
f 930 924 934 
f 925 930 934 
f 924 932 934 
f 932 925 934 
f 925 927 935 
f 930 925 935 
f 927 930 935 
f 923 919 936 
f 919 924 936 
f 931 923 936 
f 924 931 936 
f 922 923 937 
f 931 922 937 
o convex_32
v -3.694705 8.738245 8.980274
v -5.952841 51.642842 11.238743
v -8.210978 51.642842 11.238743
v -8.210978 34.705270 5.593401
v -8.210978 8.738245 7.852422
v -4.824657 12.131639 11.238743
v -3.694705 42.609190 10.109232
v -7.081026 8.738245 5.593401
v -7.081026 51.642842 7.851869
v -7.081026 34.705270 5.593401
v -3.694705 12.131639 11.238743
v -3.694705 42.609190 11.238743
v -8.210978 8.738245 5.593401
v -8.210978 51.642842 7.851869
v -3.694705 25.671618 8.980274
v -5.952841 8.738245 10.109232
v -8.210978 47.123917 11.238743
v -4.824657 50.508911 10.109232
v -3.694705 8.738245 10.109232
v -4.824657 50.508911 11.238743
v -4.824657 30.190544 7.852422
v -5.952841 51.642842 10.109232
f 955 946 959 
f 940 941 942 
f 939 940 943 
f 938 942 945 
f 940 939 946 
f 946 944 947 
f 945 941 947 
f 938 945 947 
f 941 946 947 
f 939 943 948 
f 938 944 948 
f 948 944 949 
f 939 948 949 
f 942 941 950 
f 941 945 950 
f 945 942 950 
f 941 940 951 
f 940 946 951 
f 946 941 951 
f 944 938 952 
f 938 947 952 
f 942 938 953 
f 948 943 953 
f 940 942 954 
f 943 940 954 
f 942 953 954 
f 953 943 954 
f 944 946 955 
f 938 948 956 
f 953 938 956 
f 948 953 956 
f 949 944 957 
f 939 949 957 
f 955 939 957 
f 944 955 957 
f 947 944 958 
f 944 952 958 
f 952 947 958 
f 946 939 959 
f 939 955 959 
o convex_33
v -3.694705 77.610254 14.625948
v 0.821127 86.643961 25.916631
v -2.565415 86.643961 25.916631
v 0.820464 68.580083 19.142884
v 1.950416 74.225929 14.625948
v 3.079705 75.357574 25.916631
v -2.565415 82.126224 24.787121
v 1.950416 68.580083 14.625948
v -1.436126 79.866471 15.755458
v 0.821127 75.357574 25.916631
v -3.694705 77.610254 18.013374
v 1.949753 84.382440 24.787121
v 0.821127 86.643961 24.787121
v -3.694705 79.866471 15.755458
v 0.820464 68.580083 14.625948
v 3.079705 77.612022 24.787121
v 0.820464 76.482146 14.625948
v 1.950416 68.580083 19.142884
v -2.565415 86.643961 24.787121
v -3.694705 80.998115 19.142884
v -2.565415 84.382440 25.916631
v -1.436126 78.738362 14.625948
v 1.949753 84.382440 25.916631
v -3.694705 78.738362 19.142884
v -3.694705 78.738362 14.625948
v 3.079705 77.612022 25.916631
v 3.079705 75.357574 24.787121
v -3.694705 80.998115 18.013374
v 1.949753 83.254332 23.657610
f 971 975 988 
f 961 962 965 
f 960 964 967 
f 965 962 969 
f 963 965 969 
f 960 963 970 
f 962 961 972 
f 961 971 972 
f 960 970 973 
f 972 968 973 
f 963 960 974 
f 960 967 974 
f 967 963 974 
f 967 964 975 
f 964 960 976 
f 972 964 976 
f 965 963 977 
f 963 967 977 
f 967 965 977 
f 962 972 978 
f 972 973 978 
f 973 970 979 
f 962 978 979 
f 969 962 980 
f 966 969 980 
f 962 979 980 
f 968 972 981 
f 973 968 981 
f 976 960 981 
f 972 976 981 
f 961 965 982 
f 971 961 982 
f 975 971 982 
f 963 969 983 
f 969 966 983 
f 970 963 983 
f 979 970 983 
f 980 979 983 
f 966 980 983 
f 960 973 984 
f 981 960 984 
f 973 981 984 
f 965 975 985 
f 982 965 985 
f 975 982 985 
f 965 967 986 
f 967 975 986 
f 975 965 986 
f 978 973 987 
f 973 979 987 
f 979 978 987 
f 964 972 988 
f 972 971 988 
f 975 964 988 
o convex_34
v -5.948973 74.226434 28.175210
v 0.820795 112.605903 39.465451
v -1.438115 112.605903 39.465451
v 0.820795 90.041049 39.465451
v 3.079705 82.129653 25.916631
v -4.822999 87.771889 25.916631
v -5.950963 94.546660 39.465451
v 1.949753 70.837004 25.916631
v 3.079705 94.546660 39.465451
v -7.081910 83.254012 25.916631
v -4.822999 106.951402 38.335499
v 1.949753 111.469279 38.335499
v -0.309157 88.900336 25.916631
v -3.693047 78.748400 32.691041
v -2.565084 110.340832 37.205546
v -7.081910 74.226434 25.916631
v 3.079705 108.083937 39.465451
v 1.949753 70.837004 27.046584
v -7.081910 85.519083 33.819667
v -5.950963 102.433524 39.465451
v -4.822999 91.169496 39.465451
v 3.079705 83.270366 33.820994
v -3.693047 70.837004 27.046584
v 3.079705 86.643442 27.046584
v 1.948758 82.137830 34.948294
v 0.820795 112.605903 38.335499
v 3.079705 76.491506 28.175210
v -3.693047 88.900336 25.916631
v -0.309157 85.523172 37.205546
v 1.949753 86.643442 25.916631
v 0.820795 71.969540 28.175210
v -3.693047 90.041049 39.465451
f 1002 1017 1020 
f 990 991 992 
f 992 991 995 
f 994 993 996 
f 990 992 997 
f 994 996 998 
f 993 994 1001 
f 994 998 1003 
f 999 991 1003 
f 998 999 1003 
f 998 996 1004 
f 990 997 1005 
f 997 993 1005 
f 1000 990 1005 
f 1004 989 1007 
f 998 1004 1007 
f 995 991 1008 
f 991 999 1008 
f 999 998 1008 
f 1007 995 1008 
f 998 1007 1008 
f 992 995 1009 
f 989 1002 1009 
f 995 1007 1009 
f 1007 989 1009 
f 993 997 1010 
f 1002 989 1011 
f 989 1004 1011 
f 1004 996 1011 
f 996 1006 1011 
f 1005 993 1012 
f 1000 1005 1012 
f 997 992 1013 
f 1010 997 1013 
f 1006 1010 1013 
f 991 990 1014 
f 990 1000 1014 
f 1003 991 1014 
f 996 993 1015 
f 1006 996 1015 
f 993 1010 1015 
f 1010 1006 1015 
f 1001 994 1016 
f 994 1003 1016 
f 1014 1001 1016 
f 1003 1014 1016 
f 1013 992 1017 
f 993 1001 1018 
f 1012 993 1018 
f 1000 1012 1018 
f 1014 1000 1018 
f 1001 1014 1018 
f 1002 1011 1019 
f 1011 1006 1019 
f 1006 1013 1019 
f 1017 1002 1019 
f 1013 1017 1019 
f 992 1009 1020 
f 1009 1002 1020 
f 1017 992 1020 
o convex_35
v 4.207890 135.193900 57.529771
v -4.823773 123.904322 50.757019
v 1.951079 123.903217 49.627066
v 4.207890 135.193900 49.627066
v -4.823773 134.062179 59.788682
v -0.306836 125.033832 56.400813
v 4.207890 123.903217 50.757019
v 6.466910 134.064390 55.270861
v -4.823773 134.062179 57.528777
v -3.694263 123.904322 55.271856
v 6.466910 135.193900 50.757019
v -4.823773 131.804264 59.788682
v 5.337400 128.420153 49.627066
v -4.823773 125.034938 50.757019
v -1.436347 135.193900 56.400813
v 1.951079 123.903217 54.142898
v 4.207890 134.064390 57.529771
v -3.694263 131.804264 59.788682
v -4.823773 123.904322 54.143892
v 5.337400 132.933774 56.400813
v 6.466910 132.933774 50.757019
v 3.078379 123.903217 53.015929
v 4.207890 123.903217 49.627066
v 6.466910 135.193900 55.270861
v -4.823773 129.548559 58.658729
v 5.337400 135.193900 49.627066
v 1.951079 127.290643 49.627066
v -1.436347 135.193900 57.529771
v 6.466910 132.933774 53.015929
v -3.694263 134.062179 59.788682
v -2.564752 125.034938 56.398824
v -0.306836 123.903217 55.270861
f 1030 1039 1052 
f 1022 1025 1029 
f 1024 1021 1031 
f 1025 1022 1032 
f 1023 1024 1033 
f 1023 1022 1034 
f 1022 1029 1034 
f 1029 1024 1034 
f 1021 1024 1035 
f 1024 1029 1035 
f 1029 1025 1035 
f 1023 1027 1036 
f 1025 1032 1038 
f 1032 1026 1038 
f 1026 1037 1038 
f 1032 1022 1039 
f 1026 1036 1040 
f 1021 1037 1040 
f 1037 1026 1040 
f 1031 1028 1041 
f 1033 1031 1041 
f 1027 1028 1042 
f 1036 1027 1042 
f 1028 1040 1042 
f 1040 1036 1042 
f 1027 1023 1043 
f 1023 1033 1043 
f 1041 1027 1043 
f 1033 1041 1043 
f 1031 1021 1044 
f 1028 1031 1044 
f 1040 1028 1044 
f 1021 1040 1044 
f 1026 1032 1045 
f 1032 1039 1045 
f 1039 1030 1045 
f 1024 1031 1046 
f 1033 1024 1046 
f 1031 1033 1046 
f 1024 1023 1047 
f 1023 1034 1047 
f 1034 1024 1047 
f 1025 1021 1048 
f 1021 1035 1048 
f 1035 1025 1048 
f 1028 1027 1049 
f 1027 1041 1049 
f 1041 1028 1049 
f 1021 1025 1050 
f 1037 1021 1050 
f 1025 1038 1050 
f 1038 1037 1050 
f 1030 1026 1051 
f 1026 1045 1051 
f 1045 1030 1051 
f 1022 1023 1052 
f 1026 1030 1052 
f 1023 1036 1052 
f 1036 1026 1052 
f 1039 1022 1052 
o convex_36
v 3.079705 16.639928 7.851537
v -8.210978 -0.292644 -1.181009
v -8.210978 -0.292644 -0.051057
v 0.819579 -0.292644 1.078012
v 0.820685 22.287065 6.721585
v -0.307721 15.512711 7.851537
v -1.438336 0.836784 3.335264
v -1.437231 21.155428 7.851537
v -4.821342 0.836784 -1.181009
v 3.079705 20.026000 6.721585
v -7.079257 5.352283 -0.051057
v -8.210978 0.836784 1.078012
v 0.819579 0.836784 3.335264
v 0.819579 1.966211 1.078012
v -8.210978 3.095639 1.078012
v -1.437231 21.155428 6.721585
v 1.949090 10.997211 6.721585
v 0.820685 22.287065 7.851537
v -1.437231 17.769355 7.851537
v -3.692936 -0.292644 2.206196
v 1.950195 6.481711 3.335264
v -5.951957 1.966211 -1.181009
v 0.820685 18.898783 5.592517
v -7.079257 3.095639 2.206196
v -8.210978 1.966211 -1.181009
v -0.307721 22.287065 6.721585
v 0.819579 6.481711 2.206196
v -4.821342 -0.292644 -1.181009
v 3.079705 20.026000 7.851537
v 1.950195 7.611139 5.592517
v 0.819579 -0.292644 2.206196
v -8.210978 3.095639 -0.051057
f 1063 1077 1084 
f 1055 1054 1056 
f 1058 1053 1060 
f 1054 1055 1064 
f 1054 1064 1067 
f 1064 1060 1067 
f 1067 1060 1068 
f 1053 1058 1069 
f 1058 1059 1069 
f 1059 1065 1069 
f 1060 1053 1070 
f 1062 1057 1070 
f 1058 1060 1071 
f 1060 1064 1071 
f 1055 1056 1072 
f 1064 1055 1072 
f 1059 1064 1072 
f 1065 1059 1072 
f 1062 1053 1073 
f 1056 1066 1073 
f 1066 1062 1073 
f 1061 1054 1074 
f 1063 1057 1074 
f 1057 1062 1075 
f 1061 1074 1075 
f 1074 1057 1075 
f 1059 1058 1076 
f 1064 1059 1076 
f 1058 1071 1076 
f 1071 1064 1076 
f 1054 1067 1077 
f 1074 1054 1077 
f 1063 1074 1077 
f 1057 1063 1078 
f 1068 1060 1078 
f 1063 1068 1078 
f 1060 1070 1078 
f 1070 1057 1078 
f 1066 1061 1079 
f 1062 1066 1079 
f 1075 1062 1079 
f 1061 1075 1079 
f 1056 1054 1080 
f 1054 1061 1080 
f 1066 1056 1080 
f 1061 1066 1080 
f 1053 1062 1081 
f 1070 1053 1081 
f 1062 1070 1081 
f 1053 1069 1082 
f 1069 1065 1082 
f 1073 1053 1082 
f 1073 1082 1083 
f 1072 1056 1083 
f 1065 1072 1083 
f 1056 1073 1083 
f 1082 1065 1083 
f 1068 1063 1084 
f 1067 1068 1084 
f 1077 1067 1084 
o convex_37
v 5.337842 145.353195 43.980730
v -4.823773 135.193900 41.723919
v -4.823773 135.193900 43.980177
v -4.823773 147.612878 41.723919
v -4.823773 146.483037 45.110793
v 4.207890 148.741394 41.723919
v 0.822011 135.193900 45.110793
v 5.337842 148.741394 45.110793
v -3.693821 141.967647 39.465451
v -0.306947 135.193900 42.852877
v -4.823773 145.353195 39.465451
v -1.435905 148.741394 45.110793
v 4.207890 146.483037 41.723919
v -1.435905 136.323742 41.723919
v -4.823773 147.612878 40.596067
v -1.435905 135.193900 45.110793
v 3.078932 139.711942 43.980730
v 5.337842 145.353195 45.110793
v -0.306947 148.741394 41.723919
v -4.823773 137.454910 40.596067
v 5.337842 146.483037 42.852877
v -4.823773 143.096163 45.110793
v -3.693821 145.353195 39.465451
v -2.564863 135.193900 41.723919
v 0.822011 135.193900 43.980730
v 5.337842 148.741394 42.852877
v -4.823773 141.967647 39.465451
v -3.693821 137.454910 40.596067
v 3.078932 139.711942 45.110793
v -1.435905 148.741394 43.980730
v -3.693821 147.612878 40.596067
f 1107 1099 1115 
f 1086 1087 1088 
f 1088 1087 1089 
f 1087 1086 1091 
f 1089 1091 1092 
f 1091 1086 1094 
f 1086 1088 1095 
f 1088 1089 1096 
f 1089 1092 1096 
f 1092 1090 1096 
f 1093 1090 1097 
f 1097 1094 1098 
f 1093 1097 1098 
f 1095 1088 1099 
f 1088 1096 1099 
f 1087 1091 1100 
f 1091 1089 1100 
f 1085 1092 1102 
f 1092 1091 1102 
f 1101 1085 1102 
f 1096 1090 1103 
f 1090 1099 1103 
f 1086 1095 1104 
f 1092 1085 1105 
f 1097 1090 1105 
f 1085 1101 1105 
f 1089 1087 1106 
f 1087 1100 1106 
f 1100 1089 1106 
f 1090 1093 1107 
f 1093 1095 1107 
f 1095 1099 1107 
f 1094 1086 1108 
f 1098 1094 1108 
f 1086 1104 1108 
f 1091 1094 1109 
f 1094 1097 1109 
f 1101 1091 1109 
f 1097 1105 1109 
f 1105 1101 1109 
f 1090 1092 1110 
f 1092 1105 1110 
f 1105 1090 1110 
f 1095 1093 1111 
f 1104 1095 1111 
f 1093 1104 1111 
f 1093 1098 1112 
f 1104 1093 1112 
f 1098 1108 1112 
f 1108 1104 1112 
f 1091 1101 1113 
f 1102 1091 1113 
f 1101 1102 1113 
f 1099 1096 1114 
f 1096 1103 1114 
f 1103 1099 1114 
f 1099 1090 1115 
f 1090 1107 1115 
o convex_38
v 3.079705 67.447147 5.593401
v -4.823773 59.548531 1.077127
v 1.950195 53.900979 1.077127
v -1.435242 65.189452 1.077127
v -4.823773 67.447147 5.593401
v -4.823773 70.835347 4.463890
v 1.950195 56.161989 3.335264
v 3.079705 59.548531 1.077127
v 3.079705 62.931758 5.593401
v -0.308826 67.447147 2.206638
v -4.823773 59.548531 2.206638
v -4.823773 65.189452 1.077127
v -1.435242 70.835347 5.593401
v 3.079705 53.900979 2.206638
v 3.079705 67.447147 4.463890
v -1.435242 70.835347 4.463890
v 1.950195 53.900979 2.206638
v -4.823773 70.835347 5.593401
v 1.950195 62.931758 5.593401
v 1.950195 61.806226 1.077127
v 3.079705 53.900979 1.077127
v -4.823773 67.447147 2.206638
v 3.079705 62.931758 2.206638
v 0.821458 66.318300 2.206638
v 3.079705 56.161989 3.335264
f 1129 1124 1140 
f 1118 1117 1119 
f 1117 1120 1121 
f 1118 1119 1123 
f 1116 1120 1124 
f 1123 1116 1124 
f 1117 1118 1126 
f 1120 1117 1126 
f 1122 1120 1126 
f 1119 1117 1127 
f 1117 1121 1127 
f 1125 1119 1127 
f 1120 1116 1128 
f 1123 1124 1129 
f 1116 1123 1130 
f 1128 1116 1130 
f 1128 1130 1131 
f 1125 1121 1131 
f 1121 1128 1131 
f 1130 1125 1131 
f 1126 1118 1132 
f 1122 1126 1132 
f 1118 1129 1132 
f 1129 1122 1132 
f 1121 1120 1133 
f 1120 1128 1133 
f 1128 1121 1133 
f 1120 1122 1134 
f 1124 1120 1134 
f 1122 1124 1134 
f 1123 1119 1135 
f 1118 1123 1136 
f 1129 1118 1136 
f 1123 1129 1136 
f 1121 1125 1137 
f 1127 1121 1137 
f 1125 1127 1137 
f 1130 1123 1138 
f 1123 1135 1138 
f 1138 1135 1139 
f 1119 1125 1139 
f 1125 1130 1139 
f 1135 1119 1139 
f 1130 1138 1139 
f 1124 1122 1140 
f 1122 1129 1140 
o convex_39
v 8.725047 8.738245 1.077127
v 4.209768 66.320731 11.238743
v 3.079705 66.320731 11.238743
v 3.079705 8.738245 11.238743
v 3.080258 57.279785 1.077127
v 8.725047 22.288392 5.593953
v 6.465474 53.897885 1.077127
v 7.595537 8.738245 7.851869
v 3.079705 8.738245 8.979832
v 5.338174 56.146848 11.238743
v 7.594984 8.738245 1.077127
v 6.465474 55.025185 8.979832
v 4.210321 66.320731 4.464001
v 3.080258 51.632012 1.077127
v 4.209768 8.738245 11.238743
v 7.594984 41.480675 1.077127
v 5.338174 64.060494 6.721917
v 5.338174 34.722511 11.238743
v 3.080258 66.320731 4.464001
v 8.725047 22.288392 1.077127
v 8.725047 8.738245 5.593953
v 7.595537 36.977111 7.851869
v 7.594984 41.480675 6.721917
v 6.465474 56.146848 6.721917
v 5.338174 64.060494 8.979832
v 4.210321 64.060494 3.337032
v 4.210321 57.279785 1.077127
v 6.465474 55.025185 2.207080
v 3.080258 64.060494 3.337032
v 6.465474 56.146848 7.851869
v 3.079705 66.320731 6.721917
v 3.079705 61.788985 6.721917
f 1171 1154 1172 
f 1142 1143 1144 
f 1141 1145 1147 
f 1144 1141 1148 
f 1144 1143 1149 
f 1141 1144 1149 
f 1142 1144 1150 
f 1145 1141 1151 
f 1141 1149 1151 
f 1142 1150 1152 
f 1143 1142 1153 
f 1145 1151 1154 
f 1151 1149 1154 
f 1144 1148 1155 
f 1150 1144 1155 
f 1141 1147 1156 
f 1147 1153 1157 
f 1148 1150 1158 
f 1155 1148 1158 
f 1150 1155 1158 
f 1143 1153 1159 
f 1146 1141 1160 
f 1141 1156 1160 
f 1156 1146 1160 
f 1141 1146 1161 
f 1148 1141 1161 
f 1148 1161 1162 
f 1150 1148 1162 
f 1152 1150 1162 
f 1161 1146 1162 
f 1152 1162 1163 
f 1146 1156 1163 
f 1162 1146 1163 
f 1163 1156 1164 
f 1164 1157 1165 
f 1142 1152 1165 
f 1153 1142 1165 
f 1157 1153 1165 
f 1153 1147 1166 
f 1159 1153 1166 
f 1147 1145 1167 
f 1145 1166 1167 
f 1166 1147 1167 
f 1156 1147 1168 
f 1147 1157 1168 
f 1164 1156 1168 
f 1157 1164 1168 
f 1166 1145 1169 
f 1159 1166 1169 
f 1152 1163 1170 
f 1163 1164 1170 
f 1164 1165 1170 
f 1165 1152 1170 
f 1149 1143 1171 
f 1145 1154 1171 
f 1143 1159 1171 
f 1169 1145 1171 
f 1159 1169 1171 
f 1154 1149 1172 
f 1149 1171 1172 
o convex_40
v 4.207005 55.025804 -0.052825
v -3.694705 4.227497 -7.955419
v 1.950084 4.227497 -7.955419
v 5.335963 14.388264 -2.310078
v -3.694705 55.020279 1.077127
v -3.694705 52.760489 -2.310078
v 3.080037 31.328400 -5.697283
v 6.466910 36.953011 1.077127
v 6.466910 14.388264 -5.697283
v -3.694705 4.227497 -6.825467
v -3.694705 13.266657 -7.955419
v 6.466910 8.741552 -3.439146
v 6.466910 48.251960 -0.052825
v 0.822121 60.672516 1.077127
v 1.951079 52.766014 -2.310078
v 4.207005 9.874209 -7.955419
v -3.694705 60.672516 -0.052825
v 5.335963 52.766014 1.077127
v 5.335963 36.953011 1.077127
v 6.466910 8.741552 -5.697283
v 0.822121 60.672516 -0.052825
v 3.080037 13.261132 -7.955419
v -3.694705 45.992170 -3.439146
v -3.694705 60.672516 1.077127
v 1.950084 4.227497 -6.825467
v 4.207005 51.633357 -1.181893
v 6.466910 42.599723 -1.181893
v 0.823116 31.328400 -5.697283
v 5.335963 8.741552 -3.439146
v 6.466910 48.251960 1.077127
v 6.466910 22.294766 -4.568214
v -3.694705 57.274544 -1.181893
f 1189 1193 1204 
f 1174 1177 1178 
f 1174 1175 1182 
f 1176 1177 1182 
f 1177 1174 1182 
f 1175 1174 1183 
f 1174 1178 1183 
f 1180 1176 1184 
f 1181 1180 1184 
f 1180 1181 1185 
f 1177 1180 1186 
f 1179 1181 1188 
f 1175 1183 1188 
f 1178 1177 1189 
f 1185 1173 1190 
f 1173 1186 1190 
f 1186 1180 1190 
f 1177 1176 1191 
f 1180 1177 1191 
f 1176 1180 1191 
f 1184 1175 1192 
f 1181 1184 1192 
f 1188 1181 1192 
f 1175 1188 1192 
f 1186 1173 1193 
f 1173 1187 1193 
f 1189 1186 1193 
f 1183 1179 1194 
f 1179 1188 1194 
f 1188 1183 1194 
f 1183 1178 1195 
f 1178 1187 1195 
f 1187 1179 1195 
f 1177 1186 1196 
f 1189 1177 1196 
f 1186 1189 1196 
f 1182 1175 1197 
f 1175 1184 1197 
f 1184 1182 1197 
f 1173 1185 1198 
f 1179 1187 1198 
f 1187 1173 1198 
f 1185 1181 1199 
f 1198 1185 1199 
f 1179 1198 1199 
f 1179 1183 1200 
f 1183 1195 1200 
f 1195 1179 1200 
f 1176 1182 1201 
f 1184 1176 1201 
f 1182 1184 1201 
f 1180 1185 1202 
f 1185 1190 1202 
f 1190 1180 1202 
f 1181 1179 1203 
f 1179 1199 1203 
f 1199 1181 1203 
f 1187 1178 1204 
f 1178 1189 1204 
f 1193 1187 1204 
o convex_41
v -3.694484 148.740731 49.627066
v -3.694484 138.582874 59.788682
v 1.950637 139.712384 57.529771
v 0.821348 139.712384 49.627066
v -4.823773 134.066379 57.527782
v 0.821348 149.870242 50.757019
v 1.950637 135.194342 57.529771
v -4.823773 143.094726 49.627066
v -4.823773 140.841895 58.658729
v 1.950637 147.612768 49.627066
v 1.950637 143.093179 56.400813
v 1.950637 135.194342 55.270861
v -4.823773 146.481710 53.014935
v -4.823773 134.066379 59.788682
v -3.694484 134.066379 56.400813
v 1.950637 139.712384 49.627066
v -2.565194 149.868694 50.757019
v -4.823773 147.611221 49.627066
v 0.821348 149.870242 49.627066
v -1.436568 134.066379 56.400813
v -3.694484 134.066379 59.788682
v -1.436568 148.740731 51.887966
v -3.694484 140.841895 58.658729
v 1.950637 147.612768 50.757019
v -4.823773 138.582874 59.788682
v -2.565194 149.868694 49.627066
v -4.823773 147.611221 50.757019
v -1.436568 134.066379 57.527782
v -2.565194 148.740731 51.887966
v -4.823773 145.353747 54.145882
v -1.436568 149.870242 50.757019
v -3.694484 148.740731 50.757019
f 1231 1217 1236 
f 1207 1206 1211 
f 1205 1208 1212 
f 1212 1209 1213 
f 1208 1205 1214 
f 1207 1211 1214 
f 1206 1207 1215 
f 1207 1214 1215 
f 1214 1211 1216 
f 1212 1213 1217 
f 1213 1209 1218 
f 1212 1208 1219 
f 1209 1212 1219 
f 1218 1209 1219 
f 1208 1214 1220 
f 1214 1216 1220 
f 1219 1208 1220 
f 1205 1212 1222 
f 1212 1217 1222 
f 1214 1205 1223 
f 1210 1214 1223 
f 1216 1211 1224 
f 1218 1219 1224 
f 1220 1216 1224 
f 1219 1220 1224 
f 1211 1206 1225 
f 1206 1218 1225 
f 1218 1224 1225 
f 1215 1210 1226 
f 1213 1206 1227 
f 1206 1215 1227 
f 1226 1213 1227 
f 1215 1226 1227 
f 1214 1210 1228 
f 1210 1215 1228 
f 1215 1214 1228 
f 1206 1213 1229 
f 1218 1206 1229 
f 1213 1218 1229 
f 1205 1221 1230 
f 1223 1205 1230 
f 1222 1217 1231 
f 1205 1222 1231 
f 1224 1211 1232 
f 1211 1225 1232 
f 1225 1224 1232 
f 1213 1226 1233 
f 1226 1210 1233 
f 1217 1213 1234 
f 1221 1217 1234 
f 1213 1233 1234 
f 1233 1221 1234 
f 1210 1223 1235 
f 1230 1221 1235 
f 1223 1230 1235 
f 1233 1210 1235 
f 1221 1233 1235 
f 1221 1205 1236 
f 1217 1221 1236 
f 1205 1231 1236 
o convex_42
v -7.081910 8.738245 6.722469
v -7.081910 -0.294302 -7.955419
v -7.081910 5.350156 -7.955419
v -10.469115 -0.294302 -4.567551
v -8.211199 -0.294302 6.722469
v -3.694705 4.221972 -6.826130
v -10.469115 6.480108 6.722469
v -9.339825 8.738245 -3.438262
v -3.694705 8.738245 -7.955419
v -4.823994 -0.294302 -7.955419
v -10.469115 -0.294302 6.722469
v -10.469115 6.480108 -2.308972
v -9.338499 8.738245 6.722469
v -5.953283 8.738245 -7.955419
v -7.081910 6.480108 6.722469
v -4.823994 -0.294302 -6.826130
v -3.694705 8.738245 -6.826130
v -9.339825 6.480108 -4.567551
v -10.469115 0.834767 -4.567551
v -3.694705 4.221972 -7.955419
v -7.081910 8.738245 -6.826130
v -10.469115 4.221972 -3.438262
v -8.209210 4.221972 -6.826130
v -9.339825 8.738245 -1.179683
v -9.339162 8.738245 3.334601
f 1260 1243 1261 
f 1239 1238 1240 
f 1240 1238 1241 
f 1241 1237 1243 
f 1238 1239 1245 
f 1244 1237 1245 
f 1241 1238 1246 
f 1238 1245 1246 
f 1240 1241 1247 
f 1243 1240 1247 
f 1241 1243 1247 
f 1240 1243 1248 
f 1243 1244 1248 
f 1243 1237 1249 
f 1237 1244 1249 
f 1245 1239 1250 
f 1244 1245 1250 
f 1237 1241 1251 
f 1241 1242 1251 
f 1242 1237 1251 
f 1242 1241 1252 
f 1241 1246 1252 
f 1246 1242 1252 
f 1237 1242 1253 
f 1242 1245 1253 
f 1245 1237 1253 
f 1248 1244 1254 
f 1239 1240 1255 
f 1240 1248 1255 
f 1245 1242 1256 
f 1242 1246 1256 
f 1246 1245 1256 
f 1250 1239 1257 
f 1244 1250 1257 
f 1239 1254 1257 
f 1254 1244 1257 
f 1248 1254 1258 
f 1255 1248 1258 
f 1254 1255 1258 
f 1254 1239 1259 
f 1239 1255 1259 
f 1255 1254 1259 
f 1244 1243 1260 
f 1249 1244 1260 
f 1249 1260 1261 
f 1243 1249 1261 
o convex_43
v 6.466910 23.419118 -3.438262
v 8.724826 8.738798 2.206196
v 7.596200 8.738798 2.206196
v 7.596200 41.481227 1.076906
v 9.854116 -0.294302 -3.438925
v 6.466910 8.746976 -4.568214
v 9.854116 -0.294302 2.206196
v 6.466910 21.161865 1.076906
v 9.854116 6.481545 -3.438925
v 6.466910 41.481227 1.076906
v 7.596200 38.087170 -1.181009
v 8.724826 -0.294302 2.206196
v 8.724826 9.875603 -4.568214
v 9.854116 6.481545 2.206196
v 8.724826 -0.294302 -3.438925
v 6.466910 8.746976 -2.308972
v 7.596200 15.518734 -4.568214
v 7.596200 5.352919 2.206196
v 6.466910 38.087170 -1.181009
v 7.596200 41.481227 -0.053046
v 8.724826 17.775986 -3.438262
v 6.466910 15.518734 -4.568214
v 8.724826 23.419118 -2.308972
v 6.466910 41.481227 -0.053046
v 8.724826 8.746976 -4.568214
v 7.596200 23.419118 -3.438262
f 1282 1274 1287 
f 1263 1264 1268 
f 1262 1267 1269 
f 1268 1266 1270 
f 1264 1263 1271 
f 1263 1265 1271 
f 1269 1264 1271 
f 1262 1269 1271 
f 1266 1268 1273 
f 1268 1264 1273 
f 1270 1266 1274 
f 1265 1263 1275 
f 1263 1268 1275 
f 1270 1265 1275 
f 1268 1270 1275 
f 1267 1266 1276 
f 1273 1267 1276 
f 1266 1273 1276 
f 1269 1267 1277 
f 1267 1273 1277 
f 1274 1267 1278 
f 1264 1269 1279 
f 1273 1264 1279 
f 1269 1277 1279 
f 1277 1273 1279 
f 1262 1271 1280 
f 1272 1262 1280 
f 1272 1280 1281 
f 1265 1270 1281 
f 1271 1265 1281 
f 1270 1274 1282 
f 1267 1262 1283 
f 1262 1278 1283 
f 1278 1267 1283 
f 1272 1281 1284 
f 1281 1270 1284 
f 1270 1282 1284 
f 1282 1272 1284 
f 1280 1271 1285 
f 1281 1280 1285 
f 1271 1281 1285 
f 1266 1267 1286 
f 1267 1274 1286 
f 1274 1266 1286 
f 1262 1272 1287 
f 1278 1262 1287 
f 1274 1278 1287 
f 1272 1282 1287 
o convex_44
v -18.374362 198.419075 25.916631
v -26.276072 182.615655 25.916631
v -26.276072 182.615655 27.046694
v -16.114457 174.711293 28.175099
v -19.502325 201.808933 31.561973
v -21.757256 174.711293 31.561973
v -16.114457 201.808933 31.561973
v -17.246398 174.711293 25.916631
v -16.114457 174.711293 31.561973
v -25.146119 192.777270 25.916631
v -24.015172 174.711293 25.916631
v -16.114457 201.808933 28.175099
v -19.502325 201.808933 27.046694
v -26.276072 186.002860 27.046694
v -24.015172 175.843898 29.303505
v -21.759246 195.031870 30.431910
v -25.146119 192.777270 27.046694
v -20.631282 200.678980 27.046694
v -25.144130 176.971198 27.046694
v -20.631282 198.419075 25.916631
v -20.631282 200.678980 30.431910
v -17.245404 201.808933 27.046694
v -24.015172 174.711293 28.175099
v -21.757256 175.843898 31.561973
v -26.276072 186.002860 25.916631
v -25.144130 176.971198 25.916631
v -17.246398 175.843898 25.916631
v -25.144130 178.101150 28.175099
v -22.886214 174.711293 30.431910
v -21.759246 197.289123 25.916631
v -25.144130 183.742955 28.175099
f 1311 1303 1318 
f 1292 1293 1294 
f 1289 1288 1295 
f 1291 1293 1295 
f 1293 1291 1296 
f 1291 1294 1296 
f 1294 1293 1296 
f 1288 1289 1297 
f 1289 1295 1298 
f 1295 1293 1298 
f 1294 1291 1299 
f 1292 1294 1299 
f 1291 1295 1299 
f 1292 1299 1300 
f 1289 1290 1301 
f 1290 1293 1301 
f 1293 1290 1302 
f 1301 1303 1304 
f 1297 1301 1304 
f 1303 1292 1304 
f 1297 1304 1305 
f 1292 1300 1305 
f 1290 1289 1306 
f 1288 1297 1307 
f 1300 1288 1307 
f 1305 1300 1307 
f 1304 1292 1308 
f 1305 1304 1308 
f 1292 1305 1308 
f 1288 1300 1309 
f 1300 1299 1309 
f 1298 1293 1310 
f 1306 1298 1310 
f 1293 1292 1311 
f 1301 1293 1311 
f 1292 1303 1311 
f 1297 1289 1312 
f 1289 1301 1312 
f 1301 1297 1312 
f 1289 1298 1313 
f 1306 1289 1313 
f 1298 1306 1313 
f 1295 1288 1314 
f 1299 1295 1314 
f 1288 1309 1314 
f 1309 1299 1314 
f 1302 1290 1315 
f 1290 1306 1315 
f 1310 1302 1315 
f 1306 1310 1315 
f 1293 1302 1316 
f 1310 1293 1316 
f 1302 1310 1316 
f 1297 1305 1317 
f 1307 1297 1317 
f 1305 1307 1317 
f 1303 1301 1318 
f 1301 1311 1318 
o convex_45
v -7.083678 143.095007 48.497998
v -10.468894 145.352085 65.434023
v -10.468894 149.868892 63.172792
v -4.823773 140.837930 59.790892
v -5.954389 123.905869 48.497998
v -11.598183 136.326427 55.273403
v -4.823773 145.349433 49.628614
v -4.823773 126.165599 55.273403
v -11.598183 136.326427 62.045492
v -11.598183 149.868892 57.532976
v -5.953726 132.936832 60.916534
v -8.210315 139.708065 48.497998
v -4.823773 123.905869 48.497998
v -4.823773 145.352085 56.402361
v -11.598183 141.967795 65.434023
v -5.954389 123.905869 53.013829
v -10.468894 150.998757 59.790892
v -11.598183 145.352085 55.273403
v -10.468894 136.326427 63.172792
v -11.598183 149.868892 63.172792
v -4.823773 144.222220 48.497998
v -8.210315 136.321122 48.497998
v -4.823773 131.809619 59.789234
v -9.337615 138.583504 64.303408
v -7.083678 126.165599 49.628614
v -11.598183 148.739027 56.402361
v -5.954389 144.222220 48.497998
v -4.823773 143.095007 58.658618
v -4.823773 123.905869 53.013829
v -5.954389 126.165599 55.273403
v -11.598183 145.352085 65.434023
v -11.598183 150.998757 60.914876
f 1328 1338 1350 
f 1321 1320 1322 
f 1325 1322 1326 
f 1324 1327 1328 
f 1319 1323 1330 
f 1323 1319 1331 
f 1325 1326 1331 
f 1322 1325 1332 
f 1328 1327 1333 
f 1323 1331 1334 
f 1325 1328 1335 
f 1321 1332 1335 
f 1332 1325 1335 
f 1324 1328 1336 
f 1330 1324 1336 
f 1333 1327 1337 
f 1327 1334 1337 
f 1320 1321 1338 
f 1328 1333 1338 
f 1331 1319 1339 
f 1325 1331 1339 
f 1330 1323 1340 
f 1324 1330 1340 
f 1326 1322 1341 
f 1329 1326 1341 
f 1329 1341 1342 
f 1322 1320 1342 
f 1320 1333 1342 
f 1337 1329 1342 
f 1333 1337 1342 
f 1341 1322 1342 
f 1327 1324 1343 
f 1323 1334 1343 
f 1334 1327 1343 
f 1340 1323 1343 
f 1324 1340 1343 
f 1319 1330 1344 
f 1336 1328 1344 
f 1330 1336 1344 
f 1328 1325 1345 
f 1339 1319 1345 
f 1325 1339 1345 
f 1319 1344 1345 
f 1344 1328 1345 
f 1321 1322 1346 
f 1332 1321 1346 
f 1322 1332 1346 
f 1331 1326 1347 
f 1326 1334 1347 
f 1334 1331 1347 
f 1326 1329 1348 
f 1334 1326 1348 
f 1329 1337 1348 
f 1337 1334 1348 
f 1333 1320 1349 
f 1320 1338 1349 
f 1338 1333 1349 
f 1321 1335 1350 
f 1335 1328 1350 
f 1338 1321 1350 
