o convex_0
v -4.599422 246.337411 -48.681686
v -16.815540 268.319009 -41.352972
v -16.815540 268.319009 -40.131361
v -9.486587 276.872085 -41.352972
v -4.599422 242.671261 -41.352972
v -13.150466 259.769759 -47.460075
v -4.599422 259.769759 -48.681686
v -7.043603 271.985159 -40.131361
v -9.486587 247.558186 -46.238463
v -14.371360 279.313634 -41.352972
v -11.928376 267.098234 -47.460075
v -5.821513 240.222058 -42.575541
v -7.043603 251.224337 -49.904255
v -4.599422 260.990534 -41.352972
v -15.593450 262.211309 -45.017808
v -16.815540 276.872085 -41.352972
v -7.043603 257.332037 -40.131361
v -14.371360 279.313634 -40.131361
v -9.486587 269.539783 -46.238463
v -9.486587 250.003562 -48.681686
v -14.371360 258.552811 -43.796196
v -5.821513 257.332037 -49.904255
v -13.150466 265.877459 -47.460075
v -14.371360 262.211309 -40.131361
v -4.599422 263.432083 -45.017808
v -5.821513 243.892035 -47.460075
v -4.599422 240.222058 -43.796196
v -4.599422 250.003562 -49.904255
v -11.928376 279.313634 -41.352972
v -5.821513 242.671261 -41.352972
v -9.486587 276.872085 -40.131361
v -16.815540 276.872085 -40.131361
f 18 16 32 
f 5 1 7 
f 5 7 14 
f 8 5 14 
f 3 2 15 
f 2 3 16 
f 15 2 16 
f 8 3 17 
f 5 8 17 
f 3 8 18 
f 10 16 18 
f 4 7 19 
f 6 13 20 
f 15 6 20 
f 9 15 20 
f 9 12 21 
f 3 15 21 
f 15 9 21 
f 19 7 22 
f 11 19 22 
f 10 11 23 
f 13 6 23 
f 6 15 23 
f 16 10 23 
f 15 16 23 
f 22 13 23 
f 11 22 23 
f 17 3 24 
f 3 21 24 
f 21 12 24 
f 7 4 25 
f 4 8 25 
f 14 7 25 
f 8 14 25 
f 12 9 26 
f 13 1 26 
f 9 20 26 
f 20 13 26 
f 1 5 27 
f 5 12 27 
f 26 1 27 
f 12 26 27 
f 7 1 28 
f 1 13 28 
f 22 7 28 
f 13 22 28 
f 11 10 29 
f 10 18 29 
f 4 19 29 
f 19 11 29 
f 12 5 30 
f 5 17 30 
f 24 12 30 
f 17 24 30 
f 8 4 31 
f 18 8 31 
f 4 29 31 
f 29 18 31 
f 16 3 32 
f 3 18 32 
o convex_1
v -14.371240 264.664578 -40.130404
v -19.258764 311.089413 -18.137087
v -20.482289 311.089413 -18.137087
v -13.152977 281.770731 -40.130404
v -7.041928 265.889180 -38.905443
v -19.258764 285.434968 -36.464133
v -15.594766 304.975973 -25.471780
v -20.482289 295.198295 -24.248973
v -15.594766 302.531553 -20.584855
v -7.041928 271.997837 -40.130404
v -11.929452 262.220159 -38.905443
v -20.482289 303.751371 -26.692435
v -16.814344 269.553417 -40.130404
v -15.594766 292.758659 -24.248973
v -20.482289 287.869820 -30.352247
v -16.814344 289.089638 -36.464133
v -10.709873 281.770731 -38.905443
v -16.814344 273.217655 -35.241326
v -9.486348 264.664578 -37.682635
v -16.814344 280.550913 -40.130404
v -18.037869 292.758659 -24.248973
v -15.594766 295.198295 -32.795710
v -14.371240 301.306952 -24.248973
v -9.486348 262.220159 -40.130404
v -20.482289 311.089413 -20.584855
v -7.041928 271.997837 -38.905443
v -19.258764 304.975973 -19.362047
v -20.482289 297.642714 -30.352247
v -19.258764 279.326311 -36.464133
v -16.814344 307.415609 -24.248973
v -16.814344 307.415609 -19.362047
v -8.265454 276.881892 -38.905443
f 55 42 64 
f 33 36 42 
f 40 35 44 
f 36 33 45 
f 40 44 47 
f 42 36 49 
f 33 43 50 
f 43 40 50 
f 45 33 50 
f 40 47 50 
f 37 41 51 
f 41 46 51 
f 36 45 52 
f 45 38 52 
f 48 36 52 
f 38 48 52 
f 40 43 53 
f 43 51 53 
f 51 46 53 
f 36 48 54 
f 48 44 54 
f 49 36 54 
f 39 49 54 
f 33 42 56 
f 42 37 56 
f 43 33 56 
f 37 51 56 
f 51 43 56 
f 35 34 57 
f 44 35 57 
f 41 37 58 
f 37 42 58 
f 55 41 58 
f 42 55 58 
f 34 35 59 
f 35 40 59 
f 46 41 59 
f 40 53 59 
f 53 46 59 
f 38 47 60 
f 47 44 60 
f 48 38 60 
f 44 48 60 
f 38 45 61 
f 47 38 61 
f 45 50 61 
f 50 47 61 
f 39 54 62 
f 54 44 62 
f 57 34 62 
f 44 57 62 
f 55 39 63 
f 41 55 63 
f 34 59 63 
f 59 41 63 
f 62 34 63 
f 39 62 63 
f 49 39 64 
f 42 49 64 
f 39 55 64 
o convex_2
v 1.510430 229.220676 -45.013801
v 2.732162 228.000933 -34.022345
v -2.153687 228.000933 -34.022345
v -4.598226 247.549097 -46.237944
v -2.153687 213.349676 -35.246488
v 5.174548 242.662953 -46.236509
v 6.398432 214.569418 -34.022345
v 3.951740 242.662953 -41.352853
v -4.598226 245.109613 -48.683361
v 5.174548 219.455562 -40.131580
v -4.597150 240.216294 -40.133015
v -3.374342 215.789161 -34.022345
v -3.374342 242.662953 -40.133015
v 0.289775 212.126346 -36.467761
v 0.288699 247.549097 -48.683361
v 6.398432 220.678892 -34.022345
v -2.153687 220.678892 -40.131580
v 3.951740 240.216294 -47.459217
v 3.953893 210.906604 -34.022345
v 1.510430 247.549097 -46.237944
v -0.931956 232.883490 -46.236509
v 6.398432 221.898634 -38.911742
v 1.509354 242.662953 -40.133015
v -4.597150 238.996551 -46.236509
v 0.289775 220.678892 -41.351418
v 0.288699 242.662953 -48.683361
v 5.174548 242.662953 -43.793964
v -3.374342 225.561449 -34.022345
v 5.174548 213.349676 -36.467761
v 3.953893 230.440418 -45.013801
v -4.598226 232.883490 -40.131580
v -3.374342 215.789161 -35.246488
f 76 95 96 
f 66 67 71 
f 71 67 76 
f 67 66 77 
f 68 75 77 
f 73 68 79 
f 66 71 80 
f 72 66 80 
f 78 69 81 
f 79 70 82 
f 71 76 83 
f 76 69 83 
f 69 78 83 
f 68 77 84 
f 70 79 84 
f 79 68 84 
f 80 71 86 
f 66 72 87 
f 77 66 87 
f 72 84 87 
f 84 77 87 
f 85 81 88 
f 73 85 88 
f 65 74 89 
f 74 78 89 
f 78 81 89 
f 85 65 89 
f 81 85 89 
f 73 79 90 
f 79 82 90 
f 65 85 90 
f 85 73 90 
f 72 80 91 
f 70 84 91 
f 84 72 91 
f 80 86 91 
f 86 70 91 
f 76 67 92 
f 67 77 92 
f 77 75 92 
f 78 74 93 
f 71 83 93 
f 83 78 93 
f 86 71 93 
f 74 86 93 
f 74 65 94 
f 82 70 94 
f 86 74 94 
f 70 86 94 
f 65 90 94 
f 90 82 94 
f 68 73 95 
f 75 68 95 
f 73 88 95 
f 92 75 95 
f 76 92 95 
f 69 76 96 
f 81 69 96 
f 88 81 96 
f 95 88 96 
o convex_3
v 6.396399 206.007959 5.080474
v 6.396399 221.894293 18.518442
v 3.952936 221.894293 18.518442
v 6.396399 221.894293 8.742439
v -3.376376 192.575611 -2.252067
v -2.152491 204.790652 -3.474875
v 1.511626 188.910775 -2.252067
v 1.511626 204.790652 -3.474875
v 7.620283 212.117094 13.627211
v 2.731205 221.894293 17.293482
v 3.952936 219.446764 18.518442
v 7.620283 218.223000 7.521784
v 0.289895 191.351846 0.191395
v -3.376376 202.349581 -2.252067
v 2.731205 221.894293 12.406556
v 1.511626 188.910775 -3.474875
v 7.620283 221.894293 17.293482
v 0.289895 209.672794 -1.027107
v 2.731205 204.790652 -2.252067
v -2.152491 191.351846 -1.027107
v -3.376376 192.575611 -3.474875
v 6.396399 217.002465 17.293482
v -3.376376 196.240446 -1.027107
v 5.175744 215.781929 3.857666
v 3.952936 221.894293 9.963093
v 7.620283 210.893329 7.521784
v 2.731205 193.796146 -2.252067
v 3.952936 198.681517 5.080474
v 5.175744 201.125817 5.080474
v -2.152491 206.007959 -2.252067
v -0.931836 188.910775 -2.252067
v 7.620283 221.894293 9.963093
f 113 108 128 
f 99 98 100 
f 99 100 106 
f 98 99 107 
f 99 106 107 
f 110 106 111 
f 106 100 111 
f 102 104 112 
f 100 98 113 
f 105 108 113 
f 104 102 114 
f 112 104 115 
f 107 101 116 
f 109 107 116 
f 101 110 117 
f 110 102 117 
f 102 112 117 
f 98 107 118 
f 107 109 118 
f 113 98 118 
f 105 113 118 
f 101 107 119 
f 107 106 119 
f 110 101 119 
f 106 110 119 
f 100 108 120 
f 114 100 120 
f 104 114 120 
f 108 115 120 
f 115 104 120 
f 111 100 121 
f 100 114 121 
f 108 105 122 
f 115 108 122 
f 115 122 123 
f 97 112 123 
f 112 115 123 
f 122 97 123 
f 109 103 124 
f 105 118 124 
f 118 109 124 
f 112 97 125 
f 103 112 125 
f 97 122 125 
f 122 105 125 
f 124 103 125 
f 105 124 125 
f 102 110 126 
f 110 111 126 
f 114 102 126 
f 111 121 126 
f 121 114 126 
f 103 109 127 
f 112 103 127 
f 116 101 127 
f 109 116 127 
f 117 112 127 
f 101 117 127 
f 108 100 128 
f 100 113 128 
o convex_4
v -9.487065 252.447025 0.191635
v -26.589152 276.872802 0.191635
v -26.589152 276.872802 1.413964
v -4.601097 231.677831 8.741242
v -2.156917 237.785531 14.852889
v -22.922881 280.534409 0.191635
v -19.259003 259.765215 -2.253024
v -11.931246 243.893231 8.741242
v -2.156917 241.452160 7.520588
v -25.367062 279.313873 3.856948
v -4.601097 235.339437 14.852889
v -20.481093 275.647244 -2.253024
v -7.045277 240.226602 2.634619
v -22.922881 279.313873 3.856948
v -2.156917 237.785531 5.079278
v -2.156917 241.452160 11.185901
v -11.931246 243.893231 2.634619
v -25.367062 273.206173 2.634619
v -14.373034 257.324144 -2.253024
v -25.367062 279.313873 -2.253024
v -3.379007 230.447250 13.628886
v -2.156917 231.677831 7.520588
v -15.592733 265.872915 -2.253024
v -10.709156 243.893231 11.185901
v -18.036913 256.103608 3.856948
v -26.589152 281.754944 1.413964
v -21.700791 264.652379 -2.253024
v -10.709156 243.893231 1.413964
v -2.156917 231.677831 14.852889
v -25.367062 276.872802 3.856948
v -4.601097 237.785531 14.852889
v -7.045277 245.113766 1.413964
f 141 147 160 
f 134 137 140 
f 138 133 142 
f 129 137 143 
f 137 133 143 
f 133 137 144 
f 137 134 144 
f 142 133 144 
f 134 142 144 
f 132 136 145 
f 131 130 146 
f 135 140 147 
f 134 140 148 
f 140 135 148 
f 136 132 149 
f 132 141 150 
f 143 133 150 
f 141 143 150 
f 149 132 150 
f 137 129 151 
f 140 137 151 
f 129 147 151 
f 147 140 151 
f 146 136 152 
f 136 149 152 
f 149 139 152 
f 145 136 153 
f 136 146 153 
f 130 131 154 
f 131 138 154 
f 142 134 154 
f 138 142 154 
f 148 130 154 
f 134 148 154 
f 135 145 155 
f 146 130 155 
f 130 148 155 
f 148 135 155 
f 145 153 155 
f 153 146 155 
f 141 132 156 
f 132 145 156 
f 145 135 156 
f 135 147 156 
f 147 141 156 
f 133 139 157 
f 139 149 157 
f 150 133 157 
f 149 150 157 
f 138 131 158 
f 139 138 158 
f 131 146 158 
f 152 139 158 
f 146 152 158 
f 133 138 159 
f 138 139 159 
f 139 133 159 
f 129 143 160 
f 143 141 160 
f 147 129 160 
o convex_5
v -2.153568 234.115195 6.299933
v 2.732879 247.548978 20.962144
v 3.953534 248.775014 19.739336
v 7.619326 221.899555 17.295156
v 0.290612 229.229465 19.739336
v 6.396758 221.899555 9.966921
v 5.175146 247.548978 14.852411
v -0.931956 245.104797 19.739336
v -2.153568 228.006060 13.631038
v 2.732879 221.899555 19.739336
v 0.290612 248.775014 17.295156
v -0.931956 236.554113 6.299933
v 2.732879 221.899555 12.409666
v -2.153568 238.998293 7.522740
v 7.619326 223.120330 11.188293
v 2.732879 231.671014 20.962144
v 5.175146 248.775014 18.517964
v -2.153568 230.450240 16.073783
v 0.290612 235.335969 20.962144
v 2.732879 248.775014 14.852411
v 5.175146 221.899555 19.739336
v -2.153568 231.671014 7.522740
v -2.153568 238.998293 13.631038
v 5.175146 230.450240 19.739336
v 0.290612 246.328203 20.962144
v 5.175146 221.899555 9.966921
v -0.931956 236.554113 19.739336
v 7.619326 224.341105 14.852411
v -2.153568 229.229465 9.966921
v 3.953534 248.775014 14.852411
v 1.511268 223.120330 18.517964
v 5.175146 248.775014 16.073783
f 190 177 192 
f 166 164 170 
f 162 163 171 
f 166 161 172 
f 166 170 173 
f 161 169 174 
f 168 171 174 
f 172 161 174 
f 164 166 175 
f 166 172 175 
f 172 167 175 
f 171 163 177 
f 174 169 178 
f 165 170 179 
f 176 162 179 
f 170 176 179 
f 174 171 180 
f 171 177 180 
f 170 164 181 
f 162 176 181 
f 176 170 181 
f 169 161 182 
f 168 174 183 
f 178 168 183 
f 174 178 183 
f 163 162 184 
f 177 163 184 
f 164 177 184 
f 162 181 184 
f 181 164 184 
f 162 171 185 
f 171 168 185 
f 179 162 185 
f 168 179 185 
f 161 166 186 
f 166 173 186 
f 182 161 186 
f 173 182 186 
f 178 165 187 
f 168 178 187 
f 179 168 187 
f 165 179 187 
f 164 175 188 
f 177 164 188 
f 173 169 189 
f 169 182 189 
f 182 173 189 
f 167 172 190 
f 172 174 190 
f 174 180 190 
f 180 177 190 
f 170 165 191 
f 169 173 191 
f 173 170 191 
f 165 178 191 
f 178 169 191 
f 175 167 192 
f 188 175 192 
f 177 188 192 
f 167 190 192 
o convex_6
v 25.948047 176.689515 -57.235600
v 12.507687 203.560429 -58.456494
v 12.507687 203.560429 -57.235600
v 17.396526 206.005447 -58.456494
v 25.948047 179.134532 -48.684557
v 19.836999 180.355307 -53.571721
v 17.396526 191.345747 -60.900674
v 25.948047 184.021099 -57.235600
v 17.396526 206.005447 -60.900674
v 24.725838 174.247966 -48.684557
v 14.952106 202.339655 -54.792615
v 22.280103 176.689515 -56.013510
v 21.059208 191.345747 -60.900674
v 12.507687 208.450464 -60.900674
v 25.948047 184.021099 -51.128737
v 16.175632 206.005447 -56.013510
v 16.175632 190.128440 -58.456494
v 14.952106 195.008071 -54.792615
v 24.725838 188.907666 -56.013510
v 25.948047 173.020255 -53.571721
v 22.280103 179.134532 -58.456494
v 13.729897 199.898105 -60.900674
v 12.507687 207.226221 -57.235600
v 19.836999 201.118880 -57.235600
v 14.952106 208.450464 -58.456494
v 24.725838 173.020255 -49.906647
v 13.729897 197.453088 -57.235600
v 17.396526 204.784672 -56.013510
v 24.725838 179.134532 -48.684557
v 25.948047 174.247966 -48.684557
v 21.059208 179.134532 -57.235600
v 22.280103 195.008071 -58.456494
f 216 211 224 
f 197 193 200 
f 200 193 205 
f 199 201 205 
f 194 195 206 
f 201 199 206 
f 197 200 207 
f 203 197 208 
f 198 202 210 
f 202 203 210 
f 207 200 211 
f 193 197 212 
f 212 204 213 
f 205 193 213 
f 199 205 213 
f 193 212 213 
f 194 206 214 
f 206 199 214 
f 199 209 214 
f 206 195 215 
f 203 208 215 
f 195 210 215 
f 210 203 215 
f 201 196 216 
f 207 211 216 
f 196 201 217 
f 201 206 217 
f 206 215 217 
f 215 208 217 
f 202 198 218 
f 198 204 218 
f 204 212 218 
f 195 194 219 
f 209 198 219 
f 198 210 219 
f 210 195 219 
f 194 214 219 
f 214 209 219 
f 197 207 220 
f 208 197 220 
f 216 196 220 
f 207 216 220 
f 196 217 220 
f 217 208 220 
f 202 197 221 
f 197 203 221 
f 203 202 221 
f 197 202 222 
f 212 197 222 
f 202 218 222 
f 218 212 222 
f 204 198 223 
f 198 209 223 
f 209 199 223 
f 213 204 223 
f 199 213 223 
f 200 205 224 
f 205 201 224 
f 211 200 224 
f 201 216 224 
o convex_7
v 3.956404 247.559382 -47.461510
v 11.284162 275.651071 -26.690043
v 13.728342 279.317700 -27.912014
v 1.512224 262.211548 -38.907716
v 2.734314 243.892753 -38.907716
v 13.728342 270.764624 -30.357988
v 13.728342 276.870889 -32.799896
v 5.177299 242.665759 -46.239539
v 1.512224 256.108870 -34.023900
v 1.512224 253.665647 -46.239539
v 7.620283 275.651071 -32.799896
v 1.512224 242.665759 -47.461510
v 7.620283 274.427665 -27.912014
v 11.284162 269.541218 -27.912014
v 1.512224 262.211548 -34.023900
v 11.284162 262.211548 -37.685745
v 3.956404 242.665759 -41.351657
v 13.728342 271.984442 -27.912014
v 1.512224 246.335976 -37.685745
v 8.841177 273.207847 -26.690043
v 7.620283 258.552094 -42.573627
v 5.177299 259.775500 -31.577926
v 2.734314 258.552094 -43.793565
v 11.284162 279.317700 -27.912014
v 5.177299 243.892753 -42.573627
v 8.841177 267.097995 -38.907716
v 8.841177 273.207847 -35.243837
v 1.512224 242.665759 -40.127653
v 7.620283 259.775500 -31.577926
v 5.177299 270.764624 -31.577926
v 2.734314 250.002605 -47.461510
v 8.841177 258.552094 -41.351657
f 245 231 256 
f 227 230 231 
f 233 228 234 
f 225 232 236 
f 233 234 236 
f 228 233 239 
f 231 230 240 
f 230 232 240 
f 236 232 241 
f 227 226 242 
f 230 227 242 
f 229 241 242 
f 233 236 243 
f 239 233 244 
f 237 239 244 
f 242 226 244 
f 238 242 244 
f 233 243 246 
f 238 244 246 
f 244 233 246 
f 234 228 247 
f 228 235 247 
f 226 227 248 
f 227 231 248 
f 231 235 248 
f 235 237 248 
f 244 226 248 
f 237 244 248 
f 232 230 249 
f 241 232 249 
f 230 242 249 
f 242 241 249 
f 231 245 250 
f 234 247 250 
f 250 247 251 
f 235 231 251 
f 247 235 251 
f 231 250 251 
f 236 241 252 
f 241 229 252 
f 229 243 252 
f 243 236 252 
f 242 238 253 
f 229 242 253 
f 243 229 253 
f 238 246 253 
f 246 243 253 
f 235 228 254 
f 237 235 254 
f 228 239 254 
f 239 237 254 
f 225 236 255 
f 236 234 255 
f 245 225 255 
f 250 245 255 
f 234 250 255 
f 232 225 256 
f 231 240 256 
f 240 232 256 
f 225 245 256 
o convex_8
v 5.176103 192.565289 -12.025948
v -7.041928 187.686625 -13.249683
v -7.041928 187.686625 -10.804127
v 7.620283 173.022647 -12.025948
v 0.289177 204.788380 -3.475114
v -0.933630 173.025756 -5.918756
v -4.596313 173.025756 -13.249683
v 2.731922 197.456391 -13.249683
v -3.374940 203.563272 -3.475114
v 1.510550 187.686625 -3.475114
v -5.817685 196.225064 -13.249683
v -4.597748 193.790396 -3.475114
v -3.374940 173.025756 -7.141534
v 7.620283 173.022647 -13.249683
v 2.731922 173.022647 -5.918756
v 1.510550 201.116166 -3.475114
v -7.040493 193.787287 -9.583263
v -2.153568 204.788380 -4.697892
v 6.397475 188.902404 -12.025948
v 6.397475 179.135747 -9.583263
v -4.596313 173.025756 -9.583263
v -5.817685 191.343291 -5.918756
v -3.374940 188.905513 -3.475114
v -3.374940 197.453281 -13.249683
v 6.397475 188.902404 -13.249683
v 6.397475 173.022647 -9.583263
v -5.817685 197.453281 -5.918756
v -7.040493 193.787287 -13.249683
v 6.397475 186.458408 -10.804127
v -4.596313 201.113057 -7.141534
v -0.933630 186.464626 -3.475114
v 0.289177 204.788380 -4.697892
f 264 274 288 
f 259 258 263 
f 263 258 264 
f 261 265 266 
f 264 258 267 
f 266 265 268 
f 263 264 270 
f 262 269 271 
f 270 260 271 
f 263 270 271 
f 261 266 272 
f 258 259 273 
f 265 261 274 
f 257 261 275 
f 261 272 275 
f 272 266 276 
f 259 263 277 
f 271 269 277 
f 263 271 277 
f 269 268 278 
f 273 259 278 
f 259 277 278 
f 277 269 278 
f 266 268 279 
f 269 262 279 
f 268 269 279 
f 264 267 280 
f 274 264 280 
f 267 274 280 
f 264 257 281 
f 260 270 281 
f 270 264 281 
f 257 275 281 
f 275 260 281 
f 271 260 282 
f 266 271 282 
f 260 276 282 
f 276 266 282 
f 268 265 283 
f 278 268 283 
f 273 278 283 
f 267 258 284 
f 258 273 284 
f 273 283 284 
f 260 275 285 
f 275 272 285 
f 272 276 285 
f 276 260 285 
f 265 274 286 
f 274 267 286 
f 283 265 286 
f 267 284 286 
f 284 283 286 
f 271 266 287 
f 262 271 287 
f 279 262 287 
f 266 279 287 
f 261 257 288 
f 257 264 288 
f 274 261 288 
o convex_9
v 10.061354 115.596848 -13.251118
v -3.375179 124.138921 -10.806459
v -3.375179 124.138921 -9.585326
v 5.176897 132.699173 -13.251118
v 8.840569 120.484850 -21.801443
v 0.289808 109.484005 -10.806459
v 8.840569 115.594575 -9.585326
v 10.061354 127.808899 -13.251118
v -3.375179 131.476605 -9.585326
v 0.291124 132.699173 -14.472251
v 10.063985 126.588603 -20.579114
v 10.063985 118.041985 -20.579114
v 2.734010 109.484005 -9.585326
v -0.930977 131.476605 -9.585326
v 1.511909 116.817144 -14.472251
v 7.618468 111.931414 -10.806459
v 8.839253 130.251764 -13.251118
v 8.840569 124.141193 -21.801443
v 2.734010 109.484005 -10.806459
v 5.176897 132.699173 -14.472251
v 0.289808 109.484005 -9.585326
v -2.151763 116.821689 -10.806459
v -3.375179 131.476605 -10.806459
v 8.840569 113.153983 -9.585326
v 0.291124 126.588603 -14.472251
v 10.061354 115.596848 -15.693385
v 10.063985 124.141193 -21.801443
v 8.840569 118.041985 -20.579114
v 8.839253 130.251764 -14.472251
v -2.151763 116.821689 -9.585326
v 8.840569 126.588603 -20.579114
v -2.151763 124.138921 -12.028789
f 313 293 320 
f 295 289 296 
f 290 291 297 
f 291 295 297 
f 297 292 298 
f 296 289 299 
f 299 289 300 
f 295 291 301 
f 292 297 302 
f 297 295 302 
f 293 294 303 
f 295 296 305 
f 302 295 305 
f 292 302 305 
f 293 298 306 
f 294 300 307 
f 301 294 307 
f 304 301 307 
f 298 292 308 
f 299 298 308 
f 292 305 308 
f 301 291 309 
f 294 301 309 
f 291 290 310 
f 290 303 310 
f 303 294 310 
f 294 309 310 
f 290 297 311 
f 298 290 311 
f 297 298 311 
f 289 295 312 
f 295 301 312 
f 301 304 312 
f 298 293 313 
f 290 298 313 
f 300 289 314 
f 307 300 314 
f 304 307 314 
f 289 312 314 
f 312 304 314 
f 300 293 315 
f 299 300 315 
f 293 306 315 
f 306 299 315 
f 294 293 316 
f 293 300 316 
f 300 294 316 
f 296 299 317 
f 305 296 317 
f 299 308 317 
f 308 305 317 
f 309 291 318 
f 291 310 318 
f 310 309 318 
f 298 299 319 
f 306 298 319 
f 299 306 319 
f 303 290 320 
f 293 303 320 
f 290 313 320 
o convex_10
v -4.599422 15.401481 0.190439
v -9.485630 1.962594 0.190439
v -9.485630 1.962594 2.633901
v 0.288699 -7.813209 -2.253024
v -9.484674 15.401481 -2.252067
v 0.288699 -6.588393 1.412170
v -8.262882 15.401481 2.633901
v -9.484674 1.962594 -2.252067
v -3.377631 14.178938 -1.030814
v -5.818343 14.178938 2.633901
v -0.934049 -7.813209 1.412170
v -9.485630 15.401481 2.633901
v -7.041091 15.401481 -2.252067
v -0.933092 3.185137 0.190439
v -0.934049 -7.813209 -2.253024
v -3.377631 14.178938 0.190439
v 0.288699 -2.925308 -1.030814
v -7.040134 3.185137 2.633901
v 0.288699 -6.588393 -2.253024
v 0.288699 -7.813209 1.412170
v -5.818343 9.288764 2.633901
v 0.288699 -2.925308 0.190439
v -0.933092 3.185137 -1.030814
v -4.599422 15.401481 -1.030814
v -5.818343 15.401481 1.411213
v -8.262882 1.962594 2.633901
v -9.485630 15.401481 -1.030814
v -9.485630 3.185137 -1.030814
v -0.934049 -6.588393 -2.253024
f 339 335 349 
f 321 325 327 
f 327 323 330 
f 323 322 331 
f 322 323 332 
f 327 325 332 
f 323 327 332 
f 325 321 333 
f 322 328 335 
f 328 325 335 
f 331 322 335 
f 324 331 335 
f 329 321 336 
f 330 326 336 
f 326 334 336 
f 334 329 336 
f 326 324 337 
f 330 323 338 
f 325 333 339 
f 333 329 339 
f 324 335 339 
f 337 324 339 
f 324 326 340 
f 326 330 340 
f 323 331 340 
f 331 324 340 
f 338 340 341 
f 330 338 341 
f 340 330 341 
f 334 326 342 
f 326 337 342 
f 337 334 342 
f 329 334 343 
f 334 337 343 
f 339 329 343 
f 337 339 343 
f 321 329 344 
f 333 321 344 
f 329 333 344 
f 321 327 345 
f 327 330 345 
f 336 321 345 
f 330 336 345 
f 338 323 346 
f 323 340 346 
f 340 338 346 
f 325 328 347 
f 322 332 347 
f 332 325 347 
f 328 322 348 
f 322 347 348 
f 347 328 348 
f 335 325 349 
f 325 339 349 
o convex_11
v 3.954969 143.701931 -15.693743
v 6.397715 186.455353 -13.249683
v 5.176581 186.455353 -13.249683
v 2.733358 186.455353 -19.358938
v 6.397715 182.787767 -18.136608
v 6.397715 136.372021 -13.249683
v 2.733358 132.699173 -13.249683
v 7.619805 186.455353 -15.693743
v 2.733358 154.699426 -13.249683
v 6.397715 136.372021 -14.472610
v 5.176581 181.566992 -19.358938
v 7.619805 171.790271 -13.249683
v 2.733358 182.787767 -16.914279
v 2.733358 132.699173 -14.472610
v 2.733358 179.120181 -19.358938
v 5.176581 132.699173 -14.472610
v 5.176581 186.455353 -19.358938
v 7.619805 180.346218 -15.693743
v 7.619805 184.008542 -13.249683
v 3.954969 179.120181 -19.358938
v 2.733358 175.457857 -15.693743
v 7.619805 171.790271 -14.472610
v 5.176581 132.699173 -13.249683
v 2.733358 186.455353 -18.136608
v 6.397715 186.455353 -18.136608
v 7.619805 186.455353 -14.472610
v 2.733358 143.701931 -15.693743
f 363 364 376 
f 352 351 353 
f 351 352 355 
f 355 352 356 
f 353 351 357 
f 356 352 358 
f 353 356 358 
f 354 359 360 
f 351 355 361 
f 355 359 361 
f 353 358 362 
f 356 353 363 
f 353 360 364 
f 363 353 364 
f 359 355 365 
f 360 359 365 
f 356 363 365 
f 363 350 365 
f 353 357 366 
f 360 353 366 
f 354 360 366 
f 354 357 367 
f 359 354 367 
f 357 361 367 
f 351 361 368 
f 361 357 368 
f 350 364 369 
f 364 360 369 
f 360 365 369 
f 365 350 369 
f 358 352 370 
f 352 362 370 
f 362 358 370 
f 361 359 371 
f 359 367 371 
f 367 361 371 
f 355 356 372 
f 365 355 372 
f 356 365 372 
f 352 353 373 
f 362 352 373 
f 353 362 373 
f 357 354 374 
f 366 357 374 
f 354 366 374 
f 357 351 375 
f 351 368 375 
f 368 357 375 
f 350 363 376 
f 364 350 376 
o convex_12
v -9.484673 66.720652 -5.917381
v 0.288221 89.933093 7.521784
v -0.933630 89.933093 7.521784
v -4.598226 102.152899 -1.028977
v -8.262823 66.724360 3.852850
v 0.287264 64.277433 5.077582
v -7.040972 99.705972 0.193124
v 0.288221 102.152899 2.634695
v -8.262823 64.277433 -5.917381
v -4.598226 100.929436 3.854165
v -3.378289 64.277433 6.298367
v -9.483717 77.713287 0.191809
v -9.484673 64.277433 1.411279
v -5.819121 87.493581 5.076266
v 0.288221 102.152899 5.076266
v -7.040972 99.705972 -1.028977
v 0.288221 78.940458 7.521784
v 0.287264 64.277433 6.298367
v -9.483717 77.713287 -2.252393
v -2.154525 102.152899 5.076266
v -8.262823 66.720652 -5.917381
v -5.819121 102.152899 -1.028977
v -5.819121 94.812118 3.854165
v -4.598226 94.812118 5.076266
v 0.288221 100.929436 2.634695
v -0.933630 98.478801 6.297052
v -5.819121 102.152899 1.411279
v -9.484673 64.277433 -5.917381
v -8.262823 64.277433 3.852850
v -0.933630 78.940458 7.521784
v -7.040972 82.614557 3.854165
v -3.377332 91.152849 6.297052
f 402 396 408 
f 385 382 387 
f 385 387 389 
f 388 377 389 
f 381 388 389 
f 387 379 390 
f 381 387 390 
f 378 384 391 
f 384 380 391 
f 388 383 392 
f 378 379 393 
f 384 378 393 
f 393 387 394 
f 387 382 394 
f 382 393 394 
f 377 388 395 
f 392 377 395 
f 388 392 395 
f 391 380 396 
f 377 380 397 
f 380 384 397 
f 385 377 397 
f 384 385 397 
f 380 377 398 
f 377 392 398 
f 392 383 398 
f 396 380 398 
f 386 383 399 
f 383 388 399 
f 399 390 400 
f 396 386 400 
f 386 399 400 
f 382 385 401 
f 385 384 401 
f 384 393 401 
f 393 382 401 
f 379 378 402 
f 378 391 402 
f 391 396 402 
f 383 386 403 
f 386 396 403 
f 398 383 403 
f 396 398 403 
f 377 385 404 
f 389 377 404 
f 385 389 404 
f 387 381 405 
f 381 389 405 
f 389 387 405 
f 379 387 406 
f 393 379 406 
f 387 393 406 
f 388 381 407 
f 381 390 407 
f 399 388 407 
f 390 399 407 
f 390 379 408 
f 400 390 408 
f 396 400 408 
f 379 402 408 
o convex_13
v 6.396758 187.688928 -19.359873
v 1.510550 198.679760 -13.252194
v -3.374342 198.679760 -13.252194
v 2.731444 225.556019 -34.019116
v -3.374342 213.336755 -34.019116
v -4.597868 192.572041 -19.361906
v 6.396758 219.444473 -34.019116
v 7.620283 186.464322 -14.474137
v 2.731444 206.012084 -32.797173
v -2.152133 225.556019 -32.797173
v -5.820077 195.017425 -13.252194
v 1.510550 186.464322 -20.579782
v 5.174548 197.458982 -14.474137
v 6.396758 213.336755 -34.019116
v 2.731444 225.556019 -32.797173
v 5.174548 186.464322 -13.252194
v -3.374342 221.889857 -34.019116
v -0.931238 191.358917 -23.025700
v -5.820077 195.017425 -18.137931
v 5.174548 223.110635 -32.797173
v 6.396758 199.900539 -18.137931
v 0.290971 208.453641 -34.019116
v 5.174548 209.674419 -34.019116
v 3.954969 186.464322 -20.579782
v 3.954969 197.458982 -13.252194
v 7.620283 186.464322 -16.918022
v -5.820077 196.242030 -13.252194
v 1.510550 186.464322 -18.137931
v 0.290971 224.331414 -31.575231
v 1.510550 187.688928 -21.801725
v 7.620283 190.134311 -15.696079
v -3.374342 198.687414 -25.467552
f 430 426 440 
f 413 412 415 
f 410 411 419 
f 413 415 422 
f 412 418 423 
f 410 419 424 
f 420 416 424 
f 412 413 425 
f 418 412 425 
f 420 414 426 
f 413 414 427 
f 414 419 427 
f 425 413 427 
f 415 412 428 
f 412 423 428 
f 415 428 429 
f 428 421 429 
f 413 422 430 
f 417 430 431 
f 430 422 431 
f 416 420 432 
f 431 409 432 
f 417 431 432 
f 416 421 433 
f 423 410 433 
f 410 424 433 
f 424 416 433 
f 421 428 433 
f 428 423 433 
f 422 415 434 
f 409 431 434 
f 431 422 434 
f 432 409 434 
f 416 432 434 
f 411 418 435 
f 419 411 435 
f 418 425 435 
f 427 419 435 
f 425 427 435 
f 419 414 436 
f 414 420 436 
f 424 419 436 
f 420 424 436 
f 411 410 437 
f 418 411 437 
f 410 423 437 
f 423 418 437 
f 420 426 438 
f 430 417 438 
f 426 430 438 
f 432 420 438 
f 417 432 438 
f 421 416 439 
f 415 429 439 
f 429 421 439 
f 434 415 439 
f 416 434 439 
f 414 413 440 
f 426 414 440 
f 413 430 440 
o convex_14
v 10.063985 118.039178 -20.582471
v 32.057302 136.364248 -41.347006
v 32.057302 135.140272 -41.347006
v 17.394373 124.144823 -13.252433
v 19.839989 136.364248 -40.124774
v 10.066138 126.588708 -13.255782
v 23.504106 132.698420 -45.013699
v 13.734561 116.817235 -15.700244
v 23.504106 136.364248 -31.579202
v 30.834495 133.920363 -46.235930
v 10.063985 125.368799 -23.030282
v 17.394373 119.261120 -15.700244
v 10.063985 115.593260 -13.252433
v 24.722608 127.810651 -37.680312
v 25.945416 136.364248 -47.461510
v 16.173718 126.588708 -13.255782
v 19.839989 136.364248 -32.801434
v 29.611687 136.364248 -36.464778
v 11.291098 122.924914 -25.471396
v 29.611687 131.476478 -41.347006
v 19.835683 124.144823 -16.919126
v 11.288946 115.593260 -15.700244
v 21.060644 132.698420 -42.569237
v 17.398679 126.588708 -35.232501
v 10.063985 126.588708 -21.811399
v 32.057302 133.920363 -42.569237
v 32.057302 136.364248 -46.235930
v 16.173718 119.261120 -13.252433
v 24.722608 129.030560 -40.121426
v 19.835683 122.924914 -29.134740
v 19.835683 121.705005 -23.023585
v 17.396526 132.698420 -36.464778
f 463 459 472 
f 442 445 449 
f 444 446 453 
f 451 441 453 
f 445 442 455 
f 450 447 455 
f 446 444 456 
f 449 446 456 
f 449 445 457 
f 446 449 457 
f 442 449 458 
f 456 444 458 
f 449 456 458 
f 441 451 459 
f 454 450 460 
f 443 442 461 
f 442 458 461 
f 458 444 461 
f 453 441 462 
f 448 453 462 
f 445 455 463 
f 455 447 463 
f 459 463 464 
f 441 459 464 
f 463 447 464 
f 445 451 465 
f 453 446 465 
f 451 453 465 
f 457 445 465 
f 446 457 465 
f 442 443 466 
f 460 450 466 
f 452 460 466 
f 443 461 466 
f 461 452 466 
f 455 442 467 
f 450 455 467 
f 442 466 467 
f 466 450 467 
f 448 452 468 
f 444 453 468 
f 453 448 468 
f 452 461 468 
f 461 444 468 
f 447 450 469 
f 450 454 469 
f 441 464 469 
f 464 447 469 
f 454 460 470 
f 462 441 470 
f 448 462 470 
f 469 454 470 
f 441 469 470 
f 452 448 471 
f 460 452 471 
f 448 470 471 
f 470 460 471 
f 451 445 472 
f 459 451 472 
f 445 463 472 
o convex_15
v 23.504346 137.587486 -46.235831
v 34.501004 141.251939 -43.791651
v 34.501004 140.030853 -43.791651
v 21.063036 137.587486 -34.021149
v 27.169898 148.582040 -48.681567
v 32.055389 148.582040 -41.353690
v 30.834016 136.366400 -47.461031
v 25.949961 136.366400 -34.021149
v 34.499569 148.582040 -48.681567
v 19.838793 136.366400 -37.690529
v 28.389836 140.030853 -49.905212
v 27.169898 148.582040 -43.794761
v 32.053953 136.366400 -40.134709
v 34.499569 148.582040 -42.574225
v 33.275326 140.030853 -48.681567
v 24.728589 136.366400 -47.461031
v 33.276761 148.582040 -49.903657
v 19.838793 137.587486 -37.690529
v 21.063036 137.587486 -42.572671
v 33.275326 136.366400 -45.016851
v 28.391271 148.582040 -49.903657
v 25.949961 137.587486 -34.021149
v 34.499569 141.253134 -47.459476
v 28.389836 136.366400 -48.681567
v 32.055389 141.253134 -49.903657
v 19.838793 137.587486 -35.244794
v 25.949961 147.359758 -46.237386
v 30.834016 148.582040 -41.353690
v 21.063036 136.366400 -34.021149
v 23.504346 140.030853 -46.235831
v 34.499569 142.474220 -42.574225
v 28.391271 148.582040 -42.574225
f 500 484 504 
f 474 475 481 
f 477 478 481 
f 479 480 482 
f 478 477 484 
f 480 479 485 
f 475 474 486 
f 474 481 486 
f 481 478 486 
f 479 482 488 
f 477 481 489 
f 481 487 489 
f 473 488 491 
f 488 482 491 
f 482 490 491 
f 475 485 492 
f 485 479 492 
f 479 487 492 
f 483 488 493 
f 477 489 493 
f 489 483 493 
f 478 476 494 
f 476 480 494 
f 480 486 494 
f 486 478 494 
f 481 475 495 
f 487 481 495 
f 475 492 495 
f 492 487 495 
f 487 479 496 
f 479 488 496 
f 488 483 496 
f 483 489 497 
f 489 487 497 
f 487 496 497 
f 496 483 497 
f 476 484 498 
f 490 482 498 
f 490 498 499 
f 484 477 499 
f 477 491 499 
f 491 490 499 
f 498 484 499 
f 476 478 500 
f 478 484 500 
f 480 476 501 
f 482 480 501 
f 476 498 501 
f 498 482 501 
f 488 473 502 
f 473 491 502 
f 491 477 502 
f 477 493 502 
f 493 488 502 
f 485 475 503 
f 480 485 503 
f 486 480 503 
f 475 486 503 
f 484 476 504 
f 476 500 504 
o convex_16
v 6.396040 -6.591238 9.964289
v -4.597389 -6.591597 -10.805981
v -4.597389 -5.370583 -10.805981
v 8.839264 -5.370583 -8.360147
v 1.509593 -4.148134 9.964289
v -9.483836 -7.813328 -2.252679
v 7.618728 -7.813328 -7.138247
v -0.931478 -7.813328 9.964289
v -10.706524 -5.370583 -2.252679
v 11.284640 -5.370583 -2.252679
v 7.618728 -7.813687 7.518456
v 7.618728 -4.148134 8.740356
v 0.289058 -7.813328 -10.805981
v -5.817925 -6.591956 6.298589
v 5.175505 -5.370583 -10.805981
v -8.261148 -7.813328 -7.138247
v 11.284640 -6.591597 -3.474580
v -9.483836 -5.370583 -7.138247
v 7.618728 -4.148134 6.296556
v -5.817925 -7.813328 6.298589
v 7.618728 -6.591597 -9.582048
v -10.706524 -6.591597 -4.696480
v -0.931478 -5.370583 9.964289
v 8.839264 -7.813328 -4.696480
v 1.509593 -4.148134 8.740356
v -10.706524 -6.591597 -2.252679
v 7.618728 -6.591238 8.740356
v -7.040613 -6.591597 -9.582048
v 11.284640 -6.591597 -2.252679
v 2.732281 -7.813687 9.964289
v 5.173352 -4.148134 9.964289
v -7.040613 -7.813328 -8.360147
f 534 520 536 
f 505 509 512 
f 506 507 517 
f 511 515 517 
f 517 507 519 
f 508 514 521 
f 514 508 523 
f 509 516 523 
f 516 514 523 
f 508 519 523 
f 519 507 523 
f 512 518 524 
f 518 513 524 
f 511 517 525 
f 519 508 525 
f 517 519 525 
f 508 521 525 
f 521 511 525 
f 520 510 526 
f 513 522 526 
f 512 509 527 
f 509 513 527 
f 518 512 527 
f 513 518 527 
f 515 511 528 
f 511 521 528 
f 513 509 529 
f 507 522 529 
f 522 513 529 
f 523 507 529 
f 509 523 529 
f 510 524 530 
f 524 513 530 
f 526 510 530 
f 513 526 530 
f 505 515 531 
f 516 505 531 
f 514 516 531 
f 507 506 532 
f 522 507 532 
f 520 526 532 
f 526 522 532 
f 521 514 533 
f 515 528 533 
f 528 521 533 
f 514 531 533 
f 531 515 533 
f 505 512 534 
f 515 505 534 
f 510 520 534 
f 524 510 534 
f 512 524 534 
f 509 505 535 
f 505 516 535 
f 516 509 535 
f 506 517 536 
f 517 515 536 
f 532 506 536 
f 520 532 536 
f 515 534 536 
o convex_17
v 35.722855 166.911000 -46.241094
v 27.169898 148.583236 -48.682404
v 27.169898 148.583236 -43.797272
v 35.722855 148.583236 -46.241094
v 28.393065 166.911000 -51.127062
v 30.836049 166.911000 -43.797272
v 33.278196 158.355292 -51.127062
v 33.278196 148.583236 -42.574106
v 28.393065 166.911000 -45.018764
v 35.722855 166.911000 -48.682404
v 34.499689 151.030286 -49.903896
v 28.393065 148.583236 -49.903896
v 28.393065 152.252018 -42.574106
v 33.278196 157.138943 -42.574106
v 27.169898 157.138943 -45.018764
v 33.278196 166.911000 -51.127062
v 30.836049 153.471955 -51.127062
v 34.499689 163.242218 -43.797272
v 35.722855 151.030286 -45.018764
v 33.278196 148.583236 -49.903896
v 35.722855 153.471955 -48.682404
v 33.278196 166.911000 -43.797272
v 27.169898 157.138943 -47.460074
v 28.393065 148.583236 -42.574106
v 35.722855 162.022281 -45.018764
v 30.836049 157.138943 -42.574106
v 29.614557 165.685681 -43.797272
v 35.722855 148.583236 -47.460074
v 29.614557 155.915418 -51.127062
v 27.169898 152.252018 -43.797272
v 32.055867 153.471955 -51.127062
v 28.393065 164.463949 -51.127062
f 565 548 568 
f 539 538 540 
f 537 541 542 
f 539 540 544 
f 542 541 545 
f 537 540 546 
f 541 537 546 
f 540 538 548 
f 549 544 550 
f 538 539 551 
f 543 541 552 
f 541 546 552 
f 546 543 552 
f 541 543 553 
f 540 537 555 
f 544 540 555 
f 550 544 555 
f 540 548 556 
f 548 553 556 
f 546 540 557 
f 543 546 557 
f 547 543 557 
f 537 542 558 
f 542 550 558 
f 554 537 558 
f 550 554 558 
f 541 538 559 
f 545 541 559 
f 538 551 559 
f 551 545 559 
f 539 544 560 
f 549 539 560 
f 544 549 560 
f 537 554 561 
f 554 550 561 
f 550 555 561 
f 555 537 561 
f 550 542 562 
f 549 550 562 
f 542 545 563 
f 545 549 563 
f 562 542 563 
f 549 562 563 
f 556 547 564 
f 540 556 564 
f 557 540 564 
f 547 557 564 
f 541 553 565 
f 553 548 565 
f 539 549 566 
f 549 545 566 
f 551 539 566 
f 545 551 566 
f 543 547 567 
f 553 543 567 
f 547 556 567 
f 556 553 567 
f 538 541 568 
f 548 538 568 
f 541 565 568 
o convex_18
v 27.171573 174.246770 -56.013270
v 33.277718 170.580260 -43.797153
v 32.057063 170.580260 -43.797153
v 30.835451 195.010821 -46.241333
v 35.721898 179.131782 -48.684317
v 25.949004 171.801513 -47.462227
v 35.721898 166.913751 -48.684317
v 25.949004 182.792790 -56.013270
v 28.393184 192.565565 -45.019243
v 28.393184 166.913751 -45.019243
v 33.277718 190.123059 -49.905212
v 33.277718 190.123059 -45.019243
v 28.393184 166.913751 -51.126106
v 28.393184 179.131782 -56.013270
v 35.721898 166.913751 -46.241333
v 25.949004 170.580260 -52.348196
v 25.949004 181.571537 -49.905212
v 32.057063 168.137754 -52.348196
v 29.614796 195.010821 -47.462227
v 30.835451 166.913751 -43.797153
v 32.057063 193.786818 -48.684317
v 34.500287 187.677802 -46.241333
v 35.721898 175.468023 -46.241333
v 25.949004 174.246770 -56.013270
v 27.171573 182.792790 -56.013270
v 34.500287 184.014043 -49.905212
v 25.949004 177.910529 -47.462227
v 33.277718 192.565565 -46.241333
v 30.835451 193.786818 -45.019243
v 34.500287 187.677802 -48.684317
v 34.500287 180.353035 -45.019243
v 28.393184 169.359007 -53.569090
f 581 592 600 
f 575 578 581 
f 573 575 582 
f 569 576 582 
f 575 573 583 
f 578 575 583 
f 574 576 584 
f 578 574 584 
f 581 578 584 
f 576 574 585 
f 577 576 585 
f 575 581 586 
f 569 582 586 
f 582 575 586 
f 576 577 587 
f 577 572 587 
f 570 571 588 
f 571 577 588 
f 577 578 588 
f 583 570 588 
f 578 583 588 
f 576 587 589 
f 587 572 589 
f 583 573 591 
f 573 590 591 
f 576 569 592 
f 584 576 592 
f 581 584 592 
f 582 576 593 
f 579 582 593 
f 576 589 593 
f 589 579 593 
f 573 582 594 
f 582 579 594 
f 574 578 595 
f 578 577 595 
f 585 574 595 
f 577 585 595 
f 579 589 596 
f 589 572 596 
f 580 590 596 
f 571 570 597 
f 577 571 597 
f 572 577 597 
f 570 580 597 
f 596 572 597 
f 580 596 597 
f 590 573 598 
f 573 594 598 
f 594 579 598 
f 579 596 598 
f 596 590 598 
f 580 570 599 
f 570 583 599 
f 590 580 599 
f 583 591 599 
f 591 590 599 
f 569 586 600 
f 586 581 600 
f 592 569 600 
o convex_19
v -4.598226 247.554479 -48.682404
v 1.511028 259.768204 -35.243000
v 1.511028 259.768204 -40.129925
v 1.511028 242.665759 -38.908553
v -4.598226 245.112810 -40.129925
v -4.598226 260.993524 -43.795478
v 1.511028 252.441404 -47.459596
v -3.375299 257.326536 -48.682404
v 0.288699 247.554479 -48.682404
v -4.598226 242.665759 -42.574106
v 0.288699 259.768204 -35.243000
v 1.511028 242.665759 -42.574106
v -4.598226 253.659548 -40.129925
v 0.288699 254.881279 -35.243000
v -4.598226 253.661342 -49.905212
v -2.154166 243.891079 -38.908553
v -3.375299 260.993524 -45.018286
v 1.511028 254.883073 -46.239659
v -3.375299 253.661342 -49.905212
v -4.598226 248.776210 -49.905212
v 1.511028 247.554479 -47.459596
v 1.511028 249.999736 -36.465808
v -4.598226 257.326536 -48.682404
v -3.375299 242.665759 -40.129925
v 0.288699 251.221467 -48.682404
v -2.154166 256.103010 -48.682404
v 0.288699 249.999736 -36.465808
v -3.375299 248.776210 -49.905212
v 1.511028 254.881279 -35.243000
v 0.288699 242.665759 -38.908553
v -4.598226 260.993524 -45.018286
v -4.598226 242.665759 -41.352733
f 610 624 632 
f 603 602 604 
f 601 605 606 
f 603 604 607 
f 605 601 610 
f 601 609 610 
f 602 606 611 
f 607 604 612 
f 604 610 612 
f 610 609 612 
f 606 605 613 
f 605 611 613 
f 611 606 613 
f 602 611 614 
f 611 605 614 
f 601 606 615 
f 614 605 616 
f 602 603 617 
f 606 602 617 
f 608 617 618 
f 603 607 618 
f 617 603 618 
f 615 608 619 
f 615 619 620 
f 609 601 620 
f 601 615 620 
f 609 607 621 
f 607 612 621 
f 612 609 621 
f 604 602 622 
f 615 606 623 
f 608 615 623 
f 617 608 623 
f 610 604 624 
f 616 605 624 
f 607 609 625 
f 609 619 625 
f 625 619 626 
f 608 618 626 
f 618 607 626 
f 619 608 626 
f 607 625 626 
f 614 616 627 
f 604 622 627 
f 622 614 627 
f 619 609 628 
f 620 619 628 
f 609 620 628 
f 602 614 629 
f 622 602 629 
f 614 622 629 
f 624 604 630 
f 616 624 630 
f 604 627 630 
f 627 616 630 
f 606 617 631 
f 623 606 631 
f 617 623 631 
f 605 610 632 
f 624 605 632 
o convex_20
v 6.398432 1.961121 -8.362757
v -2.154525 -6.591836 -12.027353
v 1.511626 -6.591836 -12.027353
v 3.953773 -5.369507 -7.140906
v -0.932195 1.961121 -9.584130
v 2.732281 1.961121 -10.805981
v 6.398432 -5.369507 -9.584130
v 6.398432 1.961121 -7.140906
v -2.154525 -6.591836 -10.805981
v 6.398432 -5.369507 -7.140906
v 3.953773 1.961121 -7.140906
v -0.932195 -2.925685 -12.027353
v -0.932195 1.961121 -10.805981
v -0.932195 -5.369507 -9.584130
v 1.511626 -4.148015 -12.027353
v 5.175266 1.961121 -9.584130
v -2.154525 -4.148015 -12.027353
v 6.398432 -4.147177 -9.584130
v 1.511626 -6.591836 -10.805981
v -2.154525 -4.148015 -10.805981
v 0.289297 -2.925685 -12.027353
f 647 644 653 
f 637 633 638 
f 639 633 640 
f 633 637 640 
f 634 635 641 
f 635 639 642 
f 639 640 642 
f 640 636 642 
f 637 636 643 
f 640 637 643 
f 636 640 643 
f 635 634 644 
f 638 644 645 
f 637 638 645 
f 636 637 646 
f 641 636 646 
f 637 641 646 
f 639 635 647 
f 635 644 647 
f 638 633 648 
f 634 641 649 
f 644 634 649 
f 645 644 649 
f 637 645 649 
f 633 639 650 
f 639 647 650 
f 647 638 650 
f 648 633 650 
f 638 648 650 
f 641 635 651 
f 636 641 651 
f 635 642 651 
f 642 636 651 
f 641 637 652 
f 649 641 652 
f 637 649 652 
f 644 638 653 
f 638 647 653 
o convex_21
v -10.707481 64.266530 -3.474875
v -9.485471 17.860099 2.634380
v -10.707481 17.860099 2.634380
v -9.485471 1.967220 -2.251948
v -7.042168 64.266530 2.633782
v -7.042168 25.183352 -1.030814
v -10.707481 60.598446 0.190319
v -9.485471 66.714072 -3.474277
v -9.485471 1.967220 2.634380
v -10.707481 1.967220 -2.251948
v -7.042168 37.395230 2.633782
v -7.042168 64.266530 0.190319
v -9.485112 56.936820 2.633782
v -10.707481 67.941072 -1.031412
v -9.485471 43.491483 -3.474875
v -10.707481 1.967220 2.634380
v -8.263819 64.266530 -2.251948
v -7.042168 25.183352 0.190319
v -8.263819 64.266530 2.633782
v -10.707481 43.491483 -3.474875
v -8.263819 25.183352 -2.251948
v -9.485471 67.941072 -2.251948
v -10.707481 66.714072 -3.474277
v -7.042168 30.071978 -1.030814
v -9.485471 67.941072 -1.031412
v -9.485112 64.266530 1.411452
v -10.707481 67.941072 -2.251948
v -10.707481 39.823399 1.411452
v -9.485471 64.266530 -3.474875
f 670 677 682 
f 656 655 658 
f 654 656 660 
f 655 656 662 
f 658 655 662 
f 657 659 662 
f 656 654 663 
f 657 662 663 
f 659 658 664 
f 658 662 664 
f 658 659 665 
f 660 666 667 
f 654 660 667 
f 657 663 668 
f 662 656 669 
f 656 663 669 
f 663 662 669 
f 661 665 670 
f 662 659 671 
f 659 664 671 
f 664 662 671 
f 656 658 672 
f 666 656 672 
f 658 667 672 
f 663 654 673 
f 654 668 673 
f 668 663 673 
f 659 657 674 
f 657 668 674 
f 668 659 674 
f 658 665 675 
f 665 661 675 
f 661 654 676 
f 654 667 676 
f 675 661 676 
f 665 659 677 
f 659 668 677 
f 670 665 677 
f 667 658 678 
f 658 675 678 
f 675 667 678 
f 667 666 679 
f 666 672 679 
f 672 667 679 
f 667 675 680 
f 676 667 680 
f 675 676 680 
f 660 656 681 
f 656 666 681 
f 666 660 681 
f 654 661 682 
f 668 654 682 
f 661 670 682 
f 677 668 682 
o convex_22
v 7.620283 80.162811 -1.030668
v 1.511985 89.936184 7.521784
v 0.289656 89.936184 7.521784
v 2.733477 64.279227 5.076381
v 5.175624 64.275519 -3.473918
v 5.175624 102.152899 -1.030668
v -0.932674 64.279227 3.853679
v 0.289656 102.152899 3.854756
v 6.397117 91.152294 3.854756
v 6.397954 64.275519 0.190957
v 6.397117 102.152899 1.413658
v 5.175624 78.939286 -3.473918
v 5.175624 77.715760 5.076381
v -0.932674 69.165913 6.298006
v 2.733477 102.152899 5.077457
v 7.620283 96.038980 -1.030668
v 6.397954 64.275519 -3.473918
v 7.620283 85.049497 1.413658
v 1.511985 83.822264 7.521784
v 3.954132 89.936184 6.299082
v -0.932674 78.935578 6.298006
v -0.932674 70.389439 3.854756
v 0.289656 98.482323 6.299082
v 6.397954 78.939286 -3.473918
v 5.175624 100.929374 3.854756
v 5.175624 69.165913 3.854756
v 1.511985 69.165913 6.298006
v 6.397117 102.152899 -1.030668
v 7.620283 91.152294 1.413658
v -0.932674 64.279227 5.076381
v 0.289656 102.152899 5.077457
v 6.397117 83.822264 3.854756
f 708 700 714 
f 688 690 693 
f 687 689 694 
f 690 688 694 
f 693 690 697 
f 683 692 699 
f 692 687 699 
f 687 694 699 
f 692 683 700 
f 683 698 700 
f 684 685 701 
f 685 696 701 
f 697 684 702 
f 684 701 702 
f 701 695 702 
f 696 685 703 
f 689 696 703 
f 694 689 704 
f 690 694 704 
f 703 690 704 
f 689 703 704 
f 685 684 705 
f 684 697 705 
f 703 685 705 
f 694 688 706 
f 698 683 706 
f 699 694 706 
f 683 699 706 
f 691 693 707 
f 693 697 707 
f 702 691 707 
f 697 702 707 
f 686 692 708 
f 695 686 708 
f 692 700 708 
f 686 695 709 
f 696 686 709 
f 695 701 709 
f 701 696 709 
f 688 693 710 
f 693 698 710 
f 706 688 710 
f 698 706 710 
f 693 691 711 
f 698 693 711 
f 691 700 711 
f 700 698 711 
f 689 687 712 
f 687 692 712 
f 692 686 712 
f 686 696 712 
f 696 689 712 
f 697 690 713 
f 690 703 713 
f 705 697 713 
f 703 705 713 
f 700 691 714 
f 691 702 714 
f 702 695 714 
f 695 708 714 
o convex_23
v 6.399150 102.157443 -1.031173
v 2.732281 125.363882 0.190917
v 2.732281 125.363882 -1.030456
v 22.282495 119.254413 6.299933
v -0.931836 102.152899 5.077125
v -5.820077 102.152899 -1.031173
v 13.730136 114.369564 -1.031173
v 2.732281 111.929412 6.299933
v 17.388752 109.484716 6.299933
v -3.374581 116.811989 0.190917
v 17.391503 110.709336 1.413007
v 13.730136 119.254413 6.299933
v -4.595954 105.819944 2.634380
v 22.282495 119.254413 5.077125
v 6.399150 102.157443 2.634380
v 8.841895 105.822216 6.299933
v 1.510909 125.363882 0.190917
v 14.946007 107.042292 1.413007
v 13.724634 108.262368 -1.031173
v 22.282495 115.591913 5.077125
v 21.055620 120.479033 6.299933
v -2.153209 120.479033 -1.030456
v 0.292287 111.929412 5.077125
v 6.396399 115.591913 6.299933
v -5.820077 102.152899 1.413007
v -5.820077 107.044564 -1.031173
v -2.153209 120.479033 0.190917
v 2.737783 105.819944 6.299933
v 13.724634 107.042292 6.299933
v 2.737783 102.157443 5.077125
v 16.170130 111.929412 0.190917
v 18.612875 118.034337 2.634380
f 728 721 746 
f 715 719 720 
f 715 720 721 
f 718 722 723 
f 722 718 726 
f 719 715 729 
f 723 722 730 
f 716 717 731 
f 729 715 732 
f 715 721 733 
f 732 715 733 
f 725 732 733 
f 718 723 734 
f 728 718 734 
f 732 725 734 
f 723 732 734 
f 717 716 735 
f 726 718 735 
f 728 717 735 
f 718 728 735 
f 716 731 735 
f 731 726 735 
f 731 717 736 
f 719 722 737 
f 727 719 737 
f 722 731 737 
f 722 726 738 
f 731 722 738 
f 726 731 738 
f 720 719 739 
f 719 727 739 
f 727 724 739 
f 717 721 740 
f 721 720 740 
f 736 717 740 
f 724 736 740 
f 720 739 740 
f 739 724 740 
f 724 727 741 
f 736 724 741 
f 731 736 741 
f 727 737 741 
f 737 731 741 
f 722 719 742 
f 719 730 742 
f 730 722 742 
f 723 730 743 
f 732 723 743 
f 729 732 743 
f 719 729 744 
f 730 719 744 
f 729 743 744 
f 743 730 744 
f 721 728 745 
f 733 721 745 
f 725 733 745 
f 728 734 745 
f 734 725 745 
f 721 717 746 
f 717 728 746 
o convex_24
v 5.176581 107.042575 6.299933
v 35.722855 130.255471 18.517964
v 35.722855 130.255471 13.631038
v 24.725479 130.255471 13.631038
v 22.279624 114.374997 6.299933
v 17.396885 121.700601 6.299933
v 27.168344 125.365676 19.739336
v 5.176581 113.152548 7.522740
v 14.957010 108.265024 7.522740
v 27.168344 130.255471 19.739336
v 33.277000 125.365676 17.295156
v 8.842373 109.487473 9.966921
v 29.611208 129.030750 9.966921
v 8.842373 116.817622 6.299933
v 29.611208 125.365676 19.739336
v 23.502552 121.700601 6.299933
v 24.725479 130.255471 17.295156
v 35.722855 127.808301 14.852411
v 33.277000 129.030750 20.962144
v 12.508165 107.042575 7.522740
v 27.168344 130.255471 11.188293
v 17.396885 121.700601 14.852411
v 25.942426 119.255703 7.522740
v 12.508165 107.042575 6.299933
v 16.173957 113.152548 12.409666
v 29.611208 122.920778 17.295156
v 19.842740 111.930099 7.522740
v 5.176581 107.042575 7.522740
v 6.399509 113.152548 8.744113
v 24.725479 129.030750 18.517964
v 30.834136 130.255471 20.962144
v 5.176581 113.152548 6.299933
f 754 760 778 
f 748 749 750 
f 751 747 752 
f 748 750 756 
f 752 747 760 
f 751 752 762 
f 752 759 762 
f 756 750 763 
f 750 760 763 
f 760 754 763 
f 749 748 764 
f 748 757 764 
f 757 748 765 
f 753 761 765 
f 750 749 767 
f 749 759 767 
f 759 752 767 
f 760 750 767 
f 752 760 767 
f 758 753 768 
f 759 749 769 
f 751 762 769 
f 762 759 769 
f 749 764 769 
f 764 751 769 
f 747 751 770 
f 766 747 770 
f 755 766 770 
f 753 758 771 
f 761 753 771 
f 758 766 771 
f 771 766 772 
f 755 757 772 
f 757 765 772 
f 765 761 772 
f 766 755 772 
f 761 771 772 
f 757 755 773 
f 751 764 773 
f 764 757 773 
f 770 751 773 
f 755 770 773 
f 754 747 774 
f 747 766 774 
f 766 758 774 
f 758 768 775 
f 754 774 775 
f 774 758 775 
f 753 756 776 
f 756 763 776 
f 763 754 776 
f 768 753 776 
f 754 775 776 
f 775 768 776 
f 748 756 777 
f 756 753 777 
f 765 748 777 
f 753 765 777 
f 747 754 778 
f 760 747 778 
o convex_25
v 23.506259 143.693918 6.299933
v 32.057302 133.924612 20.962144
v 32.057302 136.368194 19.739336
v 21.060644 154.688783 11.188293
v 25.948646 130.255471 17.295156
v 32.057302 137.588730 9.966921
v 24.726914 154.688783 6.299933
v 32.057302 130.255471 11.188293
v 21.060644 147.358036 7.522740
v 25.948646 130.255471 13.631038
v 28.391032 141.255359 6.299933
v 24.726914 154.688783 9.966921
v 30.833418 130.255471 20.962144
v 21.060644 146.137501 11.188293
v 21.060644 155.911830 7.522740
v 28.391032 132.701565 19.739336
v 24.726914 141.255359 6.299933
v 27.169300 149.801618 6.299933
v 29.611687 130.255471 11.188293
v 22.284528 141.255359 9.966921
v 23.506259 155.911830 9.966921
v 30.833418 133.924612 20.962144
v 32.057302 137.588730 14.852411
v 22.284528 154.688783 6.299933
v 32.057302 130.255471 20.962144
v 23.506259 141.255359 7.522740
v 28.391032 146.137501 6.299933
v 27.169300 149.801618 8.744113
v 22.284528 154.688783 11.188293
v 27.169300 130.255471 12.409666
v 22.284528 146.137501 6.299933
v 27.169300 135.145147 18.517964
f 783 794 810 
f 781 780 784 
f 784 780 786 
f 786 783 788 
f 779 785 789 
f 784 786 789 
f 783 786 791 
f 783 782 792 
f 782 787 792 
f 787 782 793 
f 783 791 794 
f 779 789 795 
f 789 785 796 
f 785 790 796 
f 786 788 797 
f 789 786 797 
f 795 789 797 
f 788 783 798 
f 783 792 798 
f 792 787 798 
f 781 790 799 
f 790 785 799 
f 785 793 799 
f 793 782 799 
f 780 782 800 
f 791 780 800 
f 782 794 800 
f 794 791 800 
f 781 784 801 
f 784 796 801 
f 785 779 802 
f 793 785 802 
f 787 793 802 
f 786 780 803 
f 780 791 803 
f 791 786 803 
f 779 795 804 
f 795 788 804 
f 798 787 804 
f 788 798 804 
f 784 789 805 
f 796 784 805 
f 789 796 805 
f 790 781 806 
f 796 790 806 
f 781 801 806 
f 801 796 806 
f 780 781 807 
f 782 780 807 
f 781 799 807 
f 799 782 807 
f 788 795 808 
f 797 788 808 
f 795 797 808 
f 802 779 809 
f 787 802 809 
f 779 804 809 
f 804 787 809 
f 782 783 810 
f 794 782 810 
o convex_26
v 46.719514 160.801745 17.295634
v 32.057302 130.255471 12.410144
v 32.057302 130.255471 20.962144
v 43.051090 142.478765 14.853846
v 41.829718 157.135953 13.631038
v 32.057302 138.812973 19.739336
v 45.495271 152.244244 19.739336
v 36.947098 130.255471 17.295634
v 32.057302 135.144191 11.187336
v 41.829718 155.913026 19.739336
v 45.495271 152.244244 13.631038
v 36.947098 131.481389 13.631038
v 39.388408 136.370108 19.739336
v 41.829718 158.352900 18.516529
v 45.495271 159.575828 13.631038
v 46.719514 152.244244 16.074740
v 33.281545 132.704316 11.187336
v 39.388408 140.032910 20.962144
v 39.388408 153.467171 14.853846
v 32.057302 136.370108 20.962144
v 44.273898 146.135587 18.516529
v 45.495271 157.135953 19.739336
v 32.057302 138.812973 17.295634
v 44.273898 160.801745 14.853846
v 35.722855 130.255471 19.739336
v 36.947098 142.478765 20.962144
v 43.051090 144.921630 13.631038
v 46.719514 153.467171 18.516529
v 46.719514 152.244244 14.853846
v 36.947098 130.255471 14.853846
v 43.051090 142.478765 17.295634
v 35.722855 132.704316 20.962144
f 835 823 842 
f 812 813 816 
f 813 812 818 
f 812 816 819 
f 816 820 824 
f 819 815 825 
f 812 819 827 
f 822 812 827 
f 819 825 827 
f 825 821 827 
f 823 817 828 
f 815 819 829 
f 824 815 829 
f 816 813 830 
f 820 816 830 
f 813 828 830 
f 817 823 831 
f 811 824 832 
f 824 820 832 
f 828 817 832 
f 819 816 833 
f 816 824 833 
f 829 819 833 
f 824 829 833 
f 824 811 834 
f 815 824 834 
f 825 815 834 
f 811 825 834 
f 813 818 835 
f 818 823 835 
f 820 830 836 
f 830 828 836 
f 832 820 836 
f 828 832 836 
f 814 822 837 
f 827 821 837 
f 822 827 837 
f 826 811 838 
f 817 831 838 
f 831 826 838 
f 811 832 838 
f 832 817 838 
f 825 811 839 
f 821 825 839 
f 811 826 839 
f 826 814 839 
f 814 837 839 
f 837 821 839 
f 818 812 840 
f 814 818 840 
f 812 822 840 
f 822 814 840 
f 818 814 841 
f 823 818 841 
f 814 826 841 
f 831 823 841 
f 826 831 841 
f 828 813 842 
f 823 828 842 
f 813 835 842 
o convex_27
v 16.173240 124.146695 -12.026397
v 1.511028 121.703711 -2.254459
v 1.511028 121.703711 -1.032369
v 1.511028 131.477322 -1.032369
v 7.620762 127.810334 -13.248487
v 8.842134 114.371409 -13.248487
v 8.842134 114.371409 -1.032369
v 6.400824 131.477322 -3.476549
v 14.950432 118.036722 -13.248487
v 8.840699 131.477322 -9.583412
v 6.399389 114.371409 -4.698639
v 1.511028 131.477322 -3.476549
v 14.950432 125.367350 -13.248487
v 11.283444 114.371409 -8.361322
v 16.173240 120.481381 -12.026397
v 3.956644 130.253318 -1.032369
v 3.956644 116.816067 -1.032369
v 8.842134 115.593738 -1.032369
v 6.400824 131.477322 -9.583412
v 8.840699 131.477322 -7.140428
v 1.511028 129.032663 -3.476549
v 12.504817 115.593738 -8.361322
v 3.956644 116.816067 -2.254459
v 6.399389 114.371409 -1.032369
v 10.063507 114.371409 -13.248487
v 10.063507 127.810334 -13.248487
v 16.173240 124.146695 -13.248487
v 7.620762 126.588005 -13.248487
v 6.400824 127.810334 -2.254459
v 13.727624 116.816067 -13.248487
v 5.179452 131.477322 -2.254459
v 16.173240 120.481381 -13.248487
f 869 857 874 
f 844 845 846 
f 846 845 849 
f 848 847 851 
f 846 850 852 
f 848 849 853 
f 844 846 854 
f 846 852 854 
f 851 847 855 
f 849 848 856 
f 843 849 857 
f 846 849 858 
f 845 844 859 
f 849 845 859 
f 849 843 860 
f 858 849 860 
f 852 847 861 
f 847 854 861 
f 854 852 861 
f 850 843 862 
f 843 852 862 
f 852 850 862 
f 848 844 863 
f 844 854 863 
f 854 847 863 
f 849 856 864 
f 856 851 864 
f 851 857 864 
f 857 849 864 
f 844 848 865 
f 848 853 865 
f 859 844 865 
f 853 859 865 
f 853 849 866 
f 849 859 866 
f 859 853 866 
f 848 851 867 
f 856 848 867 
f 847 852 868 
f 855 847 868 
f 852 855 868 
f 852 843 869 
f 851 855 869 
f 855 852 869 
f 843 857 869 
f 847 848 870 
f 848 863 870 
f 863 847 870 
f 843 850 871 
f 860 843 871 
f 851 856 872 
f 867 851 872 
f 856 867 872 
f 850 846 873 
f 846 858 873 
f 858 860 873 
f 871 850 873 
f 860 871 873 
f 857 851 874 
f 851 869 874 
o convex_28
v 2.732879 163.246284 -15.693504
v -7.040972 191.340245 -14.473687
v -7.040972 191.340245 -13.250520
v -0.933272 133.928918 -13.249683
v -3.373864 192.563651 -21.802639
v 1.509234 192.563651 -21.802639
v -4.596552 195.004124 -13.250520
v 2.732879 137.592796 -15.693504
v 2.732879 144.926892 -13.249683
v 2.730966 186.452961 -18.134814
v -0.933272 133.928918 -14.472012
v -3.375778 151.024904 -14.472012
v -3.373864 197.457274 -21.802639
v 2.732879 160.799473 -14.472012
v 1.509234 187.682705 -21.802639
v 0.288460 137.592796 -15.693504
v 2.730966 182.782743 -20.579473
v 2.732879 132.705512 -13.249683
v 0.287503 195.004124 -20.579473
v 2.730966 180.348610 -16.915834
v -7.040972 193.787057 -13.250520
v -2.154046 197.457274 -19.357981
v -3.375778 151.024904 -13.249683
v -0.934228 188.899772 -21.802639
v 2.732879 132.705512 -14.472012
v -5.817327 195.004124 -13.250520
v -2.154046 197.457274 -21.802639
v 2.730966 186.452961 -20.579473
v -7.040972 193.787057 -14.473687
v 0.288460 132.705512 -14.472012
v -5.817327 191.340245 -16.915834
v -3.374821 187.682705 -13.250520
f 888 894 906 
f 882 875 883 
f 877 876 886 
f 885 878 886 
f 879 885 886 
f 879 876 887 
f 880 879 887 
f 883 875 888 
f 875 884 888 
f 879 880 889 
f 885 879 890 
f 889 882 890 
f 875 882 891 
f 889 880 891 
f 882 889 891 
f 883 878 892 
f 882 883 892 
f 884 880 893 
f 881 884 893 
f 884 881 894 
f 888 884 894 
f 876 877 895 
f 881 893 896 
f 878 883 897 
f 883 881 897 
f 877 886 897 
f 886 878 897 
f 895 877 897 
f 879 889 898 
f 890 879 898 
f 889 890 898 
f 890 882 899 
f 882 892 899 
f 887 895 900 
f 881 896 900 
f 896 887 900 
f 897 881 900 
f 895 897 900 
f 880 887 901 
f 893 880 901 
f 887 896 901 
f 896 893 901 
f 880 884 902 
f 884 875 902 
f 875 891 902 
f 891 880 902 
f 887 876 903 
f 876 895 903 
f 895 887 903 
f 878 885 904 
f 885 890 904 
f 892 878 904 
f 890 899 904 
f 899 892 904 
f 876 879 905 
f 886 876 905 
f 879 886 905 
f 881 883 906 
f 883 888 906 
f 894 881 906 
o convex_29
v 7.620283 102.149192 -1.031173
v -0.932674 64.275998 -9.584130
v -0.932674 64.275998 -7.139471
v 0.289656 98.482369 -7.140308
v 5.175624 102.149192 -7.140308
v 5.176462 64.275998 -5.917979
v 3.953295 64.275998 -2.253503
v 5.175624 102.149192 -1.031173
v 7.620283 81.382891 -1.031173
v 7.620283 100.929389 -4.696487
v 2.732640 64.275998 -8.360963
v 0.289656 98.482369 -5.917142
v 1.511985 102.149192 -7.140308
v 0.290493 69.162622 -9.584130
v 5.176462 64.275998 -2.253503
v 5.175624 78.939579 -1.031173
v -0.932674 78.935871 -7.138634
v 7.620283 81.382891 -2.254340
v 5.175624 94.815547 -7.140308
v -0.932674 69.162622 -9.584130
v 1.511985 102.149192 -5.917142
v -0.932674 78.935871 -8.361800
v 7.620283 102.149192 -4.696487
v 0.290493 64.275998 -9.584130
v 6.397117 78.939579 -1.031173
v 6.397117 97.262567 -5.917142
v -0.932674 69.166330 -7.138634
v 2.732640 69.166330 -8.361800
f 930 925 934 
f 909 908 912 
f 909 912 913 
f 907 911 914 
f 907 914 915 
f 907 915 916 
f 912 908 917 
f 914 911 919 
f 910 918 919 
f 919 911 920 
f 913 912 921 
f 912 915 921 
f 915 914 922 
f 913 921 922 
f 922 914 923 
f 908 909 923 
f 918 910 923 
f 914 918 923 
f 915 912 924 
f 912 916 924 
f 916 915 924 
f 911 916 925 
f 912 917 925 
f 920 911 925 
f 910 919 926 
f 919 920 926 
f 920 908 926 
f 908 923 926 
f 918 914 927 
f 914 919 927 
f 919 918 927 
f 923 910 928 
f 910 926 928 
f 926 923 928 
f 911 907 929 
f 907 916 929 
f 916 911 929 
f 917 908 930 
f 908 920 930 
f 920 925 930 
f 921 915 931 
f 915 922 931 
f 922 921 931 
f 916 912 932 
f 925 916 932 
f 912 925 932 
f 909 913 933 
f 913 922 933 
f 922 923 933 
f 923 909 933 
f 925 917 934 
f 917 930 934 
o convex_30
v 1.511028 135.148974 -12.027114
v -4.598226 133.925090 -9.584369
v -3.375299 131.481388 -12.027114
v -4.598226 173.016188 -13.249204
v -2.154166 173.016188 -8.362757
v -2.154166 131.481388 -8.362757
v -4.598226 168.128785 -8.362757
v -2.154166 169.348602 -13.249204
v 1.511028 131.481388 -13.249204
v -3.375299 141.256196 -13.249204
v -4.598226 133.925090 -8.362757
v -4.598226 160.797679 -13.249204
v -2.154166 173.016188 -10.805981
v -4.598226 173.016188 -9.584369
v -2.154166 132.705272 -13.249204
v 1.511028 135.148974 -13.249204
v 1.511028 131.481388 -12.027114
v -3.375299 173.016188 -13.249204
v -3.375299 131.481388 -8.362757
v -3.375299 173.016188 -8.362757
v -0.933032 131.481388 -13.249204
f 949 943 955 
f 935 939 940 
f 938 936 941 
f 940 939 941 
f 940 937 943 
f 938 942 943 
f 938 943 944 
f 936 937 945 
f 941 936 945 
f 940 941 945 
f 937 936 946 
f 936 938 946 
f 944 937 946 
f 938 944 946 
f 938 939 947 
f 939 938 948 
f 938 941 948 
f 937 944 949 
f 944 943 949 
f 939 935 950 
f 935 943 950 
f 943 942 950 
f 947 939 950 
f 942 947 950 
f 935 940 951 
f 943 935 951 
f 940 943 951 
f 942 938 952 
f 938 947 952 
f 947 942 952 
f 937 940 953 
f 945 937 953 
f 940 945 953 
f 941 939 954 
f 939 948 954 
f 948 941 954 
f 943 937 955 
f 937 949 955 
o convex_31
v 11.285358 3.185722 -2.253263
v -0.932674 63.048406 -8.362279
v -0.932674 63.048406 -7.139471
v 6.397428 64.268702 -3.475353
v 7.619709 -5.363168 -8.362279
v 8.840795 1.965426 -1.031173
v 2.732975 8.073724 -7.139471
v 3.955256 63.048406 -8.362279
v 5.176342 64.268702 -1.031173
v 7.618513 27.632549 -7.139471
v 10.063076 30.066324 -1.031173
v 5.176342 50.831810 -1.031173
v 7.619709 -5.363168 -3.476071
v 11.285358 -5.363168 -3.476071
v 3.955256 1.965426 -8.361561
v 8.840795 39.842328 -3.475353
v 7.619709 11.741430 -8.362279
v 7.618513 56.940108 -1.031173
v 11.285358 1.965426 -1.031173
v 10.063076 -4.142872 -5.917381
v 7.619709 0.745130 -2.253263
v -0.932674 64.268702 -8.362279
v 10.063076 30.066324 -2.253263
v 6.398623 -5.363168 -5.917381
v 8.840795 -5.363168 -2.253263
v 2.732975 8.073724 -8.361561
v 8.840795 45.943808 -2.253263
v 5.176342 49.611514 -8.362279
v 6.397428 59.380700 -4.696726
v 6.398623 -5.363168 -8.362279
v 11.285358 -5.363168 -2.253263
v 6.397428 64.268702 -1.031173
f 964 973 987 
f 958 957 962 
f 960 957 963 
f 964 961 966 
f 958 962 967 
f 964 958 967 
f 961 964 967 
f 968 960 969 
f 960 963 972 
f 964 966 973 
f 956 966 974 
f 966 961 974 
f 969 956 974 
f 969 960 975 
f 960 972 975 
f 972 965 975 
f 961 967 976 
f 967 962 976 
f 962 968 976 
f 957 958 977 
f 963 957 977 
f 959 963 977 
f 958 964 977 
f 964 959 977 
f 966 956 978 
f 956 969 978 
f 965 971 978 
f 969 975 978 
f 975 965 978 
f 960 968 979 
f 968 962 979 
f 962 970 979 
f 968 969 980 
f 974 961 980 
f 961 976 980 
f 976 968 980 
f 962 957 981 
f 970 962 981 
f 959 973 982 
f 973 966 982 
f 966 978 982 
f 978 971 982 
f 971 965 983 
f 972 963 983 
f 965 972 983 
f 963 959 984 
f 959 982 984 
f 982 971 984 
f 983 963 984 
f 971 983 984 
f 957 960 985 
f 960 979 985 
f 979 970 985 
f 981 957 985 
f 970 981 985 
f 969 974 986 
f 980 969 986 
f 974 980 986 
f 959 964 987 
f 973 959 987 
o convex_32
v 8.842493 -5.368580 8.743635
v 7.621240 -7.813089 -2.253024
v 7.621240 -5.368580 -2.253024
v 12.507209 -6.590356 -1.029140
v 11.285477 1.961121 -2.253024
v 7.620283 1.961121 6.299095
v 11.285477 1.961121 1.413246
v 7.621240 -6.590356 8.743635
v 8.842493 1.961121 -2.253024
v 12.507209 -6.590356 1.413246
v 10.063746 -7.813089 -2.253024
v 8.842493 -7.813089 5.077364
v 8.842493 1.961121 6.299095
v 7.620283 1.961121 2.633901
v 8.842493 -6.590356 8.743635
v 12.507209 -5.368580 1.413246
v 11.284999 -6.590356 -2.253024
v 7.621240 -7.813089 5.077364
v 10.063746 -7.813089 2.634978
v 7.621240 -5.368580 8.743635
v 12.507209 -5.368580 -1.029140
v 7.620283 -1.705165 6.299095
v 7.620283 -1.705165 2.633901
v 11.285477 -1.705165 -2.253024
f 1004 992 1011 
f 989 990 992 
f 992 993 994 
f 992 990 996 
f 993 992 996 
f 989 992 998 
f 989 998 999 
f 993 988 1000 
f 994 993 1000 
f 988 994 1000 
f 990 989 1001 
f 996 990 1001 
f 993 996 1001 
f 988 995 1002 
f 997 988 1002 
f 995 999 1002 
f 994 988 1003 
f 997 991 1003 
f 988 997 1003 
f 991 998 1004 
f 998 992 1004 
f 989 999 1005 
f 999 995 1005 
f 991 997 1006 
f 998 991 1006 
f 999 998 1006 
f 997 1002 1006 
f 1002 999 1006 
f 988 993 1007 
f 995 988 1007 
f 993 995 1007 
f 991 992 1008 
f 992 994 1008 
f 1003 991 1008 
f 994 1003 1008 
f 995 993 1009 
f 993 1001 1009 
f 989 1005 1009 
f 1005 995 1009 
f 1001 989 1010 
f 989 1009 1010 
f 1009 1001 1010 
f 992 991 1011 
f 991 1004 1011 
o convex_33
v -0.933152 102.158400 -9.584130
v 1.511028 131.477322 -1.031173
v 1.511028 131.477322 -3.474995
v -4.597270 131.477322 -5.918816
v -5.820077 102.158400 -1.032848
v 1.511028 102.158400 -7.140308
v -3.375179 131.477322 -9.582455
v 1.511028 114.372705 -9.584130
v -4.597987 102.158400 -7.140308
v 1.511028 120.476987 -1.031173
v -2.154525 126.584139 -1.031173
v -5.820077 109.485261 -4.696487
v -5.820077 109.485261 -1.032848
v -4.597270 102.158400 -1.032848
v -2.154525 131.477322 -9.582455
v -4.597270 131.477322 -8.361800
v -3.375179 116.817861 -9.582455
v -3.375179 131.477322 -3.474995
v 1.511028 103.380979 -9.584130
v -5.820077 102.158400 -4.696487
v -4.597270 130.249004 -4.697324
v -3.375179 102.158400 -8.361800
v -3.375179 127.806717 -2.253503
v -5.820077 111.930418 -2.253503
v -2.154525 131.477322 -2.253503
v -4.597270 126.584139 -8.361800
v 0.288221 131.477322 -1.031173
v -5.820077 111.930418 -3.474995
v 1.511028 102.158400 -8.361800
v 0.288221 102.158400 -9.584130
v -2.154525 109.485261 -9.584130
v -3.375179 115.595283 -1.031173
f 1025 1021 1043 
f 1013 1014 1015 
f 1014 1013 1017 
f 1016 1012 1017 
f 1015 1014 1018 
f 1014 1017 1019 
f 1012 1016 1020 
f 1017 1013 1021 
f 1021 1013 1022 
f 1023 1016 1024 
f 1016 1017 1025 
f 1017 1021 1025 
f 1018 1014 1026 
f 1014 1019 1026 
f 1019 1018 1026 
f 1015 1018 1027 
f 1027 1018 1028 
f 1013 1015 1029 
f 1012 1019 1030 
f 1019 1017 1030 
f 1020 1016 1031 
f 1016 1023 1031 
f 1023 1027 1031 
f 1029 1015 1032 
f 1012 1020 1033 
f 1020 1028 1033 
f 1024 1022 1034 
f 1032 1024 1034 
f 1029 1032 1034 
f 1023 1024 1035 
f 1015 1027 1035 
f 1032 1015 1035 
f 1024 1032 1035 
f 1013 1029 1036 
f 1034 1022 1036 
f 1029 1034 1036 
f 1028 1020 1037 
f 1027 1028 1037 
f 1020 1031 1037 
f 1031 1027 1037 
f 1022 1013 1038 
f 1013 1036 1038 
f 1036 1022 1038 
f 1027 1023 1039 
f 1023 1035 1039 
f 1035 1027 1039 
f 1017 1012 1040 
f 1030 1017 1040 
f 1030 1040 1041 
f 1012 1030 1041 
f 1040 1012 1041 
f 1019 1012 1042 
f 1018 1019 1042 
f 1028 1018 1042 
f 1012 1033 1042 
f 1033 1028 1042 
f 1021 1022 1043 
f 1022 1024 1043 
f 1024 1016 1043 
f 1016 1025 1043 
o convex_34
v -3.377811 1.962556 -10.805981
v -10.706524 -5.369985 -4.696846
v -10.706524 -5.369985 -2.253024
v -9.484913 16.623332 -4.698520
v -0.933630 0.739748 -8.362159
v -8.262344 16.623332 -2.253024
v -3.376854 16.623332 -8.362159
v -0.933630 -5.369985 -10.805981
v -8.262344 -5.369985 -2.253024
v -7.040733 16.623332 -8.362159
v -8.262344 -5.369985 -8.362159
v -4.598466 -5.369985 -10.805981
v -3.376854 16.623332 -7.138993
v -0.933630 1.962556 -10.805981
v -9.483956 -4.147177 -7.138993
v -9.484913 16.623332 -2.253024
v -0.933630 -5.369985 -9.583651
v -10.706524 0.739748 -3.475353
v -8.262344 16.623332 -7.138993
v -8.262344 -1.703715 -8.362159
v -0.933630 1.962556 -8.362159
v -10.706524 0.739748 -2.253024
v -4.598466 -4.147177 -10.805981
v -10.706524 -4.147177 -4.696846
v -9.483956 -5.369985 -7.138993
f 1058 1054 1068 
f 1047 1049 1050 
f 1046 1045 1051 
f 1046 1051 1052 
f 1049 1046 1052 
f 1048 1049 1052 
f 1047 1050 1053 
f 1050 1044 1053 
f 1051 1045 1054 
f 1044 1051 1055 
f 1051 1054 1055 
f 1050 1049 1056 
f 1050 1056 1057 
f 1044 1050 1057 
f 1048 1051 1057 
f 1051 1044 1057 
f 1046 1049 1059 
f 1049 1047 1059 
f 1051 1048 1060 
f 1052 1051 1060 
f 1048 1052 1060 
f 1045 1046 1061 
f 1059 1047 1061 
f 1047 1053 1062 
f 1058 1047 1062 
f 1058 1062 1063 
f 1055 1054 1063 
f 1054 1058 1063 
f 1062 1053 1063 
f 1049 1048 1064 
f 1056 1049 1064 
f 1057 1056 1064 
f 1048 1057 1064 
f 1046 1059 1065 
f 1061 1046 1065 
f 1059 1061 1065 
f 1053 1044 1066 
f 1044 1055 1066 
f 1063 1053 1066 
f 1055 1063 1066 
f 1058 1045 1067 
f 1047 1058 1067 
f 1045 1061 1067 
f 1061 1047 1067 
f 1054 1045 1068 
f 1045 1058 1068 
o convex_35
v 1.508995 -4.145623 12.408948
v -11.929332 -6.590042 -2.251828
v -11.929332 -6.590042 2.636054
v -10.705687 1.959207 -2.251828
v -5.818881 -7.812730 -2.251828
v 1.508995 1.961121 11.186260
v -7.042526 1.959207 8.740884
v -7.042526 -6.590042 9.963572
v 3.954730 -6.590042 9.965007
v -8.263062 1.959207 -2.251828
v -2.155721 -7.811774 9.963572
v 2.731085 -0.483299 9.965007
v -10.705687 1.959207 2.636054
v -10.705687 -7.812730 1.413366
v -2.155721 1.961121 11.186260
v -0.933630 -6.590042 12.408948
v -9.485152 -5.368311 7.519631
v -11.929332 -1.705987 1.413366
v -5.818881 -6.590042 -2.251828
v 3.954730 -6.590042 11.186260
v -0.933630 -7.811774 6.299813
v -8.263062 -7.812730 6.298378
v 1.508995 1.961121 9.965007
v -8.263062 1.959207 7.519631
v 3.954730 -5.368311 9.965007
v -0.933630 -4.145623 12.408948
v -9.485152 -7.812730 -2.251828
v -7.042526 -5.368311 9.963572
v -11.929332 -1.705987 -1.029140
v -9.485152 -6.590042 7.519631
v 2.731085 -0.483299 11.186260
v 1.508995 -6.590042 12.408948
f 1079 1088 1100 
f 1070 1072 1073 
f 1073 1072 1078 
f 1071 1070 1082 
f 1069 1074 1083 
f 1072 1081 1083 
f 1076 1079 1084 
f 1070 1071 1086 
f 1081 1072 1086 
f 1071 1085 1086 
f 1077 1073 1087 
f 1073 1078 1087 
f 1078 1080 1087 
f 1073 1077 1089 
f 1077 1088 1089 
f 1088 1079 1089 
f 1079 1076 1090 
f 1071 1082 1090 
f 1082 1073 1090 
f 1073 1089 1090 
f 1089 1079 1090 
f 1078 1072 1091 
f 1074 1080 1091 
f 1080 1078 1091 
f 1083 1074 1091 
f 1072 1083 1091 
f 1075 1083 1092 
f 1083 1081 1092 
f 1085 1075 1092 
f 1081 1086 1092 
f 1086 1085 1092 
f 1077 1087 1093 
f 1087 1080 1093 
f 1088 1077 1093 
f 1069 1083 1094 
f 1084 1069 1094 
f 1076 1084 1094 
f 1070 1073 1095 
f 1082 1070 1095 
f 1073 1082 1095 
f 1083 1075 1096 
f 1085 1076 1096 
f 1075 1085 1096 
f 1094 1083 1096 
f 1076 1094 1096 
f 1072 1070 1097 
f 1070 1086 1097 
f 1086 1072 1097 
f 1085 1071 1098 
f 1076 1085 1098 
f 1071 1090 1098 
f 1090 1076 1098 
f 1074 1069 1099 
f 1080 1074 1099 
f 1069 1088 1099 
f 1093 1080 1099 
f 1088 1093 1099 
f 1069 1084 1100 
f 1084 1079 1100 
f 1088 1069 1100 
o convex_36
v 3.952697 31.288772 -8.362518
v -5.820077 43.497954 -9.584130
v -3.375538 42.278256 -10.805742
v -4.596193 1.967220 -9.584130
v 2.732042 1.967220 -10.805742
v 1.510311 64.269420 -9.584130
v -5.820077 64.269420 -8.362518
v -4.596193 1.967220 -8.362518
v 5.176581 1.967220 -8.362518
v -3.375538 64.269420 -10.805742
v 1.510311 64.269420 -8.362518
v 5.176581 9.297608 -9.584130
v -2.152731 1.967220 -10.805742
v 0.288579 50.828342 -10.805742
v -5.820077 64.269420 -9.584130
v -0.932076 64.269420 -10.805742
v 2.732042 49.608644 -9.584130
v -5.820077 43.497954 -8.362518
v 5.176581 1.967220 -9.584130
v 2.732042 8.077910 -10.805742
v 3.952697 31.288772 -9.584130
v 5.176581 9.297608 -8.362518
v 2.732042 49.608644 -8.362518
f 1117 1111 1123 
f 1102 1103 1104 
f 1102 1104 1108 
f 1104 1105 1108 
f 1101 1107 1108 
f 1101 1108 1109 
f 1108 1105 1109 
f 1103 1102 1110 
f 1105 1103 1110 
f 1107 1106 1110 
f 1107 1101 1111 
f 1106 1107 1111 
f 1104 1103 1113 
f 1105 1104 1113 
f 1103 1105 1113 
f 1105 1110 1114 
f 1102 1107 1115 
f 1110 1102 1115 
f 1107 1110 1115 
f 1110 1106 1116 
f 1114 1110 1116 
f 1106 1114 1116 
f 1106 1111 1117 
f 1114 1106 1117 
f 1107 1102 1118 
f 1102 1108 1118 
f 1108 1107 1118 
f 1109 1105 1119 
f 1105 1112 1119 
f 1112 1109 1119 
f 1112 1105 1120 
f 1105 1114 1120 
f 1120 1114 1121 
f 1101 1112 1121 
f 1117 1101 1121 
f 1114 1117 1121 
f 1112 1120 1121 
f 1101 1109 1122 
f 1112 1101 1122 
f 1109 1112 1122 
f 1111 1101 1123 
f 1101 1117 1123 
o convex_37
v 3.954730 102.152899 -7.140189
v -7.041928 78.937731 -5.917381
v -7.041928 78.937731 -2.254699
v -7.041928 102.152899 -2.254699
v -2.153927 102.152899 -8.362279
v 1.510191 78.937731 -8.362279
v -4.597389 89.936303 -1.031173
v 1.510191 78.937731 -7.140189
v -4.597389 102.152899 -1.031173
v -3.375658 78.937731 -8.362279
v -4.597389 102.152899 -7.140189
v -5.818044 80.160300 -1.031173
v 3.954730 102.152899 -8.362279
v -7.041928 102.152899 -1.031173
v -5.818044 81.382868 -7.140189
v -7.041928 80.160300 -1.031173
v 3.954730 100.930331 -7.140189
v -7.041928 81.382868 -5.917381
v -5.818044 78.937731 -2.254699
v -3.375658 81.382868 -8.362279
v 3.954730 100.930331 -8.362279
v -5.818044 78.937731 -7.140189
f 1138 1133 1145 
f 1125 1126 1127 
f 1127 1124 1128 
f 1126 1125 1129 
f 1126 1129 1131 
f 1124 1127 1132 
f 1130 1124 1132 
f 1129 1125 1133 
f 1128 1129 1133 
f 1127 1128 1134 
f 1131 1130 1135 
f 1130 1132 1135 
f 1128 1124 1136 
f 1129 1128 1136 
f 1127 1126 1137 
f 1132 1127 1137 
f 1135 1132 1137 
f 1126 1135 1139 
f 1137 1126 1139 
f 1135 1137 1139 
f 1124 1130 1140 
f 1130 1131 1140 
f 1131 1129 1140 
f 1136 1124 1140 
f 1125 1127 1141 
f 1127 1134 1141 
f 1138 1125 1141 
f 1134 1138 1141 
f 1126 1131 1142 
f 1135 1126 1142 
f 1131 1135 1142 
f 1128 1133 1143 
f 1134 1128 1143 
f 1133 1138 1143 
f 1138 1134 1143 
f 1129 1136 1144 
f 1140 1129 1144 
f 1136 1140 1144 
f 1133 1125 1145 
f 1125 1138 1145 
o convex_38
v 8.841775 37.397089 2.634141
v 1.511028 61.823709 2.634141
v 1.511028 61.823709 3.855752
v 7.620941 1.973917 3.855752
v 8.841775 1.973917 -1.030695
v 6.398193 64.275519 -1.030695
v 11.285358 12.964371 -1.030695
v 5.177359 63.043515 3.855752
v 10.063566 1.973917 3.855752
v 3.955567 59.384097 -1.030695
v 8.841775 45.947931 0.191395
v 11.285358 1.973917 1.412529
v 7.620941 1.973917 2.634141
v 10.063566 28.840149 1.412529
v 8.841775 28.840149 3.855752
v 1.511028 64.275519 2.634141
v 11.285358 1.973917 -1.030695
v 10.063566 33.719374 -1.030695
v 3.955567 64.275519 -1.030695
v 11.285358 6.859241 1.412529
v 6.398193 64.275519 0.191395
v 3.955567 64.275519 3.855752
v 10.063566 8.079047 3.855752
v 10.063566 33.719374 0.191395
v 7.619027 43.502220 3.855752
v 11.285358 12.964371 0.191395
v 10.063566 20.289307 2.634141
v 8.841775 45.947931 -1.030695
v 1.511028 64.275519 3.855752
v 8.841775 42.282413 1.412529
v 5.177359 64.275519 2.634141
f 1167 1153 1176 
f 1148 1147 1149 
f 1150 1151 1152 
f 1148 1149 1153 
f 1149 1150 1154 
f 1153 1149 1154 
f 1150 1147 1155 
f 1151 1150 1155 
f 1154 1150 1157 
f 1149 1147 1158 
f 1150 1149 1158 
f 1147 1150 1158 
f 1153 1154 1160 
f 1147 1148 1161 
f 1155 1147 1161 
f 1150 1152 1162 
f 1152 1157 1162 
f 1157 1150 1162 
f 1152 1151 1163 
f 1151 1155 1164 
f 1161 1151 1164 
f 1155 1161 1164 
f 1157 1152 1165 
f 1154 1157 1165 
f 1156 1151 1166 
f 1153 1156 1166 
f 1151 1161 1166 
f 1166 1161 1167 
f 1148 1153 1167 
f 1160 1154 1168 
f 1154 1165 1168 
f 1152 1163 1169 
f 1163 1156 1169 
f 1160 1146 1170 
f 1153 1160 1170 
f 1165 1152 1171 
f 1159 1165 1171 
f 1169 1159 1171 
f 1152 1169 1171 
f 1159 1146 1172 
f 1146 1160 1172 
f 1165 1159 1172 
f 1160 1168 1172 
f 1168 1165 1172 
f 1151 1156 1173 
f 1163 1151 1173 
f 1156 1163 1173 
f 1161 1148 1174 
f 1167 1161 1174 
f 1148 1167 1174 
f 1156 1153 1175 
f 1146 1159 1175 
f 1169 1156 1175 
f 1159 1169 1175 
f 1170 1146 1175 
f 1153 1170 1175 
f 1153 1166 1176 
f 1166 1167 1176 
o convex_39
v 2.732196 171.784293 -9.584130
v 2.732196 132.713284 -1.031173
v 1.510738 132.713284 -1.031173
v -2.153636 131.481388 -8.361800
v -3.375094 173.016188 -7.138634
v 3.954491 173.016188 -5.917142
v 3.954491 132.713284 -4.698161
v -3.375094 131.481388 -3.476669
v -4.598226 149.813457 -8.361800
v 3.954491 171.784293 -9.584130
v 0.288443 166.901433 -4.698161
v -4.598226 131.481388 -8.361800
v -2.153636 133.928917 -2.253503
v 3.954491 131.481388 -2.253503
v -3.375094 173.016188 -8.361800
v -4.598226 140.039606 -5.917142
v 2.732196 168.125197 -4.698161
v -0.933015 173.016188 -5.917142
v -3.375094 136.372379 -3.476669
v 3.954491 138.819908 -2.253503
v 3.954491 151.033155 -7.139471
v 3.954491 173.016188 -9.584130
v -2.153636 169.344896 -5.917142
v -4.598226 131.481388 -5.917142
v 1.510738 131.481388 -1.031173
v -0.933015 138.815842 -2.253503
v -4.598226 149.813457 -7.138634
v 3.954491 131.481388 -3.475832
v 3.954491 141.259305 -5.917142
v -2.153636 131.481388 -2.253503
v 1.510738 168.125197 -4.698161
v 2.732196 173.016188 -9.584130
f 1191 1198 1208 
f 1180 1177 1186 
f 1182 1183 1186 
f 1177 1180 1188 
f 1180 1184 1188 
f 1185 1177 1188 
f 1183 1182 1190 
f 1184 1180 1190 
f 1181 1182 1191 
f 1185 1181 1191 
f 1185 1188 1192 
f 1179 1178 1193 
f 1182 1181 1194 
f 1193 1182 1194 
f 1184 1189 1195 
f 1189 1181 1195 
f 1181 1192 1195 
f 1192 1184 1195 
f 1178 1190 1196 
f 1190 1182 1196 
f 1193 1178 1196 
f 1182 1193 1196 
f 1180 1186 1197 
f 1186 1183 1197 
f 1186 1177 1198 
f 1182 1186 1198 
f 1191 1182 1198 
f 1181 1189 1199 
f 1187 1194 1199 
f 1194 1181 1199 
f 1188 1184 1200 
f 1184 1192 1200 
f 1192 1188 1200 
f 1178 1179 1201 
f 1179 1189 1201 
f 1190 1178 1201 
f 1184 1190 1201 
f 1179 1187 1202 
f 1189 1179 1202 
f 1199 1189 1202 
f 1187 1199 1202 
f 1181 1185 1203 
f 1192 1181 1203 
f 1185 1192 1203 
f 1180 1183 1204 
f 1183 1190 1204 
f 1190 1180 1204 
f 1183 1180 1205 
f 1180 1197 1205 
f 1197 1183 1205 
f 1189 1184 1206 
f 1201 1189 1206 
f 1184 1201 1206 
f 1187 1179 1207 
f 1179 1193 1207 
f 1194 1187 1207 
f 1193 1194 1207 
f 1177 1185 1208 
f 1185 1191 1208 
f 1198 1177 1208 
o convex_40
v -3.376666 20.288407 1.411147
v -9.485630 15.402438 -2.252812
v -7.041040 15.402438 -2.252812
v -7.041040 25.176289 -8.362279
v -9.485630 25.174375 2.633901
v -0.932913 19.068589 -8.362279
v -3.376666 25.176289 -7.138448
v -8.262498 15.402438 2.633901
v -7.041040 16.625126 -8.362279
v -9.485630 25.176289 -4.697244
v -4.598961 15.402438 0.190545
v -5.819582 25.174375 0.190545
v -0.932913 20.289363 -4.697244
v -3.376666 16.625126 -8.362279
v -4.598961 20.288407 2.633901
v -9.485630 15.402438 2.633901
v -8.262498 16.625126 -7.138448
v -3.376666 25.176289 -8.362279
v -0.932913 19.068589 -4.697244
v -9.485630 16.625126 -4.697244
v -3.376666 19.067632 1.411147
v -8.262498 25.174375 2.633901
v -8.262498 25.176289 -7.138448
v -4.598961 19.067632 2.633901
v -0.932913 20.289363 -8.362279
v -2.155208 20.288407 -1.031133
v -2.155208 19.067632 -1.031133
v -5.819582 15.402438 1.411147
v -4.598961 15.402438 -1.031133
v -5.820419 25.176289 -2.253888
v -9.485630 25.176289 -2.253888
f 1238 1218 1239 
f 1210 1211 1216 
f 1211 1210 1217 
f 1212 1214 1217 
f 1210 1213 1218 
f 1215 1212 1218 
f 1216 1211 1219 
f 1215 1220 1221 
f 1211 1217 1222 
f 1217 1214 1222 
f 1213 1216 1223 
f 1209 1220 1223 
f 1213 1210 1224 
f 1210 1216 1224 
f 1216 1213 1224 
f 1217 1210 1225 
f 1212 1217 1225 
f 1214 1212 1226 
f 1212 1215 1226 
f 1219 1214 1227 
f 1214 1221 1227 
f 1210 1218 1228 
f 1225 1210 1228 
f 1218 1225 1228 
f 1209 1223 1229 
f 1213 1223 1230 
f 1223 1220 1230 
f 1218 1212 1231 
f 1212 1225 1231 
f 1225 1218 1231 
f 1223 1216 1232 
f 1219 1229 1232 
f 1229 1223 1232 
f 1215 1221 1233 
f 1221 1214 1233 
f 1214 1226 1233 
f 1226 1215 1233 
f 1220 1209 1234 
f 1221 1220 1234 
f 1227 1221 1234 
f 1209 1229 1234 
f 1234 1229 1235 
f 1219 1227 1235 
f 1229 1219 1235 
f 1227 1234 1235 
f 1216 1219 1236 
f 1232 1216 1236 
f 1219 1232 1236 
f 1214 1219 1237 
f 1219 1211 1237 
f 1211 1222 1237 
f 1222 1214 1237 
f 1215 1218 1238 
f 1220 1215 1238 
f 1213 1230 1238 
f 1230 1220 1238 
f 1218 1213 1239 
f 1213 1238 1239 
o convex_41
v 11.283803 105.820473 -1.031173
v 1.511028 102.154932 -8.361800
v 3.955567 102.154932 -8.361800
v 6.400107 114.371409 -9.584130
v 7.618609 114.371409 -1.031173
v 5.178375 102.154932 -1.031173
v 1.511028 111.928113 -8.361800
v 8.840340 114.371409 -9.584130
v 12.507687 113.147967 -1.031173
v 12.507687 108.262573 -2.253503
v 7.618609 102.154932 -4.698161
v 1.511028 107.040327 -9.584130
v 1.511028 109.482426 -7.139471
v 8.840340 113.147967 -9.584130
v 2.734913 113.147967 -9.584130
v 11.283803 114.371409 -1.031173
v 5.178375 104.598228 -1.031173
v 1.511028 102.154932 -7.139471
v 7.618609 102.154932 -1.031173
v 12.507687 113.147967 -2.253503
v 10.063148 104.598228 -3.475832
v 2.734913 107.040327 -9.584130
v 1.511028 111.928113 -9.584130
v 12.507687 108.262573 -1.031173
v 11.283803 114.371409 -3.475832
v 2.734913 113.147967 -8.361800
v 11.283803 107.040327 -3.475832
v 6.400107 114.371409 -5.917142
v 11.283803 105.820473 -2.253503
v 5.178375 102.154932 -7.139471
v 5.178375 109.482426 -9.584130
v 10.063148 104.598228 -1.031173
f 1258 1260 1271 
f 1241 1242 1245 
f 1240 1244 1245 
f 1243 1244 1247 
f 1244 1240 1248 
f 1245 1242 1250 
f 1242 1241 1251 
f 1241 1246 1251 
f 1243 1247 1251 
f 1246 1241 1252 
f 1244 1246 1252 
f 1247 1249 1253 
f 1251 1247 1253 
f 1243 1251 1254 
f 1247 1244 1255 
f 1244 1248 1255 
f 1245 1244 1256 
f 1252 1245 1256 
f 1244 1252 1256 
f 1241 1245 1257 
f 1252 1241 1257 
f 1245 1252 1257 
f 1240 1245 1258 
f 1245 1250 1258 
f 1248 1249 1259 
f 1249 1247 1259 
f 1255 1248 1259 
f 1250 1253 1260 
f 1258 1250 1260 
f 1242 1251 1261 
f 1251 1253 1261 
f 1251 1246 1262 
f 1246 1254 1262 
f 1254 1251 1262 
f 1248 1240 1263 
f 1240 1249 1263 
f 1249 1248 1263 
f 1247 1255 1264 
f 1259 1247 1264 
f 1255 1259 1264 
f 1246 1244 1265 
f 1243 1254 1265 
f 1254 1246 1265 
f 1253 1249 1266 
f 1249 1260 1266 
f 1260 1253 1266 
f 1244 1243 1267 
f 1243 1265 1267 
f 1265 1244 1267 
f 1249 1240 1268 
f 1240 1260 1268 
f 1260 1249 1268 
f 1250 1242 1269 
f 1253 1250 1269 
f 1242 1253 1269 
f 1253 1242 1270 
f 1242 1261 1270 
f 1261 1253 1270 
f 1240 1258 1271 
f 1260 1240 1271 
o convex_42
v -7.041570 25.180116 -8.362279
v -8.262703 64.271692 -2.253024
v -4.599303 64.271692 -7.139352
v -5.820436 25.180116 -2.253024
v -9.485630 63.047211 -7.139352
v -9.485630 25.180116 -2.253024
v -3.376376 25.180116 -8.362279
v -8.262703 64.271692 -8.362279
v -9.485630 64.271692 -2.253024
v -9.485630 25.180116 -4.697683
v -3.376376 44.725904 -7.139352
v -4.599303 64.271692 -8.362279
v -8.262703 43.505249 -8.362279
v -5.820436 28.845908 -2.253024
v -3.376376 25.180116 -7.139352
v -3.376376 44.725904 -8.362279
v -8.262703 25.180116 -7.139352
v -9.485630 56.940108 -7.139352
v -9.485630 64.271692 -5.917620
f 1280 1279 1290 
f 1275 1273 1277 
f 1272 1275 1277 
f 1275 1272 1278 
f 1273 1274 1279 
f 1278 1272 1279 
f 1277 1273 1280 
f 1276 1277 1280 
f 1273 1279 1280 
f 1277 1276 1281 
f 1272 1277 1281 
f 1279 1274 1283 
f 1278 1279 1283 
f 1274 1282 1283 
f 1279 1272 1284 
f 1276 1279 1284 
f 1274 1273 1285 
f 1273 1275 1285 
f 1282 1274 1285 
f 1282 1285 1286 
f 1275 1278 1286 
f 1278 1282 1286 
f 1285 1275 1286 
f 1282 1278 1287 
f 1278 1283 1287 
f 1283 1282 1287 
f 1272 1281 1288 
f 1284 1272 1288 
f 1284 1288 1289 
f 1281 1276 1289 
f 1276 1284 1289 
f 1288 1281 1289 
f 1279 1276 1290 
f 1276 1280 1290 
o convex_43
v 8.842134 130.258940 -13.247769
v 5.178136 142.472665 -3.475832
v 3.955807 142.472665 -3.475832
v 7.619805 173.020255 -13.249683
v 2.732879 129.037567 -13.247769
v 3.955209 173.020255 -7.141026
v 8.841536 131.484737 -7.141026
v 5.176940 173.020255 -13.249683
v 6.398073 171.794457 -8.362757
v 3.955807 132.701685 -3.475832
v 8.842134 127.811769 -9.582575
v 3.955209 173.020255 -10.805263
v 6.398073 132.701685 -3.475832
v 2.732879 129.037567 -12.026038
v 8.841536 133.927483 -7.141026
v 5.176940 173.020255 -7.141026
v 7.619805 173.020255 -12.026995
v 8.842134 127.811769 -13.247769
v 6.398073 135.144430 -3.475832
v 8.841536 137.587175 -9.582575
v 7.619207 127.811769 -9.582575
v 3.955209 154.695241 -13.249683
v 6.398073 154.695241 -5.919295
v 2.732879 130.258940 -12.026038
v 7.619207 127.811769 -13.247769
v 2.732879 130.258940 -13.247769
v 3.955209 163.240424 -5.919295
v 8.841536 137.587175 -8.361801
v 6.398073 131.484737 -4.699477
v 5.176940 163.240424 -5.919295
v 7.619207 140.029920 -5.920251
v 5.178136 131.484737 -4.699477
f 1301 1319 1322 
f 1296 1294 1298 
f 1292 1293 1300 
f 1296 1298 1302 
f 1292 1300 1303 
f 1301 1297 1303 
f 1300 1293 1304 
f 1297 1301 1305 
f 1303 1297 1305 
f 1294 1296 1306 
f 1299 1305 1307 
f 1294 1306 1307 
f 1306 1299 1307 
f 1294 1291 1308 
f 1291 1301 1308 
f 1292 1303 1309 
f 1303 1305 1309 
f 1291 1294 1310 
f 1294 1307 1310 
f 1304 1295 1311 
f 1300 1304 1311 
f 1308 1301 1311 
f 1298 1294 1312 
f 1302 1298 1312 
f 1294 1308 1312 
f 1305 1299 1313 
f 1299 1306 1313 
f 1306 1309 1313 
f 1296 1302 1314 
f 1304 1293 1314 
f 1295 1304 1314 
f 1311 1295 1315 
f 1308 1311 1315 
f 1295 1312 1315 
f 1312 1308 1315 
f 1312 1295 1316 
f 1302 1312 1316 
f 1295 1314 1316 
f 1314 1302 1316 
f 1293 1292 1317 
f 1314 1293 1317 
f 1296 1314 1317 
f 1301 1291 1318 
f 1305 1301 1318 
f 1307 1305 1318 
f 1291 1310 1318 
f 1310 1307 1318 
f 1303 1300 1319 
f 1301 1303 1319 
f 1306 1296 1320 
f 1292 1309 1320 
f 1309 1306 1320 
f 1317 1292 1320 
f 1296 1317 1320 
f 1309 1305 1321 
f 1305 1313 1321 
f 1313 1309 1321 
f 1300 1311 1322 
f 1311 1301 1322 
f 1319 1300 1322 
o convex_44
v 3.954132 63.051994 5.079158
v -0.932674 27.619991 8.743156
v -0.932674 27.619991 9.965485
v 7.620283 27.619991 6.300889
v -0.932674 61.828469 3.856231
v 6.397954 27.619991 3.856231
v 0.289656 47.164104 8.743156
v -0.932674 64.275519 6.300889
v 7.620283 38.617367 3.856231
v 3.954132 31.290567 8.743156
v -0.932674 28.847104 7.520827
v 6.397954 43.507880 6.300889
v 3.954132 63.051994 3.856231
v 5.176462 28.847104 3.856231
v 1.511148 27.619991 9.965485
v -0.932674 36.177492 9.965485
v 1.511148 63.051994 6.300889
v 2.733477 38.617367 8.743156
v 7.620283 27.619991 3.856231
v 6.397954 30.067041 7.520827
v 7.620283 38.617367 5.079158
v -0.932674 64.275519 3.856231
v 0.289656 36.177492 9.965485
v 5.176462 56.937955 5.079158
v 2.733477 64.275519 5.079158
v -0.932674 56.937955 7.520827
v 1.511148 31.290567 9.965485
v 5.176462 56.937955 3.856231
v 7.620283 30.067041 6.300889
v 6.397954 27.619991 7.520827
v 0.289656 56.937955 7.520827
v 5.176462 38.617367 7.520827
f 1332 1342 1354 
f 1325 1324 1326 
f 1324 1325 1327 
f 1326 1324 1328 
f 1327 1325 1330 
f 1328 1327 1331 
f 1324 1327 1333 
f 1328 1324 1333 
f 1331 1327 1335 
f 1327 1328 1336 
f 1333 1327 1336 
f 1328 1333 1336 
f 1325 1326 1337 
f 1330 1325 1338 
f 1325 1337 1338 
f 1334 1323 1339 
f 1334 1339 1340 
f 1339 1329 1340 
f 1326 1328 1341 
f 1331 1326 1341 
f 1328 1331 1341 
f 1326 1331 1343 
f 1327 1330 1344 
f 1335 1327 1344 
f 1329 1338 1345 
f 1338 1337 1345 
f 1340 1329 1345 
f 1323 1334 1346 
f 1335 1323 1346 
f 1343 1331 1346 
f 1334 1343 1346 
f 1323 1335 1347 
f 1339 1323 1347 
f 1330 1339 1347 
f 1344 1330 1347 
f 1335 1344 1347 
f 1330 1338 1348 
f 1338 1329 1348 
f 1332 1340 1349 
f 1342 1332 1349 
f 1337 1342 1349 
f 1345 1337 1349 
f 1340 1345 1349 
f 1331 1335 1350 
f 1335 1346 1350 
f 1346 1331 1350 
f 1342 1326 1351 
f 1334 1342 1351 
f 1326 1343 1351 
f 1343 1334 1351 
f 1337 1326 1352 
f 1326 1342 1352 
f 1342 1337 1352 
f 1339 1330 1353 
f 1329 1339 1353 
f 1330 1348 1353 
f 1348 1329 1353 
f 1334 1340 1354 
f 1340 1332 1354 
f 1342 1334 1354 
o convex_45
v 7.619566 -2.925814 8.742678
v -0.931717 1.962510 8.741840
v -0.931717 1.962510 11.187336
v 7.619566 27.616881 3.856709
v 6.396997 -2.925814 2.634380
v -0.931717 27.616881 9.964170
v 6.396997 27.616881 7.521186
v 0.290852 27.616881 7.521186
v 1.512463 11.736048 11.187336
v 8.841177 1.962510 3.856709
v 1.511507 -4.144785 9.965007
v 8.841177 21.506476 5.079038
v 6.396997 27.616881 3.856709
v 5.175385 -4.144785 9.965007
v 7.619566 21.506476 7.521186
v 1.512463 27.616881 9.964170
v 7.619566 -2.925814 2.634380
v 0.289895 -2.925814 8.742678
v 8.841177 1.962510 6.300531
v 8.841177 21.506476 3.856709
v 7.619566 -4.144785 6.300531
v -0.931717 14.180210 11.187336
v -0.931717 27.616881 8.741840
v 1.512463 1.962510 11.187336
v 7.619566 27.616881 6.300531
v 2.734075 22.728557 9.964170
v 8.841177 9.298105 6.300531
v 1.511507 -4.144785 8.742678
v 6.396997 -1.703733 2.634380
v 7.619566 -4.144785 8.742678
v 0.290852 21.506476 7.521186
v 5.175385 -4.144785 6.300531
f 1375 1382 1386 
f 1356 1357 1360 
f 1358 1360 1361 
f 1360 1358 1362 
f 1362 1358 1367 
f 1355 1363 1368 
f 1357 1365 1368 
f 1363 1355 1369 
f 1361 1360 1370 
f 1357 1356 1372 
f 1356 1359 1372 
f 1365 1357 1372 
f 1364 1366 1373 
f 1358 1366 1374 
f 1366 1364 1374 
f 1371 1358 1374 
f 1364 1371 1374 
f 1368 1365 1375 
f 1359 1371 1375 
f 1371 1364 1375 
f 1364 1373 1375 
f 1360 1357 1376 
f 1357 1363 1376 
f 1370 1360 1376 
f 1363 1370 1376 
f 1356 1360 1377 
f 1362 1356 1377 
f 1360 1362 1377 
f 1363 1357 1378 
f 1368 1363 1378 
f 1357 1368 1378 
f 1358 1361 1379 
f 1366 1358 1379 
f 1361 1369 1379 
f 1369 1366 1379 
f 1363 1369 1380 
f 1369 1361 1380 
f 1361 1370 1380 
f 1370 1363 1380 
f 1369 1355 1381 
f 1366 1369 1381 
f 1355 1373 1381 
f 1373 1366 1381 
f 1372 1359 1382 
f 1365 1372 1382 
f 1375 1365 1382 
f 1359 1362 1383 
f 1367 1358 1383 
f 1362 1367 1383 
f 1358 1371 1383 
f 1371 1359 1383 
f 1355 1368 1384 
f 1373 1355 1384 
f 1368 1375 1384 
f 1375 1373 1384 
f 1359 1356 1385 
f 1362 1359 1385 
f 1356 1362 1385 
f 1359 1375 1386 
f 1382 1359 1386 
o convex_46
v -0.932674 58.164314 7.520075
v -9.485152 1.968057 2.634380
v -7.041467 1.968057 2.634380
v -2.154935 1.968057 11.186858
v -8.263728 64.275519 3.857478
v -0.932674 52.053108 5.078902
v -8.262891 12.964568 7.520075
v -0.932674 1.968057 8.743173
v -4.598619 64.275519 2.634380
v -3.377196 41.062696 8.743173
v -4.599457 19.075774 2.634380
v -9.485152 37.391094 2.634380
v -9.485152 1.968057 5.079739
v -7.041467 32.499689 7.520075
v -0.932674 30.060086 9.964597
v -2.154935 64.275519 3.857478
v -3.377196 64.275519 6.300326
v -7.041467 1.968057 8.743173
v -9.485152 37.391094 3.857478
v -8.263728 64.275519 2.634380
v -8.263728 53.272910 5.078902
v -0.932674 1.968057 11.186858
v -5.820043 5.633561 2.634380
v -0.932674 64.275519 5.078902
v -7.040630 61.823718 5.078902
v -2.154935 47.167803 8.743173
v -2.154935 30.060086 9.964597
v -7.041467 5.633561 8.743173
v -3.376358 19.075774 9.964597
v -9.485152 15.410270 5.079739
v -0.932674 64.275519 6.300326
v -4.598619 61.823718 6.300326
f 1412 1403 1418 
f 1388 1389 1390 
f 1390 1389 1394 
f 1392 1387 1394 
f 1389 1388 1395 
f 1392 1394 1397 
f 1389 1395 1397 
f 1395 1388 1398 
f 1388 1390 1399 
f 1398 1388 1399 
f 1394 1387 1401 
f 1395 1391 1402 
f 1392 1397 1402 
f 1397 1395 1402 
f 1402 1391 1403 
f 1399 1390 1404 
f 1393 1399 1404 
f 1391 1398 1405 
f 1398 1399 1405 
f 1391 1395 1406 
f 1398 1391 1406 
f 1395 1398 1406 
f 1393 1400 1407 
f 1391 1405 1407 
f 1405 1393 1407 
f 1390 1394 1408 
f 1401 1390 1408 
f 1394 1401 1408 
f 1394 1389 1409 
f 1389 1397 1409 
f 1397 1394 1409 
f 1387 1392 1410 
f 1392 1402 1410 
f 1402 1403 1410 
f 1400 1396 1411 
f 1407 1400 1411 
f 1391 1407 1411 
f 1401 1387 1412 
f 1387 1403 1412 
f 1396 1400 1413 
f 1390 1401 1413 
f 1412 1396 1413 
f 1401 1412 1413 
f 1400 1393 1414 
f 1404 1390 1414 
f 1393 1404 1414 
f 1390 1413 1415 
f 1413 1400 1415 
f 1400 1414 1415 
f 1414 1390 1415 
f 1399 1393 1416 
f 1393 1405 1416 
f 1405 1399 1416 
f 1403 1387 1417 
f 1387 1410 1417 
f 1410 1403 1417 
f 1403 1391 1418 
f 1411 1396 1418 
f 1391 1411 1418 
f 1396 1412 1418 
o convex_47
v -0.933092 78.935339 -7.138993
v -9.485630 69.165315 -4.698520
v -8.262882 64.275998 -8.360485
v -0.933092 64.275998 -8.360485
v -7.040134 69.165315 -2.253024
v -8.262882 78.935339 -3.477028
v -2.154883 76.492833 -9.583651
v -7.040134 77.714086 -7.138993
v -3.377631 64.275998 -10.805981
v -5.817387 78.935339 -2.253024
v 0.288699 69.163880 -8.361322
v -8.262882 64.275998 -4.698520
v -9.485630 69.165315 -2.253024
v 0.288699 72.829074 -9.583651
v -8.262882 66.719939 -8.360485
v -7.040134 65.498686 -3.475353
v -3.377631 78.935339 -8.361322
v -9.485630 74.048892 -2.253024
v -2.154883 64.275998 -10.805981
v -9.485630 74.048892 -3.477028
v -3.376675 74.048892 -9.583651
v -0.933092 78.935339 -8.361322
v -5.817387 76.491398 -2.253024
v 0.288699 69.163880 -9.583651
v -8.262882 78.935339 -2.253024
v -3.377631 65.498686 -10.805981
v -0.934049 76.492833 -9.583651
v -0.933092 64.275998 -9.582814
v -7.040134 78.935339 -5.918338
v -7.040134 64.275998 -4.698520
v 0.288699 72.829074 -8.361322
v -4.599422 77.714086 -8.361322
f 1439 1433 1450 
f 1422 1421 1427 
f 1419 1424 1428 
f 1423 1422 1429 
f 1420 1421 1430 
f 1421 1422 1430 
f 1423 1428 1431 
f 1420 1430 1431 
f 1421 1420 1433 
f 1427 1421 1433 
f 1422 1423 1434 
f 1423 1431 1434 
f 1431 1430 1434 
f 1424 1419 1435 
f 1420 1431 1436 
f 1431 1428 1436 
f 1422 1427 1437 
f 1424 1426 1438 
f 1433 1420 1438 
f 1426 1433 1438 
f 1420 1436 1438 
f 1436 1424 1438 
f 1419 1432 1440 
f 1435 1419 1440 
f 1425 1435 1440 
f 1419 1428 1441 
f 1428 1423 1441 
f 1423 1429 1441 
f 1429 1419 1441 
f 1429 1422 1442 
f 1432 1429 1442 
f 1437 1432 1442 
f 1428 1424 1443 
f 1424 1436 1443 
f 1436 1428 1443 
f 1427 1433 1444 
f 1437 1427 1444 
f 1439 1425 1444 
f 1433 1439 1444 
f 1432 1437 1445 
f 1440 1432 1445 
f 1425 1440 1445 
f 1444 1425 1445 
f 1437 1444 1445 
f 1422 1437 1446 
f 1442 1422 1446 
f 1437 1442 1446 
f 1426 1424 1447 
f 1424 1435 1447 
f 1435 1426 1447 
f 1430 1422 1448 
f 1422 1434 1448 
f 1434 1430 1448 
f 1419 1429 1449 
f 1432 1419 1449 
f 1429 1432 1449 
f 1433 1426 1450 
f 1435 1425 1450 
f 1426 1435 1450 
f 1425 1439 1450 
