v -43.9840704202652 43.456071107417316 -39.70194272881178
v -17.356254160404205 43.90285567603894 -57.550616264470435
v -19.322876632213593 28.163148516246505 -63.69565588116185
v -45.380017161369324 28.551443856525083 -39.99012279756435
v -43.9840704202652 43.456071107417316 -39.70194272881178
v -45.380017161369324 28.551443856525083 -39.99012279756435
v -67.30039715766907 28.562257913877787 -10.804001424956736
v -53.54830622673035 42.30246990115379 -9.195607341986236
v -43.9840704202652 43.456071107417316 -39.70194272881178
v -53.54830622673035 42.30246990115379 -9.195607341986236
v -51.608073711395264 52.09177574823617 -9.6761304071749
v -34.58081781864166 54.900158111870645 -32.53254890809408
v -43.9840704202652 43.456071107417316 -39.70194272881178
v -34.58081781864166 54.900158111870645 -32.53254890809408
v -14.453698694705963 56.2174596431423 -49.973649004836055
v -17.356254160404205 43.90285567603894 -57.550616264470435
v -51.3053834438324 44.50905088777798 22.20685352927178
v -53.54830622673035 42.30246990115379 -9.195607341986236
v -67.30039715766907 28.562257913877787 -10.804001424956736
v -58.83755683898926 31.18731224270756 27.05661146366617
v -51.3053834438324 44.50905088777798 22.20685352927178
v -58.83755683898926 31.18731224270756 27.05661146366617
v -37.72102892398834 32.95466331058386 56.54915034313309
v -34.165143966674805 47.01096606800783 48.32581111802716
v -51.3053834438324 44.50905088777798 22.20685352927178
v -34.165143966674805 47.01096606800783 48.32581111802716
v -31.951531767845154 56.48755543523574 43.48095331188764
v -49.02503192424774 54.03164360690158 20.351536709804762
v -51.3053834438324 44.50905088777798 22.20685352927178
v -49.02503192424774 54.03164360690158 20.351536709804762
v -51.608073711395264 52.09177574823617 -9.6761304071749
v -53.54830622673035 42.30246990115379 -9.195607341986236
v 51.28781795501709 45.83558942152745 30.809114856425374
v 28.57746183872223 46.39392666630439 47.110129784877934
v 33.80537927150726 31.964120493742556 56.25815466825506
v 57.893574237823486 31.310924661361067 35.19606974221053
v 51.28781795501709 45.83558942152745 30.809114856425374
v 57.893574237823486 31.310924661361067 35.19606974221053
v 64.77593183517456 31.137661178921643 6.341498487574354
v 58.37833285331726 44.83496628327821 5.007492151862662
v 51.28781795501709 45.83558942152745 30.809114856425374
v 58.37833285331726 44.83496628327821 5.007492151862662
v 47.508588433265686 56.18086515838936 3.596000533564687
v 45.32400965690613 55.514334169130684 27.60404337999861
v 51.28781795501709 45.83558942152745 30.809114856425374
v 45.32400965690613 55.514334169130684 27.60404337999861
v 24.32941198348999 57.055706480592455 40.84996545591917
v 28.57746183872223 46.39392666630439 47.110129784877934
v 49.7221976518631 44.57959708646225 -25.787891259902374
v 58.37833285331726 44.83496628327821 5.007492151862662
v 64.77593183517456 31.137661178921643 6.341498487574354
v 61.917901039123535 30.763603288860065 -30.250181799404317
v 49.7221976518631 44.57959708646225 -25.787891259902374
v 61.917901039123535 30.763603288860065 -30.250181799404317
v 36.715659499168396 31.243872476473005 -55.896782004870936
v 34.67049598693848 45.50226642372945 -54.04330637299359
v 49.7221976518631 44.57959708646225 -25.787891259902374
v 34.67049598693848 45.50226642372945 -54.04330637299359
v 31.47416114807129 55.64366945147302 -50.69961262309238
v 43.49264204502106 56.333567791677616 -23.819956420640516
v 49.7221976518631 44.57959708646225 -25.787891259902374
v 43.49264204502106 56.333567791677616 -23.819956420640516
v 47.508588433265686 56.18086515838936 3.596000533564687
v 58.37833285331726 44.83496628327821 5.007492151862662
v -38.98563086986542 77.3476361094725 -37.28092380872941
v -44.558143615722656 57.3240627702821 -42.769939105931286
v -53.688424825668335 56.540052346230226 -10.659431191924964
v -53.05149555206299 75.58420095961479 -12.553497052102687
v -38.98563086986542 77.3476361094725 -37.28092380872941
v -53.05149555206299 75.58420095961479 -12.553497052102687
v -34.60815250873566 88.43124360446166 -9.109451127888082
v -27.90478765964508 96.6501138651552 -23.143620144076447
v -38.98563086986542 77.3476361094725 -37.28092380872941
v -27.90478765964508 96.6501138651552 -23.143620144076447
v -10.865805298089981 97.51622729720002 -33.33990970531237
v -15.629702806472778 78.51972362479927 -49.933672822852934
v -38.98563086986542 77.3476361094725 -37.28092380872941
v -15.629702806472778 78.51972362479927 -49.933672822852934
v -19.063174724578857 60.844631635514 -63.14970054090208
v -44.558143615722656 57.3240627702821 -42.769939105931286
v 5.475635826587677 79.91735549716249 -60.24659385934846
v 8.328904211521149 62.38579895871229 -64.22038498655495
v -19.063174724578857 60.844631635514 -63.14970054090208
v -15.629702806472778 78.51972362479927 -49.933672822852934
v 5.475635826587677 79.91735549716249 -60.24659385934846
v -15.629702806472778 78.51972362479927 -49.933672822852934
v -10.865805298089981 97.51622729720002 -33.33990970531237
v 5.262438207864761 96.92406612059945 -39.18131678866969
v 5.475635826587677 79.91735549716249 -60.24659385934846
v 5.262438207864761 96.92406612059945 -39.18131678866969
v 15.564194321632385 87.52755571090593 -33.61660774015979
v 26.942068338394165 78.02815211168414 -50.46597798339689
v 5.475635826587677 79.91735549716249 -60.24659385934846
v 26.942068338394165 78.02815211168414 -50.46597798339689
v 31.07210099697113 61.63000164656801 -54.9856047902538
v 8.328904211521149 62.38579895871229 -64.22038498655495
v -3.0923085287213326 47.87522893774429 57.41586501240788
v -34.165143966674805 47.01096606800783 48.32581111802716
v -37.72102892398834 32.95466331058386 56.54915034313309
v -2.8140272945165634 32.90779480220241 66.39466345616167
v -3.0923085287213326 47.87522893774429 57.41586501240788
v -2.8140272945165634 32.90779480220241 66.39466345616167
v 33.80537927150726 31.964120493742556 56.25815466825506
v 28.57746183872223 46.39392666630439 47.110129784877934
v -3.0923085287213326 47.87522893774429 57.41586501240788
v 28.57746183872223 46.39392666630439 47.110129784877934
v 24.32941198348999 57.055706480592455 40.84996545591917
v -3.5552237182855606 57.32768984123489 49.48034842628664
v -3.0923085287213326 47.87522893774429 57.41586501240788
v -3.5552237182855606 57.32768984123489 49.48034842628664
v -31.951531767845154 56.48755543523574 43.48095331188764
v -34.165143966674805 47.01096606800783 48.32581111802716
v 9.662484377622604 44.58020509888 -62.096501699302934
v 34.67049598693848 45.50226642372945 -54.04330637299359
v 36.715659499168396 31.243872476473005 -55.896782004870936
v 11.15988940000534 30.061064274297532 -66.39467371509087
v 9.662484377622604 44.58020509888 -62.096501699302934
v 11.15988940000534 30.061064274297532 -66.39467371509087
v -19.322876632213593 28.163148516246505 -63.69565588116185
v -17.356254160404205 43.90285567603894 -57.550616264470435
v 9.662484377622604 44.58020509888 -62.096501699302934
v -17.356254160404205 43.90285567603894 -57.550616264470435
v -14.453698694705963 56.2174596431423 -49.973649004836055
v 8.315854519605637 55.652322608327545 -59.523335225439276
v 9.662484377622604 44.58020509888 -62.096501699302934
v 8.315854519605637 55.652322608327545 -59.523335225439276
v 31.47416114807129 55.64366945147302 -50.69961262309238
v 34.67049598693848 45.50226642372945 -54.04330637299359
v 11.774949729442596 99.1334717851668 -11.352491883457676
v 1.195385679602623 102.88824941133863 -5.767323448071211
v 15.17789363861084 97.55815038852784 22.54692961805535
v 27.924945950508118 95.21910744490594 12.047592683574146
v 11.774949729442596 99.1334717851668 -11.352491883457676
v 27.924945950508118 95.21910744490594 12.047592683574146
v 30.172637104988098 86.60636545337283 0.0680977707146213
v 25.44327676296234 92.20573014713771 -17.8841726202392
v 11.774949729442596 99.1334717851668 -11.352491883457676
v 25.44327676296234 92.20573014713771 -17.8841726202392
v 15.564194321632385 87.52755571090593 -33.61660774015979
v 5.262438207864761 96.92406612059945 -39.18131678866969
v 11.774949729442596 99.1334717851668 -11.352491883457676
v 5.262438207864761 96.92406612059945 -39.18131678866969
v -10.865805298089981 97.51622729720002 -33.33990970531237
v 1.195385679602623 102.88824941133863 -5.767323448071211
v -13.207362592220306 101.64415860326082 1.472592930220966
v -31.843718886375427 95.7127409586598 10.615319066230455
v -19.439221918582916 89.78922800746084 26.617241178401706
v -2.5683794170618057 94.0571886312617 25.616639429824723
v -13.207362592220306 101.64415860326082 1.472592930220966
v -2.5683794170618057 94.0571886312617 25.616639429824723
v 15.17789363861084 97.55815038852784 22.54692961805535
v 1.195385679602623 102.88824941133863 -5.767323448071211
v -13.207362592220306 101.64415860326082 1.472592930220966
v 1.195385679602623 102.88824941133863 -5.767323448071211
v -10.865805298089981 97.51622729720002 -33.33990970531237
v -27.90478765964508 96.6501138651552 -23.143620144076447
v -13.207362592220306 101.64415860326082 1.472592930220966
v -27.90478765964508 96.6501138651552 -23.143620144076447
v -34.60815250873566 88.43124360446166 -9.109451127888082
v -31.843718886375427 95.7127409586598 10.615319066230455
v 36.943015456199646 74.39395996642989 -23.61488958270212
v 49.523308873176575 60.204465442851145 -28.939075145734197
v 31.07210099697113 61.63000164656801 -54.9856047902538
v 26.942068338394165 78.02815211168414 -50.46597798339689
v 36.943015456199646 74.39395996642989 -23.61488958270212
v 26.942068338394165 78.02815211168414 -50.46597798339689
v 15.564194321632385 87.52755571090593 -33.61660774015979
v 25.44327676296234 92.20573014713771 -17.8841726202392
v 36.943015456199646 74.39395996642989 -23.61488958270212
v 25.44327676296234 92.20573014713771 -17.8841726202392
v 30.172637104988098 86.60636545337283 0.0680977707146213
v 42.44460463523865 74.03642587583003 3.2146411467871903
v 36.943015456199646 74.39395996642989 -23.61488958270212
v 42.44460463523865 74.03642587583003 3.2146411467871903
v 55.581724643707275 59.57999291828831 3.8299325643006488
v 49.523308873176575 60.204465442851145 -28.939075145734197
v -48.38656485080719 76.86384622274717 18.537574404704483
v -52.82320976257324 58.6760317909956 21.724351621720842
v -38.56871426105499 61.52071596761245 51.31541084301717
v -29.46425974369049 78.92894850988881 43.098401085087716
v -48.38656485080719 76.86384622274717 18.537574404704483
v -29.46425974369049 78.92894850988881 43.098401085087716
v -19.439221918582916 89.78922800746084 26.617241178401706
v -31.843718886375427 95.7127409586598 10.615319066230455
v -48.38656485080719 76.86384622274717 18.537574404704483
v -31.843718886375427 95.7127409586598 10.615319066230455
v -34.60815250873566 88.43124360446166 -9.109451127888082
v -53.05149555206299 75.58420095961479 -12.553497052102687
v -48.38656485080719 76.86384622274717 18.537574404704483
v -53.05149555206299 75.58420095961479 -12.553497052102687
v -53.688424825668335 56.540052346230226 -10.659431191924964
v -52.82320976257324 58.6760317909956 21.724351621720842
v 41.82862341403961 77.85274803905612 25.625934433983655
v 50.769126415252686 60.430788054829556 30.821483422588848
v 55.581724643707275 59.57999291828831 3.8299325643006488
v 42.44460463523865 74.03642587583003 3.2146411467871903
v 41.82862341403961 77.85274803905612 25.625934433983655
v 42.44460463523865 74.03642587583003 3.2146411467871903
v 30.172637104988098 86.60636545337283 0.0680977707146213
v 27.924945950508118 95.21910744490594 12.047592683574146
v 41.82862341403961 77.85274803905612 25.625934433983655
v 27.924945950508118 95.21910744490594 12.047592683574146
v 15.17789363861084 97.55815038852784 22.54692961805535
v 22.816216945648193 78.7334683037962 38.10770719012413
v 41.82862341403961 77.85274803905612 25.625934433983655
v 22.816216945648193 78.7334683037962 38.10770719012413
v 28.569692373275757 61.87317571083721 48.84349887839808
v 50.769126415252686 60.430788054829556 30.821483422588848
v -2.0339032635092735 79.8107881471084 48.24628423743082
v -5.031251162290573 62.50864599481228 56.971176215510354
v 28.569692373275757 61.87317571083721 48.84349887839808
v 22.816216945648193 78.7334683037962 38.10770719012413
v -2.0339032635092735 79.8107881471084 48.24628423743082
v 22.816216945648193 78.7334683037962 38.10770719012413
v 15.17789363861084 97.55815038852784 22.54692961805535
v -2.5683794170618057 94.0571886312617 25.616639429824723
v -2.0339032635092735 79.8107881471084 48.24628423743082
v -2.5683794170618057 94.0571886312617 25.616639429824723
v -19.439221918582916 89.78922800746084 26.617241178401706
v -29.46425974369049 78.92894850988881 43.098401085087716
v -2.0339032635092735 79.8107881471084 48.24628423743082
v -29.46425974369049 78.92894850988881 43.098401085087716
v -38.56871426105499 61.52071596761245 51.31541084301717
v -5.031251162290573 62.50864599481228 56.971176215510354
v 3.2024968415498734 -8.168095358915823 -0.053093957124570226
v -38.03728520870209 -4.768078627058558 -31.10870343250992
v -16.42846018075943 -0.36747077166439585 -49.942243039345385
v 10.058795660734177 -4.826655577556356 -52.38333265823473
v 3.2024968415498734 -8.168095358915823 -0.053093957124570226
v 10.058795660734177 -4.826655577556356 -52.38333265823473
v 33.28547477722168 0.3620015053648914 -44.83579701122634
v 50.30445456504822 -6.474313767698827 -22.145840960944255
v 3.2024968415498734 -8.168095358915823 -0.053093957124570226
v 50.30445456504822 -6.474313767698827 -22.145840960944255
v 60.82282066345215 -2.422576149287254 6.097619257674475
v 44.965171813964844 -3.2052829379757664 27.734581158232082
v 3.2024968415498734 -8.168095358915823 -0.053093957124570226
v 44.965171813964844 -3.2052829379757664 27.734581158232082
v 27.43135094642639 -0.06237150217939921 47.500479231506866
v -0.6494571920484304 -4.865000091089304 52.18193610297427
v 3.2024968415498734 -8.168095358915823 -0.053093957124570226
v -0.6494571920484304 -4.865000091089304 52.18193610297427
v -29.56356406211853 0.09842089903315333 47.07839785403023
v -47.371506690979004 -4.795648795014891 23.52635789562601
v 3.2024968415498734 -8.168095358915823 -0.053093957124570226
v -47.371506690979004 -4.795648795014891 23.52635789562601
v -54.963815212249756 -0.6725857348959675 -5.909538159465002
v -38.03728520870209 -4.768078627058558 -31.10870343250992
v 10.6845922768116 25.328220760119176 -61.97942907995324
v 36.26512289047241 26.156756593862077 -52.962510078891256
v 35.48501431941986 23.239413660288843 -50.23422619829174
v 9.978748112916946 22.719397485409253 -58.901027566207304
v 10.6845922768116 25.328220760119176 -61.97942907995324
v 9.978748112916946 22.719397485409253 -58.901027566207304
v -16.52945727109909 22.92019781221175 -51.41731874043164
v -17.997753620147705 22.921397800519642 -57.83322826935961
v 10.6845922768116 25.328220760119176 -61.97942907995324
v -17.997753620147705 22.921397800519642 -57.83322826935961
v -19.322876632213593 28.163148516246505 -63.69565588116185
v 11.15988940000534 30.061064274297532 -66.39467371509087
v 10.6845922768116 25.328220760119176 -61.97942907995324
v 11.15988940000534 30.061064274297532 -66.39467371509087
v 36.715659499168396 31.243872476473005 -55.896782004870936
v 36.26512289047241 26.156756593862077 -52.962510078891256
v -2.0337482914328575 27.118996971868228 62.158168904433886
v -36.020103096961975 26.57911507656618 56.60749240814789
v -33.20079445838928 23.710724536014915 53.80098433436077
v -1.5312708914279938 24.154177310075802 54.88983595240553
v -2.0337482914328575 27.118996971868228 62.158168904433886
v -1.5312708914279938 24.154177310075802 54.88983595240553
v 30.224138498306274 23.925867152219613 51.65814963591842
v 31.877771019935608 26.42141859853722 53.72666286116222
v -2.0337482914328575 27.118996971868228 62.158168904433886
v 31.877771019935608 26.42141859853722 53.72666286116222
v 33.80537927150726 31.964120493742556 56.25815466825506
v -2.8140272945165634 32.90779480220241 66.39466345616167
v -2.0337482914328575 27.118996971868228 62.158168904433886
v -2.8140272945165634 32.90779480220241 66.39466345616167
v -37.72102892398834 32.95466331058386 56.54915034313309
v -36.020103096961975 26.57911507656618 56.60749240814789
v 54.64012622833252 26.994540135402378 -25.363586770634864
v 61.011576652526855 27.48271342175069 7.076576344965685
v 62.667685747146606 23.639519329399498 8.021459602403377
v 49.33340549468994 24.366869972333653 -21.669430530269473
v 54.64012622833252 26.994540135402378 -25.363586770634864
v 49.33340549468994 24.366869972333653 -21.669430530269473
v 35.48501431941986 23.239413660288843 -50.23422619829174
v 36.26512289047241 26.156756593862077 -52.962510078891256
v 54.64012622833252 26.994540135402378 -25.363586770634864
v 36.26512289047241 26.156756593862077 -52.962510078891256
v 36.715659499168396 31.243872476473005 -55.896782004870936
v 61.917901039123535 30.763603288860065 -30.250181799404317
v 54.64012622833252 26.994540135402378 -25.363586770634864
v 61.917901039123535 30.763603288860065 -30.250181799404317
v 64.77593183517456 31.137661178921643 6.341498487574354
v 61.011576652526855 27.48271342175069 7.076576344965685
v 53.846657276153564 26.768773294716357 33.51941566654704
v 31.877771019935608 26.42141859853722 53.72666286116222
v 30.224138498306274 23.925867152219613 51.65814963591842
v 50.28430223464966 24.11610410375864 32.05848539365117
v 53.846657276153564 26.768773294716357 33.51941566654704
v 50.28430223464966 24.11610410375864 32.05848539365117
v 62.667685747146606 23.639519329399498 8.021459602403377
v 61.011576652526855 27.48271342175069 7.076576344965685
v 53.846657276153564 26.768773294716357 33.51941566654704
v 61.011576652526855 27.48271342175069 7.076576344965685
v 64.77593183517456 31.137661178921643 6.341498487574354
v 57.893574237823486 31.310924661361067 35.19606974221053
v 53.846657276153564 26.768773294716357 33.51941566654704
v 57.893574237823486 31.310924661361067 35.19606974221053
v 33.80537927150726 31.964120493742556 56.25815466825506
v 31.877771019935608 26.42141859853722 53.72666286116222
v -53.32332253456116 28.158162207518284 25.433413567170284
v -60.703450441360474 25.600884953443988 -8.540759681243964
v -54.37259078025818 25.186960769376523 -6.873842706973463
v -50.04974603652954 24.77247217690874 24.353209572317603
v -53.32332253456116 28.158162207518284 25.433413567170284
v -50.04974603652954 24.77247217690874 24.353209572317603
v -33.20079445838928 23.710724536014915 53.80098433436077
v -36.020103096961975 26.57911507656618 56.60749240814789
v -53.32332253456116 28.158162207518284 25.433413567170284
v -36.020103096961975 26.57911507656618 56.60749240814789
v -37.72102892398834 32.95466331058386 56.54915034313309
v -58.83755683898926 31.18731224270756 27.05661146366617
v -53.32332253456116 28.158162207518284 25.433413567170284
v -58.83755683898926 31.18731224270756 27.05661146366617
v -67.30039715766907 28.562257913877787 -10.804001424956736
v -60.703450441360474 25.600884953443988 -8.540759681243964
v -43.56197416782379 25.29095409221404 -36.712698288511184
v -17.997753620147705 22.921397800519642 -57.83322826935961
v -16.52945727109909 22.92019781221175 -51.41731874043164
v -44.6488618850708 23.028498943023013 -36.24744194418718
v -43.56197416782379 25.29095409221404 -36.712698288511184
v -44.6488618850708 23.028498943023013 -36.24744194418718
v -54.37259078025818 25.186960769376523 -6.873842706973463
v -60.703450441360474 25.600884953443988 -8.540759681243964
v -43.56197416782379 25.29095409221404 -36.712698288511184
v -60.703450441360474 25.600884953443988 -8.540759681243964
v -67.30039715766907 28.562257913877787 -10.804001424956736
v -45.380017161369324 28.551443856525083 -39.99012279756435
v -43.56197416782379 25.29095409221404 -36.712698288511184
v -45.380017161369324 28.551443856525083 -39.99012279756435
v -19.322876632213593 28.163148516246505 -63.69565588116185
v -17.997753620147705 22.921397800519642 -57.83322826935961
v -44.39893960952759 11.08448527069946 -35.25507928716263
v -67.15098023414612 11.223386308700295 -8.651453595012875
v -54.37259078025818 25.186960769376523 -6.873842706973463
v -44.6488618850708 23.028498943023013 -36.24744194418718
v -44.39893960952759 11.08448527069946 -35.25507928716263
v -44.6488618850708 23.028498943023013 -36.24744194418718
v -16.52945727109909 22.92019781221175 -51.41731874043164
v -18.384915590286255 10.376613986728994 -56.99808766621347
v -44.39893960952759 11.08448527069946 -35.25507928716263
v -18.384915590286255 10.376613986728994 -56.99808766621347
v -16.42846018075943 -0.36747077166439585 -49.942243039345385
v -38.03728520870209 -4.768078627058558 -31.10870343250992
v -44.39893960952759 11.08448527069946 -35.25507928716263
v -38.03728520870209 -4.768078627058558 -31.10870343250992
v -54.963815212249756 -0.6725857348959675 -5.909538159465002
v -67.15098023414612 11.223386308700295 -8.651453595012875
v 54.179251194000244 10.7287105275545 34.3615216418884
v 67.30039715766907 10.581780899076128 8.71034539200281
v 62.667685747146606 23.639519329399498 8.021459602403377
v 50.28430223464966 24.11610410375864 32.05848539365117
v 54.179251194000244 10.7287105275545 34.3615216418884
v 50.28430223464966 24.11610410375864 32.05848539365117
v 30.224138498306274 23.925867152219613 51.65814963591842
v 31.99758231639862 10.625690093707048 54.09145778156737
v 54.179251194000244 10.7287105275545 34.3615216418884
v 31.99758231639862 10.625690093707048 54.09145778156737
v 27.43135094642639 -0.06237150217939921 47.500479231506866
v 44.965171813964844 -3.2052829379757664 27.734581158232082
v 54.179251194000244 10.7287105275545 34.3615216418884
v 44.965171813964844 -3.2052829379757664 27.734581158232082
v 60.82282066345215 -2.422576149287254 6.097619257674475
v 67.30039715766907 10.581780899076128 8.71034539200281
v -1.5313102863729 10.36012920514376 64.19311593068322
v 31.99758231639862 10.625690093707048 54.09145778156737
v 30.224138498306274 23.925867152219613 51.65814963591842
v -1.5312708914279938 24.154177310075802 54.88983595240553
v -1.5313102863729 10.36012920514376 64.19311593068322
v -1.5312708914279938 24.154177310075802 54.88983595240553
v -33.20079445838928 23.710724536014915 53.80098433436077
v -35.96709072589874 10.267180802584939 58.54928922272753
v -1.5313102863729 10.36012920514376 64.19311593068322
v -35.96709072589874 10.267180802584939 58.54928922272753
v -29.56356406211853 0.09842089903315333 47.07839785403023
v -0.6494571920484304 -4.865000091089304 52.18193610297427
v -1.5313102863729 10.36012920514376 64.19311593068322
v -0.6494571920484304 -4.865000091089304 52.18193610297427
v 27.43135094642639 -0.06237150217939921 47.500479231506866
v 31.99758231639862 10.625690093707048 54.09145778156737
v -55.506110191345215 11.071972512751692 27.21654592373229
v -35.96709072589874 10.267180802584939 58.54928922272753
v -33.20079445838928 23.710724536014915 53.80098433436077
v -50.04974603652954 24.77247217690874 24.353209572317603
v -55.506110191345215 11.071972512751692 27.21654592373229
v -50.04974603652954 24.77247217690874 24.353209572317603
v -54.37259078025818 25.186960769376523 -6.873842706973463
v -67.15098023414612 11.223386308700295 -8.651453595012875
v -55.506110191345215 11.071972512751692 27.21654592373229
v -67.15098023414612 11.223386308700295 -8.651453595012875
v -54.963815212249756 -0.6725857348959675 -5.909538159465002
v -47.371506690979004 -4.795648795014891 23.52635789562601
v -55.506110191345215 11.071972512751692 27.21654592373229
v -47.371506690979004 -4.795648795014891 23.52635789562601
v -29.56356406211853 0.09842089903315333 47.07839785403023
v -35.96709072589874 10.267180802584939 58.54928922272753
v 56.287312507629395 10.707213423778558 -24.742912010349674
v 35.85014343261719 10.678843255740425 -51.24408776695113
v 35.48501431941986 23.239413660288843 -50.23422619829174
v 49.33340549468994 24.366869972333653 -21.669430530269473
v 56.287312507629395 10.707213423778558 -24.742912010349674
v 49.33340549468994 24.366869972333653 -21.669430530269473
v 62.667685747146606 23.639519329399498 8.021459602403377
v 67.30039715766907 10.581780899076128 8.71034539200281
v 56.287312507629395 10.707213423778558 -24.742912010349674
v 67.30039715766907 10.581780899076128 8.71034539200281
v 60.82282066345215 -2.422576149287254 6.097619257674475
v 50.30445456504822 -6.474313767698827 -22.145840960944255
v 56.287312507629395 10.707213423778558 -24.742912010349674
v 50.30445456504822 -6.474313767698827 -22.145840960944255
v 33.28547477722168 0.3620015053648914 -44.83579701122634
v 35.85014343261719 10.678843255740425 -51.24408776695113
v 11.036354303359985 10.337035380879868 -63.88314534752488
v -18.384915590286255 10.376613986728994 -56.99808766621347
v -16.52945727109909 22.92019781221175 -51.41731874043164
v 9.978748112916946 22.719397485409253 -58.901027566207304
v 11.036354303359985 10.337035380879868 -63.88314534752488
v 9.978748112916946 22.719397485409253 -58.901027566207304
v 35.48501431941986 23.239413660288843 -50.23422619829174
v 35.85014343261719 10.678843255740425 -51.24408776695113
v 11.036354303359985 10.337035380879868 -63.88314534752488
v 35.85014343261719 10.678843255740425 -51.24408776695113
v 33.28547477722168 0.3620015053648914 -44.83579701122634
v 10.058795660734177 -4.826655577556356 -52.38333265823473
v 11.036354303359985 10.337035380879868 -63.88314534752488
v 10.058795660734177 -4.826655577556356 -52.38333265823473
v -16.42846018075943 -0.36747077166439585 -49.942243039345385
v -18.384915590286255 10.376613986728994 -56.99808766621347
v -4.9584463238716125 57.59637589974263 50.95830217413051
v -3.5552237182855606 57.32768984123489 49.48034842628664
v 24.32941198348999 57.055706480592455 40.84996545591917
v 25.097772479057312 58.01209306893531 42.449512567064204
v -4.9584463238716125 57.59637589974263 50.95830217413051
v 25.097772479057312 58.01209306893531 42.449512567064204
v 28.569692373275757 61.87317571083721 48.84349887839808
v -5.031251162290573 62.50864599481228 56.971176215510354
v -4.9584463238716125 57.59637589974263 50.95830217413051
v -5.031251162290573 62.50864599481228 56.971176215510354
v -38.56871426105499 61.52071596761245 51.31541084301717
v -34.45825278759003 56.55343670981018 45.08114429827798
v -4.9584463238716125 57.59637589974263 50.95830217413051
v -34.45825278759003 56.55343670981018 45.08114429827798
v -31.951531767845154 56.48755543523574 43.48095331188764
v -3.5552237182855606 57.32768984123489 49.48034842628664
v 46.99488878250122 55.39426075737065 28.49490634130302
v 45.32400965690613 55.514334169130684 27.60404337999861
v 47.508588433265686 56.18086515838936 3.596000533564687
v 51.15550756454468 57.45261369332835 3.5478379107468876
v 46.99488878250122 55.39426075737065 28.49490634130302
v 51.15550756454468 57.45261369332835 3.5478379107468876
v 55.581724643707275 59.57999291828831 3.8299325643006488
v 50.769126415252686 60.430788054829556 30.821483422588848
v 46.99488878250122 55.39426075737065 28.49490634130302
v 50.769126415252686 60.430788054829556 30.821483422588848
v 28.569692373275757 61.87317571083721 48.84349887839808
v 25.097772479057312 58.01209306893531 42.449512567064204
v 46.99488878250122 55.39426075737065 28.49490634130302
v 25.097772479057312 58.01209306893531 42.449512567064204
v 24.32941198348999 57.055706480592455 40.84996545591917
v 45.32400965690613 55.514334169130684 27.60404337999861
v -50.644612312316895 53.64243733359331 21.18719538308163
v -49.02503192424774 54.03164360690158 20.351536709804762
v -31.951531767845154 56.48755543523574 43.48095331188764
v -34.45825278759003 56.55343670981018 45.08114429827798
v -50.644612312316895 53.64243733359331 21.18719538308163
v -34.45825278759003 56.55343670981018 45.08114429827798
v -38.56871426105499 61.52071596761245 51.31541084301717
v -52.82320976257324 58.6760317909956 21.724351621720842
v -50.644612312316895 53.64243733359331 21.18719538308163
v -52.82320976257324 58.6760317909956 21.724351621720842
v -53.688424825668335 56.540052346230226 -10.659431191924964
v -52.222758531570435 51.473216613030054 -9.756663632070978
v -50.644612312316895 53.64243733359331 21.18719538308163
v -52.222758531570435 51.473216613030054 -9.756663632070978
v -51.608073711395264 52.09177574823617 -9.6761304071749
v -49.02503192424774 54.03164360690158 20.351536709804762
v 45.59820294380188 58.04183653420627 -26.132333794175352
v 43.49264204502106 56.333567791677616 -23.819956420640516
v 31.47416114807129 55.64366945147302 -50.69961262309238
v 31.85083270072937 56.926283485074336 -53.3753130197399
v 45.59820294380188 58.04183653420627 -26.132333794175352
v 31.85083270072937 56.926283485074336 -53.3753130197399
v 31.07210099697113 61.63000164656801 -54.9856047902538
v 49.523308873176575 60.204465442851145 -28.939075145734197
v 45.59820294380188 58.04183653420627 -26.132333794175352
v 49.523308873176575 60.204465442851145 -28.939075145734197
v 55.581724643707275 59.57999291828831 3.8299325643006488
v 51.15550756454468 57.45261369332835 3.5478379107468876
v 45.59820294380188 58.04183653420627 -26.132333794175352
v 51.15550756454468 57.45261369332835 3.5478379107468876
v 47.508588433265686 56.18086515838936 3.596000533564687
v 43.49264204502106 56.333567791677616 -23.819956420640516
v 8.76983255147934 56.72215986232973 -62.927487793079045
v 8.315854519605637 55.652322608327545 -59.523335225439276
v -14.453698694705963 56.2174596431423 -49.973649004836055
v -15.495410561561584 57.69486728768999 -54.666552406585325
v 8.76983255147934 56.72215986232973 -62.927487793079045
v -15.495410561561584 57.69486728768999 -54.666552406585325
v -19.063174724578857 60.844631635514 -63.14970054090208
v 8.328904211521149 62.38579895871229 -64.22038498655495
v 8.76983255147934 56.72215986232973 -62.927487793079045
v 8.328904211521149 62.38579895871229 -64.22038498655495
v 31.07210099697113 61.63000164656801 -54.9856047902538
v 31.85083270072937 56.926283485074336 -53.3753130197399
v 8.76983255147934 56.72215986232973 -62.927487793079045
v 31.85083270072937 56.926283485074336 -53.3753130197399
v 31.47416114807129 55.64366945147302 -50.69961262309238
v 8.315854519605637 55.652322608327545 -59.523335225439276
v -36.70212924480438 56.140244218437935 -35.287961569503295
v -34.58081781864166 54.900158111870645 -32.53254890809408
v -51.608073711395264 52.09177574823617 -9.6761304071749
v -52.222758531570435 51.473216613030054 -9.756663632070978
v -36.70212924480438 56.140244218437935 -35.287961569503295
v -52.222758531570435 51.473216613030054 -9.756663632070978
v -53.688424825668335 56.540052346230226 -10.659431191924964
v -44.558143615722656 57.3240627702821 -42.769939105931286
v -36.70212924480438 56.140244218437935 -35.287961569503295
v -44.558143615722656 57.3240627702821 -42.769939105931286
v -19.063174724578857 60.844631635514 -63.14970054090208
v -15.495410561561584 57.69486728768999 -54.666552406585325
v -36.70212924480438 56.140244218437935 -35.287961569503295
v -15.495410561561584 57.69486728768999 -54.666552406585325
v -14.453698694705963 56.2174596431423 -49.973649004836055
v -34.58081781864166 54.900158111870645 -32.53254890809408
f 1 2 3
f 1 3 4
f 5 6 7
f 5 7 8
f 9 10 11
f 9 11 12
f 13 14 15
f 13 15 16
f 17 18 19
f 17 19 20
f 21 22 23
f 21 23 24
f 25 26 27
f 25 27 28
f 29 30 31
f 29 31 32
f 33 34 35
f 33 35 36
f 37 38 39
f 37 39 40
f 41 42 43
f 41 43 44
f 45 46 47
f 45 47 48
f 49 50 51
f 49 51 52
f 53 54 55
f 53 55 56
f 57 58 59
f 57 59 60
f 61 62 63
f 61 63 64
f 65 66 67
f 65 67 68
f 69 70 71
f 69 71 72
f 73 74 75
f 73 75 76
f 77 78 79
f 77 79 80
f 81 82 83
f 81 83 84
f 85 86 87
f 85 87 88
f 89 90 91
f 89 91 92
f 93 94 95
f 93 95 96
f 97 98 99
f 97 99 100
f 101 102 103
f 101 103 104
f 105 106 107
f 105 107 108
f 109 110 111
f 109 111 112
f 113 114 115
f 113 115 116
f 117 118 119
f 117 119 120
f 121 122 123
f 121 123 124
f 125 126 127
f 125 127 128
f 129 130 131
f 129 131 132
f 133 134 135
f 133 135 136
f 137 138 139
f 137 139 140
f 141 142 143
f 141 143 144
f 145 146 147
f 145 147 148
f 149 150 151
f 149 151 152
f 153 154 155
f 153 155 156
f 157 158 159
f 157 159 160
f 161 162 163
f 161 163 164
f 165 166 167
f 165 167 168
f 169 170 171
f 169 171 172
f 173 174 175
f 173 175 176
f 177 178 179
f 177 179 180
f 181 182 183
f 181 183 184
f 185 186 187
f 185 187 188
f 189 190 191
f 189 191 192
f 193 194 195
f 193 195 196
f 197 198 199
f 197 199 200
f 201 202 203
f 201 203 204
f 205 206 207
f 205 207 208
f 209 210 211
f 209 211 212
f 213 214 215
f 213 215 216
f 217 218 219
f 217 219 220
f 221 222 223
f 221 223 224
f 225 226 227
f 225 227 228
f 229 230 231
f 229 231 232
f 233 234 235
f 233 235 236
f 237 238 239
f 237 239 240
f 241 242 243
f 241 243 244
f 245 246 247
f 245 247 248
f 249 250 251
f 249 251 252
f 253 254 255
f 253 255 256
f 257 258 259
f 257 259 260
f 261 262 263
f 261 263 264
f 265 266 267
f 265 267 268
f 269 270 271
f 269 271 272
f 273 274 275
f 273 275 276
f 277 278 279
f 277 279 280
f 281 282 283
f 281 283 284
f 285 286 287
f 285 287 288
f 289 290 291
f 289 291 292
f 293 294 295
f 293 295 296
f 297 298 299
f 297 299 300
f 301 302 303
f 301 303 304
f 305 306 307
f 305 307 308
f 309 310 311
f 309 311 312
f 313 314 315
f 313 315 316
f 317 318 319
f 317 319 320
f 321 322 323
f 321 323 324
f 325 326 327
f 325 327 328
f 329 330 331
f 329 331 332
f 333 334 335
f 333 335 336
f 337 338 339
f 337 339 340
f 341 342 343
f 341 343 344
f 345 346 347
f 345 347 348
f 349 350 351
f 349 351 352
f 353 354 355
f 353 355 356
f 357 358 359
f 357 359 360
f 361 362 363
f 361 363 364
f 365 366 367
f 365 367 368
f 369 370 371
f 369 371 372
f 373 374 375
f 373 375 376
f 377 378 379
f 377 379 380
f 381 382 383
f 381 383 384
f 385 386 387
f 385 387 388
f 389 390 391
f 389 391 392
f 393 394 395
f 393 395 396
f 397 398 399
f 397 399 400
f 401 402 403
f 401 403 404
f 405 406 407
f 405 407 408
f 409 410 411
f 409 411 412
f 413 414 415
f 413 415 416
f 417 418 419
f 417 419 420
f 421 422 423
f 421 423 424
f 425 426 427
f 425 427 428
f 429 430 431
f 429 431 432
f 433 434 435
f 433 435 436
f 437 438 439
f 437 439 440
f 441 442 443
f 441 443 444
f 445 446 447
f 445 447 448
f 449 450 451
f 449 451 452
f 453 454 455
f 453 455 456
f 457 458 459
f 457 459 460
f 461 462 463
f 461 463 464
f 465 466 467
f 465 467 468
f 469 470 471
f 469 471 472
f 473 474 475
f 473 475 476
f 477 478 479
f 477 479 480
f 481 482 483
f 481 483 484
f 485 486 487
f 485 487 488
f 489 490 491
f 489 491 492
f 493 494 495
f 493 495 496
f 497 498 499
f 497 499 500
f 501 502 503
f 501 503 504
f 505 506 507
f 505 507 508
f 509 510 511
f 509 511 512
f 513 514 515
f 513 515 516
f 517 518 519
f 517 519 520
f 521 522 523
f 521 523 524
f 525 526 527
f 525 527 528
f 529 530 531
f 529 531 532
f 533 534 535
f 533 535 536
