v -34.165143966674805 48.27184868405092 48.32581091260331
v -51.3053834438324 45.76993350382107 22.206853323847927
v -52.52971053123474 50.37994159597471 22.764339285714886
v -35.000574588775635 52.938624336437336 49.4759085953204
v -15.629702806472778 79.78060624084236 -49.933673028276786
v -38.98563086986542 78.6085187255156 -37.280924014153264
v -39.85724747180939 82.78287625867442 -38.01444329470631
v -15.97139835357666 83.98155335926523 -50.95426616379355
v -19.322876632213593 29.424031132289596 -63.6956560865857
v -45.380017161369324 29.812326472568174 -39.99012300298819
v -46.469902992248535 34.060274860819 -40.843823140791336
v -19.8215514421463 33.66316688618277 -65.08721065601279
v 9.662484377622604 45.84109069515533 -62.09650190472727
v 34.67049598693848 46.76314903977254 -54.04330657841744
v 35.39687693119049 51.39569336625723 -55.2158558656407
v 9.821458160877228 50.4527107813221 -63.45177518756498
v -48.38656485080719 78.12472883879026 18.53757419928063
v -29.46425974369049 80.1898311259319 43.09840087966386
v -30.119848251342773 84.40006499190378 44.188607889690736
v -49.471479654312134 82.28810740271474 19.070519511542628
v -45.380017161369324 29.812326472568174 -39.99012300298819
v -67.30039715766907 29.823140529920877 -10.804001630380586
v -68.88763308525085 34.07133340510199 -10.995497890059251
v -46.469902992248535 34.060274860819 -40.843823140791336
v -43.9840704202652 44.716953723460406 -39.70194293423563
v -17.356254160404205 45.16373829208203 -57.55061646989429
v -17.810307443141937 49.75999529786254 -58.802743912445216
v -45.04228234291077 49.30307204514193 -40.54910449760179
v -38.98563086986542 78.6085187255156 -37.280924014153264
v -53.05149555206299 76.84508357565788 -12.553497257526537
v -54.24225330352783 80.97943456264859 -12.725975891684357
v -39.85724747180939 82.78287625867442 -38.01444329470631
v -67.30039715766907 29.823140529920877 -10.804001630380586
v -58.83755683898926 32.44819485875065 27.05661125824232
v -60.232776403427124 36.755947815175674 27.724134894188857
v -68.88763308525085 34.07133340510199 -10.995497890059251
v -17.356254160404205 45.16373829208203 -57.55061646989429
v 9.662484377622604 45.84109069515533 -62.09650190472727
v 9.821458160877228 50.4527107813221 -63.45177518756498
v -17.810307443141937 49.75999529786254 -58.802743912445216
v 42.44460463523865 75.29730849187312 3.2146409413633394
v 36.943015456199646 75.65484258247298 -23.614889788125968
v 37.794142961502075 79.76218666402731 -24.03834122529119
v 43.4205561876297 79.39654048044913 3.399925037088289
v 49.7221976518631 45.84047970250534 -25.787891465326226
v 58.37833285331726 46.09585187955354 5.007491946438326
v 59.642618894577026 50.71325386431415 5.174742572465873
v 50.79008340835571 50.452090982190704 -26.319357031792844
v -58.83755683898926 32.44819485875065 27.05661125824232
v -37.72102892398834 34.21554592662695 56.54915013770924
v -38.6371374130249 38.56339801684422 57.88583127215822
v -60.232776403427124 36.755947815175674 27.724134894188857
v -53.54830622673035 43.56335251719688 -9.195607547410088
v -43.9840704202652 44.716953723460406 -39.70194293423563
v -45.04228234291077 49.30307204514193 -40.54910449760179
v -54.82352375984192 48.12329557189217 -9.350610914115569
v 33.80537927150726 33.225003109785646 56.25815446283121
v 57.893574237823486 32.57180727740416 35.19606953678668
v 59.14686322212219 36.88236466245342 36.048269223416156
v 34.51213240623474 37.55038126761439 57.588231406300544
v -29.46425974369049 80.1898311259319 43.09840087966386
v -2.0339032635092735 81.07167076315149 48.24628403200697
v -2.0671237260103226 85.30191988786731 49.45328634021032
v -30.119848251342773 84.40006499190378 44.188607889690736
v -3.0923085287213326 49.13611155378738 57.415864806984025
v -34.165143966674805 48.27184868405092 48.32581091260331
v -35.000574588775635 52.938624336437336 49.4759085953204
v -3.2227281481027603 53.82249716790679 58.7722094585903
v 36.943015456199646 75.65484258247298 -23.614889788125968
v 26.942068338394165 79.28903472772723 -50.46597818882074
v 27.56628394126892 83.47882981514424 -51.498653184016575
v 37.794142961502075 79.76218666402731 -24.03834122529119
v 34.67049598693848 46.76314903977254 -54.04330657841744
v 49.7221976518631 45.84047970250534 -25.787891465326226
v 50.79008340835571 50.452090982190704 -26.319357031792844
v 35.39687693119049 51.39569336625723 -55.2158558656407
v 57.893574237823486 32.57180727740416 35.19606953678668
v 64.77593183517456 32.39854379496473 6.3414982821505035
v 66.18537306785583 36.705170147029854 6.539016197426772
v 59.14686322212219 36.88236466245342 36.048269223416156
v 64.77593183517456 32.39854379496473 6.3414982821505035
v 61.917901039123535 32.02448590490315 -30.250182004828165
v 63.26249837875366 36.32262442029097 -30.882891969839076
v 66.18537306785583 36.705170147029854 6.539016197426772
v -2.0339032635092735 81.07167076315149 48.24628403200697
v 22.816216945648193 79.99435091983929 38.10770698470028
v 23.34682047367096 84.2001561422562 39.08468007153662
v -2.0671237260103226 85.30191988786731 49.45328634021032
v 28.57746183872223 47.65480928234748 47.11012957945408
v -3.0923085287213326 49.13611155378738 57.415864806984025
v -3.2227281481027603 53.82249716790679 58.7722094585903
v 29.16559875011444 52.30758379918247 48.232645215082435
v 51.28781795501709 47.09647501780278 30.80911465100104
v 28.57746183872223 47.65480928234748 47.11012957945408
v 29.16559875011444 52.30758379918247 48.232645215082435
v 52.3912250995636 51.73658050713409 31.56177750739765
v 61.917901039123535 32.02448590490315 -30.250182004828165
v 36.715659499168396 32.5047550925161 -55.89678221029478
v 37.48844265937805 36.81379222239815 -57.111388482165545
v 63.26249837875366 36.32262442029097 -30.882891969839076
v -37.72102892398834 34.21554592662695 56.54915013770924
v -2.8140272945165634 34.1686774182455 66.3946632507378
v -2.938132733106613 38.51546858217903 67.95472471258437
v -38.6371374130249 38.56339801684422 57.88583127215822
v 22.816216945648193 79.99435091983929 38.10770698470028
v 41.82862341403961 79.11363065509921 25.625934228559807
v 42.790600657463074 83.29945039398388 26.319707769930872
v 23.34682047367096 84.2001561422562 39.08468007153662
v 58.37833285331726 46.09585187955354 5.007491946438326
v 51.28781795501709 47.09647501780278 30.80911465100104
v 52.3912250995636 51.73658050713409 31.56177750739765
v 59.642618894577026 50.71325386431415 5.174742572465873
v -2.8140272945165634 34.1686774182455 66.3946632507378
v 33.80537927150726 33.225003109785646 56.25815446283121
v 34.51213240623474 37.55038126761439 57.588231406300544
v -2.938132733106613 38.51546858217903 67.95472471258437
v 26.942068338394165 79.28903472772723 -50.46597818882074
v 5.475635826587677 81.17823811320558 -60.2465940647723
v 5.6127991527318954 85.41090678545514 -61.5011831199164
v 27.56628394126892 83.47882981514424 -51.498653184016575
v 36.715659499168396 32.5047550925161 -55.89678221029478
v 11.15988940000534 31.321946890340623 -66.39467392051473
v 11.352838575839996 35.60414699010711 -67.84746630900013
v 37.48844265937805 36.81379222239815 -57.111388482165545
v 41.82862341403961 79.11363065509921 25.625934228559807
v 42.44460463523865 75.29730849187312 3.2146409413633394
v 43.4205561876297 79.39654048044913 3.399925037088289
v 42.790600657463074 83.29945039398388 26.319707769930872
v -45.04228234291077 49.30307204514193 -40.54910449760179
v -17.810307443141937 49.75999529786254 -58.802743912445216
v -19.8215514421463 33.66316688618277 -65.08721065601279
v -46.469902992248535 34.060274860819 -40.843823140791336
v -45.04228234291077 49.30307204514193 -40.54910449760179
v -46.469902992248535 34.060274860819 -40.843823140791336
v -68.88763308525085 34.07133340510199 -10.995497890059251
v -54.82352375984192 48.12329557189217 -9.350610914115569
v -52.52971053123474 50.37994159597471 22.764339285714886
v -54.82352375984192 48.12329557189217 -9.350610914115569
v -68.88763308525085 34.07133340510199 -10.995497890059251
v -60.232776403427124 36.755947815175674 27.724134894188857
v -52.52971053123474 50.37994159597471 22.764339285714886
v -60.232776403427124 36.755947815175674 27.724134894188857
v -38.6371374130249 38.56339801684422 57.88583127215822
v -35.000574588775635 52.938624336437336 49.4759085953204
v 52.3912250995636 51.73658050713409 31.56177750739765
v 29.16559875011444 52.30758379918247 48.232645215082435
v 34.51213240623474 37.55038126761439 57.588231406300544
v 59.14686322212219 36.88236466245342 36.048269223416156
v 52.3912250995636 51.73658050713409 31.56177750739765
v 59.14686322212219 36.88236466245342 36.048269223416156
v 66.18537306785583 36.705170147029854 6.539016197426772
v 59.642618894577026 50.71325386431415 5.174742572465873
v 50.79008340835571 50.452090982190704 -26.319357031792844
v 59.642618894577026 50.71325386431415 5.174742572465873
v 66.18537306785583 36.705170147029854 6.539016197426772
v 63.26249837875366 36.32262442029097 -30.882891969839076
v 50.79008340835571 50.452090982190704 -26.319357031792844
v 63.26249837875366 36.32262442029097 -30.882891969839076
v 37.48844265937805 36.81379222239815 -57.111388482165545
v 35.39687693119049 51.39569336625723 -55.2158558656407
v -39.85724747180939 82.78287625867442 -38.01444329470631
v -54.24225330352783 80.97943456264859 -12.725975891684357
v -35.38044989109039 94.11796181457134 -9.203789070716143
v -28.524991869926453 102.5232991941029 -23.55637879566102
v -39.85724747180939 82.78287625867442 -38.01444329470631
v -28.524991869926453 102.5232991941029 -23.55637879566102
v -11.09941229224205 103.40907020030424 -33.98401037775018
v -15.97139835357666 83.98155335926523 -50.95426616379355
v 5.6127991527318954 85.41090678545514 -61.5011831199164
v -15.97139835357666 83.98155335926523 -50.95426616379355
v -11.09941229224205 103.40907020030424 -33.98401037775018
v 5.394764244556427 102.80346219424935 -39.95795434703929
v 5.6127991527318954 85.41090678545514 -61.5011831199164
v 5.394764244556427 102.80346219424935 -39.95795434703929
v 15.930256247520447 93.19376983262212 -34.26698772500217
v 27.56628394126892 83.47882981514424 -51.498653184016575
v -3.2227281481027603 53.82249716790679 58.7722094585903
v -35.000574588775635 52.938624336437336 49.4759085953204
v -38.6371374130249 38.56339801684422 57.88583127215822
v -2.938132733106613 38.51546858217903 67.95472471258437
v -3.2227281481027603 53.82249716790679 58.7722094585903
v -2.938132733106613 38.51546858217903 67.95472471258437
v 34.51213240623474 37.55038126761439 57.588231406300544
v 29.16559875011444 52.30758379918247 48.232645215082435
v 9.821458160877228 50.4527107813221 -63.45177518756498
v 35.39687693119049 51.39569336625723 -55.2158558656407
v 37.48844265937805 36.81379222239815 -57.111388482165545
v 11.352838575839996 35.60414699010711 -67.84746630900013
v 9.821458160877228 50.4527107813221 -63.45177518756498
v 11.352838575839996 35.60414699010711 -67.84746630900013
v -19.8215514421463 33.66316688618277 -65.08721065601279
v -17.810307443141937 49.75999529786254 -58.802743912445216
v 12.055038660764694 105.06301930980007 -11.497721801673
v 1.2354345992207527 108.90297795446605 -5.785831297668593
v 15.53519070148468 103.45194717253398 23.17084176713652
v 28.571462631225586 101.05983221439352 12.433287427876392
v 12.055038660764694 105.06301930980007 -11.497721801673
v 28.571462631225586 101.05983221439352 12.433287427876392
v 30.87015151977539 92.25168231114647 0.18198961576016934
v 26.033484935760498 97.97808827842492 -18.177599776324364
v 12.055038660764694 105.06301930980007 -11.497721801673
v 26.033484935760498 97.97808827842492 -18.177599776324364
v 15.930256247520447 93.19376983262212 -34.26698772500217
v 5.394764244556427 102.80346219424935 -39.95795434703929
v 12.055038660764694 105.06301930980007 -11.497721801673
v 5.394764244556427 102.80346219424935 -39.95795434703929
v -11.09941229224205 103.40907020030424 -33.98401037775018
v 1.2354345992207527 108.90297795446605 -5.785831297668593
v -13.49409818649292 107.63065841338494 1.6183510158752508
v -32.55329430103302 101.56467139607068 10.968516611317462
v -19.86735165119171 95.50675599051891 27.33350628293182
v -2.613726630806923 99.87156223745197 26.310201109381737
v -13.49409818649292 107.63065841338494 1.6183510158752508
v -2.613726630806923 99.87156223745197 26.310201109381737
v 15.53519070148468 103.45194717253398 23.17084176713652
v 1.2354345992207527 108.90297795446605 -5.785831297668593
v -13.49409818649292 107.63065841338494 1.6183510158752508
v 1.2354345992207527 108.90297795446605 -5.785831297668593
v -11.09941229224205 103.40907020030424 -33.98401037775018
v -28.524991869926453 102.5232991941029 -23.55637879566102
v -13.49409818649292 107.63065841338494 1.6183510158752508
v -28.524991869926453 102.5232991941029 -23.55637879566102
v -35.38044989109039 94.11796181457134 -9.203789070716143
v -32.55329430103302 101.56467139607068 10.968516611317462
v 37.794142961502075 79.76218666402731 -24.03834122529119
v 27.56628394126892 83.47882981514424 -51.498653184016575
v 15.930256247520447 93.19376983262212 -34.26698772500217
v 26.033484935760498 97.97808827842492 -18.177599776324364
v 37.794142961502075 79.76218666402731 -24.03834122529119
v 26.033484935760498 97.97808827842492 -18.177599776324364
v 30.87015151977539 92.25168231114647 0.18198961576016934
v 43.4205561876297 79.39654048044913 3.399925037088289
v -49.471479654312134 82.28810740271474 19.070519511542628
v -30.119848251342773 84.40006499190378 44.188607889690736
v -19.86735165119171 95.50675599051891 27.33350628293182
v -32.55329430103302 101.56467139607068 10.968516611317462
v -49.471479654312134 82.28810740271474 19.070519511542628
v -32.55329430103302 101.56467139607068 10.968516611317462
v -35.38044989109039 94.11796181457134 -9.203789070716143
v -54.24225330352783 80.97943456264859 -12.725975891684357
v 42.790600657463074 83.29945039398388 26.319707769930872
v 43.4205561876297 79.39654048044913 3.399925037088289
v 30.87015151977539 92.25168231114647 0.18198961576016934
v 28.571462631225586 101.05983221439352 12.433287427876392
v 42.790600657463074 83.29945039398388 26.319707769930872
v 28.571462631225586 101.05983221439352 12.433287427876392
v 15.53519070148468 103.45194717253398 23.17084176713652
v 23.34682047367096 84.2001561422562 39.08468007153662
v -2.0671237260103226 85.30191988786731 49.45328634021032
v 23.34682047367096 84.2001561422562 39.08468007153662
v 15.53519070148468 103.45194717253398 23.17084176713652
v -2.613726630806923 99.87156223745197 26.310201109381737
v -2.0671237260103226 85.30191988786731 49.45328634021032
v -2.613726630806923 99.87156223745197 26.310201109381737
v -19.86735165119171 95.50675599051891 27.33350628293182
v -30.119848251342773 84.40006499190378 44.188607889690736
v -53.05149555206299 76.84508357565788 -12.553497257526537
v -48.38656485080719 78.12472883879026 18.53757419928063
v -49.471479654312134 82.28810740271474 19.070519511542628
v -54.24225330352783 80.97943456264859 -12.725975891684357
v 5.475635826587677 81.17823811320558 -60.2465940647723
v -15.629702806472778 79.78060624084236 -49.933673028276786
v -15.97139835357666 83.98155335926523 -50.95426616379355
v 5.6127991527318954 85.41090678545514 -61.5011831199164
v 11.15988940000534 31.321946890340623 -66.39467392051473
v -19.322876632213593 29.424031132289596 -63.6956560865857
v -19.8215514421463 33.66316688618277 -65.08721065601279
v 11.352838575839996 35.60414699010711 -67.84746630900013
v -51.3053834438324 45.76993350382107 22.206853323847927
v -53.54830622673035 43.56335251719688 -9.195607547410088
v -54.82352375984192 48.12329557189217 -9.350610914115569
v -52.52971053123474 50.37994159597471 22.764339285714886
f 1 2 3
f 1 3 4
f 5 6 7
f 5 7 8
f 9 10 11
f 9 11 12
f 13 14 15
f 13 15 16
f 17 18 19
f 17 19 20
f 21 22 23
f 21 23 24
f 25 26 27
f 25 27 28
f 29 30 31
f 29 31 32
f 33 34 35
f 33 35 36
f 37 38 39
f 37 39 40
f 41 42 43
f 41 43 44
f 45 46 47
f 45 47 48
f 49 50 51
f 49 51 52
f 53 54 55
f 53 55 56
f 57 58 59
f 57 59 60
f 61 62 63
f 61 63 64
f 65 66 67
f 65 67 68
f 69 70 71
f 69 71 72
f 73 74 75
f 73 75 76
f 77 78 79
f 77 79 80
f 81 82 83
f 81 83 84
f 85 86 87
f 85 87 88
f 89 90 91
f 89 91 92
f 93 94 95
f 93 95 96
f 97 98 99
f 97 99 100
f 101 102 103
f 101 103 104
f 105 106 107
f 105 107 108
f 109 110 111
f 109 111 112
f 113 114 115
f 113 115 116
f 117 118 119
f 117 119 120
f 121 122 123
f 121 123 124
f 125 126 127
f 125 127 128
f 129 130 131
f 129 131 132
f 133 134 135
f 133 135 136
f 137 138 139
f 137 139 140
f 141 142 143
f 141 143 144
f 145 146 147
f 145 147 148
f 149 150 151
f 149 151 152
f 153 154 155
f 153 155 156
f 157 158 159
f 157 159 160
f 161 162 163
f 161 163 164
f 165 166 167
f 165 167 168
f 169 170 171
f 169 171 172
f 173 174 175
f 173 175 176
f 177 178 179
f 177 179 180
f 181 182 183
f 181 183 184
f 185 186 187
f 185 187 188
f 189 190 191
f 189 191 192
f 193 194 195
f 193 195 196
f 197 198 199
f 197 199 200
f 201 202 203
f 201 203 204
f 205 206 207
f 205 207 208
f 209 210 211
f 209 211 212
f 213 214 215
f 213 215 216
f 217 218 219
f 217 219 220
f 221 222 223
f 221 223 224
f 225 226 227
f 225 227 228
f 229 230 231
f 229 231 232
f 233 234 235
f 233 235 236
f 237 238 239
f 237 239 240
f 241 242 243
f 241 243 244
f 245 246 247
f 245 247 248
f 249 250 251
f 249 251 252
f 253 254 255
f 253 255 256
f 257 258 259
f 257 259 260
f 261 262 263
f 261 263 264
f 265 266 267
f 265 267 268
f 269 270 271
f 269 271 272
v -43.9840704202652 44.716953723460406 -39.70194293423563
v -53.54830622673035 43.56335251719688 -9.195607547410088
v -51.608073711395264 53.35265836427926 -9.676130612598751
v -34.58081781864166 56.161040727913736 -32.53254911351793
v -43.9840704202652 44.716953723460406 -39.70194293423563
v -34.58081781864166 56.161040727913736 -32.53254911351793
v -14.453698694705963 57.47834225918539 -49.97364921025991
v -17.356254160404205 45.16373829208203 -57.55061646989429
v -51.3053834438324 45.76993350382107 22.206853323847927
v -34.165143966674805 48.27184868405092 48.32581091260331
v -31.951531767845154 57.74843805127883 43.48095310646379
v -49.02503192424774 55.29252622294467 20.351536504380913
v -51.3053834438324 45.76993350382107 22.206853323847927
v -49.02503192424774 55.29252622294467 20.351536504380913
v -51.608073711395264 53.35265836427926 -9.676130612598751
v -53.54830622673035 43.56335251719688 -9.195607547410088
v 51.28781795501709 47.09647501780278 30.80911465100104
v 58.37833285331726 46.09585187955354 5.007491946438326
v 47.508588433265686 57.44174777443245 3.5960003281408364
v 45.32400965690613 56.775216785173775 27.60404317457476
v 51.28781795501709 47.09647501780278 30.80911465100104
v 45.32400965690613 56.775216785173775 27.60404317457476
v 24.32941198348999 58.316589096635546 40.849965250495316
v 28.57746183872223 47.65480928234748 47.11012957945408
v 49.7221976518631 45.84047970250534 -25.787891465326226
v 34.67049598693848 46.76314903977254 -54.04330657841744
v 31.47416114807129 56.904552067516114 -50.69961282851623
v 43.49264204502106 57.59445040772071 -23.819956626064364
v 49.7221976518631 45.84047970250534 -25.787891465326226
v 43.49264204502106 57.59445040772071 -23.819956626064364
v 47.508588433265686 57.44174777443245 3.5960003281408364
v 58.37833285331726 46.09585187955354 5.007491946438326
v -38.98563086986542 78.6085187255156 -37.280924014153264
v -44.558143615722656 58.58494538632519 -42.76993931135513
v -53.688424825668335 57.80093496227332 -10.659431397348815
v -53.05149555206299 76.84508357565788 -12.553497257526537
v -38.98563086986542 78.6085187255156 -37.280924014153264
v -15.629702806472778 79.78060624084236 -49.933673028276786
v -19.063174724578857 62.10551425155709 -63.149700746325934
v -44.558143615722656 58.58494538632519 -42.76993931135513
v 5.475635826587677 81.17823811320558 -60.2465940647723
v 8.328904211521149 63.646681574755384 -64.2203851919788
v -19.063174724578857 62.10551425155709 -63.149700746325934
v -15.629702806472778 79.78060624084236 -49.933673028276786
v 5.475635826587677 81.17823811320558 -60.2465940647723
v 26.942068338394165 79.28903472772723 -50.46597818882074
v 31.07210099697113 62.8908842626111 -54.985604995677654
v 8.328904211521149 63.646681574755384 -64.2203851919788
v -3.0923085287213326 49.13611155378738 57.415864806984025
v 28.57746183872223 47.65480928234748 47.11012957945408
v 24.32941198348999 58.316589096635546 40.849965250495316
v -3.5552237182855606 58.588572457277984 49.48034822086279
v -3.0923085287213326 49.13611155378738 57.415864806984025
v -3.5552237182855606 58.588572457277984 49.48034822086279
v -31.951531767845154 57.74843805127883 43.48095310646379
v -34.165143966674805 48.27184868405092 48.32581091260331
v 9.662484377622604 45.84109069515533 -62.09650190472727
v -17.356254160404205 45.16373829208203 -57.55061646989429
v -14.453698694705963 57.47834225918539 -49.97364921025991
v 8.315854519605637 56.913205224370635 -59.52333543086313
v 9.662484377622604 45.84109069515533 -62.09650190472727
v 8.315854519605637 56.913205224370635 -59.52333543086313
v 31.47416114807129 56.904552067516114 -50.69961282851623
v 34.67049598693848 46.76314903977254 -54.04330657841744
v 36.943015456199646 75.65484258247298 -23.614889788125968
v 49.523308873176575 61.465348058894236 -28.939075351158046
v 31.07210099697113 62.8908842626111 -54.985604995677654
v 26.942068338394165 79.28903472772723 -50.46597818882074
v 36.943015456199646 75.65484258247298 -23.614889788125968
v 42.44460463523865 75.29730849187312 3.2146409413633394
v 55.581724643707275 60.8408755343314 3.829932358876798
v 49.523308873176575 61.465348058894236 -28.939075351158046
v -48.38656485080719 78.12472883879026 18.53757419928063
v -52.82320976257324 59.93691440703869 21.724351416296994
v -38.56871426105499 62.781598583655544 51.315410637593324
v -29.46425974369049 80.1898311259319 43.09840087966386
v -48.38656485080719 78.12472883879026 18.53757419928063
v -53.05149555206299 76.84508357565788 -12.553497257526537
v -53.688424825668335 57.80093496227332 -10.659431397348815
v -52.82320976257324 59.93691440703869 21.724351416296994
v 41.82862341403961 79.11363065509921 25.625934228559807
v 50.769126415252686 61.69167067087265 30.821483217165
v 55.581724643707275 60.8408755343314 3.829932358876798
v 42.44460463523865 75.29730849187312 3.2146409413633394
v 41.82862341403961 79.11363065509921 25.625934228559807
v 22.816216945648193 79.99435091983929 38.10770698470028
v 28.569692373275757 63.1340583268803 48.84349867297423
v 50.769126415252686 61.69167067087265 30.821483217165
v -2.0339032635092735 81.07167076315149 48.24628403200697
v -5.031251162290573 63.76952861085537 56.97117601008651
v 28.569692373275757 63.1340583268803 48.84349867297423
v 22.816216945648193 79.99435091983929 38.10770698470028
v -2.0339032635092735 81.07167076315149 48.24628403200697
v -29.46425974369049 80.1898311259319 43.09840087966386
v -38.56871426105499 62.781598583655544 51.315410637593324
v -5.031251162290573 63.76952861085537 56.97117601008651
v 3.2024968415498734 -6.907212742872733 -0.053094162548421066
v -38.03728520870209 -3.5071960110154676 -31.108703637933772
v -16.42846018075943 0.8934118443786949 -49.94224324476924
v 10.058795660734177 -3.565772961513266 -52.38333286365858
v 3.2024968415498734 -6.907212742872733 -0.053094162548421066
v 10.058795660734177 -3.565772961513266 -52.38333286365858
v 33.28547477722168 1.622884121407982 -44.83579721665019
v 50.30445456504822 -5.213431151655736 -22.145841166368104
v 3.2024968415498734 -6.907212742872733 -0.053094162548421066
v 50.30445456504822 -5.213431151655736 -22.145841166368104
v 60.82282066345215 -1.1616935332441631 6.097619052250625
v 44.965171813964844 -1.9444003219326758 27.73458095280823
v 3.2024968415498734 -6.907212742872733 -0.053094162548421066
v 44.965171813964844 -1.9444003219326758 27.73458095280823
v 27.43135094642639 1.1985111138636917 47.50047902608301
v -0.6494571920484304 -3.6041174750462135 52.18193589755042
v 3.2024968415498734 -6.907212742872733 -0.053094162548421066
v -0.6494571920484304 -3.6041174750462135 52.18193589755042
v -29.56356406211853 1.3593035150762443 47.07839764860638
v -47.371506690979004 -3.534766178971801 23.52635769020216
v 3.2024968415498734 -6.907212742872733 -0.053094162548421066
v -47.371506690979004 -3.534766178971801 23.52635769020216
v -54.963815212249756 0.5882968811471233 -5.909538364888852
v -38.03728520870209 -3.5071960110154676 -31.108703637933772
v 10.6845922768116 26.589103376162267 -61.979429285377094
v 36.26512289047241 27.41763920990517 -52.96251028431511
v 35.48501431941986 24.500296276331934 -50.23422640371559
v 9.978748112916946 23.980281591568463 -58.9010277716314
v 10.6845922768116 26.589103376162267 -61.979429285377094
v 9.978748112916946 23.980281591568463 -58.9010277716314
v -16.52945727109909 24.18108042825484 -51.41731894585549
v -17.997753620147705 24.182278926446614 -57.83322847478322
v 10.6845922768116 26.589103376162267 -61.979429285377094
v -17.997753620147705 24.182278926446614 -57.83322847478322
v -19.322876632213593 29.424031132289596 -63.6956560865857
v 11.15988940000534 31.321946890340623 -66.39467392051473
v 10.6845922768116 26.589103376162267 -61.979429285377094
v 11.15988940000534 31.321946890340623 -66.39467392051473
v 36.715659499168396 32.5047550925161 -55.89678221029478
v 36.26512289047241 27.41763920990517 -52.96251028431511
v -2.0337482914328575 28.37987958791132 62.158168699010034
v -36.020103096961975 27.83999769260927 56.60749220272404
v -33.20079445838928 24.971605661941886 53.80098412893716
v -1.5312708914279938 25.415059926118893 54.889835746981674
v -2.0337482914328575 28.37987958791132 62.158168699010034
v -1.5312708914279938 25.415059926118893 54.889835746981674
v 30.224138498306274 25.186749768262704 51.65814943049457
v 31.877771019935608 27.68230121458031 53.726662655738366
v -2.0337482914328575 28.37987958791132 62.158168699010034
v 31.877771019935608 27.68230121458031 53.726662655738366
v 33.80537927150726 33.225003109785646 56.25815446283121
v -2.8140272945165634 34.1686774182455 66.3946632507378
v -2.0337482914328575 28.37987958791132 62.158168699010034
v -2.8140272945165634 34.1686774182455 66.3946632507378
v -37.72102892398834 34.21554592662695 56.54915013770924
v -36.020103096961975 27.83999769260927 56.60749220272404
v 54.64012622833252 28.25542275144547 -25.363586976058713
v 61.011576652526855 28.743596037793782 7.076576139541833
v 62.667685747146606 24.90040045532647 8.021459396979768
v 49.33340549468994 25.627752588376744 -21.66943073569332
v 54.64012622833252 28.25542275144547 -25.363586976058713
v 49.33340549468994 25.627752588376744 -21.66943073569332
v 35.48501431941986 24.500296276331934 -50.23422640371559
v 36.26512289047241 27.41763920990517 -52.96251028431511
v 54.64012622833252 28.25542275144547 -25.363586976058713
v 36.26512289047241 27.41763920990517 -52.96251028431511
v 36.715659499168396 32.5047550925161 -55.89678221029478
v 61.917901039123535 32.02448590490315 -30.250182004828165
v 54.64012622833252 28.25542275144547 -25.363586976058713
v 61.917901039123535 32.02448590490315 -30.250182004828165
v 64.77593183517456 32.39854379496473 6.3414982821505035
v 61.011576652526855 28.743596037793782 7.076576139541833
v 53.846657276153564 28.02965591075945 33.51941546112319
v 31.877771019935608 27.68230121458031 53.726662655738366
v 30.224138498306274 25.186749768262704 51.65814943049457
v 50.28430223464966 25.37698671980173 32.05848518822732
v 53.846657276153564 28.02965591075945 33.51941546112319
v 50.28430223464966 25.37698671980173 32.05848518822732
v 62.667685747146606 24.90040045532647 8.021459396979768
v 61.011576652526855 28.743596037793782 7.076576139541833
v 53.846657276153564 28.02965591075945 33.51941546112319
v 61.011576652526855 28.743596037793782 7.076576139541833
v 64.77593183517456 32.39854379496473 6.3414982821505035
v 57.893574237823486 32.57180727740416 35.19606953678668
v 53.846657276153564 28.02965591075945 33.51941546112319
v 57.893574237823486 32.57180727740416 35.19606953678668
v 33.80537927150726 33.225003109785646 56.25815446283121
v 31.877771019935608 27.68230121458031 53.726662655738366
v -53.32332253456116 29.419044823561375 25.433413361746435
v -60.703450441360474 26.86176756948708 -8.540759886667814
v -54.37259078025818 26.447843385419613 -6.873842912397313
v -50.04974603652954 26.03335479295183 24.353209366893754
v -53.32332253456116 29.419044823561375 25.433413361746435
v -50.04974603652954 26.03335479295183 24.353209366893754
v -33.20079445838928 24.971605661941886 53.80098412893716
v -36.020103096961975 27.83999769260927 56.60749220272404
v -53.32332253456116 29.419044823561375 25.433413361746435
v -36.020103096961975 27.83999769260927 56.60749220272404
v -37.72102892398834 34.21554592662695 56.54915013770924
v -58.83755683898926 32.44819485875065 27.05661125824232
v -53.32332253456116 29.419044823561375 25.433413361746435
v -58.83755683898926 32.44819485875065 27.05661125824232
v -67.30039715766907 29.823140529920877 -10.804001630380586
v -60.703450441360474 26.86176756948708 -8.540759886667814
v -43.56197416782379 26.55183670825713 -36.71269849393504
v -17.997753620147705 24.182278926446614 -57.83322847478322
v -16.52945727109909 24.18108042825484 -51.41731894585549
v -44.6488618850708 24.289383049182224 -36.247442149611274
v -43.56197416782379 26.55183670825713 -36.71269849393504
v -44.6488618850708 24.289383049182224 -36.247442149611274
v -54.37259078025818 26.447843385419613 -6.873842912397313
v -60.703450441360474 26.86176756948708 -8.540759886667814
v -43.56197416782379 26.55183670825713 -36.71269849393504
v -60.703450441360474 26.86176756948708 -8.540759886667814
v -67.30039715766907 29.823140529920877 -10.804001630380586
v -45.380017161369324 29.812326472568174 -39.99012300298819
v -43.56197416782379 26.55183670825713 -36.71269849393504
v -45.380017161369324 29.812326472568174 -39.99012300298819
v -19.322876632213593 29.424031132289596 -63.6956560865857
v -17.997753620147705 24.182278926446614 -57.83322847478322
v -44.39893960952759 12.345367886742551 -35.25507949258648
v -67.15098023414612 12.484268924743386 -8.651453800436725
v -54.37259078025818 26.447843385419613 -6.873842912397313
v -44.6488618850708 24.289383049182224 -36.247442149611274
v -44.39893960952759 12.345367886742551 -35.25507949258648
v -44.6488618850708 24.289383049182224 -36.247442149611274
v -16.52945727109909 24.18108042825484 -51.41731894585549
v -18.384915590286255 11.637496602772085 -56.998087871637324
v -44.39893960952759 12.345367886742551 -35.25507949258648
v -18.384915590286255 11.637496602772085 -56.998087871637324
v -16.42846018075943 0.8934118443786949 -49.94224324476924
v -38.03728520870209 -3.5071960110154676 -31.108703637933772
v -44.39893960952759 12.345367886742551 -35.25507949258648
v -38.03728520870209 -3.5071960110154676 -31.108703637933772
v -54.963815212249756 0.5882968811471233 -5.909538364888852
v -67.15098023414612 12.484268924743386 -8.651453800436725
v 54.179251194000244 11.98959314359759 34.36152143646455
v 67.30039715766907 11.842663515119218 8.71034518657896
v 62.667685747146606 24.90040045532647 8.021459396979768
v 50.28430223464966 25.37698671980173 32.05848518822732
v 54.179251194000244 11.98959314359759 34.36152143646455
v 50.28430223464966 25.37698671980173 32.05848518822732
v 30.224138498306274 25.186749768262704 51.65814943049457
v 31.99758231639862 11.886572709750139 54.09145757614352
v 54.179251194000244 11.98959314359759 34.36152143646455
v 31.99758231639862 11.886572709750139 54.09145757614352
v 27.43135094642639 1.1985111138636917 47.50047902608301
v 44.965171813964844 -1.9444003219326758 27.73458095280823
v 54.179251194000244 11.98959314359759 34.36152143646455
v 44.965171813964844 -1.9444003219326758 27.73458095280823
v 60.82282066345215 -1.1616935332441631 6.097619052250625
v 67.30039715766907 11.842663515119218 8.71034518657896
v -1.5313102863729 11.621011821186851 64.19311572525937
v 31.99758231639862 11.886572709750139 54.09145757614352
v 30.224138498306274 25.186749768262704 51.65814943049457
v -1.5312708914279938 25.415059926118893 54.889835746981674
v -1.5313102863729 11.621011821186851 64.19311572525937
v -1.5312708914279938 25.415059926118893 54.889835746981674
v -33.20079445838928 24.971605661941886 53.80098412893716
v -35.96709072589874 11.52806341862803 58.54928901730368
v -1.5313102863729 11.621011821186851 64.19311572525937
v -35.96709072589874 11.52806341862803 58.54928901730368
v -29.56356406211853 1.3593035150762443 47.07839764860638
v -0.6494571920484304 -3.6041174750462135 52.18193589755042
v -1.5313102863729 11.621011821186851 64.19311572525937
v -0.6494571920484304 -3.6041174750462135 52.18193589755042
v 27.43135094642639 1.1985111138636917 47.50047902608301
v 31.99758231639862 11.886572709750139 54.09145757614352
v -55.506110191345215 12.332855128794783 27.216545718308442
v -35.96709072589874 11.52806341862803 58.54928901730368
v -33.20079445838928 24.971605661941886 53.80098412893716
v -50.04974603652954 26.03335479295183 24.353209366893754
v -55.506110191345215 12.332855128794783 27.216545718308442
v -50.04974603652954 26.03335479295183 24.353209366893754
v -54.37259078025818 26.447843385419613 -6.873842912397313
v -67.15098023414612 12.484268924743386 -8.651453800436725
v -55.506110191345215 12.332855128794783 27.216545718308442
v -67.15098023414612 12.484268924743386 -8.651453800436725
v -54.963815212249756 0.5882968811471233 -5.909538364888852
v -47.371506690979004 -3.534766178971801 23.52635769020216
v -55.506110191345215 12.332855128794783 27.216545718308442
v -47.371506690979004 -3.534766178971801 23.52635769020216
v -29.56356406211853 1.3593035150762443 47.07839764860638
v -35.96709072589874 11.52806341862803 58.54928901730368
v 56.287312507629395 11.96809603982165 -24.742912215773526
v 35.85014343261719 11.939725871783516 -51.244087972374984
v 35.48501431941986 24.500296276331934 -50.23422640371559
v 49.33340549468994 25.627752588376744 -21.66943073569332
v 56.287312507629395 11.96809603982165 -24.742912215773526
v 49.33340549468994 25.627752588376744 -21.66943073569332
v 62.667685747146606 24.90040045532647 8.021459396979768
v 67.30039715766907 11.842663515119218 8.71034518657896
v 56.287312507629395 11.96809603982165 -24.742912215773526
v 67.30039715766907 11.842663515119218 8.71034518657896
v 60.82282066345215 -1.1616935332441631 6.097619052250625
v 50.30445456504822 -5.213431151655736 -22.145841166368104
v 56.287312507629395 11.96809603982165 -24.742912215773526
v 50.30445456504822 -5.213431151655736 -22.145841166368104
v 33.28547477722168 1.622884121407982 -44.83579721665019
v 35.85014343261719 11.939725871783516 -51.244087972374984
v 11.036354303359985 11.597917996922959 -63.88314555294873
v -18.384915590286255 11.637496602772085 -56.998087871637324
v -16.52945727109909 24.18108042825484 -51.41731894585549
v 9.978748112916946 23.980281591568463 -58.9010277716314
v 11.036354303359985 11.597917996922959 -63.88314555294873
v 9.978748112916946 23.980281591568463 -58.9010277716314
v 35.48501431941986 24.500296276331934 -50.23422640371559
v 35.85014343261719 11.939725871783516 -51.244087972374984
v 11.036354303359985 11.597917996922959 -63.88314555294873
v 35.85014343261719 11.939725871783516 -51.244087972374984
v 33.28547477722168 1.622884121407982 -44.83579721665019
v 10.058795660734177 -3.565772961513266 -52.38333286365858
v 11.036354303359985 11.597917996922959 -63.88314555294873
v 10.058795660734177 -3.565772961513266 -52.38333286365858
v -16.42846018075943 0.8934118443786949 -49.94224324476924
v -18.384915590286255 11.637496602772085 -56.998087871637324
v -4.9584463238716125 58.85725851578572 50.95830196870666
v -3.5552237182855606 58.588572457277984 49.48034822086279
v 24.32941198348999 58.316589096635546 40.849965250495316
v 25.097772479057312 59.2729756849784 42.44951236164035
v -4.9584463238716125 58.85725851578572 50.95830196870666
v 25.097772479057312 59.2729756849784 42.44951236164035
v 28.569692373275757 63.1340583268803 48.84349867297423
v -5.031251162290573 63.76952861085537 56.97117601008651
v -4.9584463238716125 58.85725851578572 50.95830196870666
v -5.031251162290573 63.76952861085537 56.97117601008651
v -38.56871426105499 62.781598583655544 51.315410637593324
v -34.45825278759003 57.81431932585327 45.081144092854124
v -4.9584463238716125 58.85725851578572 50.95830196870666
v -34.45825278759003 57.81431932585327 45.081144092854124
v -31.951531767845154 57.74843805127883 43.48095310646379
v -3.5552237182855606 58.588572457277984 49.48034822086279
v 46.99488878250122 56.65514337341374 28.49490613587917
v 45.32400965690613 56.775216785173775 27.60404317457476
v 47.508588433265686 57.44174777443245 3.5960003281408364
v 51.15550756454468 58.71349630937144 3.5478377053230368
v 46.99488878250122 56.65514337341374 28.49490613587917
v 51.15550756454468 58.71349630937144 3.5478377053230368
v 55.581724643707275 60.8408755343314 3.829932358876798
v 50.769126415252686 61.69167067087265 30.821483217165
v 46.99488878250122 56.65514337341374 28.49490613587917
v 50.769126415252686 61.69167067087265 30.821483217165
v 28.569692373275757 63.1340583268803 48.84349867297423
v 25.097772479057312 59.2729756849784 42.44951236164035
v 46.99488878250122 56.65514337341374 28.49490613587917
v 25.097772479057312 59.2729756849784 42.44951236164035
v 24.32941198348999 58.316589096635546 40.849965250495316
v 45.32400965690613 56.775216785173775 27.60404317457476
v -50.644612312316895 54.9033199496364 21.18719517765778
v -49.02503192424774 55.29252622294467 20.351536504380913
v -31.951531767845154 57.74843805127883 43.48095310646379
v -34.45825278759003 57.81431932585327 45.081144092854124
v -50.644612312316895 54.9033199496364 21.18719517765778
v -34.45825278759003 57.81431932585327 45.081144092854124
v -38.56871426105499 62.781598583655544 51.315410637593324
v -52.82320976257324 59.93691440703869 21.724351416296994
v -50.644612312316895 54.9033199496364 21.18719517765778
v -52.82320976257324 59.93691440703869 21.724351416296994
v -53.688424825668335 57.80093496227332 -10.659431397348815
v -52.222758531570435 52.734099229073145 -9.756663837494829
v -50.644612312316895 54.9033199496364 21.18719517765778
v -52.222758531570435 52.734099229073145 -9.756663837494829
v -51.608073711395264 53.35265836427926 -9.676130612598751
v -49.02503192424774 55.29252622294467 20.351536504380913
v 45.59820294380188 59.30271915024936 -26.1323339995992
v 43.49264204502106 57.59445040772071 -23.819956626064364
v 31.47416114807129 56.904552067516114 -50.69961282851623
v 31.85083270072937 58.18716610111743 -53.37531322516375
v 45.59820294380188 59.30271915024936 -26.1323339995992
v 31.85083270072937 58.18716610111743 -53.37531322516375
v 31.07210099697113 62.8908842626111 -54.985604995677654
v 49.523308873176575 61.465348058894236 -28.939075351158046
v 45.59820294380188 59.30271915024936 -26.1323339995992
v 49.523308873176575 61.465348058894236 -28.939075351158046
v 55.581724643707275 60.8408755343314 3.829932358876798
v 51.15550756454468 58.71349630937144 3.5478377053230368
v 45.59820294380188 59.30271915024936 -26.1323339995992
v 51.15550756454468 58.71349630937144 3.5478377053230368
v 47.508588433265686 57.44174777443245 3.5960003281408364
v 43.49264204502106 57.59445040772071 -23.819956626064364
v 8.76983255147934 57.98304247837282 -62.9274879985029
v 8.315854519605637 56.913205224370635 -59.52333543086313
v -14.453698694705963 57.47834225918539 -49.97364921025991
v -15.495410561561584 58.95574990373308 -54.66655261200918
v 8.76983255147934 57.98304247837282 -62.9274879985029
v -15.495410561561584 58.95574990373308 -54.66655261200918
v -19.063174724578857 62.10551425155709 -63.149700746325934
v 8.328904211521149 63.646681574755384 -64.2203851919788
v 8.76983255147934 57.98304247837282 -62.9274879985029
v 8.328904211521149 63.646681574755384 -64.2203851919788
v 31.07210099697113 62.8908842626111 -54.985604995677654
v 31.85083270072937 58.18716610111743 -53.37531322516375
v 8.76983255147934 57.98304247837282 -62.9274879985029
v 31.85083270072937 58.18716610111743 -53.37531322516375
v 31.47416114807129 56.904552067516114 -50.69961282851623
v 8.315854519605637 56.913205224370635 -59.52333543086313
v -36.70212924480438 57.401126834481026 -35.28796177492715
v -34.58081781864166 56.161040727913736 -32.53254911351793
v -51.608073711395264 53.35265836427926 -9.676130612598751
v -52.222758531570435 52.734099229073145 -9.756663837494829
v -36.70212924480438 57.401126834481026 -35.28796177492715
v -52.222758531570435 52.734099229073145 -9.756663837494829
v -53.688424825668335 57.80093496227332 -10.659431397348815
v -44.558143615722656 58.58494538632519 -42.76993931135513
v -36.70212924480438 57.401126834481026 -35.28796177492715
v -44.558143615722656 58.58494538632519 -42.76993931135513
v -19.063174724578857 62.10551425155709 -63.149700746325934
v -15.495410561561584 58.95574990373308 -54.66655261200918
v -36.70212924480438 57.401126834481026 -35.28796177492715
v -15.495410561561584 58.95574990373308 -54.66655261200918
v -14.453698694705963 57.47834225918539 -49.97364921025991
v -34.58081781864166 56.161040727913736 -32.53254911351793
f 273 274 275
f 273 275 276
f 277 278 279
f 277 279 280
f 281 282 283
f 281 283 284
f 285 286 287
f 285 287 288
f 289 290 291
f 289 291 292
f 293 294 295
f 293 295 296
f 297 298 299
f 297 299 300
f 301 302 303
f 301 303 304
f 305 306 307
f 305 307 308
f 309 310 311
f 309 311 312
f 313 314 315
f 313 315 316
f 317 318 319
f 317 319 320
f 321 322 323
f 321 323 324
f 325 326 327
f 325 327 328
f 329 330 331
f 329 331 332
f 333 334 335
f 333 335 336
f 337 338 339
f 337 339 340
f 341 342 343
f 341 343 344
f 345 346 347
f 345 347 348
f 349 350 351
f 349 351 352
f 353 354 355
f 353 355 356
f 357 358 359
f 357 359 360
f 361 362 363
f 361 363 364
f 365 366 367
f 365 367 368
f 369 370 371
f 369 371 372
f 373 374 375
f 373 375 376
f 377 378 379
f 377 379 380
f 381 382 383
f 381 383 384
f 385 386 387
f 385 387 388
f 389 390 391
f 389 391 392
f 393 394 395
f 393 395 396
f 397 398 399
f 397 399 400
f 401 402 403
f 401 403 404
f 405 406 407
f 405 407 408
f 409 410 411
f 409 411 412
f 413 414 415
f 413 415 416
f 417 418 419
f 417 419 420
f 421 422 423
f 421 423 424
f 425 426 427
f 425 427 428
f 429 430 431
f 429 431 432
f 433 434 435
f 433 435 436
f 437 438 439
f 437 439 440
f 441 442 443
f 441 443 444
f 445 446 447
f 445 447 448
f 449 450 451
f 449 451 452
f 453 454 455
f 453 455 456
f 457 458 459
f 457 459 460
f 461 462 463
f 461 463 464
f 465 466 467
f 465 467 468
f 469 470 471
f 469 471 472
f 473 474 475
f 473 475 476
f 477 478 479
f 477 479 480
f 481 482 483
f 481 483 484
f 485 486 487
f 485 487 488
f 489 490 491
f 489 491 492
f 493 494 495
f 493 495 496
f 497 498 499
f 497 499 500
f 501 502 503
f 501 503 504
f 505 506 507
f 505 507 508
f 509 510 511
f 509 511 512
f 513 514 515
f 513 515 516
f 517 518 519
f 517 519 520
f 521 522 523
f 521 523 524
f 525 526 527
f 525 527 528
f 529 530 531
f 529 531 532
f 533 534 535
f 533 535 536
f 537 538 539
f 537 539 540
f 541 542 543
f 541 543 544
f 545 546 547
f 545 547 548
f 549 550 551
f 549 551 552
f 553 554 555
f 553 555 556
f 557 558 559
f 557 559 560
f 561 562 563
f 561 563 564
f 565 566 567
f 565 567 568
f 569 570 571
f 569 571 572
f 573 574 575
f 573 575 576
f 577 578 579
f 577 579 580
f 581 582 583
f 581 583 584
f 585 586 587
f 585 587 588
f 589 590 591
f 589 591 592
f 593 594 595
f 593 595 596
f 597 598 599
f 597 599 600
f 601 602 603
f 601 603 604
f 605 606 607
f 605 607 608
f 609 610 611
f 609 611 612
f 613 614 615
f 613 615 616
f 617 618 619
f 617 619 620
f 621 622 623
f 621 623 624
f 625 626 627
f 625 627 628
f 629 630 631
f 629 631 632
f 633 634 635
f 633 635 636
f 637 638 639
f 637 639 640
f 641 642 643
f 641 643 644
f 645 646 647
f 645 647 648
f 649 650 651
f 649 651 652
f 653 654 655
f 653 655 656
f 657 658 659
f 657 659 660
f 661 662 663
f 661 663 664
f 665 666 667
f 665 667 668
f 669 670 671
f 669 671 672
f 673 674 675
f 673 675 676
f 677 678 679
f 677 679 680
