v 63.58773708343506 58.23805169651235 26.608880806846518
v 56.79718852043152 59.23041387570765 53.912534600630515
v 58.38938355445862 57.907030075922734 55.42719612834041
v 65.3752088546753 56.88612906488968 27.338379294276457
v 4.622553661465645 59.46990285127927 75.23167356536705
v -28.032729029655457 60.440534492563344 74.02519195047445
v -28.87997329235077 59.1519479786283 76.11823310355764
v 4.714372009038925 58.15340348784859 77.35941058672157
v 60.21370887756348 40.535185078914886 56.95158178823936
v 63.21067810058594 39.70732533323771 27.03562924061892
v 67.10206866264343 42.08260943567439 28.66291314204244
v 63.9181911945343 42.96210200885759 60.44461623247463
v 28.642389178276062 59.11001040375686 -68.66796383671148
v 47.30812907218933 58.630136025040436 -52.608797565521165
v 48.627451062202454 57.28949022106672 -54.15735582068932
v 29.424941539764404 57.78316299981108 -70.67832696091845
v -53.049999475479126 60.395026555199635 2.1374071341114353
v -52.242887020111084 61.27937012421802 -26.005427092212994
v -53.78633737564087 60.01489918090672 -26.78895378363497
v -54.61665987968445 59.10512840227891 2.1631807651924264
v 37.63594925403595 60.24438159014397 74.16680665795367
v 4.622553661465645 59.46990285127927 75.23167356536705
v 4.714372009038925 58.15340348784859 77.35941058672157
v 38.67712914943695 58.950156477476426 76.26391880919367
v 63.21067810058594 39.70732533323771 27.03562924061892
v 64.57633972167969 39.40108081252673 -2.4053956313227642
v 68.55289936065674 41.7572672876337 -2.6142424948485803
v 67.10206866264343 42.08260943567439 28.66291314204244
v -43.785375356674194 60.91874033844107 -49.351097137486356
v -30.86768090724945 60.92858426323925 -66.30731621620087
v -31.796449422836304 59.65403398567907 -68.24979561899345
v -45.085614919662476 59.64390403802783 -50.80596584248604
v 58.38938355445862 57.907030075922734 55.42719612834041
v 63.9181911945343 42.96210200885759 60.44461623247463
v 67.10206866264343 42.08260943567439 28.66291314204244
v 65.3752088546753 56.88612906488968 27.338379294276457
v 58.38938355445862 57.907030075922734 55.42719612834041
v 38.67712914943695 58.950156477476426 76.26391880919367
v 42.40716099739075 44.962682121316725 84.10492402917427
v 63.9181911945343 42.96210200885759 60.44461623247463
v -54.61665987968445 59.10512840227891 2.1631807651924264
v -70.5778181552887 46.48667904575945 2.0024324468007886
v -70.61473727226257 46.19467825238828 34.789036138864866
v -56.806087493896484 59.42760018807463 30.993752930358735
v -54.61665987968445 59.10512840227891 2.1631807651924264
v -53.78633737564087 60.01489918090672 -26.78895378363497
v -62.697070837020874 46.974570732626994 -29.382004046333435
v -70.5778181552887 46.48667904575945 2.0024324468007886
v -55.17822504043579 60.70848002694272 30.16207719219692
v -53.049999475479126 60.395026555199635 2.1374071341114353
v -54.61665987968445 59.10512840227891 2.1631807651924264
v -56.806087493896484 59.42760018807463 30.993752930358735
v 64.57633972167969 39.40108081252673 -2.4053956313227642
v 60.62478423118591 39.94255743583089 -31.575358460975853
v 64.35490250587463 42.332512626045926 -33.6034307306896
v 68.55289936065674 41.7572672876337 -2.6142424948485803
v -48.4454482793808 60.82591734092932 56.20450578577369
v -55.17822504043579 60.70848002694272 30.16207719219692
v -56.806087493896484 59.42760018807463 30.993752930358735
v -49.87969696521759 59.54841124696626 57.78507812220179
v 31.1315655708313 43.15606920512432 -75.0852595544403
v -4.0288180112838745 44.18549949096797 -84.50132732240627
v -4.3309129774570465 46.840071944126386 -89.83020353499674
v 33.02229642868042 45.74643861083692 -79.82689291485018
v 4.714372009038925 58.15340348784859 77.35941058672157
v 4.261476173996925 46.3104569840426 87.76025613648302
v 42.40716099739075 44.962682121316725 84.10492402917427
v 38.67712914943695 58.950156477476426 76.26391880919367
v 4.714372009038925 58.15340348784859 77.35941058672157
v -28.87997329235077 59.1519479786283 76.11823310355764
v -31.993860006332397 46.60228019179172 80.8055146109725
v 4.261476173996925 46.3104569840426 87.76025613648302
v -49.87969696521759 59.54841124696626 57.78507812220179
v -54.278045892715454 46.46205117004724 61.56642276064924
v -31.993860006332397 46.60228019179172 80.8055146109725
v -28.87997329235077 59.1519479786283 76.11823310355764
v -49.87969696521759 59.54841124696626 57.78507812220179
v -56.806087493896484 59.42760018807463 30.993752930358735
v -70.61473727226257 46.19467825238828 34.789036138864866
v -54.278045892715454 46.46205117004724 61.56642276064924
v -2.611580677330494 58.17407980543356 -72.25662225547241
v -4.3309129774570465 46.840071944126386 -89.83020353499674
v -39.404135942459106 47.83344494703857 -77.59673182641507
v -31.796449422836304 59.65403398567907 -68.24979561899345
v -2.611580677330494 58.17407980543356 -72.25662225547241
v 29.424941539764404 57.78316299981108 -70.67832696091845
v 33.02229642868042 45.74643861083692 -79.82689291485018
v -4.3309129774570465 46.840071944126386 -89.83020353499674
v 48.627451062202454 57.28949022106672 -54.15735582068932
v 50.94647407531738 44.616376762656884 -58.50521456911807
v 33.02229642868042 45.74643861083692 -79.82689291485018
v 29.424941539764404 57.78316299981108 -70.67832696091845
v 48.627451062202454 57.28949022106672 -54.15735582068932
v 56.37822151184082 56.682212306652005 -29.5510294993308
v 64.35490250587463 42.332512626045926 -33.6034307306896
v 50.94647407531738 44.616376762656884 -58.50521456911807
v -27.891576290130615 96.26788115240892 -60.015521236321945
v -38.62819969654083 95.90087418407239 -43.618563540648964
v -36.900171637535095 101.03631530452697 -41.81376851607427
v -26.601821184158325 101.38833777421424 -57.54139883103293
v 27.151069045066833 91.93385476992792 -58.83330412435086
v 0.005940860864939168 94.80006199346352 -66.99542755617452
v 0.15690959990024567 99.98043921108125 -64.23638303769248
v 26.19396448135376 97.23122989049367 -56.40743766829569
v 57.0131778717041 98.18825097600127 -1.724422514938566
v 46.98805212974548 94.67522688149944 -25.155938195053015
v 45.22119462490082 99.86070001799305 -24.10479473798246
v 54.8370897769928 103.23032114179892 -1.6297620335315024
v -42.581698298454285 96.32163864645258 -23.031970160083898
v -44.32938098907471 96.19811211188753 2.0829016078335627
v -42.368629574775696 101.32141146226455 2.0221457587226013
v -40.69228768348694 101.4399015713721 -22.067527608353696
v -38.62819969654083 95.90087418407239 -43.618563540648964
v -42.581698298454285 96.32163864645258 -23.031970160083898
v -40.69228768348694 101.4399015713721 -22.067527608353696
v -36.900171637535095 101.03631530452697 -41.81376851607427
v 34.96226966381073 95.12777137417969 61.44213318717593
v 50.728994607925415 96.9998435136615 46.314816764889585
v 48.8094300031662 102.09042558035797 44.44849914017934
v 33.686307072639465 100.294766494874 58.95831143014335
v 0.005940860864939168 94.80006199346352 -66.99542755617452
v -27.891576290130615 96.26788115240892 -60.015521236321945
v -26.601821184158325 101.38833777421424 -57.54139883103293
v 0.15690959990024567 99.98043921108125 -64.23638303769248
v -44.32938098907471 96.19811211188753 2.0829016078335627
v -44.31471228599548 96.11381730168836 26.873534160065038
v -42.354559898376465 101.24056759612839 25.800816611859712
v -42.368629574775696 101.32141146226455 2.0221457587226013
v 46.98805212974548 94.67522688149944 -25.155938195053015
v 41.586896777153015 93.02506898327412 -45.457956449424955
v 40.04051685333252 98.27789550338208 -43.57807747295121
v 45.22119462490082 99.86070001799305 -24.10479473798246
v -44.31471228599548 96.11381730168836 26.873534160065038
v -39.56078290939331 95.83888256882196 49.044378878968594
v -37.79468536376953 100.9768562704264 47.06663930382638
v -42.354559898376465 101.24056759612839 25.800816611859712
v 50.728994607925415 96.9998435136615 46.314816764889585
v 58.45170617103577 99.04990593837806 24.405098215425898
v 56.21689558029175 104.05679130859093 23.433142338741852
v 48.8094300031662 102.09042558035797 44.44849914017934
v -21.24411314725876 93.76554310995965 62.235983831016625
v 7.1486033499240875 94.42610650893398 67.66019117235668
v 7.008005678653717 99.62174758055477 64.92254899134555
v -20.225709676742554 98.98814935894963 59.71975501955946
v 41.586896777153015 93.02506898327412 -45.457956449424955
v 27.151069045066833 91.93385476992792 -58.83330412435086
v 26.19396448135376 97.23122989049367 -56.40743766829569
v 40.04051685333252 98.27789550338208 -43.57807747295121
v -39.56078290939331 95.83888256882196 49.044378878968594
v -21.24411314725876 93.76554310995965 62.235983831016625
v -20.225709676742554 98.98814935894963 59.71975501955946
v -37.79468536376953 100.9768562704264 47.06663930382638
v -52.242887020111084 61.27937012421802 -26.005427092212994
v -43.785375356674194 60.91874033844107 -49.351097137486356
v -45.085614919662476 59.64390403802783 -50.80596584248604
v -53.78633737564087 60.01489918090672 -26.78895378363497
v -4.0288180112838745 44.18549949096797 -84.50132732240627
v -37.04306185245514 45.12055519242711 -72.98602600875772
v -39.404135942459106 47.83344494703857 -77.59673182641507
v -4.3309129774570465 46.840071944126386 -89.83020353499674
v 58.45170617103577 99.04990593837806 24.405098215425898
v 57.0131778717041 98.18825097600127 -1.724422514938566
v 54.8370897769928 103.23032114179892 -1.6297620335315024
v 56.21689558029175 104.05679130859093 23.433142338741852
v 7.1486033499240875 94.42610650893398 67.66019117235668
v 34.96226966381073 95.12777137417969 61.44213318717593
v 33.686307072639465 100.294766494874 58.95831143014335
v 7.008005678653717 99.62174758055477 64.92254899134555
v -28.032729029655457 60.440534492563344 74.02519195047445
v -48.4454482793808 60.82591734092932 56.20450578577369
v -49.87969696521759 59.54841124696626 57.78507812220179
v -28.87997329235077 59.1519479786283 76.11823310355764
v -66.42143130302429 43.57799229978728 32.802118711821656
v -51.04379653930664 43.82967105836979 58.00753117787584
v -54.278045892715454 46.46205117004724 61.56642276064924
v -70.61473727226257 46.19467825238828 34.789036138864866
v 54.8370897769928 103.23032114179892 -1.6297620335315024
v 45.22119462490082 99.86070001799305 -24.10479473798246
v 29.28498685359955 113.58399043542995 -21.33747699650669
v 34.6272349357605 117.97797664367762 -0.953450089737229
v 54.8370897769928 103.23032114179892 -1.6297620335315024
v 34.6272349357605 117.97797664367762 -0.953450089737229
v 33.37847292423248 115.99206066546121 20.51306414320963
v 56.21689558029175 104.05679130859093 23.433142338741852
v 48.8094300031662 102.09042558035797 44.44849914017934
v 56.21689558029175 104.05679130859093 23.433142338741852
v 33.37847292423248 115.99206066546121 20.51306414320963
v 29.640358686447144 112.27489090839889 35.175299233963216
v 48.8094300031662 102.09042558035797 44.44849914017934
v 29.640358686447144 112.27489090839889 35.175299233963216
v 23.70239794254303 106.92725912786865 44.88116548835146
v 33.686307072639465 100.294766494874 58.95831143014335
v 5.183805525302887 116.71069228541747 34.383355438006724
v 4.2662229388952255 119.18998100435044 20.61416204043806
v -25.601208209991455 115.7220163264227 23.36464129034348
v -18.421125411987305 110.28761258850658 36.04421308903538
v 5.183805525302887 116.71069228541747 34.383355438006724
v -18.421125411987305 110.28761258850658 36.04421308903538
v -11.720214039087296 106.7263202673077 46.83245767826177
v 6.135402247309685 111.04534458894727 48.27881136379411
v 5.183805525302887 116.71069228541747 34.383355438006724
v 6.135402247309685 111.04534458894727 48.27881136379411
v 23.70239794254303 106.92725912786865 44.88116548835146
v 29.640358686447144 112.27489090839889 35.175299233963216
v 5.183805525302887 116.71069228541747 34.383355438006724
v 29.640358686447144 112.27489090839889 35.175299233963216
v 33.37847292423248 115.99206066546121 20.51306414320963
v 4.2662229388952255 119.18998100435044 20.61416204043806
v 3.500489890575409 122.21627249130361 0.8419703879649073
v 3.0724454671144485 118.35888319178608 -18.721564025694235
v -24.871858954429626 114.48814569916735 -18.353138145017645
v -26.249966025352478 115.66963231879701 2.2144894724360693
v 3.500489890575409 122.21627249130361 0.8419703879649073
v -26.249966025352478 115.66963231879701 2.2144894724360693
v -25.601208209991455 115.7220163264227 23.36464129034348
v 4.2662229388952255 119.18998100435044 20.61416204043806
v 3.500489890575409 122.21627249130361 0.8419703879649073
v 4.2662229388952255 119.18998100435044 20.61416204043806
v 33.37847292423248 115.99206066546121 20.51306414320963
v 34.6272349357605 117.97797664367762 -0.953450089737229
v 3.500489890575409 122.21627249130361 0.8419703879649073
v 34.6272349357605 117.97797664367762 -0.953450089737229
v 29.28498685359955 113.58399043542995 -21.33747699650669
v 3.0724454671144485 118.35888319178608 -18.721564025694235
v 7.008005678653717 99.62174758055477 64.92254899134555
v 33.686307072639465 100.294766494874 58.95831143014335
v 23.70239794254303 106.92725912786865 44.88116548835146
v 6.135402247309685 111.04534458894727 48.27881136379411
v 7.008005678653717 99.62174758055477 64.92254899134555
v 6.135402247309685 111.04534458894727 48.27881136379411
v -11.720214039087296 106.7263202673077 46.83245767826177
v -20.225709676742554 98.98814935894963 59.71975501955946
v 0.15690959990024567 99.98043921108125 -64.23638303769248
v -26.601821184158325 101.38833777421424 -57.54139883103293
v -16.605886816978455 108.4256816232846 -43.70414891039984
v 1.1535966768860817 112.7816839193999 -46.84372593596259
v 0.15690959990024567 99.98043921108125 -64.23638303769248
v 1.1535966768860817 112.7816839193999 -46.84372593596259
v 19.822880625724792 108.90163591818535 -48.09008524816613
v 26.19396448135376 97.23122989049367 -56.40743766829569
v -37.79468536376953 100.9768562704264 47.06663930382638
v -20.225709676742554 98.98814935894963 59.71975501955946
v -11.720214039087296 106.7263202673077 46.83245767826177
v -18.421125411987305 110.28761258850658 36.04421308903538
v -37.79468536376953 100.9768562704264 47.06663930382638
v -18.421125411987305 110.28761258850658 36.04421308903538
v -25.601208209991455 115.7220163264227 23.36464129034348
v -42.354559898376465 101.24056759612839 25.800816611859712
v -36.900171637535095 101.03631530452697 -41.81376851607427
v -40.69228768348694 101.4399015713721 -22.067527608353696
v -24.871858954429626 114.48814569916735 -18.353138145017645
v -24.7930645942688 115.05152617585043 -34.46977820853749
v -36.900171637535095 101.03631530452697 -41.81376851607427
v -24.7930645942688 115.05152617585043 -34.46977820853749
v -16.605886816978455 108.4256816232846 -43.70414891039984
v -26.601821184158325 101.38833777421424 -57.54139883103293
v -42.368629574775696 101.32141146226455 2.0221457587226013
v -42.354559898376465 101.24056759612839 25.800816611859712
v -25.601208209991455 115.7220163264227 23.36464129034348
v -26.249966025352478 115.66963231879701 2.2144894724360693
v -42.368629574775696 101.32141146226455 2.0221457587226013
v -26.249966025352478 115.66963231879701 2.2144894724360693
v -24.871858954429626 114.48814569916735 -18.353138145017645
v -40.69228768348694 101.4399015713721 -22.067527608353696
v 2.1456610411405563 118.95707296580439 -33.70399326991878
v 1.1535966768860817 112.7816839193999 -46.84372593596259
v -16.605886816978455 108.4256816232846 -43.70414891039984
v -24.7930645942688 115.05152617585043 -34.46977820853749
v 2.1456610411405563 118.95707296580439 -33.70399326991878
v -24.7930645942688 115.05152617585043 -34.46977820853749
v -24.871858954429626 114.48814569916735 -18.353138145017645
v 3.0724454671144485 118.35888319178608 -18.721564025694235
v 2.1456610411405563 118.95707296580439 -33.70399326991878
v 3.0724454671144485 118.35888319178608 -18.721564025694235
v 29.28498685359955 113.58399043542995 -21.33747699650669
v 27.25360095500946 113.4329495777063 -37.83546150044101
v 2.1456610411405563 118.95707296580439 -33.70399326991878
v 27.25360095500946 113.4329495777063 -37.83546150044101
v 19.822880625724792 108.90163591818535 -48.09008524816613
v 1.1535966768860817 112.7816839193999 -46.84372593596259
v 40.04051685333252 98.27789550338208 -43.57807747295121
v 26.19396448135376 97.23122989049367 -56.40743766829569
v 19.822880625724792 108.90163591818535 -48.09008524816613
v 27.25360095500946 113.4329495777063 -37.83546150044101
v 40.04051685333252 98.27789550338208 -43.57807747295121
v 27.25360095500946 113.4329495777063 -37.83546150044101
v 29.28498685359955 113.58399043542995 -21.33747699650669
v 45.22119462490082 99.86070001799305 -24.10479473798246
v -45.085614919662476 59.64390403802783 -50.80596584248604
v -31.796449422836304 59.65403398567907 -68.24979561899345
v -39.404135942459106 47.83344494703857 -77.59673182641507
v -56.56619071960449 47.564640129859065 -58.016278148358595
v -45.085614919662476 59.64390403802783 -50.80596584248604
v -56.56619071960449 47.564640129859065 -58.016278148358595
v -62.697070837020874 46.974570732626994 -29.382004046333435
v -53.78633737564087 60.01489918090672 -26.78895378363497
v 63.52144479751587 56.59394231555746 -2.0049999470328785
v 65.3752088546753 56.88612906488968 27.338379294276457
v 67.10206866264343 42.08260943567439 28.66291314204244
v 68.55289936065674 41.7572672876337 -2.6142424948485803
v 63.52144479751587 56.59394231555746 -2.0049999470328785
v 68.55289936065674 41.7572672876337 -2.6142424948485803
v 64.35490250587463 42.332512626045926 -33.6034307306896
v 56.37822151184082 56.682212306652005 -29.5510294993308
v 39.9654895067215 42.41832295324647 79.22290468547838
v 60.21370887756348 40.535185078914886 56.95158178823936
v 63.9181911945343 42.96210200885759 60.44461623247463
v 42.40716099739075 44.962682121316725 84.10492402917427
v 47.30812907218933 58.630136025040436 -52.608797565521165
v 54.84223961830139 58.03983340139721 -28.690293946475105
v 56.37822151184082 56.682212306652005 -29.5510294993308
v 48.627451062202454 57.28949022106672 -54.15735582068932
v -53.19761633872986 44.86753349791176 -54.5550419473016
v -58.96857976913452 44.31210306612367 -27.601752944036654
v -62.697070837020874 46.974570732626994 -29.382004046333435
v -56.56619071960449 47.564640129859065 -58.016278148358595
v 56.79718852043152 59.23041387570765 53.912534600630515
v 37.63594925403595 60.24438159014397 74.16680665795367
v 38.67712914943695 58.950156477476426 76.26391880919367
v 58.38938355445862 57.907030075922734 55.42719612834041
v -66.38668179512024 43.85285409113351 1.9402566632369156
v -66.42143130302429 43.57799229978728 32.802118711821656
v -70.61473727226257 46.19467825238828 34.789036138864866
v -70.5778181552887 46.48667904575945 2.0024324468007886
v -37.04306185245514 45.12055519242711 -72.98602600875772
v -53.19761633872986 44.86753349791176 -54.5550419473016
v -56.56619071960449 47.564640129859065 -58.016278148358595
v -39.404135942459106 47.83344494703857 -77.59673182641507
v 54.84223961830139 58.03983340139721 -28.690293946475105
v 61.78578734397888 57.95403091714818 -1.9142599200585282
v 63.52144479751587 56.59394231555746 -2.0049999470328785
v 56.37822151184082 56.682212306652005 -29.5510294993308
v -30.86768090724945 60.92858426323925 -66.30731621620087
v -2.498616650700569 59.490001685179955 -70.2021397714227
v -2.611580677330494 58.17407980543356 -72.25662225547241
v -31.796449422836304 59.65403398567907 -68.24979561899345
v -58.96857976913452 44.31210306612367 -27.601752944036654
v -66.38668179512024 43.85285409113351 1.9402566632369156
v -70.5778181552887 46.48667904575945 2.0024324468007886
v -62.697070837020874 46.974570732626994 -29.382004046333435
v 4.05915342271328 43.68697559530529 82.66365412402187
v 39.9654895067215 42.41832295324647 79.22290468547838
v 42.40716099739075 44.962682121316725 84.10492402917427
v 4.261476173996925 46.3104569840426 87.76025613648302
v 48.00349771976471 42.09234712265091 -55.01528472026403
v 31.1315655708313 43.15606920512432 -75.0852595544403
v 33.02229642868042 45.74643861083692 -79.82689291485018
v 50.94647407531738 44.616376762656884 -58.50521456911807
v -30.06780743598938 43.96166849466223 76.11718653662024
v 4.05915342271328 43.68697559530529 82.66365412402187
v 4.261476173996925 46.3104569840426 87.76025613648302
v -31.993860006332397 46.60228019179172 80.8055146109725
v 61.78578734397888 57.95403091714818 -1.9142599200585282
v 63.58773708343506 58.23805169651235 26.608880806846518
v 65.3752088546753 56.88612906488968 27.338379294276457
v 63.52144479751587 56.59394231555746 -2.0049999470328785
v -2.498616650700569 59.490001685179955 -70.2021397714227
v 28.642389178276062 59.11001040375686 -68.66796383671148
v 29.424941539764404 57.78316299981108 -70.67832696091845
v -2.611580677330494 58.17407980543356 -72.25662225547241
v 60.62478423118591 39.94255743583089 -31.575358460975853
v 48.00349771976471 42.09234712265091 -55.01528472026403
v 50.94647407531738 44.616376762656884 -58.50521456911807
v 64.35490250587463 42.332512626045926 -33.6034307306896
v -51.04379653930664 43.82967105836979 58.00753117787584
v -30.06780743598938 43.96166849466223 76.11718653662024
v -31.993860006332397 46.60228019179172 80.8055146109725
v -54.278045892715454 46.46205117004724 61.56642276064924
f 1 2 3
f 1 3 4
f 5 6 7
f 5 7 8
f 9 10 11
f 9 11 12
f 13 14 15
f 13 15 16
f 17 18 19
f 17 19 20
f 21 22 23
f 21 23 24
f 25 26 27
f 25 27 28
f 29 30 31
f 29 31 32
f 33 34 35
f 33 35 36
f 37 38 39
f 37 39 40
f 41 42 43
f 41 43 44
f 45 46 47
f 45 47 48
f 49 50 51
f 49 51 52
f 53 54 55
f 53 55 56
f 57 58 59
f 57 59 60
f 61 62 63
f 61 63 64
f 65 66 67
f 65 67 68
f 69 70 71
f 69 71 72
f 73 74 75
f 73 75 76
f 77 78 79
f 77 79 80
f 81 82 83
f 81 83 84
f 85 86 87
f 85 87 88
f 89 90 91
f 89 91 92
f 93 94 95
f 93 95 96
f 97 98 99
f 97 99 100
f 101 102 103
f 101 103 104
f 105 106 107
f 105 107 108
f 109 110 111
f 109 111 112
f 113 114 115
f 113 115 116
f 117 118 119
f 117 119 120
f 121 122 123
f 121 123 124
f 125 126 127
f 125 127 128
f 129 130 131
f 129 131 132
f 133 134 135
f 133 135 136
f 137 138 139
f 137 139 140
f 141 142 143
f 141 143 144
f 145 146 147
f 145 147 148
f 149 150 151
f 149 151 152
f 153 154 155
f 153 155 156
f 157 158 159
f 157 159 160
f 161 162 163
f 161 163 164
f 165 166 167
f 165 167 168
f 169 170 171
f 169 171 172
f 173 174 175
f 173 175 176
f 177 178 179
f 177 179 180
f 181 182 183
f 181 183 184
f 185 186 187
f 185 187 188
f 189 190 191
f 189 191 192
f 193 194 195
f 193 195 196
f 197 198 199
f 197 199 200
f 201 202 203
f 201 203 204
f 205 206 207
f 205 207 208
f 209 210 211
f 209 211 212
f 213 214 215
f 213 215 216
f 217 218 219
f 217 219 220
f 221 222 223
f 221 223 224
f 225 226 227
f 225 227 228
f 229 230 231
f 229 231 232
f 233 234 235
f 233 235 236
f 237 238 239
f 237 239 240
f 241 242 243
f 241 243 244
f 245 246 247
f 245 247 248
f 249 250 251
f 249 251 252
f 253 254 255
f 253 255 256
f 257 258 259
f 257 259 260
f 261 262 263
f 261 263 264
f 265 266 267
f 265 267 268
f 269 270 271
f 269 271 272
f 273 274 275
f 273 275 276
f 277 278 279
f 277 279 280
f 281 282 283
f 281 283 284
f 285 286 287
f 285 287 288
f 289 290 291
f 289 291 292
f 293 294 295
f 293 295 296
f 297 298 299
f 297 299 300
f 301 302 303
f 301 303 304
f 305 306 307
f 305 307 308
f 309 310 311
f 309 311 312
f 313 314 315
f 313 315 316
f 317 318 319
f 317 319 320
f 321 322 323
f 321 323 324
f 325 326 327
f 325 327 328
f 329 330 331
f 329 331 332
f 333 334 335
f 333 335 336
f 337 338 339
f 337 339 340
f 341 342 343
f 341 343 344
f 345 346 347
f 345 347 348
f 349 350 351
f 349 351 352
f 353 354 355
f 353 355 356
f 357 358 359
f 357 359 360
f 361 362 363
f 361 363 364
f 365 366 367
f 365 367 368
v 47.30812907218933 58.630136025040436 -52.608797565521165
v 28.642389178276062 59.11001040375686 -68.66796383671148
v 23.28200340270996 72.67354380985677 -57.81048528210221
v 37.940043210983276 72.75504332909966 -44.99172263535328
v 47.30812907218933 58.630136025040436 -52.608797565521165
v 37.940043210983276 72.75504332909966 -44.99172263535328
v 49.92783069610596 73.0469720418158 -26.30778549095081
v 54.84223961830139 58.03983340139721 -28.690293946475105
v -2.498616650700569 59.490001685179955 -70.2021397714227
v -30.86768090724945 60.92858426323925 -66.30731621620087
v -27.94356942176819 75.11522907485812 -64.7269132922081
v -1.051647588610649 73.31192564198287 -68.82696154043549
v -2.498616650700569 59.490001685179955 -70.2021397714227
v -1.051647588610649 73.31192564198287 -68.82696154043549
v 23.28200340270996 72.67354380985677 -57.81048528210221
v 28.642389178276062 59.11001040375686 -68.66796383671148
v -48.4454482793808 60.82591734092932 56.20450578577369
v -28.032729029655457 60.440534492563344 74.02519195047445
v -24.71761703491211 74.38092155822625 68.50970963779308
v -41.00156128406525 75.36093822476215 50.69207513402668
v -48.4454482793808 60.82591734092932 56.20450578577369
v -41.00156128406525 75.36093822476215 50.69207513402668
v -45.05888521671295 76.52051898536686 27.603277018203613
v -55.17822504043579 60.70848002694272 30.16207719219692
v 4.622553661465645 59.46990285127927 75.23167356536705
v 37.63594925403595 60.24438159014397 74.16680665795367
v 33.23696851730347 74.81205342504884 65.74906084013573
v 5.084697529673576 74.42418336026788 73.11847785546115
v 4.622553661465645 59.46990285127927 75.23167356536705
v 5.084697529673576 74.42418336026788 73.11847785546115
v -24.71761703491211 74.38092155822625 68.50970963779308
v -28.032729029655457 60.440534492563344 74.02519195047445
v 57.0131778717041 98.18825097600127 -1.724422514938566
v 60.4498565196991 82.52955066338107 -0.7820238706525534
v 57.437825202941895 80.13858339661901 -27.95865649266498
v 46.98805212974548 94.67522688149944 -25.155938195053015
v 57.0131778717041 98.18825097600127 -1.724422514938566
v 58.45170617103577 99.04990593837806 24.405098215425898
v 66.42143130302429 83.12840304149857 26.912797855171085
v 60.4498565196991 82.52955066338107 -0.7820238706525534
v 50.728994607925415 96.9998435136615 46.314816764889585
v 57.74291157722473 83.3816971744619 52.66146493483845
v 66.42143130302429 83.12840304149857 26.912797855171085
v 58.45170617103577 99.04990593837806 24.405098215425898
v 50.728994607925415 96.9998435136615 46.314816764889585
v 34.96226966381073 95.12777137417969 61.44213318717593
v 40.73740243911743 82.64845607106253 73.01307762220074
v 57.74291157722473 83.3816971744619 52.66146493483845
v -53.049999475479126 60.395026555199635 2.1374071341114353
v -55.17822504043579 60.70848002694272 30.16207719219692
v -45.05888521671295 76.52051898536686 27.603277018203613
v -45.27272880077362 76.78647072151728 1.8923762881926214
v -53.049999475479126 60.395026555199635 2.1374071341114353
v -45.27272880077362 76.78647072151728 1.8923762881926214
v -44.016867876052856 76.56133374144541 -24.355309264024882
v -52.242887020111084 61.27937012421802 -26.005427092212994
v 56.79718852043152 59.23041387570765 53.912534600630515
v 63.58773708343506 58.23805169651235 26.608880806846518
v 54.59398627281189 74.54136425307485 25.246801748989235
v 48.97760450839996 74.78847105742234 48.74598059514462
v 56.79718852043152 59.23041387570765 53.912534600630515
v 48.97760450839996 74.78847105742234 48.74598059514462
v 33.23696851730347 74.81205342504884 65.74906084013573
v 37.63594925403595 60.24438159014397 74.16680665795367
v 7.1486033499240875 94.42610650893398 67.66019117235668
v 7.615859806537628 81.53860092893844 80.5319951251781
v 40.73740243911743 82.64845607106253 73.01307762220074
v 34.96226966381073 95.12777137417969 61.44213318717593
v 7.1486033499240875 94.42610650893398 67.66019117235668
v -21.24411314725876 93.76554310995965 62.235983831016625
v -26.99246108531952 80.85838573972747 74.25550693186088
v 7.615859806537628 81.53860092893844 80.5319951251781
v 0.005940860864939168 94.80006199346352 -66.99542755617452
v -1.4055020175874233 79.98852759286294 -71.36013618928827
v -30.780282616615295 83.19335624899068 -70.40642067176351
v -27.891576290130615 96.26788115240892 -60.015521236321945
v 0.005940860864939168 94.80006199346352 -66.99542755617452
v 27.151069045066833 91.93385476992792 -58.83330412435086
v 30.33904731273651 76.31065311924235 -69.33508566523595
v -1.4055020175874233 79.98852759286294 -71.36013618928827
v -39.56078290939331 95.83888256882196 49.044378878968594
v -47.698670625686646 81.97637507310635 55.42582726058105
v -26.99246108531952 80.85838573972747 74.25550693186088
v -21.24411314725876 93.76554310995965 62.235983831016625
v -39.56078290939331 95.83888256882196 49.044378878968594
v -44.31471228599548 96.11381730168836 26.873534160065038
v -52.09652781486511 83.77488133793925 29.11474233946133
v -47.698670625686646 81.97637507310635 55.42582726058105
v -38.62819969654083 95.90087418407239 -43.618563540648964
v -43.669793009757996 84.35249675513674 -51.877560053192155
v -52.179932594299316 84.02055650807817 -27.447511533382816
v -42.581698298454285 96.32163864645258 -23.031970160083898
v -38.62819969654083 95.90087418407239 -43.618563540648964
v -27.891576290130615 96.26788115240892 -60.015521236321945
v -30.780282616615295 83.19335624899068 -70.40642067176351
v -43.669793009757996 84.35249675513674 -51.877560053192155
v -4.8665851354599 -4.895387059403162 -60.7675127160069
v 37.235987186431885 0.7890660910018149 -61.37254847030791
v 42.40370690822601 1.1962660703059276 -31.3698710960051
v -3.148423507809639 -5.431244797414544 -24.554105708270587
v -4.8665851354599 -4.895387059403162 -60.7675127160069
v -3.148423507809639 -5.431244797414544 -24.554105708270587
v -52.93409824371338 -1.8473134229331605 -27.92035311166336
v -46.28123641014099 0.14349471417539142 -57.87224771930264
v -4.8665851354599 -4.895387059403162 -60.7675127160069
v -46.28123641014099 0.14349471417539142 -57.87224771930264
v -32.70488679409027 4.969370811123883 -70.43272933859157
v -5.776753276586533 1.383619674212409 -78.24225448262447
v -4.8665851354599 -4.895387059403162 -60.7675127160069
v -5.776753276586533 1.383619674212409 -78.24225448262447
v 21.960434317588806 6.862127902943079 -72.42113463620345
v 37.235987186431885 0.7890660910018149 -61.37254847030791
v 55.2784264087677 33.683359563648935 54.51358007976003
v 34.10228490829468 37.567633172387865 71.83182223524682
v 30.40279448032379 33.08210281372801 67.55071339457544
v 46.13616168498993 32.01388920435619 49.09041002361087
v 55.2784264087677 33.683359563648935 54.51358007976003
v 46.13616168498993 32.01388920435619 49.09041002361087
v 51.90914273262024 31.81564012705397 24.36193901518338
v 61.340153217315674 33.14891883300481 26.13190170480222
v 55.2784264087677 33.683359563648935 54.51358007976003
v 61.340153217315674 33.14891883300481 26.13190170480222
v 63.21067810058594 39.70732533323771 27.03562924061892
v 60.21370887756348 40.535185078914886 56.95158178823936
v 55.2784264087677 33.683359563648935 54.51358007976003
v 60.21370887756348 40.535185078914886 56.95158178823936
v 39.9654895067215 42.41832295324647 79.22290468547838
v 34.10228490829468 37.567633172387865 71.83182223524682
v -64.35614228248596 37.75149314812063 1.7811525575371294
v -60.9353244304657 37.74947080183642 -27.24560220138623
v -55.002206563949585 33.7126749772489 -25.598176845832697
v -62.20969557762146 34.022134792502385 1.5347117077061276
v -64.35614228248596 37.75149314812063 1.7811525575371294
v -62.20969557762146 34.022134792502385 1.5347117077061276
v -60.97717881202698 34.524600671582 30.285436250687216
v -63.41973543167114 37.796112072752024 31.538069050896567
v -64.35614228248596 37.75149314812063 1.7811525575371294
v -63.41973543167114 37.796112072752024 31.538069050896567
v -66.42143130302429 43.57799229978728 32.802118711821656
v -66.38668179512024 43.85285409113351 1.9402566632369156
v -64.35614228248596 37.75149314812063 1.7811525575371294
v -66.38668179512024 43.85285409113351 1.9402566632369156
v -58.96857976913452 44.31210306612367 -27.601752944036654
v -60.9353244304657 37.74947080183642 -27.24560220138623
v 2.360956557095051 39.40438708385678 78.09209777676107
v -29.97441291809082 39.93089207476171 73.68633692590672
v -29.270192980766296 35.79678490276009 70.39667380778168
v 0.9882813319563866 34.51033284039952 76.20496783679897
v 2.360956557095051 39.40438708385678 78.09209777676107
v 0.9882813319563866 34.51033284039952 76.20496783679897
v 30.40279448032379 33.08210281372801 67.55071339457544
v 34.10228490829468 37.567633172387865 71.83182223524682
v 2.360956557095051 39.40438708385678 78.09209777676107
v 34.10228490829468 37.567633172387865 71.83182223524682
v 39.9654895067215 42.41832295324647 79.22290468547838
v 4.05915342271328 43.68697559530529 82.66365412402187
v 2.360956557095051 39.40438708385678 78.09209777676107
v 4.05915342271328 43.68697559530529 82.66365412402187
v -30.06780743598938 43.96166849466223 76.11718653662024
v -29.97441291809082 39.93089207476171 73.68633692590672
v -48.98060858249664 39.94425845625646 55.63872997869074
v -63.41973543167114 37.796112072752024 31.538069050896567
v -60.97717881202698 34.524600671582 30.285436250687216
v -46.52121663093567 35.74450880160447 53.04045094833238
v -48.98060858249664 39.94425845625646 55.63872997869074
v -46.52121663093567 35.74450880160447 53.04045094833238
v -29.270192980766296 35.79678490276009 70.39667380778168
v -29.97441291809082 39.93089207476171 73.68633692590672
v -48.98060858249664 39.94425845625646 55.63872997869074
v -29.97441291809082 39.93089207476171 73.68633692590672
v -30.06780743598938 43.96166849466223 76.11718653662024
v -51.04379653930664 43.82967105836979 58.00753117787584
v -48.98060858249664 39.94425845625646 55.63872997869074
v -51.04379653930664 43.82967105836979 58.00753117787584
v -66.42143130302429 43.57799229978728 32.802118711821656
v -63.41973543167114 37.796112072752024 31.538069050896567
v -4.668381065130234 41.15394033962968 -74.51315596630445
v 27.028176188468933 42.22273297782838 -69.0435895567993
v 26.679491996765137 38.73309538689518 -70.36972676940842
v -4.891663044691086 36.69704813317656 -72.0386803332631
v -4.668381065130234 41.15394033962968 -74.51315596630445
v -4.891663044691086 36.69704813317656 -72.0386803332631
v -36.92069053649902 33.19759432798456 -69.2478710854563
v -38.538023829460144 37.694388571774034 -73.51529616309367
v -4.668381065130234 41.15394033962968 -74.51315596630445
v -38.538023829460144 37.694388571774034 -73.51529616309367
v -37.04306185245514 45.12055519242711 -72.98602600875772
v -4.0288180112838745 44.18549949096797 -84.50132732240627
v -4.668381065130234 41.15394033962968 -74.51315596630445
v -4.0288180112838745 44.18549949096797 -84.50132732240627
v 31.1315655708313 43.15606920512432 -75.0852595544403
v 27.028176188468933 42.22273297782838 -69.0435895567993
v 43.34824085235596 40.59959085281752 -52.95713609296887
v 53.013163805007935 36.598915862475465 -30.44223189579595
v 47.00154662132263 35.01359342139713 -29.353320342576982
v 44.3860799074173 36.97817031498734 -54.63639504161514
v 43.34824085235596 40.59959085281752 -52.95713609296887
v 44.3860799074173 36.97817031498734 -54.63639504161514
v 26.679491996765137 38.73309538689518 -70.36972676940842
v 27.028176188468933 42.22273297782838 -69.0435895567993
v 43.34824085235596 40.59959085281752 -52.95713609296887
v 27.028176188468933 42.22273297782838 -69.0435895567993
v 31.1315655708313 43.15606920512432 -75.0852595544403
v 48.00349771976471 42.09234712265091 -55.01528472026403
v 43.34824085235596 40.59959085281752 -52.95713609296887
v 48.00349771976471 42.09234712265091 -55.01528472026403
v 60.62478423118591 39.94255743583089 -31.575358460975853
v 53.013163805007935 36.598915862475465 -30.44223189579595
v 62.42993474006653 17.053782263268204 -4.15320599758922
v 55.272430181503296 18.521619553870796 -32.22226206220289
v 47.00154662132263 35.01359342139713 -29.353320342576982
v 52.65490412712097 32.670938480985406 -2.993321153598291
v 62.42993474006653 17.053782263268204 -4.15320599758922
v 52.65490412712097 32.670938480985406 -2.993321153598291
v 51.90914273262024 31.81564012705397 24.36193901518338
v 63.51443529129028 16.378910587681354 25.892794444002373
v 62.42993474006653 17.053782263268204 -4.15320599758922
v 63.51443529129028 16.378910587681354 25.892794444002373
v 58.52392911911011 2.2801204732705354 26.958104596592925
v 48.850664496421814 -0.30127696214857064 4.1451652093827045
v 62.42993474006653 17.053782263268204 -4.15320599758922
v 48.850664496421814 -0.30127696214857064 4.1451652093827045
v 42.40370690822601 1.1962660703059276 -31.3698710960051
v 55.272430181503296 18.521619553870796 -32.22226206220289
v -56.33397698402405 18.65553340854719 59.84966450976273
v -33.07094871997833 18.791738838536595 77.38097599956593
v -29.270192980766296 35.79678490276009 70.39667380778168
v -46.52121663093567 35.74450880160447 53.04045094833238
v -56.33397698402405 18.65553340854719 59.84966450976273
v -46.52121663093567 35.74450880160447 53.04045094833238
v -60.97717881202698 34.524600671582 30.285436250687216
v -66.3225531578064 18.16700914605692 31.652438661046112
v -56.33397698402405 18.65553340854719 59.84966450976273
v -66.3225531578064 18.16700914605692 31.652438661046112
v -60.39351224899292 3.546731931690562 32.089521903129544
v -44.49417293071747 -0.0650496708337484 54.00750042067933
v -56.33397698402405 18.65553340854719 59.84966450976273
v -44.49417293071747 -0.0650496708337484 54.00750042067933
v -29.19290065765381 3.326237525218049 75.1559371297505
v -33.07094871997833 18.791738838536595 77.38097599956593
v -56.03618025779724 16.836580899672786 -53.247639299653954
v -61.06954216957092 17.333827966194896 -27.111115895481376
v -55.002206563949585 33.7126749772489 -25.598176845832697
v -48.85682463645935 32.99513854542568 -48.904537569729214
v -56.03618025779724 16.836580899672786 -53.247639299653954
v -48.85682463645935 32.99513854542568 -48.904537569729214
v -36.92069053649902 33.19759432798456 -69.2478710854563
v -41.64222180843353 17.521184324715126 -75.36833571741924
v -56.03618025779724 16.836580899672786 -53.247639299653954
v -41.64222180843353 17.521184324715126 -75.36833571741924
v -32.70488679409027 4.969370811123883 -70.43272933859157
v -46.28123641014099 0.14349471417539142 -57.87224771930264
v -56.03618025779724 16.836580899672786 -53.247639299653954
v -46.28123641014099 0.14349471417539142 -57.87224771930264
v -52.93409824371338 -1.8473134229331605 -27.92035311166336
v -61.06954216957092 17.333827966194896 -27.111115895481376
v -5.667053163051605 19.649048570065247 -79.73552666353396
v -41.64222180843353 17.521184324715126 -75.36833571741924
v -36.92069053649902 33.19759432798456 -69.2478710854563
v -4.891663044691086 36.69704813317656 -72.0386803332631
v -5.667053163051605 19.649048570065247 -79.73552666353396
v -4.891663044691086 36.69704813317656 -72.0386803332631
v 26.679491996765137 38.73309538689518 -70.36972676940842
v 27.83733308315277 21.36704928319519 -72.76521673224998
v -5.667053163051605 19.649048570065247 -79.73552666353396
v 27.83733308315277 21.36704928319519 -72.76521673224998
v 21.960434317588806 6.862127902943079 -72.42113463620345
v -5.776753276586533 1.383619674212409 -78.24225448262447
v -5.667053163051605 19.649048570065247 -79.73552666353396
v -5.776753276586533 1.383619674212409 -78.24225448262447
v -32.70488679409027 4.969370811123883 -70.43272933859157
v -41.64222180843353 17.521184324715126 -75.36833571741924
v 1.355551090091467 18.03016847205804 84.5013052652585
v 33.212342858314514 17.103084711558008 71.87945564098494
v 30.40279448032379 33.08210281372801 67.55071339457544
v 0.9882813319563866 34.51033284039952 76.20496783679897
v 1.355551090091467 18.03016847205804 84.5013052652585
v 0.9882813319563866 34.51033284039952 76.20496783679897
v -29.270192980766296 35.79678490276009 70.39667380778168
v -33.07094871997833 18.791738838536595 77.38097599956593
v 1.355551090091467 18.03016847205804 84.5013052652585
v -33.07094871997833 18.791738838536595 77.38097599956593
v -29.19290065765381 3.326237525218049 75.1559371297505
v 1.1196122504770756 0.5708992092822148 72.93173661467803
v 1.355551090091467 18.03016847205804 84.5013052652585
v 1.1196122504770756 0.5708992092822148 72.93173661467803
v 29.4099360704422 4.101031463599665 69.76319484653798
v 33.212342858314514 17.103084711558008 71.87945564098494
v 55.54209351539612 16.410019964049013 54.695102879143214
v 63.51443529129028 16.378910587681354 25.892794444002373
v 51.90914273262024 31.81564012705397 24.36193901518338
v 46.13616168498993 32.01388920435619 49.09041002361087
v 55.54209351539612 16.410019964049013 54.695102879143214
v 46.13616168498993 32.01388920435619 49.09041002361087
v 30.40279448032379 33.08210281372801 67.55071339457544
v 33.212342858314514 17.103084711558008 71.87945564098494
v 55.54209351539612 16.410019964049013 54.695102879143214
v 33.212342858314514 17.103084711558008 71.87945564098494
v 29.4099360704422 4.101031463599665 69.76319484653798
v 43.58572959899902 -0.23354669187099014 50.01339916219642
v 55.54209351539612 16.410019964049013 54.695102879143214
v 43.58572959899902 -0.23354669187099014 50.01339916219642
v 58.52392911911011 2.2801204732705354 26.958104596592925
v 63.51443529129028 16.378910587681354 25.892794444002373
v -39.50095772743225 81.10789450633548 -49.22961423973584
v -37.33782768249512 76.50753706042718 -45.77130431665841
v -44.016867876052856 76.56133374144541 -24.355309264024882
v -44.709861278533936 81.30837260283518 -25.695080890935145
v -39.50095772743225 81.10789450633548 -49.22961423973584
v -44.709861278533936 81.30837260283518 -25.695080890935145
v -52.179932594299316 84.02055650807817 -27.447511533382816
v -43.669793009757996 84.35249675513674 -51.877560053192155
v -39.50095772743225 81.10789450633548 -49.22961423973584
v -43.669793009757996 84.35249675513674 -51.877560053192155
v -30.780282616615295 83.19335624899068 -70.40642067176351
v -26.55124068260193 80.2983775023753 -64.46038600707251
v -39.50095772743225 81.10789450633548 -49.22961423973584
v -26.55124068260193 80.2983775023753 -64.46038600707251
v -27.94356942176819 75.11522907485812 -64.7269132922081
v -37.33782768249512 76.50753706042718 -45.77130431665841
v -44.83202397823334 77.5738862557492 53.29424071091546
v -41.00156128406525 75.36093822476215 50.69207513402668
v -24.71761703491211 74.38092155822625 68.50970963779308
v -25.58261752128601 76.40589439940283 70.9794039222936
v -44.83202397823334 77.5738862557492 53.29424071091546
v -25.58261752128601 76.40589439940283 70.9794039222936
v -26.99246108531952 80.85838573972747 74.25550693186088
v -47.698670625686646 81.97637507310635 55.42582726058105
v -44.83202397823334 77.5738862557492 53.29424071091546
v -47.698670625686646 81.97637507310635 55.42582726058105
v -52.09652781486511 83.77488133793925 29.11474233946133
v -48.59997034072876 80.83301053073295 28.39160436717666
v -44.83202397823334 77.5738862557492 53.29424071091546
v -48.59997034072876 80.83301053073295 28.39160436717666
v -45.05888521671295 76.52051898536686 27.603277018203613
v -41.00156128406525 75.36093822476215 50.69207513402668
v -1.46736241877079 75.0958624036775 -71.61427171610079
v -1.051647588610649 73.31192564198287 -68.82696154043549
v -27.94356942176819 75.11522907485812 -64.7269132922081
v -26.55124068260193 80.2983775023753 -64.46038600707251
v -1.46736241877079 75.0958624036775 -71.61427171610079
v -26.55124068260193 80.2983775023753 -64.46038600707251
v -30.780282616615295 83.19335624899068 -70.40642067176351
v -1.4055020175874233 79.98852759286294 -71.36013618928827
v -1.46736241877079 75.0958624036775 -71.61427171610079
v -1.4055020175874233 79.98852759286294 -71.36013618928827
v 30.33904731273651 76.31065311924235 -69.33508566523595
v 27.17970311641693 71.92888389662785 -65.20461419863896
v -1.46736241877079 75.0958624036775 -71.61427171610079
v 27.17970311641693 71.92888389662785 -65.20461419863896
v 23.28200340270996 72.67354380985677 -57.81048528210221
v -1.051647588610649 73.31192564198287 -68.82696154043549
v 6.489387899637222 76.80280273816979 77.17387617055644
v 5.084697529673576 74.42418336026788 73.11847785546115
v 33.23696851730347 74.81205342504884 65.74906084013573
v 37.32371628284454 77.94957708048956 70.16577046728928
v 6.489387899637222 76.80280273816979 77.17387617055644
v 37.32371628284454 77.94957708048956 70.16577046728928
v 40.73740243911743 82.64845607106253 73.01307762220074
v 7.615859806537628 81.53860092893844 80.5319951251781
v 6.489387899637222 76.80280273816979 77.17387617055644
v 7.615859806537628 81.53860092893844 80.5319951251781
v -26.99246108531952 80.85838573972747 74.25550693186088
v -25.58261752128601 76.40589439940283 70.9794039222936
v 6.489387899637222 76.80280273816979 77.17387617055644
v -25.58261752128601 76.40589439940283 70.9794039222936
v -24.71761703491211 74.38092155822625 68.50970963779308
v 5.084697529673576 74.42418336026788 73.11847785546115
v 51.92028284072876 79.87100703961669 50.20976553464969
v 48.97760450839996 74.78847105742234 48.74598059514462
v 54.59398627281189 74.54136425307485 25.246801748989235
v 59.333693981170654 78.77653072000444 26.202269475207057
v 51.92028284072876 79.87100703961669 50.20976553464969
v 59.333693981170654 78.77653072000444 26.202269475207057
v 66.42143130302429 83.12840304149857 26.912797855171085
v 57.74291157722473 83.3816971744619 52.66146493483845
v 51.92028284072876 79.87100703961669 50.20976553464969
v 57.74291157722473 83.3816971744619 52.66146493483845
v 40.73740243911743 82.64845607106253 73.01307762220074
v 37.32371628284454 77.94957708048956 70.16577046728928
v 51.92028284072876 79.87100703961669 50.20976553464969
v 37.32371628284454 77.94957708048956 70.16577046728928
v 33.23696851730347 74.81205342504884 65.74906084013573
v 48.97760450839996 74.78847105742234 48.74598059514462
v 59.677672386169434 76.90191255858338 -0.8017868295466252
v 50.90986490249634 74.43413726270676 -0.5011983412475484
v 49.92783069610596 73.0469720418158 -26.30778549095081
v 51.034605503082275 76.60534552975614 -26.08247753320021
v 59.677672386169434 76.90191255858338 -0.8017868295466252
v 51.034605503082275 76.60534552975614 -26.08247753320021
v 57.437825202941895 80.13858339661901 -27.95865649266498
v 60.4498565196991 82.52955066338107 -0.7820238706525534
v 59.677672386169434 76.90191255858338 -0.8017868295466252
v 60.4498565196991 82.52955066338107 -0.7820238706525534
v 66.42143130302429 83.12840304149857 26.912797855171085
v 59.333693981170654 78.77653072000444 26.202269475207057
v 59.677672386169434 76.90191255858338 -0.8017868295466252
v 59.333693981170654 78.77653072000444 26.202269475207057
v 54.59398627281189 74.54136425307485 25.246801748989235
v 50.90986490249634 74.43413726270676 -0.5011983412475484
v 43.2026743888855 73.75472003635605 -47.90103743063713
v 37.940043210983276 72.75504332909966 -44.99172263535328
v 23.28200340270996 72.67354380985677 -57.81048528210221
v 27.17970311641693 71.92888389662785 -65.20461419863896
v 43.2026743888855 73.75472003635605 -47.90103743063713
v 27.17970311641693 71.92888389662785 -65.20461419863896
v 30.33904731273651 76.31065311924235 -69.33508566523595
v 44.77299749851227 78.17798055590715 -48.93976829577849
v 43.2026743888855 73.75472003635605 -47.90103743063713
v 44.77299749851227 78.17798055590715 -48.93976829577849
v 57.437825202941895 80.13858339661901 -27.95865649266498
v 51.034605503082275 76.60534552975614 -26.08247753320021
v 43.2026743888855 73.75472003635605 -47.90103743063713
v 51.034605503082275 76.60534552975614 -26.08247753320021
v 49.92783069610596 73.0469720418158 -26.30778549095081
v 37.940043210983276 72.75504332909966 -44.99172263535328
v -49.044063687324524 81.21435666619428 1.4962361127018744
v -45.27272880077362 76.78647072151728 1.8923762881926214
v -45.05888521671295 76.52051898536686 27.603277018203613
v -48.59997034072876 80.83301053073295 28.39160436717666
v -49.044063687324524 81.21435666619428 1.4962361127018744
v -48.59997034072876 80.83301053073295 28.39160436717666
v -52.09652781486511 83.77488133793925 29.11474233946133
v -53.16455960273743 84.2880430088962 1.3820024720324546
v -49.044063687324524 81.21435666619428 1.4962361127018744
v -53.16455960273743 84.2880430088962 1.3820024720324546
v -52.179932594299316 84.02055650807817 -27.447511533382816
v -44.709861278533936 81.30837260283518 -25.695080890935145
v -49.044063687324524 81.21435666619428 1.4962361127018744
v -44.709861278533936 81.30837260283518 -25.695080890935145
v -44.016867876052856 76.56133374144541 -24.355309264024882
v -45.27272880077362 76.78647072151728 1.8923762881926214
v -63.07721138000488 17.82193510523576 1.7555401495884708
v -66.3225531578064 18.16700914605692 31.652438661046112
v -60.97717881202698 34.524600671582 30.285436250687216
v -62.20969557762146 34.022134792502385 1.5347117077061276
v -63.07721138000488 17.82193510523576 1.7555401495884708
v -62.20969557762146 34.022134792502385 1.5347117077061276
v -55.002206563949585 33.7126749772489 -25.598176845832697
v -61.06954216957092 17.333827966194896 -27.111115895481376
v -63.07721138000488 17.82193510523576 1.7555401495884708
v -61.06954216957092 17.333827966194896 -27.111115895481376
v -52.93409824371338 -1.8473134229331605 -27.92035311166336
v -55.943864583969116 -2.3043081977648745 8.647074925809926
v -63.07721138000488 17.82193510523576 1.7555401495884708
v -55.943864583969116 -2.3043081977648745 8.647074925809926
v -60.39351224899292 3.546731931690562 32.089521903129544
v -66.3225531578064 18.16700914605692 31.652438661046112
v 43.957990407943726 20.542392016759912 -55.601314076762385
v 27.83733308315277 21.36704928319519 -72.76521673224998
v 26.679491996765137 38.73309538689518 -70.36972676940842
v 44.3860799074173 36.97817031498734 -54.63639504161514
v 43.957990407943726 20.542392016759912 -55.601314076762385
v 44.3860799074173 36.97817031498734 -54.63639504161514
v 47.00154662132263 35.01359342139713 -29.353320342576982
v 55.272430181503296 18.521619553870796 -32.22226206220289
v 43.957990407943726 20.542392016759912 -55.601314076762385
v 55.272430181503296 18.521619553870796 -32.22226206220289
v 42.40370690822601 1.1962660703059276 -31.3698710960051
v 37.235987186431885 0.7890660910018149 -61.37254847030791
v 43.957990407943726 20.542392016759912 -55.601314076762385
v 37.235987186431885 0.7890660910018149 -61.37254847030791
v 21.960434317588806 6.862127902943079 -72.42113463620345
v 27.83733308315277 21.36704928319519 -72.76521673224998
v 60.87160110473633 33.482944440082676 -3.2241503310673645
v 61.340153217315674 33.14891883300481 26.13190170480222
v 51.90914273262024 31.81564012705397 24.36193901518338
v 52.65490412712097 32.670938480985406 -2.993321153598291
v 60.87160110473633 33.482944440082676 -3.2241503310673645
v 52.65490412712097 32.670938480985406 -2.993321153598291
v 47.00154662132263 35.01359342139713 -29.353320342576982
v 53.013163805007935 36.598915862475465 -30.44223189579595
v 60.87160110473633 33.482944440082676 -3.2241503310673645
v 53.013163805007935 36.598915862475465 -30.44223189579595
v 60.62478423118591 39.94255743583089 -31.575358460975853
v 64.57633972167969 39.40108081252673 -2.4053956313227642
v 60.87160110473633 33.482944440082676 -3.2241503310673645
v 64.57633972167969 39.40108081252673 -2.4053956313227642
v 63.21067810058594 39.70732533323771 27.03562924061892
v 61.340153217315674 33.14891883300481 26.13190170480222
v -55.343639850616455 37.542697972068744 -53.743416226956874
v -38.538023829460144 37.694388571774034 -73.51529616309367
v -36.92069053649902 33.19759432798456 -69.2478710854563
v -48.85682463645935 32.99513854542568 -48.904537569729214
v -55.343639850616455 37.542697972068744 -53.743416226956874
v -48.85682463645935 32.99513854542568 -48.904537569729214
v -55.002206563949585 33.7126749772489 -25.598176845832697
v -60.9353244304657 37.74947080183642 -27.24560220138623
v -55.343639850616455 37.542697972068744 -53.743416226956874
v -60.9353244304657 37.74947080183642 -27.24560220138623
v -58.96857976913452 44.31210306612367 -27.601752944036654
v -53.19761633872986 44.86753349791176 -54.5550419473016
v -55.343639850616455 37.542697972068744 -53.743416226956874
v -53.19761633872986 44.86753349791176 -54.5550419473016
v -37.04306185245514 45.12055519242711 -72.98602600875772
v -38.538023829460144 37.694388571774034 -73.51529616309367
v -1.0109285824000835 -6.192548237071192 29.500825221922895
v 48.850664496421814 -0.30127696214857064 4.1451652093827045
v 58.52392911911011 2.2801204732705354 26.958104596592925
v 43.58572959899902 -0.23354669187099014 50.01339916219642
v -1.0109285824000835 -6.192548237071192 29.500825221922895
v 43.58572959899902 -0.23354669187099014 50.01339916219642
v 29.4099360704422 4.101031463599665 69.76319484653798
v 1.1196122504770756 0.5708992092822148 72.93173661467803
v -1.0109285824000835 -6.192548237071192 29.500825221922895
v 1.1196122504770756 0.5708992092822148 72.93173661467803
v -29.19290065765381 3.326237525218049 75.1559371297505
v -44.49417293071747 -0.0650496708337484 54.00750042067933
v -1.0109285824000835 -6.192548237071192 29.500825221922895
v -44.49417293071747 -0.0650496708337484 54.00750042067933
v -60.39351224899292 3.546731931690562 32.089521903129544
v -55.943864583969116 -2.3043081977648745 8.647074925809926
v -1.0109285824000835 -6.192548237071192 29.500825221922895
v -55.943864583969116 -2.3043081977648745 8.647074925809926
v -52.93409824371338 -1.8473134229331605 -27.92035311166336
v -3.148423507809639 -5.431244797414544 -24.554105708270587
v -1.0109285824000835 -6.192548237071192 29.500825221922895
v -3.148423507809639 -5.431244797414544 -24.554105708270587
v 42.40370690822601 1.1962660703059276 -31.3698710960051
v 48.850664496421814 -0.30127696214857064 4.1451652093827045
v -44.32938098907471 96.19811211188753 2.0829016078335627
v -53.16455960273743 84.2880430088962 1.3820024720324546
v -52.09652781486511 83.77488133793925 29.11474233946133
v -44.31471228599548 96.11381730168836 26.873534160065038
v -44.32938098907471 96.19811211188753 2.0829016078335627
v -42.581698298454285 96.32163864645258 -23.031970160083898
v -52.179932594299316 84.02055650807817 -27.447511533382816
v -53.16455960273743 84.2880430088962 1.3820024720324546
v -43.785375356674194 60.91874033844107 -49.351097137486356
v -52.242887020111084 61.27937012421802 -26.005427092212994
v -44.016867876052856 76.56133374144541 -24.355309264024882
v -37.33782768249512 76.50753706042718 -45.77130431665841
v -43.785375356674194 60.91874033844107 -49.351097137486356
v -37.33782768249512 76.50753706042718 -45.77130431665841
v -27.94356942176819 75.11522907485812 -64.7269132922081
v -30.86768090724945 60.92858426323925 -66.30731621620087
v 41.586896777153015 93.02506898327412 -45.457956449424955
v 44.77299749851227 78.17798055590715 -48.93976829577849
v 30.33904731273651 76.31065311924235 -69.33508566523595
v 27.151069045066833 91.93385476992792 -58.83330412435086
v 41.586896777153015 93.02506898327412 -45.457956449424955
v 46.98805212974548 94.67522688149944 -25.155938195053015
v 57.437825202941895 80.13858339661901 -27.95865649266498
v 44.77299749851227 78.17798055590715 -48.93976829577849
v 61.78578734397888 57.95403091714818 -1.9142599200585282
v 54.84223961830139 58.03983340139721 -28.690293946475105
v 49.92783069610596 73.0469720418158 -26.30778549095081
v 50.90986490249634 74.43413726270676 -0.5011983412475484
v 61.78578734397888 57.95403091714818 -1.9142599200585282
v 50.90986490249634 74.43413726270676 -0.5011983412475484
v 54.59398627281189 74.54136425307485 25.246801748989235
v 63.58773708343506 58.23805169651235 26.608880806846518
f 369 370 371
f 369 371 372
f 373 374 375
f 373 375 376
f 377 378 379
f 377 379 380
f 381 382 383
f 381 383 384
f 385 386 387
f 385 387 388
f 389 390 391
f 389 391 392
f 393 394 395
f 393 395 396
f 397 398 399
f 397 399 400
f 401 402 403
f 401 403 404
f 405 406 407
f 405 407 408
f 409 410 411
f 409 411 412
f 413 414 415
f 413 415 416
f 417 418 419
f 417 419 420
f 421 422 423
f 421 423 424
f 425 426 427
f 425 427 428
f 429 430 431
f 429 431 432
f 433 434 435
f 433 435 436
f 437 438 439
f 437 439 440
f 441 442 443
f 441 443 444
f 445 446 447
f 445 447 448
f 449 450 451
f 449 451 452
f 453 454 455
f 453 455 456
f 457 458 459
f 457 459 460
f 461 462 463
f 461 463 464
f 465 466 467
f 465 467 468
f 469 470 471
f 469 471 472
f 473 474 475
f 473 475 476
f 477 478 479
f 477 479 480
f 481 482 483
f 481 483 484
f 485 486 487
f 485 487 488
f 489 490 491
f 489 491 492
f 493 494 495
f 493 495 496
f 497 498 499
f 497 499 500
f 501 502 503
f 501 503 504
f 505 506 507
f 505 507 508
f 509 510 511
f 509 511 512
f 513 514 515
f 513 515 516
f 517 518 519
f 517 519 520
f 521 522 523
f 521 523 524
f 525 526 527
f 525 527 528
f 529 530 531
f 529 531 532
f 533 534 535
f 533 535 536
f 537 538 539
f 537 539 540
f 541 542 543
f 541 543 544
f 545 546 547
f 545 547 548
f 549 550 551
f 549 551 552
f 553 554 555
f 553 555 556
f 557 558 559
f 557 559 560
f 561 562 563
f 561 563 564
f 565 566 567
f 565 567 568
f 569 570 571
f 569 571 572
f 573 574 575
f 573 575 576
f 577 578 579
f 577 579 580
f 581 582 583
f 581 583 584
f 585 586 587
f 585 587 588
f 589 590 591
f 589 591 592
f 593 594 595
f 593 595 596
f 597 598 599
f 597 599 600
f 601 602 603
f 601 603 604
f 605 606 607
f 605 607 608
f 609 610 611
f 609 611 612
f 613 614 615
f 613 615 616
f 617 618 619
f 617 619 620
f 621 622 623
f 621 623 624
f 625 626 627
f 625 627 628
f 629 630 631
f 629 631 632
f 633 634 635
f 633 635 636
f 637 638 639
f 637 639 640
f 641 642 643
f 641 643 644
f 645 646 647
f 645 647 648
f 649 650 651
f 649 651 652
f 653 654 655
f 653 655 656
f 657 658 659
f 657 659 660
f 661 662 663
f 661 663 664
f 665 666 667
f 665 667 668
f 669 670 671
f 669 671 672
f 673 674 675
f 673 675 676
f 677 678 679
f 677 679 680
f 681 682 683
f 681 683 684
f 685 686 687
f 685 687 688
f 689 690 691
f 689 691 692
f 693 694 695
f 693 695 696
f 697 698 699
f 697 699 700
f 701 702 703
f 701 703 704
f 705 706 707
f 705 707 708
f 709 710 711
f 709 711 712
f 713 714 715
f 713 715 716
f 717 718 719
f 717 719 720
f 721 722 723
f 721 723 724
f 725 726 727
f 725 727 728
f 729 730 731
f 729 731 732
f 733 734 735
f 733 735 736
f 737 738 739
f 737 739 740
f 741 742 743
f 741 743 744
f 745 746 747
f 745 747 748
f 749 750 751
f 749 751 752
f 753 754 755
f 753 755 756
f 757 758 759
f 757 759 760
f 761 762 763
f 761 763 764
f 765 766 767
f 765 767 768
f 769 770 771
f 769 771 772
f 773 774 775
f 773 775 776
f 777 778 779
f 777 779 780
f 781 782 783
f 781 783 784
f 785 786 787
f 785 787 788
f 789 790 791
f 789 791 792
f 793 794 795
f 793 795 796
f 797 798 799
f 797 799 800
f 801 802 803
f 801 803 804
f 805 806 807
f 805 807 808
f 809 810 811
f 809 811 812
f 813 814 815
f 813 815 816
f 817 818 819
f 817 819 820
f 821 822 823
f 821 823 824
f 825 826 827
f 825 827 828
f 829 830 831
f 829 831 832
f 833 834 835
f 833 835 836
f 837 838 839
f 837 839 840
f 841 842 843
f 841 843 844
f 845 846 847
f 845 847 848
f 849 850 851
f 849 851 852
f 853 854 855
f 853 855 856
f 857 858 859
f 857 859 860
f 861 862 863
f 861 863 864
f 865 866 867
f 865 867 868
f 869 870 871
f 869 871 872
f 873 874 875
f 873 875 876
f 877 878 879
f 877 879 880
f 881 882 883
f 881 883 884
f 885 886 887
f 885 887 888
f 889 890 891
f 889 891 892
f 893 894 895
f 893 895 896
f 897 898 899
f 897 899 900
f 901 902 903
f 901 903 904
f 905 906 907
f 905 907 908
f 909 910 911
f 909 911 912
f 913 914 915
f 913 915 916
f 917 918 919
f 917 919 920
