v 47.30812907218933 61.1962232709816 -52.608797983589845
v 54.84223961830139 60.60592064733837 -28.690294364543778
v 60.62478423118591 42.508644681772054 -31.575358879044526
v 48.00349771976471 44.65843436859207 -55.0152851383327
v 47.30812907218933 61.1962232709816 -52.608797983589845
v 48.00349771976471 44.65843436859207 -55.0152851383327
v 31.1315655708313 45.72215645106548 -75.08525997250896
v 28.642389178276062 61.67609764969802 -68.66796425478014
v 47.30812907218933 61.1962232709816 -52.608797983589845
v 28.642389178276062 61.67609764969802 -68.66796425478014
v 23.28200340270996 75.23963105579793 -57.81048570017089
v 37.940043210983276 75.32113057504083 -44.99172305342195
v 47.30812907218933 61.1962232709816 -52.608797983589845
v 37.940043210983276 75.32113057504083 -44.99172305342195
v 49.92783069610596 75.61305928775697 -26.307785909019483
v 54.84223961830139 60.60592064733837 -28.690294364543778
v -2.498616650700569 62.05608893112112 -70.20214018949136
v 28.642389178276062 61.67609764969802 -68.66796425478014
v 31.1315655708313 45.72215645106548 -75.08525997250896
v -4.0288180112838745 46.75158673690913 -84.50132774047495
v -2.498616650700569 62.05608893112112 -70.20214018949136
v -4.0288180112838745 46.75158673690913 -84.50132774047495
v -37.04306185245514 47.686642438368274 -72.98602642682638
v -30.86768090724945 63.494671509180414 -66.30731663426955
v -2.498616650700569 62.05608893112112 -70.20214018949136
v -30.86768090724945 63.494671509180414 -66.30731663426955
v -27.94356942176819 77.68131632079928 -64.72691371027678
v -1.051647588610649 75.87801288792403 -68.82696195850417
v -2.498616650700569 62.05608893112112 -70.20214018949136
v -1.051647588610649 75.87801288792403 -68.82696195850417
v 23.28200340270996 75.23963105579793 -57.81048570017089
v 28.642389178276062 61.67609764969802 -68.66796425478014
v -48.4454482793808 63.392004586870485 56.20450536770502
v -55.17822504043579 63.274567272883885 30.162076774128245
v -66.42143130302429 46.144079545728445 32.80211829375298
v -51.04379653930664 46.39575830431095 58.00753075980717
v -48.4454482793808 63.392004586870485 56.20450536770502
v -51.04379653930664 46.39575830431095 58.00753075980717
v -30.06780743598938 46.52775574060339 76.11718611855156
v -28.032729029655457 63.006621738504506 74.02519153240577
v -48.4454482793808 63.392004586870485 56.20450536770502
v -28.032729029655457 63.006621738504506 74.02519153240577
v -24.71761703491211 76.94700880416741 68.50970921972441
v -41.00156128406525 77.92702547070331 50.69207471595801
v -48.4454482793808 63.392004586870485 56.20450536770502
v -41.00156128406525 77.92702547070331 50.69207471595801
v -45.05888521671295 79.08660623130802 27.603276600134937
v -55.17822504043579 63.274567272883885 30.162076774128245
v 4.622553661465645 62.035990097220434 75.23167314729837
v -28.032729029655457 63.006621738504506 74.02519153240577
v -30.06780743598938 46.52775574060339 76.11718611855156
v 4.05915342271328 46.253062841246454 82.66365370595321
v 4.622553661465645 62.035990097220434 75.23167314729837
v 4.05915342271328 46.253062841246454 82.66365370595321
v 39.9654895067215 44.98441019918763 79.2229042674097
v 37.63594925403595 62.810468836085136 74.16680623988499
v 4.622553661465645 62.035990097220434 75.23167314729837
v 37.63594925403595 62.810468836085136 74.16680623988499
v 33.23696851730347 77.37814067099 65.74906042206705
v 5.084697529673576 76.99027060620904 73.11847743739247
v 4.622553661465645 62.035990097220434 75.23167314729837
v 5.084697529673576 76.99027060620904 73.11847743739247
v -24.71761703491211 76.94700880416741 68.50970921972441
v -28.032729029655457 63.006621738504506 74.02519153240577
v 57.0131778717041 100.75433226147796 -1.724422933006269
v 60.4498565196991 85.09563790932224 -0.7820242887212276
v 57.437825202941895 82.70467064256017 -27.95865691073365
v 46.98805212974548 97.2413141274406 -25.15593861312169
v 57.0131778717041 100.75433226147796 -1.724422933006269
v 46.98805212974548 97.2413141274406 -25.15593861312169
v 30.37363886833191 111.54863471543183 -22.270851129417053
v 35.94323992729187 116.12962467753076 -1.0193287535630502
v 57.0131778717041 100.75433226147796 -1.724422933006269
v 35.94323992729187 116.12962467753076 -1.0193287535630502
v 34.64133441448212 114.05918946186111 21.36074830506487
v 58.45170617103577 101.61599318431922 24.405097797357225
v 57.0131778717041 100.75433226147796 -1.724422933006269
v 58.45170617103577 101.61599318431922 24.405097797357225
v 66.42143130302429 85.69449028743973 26.91279743710241
v 60.4498565196991 85.09563790932224 -0.7820242887212276
v 50.728994607925415 99.56593075960267 46.31481634682091
v 57.74291157722473 85.94778442040307 52.661464516769776
v 66.42143130302429 85.69449028743973 26.91279743710241
v 58.45170617103577 101.61599318431922 24.405097797357225
v 50.728994607925415 99.56593075960267 46.31481634682091
v 58.45170617103577 101.61599318431922 24.405097797357225
v 34.64133441448212 114.05918946186111 21.36074830506487
v 30.74413537979126 110.18384100015483 36.64697401692979
v 50.728994607925415 99.56593075960267 46.31481634682091
v 30.74413537979126 110.18384100015483 36.64697401692979
v 24.553465843200684 104.6086149113098 46.765897516459084
v 34.96226966381073 97.69385862012085 61.44213276910726
v 50.728994607925415 99.56593075960267 46.31481634682091
v 34.96226966381073 97.69385862012085 61.44213276910726
v 40.73740243911743 85.21454331700369 73.01307720413206
v 57.74291157722473 85.94778442040307 52.661464516769776
v -53.049999475479126 62.9611138011408 2.137406716042761
v -52.242887020111084 63.84545737015918 -26.005427510281667
v -58.96857976913452 46.87819031206483 -27.601753362105327
v -66.38668179512024 46.41894133707467 1.9402562451682412
v -53.049999475479126 62.9611138011408 2.137406716042761
v -66.38668179512024 46.41894133707467 1.9402562451682412
v -66.42143130302429 46.144079545728445 32.80211829375298
v -55.17822504043579 63.274567272883885 30.162076774128245
v -53.049999475479126 62.9611138011408 2.137406716042761
v -55.17822504043579 63.274567272883885 30.162076774128245
v -45.05888521671295 79.08660623130802 27.603276600134937
v -45.27272880077362 79.35255796745844 1.892375870123947
v -53.049999475479126 62.9611138011408 2.137406716042761
v -45.27272880077362 79.35255796745844 1.892375870123947
v -44.016867876052856 79.12742098738657 -24.355309682093555
v -52.242887020111084 63.84545737015918 -26.005427510281667
v 56.79718852043152 61.79650112164881 53.91253418256184
v 37.63594925403595 62.810468836085136 74.16680623988499
v 39.9654895067215 44.98441019918763 79.2229042674097
v 60.21370887756348 43.10127232485605 56.951581370170686
v 56.79718852043152 61.79650112164881 53.91253418256184
v 60.21370887756348 43.10127232485605 56.951581370170686
v 63.21067810058594 42.273412579178874 27.035628822550247
v 63.58773708343506 60.80413894245351 26.608880388777845
v 56.79718852043152 61.79650112164881 53.91253418256184
v 63.58773708343506 60.80413894245351 26.608880388777845
v 54.59398627281189 77.10745149901601 25.24680133092056
v 48.97760450839996 77.3545583033635 48.74598017707595
v 56.79718852043152 61.79650112164881 53.91253418256184
v 48.97760450839996 77.3545583033635 48.74598017707595
v 33.23696851730347 77.37814067099 65.74906042206705
v 37.63594925403595 62.810468836085136 74.16680623988499
v 5.246769264340401 114.80839836075712 35.82132674383279
v 4.290136694908142 117.39321104733136 21.466148145356257
v -26.848378777503967 113.7776533670814 24.333682000949782
v -19.362729787826538 108.11197177442187 37.55286660740221
v 5.246769264340401 114.80839836075712 35.82132674383279
v -19.362729787826538 108.11197177442187 37.55286660740221
v -12.37664520740509 104.39911683728823 48.80023089886493
v 6.238863617181778 108.90196189344348 50.308138271108625
v 5.246769264340401 114.80839836075712 35.82132674383279
v 6.238863617181778 108.90196189344348 50.308138271108625
v 24.553465843200684 104.6086149113098 46.765897516459084
v 30.74413537979126 110.18384100015483 36.64697401692979
v 5.246769264340401 114.80839836075712 35.82132674383279
v 30.74413537979126 110.18384100015483 36.64697401692979
v 34.64133441448212 114.05918946186111 21.36074830506487
v 4.290136694908142 117.39321104733136 21.466148145356257
v 3.49181592464447 120.5482961136246 0.8525004721381251
v 3.045554831624031 116.52674356582281 -19.543610126317343
v -26.087990403175354 112.49127075852829 -19.159505216993796
v -27.52474844455719 113.72303999909627 2.283430570633093
v 3.49181592464447 120.5482961136246 0.8525004721381251
v -27.52474844455719 113.72303999909627 2.283430570633093
v -26.848378777503967 113.7776533670814 24.333682000949782
v 4.290136694908142 117.39321104733136 21.466148145356257
v 3.49181592464447 120.5482961136246 0.8525004721381251
v 4.290136694908142 117.39321104733136 21.466148145356257
v 34.64133441448212 114.05918946186111 21.36074830506487
v 35.94323992729187 116.12962467753076 -1.0193287535630502
v 3.49181592464447 120.5482961136246 0.8525004721381251
v 35.94323992729187 116.12962467753076 -1.0193287535630502
v 30.37363886833191 111.54863471543183 -22.270851129417053
v 3.045554831624031 116.52674356582281 -19.543610126317343
v 7.1486033499240875 96.99219375487515 67.66019075428801
v 7.615859806537628 84.1046881748796 80.53199470710943
v 40.73740243911743 85.21454331700369 73.01307720413206
v 34.96226966381073 97.69385862012085 61.44213276910726
v 7.1486033499240875 96.99219375487515 67.66019075428801
v 34.96226966381073 97.69385862012085 61.44213276910726
v 24.553465843200684 104.6086149113098 46.765897516459084
v 6.238863617181778 108.90196189344348 50.308138271108625
v 7.1486033499240875 96.99219375487515 67.66019075428801
v 6.238863617181778 108.90196189344348 50.308138271108625
v -12.37664520740509 104.39911683728823 48.80023089886493
v -21.24411314725876 96.33163035590081 62.23598341294795
v 7.1486033499240875 96.99219375487515 67.66019075428801
v -21.24411314725876 96.33163035590081 62.23598341294795
v -26.99246108531952 83.42447298566863 74.2555065137922
v 7.615859806537628 84.1046881748796 80.53199470710943
v 0.005940860864939168 97.36614923940468 -66.99542797424319
v -1.4055020175874233 82.5546148388041 -71.36013660735695
v -30.780282616615295 85.75944349493184 -70.4064210898322
v -27.891576290130615 98.83396839835008 -60.01552165439062
v 0.005940860864939168 97.36614923940468 -66.99542797424319
v -27.891576290130615 98.83396839835008 -60.01552165439062
v -17.470239102840424 106.17080184149944 -45.58939279333089
v 1.0450446046888828 110.71218648202687 -48.862582601057014
v 0.005940860864939168 97.36614923940468 -66.99542797424319
v 1.0450446046888828 110.71218648202687 -48.862582601057014
v 20.508848130702972 106.66702168521338 -50.16198703997748
v 27.151069045066833 94.49994201586908 -58.83330454241954
v 0.005940860864939168 97.36614923940468 -66.99542797424319
v 27.151069045066833 94.49994201586908 -58.83330454241954
v 30.33904731273651 78.87674036518351 -69.33508608330463
v -1.4055020175874233 82.5546148388041 -71.36013660735695
v -39.56078290939331 98.40496981476312 49.044378460899914
v -47.698670625686646 84.54246231904752 55.42582684251238
v -26.99246108531952 83.42447298566863 74.2555065137922
v -21.24411314725876 96.33163035590081 62.23598341294795
v -39.56078290939331 98.40496981476312 49.044378460899914
v -21.24411314725876 96.33163035590081 62.23598341294795
v -12.37664520740509 104.39911683728823 48.80023089886493
v -19.362729787826538 108.11197177442187 37.55286660740221
v -39.56078290939331 98.40496981476312 49.044378460899914
v -19.362729787826538 108.11197177442187 37.55286660740221
v -26.848378777503967 113.7776533670814 24.333682000949782
v -44.31471228599548 98.67990454762952 26.87353374199636
v -39.56078290939331 98.40496981476312 49.044378460899914
v -44.31471228599548 98.67990454762952 26.87353374199636
v -52.09652781486511 86.34096858388041 29.114741921392653
v -47.698670625686646 84.54246231904752 55.42582684251238
v -38.62819969654083 98.46696143001355 -43.61856395871764
v -43.669793009757996 86.9185840010779 -51.87756047126083
v -52.179932594299316 86.58664375401933 -27.44751195145149
v -42.581698298454285 98.88772589239375 -23.03197057815257
v -38.62819969654083 98.46696143001355 -43.61856395871764
v -42.581698298454285 98.88772589239375 -23.03197057815257
v -26.087990403175354 112.49127075852829 -19.159505216993796
v -26.00584328174591 113.07863603252405 -35.962030833012896
v -38.62819969654083 98.46696143001355 -43.61856395871764
v -26.00584328174591 113.07863603252405 -35.962030833012896
v -17.470239102840424 106.17080184149944 -45.58939279333089
v -27.891576290130615 98.83396839835008 -60.01552165439062
v -38.62819969654083 98.46696143001355 -43.61856395871764
v -27.891576290130615 98.83396839835008 -60.01552165439062
v -30.780282616615295 85.75944349493184 -70.4064210898322
v -43.669793009757996 86.9185840010779 -51.87756047126083
v -4.8665851354599 -2.3292998134619998 -60.76751313407557
v 37.235987186431885 3.355153336942977 -61.372548888376585
v 42.40370690822601 3.76235331624709 -31.369871514073775
v -3.148423507809639 -2.8651575514733816 -24.55410612633926
v -4.8665851354599 -2.3292998134619998 -60.76751313407557
v -3.148423507809639 -2.8651575514733816 -24.55410612633926
v -52.93409824371338 0.7187738230080017 -27.920353529732033
v -46.28123641014099 2.7095819601165534 -57.872248137371315
v -4.8665851354599 -2.3292998134619998 -60.76751313407557
v -46.28123641014099 2.7095819601165534 -57.872248137371315
v -32.70488679409027 7.535458057065045 -70.43272975666025
v -5.776753276586533 3.949706920153571 -78.24225490069315
v -4.8665851354599 -2.3292998134619998 -60.76751313407557
v -5.776753276586533 3.949706920153571 -78.24225490069315
v 21.960434317588806 9.42821514888424 -72.42113505427213
v 37.235987186431885 3.355153336942977 -61.372548888376585
v 55.2784264087677 36.2494468095901 54.51357966169136
v 34.10228490829468 40.13372041832903 71.83182181717814
v 30.40279448032379 35.64819005966917 67.55071297650677
v 46.13616168498993 34.57997645029735 49.0904096055422
v 55.2784264087677 36.2494468095901 54.51357966169136
v 46.13616168498993 34.57997645029735 49.0904096055422
v 51.90914273262024 34.38172737299514 24.361938597114708
v 61.340153217315674 35.71500607894597 26.131901286733545
v 55.2784264087677 36.2494468095901 54.51357966169136
v 61.340153217315674 35.71500607894597 26.131901286733545
v 63.21067810058594 42.273412579178874 27.035628822550247
v 60.21370887756348 43.10127232485605 56.951581370170686
v 55.2784264087677 36.2494468095901 54.51357966169136
v 60.21370887756348 43.10127232485605 56.951581370170686
v 39.9654895067215 44.98441019918763 79.2229042674097
v 34.10228490829468 40.13372041832903 71.83182181717814
v -64.35614228248596 40.31758039406179 1.781152139468455
v -60.9353244304657 40.31555804777758 -27.245602619454903
v -55.002206563949585 36.278762223190064 -25.59817726390137
v -62.20969557762146 36.58822203844355 1.5347112896374533
v -64.35614228248596 40.31758039406179 1.781152139468455
v -62.20969557762146 36.58822203844355 1.5347112896374533
v -60.97717881202698 37.09068791752316 30.28543583261854
v -63.41973543167114 40.362199318693186 31.538068632827894
v -64.35614228248596 40.31758039406179 1.781152139468455
v -63.41973543167114 40.362199318693186 31.538068632827894
v -66.42143130302429 46.144079545728445 32.80211829375298
v -66.38668179512024 46.41894133707467 1.9402562451682412
v -64.35614228248596 40.31758039406179 1.781152139468455
v -66.38668179512024 46.41894133707467 1.9402562451682412
v -58.96857976913452 46.87819031206483 -27.601753362105327
v -60.9353244304657 40.31555804777758 -27.245602619454903
v 2.360956557095051 41.970474329797945 78.0920973586924
v -29.97441291809082 42.49697932070287 73.68633650783805
v -29.270192980766296 38.36287214870125 70.396673389713
v 0.9882813319563866 37.07642008634068 76.20496741873029
v 2.360956557095051 41.970474329797945 78.0920973586924
v 0.9882813319563866 37.07642008634068 76.20496741873029
v 30.40279448032379 35.64819005966917 67.55071297650677
v 34.10228490829468 40.13372041832903 71.83182181717814
v 2.360956557095051 41.970474329797945 78.0920973586924
v 34.10228490829468 40.13372041832903 71.83182181717814
v 39.9654895067215 44.98441019918763 79.2229042674097
v 4.05915342271328 46.253062841246454 82.66365370595321
v 2.360956557095051 41.970474329797945 78.0920973586924
v 4.05915342271328 46.253062841246454 82.66365370595321
v -30.06780743598938 46.52775574060339 76.11718611855156
v -29.97441291809082 42.49697932070287 73.68633650783805
v -48.98060858249664 42.510345702197625 55.63872956062207
v -63.41973543167114 40.362199318693186 31.538068632827894
v -60.97717881202698 37.09068791752316 30.28543583261854
v -46.52121663093567 38.31059604754563 53.040450530263705
v -48.98060858249664 42.510345702197625 55.63872956062207
v -46.52121663093567 38.31059604754563 53.040450530263705
v -29.270192980766296 38.36287214870125 70.396673389713
v -29.97441291809082 42.49697932070287 73.68633650783805
v -48.98060858249664 42.510345702197625 55.63872956062207
v -29.97441291809082 42.49697932070287 73.68633650783805
v -30.06780743598938 46.52775574060339 76.11718611855156
v -51.04379653930664 46.39575830431095 58.00753075980717
v -48.98060858249664 42.510345702197625 55.63872956062207
v -51.04379653930664 46.39575830431095 58.00753075980717
v -66.42143130302429 46.144079545728445 32.80211829375298
v -63.41973543167114 40.362199318693186 31.538068632827894
v -4.668381065130234 43.72002758557084 -74.51315638437313
v 27.028176188468933 44.78882022376954 -69.04358997486798
v 26.679491996765137 41.29918263283634 -70.36972718747708
v -4.891663044691086 39.26313537911772 -72.03868075133178
v -4.668381065130234 43.72002758557084 -74.51315638437313
v -4.891663044691086 39.26313537911772 -72.03868075133178
v -36.92069053649902 35.76368157392572 -69.24787150352498
v -38.538023829460144 40.2604758177152 -73.51529658116233
v -4.668381065130234 43.72002758557084 -74.51315638437313
v -38.538023829460144 40.2604758177152 -73.51529658116233
v -37.04306185245514 47.686642438368274 -72.98602642682638
v -4.0288180112838745 46.75158673690913 -84.50132774047495
v -4.668381065130234 43.72002758557084 -74.51315638437313
v -4.0288180112838745 46.75158673690913 -84.50132774047495
v 31.1315655708313 45.72215645106548 -75.08525997250896
v 27.028176188468933 44.78882022376954 -69.04358997486798
v 43.34824085235596 43.16567809875868 -52.95713651103754
v 53.013163805007935 39.16500310841663 -30.442232313864626
v 47.00154662132263 37.579680667338295 -29.353320760645655
v 44.3860799074173 39.5442575609285 -54.63639545968381
v 43.34824085235596 43.16567809875868 -52.95713651103754
v 44.3860799074173 39.5442575609285 -54.63639545968381
v 26.679491996765137 41.29918263283634 -70.36972718747708
v 27.028176188468933 44.78882022376954 -69.04358997486798
v 43.34824085235596 43.16567809875868 -52.95713651103754
v 27.028176188468933 44.78882022376954 -69.04358997486798
v 31.1315655708313 45.72215645106548 -75.08525997250896
v 48.00349771976471 44.65843436859207 -55.0152851383327
v 43.34824085235596 43.16567809875868 -52.95713651103754
v 48.00349771976471 44.65843436859207 -55.0152851383327
v 60.62478423118591 42.508644681772054 -31.575358879044526
v 53.013163805007935 39.16500310841663 -30.442232313864626
v 62.42993474006653 19.619869509209366 -4.153206415657894
v 55.272430181503296 21.087706799811958 -32.22226248027157
v 47.00154662132263 37.579680667338295 -29.353320760645655
v 52.65490412712097 35.23702572692657 -2.993321571666965
v 62.42993474006653 19.619869509209366 -4.153206415657894
v 52.65490412712097 35.23702572692657 -2.993321571666965
v 51.90914273262024 34.38172737299514 24.361938597114708
v 63.51443529129028 18.944997833622516 25.892794025933696
v 62.42993474006653 19.619869509209366 -4.153206415657894
v 63.51443529129028 18.944997833622516 25.892794025933696
v 58.52392911911011 4.846207719211697 26.958104178524252
v 48.850664496421814 2.2648102837925914 4.145164791314031
v 62.42993474006653 19.619869509209366 -4.153206415657894
v 48.850664496421814 2.2648102837925914 4.145164791314031
v 42.40370690822601 3.76235331624709 -31.369871514073775
v 55.272430181503296 21.087706799811958 -32.22226248027157
v -56.33397698402405 21.22162065448835 59.84966409169406
v -33.07094871997833 21.357826084477757 77.38097558149725
v -29.270192980766296 38.36287214870125 70.396673389713
v -46.52121663093567 38.31059604754563 53.040450530263705
v -56.33397698402405 21.22162065448835 59.84966409169406
v -46.52121663093567 38.31059604754563 53.040450530263705
v -60.97717881202698 37.09068791752316 30.28543583261854
v -66.3225531578064 20.73309639199808 31.65243824297744
v -56.33397698402405 21.22162065448835 59.84966409169406
v -66.3225531578064 20.73309639199808 31.65243824297744
v -60.39351224899292 6.112819177631724 32.089521485060864
v -44.49417293071747 2.501037575107414 54.007500002610655
v -56.33397698402405 21.22162065448835 59.84966409169406
v -44.49417293071747 2.501037575107414 54.007500002610655
v -29.19290065765381 5.8923247711592115 75.15593671168182
v -33.07094871997833 21.357826084477757 77.38097558149725
v -56.03618025779724 19.402668145613948 -53.247639717722635
v -61.06954216957092 19.899915212136058 -27.111116313550053
v -55.002206563949585 36.278762223190064 -25.59817726390137
v -48.85682463645935 35.561225791366844 -48.904537987797895
v -56.03618025779724 19.402668145613948 -53.247639717722635
v -48.85682463645935 35.561225791366844 -48.904537987797895
v -36.92069053649902 35.76368157392572 -69.24787150352498
v -41.64222180843353 20.087271570656288 -75.36833613548791
v -56.03618025779724 19.402668145613948 -53.247639717722635
v -41.64222180843353 20.087271570656288 -75.36833613548791
v -32.70488679409027 7.535458057065045 -70.43272975666025
v -46.28123641014099 2.7095819601165534 -57.872248137371315
v -56.03618025779724 19.402668145613948 -53.247639717722635
v -46.28123641014099 2.7095819601165534 -57.872248137371315
v -52.93409824371338 0.7187738230080017 -27.920353529732033
v -61.06954216957092 19.899915212136058 -27.111116313550053
v -5.667053163051605 22.21513581600641 -79.73552708160264
v -41.64222180843353 20.087271570656288 -75.36833613548791
v -36.92069053649902 35.76368157392572 -69.24787150352498
v -4.891663044691086 39.26313537911772 -72.03868075133178
v -5.667053163051605 22.21513581600641 -79.73552708160264
v -4.891663044691086 39.26313537911772 -72.03868075133178
v 26.679491996765137 41.29918263283634 -70.36972718747708
v 27.83733308315277 23.933136529136352 -72.76521715031866
v -5.667053163051605 22.21513581600641 -79.73552708160264
v 27.83733308315277 23.933136529136352 -72.76521715031866
v 21.960434317588806 9.42821514888424 -72.42113505427213
v -5.776753276586533 3.949706920153571 -78.24225490069315
v -5.667053163051605 22.21513581600641 -79.73552708160264
v -5.776753276586533 3.949706920153571 -78.24225490069315
v -32.70488679409027 7.535458057065045 -70.43272975666025
v -41.64222180843353 20.087271570656288 -75.36833613548791
v 1.355551090091467 20.596255717999203 84.50130484718983
v 33.212342858314514 19.66917195749917 71.87945522291628
v 30.40279448032379 35.64819005966917 67.55071297650677
v 0.9882813319563866 37.07642008634068 76.20496741873029
v 1.355551090091467 20.596255717999203 84.50130484718983
v 0.9882813319563866 37.07642008634068 76.20496741873029
v -29.270192980766296 38.36287214870125 70.396673389713
v -33.07094871997833 21.357826084477757 77.38097558149725
v 1.355551090091467 20.596255717999203 84.50130484718983
v -33.07094871997833 21.357826084477757 77.38097558149725
v -29.19290065765381 5.8923247711592115 75.15593671168182
v 1.1196122504770756 3.136986455223377 72.93173619660935
v 1.355551090091467 20.596255717999203 84.50130484718983
v 1.1196122504770756 3.136986455223377 72.93173619660935
v 29.4099360704422 6.667118709540827 69.7631944284693
v 33.212342858314514 19.66917195749917 71.87945522291628
v 55.54209351539612 18.976107209990175 54.69510246107453
v 63.51443529129028 18.944997833622516 25.892794025933696
v 51.90914273262024 34.38172737299514 24.361938597114708
v 46.13616168498993 34.57997645029735 49.0904096055422
v 55.54209351539612 18.976107209990175 54.69510246107453
v 46.13616168498993 34.57997645029735 49.0904096055422
v 30.40279448032379 35.64819005966917 67.55071297650677
v 33.212342858314514 19.66917195749917 71.87945522291628
v 55.54209351539612 18.976107209990175 54.69510246107453
v 33.212342858314514 19.66917195749917 71.87945522291628
v 29.4099360704422 6.667118709540827 69.7631944284693
v 43.58572959899902 2.332540554070172 50.01339874412775
v 55.54209351539612 18.976107209990175 54.69510246107453
v 43.58572959899902 2.332540554070172 50.01339874412775
v 58.52392911911011 4.846207719211697 26.958104178524252
v 63.51443529129028 18.944997833622516 25.892794025933696
v -39.50095772743225 83.67398175227665 -49.22961465780452
v -37.33782768249512 79.07362430636834 -45.77130473472708
v -44.016867876052856 79.12742098738657 -24.355309682093555
v -44.709861278533936 83.87445984877634 -25.69508130900382
v -39.50095772743225 83.67398175227665 -49.22961465780452
v -44.709861278533936 83.87445984877634 -25.69508130900382
v -52.179932594299316 86.58664375401933 -27.44751195145149
v -43.669793009757996 86.9185840010779 -51.87756047126083
v -39.50095772743225 83.67398175227665 -49.22961465780452
v -43.669793009757996 86.9185840010779 -51.87756047126083
v -30.780282616615295 85.75944349493184 -70.4064210898322
v -26.55124068260193 82.86446474831646 -64.46038642514118
v -39.50095772743225 83.67398175227665 -49.22961465780452
v -26.55124068260193 82.86446474831646 -64.46038642514118
v -27.94356942176819 77.68131632079928 -64.72691371027678
v -37.33782768249512 79.07362430636834 -45.77130473472708
v -44.83202397823334 80.13997350169036 53.29424029284679
v -41.00156128406525 77.92702547070331 50.69207471595801
v -24.71761703491211 76.94700880416741 68.50970921972441
v -25.58261752128601 78.97198164534399 70.97940350422493
v -44.83202397823334 80.13997350169036 53.29424029284679
v -25.58261752128601 78.97198164534399 70.97940350422493
v -26.99246108531952 83.42447298566863 74.2555065137922
v -47.698670625686646 84.54246231904752 55.42582684251238
v -44.83202397823334 80.13997350169036 53.29424029284679
v -47.698670625686646 84.54246231904752 55.42582684251238
v -52.09652781486511 86.34096858388041 29.114741921392653
v -48.59997034072876 83.39909777667411 28.39160394910799
v -44.83202397823334 80.13997350169036 53.29424029284679
v -48.59997034072876 83.39909777667411 28.39160394910799
v -45.05888521671295 79.08660623130802 27.603276600134937
v -41.00156128406525 77.92702547070331 50.69207471595801
v -1.46736241877079 77.66194964961866 -71.61427213416945
v -1.051647588610649 75.87801288792403 -68.82696195850417
v -27.94356942176819 77.68131632079928 -64.72691371027678
v -26.55124068260193 82.86446474831646 -64.46038642514118
v -1.46736241877079 77.66194964961866 -71.61427213416945
v -26.55124068260193 82.86446474831646 -64.46038642514118
v -30.780282616615295 85.75944349493184 -70.4064210898322
v -1.4055020175874233 82.5546148388041 -71.36013660735695
v -1.46736241877079 77.66194964961866 -71.61427213416945
v -1.4055020175874233 82.5546148388041 -71.36013660735695
v 30.33904731273651 78.87674036518351 -69.33508608330463
v 27.17970311641693 74.49497114256901 -65.20461461670764
v -1.46736241877079 77.66194964961866 -71.61427213416945
v 27.17970311641693 74.49497114256901 -65.20461461670764
v 23.28200340270996 75.23963105579793 -57.81048570017089
v -1.051647588610649 75.87801288792403 -68.82696195850417
v 6.489387899637222 79.36888998411095 77.17387575248776
v 5.084697529673576 76.99027060620904 73.11847743739247
v 33.23696851730347 77.37814067099 65.74906042206705
v 37.32371628284454 80.51566432643072 70.16577004922061
v 6.489387899637222 79.36888998411095 77.17387575248776
v 37.32371628284454 80.51566432643072 70.16577004922061
v 40.73740243911743 85.21454331700369 73.01307720413206
v 7.615859806537628 84.1046881748796 80.53199470710943
v 6.489387899637222 79.36888998411095 77.17387575248776
v 7.615859806537628 84.1046881748796 80.53199470710943
v -26.99246108531952 83.42447298566863 74.2555065137922
v -25.58261752128601 78.97198164534399 70.97940350422493
v 6.489387899637222 79.36888998411095 77.17387575248776
v -25.58261752128601 78.97198164534399 70.97940350422493
v -24.71761703491211 76.94700880416741 68.50970921972441
v 5.084697529673576 76.99027060620904 73.11847743739247
v 51.92028284072876 82.43709428555785 50.20976511658102
v 48.97760450839996 77.3545583033635 48.74598017707595
v 54.59398627281189 77.10745149901601 25.24680133092056
v 59.333693981170654 81.3426179659456 26.20226905713838
v 51.92028284072876 82.43709428555785 50.20976511658102
v 59.333693981170654 81.3426179659456 26.20226905713838
v 66.42143130302429 85.69449028743973 26.91279743710241
v 57.74291157722473 85.94778442040307 52.661464516769776
v 51.92028284072876 82.43709428555785 50.20976511658102
v 57.74291157722473 85.94778442040307 52.661464516769776
v 40.73740243911743 85.21454331700369 73.01307720413206
v 37.32371628284454 80.51566432643072 70.16577004922061
v 51.92028284072876 82.43709428555785 50.20976511658102
v 37.32371628284454 80.51566432643072 70.16577004922061
v 33.23696851730347 77.37814067099 65.74906042206705
v 48.97760450839996 77.3545583033635 48.74598017707595
v 59.677672386169434 79.46799980452454 -0.8017872476152994
v 50.90986490249634 77.00022450864792 -0.5011987593162226
v 49.92783069610596 75.61305928775697 -26.307785909019483
v 51.034605503082275 79.1714327756973 -26.082477951268885
v 59.677672386169434 79.46799980452454 -0.8017872476152994
v 51.034605503082275 79.1714327756973 -26.082477951268885
v 57.437825202941895 82.70467064256017 -27.95865691073365
v 60.4498565196991 85.09563790932224 -0.7820242887212276
v 59.677672386169434 79.46799980452454 -0.8017872476152994
v 60.4498565196991 85.09563790932224 -0.7820242887212276
v 66.42143130302429 85.69449028743973 26.91279743710241
v 59.333693981170654 81.3426179659456 26.20226905713838
v 59.677672386169434 79.46799980452454 -0.8017872476152994
v 59.333693981170654 81.3426179659456 26.20226905713838
v 54.59398627281189 77.10745149901601 25.24680133092056
v 50.90986490249634 77.00022450864792 -0.5011987593162226
v 43.2026743888855 76.32080728229721 -47.901037848705805
v 37.940043210983276 75.32113057504083 -44.99172305342195
v 23.28200340270996 75.23963105579793 -57.81048570017089
v 27.17970311641693 74.49497114256901 -65.20461461670764
v 43.2026743888855 76.32080728229721 -47.901037848705805
v 27.17970311641693 74.49497114256901 -65.20461461670764
v 30.33904731273651 78.87674036518351 -69.33508608330463
v 44.77299749851227 80.74406780184832 -48.93976871384717
v 43.2026743888855 76.32080728229721 -47.901037848705805
v 44.77299749851227 80.74406780184832 -48.93976871384717
v 57.437825202941895 82.70467064256017 -27.95865691073365
v 51.034605503082275 79.1714327756973 -26.082477951268885
v 43.2026743888855 76.32080728229721 -47.901037848705805
v 51.034605503082275 79.1714327756973 -26.082477951268885
v 49.92783069610596 75.61305928775697 -26.307785909019483
v 37.940043210983276 75.32113057504083 -44.99172305342195
v -49.044063687324524 83.78044391213544 1.4962356946332
v -45.27272880077362 79.35255796745844 1.892375870123947
v -45.05888521671295 79.08660623130802 27.603276600134937
v -48.59997034072876 83.39909777667411 28.39160394910799
v -49.044063687324524 83.78044391213544 1.4962356946332
v -48.59997034072876 83.39909777667411 28.39160394910799
v -52.09652781486511 86.34096858388041 29.114741921392653
v -53.16455960273743 86.85413025483736 1.3820020539637805
v -49.044063687324524 83.78044391213544 1.4962356946332
v -53.16455960273743 86.85413025483736 1.3820020539637805
v -52.179932594299316 86.58664375401933 -27.44751195145149
v -44.709861278533936 83.87445984877634 -25.69508130900382
v -49.044063687324524 83.78044391213544 1.4962356946332
v -44.709861278533936 83.87445984877634 -25.69508130900382
v -44.016867876052856 79.12742098738657 -24.355309682093555
v -45.27272880077362 79.35255796745844 1.892375870123947
v -63.07721138000488 20.38802235117692 1.7555397315197965
v -66.3225531578064 20.73309639199808 31.65243824297744
v -60.97717881202698 37.09068791752316 30.28543583261854
v -62.20969557762146 36.58822203844355 1.5347112896374533
v -63.07721138000488 20.38802235117692 1.7555397315197965
v -62.20969557762146 36.58822203844355 1.5347112896374533
v -55.002206563949585 36.278762223190064 -25.59817726390137
v -61.06954216957092 19.899915212136058 -27.111116313550053
v -63.07721138000488 20.38802235117692 1.7555397315197965
v -61.06954216957092 19.899915212136058 -27.111116313550053
v -52.93409824371338 0.7187738230080017 -27.920353529732033
v -55.943864583969116 0.2617790481762876 8.647074507741253
v -63.07721138000488 20.38802235117692 1.7555397315197965
v -55.943864583969116 0.2617790481762876 8.647074507741253
v -60.39351224899292 6.112819177631724 32.089521485060864
v -66.3225531578064 20.73309639199808 31.65243824297744
v 43.957990407943726 23.108479262701074 -55.60131449483106
v 27.83733308315277 23.933136529136352 -72.76521715031866
v 26.679491996765137 41.29918263283634 -70.36972718747708
v 44.3860799074173 39.5442575609285 -54.63639545968381
v 43.957990407943726 23.108479262701074 -55.60131449483106
v 44.3860799074173 39.5442575609285 -54.63639545968381
v 47.00154662132263 37.579680667338295 -29.353320760645655
v 55.272430181503296 21.087706799811958 -32.22226248027157
v 43.957990407943726 23.108479262701074 -55.60131449483106
v 55.272430181503296 21.087706799811958 -32.22226248027157
v 42.40370690822601 3.76235331624709 -31.369871514073775
v 37.235987186431885 3.355153336942977 -61.372548888376585
v 43.957990407943726 23.108479262701074 -55.60131449483106
v 37.235987186431885 3.355153336942977 -61.372548888376585
v 21.960434317588806 9.42821514888424 -72.42113505427213
v 27.83733308315277 23.933136529136352 -72.76521715031866
v 60.87160110473633 36.04903168602384 -3.224150749136039
v 61.340153217315674 35.71500607894597 26.131901286733545
v 51.90914273262024 34.38172737299514 24.361938597114708
v 52.65490412712097 35.23702572692657 -2.993321571666965
v 60.87160110473633 36.04903168602384 -3.224150749136039
v 52.65490412712097 35.23702572692657 -2.993321571666965
v 47.00154662132263 37.579680667338295 -29.353320760645655
v 53.013163805007935 39.16500310841663 -30.442232313864626
v 60.87160110473633 36.04903168602384 -3.224150749136039
v 53.013163805007935 39.16500310841663 -30.442232313864626
v 60.62478423118591 42.508644681772054 -31.575358879044526
v 64.57633972167969 41.96716805846789 -2.4053960493914386
v 60.87160110473633 36.04903168602384 -3.224150749136039
v 64.57633972167969 41.96716805846789 -2.4053960493914386
v 63.21067810058594 42.273412579178874 27.035628822550247
v 61.340153217315674 35.71500607894597 26.131901286733545
v -55.343639850616455 40.108785218009906 -53.74341664502555
v -38.538023829460144 40.2604758177152 -73.51529658116233
v -36.92069053649902 35.76368157392572 -69.24787150352498
v -48.85682463645935 35.561225791366844 -48.904537987797895
v -55.343639850616455 40.108785218009906 -53.74341664502555
v -48.85682463645935 35.561225791366844 -48.904537987797895
v -55.002206563949585 36.278762223190064 -25.59817726390137
v -60.9353244304657 40.31555804777758 -27.245602619454903
v -55.343639850616455 40.108785218009906 -53.74341664502555
v -60.9353244304657 40.31555804777758 -27.245602619454903
v -58.96857976913452 46.87819031206483 -27.601753362105327
v -53.19761633872986 47.43362074385292 -54.55504236537028
v -55.343639850616455 40.108785218009906 -53.74341664502555
v -53.19761633872986 47.43362074385292 -54.55504236537028
v -37.04306185245514 47.686642438368274 -72.98602642682638
v -38.538023829460144 40.2604758177152 -73.51529658116233
v -1.0109285824000835 -3.6264609911300303 29.500824803854222
v 48.850664496421814 2.2648102837925914 4.145164791314031
v 58.52392911911011 4.846207719211697 26.958104178524252
v 43.58572959899902 2.332540554070172 50.01339874412775
v -1.0109285824000835 -3.6264609911300303 29.500824803854222
v 43.58572959899902 2.332540554070172 50.01339874412775
v 29.4099360704422 6.667118709540827 69.7631944284693
v 1.1196122504770756 3.136986455223377 72.93173619660935
v -1.0109285824000835 -3.6264609911300303 29.500824803854222
v 1.1196122504770756 3.136986455223377 72.93173619660935
v -29.19290065765381 5.8923247711592115 75.15593671168182
v -44.49417293071747 2.501037575107414 54.007500002610655
v -1.0109285824000835 -3.6264609911300303 29.500824803854222
v -44.49417293071747 2.501037575107414 54.007500002610655
v -60.39351224899292 6.112819177631724 32.089521485060864
v -55.943864583969116 0.2617790481762876 8.647074507741253
v -1.0109285824000835 -3.6264609911300303 29.500824803854222
v -55.943864583969116 0.2617790481762876 8.647074507741253
v -52.93409824371338 0.7187738230080017 -27.920353529732033
v -3.148423507809639 -2.8651575514733816 -24.55410612633926
v -1.0109285824000835 -3.6264609911300303 29.500824803854222
v -3.148423507809639 -2.8651575514733816 -24.55410612633926
v 42.40370690822601 3.76235331624709 -31.369871514073775
v 48.850664496421814 2.2648102837925914 4.145164791314031
v -44.32938098907471 98.76419935782869 2.0829011897648884
v -53.16455960273743 86.85413025483736 1.3820020539637805
v -52.09652781486511 86.34096858388041 29.114741921392653
v -44.31471228599548 98.67990454762952 26.87353374199636
v -44.32938098907471 98.76419935782869 2.0829011897648884
v -44.31471228599548 98.67990454762952 26.87353374199636
v -26.848378777503967 113.7776533670814 24.333682000949782
v -27.52474844455719 113.72303999909627 2.283430570633093
v -44.32938098907471 98.76419935782869 2.0829011897648884
v -27.52474844455719 113.72303999909627 2.283430570633093
v -26.087990403175354 112.49127075852829 -19.159505216993796
v -42.581698298454285 98.88772589239375 -23.03197057815257
v -44.32938098907471 98.76419935782869 2.0829011897648884
v -42.581698298454285 98.88772589239375 -23.03197057815257
v -52.179932594299316 86.58664375401933 -27.44751195145149
v -53.16455960273743 86.85413025483736 1.3820020539637805
v 2.0793287083506584 117.15038441927909 -35.16365708194091
v 1.0450446046888828 110.71218648202687 -48.862582601057014
v -17.470239102840424 106.17080184149944 -45.58939279333089
v -26.00584328174591 113.07863603252405 -35.962030833012896
v 2.0793287083506584 117.15038441927909 -35.16365708194091
v -26.00584328174591 113.07863603252405 -35.962030833012896
v -26.087990403175354 112.49127075852829 -19.159505216993796
v 3.045554831624031 116.52674356582281 -19.543610126317343
v 2.0793287083506584 117.15038441927909 -35.16365708194091
v 3.045554831624031 116.52674356582281 -19.543610126317343
v 30.37363886833191 111.54863471543183 -22.270851129417053
v 28.255799412727356 111.39118028354137 -39.470950035554324
v 2.0793287083506584 117.15038441927909 -35.16365708194091
v 28.255799412727356 111.39118028354137 -39.470950035554324
v 20.508848130702972 106.66702168521338 -50.16198703997748
v 1.0450446046888828 110.71218648202687 -48.862582601057014
v -43.785375356674194 63.48482758438223 -49.35109755555503
v -30.86768090724945 63.494671509180414 -66.30731663426955
v -37.04306185245514 47.686642438368274 -72.98602642682638
v -53.19761633872986 47.43362074385292 -54.55504236537028
v -43.785375356674194 63.48482758438223 -49.35109755555503
v -53.19761633872986 47.43362074385292 -54.55504236537028
v -58.96857976913452 46.87819031206483 -27.601753362105327
v -52.242887020111084 63.84545737015918 -26.005427510281667
v -43.785375356674194 63.48482758438223 -49.35109755555503
v -52.242887020111084 63.84545737015918 -26.005427510281667
v -44.016867876052856 79.12742098738657 -24.355309682093555
v -37.33782768249512 79.07362430636834 -45.77130473472708
v -43.785375356674194 63.48482758438223 -49.35109755555503
v -37.33782768249512 79.07362430636834 -45.77130473472708
v -27.94356942176819 77.68131632079928 -64.72691371027678
v -30.86768090724945 63.494671509180414 -66.30731663426955
v 41.586896777153015 95.59115622921529 -45.457956867493635
v 44.77299749851227 80.74406780184832 -48.93976871384717
v 30.33904731273651 78.87674036518351 -69.33508608330463
v 27.151069045066833 94.49994201586908 -58.83330454241954
v 41.586896777153015 95.59115622921529 -45.457956867493635
v 27.151069045066833 94.49994201586908 -58.83330454241954
v 20.508848130702972 106.66702168521338 -50.16198703997748
v 28.255799412727356 111.39118028354137 -39.470950035554324
v 41.586896777153015 95.59115622921529 -45.457956867493635
v 28.255799412727356 111.39118028354137 -39.470950035554324
v 30.37363886833191 111.54863471543183 -22.270851129417053
v 46.98805212974548 97.2413141274406 -25.15593861312169
v 41.586896777153015 95.59115622921529 -45.457956867493635
v 46.98805212974548 97.2413141274406 -25.15593861312169
v 57.437825202941895 82.70467064256017 -27.95865691073365
v 44.77299749851227 80.74406780184832 -48.93976871384717
v 61.78578734397888 60.52011816308934 -1.9142603381272023
v 63.58773708343506 60.80413894245351 26.608880388777845
v 63.21067810058594 42.273412579178874 27.035628822550247
v 64.57633972167969 41.96716805846789 -2.4053960493914386
v 61.78578734397888 60.52011816308934 -1.9142603381272023
v 64.57633972167969 41.96716805846789 -2.4053960493914386
v 60.62478423118591 42.508644681772054 -31.575358879044526
v 54.84223961830139 60.60592064733837 -28.690294364543778
v 61.78578734397888 60.52011816308934 -1.9142603381272023
v 54.84223961830139 60.60592064733837 -28.690294364543778
v 49.92783069610596 75.61305928775697 -26.307785909019483
v 50.90986490249634 77.00022450864792 -0.5011987593162226
v 61.78578734397888 60.52011816308934 -1.9142603381272023
v 50.90986490249634 77.00022450864792 -0.5011987593162226
v 54.59398627281189 77.10745149901601 25.24680133092056
v 63.58773708343506 60.80413894245351 26.608880388777845
f 1 2 3
f 1 3 4
f 5 6 7
f 5 7 8
f 9 10 11
f 9 11 12
f 13 14 15
f 13 15 16
f 17 18 19
f 17 19 20
f 21 22 23
f 21 23 24
f 25 26 27
f 25 27 28
f 29 30 31
f 29 31 32
f 33 34 35
f 33 35 36
f 37 38 39
f 37 39 40
f 41 42 43
f 41 43 44
f 45 46 47
f 45 47 48
f 49 50 51
f 49 51 52
f 53 54 55
f 53 55 56
f 57 58 59
f 57 59 60
f 61 62 63
f 61 63 64
f 65 66 67
f 65 67 68
f 69 70 71
f 69 71 72
f 73 74 75
f 73 75 76
f 77 78 79
f 77 79 80
f 81 82 83
f 81 83 84
f 85 86 87
f 85 87 88
f 89 90 91
f 89 91 92
f 93 94 95
f 93 95 96
f 97 98 99
f 97 99 100
f 101 102 103
f 101 103 104
f 105 106 107
f 105 107 108
f 109 110 111
f 109 111 112
f 113 114 115
f 113 115 116
f 117 118 119
f 117 119 120
f 121 122 123
f 121 123 124
f 125 126 127
f 125 127 128
f 129 130 131
f 129 131 132
f 133 134 135
f 133 135 136
f 137 138 139
f 137 139 140
f 141 142 143
f 141 143 144
f 145 146 147
f 145 147 148
f 149 150 151
f 149 151 152
f 153 154 155
f 153 155 156
f 157 158 159
f 157 159 160
f 161 162 163
f 161 163 164
f 165 166 167
f 165 167 168
f 169 170 171
f 169 171 172
f 173 174 175
f 173 175 176
f 177 178 179
f 177 179 180
f 181 182 183
f 181 183 184
f 185 186 187
f 185 187 188
f 189 190 191
f 189 191 192
f 193 194 195
f 193 195 196
f 197 198 199
f 197 199 200
f 201 202 203
f 201 203 204
f 205 206 207
f 205 207 208
f 209 210 211
f 209 211 212
f 213 214 215
f 213 215 216
f 217 218 219
f 217 219 220
f 221 222 223
f 221 223 224
f 225 226 227
f 225 227 228
f 229 230 231
f 229 231 232
f 233 234 235
f 233 235 236
f 237 238 239
f 237 239 240
f 241 242 243
f 241 243 244
f 245 246 247
f 245 247 248
f 249 250 251
f 249 251 252
f 253 254 255
f 253 255 256
f 257 258 259
f 257 259 260
f 261 262 263
f 261 263 264
f 265 266 267
f 265 267 268
f 269 270 271
f 269 271 272
f 273 274 275
f 273 275 276
f 277 278 279
f 277 279 280
f 281 282 283
f 281 283 284
f 285 286 287
f 285 287 288
f 289 290 291
f 289 291 292
f 293 294 295
f 293 295 296
f 297 298 299
f 297 299 300
f 301 302 303
f 301 303 304
f 305 306 307
f 305 307 308
f 309 310 311
f 309 311 312
f 313 314 315
f 313 315 316
f 317 318 319
f 317 319 320
f 321 322 323
f 321 323 324
f 325 326 327
f 325 327 328
f 329 330 331
f 329 331 332
f 333 334 335
f 333 335 336
f 337 338 339
f 337 339 340
f 341 342 343
f 341 343 344
f 345 346 347
f 345 347 348
f 349 350 351
f 349 351 352
f 353 354 355
f 353 355 356
f 357 358 359
f 357 359 360
f 361 362 363
f 361 363 364
f 365 366 367
f 365 367 368
f 369 370 371
f 369 371 372
f 373 374 375
f 373 375 376
f 377 378 379
f 377 379 380
f 381 382 383
f 381 383 384
f 385 386 387
f 385 387 388
f 389 390 391
f 389 391 392
f 393 394 395
f 393 395 396
f 397 398 399
f 397 399 400
f 401 402 403
f 401 403 404
f 405 406 407
f 405 407 408
f 409 410 411
f 409 411 412
f 413 414 415
f 413 415 416
f 417 418 419
f 417 419 420
f 421 422 423
f 421 423 424
f 425 426 427
f 425 427 428
f 429 430 431
f 429 431 432
f 433 434 435
f 433 435 436
f 437 438 439
f 437 439 440
f 441 442 443
f 441 443 444
f 445 446 447
f 445 447 448
f 449 450 451
f 449 451 452
f 453 454 455
f 453 455 456
f 457 458 459
f 457 459 460
f 461 462 463
f 461 463 464
f 465 466 467
f 465 467 468
f 469 470 471
f 469 471 472
f 473 474 475
f 473 475 476
f 477 478 479
f 477 479 480
f 481 482 483
f 481 483 484
f 485 486 487
f 485 487 488
f 489 490 491
f 489 491 492
f 493 494 495
f 493 495 496
f 497 498 499
f 497 499 500
f 501 502 503
f 501 503 504
f 505 506 507
f 505 507 508
f 509 510 511
f 509 511 512
f 513 514 515
f 513 515 516
f 517 518 519
f 517 519 520
f 521 522 523
f 521 523 524
f 525 526 527
f 525 527 528
f 529 530 531
f 529 531 532
f 533 534 535
f 533 535 536
f 537 538 539
f 537 539 540
f 541 542 543
f 541 543 544
f 545 546 547
f 545 547 548
f 549 550 551
f 549 551 552
f 553 554 555
f 553 555 556
f 557 558 559
f 557 559 560
f 561 562 563
f 561 563 564
f 565 566 567
f 565 567 568
f 569 570 571
f 569 571 572
f 573 574 575
f 573 575 576
f 577 578 579
f 577 579 580
f 581 582 583
f 581 583 584
f 585 586 587
f 585 587 588
f 589 590 591
f 589 591 592
f 593 594 595
f 593 595 596
f 597 598 599
f 597 599 600
f 601 602 603
f 601 603 604
f 605 606 607
f 605 607 608
f 609 610 611
f 609 611 612
f 613 614 615
f 613 615 616
f 617 618 619
f 617 619 620
f 621 622 623
f 621 623 624
f 625 626 627
f 625 627 628
f 629 630 631
f 629 631 632
f 633 634 635
f 633 635 636
f 637 638 639
f 637 639 640
f 641 642 643
f 641 643 644
f 645 646 647
f 645 647 648
f 649 650 651
f 649 651 652
f 653 654 655
f 653 655 656
f 657 658 659
f 657 659 660
f 661 662 663
f 661 663 664
f 665 666 667
f 665 667 668
f 669 670 671
f 669 671 672
f 673 674 675
f 673 675 676
f 677 678 679
f 677 679 680
f 681 682 683
f 681 683 684
f 685 686 687
f 685 687 688
f 689 690 691
f 689 691 692
f 693 694 695
f 693 695 696
f 697 698 699
f 697 699 700
f 701 702 703
f 701 703 704
f 705 706 707
f 705 707 708
f 709 710 711
f 709 711 712
f 713 714 715
f 713 715 716
f 717 718 719
f 717 719 720
f 721 722 723
f 721 723 724
f 725 726 727
f 725 727 728
