v -12.291859090328217 18.750245830637112 -0.23645300424611226
v -9.767531603574753 6.662451445247302 -0.18789243464754643
v -7.466568052768707 6.662452646399848 7.184729384729399
v -9.396231174468994 18.75024734221625 9.0415536611625
v -12.291859090328217 18.750245830637112 -0.23645300424611226
v -9.396231174468994 18.75024734221625 9.0415536611625
v -11.829707026481628 32.798426217690896 11.383169761314953
v -15.475255250930786 32.79842431463701 -0.29769180117551075
v -12.291859090328217 18.750245830637112 -0.23645300424611226
v -15.475255250930786 32.79842431463701 -0.29769180117551075
v -11.383175104856491 32.7984224358324 -11.829712370023167
v -9.041556715965271 18.750244338319344 -9.396234229271766
v -12.291859090328217 18.750245830637112 -0.23645300424611226
v -9.041556715965271 18.750244338319344 -9.396234229271766
v -7.1847304701805115 6.662450259400358 -7.466569138219819
v -9.767531603574753 6.662451445247302 -0.18789243464754643
v 0.2364499494433403 18.75024386656168 -12.291862145130988
v 0.18789134919643402 6.662449884525816 -9.767532689025865
v -7.1847304701805115 6.662450259400358 -7.466569138219819
v -9.041556715965271 18.750244338319344 -9.396234229271766
v 0.2364499494433403 18.75024386656168 -12.291862145130988
v -9.041556715965271 18.750244338319344 -9.396234229271766
v -11.383175104856491 32.7984224358324 -11.829712370023167
v 0.29768645763397217 32.79842184189721 -15.475260594472324
v 0.2364499494433403 18.75024386656168 -12.291862145130988
v 0.29768645763397217 32.79842184189721 -15.475260594472324
v 11.829707026481628 32.79842250858169 -11.38318044839803
v 9.396231174468994 18.750244396103145 -9.041559770768043
v 0.2364499494433403 18.75024386656168 -12.291862145130988
v 9.396231174468994 18.750244396103145 -9.041559770768043
v 7.466568052768707 6.662450305317528 -7.184731555631624
v 0.18789134919643402 6.662449884525816 -9.767532689025865
v 12.291859090328217 18.750245907682284 0.23644689464056834
v 9.767531603574753 6.662451506470075 0.1878902637453216
v 7.466568052768707 6.662450305317528 -7.184731555631624
v 9.396231174468994 18.750244396103145 -9.041559770768043
v 12.291859090328217 18.750245907682284 0.23644689464056834
v 9.396231174468994 18.750244396103145 -9.041559770768043
v 11.829707026481628 32.79842250858169 -11.38318044839803
v 15.475255250930786 32.79842441163557 0.2976811140924336
v 12.291859090328217 18.750245907682284 0.23644689464056834
v 15.475255250930786 32.79842441163557 0.2976811140924336
v 11.383175104856491 32.79842629044018 11.82970168294009
v 9.041556715965271 18.750247400000053 9.396228119666223
v 12.291859090328217 18.750245907682284 0.23644689464056834
v 9.041556715965271 18.750247400000053 9.396228119666223
v 7.1847304701805115 6.662452692317019 7.466566967317595
v 9.767531603574753 6.662451506470075 0.1878902637453216
v -0.2364499494433403 18.75024787175772 12.291856035525445
v -0.18789134919643402 6.662453067191561 9.76753051812364
v 7.1847304701805115 6.662452692317019 7.466566967317595
v 9.041556715965271 18.750247400000053 9.396228119666223
v -0.2364499494433403 18.75024787175772 12.291856035525445
v 9.041556715965271 18.750247400000053 9.396228119666223
v 11.383175104856491 32.79842629044018 11.82970168294009
v -0.29768645763397217 32.798426884375374 15.475249907389248
v -0.2364499494433403 18.75024787175772 12.291856035525445
v -0.29768645763397217 32.798426884375374 15.475249907389248
v -11.829707026481628 32.798426217690896 11.383169761314953
v -9.396231174468994 18.75024734221625 9.0415536611625
v -0.2364499494433403 18.75024787175772 12.291856035525445
v -9.396231174468994 18.75024734221625 9.0415536611625
v -7.466568052768707 6.662452646399848 7.184729384729399
v -0.18789134919643402 6.662453067191561 9.76753051812364
v 0.0 -1.072701532393694 1.7476526107980626e-07
v -6.6945672035217285 -0.5168184382169408 -0.1287787310690632
v -4.863547533750534 -0.08446568080982646 -5.054331184573622
v 0.12877881526947021 -0.5168195079196375 -6.694567119321322
v 0.0 -1.072701532393694 1.7476526107980626e-07
v 0.12877881526947021 -0.5168195079196375 -6.694567119321322
v 5.054331198334694 -0.08446564972722245 -4.863547519989462
v 6.6945672035217285 -0.516818396255477 0.12877889946987722
v 0.0 -1.072701532393694 1.7476526107980626e-07
v 6.6945672035217285 -0.516818396255477 0.12877889946987722
v 4.863547533750534 -0.08446403389969388 5.054331212095766
v -0.12877881526947021 -0.5168173265527803 6.694567287722135
v 0.0 -1.072701532393694 1.7476526107980626e-07
v -0.12877881526947021 -0.5168173265527803 6.694567287722135
v -5.054331198334694 -0.08446406498229789 4.863547547511606
v -6.6945672035217285 -0.5168184382169408 -0.1287787310690632
v 0.37473924458026886 67.69014875602815 -19.480823577716517
v 14.891663193702698 67.69014959527468 -14.329565168693234
v 15.218812227249146 55.098465679393904 -14.644362068396546
v 0.3829721361398697 55.09846482171017 -19.908787346106507
v 0.37473924458026886 67.69014875602815 -19.480823577716517
v 0.3829721361398697 55.09846482171017 -19.908787346106507
v -14.644353091716766 55.098465585802636 -15.218821203928925
v -14.32955414056778 67.69014950369548 -14.891674221828152
v 0.37473924458026886 67.69014875602815 -19.480823577716517
v -14.32955414056778 67.69014950369548 -14.891674221828152
v -13.054929673671722 80.08634227016327 -13.567052418258355
v 0.3414057195186615 80.08634158900153 -17.747993403937983
v 0.37473924458026886 67.69014875602815 -19.480823577716517
v 0.3414057195186615 80.08634158900153 -17.747993403937983
v 13.567039370536804 80.08634235359654 -13.054942721393273
v 14.891663193702698 67.69014959527468 -14.329565168693234
v 15.448245406150818 90.40715699268958 0.29715242297105016
v 11.363309621810913 90.40715886821496 11.809045248336117
v 13.054929673671722 80.08634669086578 13.567026322815254
v 17.74798035621643 80.08634453613658 0.34139267179711047
v 15.448245406150818 90.40715699268958 0.29715242297105016
v 17.74798035621643 80.08634453613658 0.34139267179711047
v 13.567039370536804 80.08634235359654 -13.054942721393273
v 11.809059232473373 90.40715509295704 -11.36332286089011
v 15.448245406150818 90.40715699268958 0.29715242297105016
v 11.809059232473373 90.40715509295704 -11.36332286089011
v 8.162367343902588 95.56445351430763 -7.854282034136015
v 10.294589400291443 97.36949208624877 0.19801404950453924
v 15.448245406150818 90.40715699268958 0.29715242297105016
v 10.294589400291443 97.36949208624877 0.19801404950453924
v 7.854266464710236 95.56445612374847 8.162351774476809
v 11.363309621810913 90.40715886821496 11.809045248336117
v 19.480812549591064 67.69015199090812 0.3747282164548143
v 14.32955414056778 67.69015435601521 14.891652165577243
v 14.644353091716766 55.098470544721046 15.218803250569366
v 19.908778369426727 55.09846812765592 0.382963159460089
v 19.480812549591064 67.69015199090812 0.3747282164548143
v 19.908778369426727 55.09846812765592 0.382963159460089
v 15.218812227249146 55.098465679393904 -14.644362068396546
v 14.891663193702698 67.69014959527468 -14.329565168693234
v 19.480812549591064 67.69015199090812 0.3747282164548143
v 14.891663193702698 67.69014959527468 -14.329565168693234
v 13.567039370536804 80.08634235359654 -13.054942721393273
v 17.74798035621643 80.08634453613658 0.34139267179711047
v 19.480812549591064 67.69015199090812 0.3747282164548143
v 17.74798035621643 80.08634453613658 0.34139267179711047
v 13.054929673671722 80.08634669086578 13.567026322815254
v 14.32955414056778 67.69015435601521 14.891652165577243
v -19.480812549591064 67.69015186880257 -0.3747502727057234
v -14.32955414056778 67.69014950369548 -14.891674221828152
v -14.644353091716766 55.098465585802636 -15.218821203928925
v -19.908778369426727 55.09846800286776 -0.38298111281965036
v -19.480812549591064 67.69015186880257 -0.3747502727057234
v -19.908778369426727 55.09846800286776 -0.38298111281965036
v -15.218812227249146 55.09847045112978 14.644344115036986
v -14.891663193702698 67.69015426443602 14.329543112442325
v -19.480812549591064 67.69015186880257 -0.3747502727057234
v -14.891663193702698 67.69015426443602 14.329543112442325
v -13.567039370536804 80.08634660743252 13.054916625950172
v -17.74798035621643 80.08634442489247 -0.34141876724021253
v -19.480812549591064 67.69015186880257 -0.3747502727057234
v -17.74798035621643 80.08634442489247 -0.34141876724021253
v -13.054929673671722 80.08634227016327 -13.567052418258355
v -14.32955414056778 67.69014950369548 -14.891674221828152
v -0.37473924458026886 67.69015510368254 19.48080152146561
v -14.891663193702698 67.69015426443602 14.329543112442325
v -15.218812227249146 55.09847045112978 14.644344115036986
v -0.3829721361398697 55.098471308813515 19.908769392746947
v -0.37473924458026886 67.69015510368254 19.48080152146561
v -0.3829721361398697 55.098471308813515 19.908769392746947
v 14.644353091716766 55.098470544721046 15.218803250569366
v 14.32955414056778 67.69015435601521 14.891652165577243
v -0.37473924458026886 67.69015510368254 19.48080152146561
v 14.32955414056778 67.69015435601521 14.891652165577243
v 13.054929673671722 80.08634669086578 13.567026322815254
v -0.3414057195186615 80.08634737202752 17.74796730849488
v -0.37473924458026886 67.69015510368254 19.48080152146561
v -0.3414057195186615 80.08634737202752 17.74796730849488
v -13.567039370536804 80.08634660743252 13.054916625950172
v -14.891663193702698 67.69015426443602 14.329543112442325
v -4.5749209975909366e-08 99.69027638435367 -1.608280643610588e-05
v 10.294589400291443 97.36949208624877 0.19801404950453924
v 8.162367343902588 95.56445351430763 -7.854282034136015
v 0.19802991300821304 97.36949037678411 -10.294605263795116
v -4.5749209975909366e-08 99.69027638435367 -1.608280643610588e-05
v 0.19802991300821304 97.36949037678411 -10.294605263795116
v -7.854266464710236 95.56445346411164 -8.162382913328367
v -10.294589400291443 97.36949202172242 -0.19804577651188685
v -4.5749209975909366e-08 99.69027638435367 -1.608280643610588e-05
v -10.294589400291443 97.36949202172242 -0.19804577651188685
v -8.162367343902588 95.56445607355248 7.854250895284456
v -0.19802991300821304 97.36949373118708 10.29457353678777
v -4.5749209975909366e-08 99.69027638435367 -1.608280643610588e-05
v -0.19802991300821304 97.36949373118708 10.29457353678777
v 7.854266464710236 95.56445612374847 8.162351774476809
v 10.294589400291443 97.36949208624877 0.19801404950453924
v -15.448245406150818 90.40715689586023 -0.297181881361683
v -11.363309621810913 90.40715502033484 -11.809074706726749
v -13.054929673671722 80.08634227016327 -13.567052418258355
v -17.74798035621643 80.08634442489247 -0.34141876724021253
v -15.448245406150818 90.40715689586023 -0.297181881361683
v -17.74798035621643 80.08634442489247 -0.34141876724021253
v -13.567039370536804 80.08634660743252 13.054916625950172
v -11.809059232473373 90.40715879559276 11.363293402499478
v -15.448245406150818 90.40715689586023 -0.297181881361683
v -11.809059232473373 90.40715879559276 11.363293402499478
v -8.162367343902588 95.56445607355248 7.854250895284456
v -10.294589400291443 97.36949202172242 -0.19804577651188685
v -15.448245406150818 90.40715689586023 -0.297181881361683
v -10.294589400291443 97.36949202172242 -0.19804577651188685
v -7.854266464710236 95.56445346411164 -8.162382913328367
v -11.363309621810913 90.40715502033484 -11.809074706726749
v -0.2971671521663666 90.40715946111352 15.448230676955502
v -11.809059232473373 90.40715879559276 11.363293402499478
v -13.567039370536804 80.08634660743252 13.054916625950172
v -0.3414057195186615 80.08634737202752 17.74796730849488
v -0.2971671521663666 90.40715946111352 15.448230676955502
v -0.3414057195186615 80.08634737202752 17.74796730849488
v 13.054929673671722 80.08634669086578 13.567026322815254
v 11.363309621810913 90.40715886821496 11.809045248336117
v -0.2971671521663666 90.40715946111352 15.448230676955502
v 11.363309621810913 90.40715886821496 11.809045248336117
v 7.854266464710236 95.56445612374847 8.162351774476809
v -0.19802991300821304 97.36949373118708 10.29457353678777
v -0.2971671521663666 90.40715946111352 15.448230676955502
v -0.19802991300821304 97.36949373118708 10.29457353678777
v -8.162367343902588 95.56445607355248 7.854250895284456
v -11.809059232473373 90.40715879559276 11.363293402499478
v 0.2971671521663666 90.40715442743628 -15.448260135346134
v 11.809059232473373 90.40715509295704 -11.36332286089011
v 13.567039370536804 80.08634235359654 -13.054942721393273
v 0.3414057195186615 80.08634158900153 -17.747993403937983
v 0.2971671521663666 90.40715442743628 -15.448260135346134
v 0.3414057195186615 80.08634158900153 -17.747993403937983
v -13.054929673671722 80.08634227016327 -13.567052418258355
v -11.363309621810913 90.40715502033484 -11.809074706726749
v 0.2971671521663666 90.40715442743628 -15.448260135346134
v -11.363309621810913 90.40715502033484 -11.809074706726749
v -7.854266464710236 95.56445346411164 -8.162382913328367
v 0.19802991300821304 97.36949037678411 -10.294605263795116
v 0.2971671521663666 90.40715442743628 -15.448260135346134
v 0.19802991300821304 97.36949037678411 -10.294605263795116
v 8.162367343902588 95.56445351430763 -7.854282034136015
v 11.809059232473373 90.40715509295704 -11.36332286089011
v -0.17170514911413193 1.1508324756131154 8.926089665554155
v -0.12877881526947021 -0.5168173265527803 6.694567287722135
v 4.863547533750534 -0.08446403389969388 5.054331212095766
v 6.565788388252258 1.150832133032664 6.823345831297028
v -0.17170514911413193 1.1508324756131154 8.926089665554155
v 6.565788388252258 1.150832133032664 6.823345831297028
v 7.1847304701805115 6.662452692317019 7.466566967317595
v -0.18789134919643402 6.662453067191561 9.76753051812364
v -0.17170514911413193 1.1508324756131154 8.926089665554155
v -0.18789134919643402 6.662453067191561 9.76753051812364
v -7.466568052768707 6.662452646399848 7.184729384729399
v -6.823346018791199 1.1508320910712002 6.565788200758088
v -0.17170514911413193 1.1508324756131154 8.926089665554155
v -6.823346018791199 1.1508320910712002 6.565788200758088
v -5.054331198334694 -0.08446406498229789 4.863547547511606
v -0.12877881526947021 -0.5168173265527803 6.694567287722135
v 8.926089853048325 1.1508310493428229 0.17170496161996152
v 6.6945672035217285 -0.516818396255477 0.12877889946987722
v 5.054331198334694 -0.08446564972722245 -4.863547519989462
v 6.823346018791199 1.150829951665807 -6.565788575746429
v 8.926089853048325 1.1508310493428229 0.17170496161996152
v 6.823346018791199 1.150829951665807 -6.565788575746429
v 7.466568052768707 6.662450305317528 -7.184731555631624
v 9.767531603574753 6.662451506470075 0.1878902637453216
v 8.926089853048325 1.1508310493428229 0.17170496161996152
v 9.767531603574753 6.662451506470075 0.1878902637453216
v 7.1847304701805115 6.662452692317019 7.466566967317595
v 6.565788388252258 1.150832133032664 6.823345831297028
v 8.926089853048325 1.1508310493428229 0.17170496161996152
v 6.565788388252258 1.150832133032664 6.823345831297028
v 4.863547533750534 -0.08446403389969388 5.054331212095766
v 6.6945672035217285 -0.516818396255477 0.12877889946987722
v 0.17170514911413193 1.1508295671238917 -8.926090040542494
v 0.12877881526947021 -0.5168195079196375 -6.694567119321322
v -4.863547533750534 -0.08446568080982646 -5.054331184573622
v -6.565788388252258 1.150829909704343 -6.823346206285369
v 0.17170514911413193 1.1508295671238917 -8.926090040542494
v -6.565788388252258 1.150829909704343 -6.823346206285369
v -7.1847304701805115 6.662450259400358 -7.466569138219819
v 0.18789134919643402 6.662449884525816 -9.767532689025865
v 0.17170514911413193 1.1508295671238917 -8.926090040542494
v 0.18789134919643402 6.662449884525816 -9.767532689025865
v 7.466568052768707 6.662450305317528 -7.184731555631624
v 6.823346018791199 1.150829951665807 -6.565788575746429
v 0.17170514911413193 1.1508295671238917 -8.926090040542494
v 6.823346018791199 1.150829951665807 -6.565788575746429
v 5.054331198334694 -0.08446564972722245 -4.863547519989462
v 0.12877881526947021 -0.5168195079196375 -6.694567119321322
v -8.926089853048325 1.1508309933941843 -0.17170533660830234
v -6.6945672035217285 -0.5168184382169408 -0.1287787310690632
v -5.054331198334694 -0.08446406498229789 4.863547547511606
v -6.823346018791199 1.1508320910712002 6.565788200758088
v -8.926089853048325 1.1508309933941843 -0.17170533660830234
v -6.823346018791199 1.1508320910712002 6.565788200758088
v -7.466568052768707 6.662452646399848 7.184729384729399
v -9.767531603574753 6.662451445247302 -0.18789243464754643
v -8.926089853048325 1.1508309933941843 -0.17170533660830234
v -9.767531603574753 6.662451445247302 -0.18789243464754643
v -7.1847304701805115 6.662450259400358 -7.466569138219819
v -6.565788388252258 1.150829909704343 -6.823346206285369
v -8.926089853048325 1.1508309933941843 -0.17170533660830234
v -6.565788388252258 1.150829909704343 -6.823346206285369
v -4.863547533750534 -0.08446568080982646 -5.054331184573622
v -6.6945672035217285 -0.5168184382169408 -0.1287787310690632
v -0.3519076853990555 44.19119954131586 18.29390252886736
v -13.98436427116394 44.1911987532022 13.456495357141131
v -11.829707026481628 32.798426217690896 11.383169761314953
v -0.29768645763397217 32.798426884375374 15.475249907389248
v -0.3519076853990555 44.19119954131586 18.29390252886736
v -0.29768645763397217 32.798426884375374 15.475249907389248
v 11.383175104856491 32.79842629044018 11.82970168294009
v 13.456502556800842 44.19119883920179 13.98435707150423
v -0.3519076853990555 44.19119954131586 18.29390252886736
v 13.456502556800842 44.19119883920179 13.98435707150423
v 14.644353091716766 55.098470544721046 15.218803250569366
v -0.3829721361398697 55.098471308813515 19.908769392746947
v -0.3519076853990555 44.19119954131586 18.29390252886736
v -0.3829721361398697 55.098471308813515 19.908769392746947
v -15.218812227249146 55.09847045112978 14.644344115036986
v -13.98436427116394 44.1911987532022 13.456495357141131
v -18.29390972852707 44.19119650352664 -0.35191488505876617
v -13.456502556800842 44.19119428251757 -13.984371470823652
v -11.383175104856491 32.7984224358324 -11.829712370023167
v -15.475255250930786 32.79842431463701 -0.29769180117551075
v -18.29390972852707 44.19119650352664 -0.35191488505876617
v -15.475255250930786 32.79842431463701 -0.29769180117551075
v -11.829707026481628 32.798426217690896 11.383169761314953
v -13.98436427116394 44.1911987532022 13.456495357141131
v -18.29390972852707 44.19119650352664 -0.35191488505876617
v -13.98436427116394 44.1911987532022 13.456495357141131
v -15.218812227249146 55.09847045112978 14.644344115036986
v -19.908778369426727 55.09846800286776 -0.38298111281965036
v -18.29390972852707 44.19119650352664 -0.35191488505876617
v -19.908778369426727 55.09846800286776 -0.38298111281965036
v -14.644353091716766 55.098465585802636 -15.218821203928925
v -13.456502556800842 44.19119428251757 -13.984371470823652
v 18.29390972852707 44.19119661819272 0.3519004857393448
v 13.456502556800842 44.19119883920179 13.98435707150423
v 11.383175104856491 32.79842629044018 11.82970168294009
v 15.475255250930786 32.79842441163557 0.2976811140924336
v 18.29390972852707 44.19119661819272 0.3519004857393448
v 15.475255250930786 32.79842441163557 0.2976811140924336
v 11.829707026481628 32.79842250858169 -11.38318044839803
v 13.98436427116394 44.19119436851716 -13.456509756460553
v 18.29390972852707 44.19119661819272 0.3519004857393448
v 13.98436427116394 44.19119436851716 -13.456509756460553
v 15.218812227249146 55.098465679393904 -14.644362068396546
v 19.908778369426727 55.09846812765592 0.382963159460089
v 18.29390972852707 44.19119661819272 0.3519004857393448
v 19.908778369426727 55.09846812765592 0.382963159460089
v 14.644353091716766 55.098470544721046 15.218803250569366
v 13.456502556800842 44.19119883920179 13.98435707150423
v 0.3519076853990555 44.1911935804035 -18.29391692818678
v 13.98436427116394 44.19119436851716 -13.456509756460553
v 11.829707026481628 32.79842250858169 -11.38318044839803
v 0.29768645763397217 32.79842184189721 -15.475260594472324
v 0.3519076853990555 44.1911935804035 -18.29391692818678
v 0.29768645763397217 32.79842184189721 -15.475260594472324
v -11.383175104856491 32.7984224358324 -11.829712370023167
v -13.456502556800842 44.19119428251757 -13.984371470823652
v 0.3519076853990555 44.1911935804035 -18.29391692818678
v -13.456502556800842 44.19119428251757 -13.984371470823652
v -14.644353091716766 55.098465585802636 -15.218821203928925
v 0.3829721361398697 55.09846482171017 -19.908787346106507
v 0.3519076853990555 44.1911935804035 -18.29391692818678
v 0.3829721361398697 55.09846482171017 -19.908787346106507
v 15.218812227249146 55.098465679393904 -14.644362068396546
v 13.98436427116394 44.19119436851716 -13.456509756460553
f 1 2 3
f 1 3 4
f 5 6 7
f 5 7 8
f 9 10 11
f 9 11 12
f 13 14 15
f 13 15 16
f 17 18 19
f 17 19 20
f 21 22 23
f 21 23 24
f 25 26 27
f 25 27 28
f 29 30 31
f 29 31 32
f 33 34 35
f 33 35 36
f 37 38 39
f 37 39 40
f 41 42 43
f 41 43 44
f 45 46 47
f 45 47 48
f 49 50 51
f 49 51 52
f 53 54 55
f 53 55 56
f 57 58 59
f 57 59 60
f 61 62 63
f 61 63 64
f 65 66 67
f 65 67 68
f 69 70 71
f 69 71 72
f 73 74 75
f 73 75 76
f 77 78 79
f 77 79 80
f 81 82 83
f 81 83 84
f 85 86 87
f 85 87 88
f 89 90 91
f 89 91 92
f 93 94 95
f 93 95 96
f 97 98 99
f 97 99 100
f 101 102 103
f 101 103 104
f 105 106 107
f 105 107 108
f 109 110 111
f 109 111 112
f 113 114 115
f 113 115 116
f 117 118 119
f 117 119 120
f 121 122 123
f 121 123 124
f 125 126 127
f 125 127 128
f 129 130 131
f 129 131 132
f 133 134 135
f 133 135 136
f 137 138 139
f 137 139 140
f 141 142 143
f 141 143 144
f 145 146 147
f 145 147 148
f 149 150 151
f 149 151 152
f 153 154 155
f 153 155 156
f 157 158 159
f 157 159 160
f 161 162 163
f 161 163 164
f 165 166 167
f 165 167 168
f 169 170 171
f 169 171 172
f 173 174 175
f 173 175 176
f 177 178 179
f 177 179 180
f 181 182 183
f 181 183 184
f 185 186 187
f 185 187 188
f 189 190 191
f 189 191 192
f 193 194 195
f 193 195 196
f 197 198 199
f 197 199 200
f 201 202 203
f 201 203 204
f 205 206 207
f 205 207 208
f 209 210 211
f 209 211 212
f 213 214 215
f 213 215 216
f 217 218 219
f 217 219 220
f 221 222 223
f 221 223 224
f 225 226 227
f 225 227 228
f 229 230 231
f 229 231 232
f 233 234 235
f 233 235 236
f 237 238 239
f 237 239 240
f 241 242 243
f 241 243 244
f 245 246 247
f 245 247 248
f 249 250 251
f 249 251 252
f 253 254 255
f 253 255 256
f 257 258 259
f 257 259 260
f 261 262 263
f 261 263 264
f 265 266 267
f 265 267 268
f 269 270 271
f 269 271 272
f 273 274 275
f 273 275 276
f 277 278 279
f 277 279 280
f 281 282 283
f 281 283 284
f 285 286 287
f 285 287 288
f 289 290 291
f 289 291 292
f 293 294 295
f 293 295 296
f 297 298 299
f 297 299 300
f 301 302 303
f 301 303 304
f 305 306 307
f 305 307 308
f 309 310 311
f 309 311 312
f 313 314 315
f 313 315 316
f 317 318 319
f 317 319 320
f 321 322 323
f 321 323 324
f 325 326 327
f 325 327 328
f 329 330 331
f 329 331 332
f 333 334 335
f 333 335 336
f 337 338 339
f 337 339 340
f 341 342 343
f 341 343 344
f 345 346 347
f 345 347 348
f 349 350 351
f 349 351 352
v 14.65168446302414 84.04694181490723 -1.1092252123453263
v 14.371992647647858 83.7220669441731 0.39834357248757785
v 14.312732219696045 85.25537264120311 0.7177687118510291
v 14.592425525188446 85.58024751193724 -0.789800072981875
v 14.312732219696045 85.25537264120311 0.7177687118510291
v 14.371992647647858 83.7220669441731 0.39834357248757785
v 24.81004297733307 84.65113071813236 1.7203412871584205
v 14.65168446302414 84.04694181490723 -1.1092252123453263
v 14.592425525188446 85.58024751193724 -0.789800072981875
v 24.81004297733307 84.65113071813236 1.7203412871584205
v 14.371992647647858 83.7220669441731 0.39834357248757785
v 14.65168446302414 84.04694181490723 -1.1092252123453263
v 24.81004297733307 84.65113071813236 1.7203412871584205
v 14.592425525188446 85.58024751193724 -0.789800072981875
v 14.312732219696045 85.25537264120311 0.7177687118510291
v 24.81004297733307 84.65113071813236 1.7203412871584205
v 18.659411370754242 55.2161990914739 -0.4183002367911676
v 18.659409880638123 55.24371282859435 1.0124090462505368
v 18.659411370754242 56.67443887544094 0.9848863684306418
v 18.659411370754242 56.64692513832061 -0.4458221695530031
v 18.659411370754242 56.67443887544094 0.9848863684306418
v 18.659409880638123 55.24371282859435 1.0124090462505368
v 28.24961543083191 55.945301102064015 0.28329325208716527
v 18.659411370754242 55.2161990914739 -0.4183002367911676
v 18.659411370754242 56.64692513832061 -0.4458221695530031
v 28.24961543083191 55.945301102064015 0.28329325208716527
v 18.659409880638123 55.24371282859435 1.0124090462505368
v 18.659411370754242 55.2161990914739 -0.4183002367911676
v 28.24961543083191 55.945301102064015 0.28329325208716527
v 18.659411370754242 56.64692513832061 -0.4458221695530031
v 18.659411370754242 56.67443887544094 0.9848863684306418
v 28.24961543083191 55.945301102064015 0.28329325208716527
v 15.749254822731018 40.19908629091779 1.3556044248706522
v 15.432420372962952 40.604865985440405 2.666601070014904
v 15.523168444633484 41.95360280320924 2.271065172606344
v 15.839999914169312 41.54781714822254 0.9600709489017574
v 15.523168444633484 41.95360280320924 2.271065172606344
v 15.432420372962952 40.604865985440405 2.666601070014904
v 24.81345385313034 41.10654956062053 4.021876313757435
v 15.749254822731018 40.19908629091779 1.3556044248706522
v 15.839999914169312 41.54781714822254 0.9600709489017574
v 24.81345385313034 41.10654956062053 4.021876313757435
v 15.432420372962952 40.604865985440405 2.666601070014904
v 15.749254822731018 40.19908629091779 1.3556044248706522
v 24.81345385313034 41.10654956062053 4.021876313757435
v 15.839999914169312 41.54781714822254 0.9600709489017574
v 15.523168444633484 41.95360280320924 2.271065172606344
v 24.81345385313034 41.10654956062053 4.021876313757435
v 13.469241559505463 26.764604149385182 -1.8406974915967171
v 13.039891421794891 26.475360903087914 -0.5308313588244398
v 12.990061938762665 27.853187879086782 -0.24292177752624866
v 13.419413566589355 28.14242516491945 -1.5527886553556145
v 12.990061938762665 27.853187879086782 -0.24292177752624866
v 13.039891421794891 26.475360903087914 -0.5308313588244398
v 22.213473916053772 27.031255068412108 1.841631225584364
v 13.469241559505463 26.764604149385182 -1.8406974915967171
v 13.419413566589355 28.14242516491945 -1.5527886553556145
v 22.213473916053772 27.031255068412108 1.841631225584364
v 13.039891421794891 26.475360903087914 -0.5308313588244398
v 13.469241559505463 26.764604149385182 -1.8406974915967171
v 22.213473916053772 27.031255068412108 1.841631225584364
v 13.419413566589355 28.14242516491945 -1.5527886553556145
v 12.990061938762665 27.853187879086782 -0.24292177752624866
v 22.213473916053772 27.031255068412108 1.841631225584364
v 9.500087797641754 12.12408762394602 -0.23053579118493636
v 9.707503765821457 11.853662318305838 1.1360661372380558
v 9.622010588645935 13.230264418441513 1.4214403792909287
v 9.414596855640411 13.500683018559021 0.05483761267871188
v 9.622010588645935 13.230264418441513 1.4214403792909287
v 9.707503765821457 11.853662318305838 1.1360661372380558
v 18.879838287830353 13.514734698217374 -0.6531599575622953
v 9.500087797641754 12.12408762394602 -0.23053579118493636
v 9.414596855640411 13.500683018559021 0.05483761267871188
v 18.879838287830353 13.514734698217374 -0.6531599575622953
v 9.707503765821457 11.853662318305838 1.1360661372380558
v 9.500087797641754 12.12408762394602 -0.23053579118493636
v 18.879838287830353 13.514734698217374 -0.6531599575622953
v 9.414596855640411 13.500683018559021 0.05483761267871188
v 9.622010588645935 13.230264418441513 1.4214403792909287
v 18.879838287830353 13.514734698217374 -0.6531599575622953
v 11.118202656507492 84.43967860084173 9.825601827880874
v 9.961121529340744 84.24095684192841 10.603697284432041
v 9.925292432308197 85.6170433639667 10.901838003289484
v 11.082372069358826 85.81575916241555 10.123742546739289
v 9.925292432308197 85.6170433639667 10.901838003289484
v 9.961121529340744 84.24095684192841 10.603697284432041
v 15.898442268371582 83.51952726418456 17.973907095876722
v 11.118202656507492 84.43967860084173 9.825601827880874
v 11.082372069358826 85.81575916241555 10.123742546739289
v 15.898442268371582 83.51952726418456 17.973907095876722
v 9.961121529340744 84.24095684192841 10.603697284432041
v 11.118202656507492 84.43967860084173 9.825601827880874
v 15.898442268371582 83.51952726418456 17.973907095876722
v 11.082372069358826 85.81575916241555 10.123742546739289
v 9.925292432308197 85.6170433639667 10.901838003289484
v 15.898442268371582 83.51952726418456 17.973907095876722
v 12.818001210689545 68.56421436335526 12.528295075275867
v 12.111987173557281 68.18425282296465 13.686276294482346
v 11.494838446378708 69.44971308207204 13.725224743441181
v 12.20085620880127 69.8296627015332 12.567240544004406
v 11.494838446378708 69.44971308207204 13.725224743441181
v 12.111987173557281 68.18425282296465 13.686276294482346
v 19.199535250663757 72.27661314904456 18.49372699513059
v 12.818001210689545 68.56421436335526 12.528295075275867
v 12.20085620880127 69.8296627015332 12.567240544004406
v 19.199535250663757 72.27661314904456 18.49372699513059
v 12.111987173557281 68.18425282296465 13.686276294482346
v 12.818001210689545 68.56421436335526 12.528295075275867
v 19.199535250663757 72.27661314904456 18.49372699513059
v 12.20085620880127 69.8296627015332 12.567240544004406
v 11.494838446378708 69.44971308207204 13.725224743441181
v 19.199535250663757 72.27661314904456 18.49372699513059
v 13.508908450603485 55.22767516073696 12.932637276836706
v 12.51317709684372 55.25475967355249 13.928395448274019
v 12.532331049442291 56.66297304743082 13.909241266248369
v 13.528063893318176 56.63588257415129 12.913486075044265
v 12.532331049442291 56.66297304743082 13.909241266248369
v 12.51317709684372 55.25475967355249 13.928395448274019
v 19.69529837369919 55.945304329872975 20.09544355163627
v 13.508908450603485 55.22767516073696 12.932637276836706
v 13.528063893318176 56.63588257415129 12.913486075044265
v 19.69529837369919 55.945304329872975 20.09544355163627
v 12.51317709684372 55.25475967355249 13.928395448274019
v 13.508908450603485 55.22767516073696 12.932637276836706
v 19.69529837369919 55.945304329872975 20.09544355163627
v 13.528063893318176 56.63588257415129 12.913486075044265
v 12.532331049442291 56.66297304743082 13.909241266248369
v 19.69529837369919 55.945304329872975 20.09544355163627
v 12.605278193950653 40.927224237974784 11.45878065415355
v 11.543148756027222 40.81989427092643 12.175685967488686
v 11.427924782037735 42.10047622549062 12.196694906022612
v 12.490052729845047 42.20780917277108 11.479788847628932
v 11.427924782037735 42.10047622549062 12.196694906022612
v 11.543148756027222 40.81989427092643 12.175685967488686
v 16.812990605831146 41.82805728205622 18.980850915256852
v 12.605278193950653 40.927224237974784 11.45878065415355
v 12.490052729845047 42.20780917277108 11.479788847628932
v 16.812990605831146 41.82805728205622 18.980850915256852
v 11.543148756027222 40.81989427092643 12.175685967488686
v 12.605278193950653 40.927224237974784 11.45878065415355
v 16.812990605831146 41.82805728205622 18.980850915256852
v 12.490052729845047 42.20780917277108 11.479788847628932
v 11.427924782037735 42.10047622549062 12.196694906022612
v 16.812990605831146 41.82805728205622 18.980850915256852
v 9.188589453697205 91.93504592945038 8.607833755543762
v 8.057903498411179 91.86390796236425 9.690896356302185
v 7.647357881069183 93.33973083389512 9.359220854601034
v 8.778044581413269 93.41085688005255 8.276159743960672
v 7.647357881069183 93.33973083389512 9.359220854601034
v 8.057903498411179 91.86390796236425 9.690896356302185
v 15.15173614025116 96.14221718308194 16.243564320156455
v 9.188589453697205 91.93504592945038 8.607833755543762
v 8.778044581413269 93.41085688005255 8.276159743960672
v 15.15173614025116 96.14221718308194 16.243564320156455
v 8.057903498411179 91.86390796236425 9.690896356302185
v 9.188589453697205 91.93504592945038 8.607833755543762
v 15.15173614025116 96.14221718308194 16.243564320156455
v 8.778044581413269 93.41085688005255 8.276159743960672
v 7.647357881069183 93.33973083389512 9.359220854601034
v 15.15173614025116 96.14221718308194 16.243564320156455
v 0.21678581833839417 84.15180682613276 14.60193067689003
v -1.161205768585205 83.91590955136411 14.772927500486459
v -1.3894684612751007 85.30372623114971 14.847987403548075
v -0.011475756764411926 85.53961754545413 14.676992070068737
v -1.3894684612751007 85.30372623114971 14.847987403548075
v -1.161205768585205 83.91590955136411 14.772927500486459
v 0.6271123886108398 84.42131673227203 24.080916896256692
v 0.21678581833839417 84.15180682613276 14.60193067689003
v -0.011475756764411926 85.53961754545413 14.676992070068737
v 0.6271123886108398 84.42131673227203 24.080916896256692
v -1.161205768585205 83.91590955136411 14.772927500486459
v 0.21678581833839417 84.15180682613276 14.60193067689003
v 0.6271123886108398 84.42131673227203 24.080916896256692
v -0.011475756764411926 85.53961754545413 14.676992070068737
v -1.3894684612751007 85.30372623114971 14.847987403548075
v 0.6271123886108398 84.42131673227203 24.080916896256692
v 0.3475166857242584 69.64303546012884 17.85724965577366
v -0.9381644427776337 69.6677535063223 17.85728094418509
v -0.913432240486145 70.95344953598563 17.857282224834737
v 0.3722485154867172 70.92871956886297 17.857249446309133
v -0.913432240486145 70.95344953598563 17.857282224834737
v -0.9381644427776337 69.6677535063223 17.85728094418509
v -0.28273463249206543 70.29821708002721 26.475325694680212
v 0.3475166857242584 69.64303546012884 17.85724965577366
v 0.3722485154867172 70.92871956886297 17.857249446309133
v -0.28273463249206543 70.29821708002721 26.475325694680212
v -0.9381644427776337 69.6677535063223 17.85728094418509
v 0.3475166857242584 69.64303546012884 17.85724965577366
v -0.28273463249206543 70.29821708002721 26.475325694680212
v 0.3722485154867172 70.92871956886297 17.857249446309133
v -0.913432240486145 70.95344953598563 17.857282224834737
v -0.28273463249206543 70.29821708002721 26.475325694680212
v 0.4076175391674042 55.227676099855465 18.69690561551697
v -1.000579446554184 55.25476045044723 18.69694137389124
v -0.9734895080327988 56.66297382744637 18.696942634580278
v 0.43470598757267 56.63588351639013 18.696906876206985
v -0.9734895080327988 56.66297382744637 18.696942634580278
v -1.000579446554184 55.25476045044723 18.69694137389124
v -0.28269365429878235 55.94530563988131 28.13621742019706
v 0.4076175391674042 55.227676099855465 18.69690561551697
v 0.43470598757267 56.63588351639013 18.696906876206985
v -0.28269365429878235 55.94530563988131 28.13621742019706
v -1.000579446554184 55.25476045044723 18.69694137389124
v 0.4076175391674042 55.227676099855465 18.69690561551697
v -0.28269365429878235 55.94530563988131 28.13621742019706
v 0.43470598757267 56.63588351639013 18.696906876206985
v -0.9734895080327988 56.66297382744637 18.696942634580278
v -0.28269365429878235 55.94530563988131 28.13621742019706
v -0.29477328062057495 40.86361200498029 16.517328518940957
v -1.630316860973835 40.77151991988349 16.955047163781707
v -1.7312763258814812 42.176309008001255 16.942532939741923
v -0.39573460817337036 42.26839811286655 16.504818765250015
v -1.7312763258814812 42.176309008001255 16.942532939741923
v -1.630316860973835 40.77151991988349 16.955047163781707
v 1.907358318567276 41.80973888940428 25.70142064804647
v -0.29477328062057495 40.86361200498029 16.517328518940957
v -0.39573460817337036 42.26839811286655 16.504818765250015
v 1.907358318567276 41.80973888940428 25.70142064804647
v -1.630316860973835 40.77151991988349 16.955047163781707
v -0.29477328062057495 40.86361200498029 16.517328518940957
v 1.907358318567276 41.80973888940428 25.70142064804647
v -0.39573460817337036 42.26839811286655 16.504818765250015
v -1.7312763258814812 42.176309008001255 16.942532939741923
v 1.907358318567276 41.80973888940428 25.70142064804647
v -0.27334950864315033 26.460989509757177 13.382423083348106
v -1.3580471277236938 26.314180352732752 13.770891909241614
v -1.5422850847244263 27.563434088703147 13.685715178212194
v -0.4575876519083977 27.710237285263823 13.297250822668016
v -1.5422850847244263 27.563434088703147 13.685715178212194
v -1.3580471277236938 26.314180352732752 13.770891909241614
v 1.5913642942905426 27.921310483376992 20.84714911467697
v -0.27334950864315033 26.460989509757177 13.382423083348106
v -0.4575876519083977 27.710237285263823 13.297250822668016
v 1.5913642942905426 27.921310483376992 20.84714911467697
v -1.3580471277236938 26.314180352732752 13.770891909241614
v -0.27334950864315033 26.460989509757177 13.382423083348106
v 1.5913642942905426 27.921310483376992 20.84714911467697
v -0.4575876519083977 27.710237285263823 13.297250822668016
v -1.5422850847244263 27.563434088703147 13.685715178212194
v 1.5913642942905426 27.921310483376992 20.84714911467697
v 2.5312140583992004 11.67792233333874 9.299062525039433
v 0.9641695767641068 11.708062167033788 9.299101263148135
v 0.9943146258592606 13.27511819706917 9.299103243016484
v 2.5613585487008095 13.244973147967341 9.299062269734453
v 0.9943146258592606 13.27511819706917 9.299103243016484
v 0.9641695767641068 11.708062167033788 9.299101263148135
v 1.763034611940384 12.476495899502 19.80315243585773
v 2.5312140583992004 11.67792233333874 9.299062525039433
v 2.5613585487008095 13.244973147967341 9.299062269734453
v 1.763034611940384 12.476495899502 19.80315243585773
v 0.9641695767641068 11.708062167033788 9.299101263148135
v 2.5312140583992004 11.67792233333874 9.299062525039433
v 1.763034611940384 12.476495899502 19.80315243585773
v 2.5613585487008095 13.244973147967341 9.299062269734453
v 0.9943146258592606 13.27511819706917 9.299103243016484
v 1.763034611940384 12.476495899502 19.80315243585773
v 0.8225593715906143 92.2755739349788 12.96248124707143
v -0.5382606759667397 92.07512346525262 12.659594316838325
v -0.6378442049026489 93.41058334174411 12.223218809108873
v 0.72297602891922 93.61102189054147 12.526106484401982
v -0.6378442049026489 93.41058334174411 12.223218809108873
v -0.5382606759667397 92.07512346525262 12.659594316838325
v -2.2485200315713882 95.52514304616996 21.335113876810265
v 0.8225593715906143 92.2755739349788 12.96248124707143
v 0.72297602891922 93.61102189054147 12.526106484401982
v -2.2485200315713882 95.52514304616996 21.335113876810265
v -0.5382606759667397 92.07512346525262 12.659594316838325
v 0.8225593715906143 92.2755739349788 12.96248124707143
v -2.2485200315713882 95.52514304616996 21.335113876810265
v 0.72297602891922 93.61102189054147 12.526106484401982
v -0.6378442049026489 93.41058334174411 12.223218809108873
v -2.2485200315713882 95.52514304616996 21.335113876810265
v -10.286049544811249 84.0355235058771 10.803988295856248
v -11.198914051055908 83.93518490354809 9.924332533795408
v -11.2924262881279 85.31717818635113 9.857065486778856
v -10.37956327199936 85.41750486775143 10.73672273895776
v -11.2924262881279 85.31717818635113 9.857065486778856
v -11.198914051055908 83.93518490354809 9.924332533795408
v -16.696643829345703 84.57556039244585 16.472454001006007
v -10.286049544811249 84.0355235058771 10.803988295856248
v -10.37956327199936 85.41750486775143 10.73672273895776
v -16.696643829345703 84.57556039244585 16.472454001006007
v -11.198914051055908 83.93518490354809 9.924332533795408
v -10.286049544811249 84.0355235058771 10.803988295856248
v -16.696643829345703 84.57556039244585 16.472454001006007
v -10.37956327199936 85.41750486775143 10.73672273895776
v -11.2924262881279 85.31717818635113 9.857065486778856
v -16.696643829345703 84.57556039244585 16.472454001006007
v -12.030527740716934 41.058914763691014 11.603326366627124
v -13.160642981529236 40.84785462781995 11.05875824977759
v -13.363555073738098 42.21712529799604 10.984127796029876
v -12.233437597751617 42.42817947340239 11.52869442276426
v -13.363555073738098 42.21712529799604 10.984127796029876
v -13.160642981529236 40.84785462781995 11.05875824977759
v -16.372066736221313 41.45555209427648 18.9821309856922
v -12.030527740716934 41.058914763691014 11.603326366627124
v -12.233437597751617 42.42817947340239 11.52869442276426
v -16.372066736221313 41.45555209427648 18.9821309856922
v -13.160642981529236 40.84785462781995 11.05875824977759
v -12.030527740716934 41.058914763691014 11.603326366627124
v -16.372066736221313 41.45555209427648 18.9821309856922
v -12.233437597751617 42.42817947340239 11.52869442276426
v -13.363555073738098 42.21712529799604 10.984127796029876
v -16.372066736221313 41.45555209427648 18.9821309856922
v -7.394442707300186 12.225503934941772 7.399463151893378
v -7.98807367682457 12.464385841634154 6.794737483883297
v -7.754635065793991 13.383832208593258 6.904085780217226
v -7.161005586385727 13.144947321668274 7.508809213053614
v -7.754635065793991 13.383832208593258 6.904085780217226
v -7.98807367682457 12.464385841634154 6.794737483883297
v -11.708661913871765 13.132265573349724 11.375559217027185
v -7.394442707300186 12.225503934941772 7.399463151893378
v -7.161005586385727 13.144947321668274 7.508809213053614
v -11.708661913871765 13.132265573349724 11.375559217027185
v -7.98807367682457 12.464385841634154 6.794737483883297
v -7.394442707300186 12.225503934941772 7.399463151893378
v -11.708661913871765 13.132265573349724 11.375559217027185
v -7.161005586385727 13.144947321668274 7.508809213053614
v -7.754635065793991 13.383832208593258 6.904085780217226
v -11.708661913871765 13.132265573349724 11.375559217027185
v -8.417180180549622 92.18227418388982 9.2758892794303
v -9.278260916471481 92.3685742504066 7.979594768515922
v -8.940063416957855 93.89898906935892 7.97489841822946
v -8.078986406326294 93.71268304237681 9.271187713738392
v -8.940063416957855 93.89898906935892 7.97489841822946
v -9.278260916471481 92.3685742504066 7.979594768515922
v -17.157763242721558 94.9324929544205 14.529668719516009
v -8.417180180549622 92.18227418388982 9.2758892794303
v -8.078986406326294 93.71268304237681 9.271187713738392
v -17.157763242721558 94.9324929544205 14.529668719516009
v -9.278260916471481 92.3685742504066 7.979594768515922
v -8.417180180549622 92.18227418388982 9.2758892794303
v -17.157763242721558 94.9324929544205 14.529668719516009
v -8.078986406326294 93.71268304237681 9.271187713738392
v -8.940063416957855 93.89898906935892 7.97489841822946
v -17.157763242721558 94.9324929544205 14.529668719516009
v -14.551928639411926 84.15714496501226 -0.35806328245326563
v -14.990073442459106 84.14088459985228 -1.6965382910932711
v -15.108299255371094 85.54421039950779 -1.6748826621610426
v -14.670152962207794 85.56047076466766 -0.3364083985790969
v -15.108299255371094 85.54421039950779 -1.6748826621610426
v -14.990073442459106 84.14088459985228 -1.6965382910932711
v -23.76600205898285 84.05255706570033 1.9183539750867764
v -14.551928639411926 84.15714496501226 -0.35806328245326563
v -14.670152962207794 85.56047076466766 -0.3364083985790969
v -23.76600205898285 84.05255706570033 1.9183539750867764
v -14.990073442459106 84.14088459985228 -1.6965382910932711
v -14.551928639411926 84.15714496501226 -0.35806328245326563
v -23.76600205898285 84.05255706570033 1.9183539750867764
v -14.670152962207794 85.56047076466766 -0.3364083985790969
v -15.108299255371094 85.54421039950779 -1.6748826621610426
v -23.76600205898285 84.05255706570033 1.9183539750867764
v -17.71155297756195 70.13989709726056 1.3969944138964172
v -17.88133531808853 70.20591499442355 0.12404221905962537
v -18.110676109790802 71.46757844695686 0.2200621160094782
v -17.940890789031982 71.40156054979357 1.493012448201121
v -18.110676109790802 71.46757844695686 0.2200621160094782
v -17.88133531808853 70.20591499442355 0.12404221905962537
v -26.314324140548706 69.19726163422149 1.8460153555447778
v -17.71155297756195 70.13989709726056 1.3969944138964172
v -17.940890789031982 71.40156054979357 1.493012448201121
v -26.314324140548706 69.19726163422149 1.8460153555447778
v -17.88133531808853 70.20591499442355 0.12404221905962537
v -17.71155297756195 70.13989709726056 1.3969944138964172
v -26.314324140548706 69.19726163422149 1.8460153555447778
v -17.940890789031982 71.40156054979357 1.493012448201121
v -18.110676109790802 71.46757844695686 0.2200621160094782
v -26.314324140548706 69.19726163422149 1.8460153555447778
v -17.021313309669495 56.57671639954381 -3.0710007038280422
v -17.757265269756317 56.53397371325014 -4.271126063313763
v -17.4179345369339 57.98035204532072 -3.6510576892441766
v -16.97978675365448 57.996618370945 -2.312583798192232
v -17.4179345369339 57.98035204532072 -3.6510576892441766
v -17.757265269756317 56.53397371325014 -4.271126063313763
v -25.458326935768127 56.54832741567384 1.277351852257492
v -17.021313309669495 56.57671639954381 -3.0710007038280422
v -16.97978675365448 57.996618370945 -2.312583798192232
v -25.458326935768127 56.54832741567384 1.277351852257492
v -17.757265269756317 56.53397371325014 -4.271126063313763
v -17.021313309669495 56.57671639954381 -3.0710007038280422
v -25.458326935768127 56.54832741567384 1.277351852257492
v -16.97978675365448 57.996618370945 -2.312583798192232
v -17.4179345369339 57.98035204532072 -3.6510576892441766
v -25.458326935768127 56.54832741567384 1.277351852257492
v -16.49453043937683 40.64080131429339 0.7547375657705241
v -16.21740460395813 41.02439570300852 -0.7394473781737192
v -16.28737896680832 42.54407578765061 -0.36227800179003367
v -16.56450629234314 42.1604724582384 1.1319047069814872
v -16.28737896680832 42.54407578765061 -0.36227800179003367
v -16.21740460395813 41.02439570300852 -0.7394473781737192
v -26.718881726264954 41.59229071739122 -1.7193340472289036
v -16.49453043937683 40.64080131429339 0.7547375657705241
v -16.56450629234314 42.1604724582384 1.1319047069814872
v -26.718881726264954 41.59229071739122 -1.7193340472289036
v -16.21740460395813 41.02439570300852 -0.7394473781737192
v -16.49453043937683 40.64080131429339 0.7547375657705241
v -26.718881726264954 41.59229071739122 -1.7193340472289036
v -16.56450629234314 42.1604724582384 1.1319047069814872
v -16.28737896680832 42.54407578765061 -0.36227800179003367
v -26.718881726264954 41.59229071739122 -1.7193340472289036
v -13.002608716487885 26.521843738204147 0.40758937635273795
v -13.002680242061615 26.54892785936571 -1.000607427516936
v -13.002681732177734 27.95713528031355 -0.9735182772152028
v -13.002608716487885 27.930045198687303 0.4346772228038378
v -13.002681732177734 27.95713528031355 -0.9735182772152028
v -13.002680242061615 26.54892785936571 -1.000607427516936
v -22.441942989826202 27.239465667479717 -0.2824809077466077
v -13.002608716487885 26.521843738204147 0.40758937635273795
v -13.002608716487885 27.930045198687303 0.4346772228038378
v -22.441942989826202 27.239465667479717 -0.2824809077466077
v -13.002680242061615 26.54892785936571 -1.000607427516936
v -13.002608716487885 26.521843738204147 0.40758937635273795
v -22.441942989826202 27.239465667479717 -0.2824809077466077
v -13.002608716487885 27.930045198687303 0.4346772228038378
v -13.002681732177734 27.95713528031355 -0.9735182772152028
v -22.441942989826202 27.239465667479717 -0.2824809077466077
v -12.806455790996552 92.0950592084271 0.3192155522985477
v -12.776249647140503 92.03113299772792 -1.0874663474437918
v -12.304623425006866 93.35734825674155 -1.1376000302322635
v -12.334831804037094 93.42126254651164 0.26908112445395843
v -12.304623425006866 93.35734825674155 -1.1376000302322635
v -12.776249647140503 92.03113299772792 -1.0874663474437918
v -21.447618305683136 95.87575781157244 -0.7432639338088879
v -12.806455790996552 92.0950592084271 0.3192155522985477
v -12.334831804037094 93.42126254651164 0.26908112445395843
v -21.447618305683136 95.87575781157244 -0.7432639338088879
v -12.776249647140503 92.03113299772792 -1.0874663474437918
v -12.806455790996552 92.0950592084271 0.3192155522985477
v -21.447618305683136 95.87575781157244 -0.7432639338088879
v -12.334831804037094 93.42126254651164 0.26908112445395843
v -12.304623425006866 93.35734825674155 -1.1376000302322635
v -21.447618305683136 95.87575781157244 -0.7432639338088879
v -10.01713052392006 84.10245007745357 -10.580908053034033
v -9.385034441947937 84.18303535255056 -11.836975371966373
v -9.523847699165344 85.5845014870304 -11.816907461456372
v -10.155943036079407 85.50391025146929 -10.560837907348882
v -9.523847699165344 85.5845014870304 -11.816907461456372
v -9.385034441947937 84.18303535255056 -11.836975371966373
v -18.154355883598328 84.07417283787544 -15.467314708507173
v -10.01713052392006 84.10245007745357 -10.580908053034033
v -10.155943036079407 85.50391025146929 -10.560837907348882
v -18.154355883598328 84.07417283787544 -15.467314708507173
v -9.385034441947937 84.18303535255056 -11.836975371966373
v -10.01713052392006 84.10245007745357 -10.580908053034033
v -18.154355883598328 84.07417283787544 -15.467314708507173
v -10.155943036079407 85.50391025146929 -10.560837907348882
v -9.523847699165344 85.5845014870304 -11.816907461456372
v -18.154355883598328 84.07417283787544 -15.467314708507173
v -13.50947767496109 55.227670946805915 -12.932287213615107
v -12.513794004917145 55.254755135153765 -13.928097547941801
v -12.532949447631836 56.662968515273725 -13.90894084453807
v -13.528630137443542 56.635878366460915 -12.913133490442643
v -12.532949447631836 56.662968515273725 -13.90894084453807
v -12.513794004917145 55.254755135153765 -13.928097547941801
v -19.696232676506042 55.9452977820551 -20.094776327514122
v -13.50947767496109 55.227670946805915 -12.932287213615107
v -13.528630137443542 56.635878366460915 -12.913133490442643
v -19.696232676506042 55.9452977820551 -20.094776327514122
v -12.513794004917145 55.254755135153765 -13.928097547941801
v -13.50947767496109 55.227670946805915 -12.932287213615107
v -19.696232676506042 55.9452977820551 -20.094776327514122
v -13.528630137443542 56.635878366460915 -12.913133490442643
v -12.532949447631836 56.662968515273725 -13.90894084453807
v -19.696232676506042 55.9452977820551 -20.094776327514122
v -13.779933750629425 41.046197849311405 -8.306049537292155
v -12.622348964214325 41.21760279859253 -9.08986331000099
v -12.793198227882385 42.61465819475554 -9.036671607554581
v -13.950788974761963 42.44324728500994 -8.252857834844777
v -12.793198227882385 42.61465819475554 -9.036671607554581
v -12.622348964214325 41.21760279859253 -9.08986331000099
v -18.540404736995697 41.48618608019926 -16.505838238984254
v -13.779933750629425 41.046197849311405 -8.306049537292155
v -13.950788974761963 42.44324728500994 -8.252857834844777
v -18.540404736995697 41.48618608019926 -16.505838238984254
v -12.622348964214325 41.21760279859253 -9.08986331000099
v -13.779933750629425 41.046197849311405 -8.306049537292155
v -18.540404736995697 41.48618608019926 -16.505838238984254
v -13.950788974761963 42.44324728500994 -8.252857834844777
v -12.793198227882385 42.61465819475554 -9.036671607554581
v -18.540404736995697 41.48618608019926 -16.505838238984254
v -7.3881372809410095 11.680959603961252 -6.45253550578457
v -6.214868649840355 11.936471923315532 -7.230894722141224
v -6.2964580953121185 13.325758644690367 -6.897810782434793
v -7.469724863767624 13.070241109929668 -6.119451566077289
v -6.2964580953121185 13.325758644690367 -6.897810782434793
v -6.214868649840355 11.936471923315532 -7.230894722141224
v -12.305349111557007 14.036182202171823 -14.406766794078406
v -7.3881372809410095 11.680959603961252 -6.45253550578457
v -7.469724863767624 13.070241109929668 -6.119451566077289
v -12.305349111557007 14.036182202171823 -14.406766794078406
v -6.214868649840355 11.936471923315532 -7.230894722141224
v -7.3881372809410095 11.680959603961252 -6.45253550578457
v -12.305349111557007 14.036182202171823 -14.406766794078406
v -7.469724863767624 13.070241109929668 -6.119451566077289
v -6.2964580953121185 13.325758644690367 -6.897810782434793
v -12.305349111557007 14.036182202171823 -14.406766794078406
v -9.281477332115173 92.09505771786654 -8.829780025990484
v -8.265456557273865 92.03113157776988 -9.803106728422376
v -7.896513491868973 93.35734689350737 -9.505071799684359
v -8.912535011768341 93.42126111267507 -8.531745097250525
v -7.896513491868973 93.35734689350737 -9.505071799684359
v -8.265456557273865 92.03113157776988 -9.803106728422376
v -14.640502631664276 95.87575537624156 -15.691218499095525
v -9.281477332115173 92.09505771786654 -8.829780025990484
v -8.912535011768341 93.42126111267507 -8.531745097250525
v -14.640502631664276 95.87575537624156 -15.691218499095525
v -8.265456557273865 92.03113157776988 -9.803106728422376
v -9.281477332115173 92.09505771786654 -8.829780025990484
v -14.640502631664276 95.87575537624156 -15.691218499095525
v -8.912535011768341 93.42126111267507 -8.531745097250525
v -7.896513491868973 93.35734689350737 -9.505071799684359
v -14.640502631664276 95.87575537624156 -15.691218499095525
v -2.993568032979965 70.2441127674921 -17.33088147652943
v -1.5858549624681473 70.38528636343736 -17.36283107924526
v -1.7365381121635437 71.91830589096848 -17.455901001590377
v -3.1442489475011826 71.77713229502224 -17.423957359339028
v -1.7365381121635437 71.91830589096848 -17.455901001590377
v -1.5858549624681473 70.38528636343736 -17.36283107924526
v -2.5206759572029114 70.49130955869163 -26.857465069163688
v -2.993568032979965 70.2441127674921 -17.33088147652943
v -3.1442489475011826 71.77713229502224 -17.423957359339028
v -2.5206759572029114 70.49130955869163 -26.857465069163688
v -1.5858549624681473 70.38528636343736 -17.36283107924526
v -2.993568032979965 70.2441127674921 -17.33088147652943
v -2.5206759572029114 70.49130955869163 -26.857465069163688
v -3.1442489475011826 71.77713229502224 -17.423957359339028
v -1.7365381121635437 71.91830589096848 -17.455901001590377
v -2.5206759572029114 70.49130955869163 -26.857465069163688
v -0.3077194094657898 55.255696122736246 -18.628574969378953
v 1.0999929159879684 55.39686375821679 -18.66052606220993
v 0.9493105113506317 56.92988924621214 -18.753597474672137
v -0.45840106904506683 56.78870968980167 -18.7216523423037
v 0.9493105113506317 56.92988924621214 -18.753597474672137
v 1.0999929159879684 55.39686375821679 -18.66052606220993
v 0.16517192125320435 55.50288695347105 -28.15516005212836
v -0.3077194094657898 55.255696122736246 -18.628574969378953
v -0.45840106904506683 56.78870968980167 -18.7216523423037
v 0.16517192125320435 55.50288695347105 -28.15516005212836
v 1.0999929159879684 55.39686375821679 -18.66052606220993
v -0.3077194094657898 55.255696122736246 -18.628574969378953
v 0.16517192125320435 55.50288695347105 -28.15516005212836
v -0.45840106904506683 56.78870968980167 -18.7216523423037
v 0.9493105113506317 56.92988924621214 -18.753597474672137
v 0.16517192125320435 55.50288695347105 -28.15516005212836
v -0.9070072323083878 40.22084201254279 -16.77561312543532
v 0.6325244903564453 40.250227150060084 -16.48318231214186
v 0.5382668226957321 41.776723020232915 -16.140381347575126
v -1.0012634098529816 41.74732894201817 -16.43281663121549
v 0.5382668226957321 41.776723020232915 -16.140381347575126
v 0.6325244903564453 40.250227150060084 -16.48318231214186
v 1.6813121736049652 43.37325260133436 -26.51864102807798
v -0.9070072323083878 40.22084201254279 -16.77561312543532
v -1.0012634098529816 41.74732894201817 -16.43281663121549
v 1.6813121736049652 43.37325260133436 -26.51864102807798
v 0.6325244903564453 40.250227150060084 -16.48318231214186
v -0.9070072323083878 40.22084201254279 -16.77561312543532
v 1.6813121736049652 43.37325260133436 -26.51864102807798
v -1.0012634098529816 41.74732894201817 -16.43281663121549
v 0.5382668226957321 41.776723020232915 -16.140381347575126
v 1.6813121736049652 43.37325260133436 -26.51864102807798
v 1.9259508699178696 26.766789972647953 -12.073901186177462
v 3.3341478556394577 26.79387432321617 -12.074009969066777
v 3.3070582896471024 28.202081739750714 -12.074009453434826
v 1.8988627940416336 28.174994408950138 -12.073901415603084
v 3.3070582896471024 28.202081739750714 -12.074009453434826
v 3.3341478556394577 26.79387432321617 -12.074009969066777
v 2.615777403116226 27.484410476484815 -21.513251967708563
v 1.9259508699178696 26.766789972647953 -12.073901186177462
v 1.8988627940416336 28.174994408950138 -12.073901415603084
v 2.615777403116226 27.484410476484815 -21.513251967708563
v 3.3341478556394577 26.79387432321617 -12.074009969066777
v 1.9259508699178696 26.766789972647953 -12.073901186177462
v 2.615777403116226 27.484410476484815 -21.513251967708563
v 1.8988627940416336 28.174994408950138 -12.073901415603084
v 3.3070582896471024 28.202081739750714 -12.074009453434826
v 2.615777403116226 27.484410476484815 -21.513251967708563
v 0.0425262376666069 11.976581752862527 -9.508669092432186
v 1.410712767392397 12.265672448282146 -9.676724435475256
v 1.1296218261122704 13.643392847362865 -9.595146017804497
v -0.2385629341006279 13.354295446420588 -9.427091419818394
v 1.1296218261122704 13.643392847362865 -9.595146017804497
v 1.410712767392397 12.265672448282146 -9.676724435475256
v -0.6278432905673981 13.116294045343238 -18.907811394423348
v 0.0425262376666069 11.976581752862527 -9.508669092432186
v -0.2385629341006279 13.354295446420588 -9.427091419818394
v -0.6278432905673981 13.116294045343238 -18.907811394423348
v 1.410712767392397 12.265672448282146 -9.676724435475256
v 0.0425262376666069 11.976581752862527 -9.508669092432186
v -0.6278432905673981 13.116294045343238 -18.907811394423348
v -0.2385629341006279 13.354295446420588 -9.427091419818394
v 1.1296218261122704 13.643392847362865 -9.595146017804497
v -0.6278432905673981 13.116294045343238 -18.907811394423348
v 10.108737647533417 83.93350665510845 -10.686442519432847
v 11.10457181930542 83.96059116790711 -9.69078791106583
v 11.085416376590729 85.36880454178544 -9.70994209309148
v 10.089582204818726 85.3417081080577 -10.705597446514615
v 11.085416376590729 85.36880454178544 -9.70994209309148
v 11.10457181930542 83.96059116790711 -9.69078791106583
v 17.271068692207336 84.6511276888303 -16.873382412292074
v 10.108737647533417 83.93350665510845 -10.686442519432847
v 10.089582204818726 85.3417081080577 -10.705597446514615
v 17.271068692207336 84.6511276888303 -16.873382412292074
v 11.10457181930542 83.96059116790711 -9.69078791106583
v 10.108737647533417 83.93350665510845 -10.686442519432847
v 17.271068692207336 84.6511276888303 -16.873382412292074
v 10.089582204818726 85.3417081080577 -10.705597446514615
v 11.085416376590729 85.36880454178544 -9.70994209309148
v 17.271068692207336 84.6511276888303 -16.873382412292074
v 12.380628287792206 69.64303045341056 -12.873768231818653
v 13.28982412815094 69.66774864769914 -11.964735563202073
v 13.272334635257721 70.9534446745132 -11.982223030387582
v 12.363140285015106 70.92871455929603 -12.891253463828042
v 13.272334635257721 70.9534446745132 -11.982223030387582
v 13.28982412815094 69.66774864769914 -11.964735563202073
v 18.919825553894043 70.29820974896178 -18.522433468699457
v 12.380628287792206 69.64303045341056 -12.873768231818653
v 12.363140285015106 70.92871455929603 -12.891253463828042
v 18.919825553894043 70.29820974896178 -18.522433468699457
v 13.28982412815094 69.66774864769914 -11.964735563202073
v 12.380628287792206 69.64303045341056 -12.873768231818653
v 18.919825553894043 70.29820974896178 -18.522433468699457
v 12.363140285015106 70.92871455929603 -12.891253463828042
v 13.272334635257721 70.9534446745132 -11.982223030387582
v 18.919825553894043 70.29820974896178 -18.522433468699457
v 13.90998512506485 54.269460751600164 -12.719496985538584
v 14.531534910202026 54.495791711327136 -11.47603386380506
v 14.271309971809387 55.87472130664741 -11.596954776375103
v 13.649757206439972 55.648396307385276 -12.840415662935417
v 14.271309971809387 55.87472130664741 -11.596954776375103
v 14.531534910202026 54.495791711327136 -11.47603386380506
v 22.379620373249054 56.25413387144291 -16.516663358363413
v 13.90998512506485 54.269460751600164 -12.719496985538584
v 13.649757206439972 55.648396307385276 -12.840415662935417
v 22.379620373249054 56.25413387144291 -16.516663358363413
v 14.531534910202026 54.495791711327136 -11.47603386380506
v 13.90998512506485 54.269460751600164 -12.719496985538584
v 22.379620373249054 56.25413387144291 -16.516663358363413
v 13.649757206439972 55.648396307385276 -12.840415662935417
v 14.271309971809387 55.87472130664741 -11.596954776375103
v 22.379620373249054 56.25413387144291 -16.516663358363413
v 12.235061079263687 40.683208130191574 -10.838999521831976
v 13.14370185136795 40.83660380653209 -9.962629474458472
v 13.015152513980865 42.21371546342442 -10.06367745310616
v 12.106510251760483 42.06030786615471 -10.94004899059384
v 13.015152513980865 42.21371546342442 -10.06367745310616
v 13.14370185136795 40.83660380653209 -9.962629474458472
v 18.532198667526245 41.54916135334503 -16.59355989507629
v 12.235061079263687 40.683208130191574 -10.838999521831976
v 12.106510251760483 42.06030786615471 -10.94004899059384
v 18.532198667526245 41.54916135334503 -16.59355989507629
v 13.14370185136795 40.83660380653209 -9.962629474458472
v 12.235061079263687 40.683208130191574 -10.838999521831976
v 18.532198667526245 41.54916135334503 -16.59355989507629
v 12.106510251760483 42.06030786615471 -10.94004899059384
v 13.015152513980865 42.21371546342442 -10.06367745310616
v 18.532198667526245 41.54916135334503 -16.59355989507629
v 8.80916714668274 26.258806754741418 -9.941427962461464
v 9.590131044387817 26.337085725260025 -8.771931945599293
v 9.426524490118027 27.73593223487671 -8.756315756569162
v 8.645562827587128 27.65765028412611 -9.925810283314728
v 9.426524490118027 27.73593223487671 -8.756315756569162
v 9.590131044387817 26.337085725260025 -8.771931945599293
v 16.896292567253113 27.965817455722153 -14.607976462872319
v 8.80916714668274 26.258806754741418 -9.941427962461464
v 8.645562827587128 27.65765028412611 -9.925810283314728
v 16.896292567253113 27.965817455722153 -14.607976462872319
v 9.590131044387817 26.337085725260025 -8.771931945599293
v 8.80916714668274 26.258806754741418 -9.941427962461464
v 16.896292567253113 27.965817455722153 -14.607976462872319
v 8.645562827587128 27.65765028412611 -9.925810283314728
v 9.426524490118027 27.73593223487671 -8.756315756569162
v 16.896292567253113 27.965817455722153 -14.607976462872319
v 8.829409629106522 92.09505764420263 -9.281925960095403
v 9.802764654159546 92.03113182820768 -8.26593050681326
v 9.504737704992294 93.35734715549887 -7.896979461837603
v 8.531384915113449 93.42126105056461 -8.912976405233923
v 9.504737704992294 93.35734715549887 -7.896979461837603
v 9.802764654159546 92.03113182820768 -8.26593050681326
v 15.690712630748749 95.87575554732305 -14.641127709300603
v 8.829409629106522 92.09505764420263 -9.281925960095403
v 8.531384915113449 93.42126105056461 -8.912976405233923
v 15.690712630748749 95.87575554732305 -14.641127709300603
v 9.802764654159546 92.03113182820768 -8.26593050681326
v 8.829409629106522 92.09505764420263 -9.281925960095403
v 15.690712630748749 95.87575554732305 -14.641127709300603
v 8.531384915113449 93.42126105056461 -8.912976405233923
v 9.504737704992294 93.35734715549887 -7.896979461837603
v 15.690712630748749 95.87575554732305 -14.641127709300603
f 353 354 355
f 353 355 356
f 357 358 359
f 360 361 362
f 363 364 365
f 366 367 368
f 369 370 371
f 369 371 372
f 373 374 375
f 376 377 378
f 379 380 381
f 382 383 384
f 385 386 387
f 385 387 388
f 389 390 391
f 392 393 394
f 395 396 397
f 398 399 400
f 401 402 403
f 401 403 404
f 405 406 407
f 408 409 410
f 411 412 413
f 414 415 416
f 417 418 419
f 417 419 420
f 421 422 423
f 424 425 426
f 427 428 429
f 430 431 432
f 433 434 435
f 433 435 436
f 437 438 439
f 440 441 442
f 443 444 445
f 446 447 448
f 449 450 451
f 449 451 452
f 453 454 455
f 456 457 458
f 459 460 461
f 462 463 464
f 465 466 467
f 465 467 468
f 469 470 471
f 472 473 474
f 475 476 477
f 478 479 480
f 481 482 483
f 481 483 484
f 485 486 487
f 488 489 490
f 491 492 493
f 494 495 496
f 497 498 499
f 497 499 500
f 501 502 503
f 504 505 506
f 507 508 509
f 510 511 512
f 513 514 515
f 513 515 516
f 517 518 519
f 520 521 522
f 523 524 525
f 526 527 528
f 529 530 531
f 529 531 532
f 533 534 535
f 536 537 538
f 539 540 541
f 542 543 544
f 545 546 547
f 545 547 548
f 549 550 551
f 552 553 554
f 555 556 557
f 558 559 560
f 561 562 563
f 561 563 564
f 565 566 567
f 568 569 570
f 571 572 573
f 574 575 576
f 577 578 579
f 577 579 580
f 581 582 583
f 584 585 586
f 587 588 589
f 590 591 592
f 593 594 595
f 593 595 596
f 597 598 599
f 600 601 602
f 603 604 605
f 606 607 608
f 609 610 611
f 609 611 612
f 613 614 615
f 616 617 618
f 619 620 621
f 622 623 624
f 625 626 627
f 625 627 628
f 629 630 631
f 632 633 634
f 635 636 637
f 638 639 640
f 641 642 643
f 641 643 644
f 645 646 647
f 648 649 650
f 651 652 653
f 654 655 656
f 657 658 659
f 657 659 660
f 661 662 663
f 664 665 666
f 667 668 669
f 670 671 672
f 673 674 675
f 673 675 676
f 677 678 679
f 680 681 682
f 683 684 685
f 686 687 688
f 689 690 691
f 689 691 692
f 693 694 695
f 696 697 698
f 699 700 701
f 702 703 704
f 705 706 707
f 705 707 708
f 709 710 711
f 712 713 714
f 715 716 717
f 718 719 720
f 721 722 723
f 721 723 724
f 725 726 727
f 728 729 730
f 731 732 733
f 734 735 736
f 737 738 739
f 737 739 740
f 741 742 743
f 744 745 746
f 747 748 749
f 750 751 752
f 753 754 755
f 753 755 756
f 757 758 759
f 760 761 762
f 763 764 765
f 766 767 768
f 769 770 771
f 769 771 772
f 773 774 775
f 776 777 778
f 779 780 781
f 782 783 784
f 785 786 787
f 785 787 788
f 789 790 791
f 792 793 794
f 795 796 797
f 798 799 800
f 801 802 803
f 801 803 804
f 805 806 807
f 808 809 810
f 811 812 813
f 814 815 816
f 817 818 819
f 817 819 820
f 821 822 823
f 824 825 826
f 827 828 829
f 830 831 832
f 833 834 835
f 833 835 836
f 837 838 839
f 840 841 842
f 843 844 845
f 846 847 848
f 849 850 851
f 849 851 852
f 853 854 855
f 856 857 858
f 859 860 861
f 862 863 864
f 865 866 867
f 865 867 868
f 869 870 871
f 872 873 874
f 875 876 877
f 878 879 880
f 881 882 883
f 881 883 884
f 885 886 887
f 888 889 890
f 891 892 893
f 894 895 896
f 897 898 899
f 897 899 900
f 901 902 903
f 904 905 906
f 907 908 909
f 910 911 912
f 913 914 915
f 913 915 916
f 917 918 919
f 920 921 922
f 923 924 925
f 926 927 928
f 929 930 931
f 929 931 932
f 933 934 935
f 936 937 938
f 939 940 941
f 942 943 944
f 945 946 947
f 945 947 948
f 949 950 951
f 952 953 954
f 955 956 957
f 958 959 960
f 961 962 963
f 961 963 964
f 965 966 967
f 968 969 970
f 971 972 973
f 974 975 976
f 977 978 979
f 977 979 980
f 981 982 983
f 984 985 986
f 987 988 989
f 990 991 992
f 993 994 995
f 993 995 996
f 997 998 999
f 1000 1001 1002
f 1003 1004 1005
f 1006 1007 1008
f 1009 1010 1011
f 1009 1011 1012
f 1013 1014 1015
f 1016 1017 1018
f 1019 1020 1021
f 1022 1023 1024
f 1025 1026 1027
f 1025 1027 1028
f 1029 1030 1031
f 1032 1033 1034
f 1035 1036 1037
f 1038 1039 1040
