o convex_0
v 6.388645 95.370736 -11.358795
v -20.481173 52.186415 -0.809906
v -20.481173 52.186415 0.151056
v 18.862680 12.845568 0.151056
v 12.146188 95.370736 11.670207
v -11.842933 12.845568 11.670207
v -2.245744 0.369212 -9.439970
v -13.760830 95.370736 11.670207
v -14.719779 74.251542 -15.199545
v 15.981983 64.662771 -15.199545
v 7.347594 0.369212 7.829457
v 16.940931 53.132348 11.670207
v -0.331698 48.352898 -19.998158
v 18.862680 85.772008 -0.809906
v -13.760830 39.729974 -14.238583
v -9.921185 1.335059 -0.809906
v -0.331698 91.527262 -16.157408
v 7.347594 0.369212 -7.521145
v -15.678728 91.527262 -2.728731
v -2.245744 100.170101 -0.809906
v 15.023034 43.553533 -14.238583
v -17.600476 54.098195 10.706144
v 12.146188 91.527262 -12.316657
v 0.627251 71.373915 -19.998158
v 11.183388 25.321923 11.670207
v -11.842933 92.483152 -11.358795
v -19.518374 75.217389 0.151056
v 11.183388 98.238406 -0.809906
v -1.286796 0.369212 9.745182
v -14.719779 52.186415 -16.157408
v 18.862680 66.564593 5.907532
v 18.862680 54.098195 -6.560182
f 21 10 32 
f 6 5 8 
f 5 6 12 
f 13 7 15 
f 3 2 16 
f 6 3 16 
f 2 15 16 
f 15 7 16 
f 4 11 18 
f 11 7 18 
f 7 13 18 
f 8 5 20 
f 1 17 20 
f 13 10 21 
f 4 18 21 
f 18 13 21 
f 3 6 22 
f 6 8 22 
f 14 10 23 
f 17 1 23 
f 17 23 24 
f 10 13 24 
f 9 17 24 
f 23 10 24 
f 11 4 25 
f 12 6 25 
f 4 12 25 
f 17 9 26 
f 19 8 26 
f 9 19 26 
f 20 17 26 
f 8 20 26 
f 2 3 27 
f 9 2 27 
f 8 19 27 
f 19 9 27 
f 3 22 27 
f 22 8 27 
f 5 14 28 
f 1 20 28 
f 20 5 28 
f 23 1 28 
f 14 23 28 
f 7 11 29 
f 6 16 29 
f 16 7 29 
f 11 25 29 
f 25 6 29 
f 2 9 30 
f 15 2 30 
f 13 15 30 
f 9 24 30 
f 24 13 30 
f 5 12 31 
f 12 4 31 
f 14 5 31 
f 4 14 31 
f 10 14 32 
f 14 4 32 
f 4 21 32 
o convex_1
v 11.186628 59.861528 17.428091
v 2.550365 19.574746 11.670207
v 3.510294 19.574746 11.670207
v 10.226698 95.362283 11.670207
v 2.550365 69.456124 19.347386
v 2.550365 94.400569 11.670207
v 13.106486 34.924596 11.670207
v 13.106486 96.323996 14.549149
v 3.510294 43.557478 18.387739
v 13.106486 44.519192 15.508797
v 2.550365 90.561228 15.508797
v 13.106486 95.362283 11.670207
v 4.470223 20.528946 12.629854
v 5.430152 54.113787 19.347386
v 2.550365 50.274446 19.347386
v 13.106486 68.494410 16.468444
v 12.145524 31.085255 12.629854
v 3.510294 69.456124 19.347386
v 2.550365 81.928346 17.428091
v 13.106486 51.236160 16.468444
v 2.550365 19.574746 12.629854
v 13.106486 84.805974 15.508797
v 2.550365 94.400569 12.629854
v 12.145524 38.763937 14.549149
v 12.145524 31.085255 11.670207
v 10.226698 68.494410 17.428091
v 12.145524 96.323996 14.549149
v 3.510294 76.173092 18.387739
v 2.550365 43.557478 18.387739
v 4.470223 64.655069 19.347386
v 13.106486 36.840510 13.589502
v 11.186628 54.113787 17.428091
f 52 48 64 
f 35 34 36 
f 34 37 38 
f 36 34 38 
f 35 36 39 
f 39 40 42 
f 38 37 43 
f 39 36 44 
f 36 40 44 
f 40 39 44 
f 41 42 46 
f 37 34 47 
f 46 37 47 
f 41 46 47 
f 42 40 48 
f 37 46 50 
f 43 37 51 
f 46 42 52 
f 42 48 52 
f 34 35 53 
f 35 45 53 
f 45 41 53 
f 47 34 53 
f 48 40 54 
f 40 50 54 
f 38 43 55 
f 42 41 56 
f 41 45 56 
f 49 42 56 
f 45 49 56 
f 35 39 57 
f 45 35 57 
f 39 49 57 
f 49 45 57 
f 33 48 58 
f 48 54 58 
f 54 50 58 
f 36 38 59 
f 40 36 59 
f 43 51 59 
f 51 40 59 
f 38 55 59 
f 55 43 59 
f 37 50 60 
f 50 40 60 
f 51 37 60 
f 40 51 60 
f 41 47 61 
f 53 41 61 
f 47 53 61 
f 46 33 62 
f 50 46 62 
f 33 58 62 
f 58 50 62 
f 39 42 63 
f 49 39 63 
f 42 49 63 
f 33 46 64 
f 48 33 64 
f 46 52 64 
o convex_2
v 23.661856 85.775390 1.113804
v 18.864371 83.856283 -0.804928
v 18.864371 84.815836 -0.804928
v 18.864371 83.856283 2.073451
v 25.581903 83.856283 1.113804
v 18.864371 85.775390 2.073451
v 25.581903 84.815836 2.073451
v 22.701833 85.775390 0.154720
v 18.864371 85.775390 0.154720
v 25.581903 83.856283 2.073451
v 19.825051 83.856283 -0.804928
v 23.661856 85.775390 2.073451
v 25.581903 84.815836 1.113804
v 19.825051 84.815836 -0.804928
f 72 77 78 
f 67 66 68 
f 68 66 69 
f 67 68 70 
f 70 68 71 
f 70 65 72 
f 70 72 73 
f 67 70 73 
f 72 67 73 
f 68 69 74 
f 69 71 74 
f 71 68 74 
f 66 67 75 
f 69 66 75 
f 65 70 76 
f 71 65 76 
f 70 71 76 
f 65 71 77 
f 71 69 77 
f 72 65 77 
f 67 72 78 
f 75 67 78 
f 69 75 78 
f 77 69 78 
o convex_3
v -8.006696 58.902069 18.387739
v -12.803149 33.962883 11.670207
v -11.842844 32.042836 11.670207
v -4.167167 93.441485 11.670207
v -4.167167 21.486152 11.670207
v -12.803149 94.397939 12.629854
v -4.167167 73.291708 18.387739
v -12.803149 52.192614 16.468444
v -4.167167 41.635929 17.428091
v -12.803149 94.397939 11.670207
v -12.803149 65.618661 16.468444
v -4.167167 88.644939 15.508797
v -8.964465 27.246290 12.629854
v -5.128318 53.149068 19.347386
v -12.803149 45.476021 15.508797
v -7.047237 68.495161 18.387739
v -5.128318 21.486152 12.629854
v -5.128318 80.008300 17.428091
v -5.128318 41.635929 17.428091
v -4.167167 60.822115 19.347386
v -4.167167 91.521439 14.549149
v -12.803149 33.962883 12.629854
v -11.842844 77.131800 15.508797
v -10.883384 54.112660 17.428091
v -5.128318 60.822115 19.347386
v -4.167167 21.486152 12.629854
v -8.006696 41.635929 16.468444
v -5.128318 88.644939 15.508797
v -4.167167 93.441485 12.629854
v -4.167167 53.149068 19.347386
v -5.128318 21.486152 11.670207
v -5.128318 73.291708 18.387739
f 94 103 110 
f 81 80 82 
f 81 82 83 
f 83 82 85 
f 84 80 86 
f 83 85 87 
f 82 80 88 
f 80 84 88 
f 84 82 88 
f 84 86 89 
f 85 82 90 
f 86 80 93 
f 92 86 93 
f 85 90 96 
f 87 92 97 
f 95 87 97 
f 87 85 98 
f 90 82 99 
f 80 81 100 
f 81 91 100 
f 93 80 100 
f 91 93 100 
f 84 89 101 
f 89 94 101 
f 96 84 101 
f 79 89 102 
f 89 86 102 
f 92 79 102 
f 86 92 102 
f 89 79 103 
f 79 92 103 
f 94 89 103 
f 98 85 103 
f 92 98 103 
f 83 87 104 
f 95 83 104 
f 87 95 104 
f 92 93 105 
f 93 91 105 
f 91 95 105 
f 97 92 105 
f 95 97 105 
f 84 96 106 
f 96 90 106 
f 99 84 106 
f 90 99 106 
f 82 84 107 
f 99 82 107 
f 84 99 107 
f 92 87 108 
f 87 98 108 
f 98 92 108 
f 81 83 109 
f 91 81 109 
f 83 95 109 
f 95 91 109 
f 85 96 110 
f 101 94 110 
f 96 101 110 
f 103 85 110 
o convex_4
v 20.783665 28.196545 2.073451
v 18.864371 12.843689 -0.804928
v 18.864371 12.843689 0.154626
v 22.702960 26.277250 1.113897
v 18.864371 28.196545 0.154626
v 18.864371 28.196545 2.073451
v 22.702960 26.277250 2.073451
v 19.824018 12.843689 -0.804928
v 20.783665 28.196545 0.154626
v 18.864371 26.277250 2.073451
v 19.824018 12.843689 0.154626
v 22.702960 27.236146 1.113897
v 19.824018 13.802585 -0.804928
v 22.702960 27.236146 2.073451
v 18.864371 13.802585 -0.804928
f 115 123 125 
f 112 113 115 
f 111 115 116 
f 115 113 116 
f 111 116 117 
f 113 112 118 
f 114 117 118 
f 115 111 119 
f 116 113 120 
f 113 117 120 
f 117 116 120 
f 117 113 121 
f 113 118 121 
f 118 117 121 
f 117 114 122 
f 114 118 122 
f 119 111 122 
f 119 122 123 
f 118 112 123 
f 115 119 123 
f 122 118 123 
f 111 117 124 
f 117 122 124 
f 122 111 124 
f 112 115 125 
f 123 112 125 
o convex_5
v 16.945076 41.631608 19.347386
v 13.106486 41.631608 15.508797
v 13.106486 42.591256 15.508797
v 15.985428 42.591256 15.508797
v 15.985428 40.671961 15.508797
v 14.066134 40.671961 17.428091
v 15.985428 42.591256 19.347386
v 16.945076 42.591256 17.428091
v 13.106486 42.591256 16.468444
v 15.025781 40.671961 18.387739
v 14.066134 40.671961 15.508797
v 15.985428 40.671961 18.387739
v 16.945076 41.631608 17.428091
v 16.945076 42.591256 19.347386
v 15.985428 41.631608 19.347386
v 13.106486 41.631608 16.468444
f 131 134 141 
f 127 128 129 
f 127 129 130 
f 129 128 132 
f 130 129 133 
f 129 132 133 
f 128 127 134 
f 132 128 134 
f 131 132 134 
f 131 130 135 
f 132 131 135 
f 127 130 136 
f 131 127 136 
f 130 131 136 
f 130 126 137 
f 126 135 137 
f 135 130 137 
f 126 130 138 
f 133 126 138 
f 130 133 138 
f 132 126 139 
f 126 133 139 
f 133 132 139 
f 126 132 140 
f 135 126 140 
f 132 135 140 
f 127 131 141 
f 134 127 141 
o convex_6
v 25.581903 41.631452 4.952675
v 18.864371 40.672212 1.114085
v 18.864371 41.631452 1.114085
v 18.864371 40.672212 3.993028
v 18.864371 42.591256 3.033380
v 25.581903 40.672212 3.033380
v 20.783759 39.712689 3.033380
v 25.581903 41.631452 3.033380
v 25.581903 40.672212 4.952675
v 19.825051 42.591256 2.073733
v 18.864371 39.712689 2.073733
v 23.661856 41.631452 4.952675
v 19.825051 41.631452 1.114085
v 20.783759 39.712689 2.073733
v 18.864371 41.631452 3.993028
v 19.825051 40.672212 1.114085
v 23.661856 40.672212 4.952675
v 18.864371 39.712689 3.033380
v 18.864371 42.591256 2.073733
v 19.825051 42.591256 3.033380
f 151 146 161 
f 144 143 145 
f 144 145 146 
f 142 147 149 
f 147 142 150 
f 148 147 150 
f 142 149 151 
f 145 143 152 
f 142 146 153 
f 150 142 153 
f 143 144 154 
f 149 147 154 
f 144 151 154 
f 151 149 154 
f 147 148 155 
f 152 143 155 
f 148 152 155 
f 146 145 156 
f 153 146 156 
f 145 153 156 
f 143 154 157 
f 154 147 157 
f 155 143 157 
f 147 155 157 
f 148 150 158 
f 153 145 158 
f 150 153 158 
f 145 152 159 
f 152 148 159 
f 158 145 159 
f 148 158 159 
f 144 146 160 
f 146 151 160 
f 151 144 160 
f 146 142 161 
f 142 151 161 
o convex_7
v 14.066509 60.824181 16.468632
v 13.106486 53.147377 15.509736
v 14.067167 53.147377 15.509736
v 17.903972 55.067330 20.305625
v 19.824018 56.985779 18.387363
v 16.943949 56.985779 15.509736
v 19.824018 55.067330 18.387363
v 19.824018 56.985779 20.305625
v 13.106486 60.824181 16.468632
v 14.066509 60.824181 15.508797
v 13.106486 53.147377 16.469571
v 19.824018 55.067330 20.305625
v 16.943949 55.067330 15.509736
v 17.903972 56.985779 20.305625
v 13.106486 60.824181 15.508797
v 14.067167 53.147377 16.469571
v 14.066509 56.985779 15.508797
v 13.106486 56.985779 16.469571
v 13.106486 56.985779 15.508797
f 176 178 180 
f 167 166 168 
f 166 162 169 
f 168 166 169 
f 169 162 170 
f 162 166 171 
f 166 167 171 
f 170 162 171 
f 163 164 172 
f 170 163 172 
f 164 168 173 
f 169 165 173 
f 168 169 173 
f 165 172 173 
f 168 164 174 
f 167 168 174 
f 171 167 174 
f 165 169 175 
f 169 170 175 
f 172 165 175 
f 163 170 176 
f 170 171 176 
f 172 164 177 
f 164 173 177 
f 173 172 177 
f 164 163 178 
f 174 164 178 
f 171 174 178 
f 176 171 178 
f 170 172 179 
f 175 170 179 
f 172 175 179 
f 163 176 180 
f 178 163 180 
o convex_8
v 18.864371 66.578872 -2.724504
v 19.824018 58.907516 3.993028
v 18.864371 58.907516 3.993028
v 19.824018 48.349328 -0.805210
v 19.824018 72.340326 -0.805210
v 20.783665 54.108340 -0.805210
v 18.864371 54.108340 -3.684152
v 18.864371 47.389493 1.114085
v 18.864371 72.340326 1.114085
v 19.824018 57.947681 -3.684152
v 19.824018 68.498542 3.033380
v 19.824018 51.231276 3.033380
v 20.783665 57.947681 1.114085
v 19.824018 54.108340 -3.684152
v 19.824018 66.578872 -2.724504
v 19.824018 47.389493 1.114085
v 18.864371 54.108340 3.993028
v 20.783665 54.108340 1.114085
v 19.824018 72.340326 1.114085
v 18.864371 68.498542 3.033380
v 20.783665 56.987846 -0.805210
v 18.864371 70.420655 -1.764857
v 19.824018 54.108340 3.993028
v 18.864371 48.349328 -0.805210
v 19.824018 70.420655 -1.764857
v 18.864371 72.340326 -0.805210
v 18.864371 57.947681 -3.684152
v 19.824018 47.389493 0.154438
v 18.864371 51.231276 3.033380
v 20.783665 57.947681 0.154438
v 18.864371 47.389493 0.154438
f 204 208 211 
f 183 181 187 
f 183 187 188 
f 181 183 189 
f 183 182 191 
f 191 182 193 
f 186 184 194 
f 184 187 194 
f 190 186 194 
f 187 190 194 
f 190 181 195 
f 192 188 196 
f 182 183 197 
f 183 188 197 
f 186 193 198 
f 193 182 198 
f 196 186 198 
f 192 196 198 
f 185 189 199 
f 189 191 199 
f 193 185 199 
f 191 193 199 
f 189 183 200 
f 183 191 200 
f 191 189 200 
f 186 190 201 
f 193 186 201 
f 190 195 201 
f 181 189 202 
f 195 181 202 
f 182 197 203 
f 197 192 203 
f 198 182 203 
f 192 198 203 
f 187 184 204 
f 188 187 204 
f 185 201 205 
f 201 195 205 
f 202 185 205 
f 195 202 205 
f 189 185 206 
f 202 189 206 
f 185 202 206 
f 187 181 207 
f 181 190 207 
f 190 187 207 
f 184 186 208 
f 186 196 208 
f 196 188 208 
f 204 184 208 
f 188 192 209 
f 197 188 209 
f 192 197 209 
f 185 193 210 
f 201 185 210 
f 193 201 210 
f 188 204 211 
f 208 188 211 
o convex_9
v 20.783665 55.066672 -0.805210
v 27.501197 56.985967 1.114085
v 28.460845 56.026320 1.114085
v 27.501197 56.985967 -0.805210
v 20.783665 56.985967 1.114085
v 20.783665 55.066672 1.114085
v 27.501197 55.066672 -0.805210
v 20.783665 56.985967 -0.805210
v 28.460845 55.066672 1.114085
v 28.460845 56.026320 0.154438
v 28.460845 55.066672 0.154438
f 221 220 222 
f 213 214 215 
f 214 213 216 
f 213 215 216 
f 216 212 217 
f 214 216 217 
f 212 215 218 
f 217 212 218 
f 215 212 219 
f 212 216 219 
f 216 215 219 
f 214 217 220 
f 217 218 220 
f 215 214 221 
f 218 215 221 
f 214 220 221 
f 220 218 222 
f 218 221 222 
o convex_10
v -12.803994 82.896447 11.670207
v -15.682279 41.639405 19.347386
v -16.642208 41.639405 19.347386
v -13.763923 36.837880 11.670207
v -16.642208 68.496382 11.670207
v -12.803994 48.357031 15.508797
v -13.763923 79.050719 14.549149
v -16.642208 51.233437 11.670207
v -12.803994 72.333094 15.508797
v -12.803994 36.837880 11.670207
v -14.723101 80.011024 13.589502
v -16.642208 40.679100 16.468444
v -14.723101 40.679100 18.387739
v -15.682279 71.377297 14.549149
v -14.723101 81.931634 11.670207
v -12.803994 82.896447 13.589502
v -12.803994 40.679100 14.549149
v -16.642208 68.496382 12.629854
v -15.682279 44.515811 11.670207
v -16.642208 40.679100 19.347386
v -12.803994 36.837880 12.629854
v -14.723101 76.174313 14.549149
v -13.763923 82.896447 13.589502
v -14.723101 81.931634 12.629854
v -15.682279 40.679100 19.347386
v -13.763923 36.837880 12.629854
v -13.763923 72.333094 15.508797
v -12.803994 79.050719 14.549149
v -13.763923 82.896447 11.670207
v -14.723101 42.599710 18.387739
f 235 231 252 
f 223 226 227 
f 227 226 230 
f 225 227 230 
f 225 224 231 
f 228 223 231 
f 226 223 232 
f 223 228 232 
f 225 230 234 
f 228 231 235 
f 223 227 237 
f 231 223 238 
f 232 228 239 
f 228 235 239 
f 227 225 240 
f 225 236 240 
f 237 227 240 
f 230 226 241 
f 226 234 241 
f 234 230 241 
f 224 225 242 
f 225 234 242 
f 234 226 242 
f 226 232 243 
f 232 239 243 
f 239 235 243 
f 225 229 244 
f 236 225 244 
f 233 236 244 
f 238 223 245 
f 229 238 245 
f 244 229 245 
f 233 244 245 
f 236 233 246 
f 240 236 246 
f 237 240 246 
f 245 237 246 
f 233 245 246 
f 235 224 247 
f 224 242 247 
f 243 235 247 
f 242 243 247 
f 242 226 248 
f 243 242 248 
f 226 243 248 
f 229 225 249 
f 225 231 249 
f 231 229 249 
f 229 231 250 
f 231 238 250 
f 238 229 250 
f 223 237 251 
f 245 223 251 
f 237 245 251 
f 231 224 252 
f 224 235 252 
o convex_11
v 2.550365 12.841904 20.306188
v 0.631070 10.923173 11.671052
v 2.550365 10.923173 11.671052
v 0.631070 13.801552 11.671052
v 2.550365 13.801552 11.671052
v 0.631070 11.882820 18.386612
v 0.631070 13.801552 15.509360
v 2.550365 11.882820 20.306188
v 1.590717 12.841904 20.306188
v 2.550365 13.801552 15.509360
v 0.631070 10.923173 12.631263
v 1.590717 11.882820 20.306188
v 0.631070 12.841904 18.386612
v 2.550365 10.923173 12.631263
f 260 263 266 
f 255 254 256 
f 253 255 257 
f 255 256 257 
f 256 254 258 
f 256 258 259 
f 257 256 259 
f 255 253 260 
f 253 259 261 
f 260 253 261 
f 253 257 262 
f 259 253 262 
f 257 259 262 
f 254 255 263 
f 258 254 263 
f 263 260 264 
f 261 258 264 
f 260 261 264 
f 258 263 264 
f 259 258 265 
f 258 261 265 
f 261 259 265 
f 255 260 266 
f 263 255 266 
o convex_12
v -2.247121 16.691578 11.670207
v -1.287098 96.331511 22.226328
v 2.550365 95.361062 12.631169
v 2.550365 27.248169 21.265366
v -4.167167 94.398503 11.670207
v -4.167167 51.233249 19.346541
v 2.550365 17.654137 11.670207
v -4.167167 20.533925 12.631169
v -3.207144 96.331511 22.226328
v 2.550365 71.368092 19.346541
v -0.329047 40.684548 22.226328
v 2.550365 95.361062 11.670207
v 0.630976 84.804471 22.226328
v 0.630976 27.248169 21.265366
v -1.287098 15.736909 12.631169
v -4.167167 81.924684 17.426682
v -4.167167 20.533925 11.670207
v 2.550365 91.518715 15.509924
v -1.287098 96.331511 11.670207
v 1.590341 40.684548 22.226328
v -4.167167 44.519005 18.386612
v 0.630976 15.736909 12.631169
v -1.287098 55.075596 22.226328
v -4.167167 68.496195 19.346541
v -4.167167 90.564046 15.509924
v 0.630976 96.331511 12.631169
v -2.247121 16.691578 12.631169
v 2.550365 17.654137 12.631169
v 2.550365 83.841912 17.426682
v -4.167167 28.210728 14.549995
v 0.630976 15.736909 11.670207
v -3.207144 95.361062 22.226328
f 289 275 298 
f 269 270 273 
f 267 271 273 
f 272 271 274 
f 270 269 276 
f 268 275 277 
f 269 273 278 
f 273 271 278 
f 270 276 279 
f 268 277 279 
f 270 280 281 
f 271 272 282 
f 271 267 283 
f 267 274 283 
f 274 271 283 
f 269 268 284 
f 276 269 284 
f 268 279 284 
f 275 268 285 
f 271 275 285 
f 278 271 285 
f 270 279 286 
f 279 277 286 
f 280 270 286 
f 277 280 286 
f 272 274 287 
f 277 272 287 
f 280 277 287 
f 270 281 288 
f 272 277 289 
f 277 275 289 
f 272 275 290 
f 282 272 290 
f 275 282 290 
f 275 271 291 
f 271 282 291 
f 282 275 291 
f 268 269 292 
f 269 278 292 
f 285 268 292 
f 278 285 292 
f 274 267 293 
f 280 274 293 
f 267 281 293 
f 281 280 293 
f 273 270 294 
f 270 288 294 
f 288 273 294 
f 279 276 295 
f 276 284 295 
f 284 279 295 
f 274 280 296 
f 287 274 296 
f 280 287 296 
f 267 273 297 
f 281 267 297 
f 273 288 297 
f 288 281 297 
f 275 272 298 
f 272 289 298 
o convex_13
v -0.328296 40.671961 22.226328
v 2.550083 42.591256 26.064918
v 1.590435 42.591256 26.064918
v -0.328296 42.591256 22.226328
v 1.590435 42.591256 22.226328
v 1.590435 40.671961 22.226328
v 0.631352 40.671961 25.105271
v 2.550083 41.631608 26.064918
v 2.550083 41.631608 24.145623
v -0.328296 42.591256 23.185976
v 1.590435 40.671961 25.105271
v 2.550083 42.591256 24.145623
v -0.328296 40.671961 23.185976
v 0.631352 42.591256 25.105271
v 1.590435 41.631608 26.064918
f 305 306 313 
f 301 300 302 
f 299 302 303 
f 302 300 303 
f 299 303 304 
f 299 304 305 
f 300 301 306 
f 304 303 307 
f 300 306 307 
f 306 304 307 
f 301 302 308 
f 302 299 308 
f 305 304 309 
f 304 306 309 
f 306 305 309 
f 303 300 310 
f 300 307 310 
f 307 303 310 
f 299 305 311 
f 308 299 311 
f 305 308 311 
f 305 301 312 
f 301 308 312 
f 308 305 312 
f 301 305 313 
f 306 301 313 
o convex_14
v 14.066134 80.014311 14.549149
v 13.106486 38.752666 11.670207
v 14.066134 38.752666 11.670207
v 13.106486 40.675531 15.508797
v 16.945076 69.453681 15.508797
v 13.106486 82.896447 11.670207
v 15.985428 71.372224 11.670207
v 13.106486 73.295089 15.508797
v 15.985428 48.349704 12.629854
v 15.025781 40.675531 15.508797
v 14.066134 82.896447 11.670207
v 15.985428 48.349704 11.670207
v 16.945076 71.372224 14.549149
v 16.945076 71.372224 15.508797
v 13.106486 81.928534 13.589502
v 14.066134 82.896447 12.629854
v 15.025781 40.675531 13.589502
v 14.066134 38.752666 12.629854
v 15.025781 78.091447 11.670207
v 13.106486 80.014311 14.549149
v 15.025781 42.594074 11.670207
v 14.066134 81.928534 13.589502
v 14.066134 73.295089 15.508797
v 13.106486 38.752666 12.629854
v 16.945076 69.453681 14.549149
v 13.106486 82.896447 12.629854
f 328 329 339 
f 316 315 319 
f 315 317 319 
f 316 319 320 
f 317 318 321 
f 319 317 321 
f 318 317 323 
f 322 318 323 
f 320 319 324 
f 316 320 325 
f 318 322 325 
f 322 323 325 
f 325 320 326 
f 321 318 327 
f 318 326 327 
f 326 324 327 
f 319 321 328 
f 324 319 329 
f 327 324 329 
f 323 316 330 
f 325 323 330 
f 315 316 331 
f 316 323 331 
f 323 317 331 
f 320 324 332 
f 324 326 332 
f 326 320 332 
f 321 314 333 
f 314 328 333 
f 328 321 333 
f 316 325 334 
f 330 316 334 
f 325 330 334 
f 314 327 335 
f 328 314 335 
f 327 329 335 
f 329 328 335 
f 314 321 336 
f 327 314 336 
f 321 327 336 
f 317 315 337 
f 315 331 337 
f 331 317 337 
f 318 325 338 
f 326 318 338 
f 325 326 338 
f 319 328 339 
f 329 319 339 
o convex_15
v 15.984865 83.856564 18.386612
v 13.107050 82.896447 13.590065
v 13.107050 83.856564 12.630418
v 13.107050 84.815272 16.467880
v 14.066415 85.775390 12.630418
v 15.984865 82.896447 16.467880
v 13.107050 82.896447 16.467880
v 15.984865 84.815272 17.427528
v 13.107050 85.775390 13.590065
v 14.066415 83.856564 12.630418
v 15.025499 82.896447 18.386612
v 14.066415 84.815272 17.427528
v 15.984865 84.815272 16.467880
v 14.066415 82.896447 13.590065
v 15.984865 82.896447 18.386612
v 13.107050 85.775390 12.630418
v 14.066415 85.775390 13.590065
v 15.025499 83.856564 18.386612
v 15.025499 82.896447 14.549713
v 14.066415 82.896447 17.427528
f 350 351 359 
f 342 341 343 
f 343 341 346 
f 341 345 346 
f 340 345 347 
f 342 343 348 
f 341 342 349 
f 342 344 349 
f 344 345 349 
f 346 345 350 
f 343 346 351 
f 340 347 351 
f 348 343 351 
f 347 348 351 
f 345 344 352 
f 344 347 352 
f 347 345 352 
f 345 341 353 
f 341 349 353 
f 345 340 354 
f 340 350 354 
f 350 345 354 
f 344 342 355 
f 342 348 355 
f 348 344 355 
f 347 344 356 
f 344 348 356 
f 348 347 356 
f 350 340 357 
f 351 350 357 
f 340 351 357 
f 349 345 358 
f 345 353 358 
f 353 349 358 
f 346 350 359 
f 351 346 359 
o convex_16
v 15.984865 96.331323 16.467880
v 13.107050 94.412216 13.590065
v 13.107050 96.331323 13.590065
v 13.107050 96.331323 15.508515
v 13.107050 94.412216 15.508515
v 15.984865 95.371770 15.508515
v 14.066415 96.331323 13.590065
v 14.066415 94.412216 13.590065
v 14.066415 95.371770 16.467880
v 15.984865 95.371770 16.467880
v 14.066415 96.331323 16.467880
v 15.984865 96.331323 15.508515
v 14.066415 94.412216 15.508515
f 369 364 372 
f 362 361 363 
f 360 362 363 
f 363 361 364 
f 362 360 366 
f 361 362 366 
f 366 365 367 
f 364 361 367 
f 361 366 367 
f 363 364 368 
f 365 360 369 
f 367 365 369 
f 360 368 369 
f 368 364 369 
f 360 363 370 
f 368 360 370 
f 363 368 370 
f 360 365 371 
f 366 360 371 
f 365 366 371 
f 364 367 372 
f 367 369 372 
o convex_17
v -17.601292 83.856564 15.508233
v -12.804464 85.775390 14.549149
v -12.804464 83.856564 14.549149
v -13.764393 82.896447 11.670770
v -13.764393 85.775390 11.670770
v -17.601292 84.815272 17.426964
v -16.641832 83.856564 17.426964
v -12.804464 82.896447 11.670770
v -15.682373 85.775390 13.590065
v -12.804464 82.896447 13.590065
v -12.804464 85.775390 11.670770
v -13.764393 85.775390 15.508233
v -17.601292 83.856564 17.426964
v -14.723852 83.856564 16.467880
v -17.601292 84.815272 15.508233
v -15.682373 85.775390 15.508233
v -16.641832 84.815272 17.426964
v -13.764393 82.896447 13.590065
v -14.723852 84.815272 16.467880
v -14.723852 85.775390 12.630418
f 387 381 392 
f 376 373 377 
f 374 375 380 
f 376 377 380 
f 374 377 381 
f 380 375 382 
f 376 380 382 
f 377 374 383 
f 374 380 383 
f 380 377 383 
f 374 381 384 
f 373 376 385 
f 378 373 385 
f 379 378 385 
f 382 379 385 
f 375 374 386 
f 382 375 386 
f 379 382 386 
f 377 373 387 
f 373 378 387 
f 378 381 387 
f 381 378 388 
f 378 384 388 
f 384 381 388 
f 378 379 389 
f 384 378 389 
f 379 386 389 
f 376 382 390 
f 385 376 390 
f 382 385 390 
f 374 384 391 
f 386 374 391 
f 384 389 391 
f 389 386 391 
f 381 377 392 
f 377 387 392 
o convex_18
v -14.723852 95.371864 14.548586
v -15.682373 93.452757 11.670770
v -15.682373 95.371864 11.670770
v -12.804464 93.452757 11.670770
v -17.601292 94.412310 14.548586
v -13.764393 93.452757 13.589220
v -12.804464 95.371864 12.630136
v -17.601292 95.371864 13.589220
v -12.804464 95.371864 11.670770
v -15.682373 93.452757 13.589220
v -14.723852 94.412310 14.548586
v -17.601292 95.371864 14.548586
v -12.804464 93.452757 12.630136
v -17.601292 94.412310 13.589220
f 397 400 406 
f 394 395 396 
f 394 396 398 
f 395 393 399 
f 393 395 400 
f 395 394 400 
f 396 395 401 
f 395 399 401 
f 399 396 401 
f 397 394 402 
f 394 398 402 
f 398 397 402 
f 393 397 403 
f 397 398 403 
f 399 393 403 
f 397 393 404 
f 393 400 404 
f 400 397 404 
f 398 396 405 
f 396 399 405 
f 403 398 405 
f 399 403 405 
f 394 397 406 
f 400 394 406 
o convex_19
v -1.288225 56.985967 22.226328
v 0.631070 56.026320 28.943860
v 0.631070 55.066672 28.943860
v 0.631070 55.066672 22.226328
v -1.288225 55.066672 27.983180
v 0.631070 56.985967 22.226328
v -1.288225 56.985967 27.983180
v -1.288225 55.066672 22.226328
v 0.631070 56.985967 27.983180
v -0.328578 56.026320 28.943860
v -0.328578 55.066672 28.943860
f 416 411 417 
f 408 409 410 
f 410 409 411 
f 408 410 412 
f 410 407 412 
f 407 411 413 
f 412 407 413 
f 407 410 414 
f 411 407 414 
f 410 411 414 
f 408 412 415 
f 413 408 415 
f 412 413 415 
f 409 408 416 
f 413 411 416 
f 408 413 416 
f 411 409 417 
f 409 416 417 
o convex_20
v 18.863807 72.340326 16.468444
v 14.066697 69.461383 15.508797
v 14.066697 69.461383 16.468444
v 14.066697 71.380209 15.508797
v 19.822891 72.340326 19.347386
v 16.945076 69.461383 15.508797
v 16.945076 72.340326 18.387739
v 19.822891 71.380209 19.347386
v 15.985992 72.340326 15.508797
v 19.822891 71.380209 17.428091
v 16.945076 70.421501 18.387739
v 14.066697 71.380209 16.468444
v 17.904160 70.421501 15.508797
v 16.945076 69.461383 16.468444
v 15.026345 70.421501 17.428091
v 18.863807 71.380209 19.347386
v 19.822891 72.340326 17.428091
v 15.985992 72.340326 17.428091
v 16.945076 72.340326 15.508797
v 18.863807 72.340326 19.347386
v 17.904160 71.380209 15.508797
v 15.026345 71.380209 17.428091
v 17.904160 70.421501 18.387739
v 18.863807 71.380209 16.468444
f 427 430 441 
f 419 420 421 
f 420 419 423 
f 419 421 423 
f 422 418 424 
f 423 421 426 
f 424 418 426 
f 422 425 427 
f 425 423 427 
f 421 420 429 
f 426 421 429 
f 423 426 430 
f 427 423 430 
f 420 423 431 
f 423 425 431 
f 428 420 431 
f 420 428 432 
f 428 424 432 
f 429 420 432 
f 425 422 433 
f 424 428 433 
f 428 425 433 
f 418 422 434 
f 427 418 434 
f 422 427 434 
f 424 426 435 
f 426 429 435 
f 429 424 435 
f 426 418 436 
f 430 426 436 
f 422 424 437 
f 433 422 437 
f 424 433 437 
f 418 430 438 
f 436 418 438 
f 430 436 438 
f 424 429 439 
f 432 424 439 
f 429 432 439 
f 425 428 440 
f 431 425 440 
f 428 431 440 
f 418 427 441 
f 430 418 441 
o convex_21
v -1.288225 69.461571 22.226798
v 0.631070 70.421125 27.024096
v -0.328578 70.421125 27.024096
v 0.631070 71.380678 22.226798
v -1.288225 71.380678 25.104895
v 0.631070 69.461571 22.226798
v -1.288225 69.461571 26.064261
v -1.288225 71.380678 22.226798
v 0.631070 69.461571 27.024096
v 0.631070 71.380678 25.104895
v -0.328578 69.461571 27.024096
v -1.288225 70.421125 26.064261
f 446 448 453 
f 444 443 446 
f 445 443 447 
f 442 445 447 
f 446 442 448 
f 442 447 448 
f 445 442 449 
f 442 446 449 
f 446 445 449 
f 443 444 450 
f 447 443 450 
f 448 447 450 
f 443 445 451 
f 445 446 451 
f 446 443 451 
f 444 448 452 
f 450 444 452 
f 448 450 452 
f 444 446 453 
f 448 444 453 
o convex_22
v -0.328578 83.856095 22.226328
v 0.631070 84.815742 24.145623
v 0.631070 83.856095 24.145623
v 0.631070 84.815742 22.226328
v -0.328578 84.815742 24.145623
v -0.328578 83.856095 24.145623
v 0.631070 83.856095 22.226328
v -0.328578 84.815742 22.226328
f 458 457 461 
f 455 456 457 
f 456 455 458 
f 455 457 458 
f 454 456 459 
f 458 454 459 
f 456 458 459 
f 456 454 460 
f 457 456 460 
f 454 457 460 
f 457 454 461 
f 454 458 461 
