o convex_0
v -52.718507 150.061071 87.155416
v -40.640317 131.939457 65.005331
v -42.652625 131.939457 67.019567
v -38.621502 131.941429 74.068306
v -34.594716 137.981966 67.019567
v -55.739139 149.057600 81.112710
v -54.732984 145.029918 85.141180
v -46.679412 133.958227 74.068306
v -53.724662 152.079840 84.130810
v -40.640317 134.961698 65.005331
v -35.605207 131.941429 71.045869
v -52.718507 142.009649 77.084239
v -36.609193 138.989380 67.019567
v -49.697875 148.046244 85.141180
v -41.646471 131.939457 75.076508
v -51.712353 146.033388 86.145046
v -56.747462 149.057600 87.155416
v -34.594716 131.941429 67.017399
v -54.732984 149.057600 80.106676
v -34.594716 137.981966 68.025600
v -51.712353 151.072427 85.141180
v -54.732984 144.018561 80.106676
v -44.667103 131.939457 70.039836
v -55.739139 152.079840 87.155416
v -52.718507 146.033388 77.084239
v -55.739139 147.042773 87.155416
v -44.667103 132.946871 75.076508
v -35.603039 138.989380 67.019567
v -53.724662 151.072427 82.120911
v -56.747462 151.072427 84.130810
v -56.747462 148.046244 83.126945
v -54.732984 144.018561 83.126945
f 17 31 32 
f 2 3 12 
f 10 2 12 
f 4 11 14 
f 3 2 15 
f 11 4 15 
f 14 1 16 
f 4 14 16 
f 15 4 16 
f 2 10 18 
f 10 5 18 
f 15 2 18 
f 11 15 18 
f 14 11 20 
f 18 5 20 
f 11 18 20 
f 1 14 21 
f 14 20 21 
f 6 12 22 
f 12 3 23 
f 3 15 23 
f 8 22 23 
f 22 12 23 
f 17 1 24 
f 1 21 24 
f 21 9 24 
f 12 6 25 
f 10 12 25 
f 13 10 25 
f 6 19 25 
f 19 13 25 
f 16 1 26 
f 15 16 26 
f 1 17 26 
f 23 15 27 
f 8 23 27 
f 26 7 27 
f 15 26 27 
f 5 10 28 
f 10 13 28 
f 20 5 28 
f 9 21 28 
f 21 20 28 
f 13 19 29 
f 28 13 29 
f 9 28 29 
f 19 6 30 
f 24 9 30 
f 17 24 30 
f 9 29 30 
f 29 19 30 
f 6 22 31 
f 30 6 31 
f 17 30 31 
f 22 8 32 
f 7 26 32 
f 26 17 32 
f 27 7 32 
f 8 27 32 
f 31 22 32 
o convex_1
v -56.747265 168.190729 -17.572409
v -46.678946 159.130644 -1.460102
v -47.687444 159.130644 -1.460102
v -52.723525 182.289627 -9.516255
v -59.768914 168.190729 -11.530294
v -46.678946 155.106316 -11.528717
v -51.715027 182.289627 -16.563024
v -58.761697 182.289627 -11.531871
v -51.716309 154.094887 -5.489756
v -58.761697 180.272879 -16.563024
v -57.753200 162.149654 -13.541178
v -47.687444 151.072821 -1.460102
v -57.753200 165.171719 -8.511602
v -46.678946 163.154972 -5.491333
v -57.754481 180.272879 -9.516255
v -53.726897 163.154972 -16.564601
v -49.700595 153.092624 -9.514678
v -52.723525 182.289627 -17.572409
v -46.678946 162.149654 -11.528717
v -51.715027 182.289627 -10.524063
v -58.762979 166.177037 -15.555216
v -58.762979 163.154972 -10.522486
v -48.693379 156.111634 -1.460102
v -46.678946 151.072821 -6.499141
v -56.747265 182.289627 -17.572409
v -50.709093 157.120008 -13.541178
v -56.747265 182.289627 -9.516255
v -59.768914 176.242440 -14.548985
v -49.700595 162.149654 -14.547408
v -56.745983 164.166401 -16.564601
v -59.768914 176.242440 -11.530294
v -57.754481 170.207476 -8.510025
f 47 63 64 
f 35 34 36 
f 36 39 40 
f 34 35 44 
f 34 38 46 
f 41 43 49 
f 44 41 49 
f 40 39 50 
f 48 33 50 
f 46 38 51 
f 39 46 51 
f 38 50 51 
f 50 39 51 
f 36 34 52 
f 39 36 52 
f 34 46 52 
f 46 39 52 
f 42 33 53 
f 43 41 54 
f 41 44 54 
f 44 45 54 
f 45 37 54 
f 37 53 54 
f 53 43 54 
f 44 35 55 
f 45 44 55 
f 35 47 55 
f 38 34 56 
f 34 44 56 
f 49 38 56 
f 44 49 56 
f 33 42 57 
f 42 40 57 
f 40 50 57 
f 50 33 57 
f 48 38 58 
f 49 43 58 
f 38 49 58 
f 35 36 59 
f 36 40 59 
f 47 35 59 
f 40 47 59 
f 40 42 60 
f 42 53 60 
f 53 37 60 
f 38 48 61 
f 50 38 61 
f 48 50 61 
f 33 48 62 
f 53 33 62 
f 43 53 62 
f 48 58 62 
f 58 43 62 
f 47 40 63 
f 60 37 63 
f 40 60 63 
f 37 45 64 
f 45 55 64 
f 55 47 64 
f 63 37 64 
o convex_2
v -46.680129 222.565859 -15.557779
v -58.763176 182.290415 -15.557779
v -56.747758 182.290415 -17.571620
v -52.721652 182.290415 -9.516255
v -52.721652 220.552511 -14.549971
v -50.708600 184.308002 -15.557779
v -50.708600 218.539162 -18.579428
v -57.754284 185.316796 -10.524063
v -48.695547 217.534608 -11.531871
v -49.700891 208.468182 -18.579428
v -47.689021 209.472737 -12.538791
v -54.732340 208.472421 -17.571620
v -54.733522 184.308002 -18.579428
v -52.721652 213.503672 -11.531871
v -58.763176 187.330144 -12.538791
v -46.680129 217.534608 -16.564700
v -54.732340 190.348047 -9.516255
v -49.702073 225.592239 -14.549971
v -52.721652 182.290415 -17.571620
v -50.708600 183.299209 -13.544825
v -51.715126 222.565859 -17.571620
v -47.689021 223.574652 -17.571620
v -55.741231 189.347731 -18.579428
v -46.680129 223.574652 -13.544825
v -54.732340 212.494879 -14.549971
v -56.747758 182.290415 -9.516255
v -50.708600 222.565859 -12.538791
v -47.689021 212.494879 -17.571620
v -46.680129 214.512466 -14.549971
v -58.763176 187.330144 -14.549971
v -51.715126 182.290415 -10.524063
v -53.725813 213.503672 -12.538791
f 78 91 96 
f 66 67 68 
f 73 68 75 
f 71 74 77 
f 66 72 79 
f 68 73 81 
f 73 78 81 
f 68 67 83 
f 67 77 83 
f 77 74 83 
f 83 70 84 
f 71 76 85 
f 69 82 85 
f 85 82 86 
f 74 71 86 
f 65 80 86 
f 71 85 86 
f 67 66 87 
f 66 76 87 
f 76 71 87 
f 71 77 87 
f 77 67 87 
f 73 75 88 
f 80 65 88 
f 86 82 88 
f 65 86 88 
f 69 85 89 
f 85 76 89 
f 66 68 90 
f 72 66 90 
f 78 72 90 
f 68 81 90 
f 81 78 90 
f 78 73 91 
f 82 69 91 
f 73 88 91 
f 88 82 91 
f 80 70 92 
f 70 83 92 
f 83 74 92 
f 74 86 92 
f 86 80 92 
f 70 80 93 
f 75 84 93 
f 84 70 93 
f 88 75 93 
f 80 88 93 
f 76 66 94 
f 66 79 94 
f 89 76 94 
f 79 89 94 
f 75 68 95 
f 68 83 95 
f 84 75 95 
f 83 84 95 
f 72 78 96 
f 79 72 96 
f 69 89 96 
f 89 79 96 
f 91 69 96 
o convex_3
v 5.684473 51.380754 8.609242
v -6.396997 42.319022 4.582210
v -6.396997 42.319022 6.595972
v -6.396997 68.488793 8.609735
v 2.663515 44.333112 4.582210
v 4.677881 43.327743 9.616616
v 0.649148 71.518307 8.609242
v -6.396997 60.439134 9.616616
v 5.684473 37.282120 6.596465
v 0.649148 71.518307 9.616616
v -6.396997 45.338482 4.582210
v 4.677881 37.282120 7.603839
v 5.684473 51.380754 9.616616
v 5.684473 43.327743 6.596465
v 1.656923 69.500866 8.609242
v -6.396997 68.488793 9.616616
v -1.361671 71.518307 8.609242
v 2.663515 42.319022 4.582210
v 5.684473 39.299562 8.609242
v 1.656923 45.338482 4.582210
v 4.677881 39.299562 8.609242
v 1.656923 69.500866 9.616616
v 5.684473 43.327743 9.616616
v -1.361671 71.518307 9.616616
v 4.677881 37.282120 6.596465
v 5.684473 37.282120 7.603839
v 5.684473 47.359275 7.603839
f 110 111 123 
f 98 99 100 
f 100 99 104 
f 99 102 104 
f 104 102 106 
f 98 100 107 
f 101 98 107 
f 99 98 108 
f 105 97 109 
f 106 102 109 
f 97 105 110 
f 101 103 111 
f 103 106 111 
f 109 97 111 
f 110 101 111 
f 100 104 112 
f 104 106 112 
f 106 103 113 
f 107 100 113 
f 103 107 113 
f 100 112 113 
f 98 101 114 
f 105 98 114 
f 101 110 114 
f 110 105 114 
f 105 109 115 
f 103 101 116 
f 101 107 116 
f 107 103 116 
f 102 99 117 
f 99 108 117 
f 115 102 117 
f 108 115 117 
f 106 109 118 
f 111 106 118 
f 109 111 118 
f 109 102 119 
f 102 115 119 
f 115 109 119 
f 112 106 120 
f 106 113 120 
f 113 112 120 
f 98 105 121 
f 108 98 121 
f 105 108 121 
f 108 105 122 
f 115 108 122 
f 105 115 122 
f 97 110 123 
f 111 97 123 
o convex_4
v -36.594906 119.850844 58.949219
v -1.363084 104.753630 29.765378
v -2.373137 108.778437 30.773186
v -13.446469 105.758994 25.734147
v -34.587218 131.938669 63.988258
v -20.504424 110.795867 55.930527
v -8.412760 97.706029 27.749762
v -13.454748 120.859559 52.921299
v -38.619153 130.923251 74.066335
v -4.389104 108.778437 25.729415
v -38.619153 131.938669 62.985182
v -26.539907 108.781788 44.873031
v -4.389104 100.725472 33.787146
v -20.504424 113.818661 58.949219
v -29.557649 112.809946 55.930527
v -29.557649 115.829388 45.880839
v -43.652862 130.923251 73.053796
v -12.440555 99.716757 25.734147
v -11.434641 108.775085 25.734147
v -1.363084 98.711393 25.734147
v -43.652862 131.938669 69.022565
v -33.581304 131.938669 68.019489
v -23.522166 107.776424 48.899531
v -3.379051 104.753630 34.794954
v -26.539907 114.820673 59.961758
v -29.557649 113.818661 45.880839
v -13.454748 120.859559 51.908759
v -1.363084 106.764358 25.729415
v -6.400932 109.783801 26.741955
v -24.523940 115.826037 40.841800
v -13.454748 118.848831 52.921299
v -38.619153 131.938669 74.066335
f 145 144 155 
f 129 130 136 
f 129 136 137 
f 124 135 138 
f 124 138 140 
f 127 133 141 
f 130 135 141 
f 133 127 142 
f 136 130 143 
f 130 141 143 
f 128 134 144 
f 134 139 144 
f 124 140 144 
f 128 144 145 
f 130 129 146 
f 135 130 146 
f 129 138 146 
f 138 135 146 
f 125 126 147 
f 126 131 147 
f 137 136 147 
f 143 125 147 
f 136 143 147 
f 129 137 148 
f 137 132 148 
f 138 129 148 
f 132 140 148 
f 140 138 148 
f 135 124 149 
f 139 127 149 
f 127 141 149 
f 141 135 149 
f 124 144 149 
f 144 139 149 
f 131 126 150 
f 126 133 150 
f 133 128 150 
f 128 145 150 
f 145 131 150 
f 126 125 151 
f 133 126 151 
f 141 133 151 
f 125 143 151 
f 143 141 151 
f 128 133 152 
f 134 128 152 
f 133 142 152 
f 142 134 152 
f 139 134 153 
f 127 139 153 
f 142 127 153 
f 134 142 153 
f 131 137 154 
f 147 131 154 
f 137 147 154 
f 137 131 155 
f 132 137 155 
f 140 132 155 
f 144 140 155 
f 131 145 155 
o convex_5
v 3.672505 73.531360 16.666243
v 3.672505 82.590195 23.715377
v 5.686051 83.600566 20.693137
v 5.686051 38.286675 19.688483
v 2.664993 39.297046 22.707274
v 5.686051 38.286675 16.666243
v 2.664993 88.637633 19.688483
v 5.686051 88.637633 16.666243
v 2.664993 38.286675 19.688483
v 3.672505 45.339555 23.715377
v 2.664993 82.590195 23.715377
v 4.678539 52.387506 22.707274
v 4.678539 38.286675 16.666243
v 3.672505 87.622334 22.707274
v 5.686051 42.318300 20.693137
v 4.678539 88.637633 16.666243
v 5.686051 88.637633 19.688483
v 2.664993 45.339555 23.715377
v 3.672505 39.297046 22.707274
v 2.664993 88.637633 21.700550
v 4.678539 69.494806 22.707274
v 3.672505 38.286675 21.700550
v 3.672505 75.542244 16.666243
v 4.678539 39.297046 21.700550
v 2.664993 87.622334 22.707274
v 3.672505 88.637633 21.700550
v 2.664993 38.286675 21.700550
f 177 160 182 
f 158 159 161 
f 161 156 163 
f 158 161 163 
f 161 159 164 
f 162 156 164 
f 160 162 164 
f 162 160 166 
f 165 157 166 
f 157 165 167 
f 156 161 168 
f 164 156 168 
f 161 164 168 
f 166 157 169 
f 159 158 170 
f 158 167 170 
f 167 165 170 
f 163 156 171 
f 162 163 171 
f 157 158 172 
f 158 163 172 
f 163 162 172 
f 169 157 172 
f 160 165 173 
f 166 160 173 
f 165 166 173 
f 165 160 174 
f 162 166 175 
f 172 162 175 
f 158 157 176 
f 167 158 176 
f 157 167 176 
f 164 159 177 
f 159 174 177 
f 174 160 177 
f 156 162 178 
f 171 156 178 
f 162 171 178 
f 159 170 179 
f 170 165 179 
f 174 159 179 
f 165 174 179 
f 166 169 180 
f 175 166 180 
f 169 175 180 
f 169 172 181 
f 175 169 181 
f 172 175 181 
f 160 164 182 
f 164 177 182 
o convex_6
v 7.700089 143.012626 79.099657
v -7.405199 126.904361 71.045278
v -2.369117 126.904361 71.045278
v 6.691690 149.054643 77.085816
v 3.670928 149.054643 81.115469
v -3.376038 131.942020 76.080374
v 2.664007 134.964162 71.045278
v -7.405199 128.922145 71.045278
v 4.677849 149.054643 77.085816
v 1.655608 130.935395 74.067518
v 7.700089 142.006002 76.080374
v 6.691690 143.012626 80.107070
v -1.360718 134.964162 71.045278
v 1.655608 129.928770 71.045278
v -1.360718 129.928770 75.074932
v 3.670928 150.065802 79.099657
v 7.700089 148.048018 79.099657
v 7.700089 147.041393 76.080374
v -7.405199 128.922145 72.053677
v 3.670928 146.034768 81.115469
v -7.405199 126.904361 72.053677
v 5.684769 149.054643 81.115469
v -2.369117 136.977412 77.085816
v 0.650166 133.957537 77.085816
v -2.369117 126.904361 72.053677
v 7.700089 142.006002 78.093229
v 2.664007 134.964162 77.085816
v 6.691690 150.065802 78.093229
v 3.670928 150.065802 80.107070
v 2.664007 131.942020 71.045278
v -0.355276 127.913253 72.053677
v -4.382958 129.928770 75.074932
f 205 201 214 
f 185 184 189 
f 189 184 190 
f 189 190 195 
f 190 191 195 
f 185 189 196 
f 191 190 198 
f 183 193 199 
f 191 186 200 
f 193 189 200 
f 189 195 200 
f 195 191 200 
f 199 193 200 
f 190 184 201 
f 198 190 201 
f 184 185 203 
f 201 184 203 
f 194 183 204 
f 183 199 204 
f 187 202 204 
f 202 194 204 
f 187 201 205 
f 202 187 205 
f 188 202 205 
f 188 197 206 
f 202 188 206 
f 194 202 206 
f 203 185 207 
f 197 203 207 
f 193 183 208 
f 192 196 208 
f 183 194 209 
f 197 192 209 
f 194 206 209 
f 206 197 209 
f 208 183 209 
f 192 208 209 
f 186 191 210 
f 191 198 210 
f 200 186 210 
f 199 200 210 
f 204 199 210 
f 204 210 211 
f 201 187 211 
f 198 201 211 
f 187 204 211 
f 210 198 211 
f 189 193 212 
f 196 189 212 
f 193 208 212 
f 208 196 212 
f 185 196 213 
f 196 192 213 
f 192 197 213 
f 207 185 213 
f 197 207 213 
f 197 188 214 
f 203 197 214 
f 201 203 214 
f 188 205 214 
o convex_7
v 1.657974 197.394126 44.863075
v 12.734396 185.314627 62.989124
v 7.698512 192.364550 57.953733
v 0.651743 207.462740 40.836576
v 12.734396 184.304454 55.938216
v 6.692281 184.304454 57.953733
v -2.370103 205.449490 44.863075
v 7.698512 198.399568 51.909449
v 9.714127 184.304454 62.989124
v 6.692281 184.304454 54.929324
v -2.370103 203.433875 42.849825
v 9.714127 187.330243 51.909449
v 0.651743 207.462740 43.858717
v 13.742204 186.320069 58.958091
v 4.679820 200.412817 44.863075
v 3.672012 197.394126 53.922699
v 2.665782 200.412817 42.849825
v 2.665782 192.364550 52.918341
v -2.370103 207.462740 39.827684
v 6.692281 199.409741 51.909449
v -0.356064 200.412817 42.849825
v 13.742204 186.320069 60.971340
v 13.742204 184.304454 61.980232
v 8.706320 196.388684 51.909449
v -0.356064 198.399568 45.874234
v -2.370103 208.472914 41.845468
v 4.679820 191.354376 48.894109
v 9.714127 185.314627 62.989124
v -1.362295 206.457298 44.863075
v -2.370103 203.433875 44.863075
v 7.698512 195.383242 48.894109
v 6.692281 185.314627 58.958091
f 242 230 246 
f 220 219 223 
f 219 220 224 
f 219 224 226 
f 222 218 227 
f 218 229 231 
f 229 226 231 
f 230 221 232 
f 225 221 233 
f 218 231 233 
f 217 216 234 
f 222 227 234 
f 230 217 234 
f 231 215 235 
f 225 233 235 
f 233 231 235 
f 234 216 236 
f 222 234 236 
f 216 223 237 
f 223 219 237 
f 219 228 237 
f 236 216 237 
f 228 236 237 
f 218 222 238 
f 229 218 238 
f 236 228 238 
f 222 236 238 
f 224 220 239 
f 220 232 239 
f 235 224 239 
f 225 235 239 
f 227 218 240 
f 233 221 240 
f 218 233 240 
f 226 224 241 
f 215 231 241 
f 231 226 241 
f 235 215 241 
f 224 235 241 
f 216 217 242 
f 223 216 242 
f 217 230 242 
f 221 230 243 
f 234 227 243 
f 230 234 243 
f 240 221 243 
f 227 240 243 
f 221 225 244 
f 232 221 244 
f 239 232 244 
f 225 239 244 
f 219 226 245 
f 228 219 245 
f 226 229 245 
f 238 228 245 
f 229 238 245 
f 220 223 246 
f 232 220 246 
f 230 232 246 
f 223 242 246 
o convex_8
v 10.721146 185.314430 66.011956
v 17.768703 205.449786 82.122489
v 18.777300 205.449786 81.114878
v 16.761684 184.306524 71.046263
v 15.754665 185.314430 62.989124
v 13.743781 195.381073 79.099657
v 14.749223 204.441880 77.084436
v 18.777300 199.408558 74.065350
v 18.777300 200.414395 81.114878
v 17.768703 184.306524 65.004346
v 12.735185 200.414395 78.092046
v 11.729743 184.306524 70.038653
v 12.735185 196.386910 71.046263
v 17.768703 201.422301 74.065350
v 11.729743 184.306524 63.996735
v 15.754665 205.449786 82.122489
v 11.729743 192.361494 75.072960
v 18.777300 193.369400 75.072960
v 11.729743 196.386910 73.057739
v 12.735185 185.314430 72.053874
v 18.777300 205.449786 79.099657
v 17.768703 201.422301 82.122489
v 14.749223 197.394816 71.046263
v 11.729743 185.314430 63.996735
v 15.754665 195.381073 79.099657
v 17.768703 184.306524 69.034788
v 13.743781 198.400652 80.107267
v 10.721146 184.306524 68.027177
v 13.743781 203.436044 80.107267
v 12.735185 200.414395 75.072960
v 11.729743 186.320266 72.053874
v 10.721146 187.328172 67.019567
f 274 263 278 
f 249 248 255 
f 254 249 255 
f 251 254 256 
f 256 250 258 
f 254 251 260 
f 251 256 261 
f 256 258 261 
f 248 249 262 
f 255 250 264 
f 254 255 264 
f 256 254 264 
f 263 257 265 
f 258 250 266 
f 249 254 267 
f 260 253 267 
f 254 260 267 
f 262 249 267 
f 253 262 267 
f 255 248 268 
f 248 262 268 
f 259 253 269 
f 253 260 269 
f 260 251 269 
f 251 261 270 
f 261 247 270 
f 269 251 270 
f 259 269 270 
f 250 255 271 
f 266 250 271 
f 252 266 271 
f 268 252 271 
f 255 268 271 
f 250 256 272 
f 264 250 272 
f 256 264 272 
f 263 252 273 
f 257 263 273 
f 252 268 273 
f 268 262 273 
f 247 261 274 
f 261 258 274 
f 262 253 275 
f 257 273 275 
f 273 262 275 
f 253 259 276 
f 265 257 276 
f 259 265 276 
f 275 253 276 
f 257 275 276 
f 252 263 277 
f 266 252 277 
f 258 266 277 
f 274 258 277 
f 263 274 277 
f 265 259 278 
f 263 265 278 
f 270 247 278 
f 259 270 278 
f 247 274 278 
o convex_9
v -46.677073 158.110521 -11.528224
v -27.545878 139.997779 15.658337
v -29.561068 139.997779 15.658337
v -27.547750 132.950814 5.588452
v -46.677073 150.064028 -1.461000
v -27.547750 144.025461 4.579866
v -45.667605 160.130277 -2.464263
v -28.553473 132.950814 13.643827
v -45.667605 150.064028 -7.496544
v -28.553473 138.995294 1.562094
v -43.654288 160.130277 -8.505129
v -27.547750 145.033861 9.614809
v -46.677073 158.110521 -0.455076
v -28.553473 131.939457 7.600300
v -45.667605 162.150032 -6.490620
v -45.667605 150.064028 0.550848
v -45.667605 154.088753 -10.519638
v -45.667605 159.121877 -11.528224
v -28.553473 142.014577 1.562094
v -46.677073 150.064028 -5.484696
v -29.561068 137.983938 15.658337
v -29.559195 134.967612 3.573942
v -28.553473 131.942414 11.629318
v -46.677073 162.150032 -9.513714
v -27.545878 133.956256 14.649751
v -31.576258 149.052671 3.571281
v -43.654288 158.110521 -0.455076
v -27.547750 137.986895 2.565357
v -32.581980 137.983938 11.629318
v -46.677073 154.088753 -10.519638
v -28.553473 134.967612 3.573942
v -43.654288 153.083311 -9.513714
f 309 295 310 
f 280 284 290 
f 281 280 291 
f 279 283 291 
f 285 290 293 
f 291 285 293 
f 283 286 294 
f 281 291 294 
f 291 283 294 
f 295 279 296 
f 289 284 297 
f 288 296 297 
f 296 289 297 
f 283 279 298 
f 292 283 298 
f 287 292 298 
f 280 281 299 
f 281 294 299 
f 282 292 300 
f 292 287 300 
f 286 283 301 
f 292 282 301 
f 283 292 301 
f 279 291 302 
f 293 289 302 
f 291 293 302 
f 289 296 302 
f 296 279 302 
f 280 299 303 
f 299 286 303 
f 301 282 303 
f 286 301 303 
f 284 289 304 
f 290 284 304 
f 289 293 304 
f 293 290 304 
f 280 290 305 
f 290 285 305 
f 291 280 305 
f 285 291 305 
f 284 280 306 
f 297 284 306 
f 288 297 306 
f 280 303 306 
f 303 282 306 
f 294 286 307 
f 286 299 307 
f 299 294 307 
f 279 295 308 
f 298 279 308 
f 287 298 308 
f 300 287 308 
f 300 308 309 
f 282 300 309 
f 288 306 309 
f 306 282 309 
f 308 295 309 
f 296 288 310 
f 295 296 310 
f 288 309 310 
o convex_10
v -10.425918 4.048023 6.596051
v -4.384535 38.286675 21.701339
v -5.391892 38.286675 21.701339
v -9.419251 38.286675 9.618292
v -4.384535 4.048023 9.618292
v -10.425228 35.260294 17.672178
v -5.391892 5.056817 11.633611
v -11.433275 24.187027 6.596051
v -4.384535 36.272439 18.679098
v -11.433275 7.071052 7.604450
v -4.384535 9.085288 9.618292
v -6.398560 7.071052 7.604450
v -10.425228 38.286675 17.672178
v -5.391892 32.243968 20.692940
v -9.418561 4.048023 8.609892
v -11.433275 25.192469 13.647453
v -10.425228 38.286675 9.618292
v -10.425918 24.187027 6.596051
v -4.384535 5.056817 11.633611
v -8.411894 4.048023 6.596051
v -8.410514 36.272439 19.684540
v -11.433275 27.203353 9.618292
v -4.384535 32.243968 20.692940
v -4.384535 38.286675 19.684540
v -11.433275 7.071052 6.596051
v -9.419251 32.240617 17.672178
v -8.411894 9.085288 6.596051
v -5.391892 36.272439 21.701339
v -6.399250 4.048023 10.625212
v -7.405227 38.286675 20.692940
v -6.398560 4.048023 7.604450
v -10.425228 22.176143 13.647453
f 336 326 342 
f 313 312 314 
f 312 315 319 
f 314 319 321 
f 319 315 321 
f 321 315 322 
f 313 314 323 
f 311 315 325 
f 320 311 325 
f 318 320 326 
f 316 323 326 
f 320 325 326 
f 323 314 327 
f 311 318 328 
f 314 321 328 
f 321 322 328 
f 327 314 328 
f 318 327 328 
f 315 312 329 
f 324 317 329 
f 315 311 330 
f 311 328 330 
f 318 326 332 
f 326 323 332 
f 327 318 332 
f 323 327 332 
f 329 312 333 
f 324 329 333 
f 314 312 334 
f 312 319 334 
f 319 314 334 
f 318 311 335 
f 311 320 335 
f 320 318 335 
f 325 324 336 
f 316 326 336 
f 331 316 336 
f 324 331 336 
f 328 322 337 
f 322 330 337 
f 330 328 337 
f 312 313 338 
f 331 324 338 
f 333 312 338 
f 324 333 338 
f 317 324 339 
f 325 315 339 
f 324 325 339 
f 315 329 339 
f 329 317 339 
f 313 323 340 
f 323 316 340 
f 316 331 340 
f 338 313 340 
f 331 338 340 
f 322 315 341 
f 315 330 341 
f 330 322 341 
f 326 325 342 
f 325 336 342 
o convex_11
v -17.475390 135.964450 26.734759
v -6.402122 151.060206 32.778550
v -7.406776 151.060206 32.778550
v -16.467582 136.966143 16.668017
v -3.378699 108.778016 23.715673
v -1.363084 115.831257 15.660407
v -11.431698 117.842920 13.647058
v -16.467582 137.971974 32.778550
v -8.413006 108.778016 23.715673
v -7.408353 134.962757 32.778550
v -4.384930 149.048542 31.769066
v -15.458198 146.026907 29.751972
v -4.384930 136.966143 22.711808
v -5.391160 113.815454 13.647058
v -1.363084 117.847060 22.711808
v -16.462851 129.925320 25.727148
v -4.384930 147.032739 32.778550
v -15.458198 136.966143 16.668017
v -1.363084 111.803790 15.660407
v -16.462851 144.015244 32.778550
v -8.413006 108.778016 21.702324
v -16.467582 133.952786 16.668017
v -13.444159 134.958618 32.778550
v -6.402122 151.060206 31.769066
v -14.451967 147.032739 28.744361
v -7.406776 136.970282 20.698460
v -17.473813 138.981945 22.711808
v -8.413006 113.815454 13.647058
v -1.363084 119.858723 17.673755
v -5.391160 115.831257 13.647058
v -3.378699 111.807930 24.721410
v -10.423890 120.864555 13.647058
f 360 372 374 
f 344 345 350 
f 344 350 352 
f 350 343 358 
f 351 350 358 
f 344 352 359 
f 353 344 359 
f 357 353 359 
f 356 348 361 
f 357 347 361 
f 348 357 361 
f 350 345 362 
f 343 350 362 
f 345 354 362 
f 347 351 363 
f 358 349 363 
f 351 358 363 
f 361 347 363 
f 346 349 364 
f 358 343 364 
f 349 358 364 
f 351 347 365 
f 350 351 365 
f 347 352 365 
f 352 350 365 
f 345 344 366 
f 344 353 366 
f 353 355 366 
f 360 346 366 
f 354 345 367 
f 345 366 367 
f 366 346 367 
f 355 348 368 
f 348 360 368 
f 366 355 368 
f 360 366 368 
f 343 362 369 
f 362 354 369 
f 364 343 369 
f 346 364 369 
f 354 367 369 
f 367 346 369 
f 349 356 370 
f 356 361 370 
f 363 349 370 
f 361 363 370 
f 348 355 371 
f 355 353 371 
f 357 348 371 
f 353 357 371 
f 348 356 372 
f 356 349 372 
f 360 348 372 
f 352 347 373 
f 347 357 373 
f 359 352 373 
f 357 359 373 
f 349 346 374 
f 346 360 374 
f 372 349 374 
o convex_12
v -8.411823 -5.015149 9.617109
v 7.697427 4.048023 7.604450
v 7.697427 4.048023 6.596051
v -10.425172 4.048023 6.596051
v 7.699892 -5.015149 6.596051
v 6.691985 -1.994387 12.638166
v -6.393546 4.048023 10.623734
v -14.454333 -4.007341 6.596051
v -7.403917 -4.007341 12.638166
v 9.713240 -4.007341 9.617109
v 5.681615 4.048023 10.623734
v 5.684079 -5.015149 10.623734
v -13.446426 -2.999534 8.610484
v 10.721146 -2.999534 6.596051
v 6.691985 -4.007341 12.638166
v -10.425172 -5.015149 6.596051
v -6.396011 -1.994387 12.638166
v -6.396011 -5.015149 11.630950
v -10.425172 4.048023 7.604450
v 9.713240 -2.999534 9.617109
v -14.454333 -4.007341 7.603268
v -7.403917 -2.999534 12.638166
v -14.454333 -2.999534 7.603268
v 10.721146 -4.007341 7.603268
v 10.721146 -2.999534 7.603268
v -9.417265 4.048023 8.610484
v 7.699892 -5.015149 8.610484
v -14.454333 -2.999534 6.596051
v -2.369314 -5.015149 11.630950
v -13.446426 -4.007341 8.610484
v 10.721146 -4.007341 6.596051
v -8.411823 -1.994387 11.630950
f 400 387 406 
f 376 377 378 
f 378 377 379 
f 376 378 381 
f 378 379 382 
f 376 381 385 
f 381 380 385 
f 375 379 386 
f 377 376 388 
f 379 377 388 
f 380 383 389 
f 384 380 389 
f 379 375 390 
f 382 379 390 
f 380 381 391 
f 383 380 391 
f 375 386 392 
f 389 383 392 
f 381 378 393 
f 380 384 394 
f 376 385 394 
f 385 380 394 
f 390 375 395 
f 382 390 395 
f 387 383 396 
f 391 381 396 
f 383 391 396 
f 393 378 397 
f 387 393 397 
f 395 387 397 
f 382 395 397 
f 394 384 398 
f 394 398 399 
f 388 376 399 
f 376 394 399 
f 398 388 399 
f 381 393 400 
f 393 387 400 
f 386 379 401 
f 384 389 401 
f 389 386 401 
f 379 398 401 
f 398 384 401 
f 378 382 402 
f 397 378 402 
f 382 397 402 
f 386 389 403 
f 392 386 403 
f 389 392 403 
f 383 387 404 
f 375 392 404 
f 392 383 404 
f 387 395 404 
f 395 375 404 
f 379 388 405 
f 398 379 405 
f 388 398 405 
f 396 381 406 
f 387 396 406 
f 381 400 406 
o convex_13
v 5.686051 7.078050 9.617700
v 6.693563 59.428656 19.687300
v 5.686051 59.428656 19.687300
v 6.693563 40.294504 6.596051
v 8.707108 10.097235 7.603268
v 6.693563 39.291723 18.680084
v 5.686051 56.404051 10.624916
v 7.699596 45.330092 8.610484
v 5.686051 4.053445 6.596051
v 8.707108 28.217765 12.639349
v 8.707108 28.217765 6.596051
v 6.693563 59.428656 11.632133
v 5.686051 39.291723 18.680084
v 5.686051 40.294504 6.596051
v 7.699596 4.053445 7.603268
v 7.699596 46.338294 17.672868
v 8.707108 10.097235 6.596051
v 6.693563 27.214983 15.658435
v 7.699596 40.294504 17.672868
v 8.707108 23.187597 11.632133
v 6.693563 4.053445 8.610484
v 6.693563 49.357479 19.687300
v 7.699596 39.291723 6.596051
v 5.686051 59.428656 11.632133
v 7.699596 4.053445 6.596051
v 5.686051 20.162991 13.644003
v 5.686051 49.357479 19.687300
v 7.699596 46.338294 13.644003
v 6.693563 56.404051 10.624916
v 6.693563 20.162991 13.644003
v 5.686051 4.053445 8.610484
v 5.686051 27.214983 15.658435
f 432 424 438 
f 407 409 413 
f 407 413 415 
f 415 410 417 
f 416 411 417 
f 409 408 418 
f 409 407 419 
f 413 410 420 
f 410 415 420 
f 415 413 420 
f 416 417 422 
f 417 411 423 
f 415 417 423 
f 411 421 423 
f 412 419 424 
f 422 408 425 
f 416 422 425 
f 412 424 425 
f 411 416 426 
f 421 411 426 
f 425 424 426 
f 416 425 426 
f 415 421 427 
f 408 409 428 
f 419 412 428 
f 425 408 428 
f 412 425 428 
f 414 417 429 
f 417 410 429 
f 418 414 429 
f 413 409 430 
f 409 418 430 
f 418 413 430 
f 421 415 431 
f 415 423 431 
f 423 421 431 
f 419 407 432 
f 409 419 433 
f 428 409 433 
f 419 428 433 
f 417 414 434 
f 418 408 434 
f 414 418 434 
f 408 422 434 
f 422 417 434 
f 410 413 435 
f 413 418 435 
f 429 410 435 
f 418 429 435 
f 421 426 436 
f 426 424 436 
f 407 427 436 
f 427 421 436 
f 432 407 436 
f 424 432 436 
f 407 415 437 
f 427 407 437 
f 415 427 437 
f 424 419 438 
f 419 432 438 
o convex_14
v -11.431698 96.694772 18.680478
v -5.391160 108.777524 25.729415
v -8.412218 108.777524 25.729415
v -12.440294 108.777524 15.660209
v -4.384141 88.637633 20.694320
v -12.440294 100.720385 25.729415
v -7.405199 94.681966 15.659224
v -4.384141 108.777524 22.708161
v -4.384141 96.694772 25.729415
v -8.413006 88.637633 15.659224
v -5.391949 88.637633 22.706189
v -12.440294 105.757329 25.729415
v -10.424679 107.766192 15.660209
v -8.413006 88.637633 19.686906
v -12.440294 108.777524 20.694320
v -11.431698 98.707578 25.729415
v -12.440294 106.762746 15.660209
v -4.384141 94.679995 20.694320
v -4.384141 107.770135 25.729415
v -7.405199 88.637633 15.659224
v -11.433275 107.770135 25.729415
v -10.424679 95.691326 15.659224
v -12.440294 102.727276 18.680478
v -7.405199 96.694772 25.729415
v -4.384141 88.637633 22.706189
v -11.431698 98.707578 16.667623
v -11.431698 96.694772 20.694320
v -11.431698 108.777524 15.660209
v -12.440294 100.720385 23.712617
v -11.431698 100.718413 15.659224
v -4.384141 108.777524 23.714588
v -10.424679 94.681966 16.667623
f 464 460 470 
f 441 440 442 
f 440 441 444 
f 442 440 446 
f 440 444 447 
f 443 446 447 
f 448 443 449 
f 444 441 450 
f 442 444 450 
f 446 445 451 
f 439 448 452 
f 448 449 452 
f 441 442 453 
f 442 450 453 
f 447 444 454 
f 444 452 454 
f 452 449 454 
f 444 442 455 
f 443 445 456 
f 446 443 456 
f 445 446 456 
f 440 447 457 
f 447 446 457 
f 445 443 458 
f 443 448 458 
f 448 445 458 
f 450 441 459 
f 441 453 459 
f 453 450 459 
f 445 448 460 
f 444 455 461 
f 449 447 462 
f 447 454 462 
f 454 449 462 
f 443 447 463 
f 447 449 463 
f 449 443 463 
f 439 461 464 
f 461 455 464 
f 444 439 465 
f 439 452 465 
f 452 444 465 
f 442 446 466 
f 446 451 466 
f 439 444 467 
f 461 439 467 
f 444 461 467 
f 451 445 468 
f 455 442 468 
f 445 460 468 
f 460 464 468 
f 464 455 468 
f 442 466 468 
f 466 451 468 
f 446 440 469 
f 440 457 469 
f 457 446 469 
f 448 439 470 
f 460 448 470 
f 439 464 470 
o convex_15
v -29.561887 166.173098 53.926741
v -34.594272 142.011932 67.015920
v -35.600750 142.011932 67.015920
v -37.614886 132.949277 62.989860
v -30.568364 147.047135 60.974267
v -39.627841 138.992230 65.001608
v -31.576024 165.168896 57.954082
v -27.546568 164.157598 57.954082
v -34.594272 131.945075 67.015920
v -32.581318 162.142097 54.933896
v -28.554227 159.122395 54.933896
v -34.594272 132.952826 63.995734
v -39.627841 136.980278 67.015920
v -39.627841 131.945075 63.995734
v -34.593090 148.054885 57.954082
v -35.599567 154.090741 60.974267
v -34.593090 155.094943 61.980142
v -29.561887 161.141444 59.967112
v -31.574841 146.035836 63.995734
v -28.554227 168.192147 53.926741
v -37.614886 144.030981 60.974267
v -39.627841 131.945075 66.008764
v -31.576024 159.122395 54.933896
v -34.593090 157.110443 57.954082
v -31.576024 149.062635 57.954082
v -29.561887 168.192147 54.933896
v -35.600750 145.031634 66.008764
v -30.568364 147.047135 61.980142
v -27.546568 163.153396 56.948207
v -35.600750 131.945075 63.995734
v -31.574841 148.051337 63.995734
v -32.581318 156.102693 61.980142
f 487 497 502 
f 472 473 479 
f 475 479 482 
f 481 475 482 
f 479 473 483 
f 483 476 484 
f 474 484 485 
f 476 483 486 
f 486 483 487 
f 477 486 487 
f 478 477 488 
f 472 479 489 
f 481 471 490 
f 484 476 491 
f 480 485 491 
f 485 484 491 
f 479 483 492 
f 484 479 492 
f 483 484 492 
f 480 471 493 
f 471 481 493 
f 481 485 493 
f 485 480 493 
f 477 480 494 
f 476 486 494 
f 486 477 494 
f 491 476 494 
f 480 491 494 
f 481 482 495 
f 474 485 495 
f 485 481 495 
f 477 478 496 
f 471 480 496 
f 480 477 496 
f 478 490 496 
f 490 471 496 
f 473 472 497 
f 483 473 497 
f 487 483 497 
f 479 475 498 
f 478 489 498 
f 489 479 498 
f 475 481 499 
f 490 478 499 
f 481 490 499 
f 498 475 499 
f 478 498 499 
f 482 479 500 
f 479 484 500 
f 484 474 500 
f 474 495 500 
f 495 482 500 
f 488 472 501 
f 478 488 501 
f 489 478 501 
f 472 489 501 
f 477 487 502 
f 488 477 502 
f 472 488 502 
f 497 472 502 
o convex_16
v 1.657678 108.775712 12.638166
v -2.369807 107.766728 25.729415
v -4.384141 107.766728 25.729415
v -0.356064 88.638914 21.700550
v -4.384141 91.663007 20.693334
v -1.362640 112.803072 12.638166
v -1.363231 117.839415 22.706485
v -0.356064 100.720993 25.729415
v -4.384141 96.696492 25.729415
v -3.376974 117.839415 21.699269
v 1.657678 111.799805 13.646664
v -4.384141 108.775712 22.707766
v -4.384141 88.638914 21.700550
v -0.356064 88.638914 22.706485
v -1.363231 117.839415 18.680183
v -0.356064 108.775712 12.638166
v -3.376974 117.839415 23.714983
v 1.657678 109.784696 14.653880
v -0.356064 102.736102 25.729415
v -4.384141 88.638914 22.706485
v 0.649920 112.803072 12.638166
v -2.369807 96.696492 25.729415
v -2.369216 117.839415 23.714983
v -2.369216 117.839415 18.680183
v -4.384141 93.675258 20.693334
v 1.657678 108.775712 14.653880
v -1.362640 111.799805 12.638166
v -1.363231 106.760603 25.729415
v 1.657678 111.799805 12.638166
v -1.363231 97.702617 25.729415
v -4.384141 108.775712 23.713701
f 519 512 533 
f 504 505 510 
f 505 507 511 
f 510 505 511 
f 507 505 514 
f 512 508 514 
f 503 506 515 
f 511 507 515 
f 515 506 516 
f 512 509 517 
f 509 513 517 
f 508 503 518 
f 503 515 518 
f 515 507 518 
f 505 504 519 
f 509 512 519 
f 503 513 520 
f 513 509 520 
f 504 510 521 
f 520 509 521 
f 510 520 521 
f 511 515 522 
f 516 511 522 
f 515 516 522 
f 503 508 523 
f 510 511 524 
f 511 516 524 
f 519 504 525 
f 509 519 525 
f 508 512 526 
f 512 517 526 
f 523 508 526 
f 517 523 526 
f 508 507 527 
f 507 514 527 
f 514 508 527 
f 506 503 528 
f 516 506 528 
f 510 516 528 
f 520 510 528 
f 503 520 528 
f 507 508 529 
f 518 507 529 
f 508 518 529 
f 504 521 530 
f 521 509 530 
f 525 504 530 
f 509 525 530 
f 513 503 531 
f 517 513 531 
f 503 523 531 
f 523 517 531 
f 516 510 532 
f 510 524 532 
f 524 516 532 
f 514 505 533 
f 512 514 533 
f 505 519 533 
o convex_17
v -5.391160 152.081418 42.849431
v 24.818330 168.190570 44.858837
v 24.818330 168.190570 39.831627
v 7.702773 166.176532 49.896397
v 7.699816 154.097033 49.894918
v -5.391160 153.087648 34.792588
v 6.691453 152.081418 40.835590
v 19.779473 168.190570 38.824706
v -0.352302 152.081418 34.792588
v 14.749486 159.132918 49.897875
v 14.746529 157.114148 44.861794
v -0.352302 152.081418 47.881077
v 4.683598 164.160916 49.896397
v 12.732760 167.182762 49.896397
v 21.793241 165.167147 38.824706
v 20.787836 167.181185 37.814828
v -4.382797 154.095456 34.792588
v 9.713585 167.182762 48.889476
v 6.691453 152.081418 46.875635
v 16.760298 164.160916 49.897875
v 24.818330 167.181185 44.858837
v 2.669830 159.128186 49.897875
v -5.391160 153.089225 42.849431
v 23.807010 166.176532 39.831627
v 10.718991 154.095456 46.875635
v 1.661467 152.081418 35.802466
v 9.713585 153.089225 43.854873
v 2.666872 154.097033 49.894918
v 23.807010 168.190570 45.865757
v -5.391160 152.081418 34.792588
v 18.774067 168.190570 39.831627
v 7.702773 166.176532 48.889476
f 551 564 565 
f 535 536 541 
f 540 534 542 
f 534 540 545 
f 541 536 549 
f 536 548 549 
f 548 542 549 
f 542 539 550 
f 539 546 550 
f 541 549 550 
f 549 542 550 
f 537 547 551 
f 538 545 552 
f 545 540 552 
f 547 537 553 
f 536 535 554 
f 543 544 554 
f 553 543 554 
f 538 543 555 
f 537 546 555 
f 543 553 555 
f 553 537 555 
f 539 534 556 
f 534 545 556 
f 546 539 556 
f 545 555 556 
f 555 546 556 
f 548 536 557 
f 540 548 557 
f 536 554 557 
f 554 544 557 
f 543 538 558 
f 544 543 558 
f 538 552 558 
f 540 542 559 
f 542 548 559 
f 548 540 559 
f 552 540 560 
f 540 557 560 
f 557 544 560 
f 544 558 560 
f 558 552 560 
f 545 538 561 
f 538 555 561 
f 555 545 561 
f 535 541 562 
f 551 547 562 
f 547 553 562 
f 554 535 562 
f 553 554 562 
f 534 539 563 
f 539 542 563 
f 542 534 563 
f 541 550 564 
f 562 541 564 
f 551 562 564 
f 546 537 565 
f 550 546 565 
f 537 551 565 
f 564 550 565 
o convex_18
v 1.657777 77.560247 25.729415
v -3.377122 47.351030 22.708654
v 2.664993 47.351030 22.708654
v 1.657777 88.637633 20.694320
v -3.377122 88.637633 23.714096
v -3.377122 56.415816 25.729415
v 2.664993 57.422116 25.729415
v 2.664993 88.637633 23.714096
v -3.377122 88.637633 21.702719
v -3.377122 78.566547 25.729415
v 2.664993 86.620991 20.694320
v -2.369906 49.367672 24.722002
v 2.664993 47.351030 23.715081
v 2.664993 84.604349 24.721016
v -3.377122 47.351030 23.715081
v 2.664993 50.378014 24.722002
v 1.657777 86.620991 20.694320
v 2.664993 69.497720 25.729415
v -3.377122 84.604349 24.721016
v 0.649969 56.415816 25.729415
v 2.664993 88.637633 20.694320
v -3.377122 87.627291 21.702719
v -3.377122 49.367672 24.722002
v 0.649969 78.566547 25.729415
f 579 575 589 
f 570 567 571 
f 566 571 572 
f 569 570 573 
f 572 568 573 
f 570 569 574 
f 567 570 574 
f 570 571 575 
f 571 566 575 
f 568 567 576 
f 573 568 576 
f 567 568 578 
f 568 572 578 
f 572 573 579 
f 571 567 580 
f 578 577 580 
f 567 578 580 
f 578 572 581 
f 577 578 581 
f 574 569 582 
f 576 567 582 
f 569 576 582 
f 566 572 583 
f 579 566 583 
f 572 579 583 
f 573 570 584 
f 570 575 584 
f 579 573 584 
f 575 579 584 
f 572 571 585 
f 571 577 585 
f 581 572 585 
f 577 581 585 
f 569 573 586 
f 576 569 586 
f 573 576 586 
f 567 574 587 
f 582 567 587 
f 574 582 587 
f 577 571 588 
f 571 580 588 
f 580 577 588 
f 575 566 589 
f 566 579 589 
o convex_19
v 21.799343 181.281326 37.814434
v 23.811410 170.209142 45.869010
v 24.819218 174.236825 44.862188
v 24.819218 168.193724 39.828866
v 20.791535 168.193724 38.821256
v 19.784319 183.295168 41.841722
v 21.799343 168.193724 45.869010
v 23.811410 181.281326 39.828866
v 25.826434 169.201433 42.847756
v 22.805376 180.275194 43.854578
v 19.784319 183.295168 38.821256
v 24.819218 176.249089 38.821256
v 20.791535 168.193724 43.854578
v 24.819218 178.261353 42.847756
v 21.799343 184.304454 40.834900
v 24.819218 170.209142 38.821256
v 21.799343 177.253644 44.862188
v 19.784319 179.267485 38.821256
v 25.826434 173.229116 40.834900
v 24.819218 168.193724 44.862188
v 22.805376 175.242957 37.814434
v 25.826434 172.222984 43.854578
v 20.791535 179.267485 37.814434
v 22.805376 183.295168 41.841722
v 22.805376 182.289036 38.821256
v 23.811410 168.193724 38.821256
v 19.784319 179.267485 41.841722
v 24.819218 178.261353 39.828866
v 25.826434 170.209142 40.834900
v 22.805376 180.275194 37.814434
v 21.799343 184.304454 39.828866
v 24.819218 177.253644 43.854578
f 603 613 621 
f 594 593 596 
f 594 596 602 
f 600 595 604 
f 591 592 606 
f 596 591 606 
f 595 596 606 
f 592 599 606 
f 599 595 606 
f 595 600 607 
f 594 602 607 
f 605 601 608 
f 592 591 609 
f 591 596 609 
f 596 593 609 
f 593 598 609 
f 601 605 610 
f 598 608 611 
f 608 603 611 
f 592 609 611 
f 609 598 611 
f 600 590 612 
f 594 607 612 
f 607 600 612 
f 590 610 612 
f 610 594 612 
f 595 599 613 
f 603 597 613 
f 604 595 613 
f 593 594 615 
f 605 593 615 
f 594 610 615 
f 610 605 615 
f 596 595 616 
f 602 596 616 
f 595 607 616 
f 607 602 616 
f 597 603 617 
f 608 601 617 
f 603 608 617 
f 601 614 617 
f 614 597 617 
f 598 593 618 
f 593 605 618 
f 608 598 618 
f 605 608 618 
f 610 590 619 
f 601 610 619 
f 590 614 619 
f 614 601 619 
f 590 600 620 
f 600 604 620 
f 613 597 620 
f 604 613 620 
f 614 590 620 
f 597 614 620 
f 599 592 621 
f 592 611 621 
f 611 603 621 
f 613 599 621 
o convex_20
v 7.700089 182.289035 59.968856
v 17.770281 184.302877 69.031239
v 16.761881 184.302877 70.037470
v 15.755454 176.248300 66.007816
v 11.729743 184.302877 54.932971
v 15.755454 176.248300 57.956394
v 10.722329 176.248300 65.003163
v 12.735185 184.302877 71.045278
v 10.722329 176.248300 57.956394
v 17.770281 182.289035 62.989124
v 7.700089 184.302877 55.942356
v 17.770281 177.256798 63.995355
v 10.722329 184.302877 68.023432
v 17.770281 184.302877 63.995355
v 9.714916 176.248300 59.968856
v 13.740627 178.262930 68.023432
v 8.708488 183.295956 54.932971
v 16.761881 179.269851 68.023432
v 12.735185 183.295956 71.045278
v 9.714916 176.248300 62.989124
v 7.700089 182.289035 56.947009
v 16.761881 179.269851 59.968856
v 7.700089 184.302877 59.968856
v 14.748040 183.295956 71.045278
v 12.735185 184.302877 55.942356
v 16.761881 176.248300 59.968856
v 10.722329 183.295956 68.023432
v 11.729743 176.248300 66.007816
v 17.770281 181.282115 68.023432
v 11.729743 183.295956 54.932971
v 11.729743 183.295956 70.037470
v 16.761881 176.248300 65.003163
f 650 639 653 
f 624 623 626 
f 627 625 628 
f 624 626 629 
f 627 628 630 
f 629 626 632 
f 631 623 633 
f 629 632 634 
f 626 623 635 
f 623 631 635 
f 630 628 636 
f 627 630 638 
f 632 626 638 
f 637 625 639 
f 622 636 641 
f 636 628 641 
f 622 632 642 
f 636 622 642 
f 630 636 642 
f 638 630 642 
f 632 638 642 
f 632 622 644 
f 634 632 644 
f 624 629 645 
f 639 624 645 
f 637 639 645 
f 640 637 645 
f 629 640 645 
f 627 626 646 
f 626 635 646 
f 635 631 646 
f 643 627 646 
f 631 643 646 
f 625 627 647 
f 631 633 647 
f 627 643 647 
f 643 631 647 
f 622 641 648 
f 641 628 648 
f 644 622 648 
f 634 644 648 
f 628 625 649 
f 625 637 649 
f 637 640 649 
f 640 628 649 
f 623 624 650 
f 633 623 650 
f 624 639 650 
f 626 627 651 
f 638 626 651 
f 627 638 651 
f 629 634 652 
f 640 629 652 
f 628 640 652 
f 648 628 652 
f 634 648 652 
f 639 625 653 
f 625 647 653 
f 647 633 653 
f 633 650 653 
o convex_21
v -6.398179 8.081226 -8.506870
v 4.677701 42.308050 6.596051
v 4.677701 42.308050 5.588243
v 5.685459 8.081226 -7.500640
v 4.677701 34.256453 6.596051
v -6.398179 41.299506 3.574205
v 2.664550 10.098313 -9.516255
v -6.398179 40.294313 6.596051
v 4.677701 8.081226 -5.485024
v -6.398179 20.160296 -1.460102
v -6.398179 10.098313 -9.516255
v 1.657974 39.285769 2.567975
v 5.685459 22.174032 1.560167
v 5.685459 40.294313 5.588243
v 4.677701 10.098313 -8.508448
v 2.664550 41.299506 3.574205
v -6.398179 42.308050 6.596051
v 3.669942 8.081226 -9.516255
v -6.398179 9.089769 -7.500640
v 4.677701 22.174032 1.560167
v 5.685459 34.256453 6.596051
v -6.398179 37.275383 5.588243
v -6.398179 42.308050 4.580436
v 5.685459 8.081226 -5.485024
v 5.685459 10.098313 -7.500640
v -6.398179 8.081226 -9.516255
v 2.664550 42.308050 4.580436
v 5.685459 40.294313 6.596051
v 3.669942 9.089769 -9.516255
v 0.651398 39.285769 2.567975
f 659 665 683 
f 658 655 661 
f 659 654 661 
f 654 657 662 
f 661 654 663 
f 654 659 664 
f 660 664 665 
f 656 655 667 
f 666 657 667 
f 656 667 668 
f 660 665 669 
f 665 659 669 
f 656 668 669 
f 655 656 670 
f 661 655 670 
f 659 661 670 
f 657 654 671 
f 664 660 671 
f 668 657 671 
f 654 662 672 
f 663 654 672 
f 662 663 672 
f 658 663 673 
f 663 662 673 
f 666 658 673 
f 662 666 673 
f 655 658 674 
f 658 666 674 
f 666 667 674 
f 658 661 675 
f 661 663 675 
f 663 658 675 
f 669 659 676 
f 670 656 676 
f 659 670 676 
f 662 657 677 
f 657 666 677 
f 666 662 677 
f 667 657 678 
f 657 668 678 
f 668 667 678 
f 654 664 679 
f 671 654 679 
f 664 671 679 
f 656 669 680 
f 676 656 680 
f 669 676 680 
f 667 655 681 
f 655 674 681 
f 674 667 681 
f 660 669 682 
f 669 668 682 
f 671 660 682 
f 668 671 682 
f 664 659 683 
f 665 664 683 
o convex_22
v -0.355966 153.094813 -22.608096
v 6.690627 159.134744 -16.567065
v 7.698424 160.140462 -17.574183
v 2.667425 198.402722 -29.651217
v 8.707108 188.317442 -31.665453
v 7.698424 147.049263 -19.588418
v -0.355966 156.106350 -16.567065
v 7.698424 196.374429 -27.636982
v 1.659628 192.340317 -32.674246
v 5.685492 156.117587 -24.625683
v 1.659628 141.003714 -16.567065
v 3.674334 191.334598 -33.684715
v 3.674334 194.357373 -26.633215
v 6.690627 197.385766 -33.684715
v 8.707108 159.145981 -18.582976
v 7.698424 146.043545 -16.568741
v 0.651831 150.066420 -22.609772
v 1.659628 196.374429 -28.644099
v -0.355966 165.174674 -24.622331
v 8.707108 163.168856 -24.625683
v 8.707108 195.368710 -29.651217
v -0.355966 143.026388 -18.581301
v 0.652718 156.117587 -24.625683
v 6.690627 191.334598 -33.684715
v 4.678582 144.026489 -19.588418
v 1.659628 197.385766 -32.674246
v 1.659628 159.134744 -16.567065
v 7.698424 190.334498 -25.627773
v 5.684605 150.066420 -22.609772
v 6.690627 198.402722 -28.644099
v 1.659628 171.220224 -28.644099
v 3.672560 141.003714 -17.575859
f 705 708 715 
f 685 690 694 
f 686 685 699 
f 685 694 699 
f 698 686 699 
f 689 698 699 
f 690 696 701 
f 696 687 701 
f 684 690 702 
f 692 684 702 
f 690 701 702 
f 693 688 703 
f 688 698 703 
f 698 689 703 
f 688 697 704 
f 698 688 704 
f 690 684 705 
f 694 690 705 
f 684 700 705 
f 684 692 706 
f 700 684 706 
f 693 700 706 
f 688 693 707 
f 697 688 707 
f 695 697 707 
f 705 700 708 
f 695 692 709 
f 687 697 709 
f 697 695 709 
f 701 687 709 
f 692 702 709 
f 702 701 709 
f 690 685 710 
f 685 696 710 
f 696 690 710 
f 685 686 711 
f 696 685 711 
f 691 696 711 
f 686 698 711 
f 704 691 711 
f 698 704 711 
f 700 693 712 
f 693 703 712 
f 703 689 712 
f 689 708 712 
f 708 700 712 
f 687 696 713 
f 696 691 713 
f 697 687 713 
f 691 704 713 
f 704 697 713 
f 692 695 714 
f 706 692 714 
f 693 706 714 
f 707 693 714 
f 695 707 714 
f 699 694 715 
f 689 699 715 
f 694 705 715 
f 708 689 715 
o convex_23
v -10.429197 119.856932 25.729415
v -27.544498 130.930822 11.631147
v -23.518029 124.892669 11.631147
v -13.448112 109.788417 20.695108
v -8.412218 120.865263 23.714588
v -17.476454 132.941568 25.729415
v -26.535071 138.985634 14.652007
v -20.495369 125.898042 11.631147
v -27.544498 134.955271 16.668214
v -11.434878 108.780086 17.674248
v -11.434878 127.908788 24.722002
v -8.412218 108.780086 22.707175
v -17.476454 130.927865 25.729415
v -8.412218 110.796747 20.695108
v -13.448112 108.780086 17.674248
v -27.544498 138.985634 16.668214
v -8.412218 122.878966 25.729415
v -17.476454 133.949898 22.707175
v -27.544498 131.939152 14.652007
v -20.495369 125.895085 20.692348
v -20.495369 122.878966 11.631147
v -26.535071 133.946941 11.631147
v -10.427325 109.788417 22.707175
v -13.448112 108.780086 19.687695
v -9.421644 124.886755 24.722002
v -16.470773 132.941568 25.729415
v -15.461347 126.900458 25.729415
v -27.544498 138.985634 14.652007
v -14.455666 111.802120 20.695108
v -8.412218 114.821196 21.699762
v -8.412218 114.821196 24.722002
v -26.536944 138.985634 16.668214
f 741 733 747 
f 718 717 723 
f 716 721 728 
f 725 723 729 
f 720 727 729 
f 727 725 729 
f 717 718 730 
f 725 727 730 
f 717 724 731 
f 728 721 731 
f 724 728 731 
f 721 716 732 
f 727 720 732 
f 726 722 733 
f 724 717 734 
f 728 724 735 
f 718 723 736 
f 723 725 736 
f 730 718 736 
f 725 730 736 
f 723 717 737 
f 722 723 737 
f 717 730 739 
f 730 727 739 
f 734 717 739 
f 727 738 739 
f 738 719 739 
f 723 722 740 
f 720 723 740 
f 722 726 740 
f 732 720 740 
f 726 732 740 
f 731 721 741 
f 721 732 741 
f 732 726 741 
f 726 733 741 
f 716 728 742 
f 728 719 742 
f 738 716 742 
f 719 738 742 
f 731 722 743 
f 717 731 743 
f 737 717 743 
f 722 737 743 
f 719 728 744 
f 724 734 744 
f 735 724 744 
f 728 735 744 
f 734 739 744 
f 739 719 744 
f 723 720 745 
f 720 729 745 
f 729 723 745 
f 732 716 746 
f 727 732 746 
f 716 738 746 
f 738 727 746 
f 722 731 747 
f 733 722 747 
f 731 741 747 
o convex_24
v -16.470737 137.977016 16.664961
v -27.545582 130.929663 7.604155
v -25.529966 129.928982 6.598713
v -17.475390 116.834958 14.651120
v -11.433275 120.864298 12.637279
v -26.536197 141.000352 3.574994
v -27.542427 144.021026 10.626395
v -27.545582 130.929663 11.628880
v -17.476967 135.965008 18.680281
v -11.433275 128.917655 15.658041
v -12.441083 117.843624 11.631837
v -11.433275 119.860955 15.658041
v -27.542427 135.967669 3.574994
v -20.495659 120.864298 14.651120
v -16.469160 117.843624 11.631837
v -19.491006 138.985682 17.671882
v -25.529966 144.021026 9.619474
v -16.470737 137.977016 18.680281
v -14.455121 134.953680 15.658041
v -25.529966 136.973673 3.574994
v -11.433275 123.887634 16.664961
v -25.529966 142.006356 5.593271
v -27.542427 143.009699 5.593271
v -11.433275 117.843624 14.651120
v -17.475390 116.834958 13.642721
v -11.433275 126.905646 14.651120
v -26.536197 128.922978 9.619474
v -24.523736 141.000352 13.639764
v -11.433275 128.917655 16.664961
v -19.491006 136.973673 17.671882
v -17.476967 138.985682 17.671882
v -12.441083 120.864298 11.631837
f 758 767 779 
f 754 749 755 
f 752 757 759 
f 750 749 760 
f 751 756 761 
f 750 760 762 
f 760 758 762 
f 763 756 765 
f 757 753 766 
f 748 765 766 
f 760 753 767 
f 758 760 767 
f 756 751 768 
f 751 759 768 
f 759 757 768 
f 765 756 768 
f 764 748 769 
f 766 753 769 
f 748 766 769 
f 749 754 770 
f 760 749 770 
f 753 760 770 
f 754 764 770 
f 764 769 770 
f 769 753 770 
f 758 752 771 
f 759 751 771 
f 752 759 771 
f 749 750 772 
f 750 762 772 
f 762 758 772 
f 771 751 772 
f 758 771 772 
f 752 753 773 
f 757 752 773 
f 753 757 773 
f 755 749 774 
f 751 761 774 
f 761 755 774 
f 749 772 774 
f 772 751 774 
f 754 755 775 
f 763 754 775 
f 755 763 775 
f 757 766 776 
f 766 765 776 
f 768 757 776 
f 765 768 776 
f 755 761 777 
f 761 756 777 
f 763 755 777 
f 756 763 777 
f 754 763 778 
f 748 764 778 
f 764 754 778 
f 765 748 778 
f 763 765 778 
f 753 752 779 
f 752 758 779 
f 767 753 779 
o convex_25
v -6.399757 106.760117 7.603070
v -16.468371 114.818048 14.652007
v -16.468371 114.818048 17.673262
v -8.413795 88.637633 13.643608
v -8.412218 117.839415 15.658435
v -0.356064 88.640492 10.624325
v -6.399757 115.824217 7.604056
v -7.405987 88.637633 15.658435
v -8.413795 101.732128 7.603070
v -0.356064 105.751089 7.604056
v -16.468371 117.839415 12.638166
v -4.385718 89.649519 8.611470
v -0.356064 102.735439 10.624325
v -11.432487 110.793370 17.673262
v -16.468371 117.839415 17.673262
v -0.356064 89.649519 8.611470
v -16.468371 115.824217 12.638166
v -7.405987 88.637633 11.630753
v -15.460563 117.839415 11.631738
v -8.412218 111.793823 7.604056
v -8.413795 88.637633 15.658435
v -1.363872 99.716931 7.604056
v -7.405987 94.688942 15.658435
v -12.440294 108.778173 17.673262
v -11.432487 117.839415 11.631738
v -0.356064 105.751089 8.611470
v -5.391949 88.640492 9.617897
v -7.407564 115.824217 7.604056
v -15.460563 117.839415 17.673262
v -8.412218 117.839415 13.644594
v -5.391949 90.655689 8.611470
v -8.413795 89.652378 12.638166
f 796 797 811 
f 780 786 789 
f 781 782 790 
f 787 785 792 
f 785 789 792 
f 790 782 794 
f 784 790 794 
f 782 793 794 
f 789 785 795 
f 783 781 796 
f 781 790 796 
f 787 783 797 
f 785 787 797 
f 796 788 797 
f 790 784 798 
f 788 796 798 
f 796 790 798 
f 788 798 799 
f 782 781 800 
f 781 783 800 
f 783 787 800 
f 788 780 801 
f 780 789 801 
f 791 788 801 
f 789 795 801 
f 795 791 801 
f 792 784 802 
f 787 792 802 
f 784 793 802 
f 793 787 802 
f 793 782 803 
f 787 793 803 
f 782 800 803 
f 800 787 803 
f 798 784 804 
f 786 798 804 
f 786 784 805 
f 789 786 805 
f 784 792 805 
f 792 789 805 
f 795 785 806 
f 791 795 806 
f 785 797 806 
f 786 780 807 
f 780 788 807 
f 798 786 807 
f 788 799 807 
f 799 798 807 
f 793 784 808 
f 784 794 808 
f 794 793 808 
f 784 786 809 
f 804 784 809 
f 786 804 809 
f 788 791 810 
f 797 788 810 
f 791 806 810 
f 806 797 810 
f 783 796 811 
f 797 783 811 
o convex_26
v 5.685065 4.048023 7.603465
v 2.664796 47.349847 23.715377
v 2.664796 47.349847 22.707594
v -4.384141 4.048023 9.617454
v 4.677651 6.065610 11.633020
v 5.686051 36.270074 15.659421
v -4.384141 35.257042 21.699811
v -3.375742 47.349847 22.707594
v 3.672209 36.270074 21.699811
v -4.384141 10.092307 10.626814
v -4.384141 5.056817 11.634597
v 5.686051 37.274629 19.684245
v 4.678637 8.078959 7.603465
v 5.686051 4.048023 10.626814
v 4.677651 36.270074 15.659421
v 3.672209 26.199093 18.678039
v -3.375742 43.314673 23.715377
v -4.384141 37.274629 19.684245
v 1.657383 43.314673 23.715377
v 5.686051 38.283422 16.665627
v 0.650955 5.056817 11.634597
v 4.678637 12.105655 8.611248
v -2.368328 38.283422 22.707594
v 5.685065 8.078959 7.603465
v -3.375742 47.349847 23.715377
v 4.677651 28.212442 18.678039
v -4.384141 6.069849 9.617454
v 2.664796 46.341054 21.699811
v 2.664796 44.323467 23.715377
v -4.384141 4.048023 10.626814
v 5.686051 38.283422 19.684245
v 2.664796 39.287977 22.707594
f 840 830 843 
f 813 814 819 
f 815 818 821 
f 818 815 822 
f 812 815 824 
f 815 812 825 
f 817 823 825 
f 816 825 827 
f 821 818 829 
f 819 826 829 
f 826 821 829 
f 813 828 830 
f 814 813 831 
f 823 817 831 
f 817 826 831 
f 826 819 831 
f 818 822 832 
f 825 816 832 
f 822 825 832 
f 816 827 832 
f 826 817 833 
f 821 826 833 
f 828 818 834 
f 830 828 834 
f 818 832 834 
f 832 827 834 
f 812 824 835 
f 825 812 835 
f 817 825 835 
f 833 817 835 
f 824 833 835 
f 813 819 836 
f 828 813 836 
f 818 828 836 
f 829 818 836 
f 819 829 836 
f 823 820 837 
f 825 823 837 
f 820 827 837 
f 827 825 837 
f 815 821 838 
f 824 815 838 
f 833 824 838 
f 821 833 838 
f 819 814 839 
f 814 831 839 
f 831 819 839 
f 823 813 840 
f 820 823 840 
f 813 830 840 
f 822 815 841 
f 815 825 841 
f 825 822 841 
f 813 823 842 
f 831 813 842 
f 823 831 842 
f 827 820 843 
f 834 827 843 
f 830 834 843 
f 820 840 843 
o convex_27
v -6.398980 39.303437 6.596938
v -7.404262 88.635464 15.658337
v -8.410333 88.635464 15.658337
v -10.425628 38.287778 15.658337
v -11.433275 27.216459 6.596938
v -3.378403 88.635464 9.617700
v -3.378403 67.489562 10.624621
v -7.404262 88.635464 11.631541
v -9.417980 38.287778 15.658337
v -10.425628 63.458467 15.658337
v -4.384474 48.356053 6.596938
v -9.417980 26.207108 9.617700
v -6.398980 54.399542 6.596938
v -5.392910 88.635464 9.617700
v -9.418769 79.570231 14.651416
v -11.433275 24.188407 9.617700
v -7.404262 72.523700 15.658337
v -4.384474 48.356053 7.603859
v -10.424839 24.188407 6.596938
v -5.392910 84.598061 13.644495
v -10.424839 36.281693 6.596938
v -8.410333 88.635464 13.644495
v -3.378403 88.635464 10.624621
v -4.384474 54.399542 6.596938
v -10.425628 62.455424 13.644495
v -9.417980 26.207108 6.596938
v -3.378403 67.489562 9.617700
v -10.424839 24.188407 9.617700
v -11.433275 24.188407 6.596938
v -11.433275 27.216459 9.617700
v -9.418769 79.570231 15.658337
v -6.398980 88.635464 14.651416
f 863 866 875 
f 845 846 847 
f 846 845 849 
f 846 849 851 
f 845 847 852 
f 847 846 853 
f 844 848 854 
f 854 848 856 
f 851 849 857 
f 849 856 857 
f 852 847 859 
f 847 853 859 
f 845 852 860 
f 852 850 860 
f 850 852 861 
f 844 854 861 
f 852 855 861 
f 855 844 861 
f 848 844 862 
f 845 860 863 
f 860 850 863 
f 848 851 864 
f 856 848 864 
f 851 857 864 
f 857 856 864 
f 846 851 865 
f 851 848 865 
f 858 846 865 
f 848 858 865 
f 849 845 866 
f 850 849 866 
f 863 850 866 
f 849 854 867 
f 856 849 867 
f 854 856 867 
f 848 853 868 
f 858 848 868 
f 853 858 868 
f 844 855 869 
f 862 844 869 
f 855 862 869 
f 849 850 870 
f 854 849 870 
f 850 861 870 
f 861 854 870 
f 855 852 871 
f 852 859 871 
f 862 855 871 
f 859 862 871 
f 859 848 872 
f 848 862 872 
f 862 859 872 
f 853 848 873 
f 859 853 873 
f 848 859 873 
f 853 846 874 
f 846 858 874 
f 858 853 874 
f 845 863 875 
f 866 845 875 
o convex_28
v 12.733115 -3.001308 5.587159
v -8.412021 -4.007933 -16.565390
v -8.412021 -3.001604 -16.565390
v -15.461352 -4.007933 6.596051
v 10.717795 -5.015149 -8.505589
v 11.724026 -1.994092 -10.523373
v -15.461352 -3.001604 6.596051
v -11.430712 -5.015149 6.596051
v 8.705334 -5.015149 6.596051
v -14.452263 -5.015149 -6.494606
v 10.717795 -1.994092 6.596051
v -2.368920 -1.994092 -15.556497
v 3.671322 -5.015149 -14.549873
v -15.461352 -3.001604 -7.501231
v 13.742204 -4.007341 -9.514481
v 3.671322 -3.001308 -16.565390
v 11.726884 -5.015149 3.573909
v -8.412021 -5.015149 -13.543248
v 13.742204 -3.001308 3.573909
v 3.671322 -4.007341 -16.565390
v 8.705334 -1.994092 6.596051
v 12.733115 -1.994092 -9.514481
v 4.677553 -1.994092 -15.556497
v 13.742204 -4.007341 3.573909
v -15.461352 -4.007933 -7.501231
v 12.733115 -1.994092 4.578267
v -13.446032 -5.015149 5.587159
v -2.368920 -1.994092 -13.543248
v -11.430712 -4.007933 -13.543248
v 13.742204 -3.001308 -9.514481
v 11.726884 -4.007341 6.596051
v 5.683783 -3.001308 -15.556497
f 881 905 907 
f 882 879 883 
f 883 880 884 
f 882 883 884 
f 880 883 885 
f 882 884 886 
f 886 881 887 
f 880 885 888 
f 879 882 889 
f 887 878 889 
f 880 888 890 
f 877 878 891 
f 878 887 891 
f 884 880 892 
f 880 890 892 
f 877 888 893 
f 888 885 893 
f 888 877 895 
f 890 888 895 
f 877 891 895 
f 882 886 896 
f 886 887 896 
f 881 886 897 
f 887 881 898 
f 891 887 898 
f 892 890 899 
f 894 876 899 
f 890 894 899 
f 885 879 900 
f 879 889 900 
f 886 876 901 
f 876 894 901 
f 897 886 901 
f 894 897 901 
f 883 879 902 
f 879 885 902 
f 885 883 902 
f 889 882 903 
f 887 889 903 
f 882 896 903 
f 896 887 903 
f 878 877 904 
f 889 878 904 
f 877 893 904 
f 893 885 904 
f 885 900 904 
f 900 889 904 
f 894 890 905 
f 881 897 905 
f 897 894 905 
f 876 886 906 
f 886 884 906 
f 884 892 906 
f 899 876 906 
f 892 899 906 
f 890 895 907 
f 895 891 907 
f 898 881 907 
f 891 898 907 
f 905 890 907 
o convex_29
v 5.686051 88.633592 13.643608
v -3.377122 68.498827 9.617799
v 4.678243 47.357930 9.617799
v 4.678243 58.429424 16.664863
v -3.377122 88.633592 9.617799
v 2.664402 88.633592 9.617799
v 4.678243 88.629552 16.664863
v -3.377122 68.498827 10.624424
v 5.686051 55.419109 9.617799
v 5.685163 58.429424 16.664863
v 3.672209 75.537712 16.664863
v -3.377122 88.633592 10.624424
v 4.678243 47.357930 10.625114
v 5.686051 88.633592 12.638363
v 5.685163 88.629552 16.664863
v 5.686051 47.357930 10.625114
v 3.672209 73.525447 16.664863
v 5.686051 47.357930 9.617799
v 5.686051 58.433465 13.643608
v 3.672209 88.633592 13.643608
v 3.672209 88.633592 10.625114
f 921 916 928 
f 910 909 912 
f 912 908 913 
f 910 912 913 
f 909 910 915 
f 912 909 915 
f 910 913 916 
f 914 911 917 
f 911 914 918 
f 915 918 919 
f 908 912 919 
f 912 915 919 
f 918 914 919 
f 915 910 920 
f 911 915 920 
f 917 911 920 
f 913 908 921 
f 908 916 921 
f 908 914 922 
f 914 917 922 
f 917 908 922 
f 916 908 923 
f 920 910 923 
f 917 920 923 
f 915 911 924 
f 911 918 924 
f 918 915 924 
f 910 916 925 
f 923 910 925 
f 916 923 925 
f 908 917 926 
f 923 908 926 
f 917 923 926 
f 914 908 927 
f 908 919 927 
f 919 914 927 
f 916 913 928 
f 913 921 928 
o convex_30
v 1.657120 103.741609 7.603070
v 0.651809 94.680367 22.708358
v -0.354685 94.680367 22.708358
v -0.355276 117.839415 8.611470
v -0.354685 89.646661 8.611470
v 5.685459 88.637633 19.684639
v 5.685459 92.670886 11.632231
v 2.664796 115.824217 8.611470
v 0.651218 108.778173 17.670798
v -0.354685 88.637633 22.708358
v 5.685459 88.637633 11.632231
v 5.685459 91.661858 18.677718
v 2.664796 115.824217 7.603070
v 2.664796 90.655689 22.708358
v -0.355276 117.839415 7.603070
v 2.664796 88.637633 9.618390
v -0.355867 108.778173 17.670798
v 2.664796 107.772003 7.603070
v 1.658894 89.646661 8.611470
v 1.657120 117.839415 8.611470
v -0.354685 88.637633 9.618390
v -0.355276 102.738298 7.603070
v 0.651218 106.762975 18.679197
v 4.677783 90.655689 20.691560
v 2.664796 88.637633 22.708358
v 5.685459 92.670886 15.659914
v -0.355867 106.762975 18.679197
v 1.657120 117.839415 7.603070
v 1.657120 116.830387 9.618390
v 5.685459 89.646661 19.684639
v 0.651809 102.738298 7.603070
v -0.355867 100.723100 15.658435
f 955 945 960 
f 930 931 938 
f 934 938 939 
f 935 934 939 
f 934 935 940 
f 936 937 940 
f 936 935 941 
f 935 939 941 
f 930 938 942 
f 941 929 943 
f 939 938 944 
f 937 932 945 
f 932 943 945 
f 929 941 946 
f 941 939 946 
f 944 933 947 
f 939 944 947 
f 929 946 947 
f 946 939 947 
f 932 937 948 
f 936 941 948 
f 943 932 948 
f 933 944 949 
f 944 938 949 
f 943 929 950 
f 931 930 951 
f 940 937 951 
f 930 942 951 
f 937 945 951 
f 940 951 952 
f 951 942 952 
f 938 934 953 
f 942 938 953 
f 934 942 953 
f 935 936 954 
f 940 935 954 
f 936 940 954 
f 938 931 955 
f 931 951 955 
f 951 945 955 
f 941 943 956 
f 948 941 956 
f 943 948 956 
f 937 936 957 
f 948 937 957 
f 936 948 957 
f 934 940 958 
f 942 934 958 
f 940 952 958 
f 952 942 958 
f 929 947 959 
f 947 933 959 
f 950 929 959 
f 933 950 959 
f 945 943 960 
f 933 949 960 
f 949 938 960 
f 943 950 960 
f 950 933 960 
f 938 955 960 
o convex_31
v 10.719668 -1.994092 -4.479977
v 8.706221 13.114214 6.596051
v 7.700878 13.114214 6.596051
v 6.694154 38.284211 5.587258
v 5.686051 8.079427 -7.502217
v 6.693464 -0.984769 6.594671
v 12.735185 -0.984769 3.573811
v 9.713634 10.094130 -4.479977
v 5.686051 38.284211 6.594671
v 7.700188 36.265564 6.594671
v 12.735185 -0.984769 -0.453083
v 9.713634 -1.994092 6.594671
v 6.694844 9.084807 -7.502217
v 11.726391 0.024555 -4.479977
v 5.686051 18.149002 0.554331
v 8.706911 27.201369 2.566397
v 9.713634 12.108834 6.596051
v 9.714324 -0.984769 -4.479977
v 5.686051 38.284211 5.587258
v 12.735185 -1.994092 3.573811
v 6.693464 -0.984769 5.587258
v 5.686051 33.245480 6.594671
v 5.686051 8.079427 -4.479977
v 7.700878 -1.994092 5.587258
v 11.726391 -1.994092 -4.479977
v 8.706911 28.210692 6.594671
v 7.700188 36.265564 5.587258
v 8.706221 10.094130 -5.487390
v 5.686051 9.084807 -7.502217
v 9.713634 12.108834 -3.473943
v 12.735185 -1.994092 -0.453083
v 7.700188 34.250861 4.579844
f 987 990 992 
f 963 962 969 
f 964 969 970 
f 970 967 971 
f 969 965 975 
f 971 974 976 
f 962 963 977 
f 963 966 977 
f 969 962 977 
f 970 969 977 
f 966 972 977 
f 965 961 978 
f 969 964 979 
f 965 969 979 
f 964 973 979 
f 971 967 980 
f 972 961 980 
f 967 977 980 
f 977 972 980 
f 966 965 981 
f 978 961 981 
f 965 978 981 
f 966 963 982 
f 963 969 982 
f 975 966 982 
f 969 975 982 
f 965 966 983 
f 975 965 983 
f 966 975 983 
f 961 972 984 
f 972 966 984 
f 966 981 984 
f 981 961 984 
f 961 965 985 
f 965 973 985 
f 973 974 985 
f 974 971 985 
f 980 961 985 
f 967 970 986 
f 977 967 986 
f 970 977 986 
f 964 970 987 
f 970 971 987 
f 971 976 987 
f 973 964 988 
f 968 974 988 
f 974 973 988 
f 973 965 989 
f 965 979 989 
f 979 973 989 
f 974 968 990 
f 976 974 990 
f 987 976 990 
f 971 980 991 
f 985 971 991 
f 980 985 991 
f 964 987 992 
f 988 964 992 
f 968 988 992 
f 990 968 992 
o convex_32
v -10.425566 38.286675 18.680735
v -3.377812 79.568941 25.727444
v -3.377812 84.601079 24.721194
v -3.377122 38.286675 20.694221
v -7.405396 88.637633 15.660012
v -9.416773 77.553128 22.706722
v -5.391259 56.414203 25.727444
v -10.425566 38.286675 15.660012
v -3.377812 88.632704 21.700471
v -10.425566 64.472525 15.660012
v -8.409359 88.632704 20.694221
v -10.426256 54.398390 21.700471
v -3.377122 38.286675 22.706722
v -6.398672 73.531360 25.727444
v -9.417463 38.286675 15.660012
v -9.417463 80.574383 15.660012
v -5.391259 43.323742 23.713958
v -3.377122 56.414203 25.727444
v -10.426256 67.493779 21.700471
v -5.394019 83.595637 24.721194
v -7.405396 78.563499 15.660012
v -4.385915 88.632704 23.713958
v -8.411429 88.637633 15.660012
v -4.386605 38.286675 19.687971
v -9.417463 80.579311 21.700471
v -8.410049 39.297046 20.694221
v -8.410049 57.419645 23.713958
v -6.398672 53.388019 24.721194
v -6.398672 38.286675 21.700471
v -5.394019 78.563499 25.727444
v -9.416773 43.323742 20.694221
v -7.404706 61.456199 24.721194
f 1004 1019 1024 
f 996 993 1000 
f 996 997 1001 
f 997 1000 1002 
f 1000 993 1004 
f 1002 1000 1004 
f 993 996 1005 
f 999 994 1006 
f 996 1000 1007 
f 1000 997 1007 
f 997 1002 1008 
f 1009 1005 1010 
f 995 994 1010 
f 994 999 1010 
f 1001 995 1010 
f 996 1001 1010 
f 1005 996 1010 
f 999 1009 1010 
f 1002 1004 1011 
f 1006 998 1011 
f 1004 1006 1011 
f 1008 1002 1011 
f 994 995 1012 
f 1003 998 1012 
f 997 996 1013 
f 1007 997 1013 
f 995 1001 1014 
f 1001 997 1014 
f 1012 995 1014 
f 1003 1012 1014 
f 997 1008 1015 
f 1014 997 1015 
f 1003 1014 1015 
f 996 1007 1016 
f 1013 996 1016 
f 1007 1013 1016 
f 998 1003 1017 
f 1011 998 1017 
f 1008 1011 1017 
f 1015 1008 1017 
f 1003 1015 1017 
f 1009 999 1020 
f 999 1019 1020 
f 1019 1004 1020 
f 993 1005 1021 
f 1005 1009 1021 
f 1018 993 1021 
f 1009 1018 1021 
f 1006 994 1022 
f 998 1006 1022 
f 994 1012 1022 
f 1012 998 1022 
f 1004 993 1023 
f 993 1018 1023 
f 1018 1009 1023 
f 1009 1020 1023 
f 1020 1004 1023 
f 999 1006 1024 
f 1006 1004 1024 
f 1019 999 1024 
o convex_33
v -0.355917 137.972153 -15.555751
v 1.657888 119.859017 7.603070
v 0.651774 119.859017 7.603070
v 1.659465 157.112571 -15.552991
v -8.411133 111.811099 7.603070
v 3.671692 114.834391 0.551373
v 7.699300 153.077967 -16.563137
v -7.403443 102.746547 6.592925
v -1.363607 153.072644 -20.592678
v 6.691610 142.001435 -16.563137
v 2.665578 107.781818 7.603070
v -7.403443 116.846370 7.603070
v 0.648620 112.811766 -0.453252
v 6.691610 157.112571 -15.552991
v 3.671692 115.835058 6.592925
v -1.363607 152.066654 -14.548366
v 7.699300 146.036039 -13.540981
v -1.362030 102.735901 6.592925
v -8.411133 108.787808 5.585540
v -1.363607 145.024727 -18.575147
v -5.389639 112.817089 -0.453252
v 4.677806 139.984133 -16.563137
v -7.403443 102.746547 7.603070
v -0.355917 151.060665 -20.592678
v 7.699300 146.036039 -16.563137
v 7.699300 151.065987 -14.548366
v 2.662424 135.954851 -14.545606
v 0.651774 149.054008 -10.521585
v 6.691610 157.112571 -16.563137
v 2.665578 107.781818 5.585540
v -2.371298 147.031383 -11.528970
v -8.411133 111.811099 5.585540
f 1033 1043 1056 
f 1026 1027 1029 
f 1026 1029 1035 
f 1029 1027 1036 
f 1034 1030 1037 
f 1026 1035 1039 
f 1035 1030 1039 
f 1038 1026 1039 
f 1028 1033 1040 
f 1036 1028 1040 
f 1039 1030 1041 
f 1043 1033 1044 
f 1042 1032 1045 
f 1037 1042 1045 
f 1032 1043 1045 
f 1043 1044 1045 
f 1044 1025 1045 
f 1034 1037 1046 
f 1025 1044 1046 
f 1035 1029 1047 
f 1042 1035 1047 
f 1032 1042 1047 
f 1029 1043 1047 
f 1043 1032 1047 
f 1044 1033 1048 
f 1034 1046 1048 
f 1046 1044 1048 
f 1030 1034 1049 
f 1041 1030 1049 
f 1031 1041 1049 
f 1048 1031 1049 
f 1034 1048 1049 
f 1031 1038 1050 
f 1038 1039 1050 
f 1041 1031 1050 
f 1039 1041 1050 
f 1045 1025 1051 
f 1037 1045 1051 
f 1025 1046 1051 
f 1046 1037 1051 
f 1027 1026 1052 
f 1036 1027 1052 
f 1028 1036 1052 
f 1026 1038 1052 
f 1038 1028 1052 
f 1033 1028 1053 
f 1028 1038 1053 
f 1038 1031 1053 
f 1031 1048 1053 
f 1048 1033 1053 
f 1030 1035 1054 
f 1037 1030 1054 
f 1035 1042 1054 
f 1042 1037 1054 
f 1033 1029 1055 
f 1029 1036 1055 
f 1040 1033 1055 
f 1036 1040 1055 
f 1029 1033 1056 
f 1043 1029 1056 
o convex_34
v -14.453544 -1.993796 6.596051
v -9.420715 -3.000027 -15.558370
v -9.420715 -1.993796 -15.558370
v -9.419828 -0.986481 6.596051
v -11.432782 8.073931 -4.481160
v -6.398179 8.073931 -10.522880
v -9.419828 8.075016 6.596051
v -15.461352 -1.993796 -6.493621
v -6.398179 -3.000027 -13.543741
v -12.439703 7.066616 6.596051
v -15.461352 -3.000027 5.587652
v -6.398179 6.060386 -7.502020
v -11.432782 -3.000027 6.596051
v -6.398179 -1.993796 -15.558370
v -15.461352 -3.000027 -6.493621
v -10.426749 8.073931 -6.493621
v -12.439703 7.066616 -3.474929
v -7.405987 8.073931 -10.522880
v -15.461352 -1.993796 5.587652
v -14.453544 -1.993796 -8.508250
v -11.432782 8.075016 6.596051
v -6.398179 8.073931 -7.502020
v -6.398179 1.027064 -10.522880
v -6.398179 -3.000027 -15.558370
v -14.453544 -3.000027 6.596051
v -14.453544 -3.000027 -8.508250
v -11.432782 8.075016 -3.474929
v -14.453544 -0.985397 -7.502020
v -10.427636 8.075016 -3.474929
v -9.419828 8.075016 5.587652
f 1085 1063 1086 
f 1057 1060 1063 
f 1057 1063 1066 
f 1058 1065 1067 
f 1065 1062 1068 
f 1060 1057 1069 
f 1065 1060 1069 
f 1067 1065 1069 
f 1058 1059 1070 
f 1059 1062 1070 
f 1062 1065 1070 
f 1067 1064 1071 
f 1058 1067 1071 
f 1064 1066 1073 
f 1061 1072 1073 
f 1062 1059 1074 
f 1059 1072 1074 
f 1057 1066 1075 
f 1066 1064 1075 
f 1064 1067 1075 
f 1067 1057 1075 
f 1059 1058 1076 
f 1071 1064 1076 
f 1072 1059 1076 
f 1066 1063 1077 
f 1063 1060 1078 
f 1062 1063 1078 
f 1060 1068 1078 
f 1068 1062 1078 
f 1060 1065 1079 
f 1068 1060 1079 
f 1065 1068 1079 
f 1065 1058 1080 
f 1058 1070 1080 
f 1070 1065 1080 
f 1057 1067 1081 
f 1069 1057 1081 
f 1067 1069 1081 
f 1058 1071 1082 
f 1076 1058 1082 
f 1071 1076 1082 
f 1072 1061 1083 
f 1061 1073 1083 
f 1073 1066 1083 
f 1062 1074 1083 
f 1074 1072 1083 
f 1077 1063 1083 
f 1066 1077 1083 
f 1064 1073 1084 
f 1073 1072 1084 
f 1076 1064 1084 
f 1072 1076 1084 
f 1062 1083 1085 
f 1083 1063 1085 
f 1063 1062 1086 
f 1062 1085 1086 
o convex_35
v -14.454431 120.862986 66.006925
v -20.496448 107.772476 47.883837
v -16.467681 107.772476 47.883837
v -12.436647 121.870145 52.923570
v 2.664993 131.934051 71.044391
v -20.496448 118.848667 55.941062
v -1.363774 133.953495 70.035537
v -5.392540 124.889061 71.044391
v -13.447806 116.834348 47.883837
v -20.496448 110.796517 55.938795
v -8.412415 127.907976 71.044391
v 1.656101 130.929454 68.020097
v -1.363774 126.900817 71.044391
v -20.496448 116.834348 59.967407
v 2.664993 133.953495 70.035537
v -15.461056 116.834348 47.883837
v -13.447806 113.815432 47.883837
v -16.467681 108.782198 50.910397
v 1.656101 129.924858 68.020097
v -13.445539 116.834348 62.987166
v -11.430022 118.851230 49.899277
v -4.385915 131.934051 71.044391
v -20.496448 109.789357 47.883837
v -20.496448 114.825155 59.967407
v -15.461056 108.782198 47.883837
v -7.405790 124.889061 71.044391
v -6.399165 121.872708 67.013511
v 1.656101 129.924858 71.044391
v -16.467681 107.772476 48.894957
v -20.496448 118.848667 56.949915
v -8.412415 119.858389 53.930156
v -17.472039 111.801113 56.947648
f 1113 1106 1118 
f 1090 1092 1093 
f 1089 1088 1095 
f 1092 1088 1096 
f 1094 1091 1097 
f 1091 1094 1099 
f 1092 1096 1100 
f 1087 1097 1100 
f 1093 1091 1101 
f 1090 1093 1101 
f 1092 1090 1102 
f 1095 1088 1102 
f 1089 1095 1103 
f 1101 1091 1105 
f 1098 1101 1105 
f 1090 1101 1107 
f 1101 1098 1107 
f 1102 1090 1107 
f 1095 1102 1107 
f 1103 1095 1107 
f 1091 1093 1108 
f 1093 1092 1108 
f 1097 1091 1108 
f 1088 1092 1109 
f 1102 1088 1109 
f 1092 1102 1109 
f 1100 1096 1110 
f 1087 1100 1110 
f 1096 1106 1110 
f 1089 1103 1111 
f 1097 1087 1112 
f 1094 1097 1112 
f 1106 1094 1112 
f 1087 1110 1112 
f 1110 1106 1112 
f 1099 1094 1113 
f 1094 1106 1113 
f 1091 1099 1114 
f 1105 1091 1114 
f 1111 1105 1114 
f 1111 1114 1115 
f 1088 1089 1115 
f 1096 1088 1115 
f 1104 1096 1115 
f 1089 1111 1115 
f 1099 1113 1115 
f 1113 1104 1115 
f 1114 1099 1115 
f 1092 1100 1116 
f 1100 1097 1116 
f 1108 1092 1116 
f 1097 1108 1116 
f 1098 1105 1117 
f 1107 1098 1117 
f 1103 1107 1117 
f 1111 1103 1117 
f 1105 1111 1117 
f 1096 1104 1118 
f 1106 1096 1118 
f 1104 1113 1118 
o convex_36
v -8.413006 8.076100 -8.508448
v -6.398179 45.335809 6.596051
v -7.405593 45.335809 6.596051
v -10.425369 8.076100 6.596051
v -11.433275 27.209267 4.580436
v -6.398179 8.076100 -6.492832
v -11.433275 9.086372 -4.481948
v -6.398179 34.255641 5.586666
v -7.405593 10.092997 -9.516255
v -11.433275 8.076100 6.596051
v -7.405593 45.335809 5.586666
v -6.398179 10.092997 -9.516255
v -11.433275 27.209267 6.596051
v -6.398179 24.193040 1.560167
v -6.398179 45.335809 5.586666
v -11.433275 8.076100 -4.481948
v -6.398179 37.275516 6.596051
v -10.425369 33.252663 5.586666
v -6.398179 8.076100 -9.516255
v -10.425369 10.092997 -5.486602
v -10.425369 33.252663 6.596051
v -7.405593 8.076100 -9.516255
v -8.413006 9.086372 -8.508448
v -11.433275 23.186415 2.566397
v -6.398179 22.176143 0.553936
v -6.398179 20.159246 -0.453871
f 1124 1143 1144 
f 1120 1121 1122 
f 1122 1119 1124 
f 1124 1120 1126 
f 1122 1121 1128 
f 1119 1122 1128 
f 1123 1125 1128 
f 1121 1120 1129 
f 1127 1129 1130 
f 1120 1124 1130 
f 1128 1121 1131 
f 1123 1128 1131 
f 1126 1122 1132 
f 1124 1126 1132 
f 1129 1120 1133 
f 1130 1129 1133 
f 1120 1130 1133 
f 1119 1128 1134 
f 1128 1125 1134 
f 1120 1122 1135 
f 1126 1120 1135 
f 1122 1126 1135 
f 1121 1129 1136 
f 1123 1131 1136 
f 1124 1119 1137 
f 1127 1130 1137 
f 1130 1124 1137 
f 1127 1125 1138 
f 1125 1129 1138 
f 1129 1127 1138 
f 1131 1121 1139 
f 1121 1136 1139 
f 1136 1131 1139 
f 1119 1127 1140 
f 1137 1119 1140 
f 1127 1137 1140 
f 1127 1119 1141 
f 1125 1127 1141 
f 1119 1134 1141 
f 1134 1125 1141 
f 1125 1123 1142 
f 1129 1125 1142 
f 1136 1129 1142 
f 1123 1136 1142 
f 1132 1122 1143 
f 1124 1132 1143 
f 1122 1124 1144 
f 1143 1122 1144 
o convex_37
v 9.711762 8.076100 -4.481160
v -6.398179 -2.998942 -15.558370
v -6.398179 -1.991825 -15.558370
v -6.398179 8.072848 -8.509335
v 10.719520 -1.993993 -4.481160
v 4.680066 -0.985791 -14.551055
v 2.664550 8.076100 -10.523965
v 11.727278 -1.993993 -9.516650
v -6.398179 -2.998942 -13.542656
v -6.398179 8.072848 -10.523965
v 8.705777 8.076100 -6.496874
v 6.692035 7.067898 -4.481160
v -6.398179 7.065730 -8.509335
v -2.368920 -2.998942 -15.558370
v 11.727278 0.021327 -4.481160
v 11.727278 -0.985791 -9.516650
v 3.672308 4.045461 -12.536426
v 4.680066 -1.993993 -14.551055
v 10.719520 -0.985791 -10.520712
v 3.672308 0.021327 -14.551055
v 9.711762 -0.985791 -4.481160
v 11.727278 -1.993993 -4.481160
v 4.680066 8.076100 -9.516650
v 6.692035 8.076100 -4.481160
v 9.711762 8.076100 -5.489559
v 11.727278 0.021327 -8.511503
v -2.368920 -2.998942 -13.542656
v -2.368920 -1.991825 -15.558370
v 10.719520 -1.993993 -10.520712
v -2.368920 8.076100 -10.523965
v -2.368920 8.076100 -8.509335
v 3.672308 2.035562 -13.543741
f 1150 1164 1176 
f 1147 1146 1148 
f 1148 1146 1153 
f 1147 1148 1154 
f 1151 1145 1155 
f 1149 1145 1156 
f 1148 1153 1157 
f 1153 1149 1157 
f 1156 1148 1157 
f 1146 1147 1158 
f 1153 1146 1158 
f 1145 1149 1159 
f 1159 1152 1160 
f 1158 1150 1162 
f 1160 1152 1163 
f 1155 1160 1163 
f 1150 1161 1163 
f 1162 1150 1163 
f 1149 1156 1165 
f 1157 1149 1165 
f 1156 1157 1165 
f 1149 1153 1166 
f 1158 1152 1166 
f 1159 1149 1166 
f 1152 1159 1166 
f 1151 1155 1167 
f 1161 1151 1167 
f 1155 1163 1167 
f 1163 1161 1167 
f 1145 1151 1168 
f 1156 1145 1168 
f 1148 1156 1168 
f 1155 1145 1169 
f 1145 1159 1169 
f 1160 1155 1169 
f 1160 1169 1170 
f 1159 1160 1170 
f 1169 1159 1170 
f 1153 1158 1171 
f 1166 1153 1171 
f 1158 1166 1171 
f 1158 1147 1172 
f 1150 1158 1172 
f 1151 1164 1172 
f 1164 1150 1172 
f 1152 1158 1173 
f 1158 1162 1173 
f 1163 1152 1173 
f 1162 1163 1173 
f 1147 1154 1174 
f 1154 1148 1174 
f 1168 1151 1174 
f 1172 1147 1174 
f 1151 1172 1174 
f 1148 1168 1175 
f 1174 1148 1175 
f 1168 1174 1175 
f 1161 1150 1176 
f 1151 1161 1176 
f 1164 1151 1176 
o convex_38
v 5.687726 165.171582 49.897875
v 15.754764 176.246230 65.003163
v 11.727180 176.246230 65.003163
v 3.672012 155.100898 50.906274
v 15.756045 162.151412 49.897875
v 14.747547 176.246230 56.949277
v 10.719964 157.117105 51.913195
v 9.716592 176.246230 62.986364
v 12.733115 168.189683 49.897875
v 11.727180 174.232093 65.003163
v 11.727180 176.246230 56.949277
v 16.763261 175.238127 63.993285
v 3.672012 161.145379 49.897875
v 16.763261 176.246230 58.961639
v 6.694943 155.100898 49.897875
v 14.747547 160.139345 50.906274
v 9.716592 176.246230 58.961639
v 12.734396 171.209853 62.986364
v 7.702159 157.117105 52.918637
v 14.747547 166.175546 49.897875
v 7.702159 167.181579 49.897875
v 3.672012 161.145379 50.906274
v 9.716592 173.223990 62.986364
v 14.747547 173.223990 63.993285
v 11.727180 157.117105 49.897875
v 4.680510 164.163479 49.897875
v 5.687726 157.117105 52.918637
v 9.715310 168.189683 49.897875
v 16.763261 173.223990 61.979444
v 3.672012 155.100898 49.897875
v 15.756045 164.163479 49.897875
v 14.747547 175.238127 55.942356
f 1204 1187 1208 
f 1179 1178 1182 
f 1179 1182 1184 
f 1181 1177 1185 
f 1178 1179 1186 
f 1179 1184 1186 
f 1184 1182 1187 
f 1177 1181 1189 
f 1182 1178 1190 
f 1178 1188 1190 
f 1183 1180 1191 
f 1189 1181 1191 
f 1184 1187 1193 
f 1180 1183 1195 
f 1183 1194 1195 
f 1181 1185 1196 
f 1185 1177 1197 
f 1177 1193 1197 
f 1193 1187 1197 
f 1180 1184 1198 
f 1189 1180 1198 
f 1184 1180 1199 
f 1180 1186 1199 
f 1186 1184 1199 
f 1178 1186 1200 
f 1188 1178 1200 
f 1183 1188 1200 
f 1194 1183 1200 
f 1186 1194 1200 
f 1183 1191 1201 
f 1191 1181 1201 
f 1181 1192 1201 
f 1192 1183 1201 
f 1177 1189 1202 
f 1193 1177 1202 
f 1184 1193 1202 
f 1198 1184 1202 
f 1189 1198 1202 
f 1186 1180 1203 
f 1194 1186 1203 
f 1180 1195 1203 
f 1195 1194 1203 
f 1185 1197 1204 
f 1197 1187 1204 
f 1188 1183 1205 
f 1181 1190 1205 
f 1190 1188 1205 
f 1192 1181 1205 
f 1183 1192 1205 
f 1180 1189 1206 
f 1191 1180 1206 
f 1189 1191 1206 
f 1190 1181 1207 
f 1181 1196 1207 
f 1196 1190 1207 
f 1187 1182 1208 
f 1182 1190 1208 
f 1196 1185 1208 
f 1190 1196 1208 
f 1185 1204 1208 
o convex_39
v -15.458691 138.992830 32.780324
v 5.686051 152.079840 44.859287
v 5.686051 152.079840 41.841271
v -8.409064 151.069963 39.827881
v -4.385436 151.069963 32.780324
v -7.403157 136.977510 32.780324
v -2.371553 149.056121 45.866673
v -15.458691 146.032403 33.787709
v -15.458691 142.013592 36.807105
v -3.377460 152.079840 45.866673
v -0.357669 152.079840 34.793714
v -13.442737 136.974553 33.787709
v 4.678074 151.071441 46.876818
v -6.397250 152.079840 33.786329
v -7.403157 136.977510 33.787709
v 5.686051 151.071441 41.841271
v -3.379529 147.042280 32.780324
v -15.458691 146.032403 32.780324
v -6.399320 152.079840 42.845897
v 4.678074 151.071441 39.829261
v -12.436830 141.003714 37.815870
v 5.686051 151.071441 44.859287
v 0.648237 150.064521 46.876818
v -13.446877 146.038317 37.815870
v -6.399320 148.050679 43.854662
v -5.393413 141.003714 32.780324
v -1.363576 152.079840 46.876818
v -10.422947 147.042280 40.833886
v -1.365646 150.063042 33.786329
v -7.403157 151.069963 32.780324
v -11.428854 149.056121 37.815870
v 4.678074 152.079840 46.876818
f 1235 1221 1240 
f 1209 1213 1214 
f 1216 1209 1217 
f 1210 1211 1218 
f 1218 1211 1219 
f 1209 1214 1220 
f 1217 1209 1220 
f 1219 1213 1222 
f 1218 1219 1222 
f 1220 1214 1223 
f 1211 1210 1224 
f 1223 1214 1224 
f 1214 1213 1225 
f 1213 1209 1226 
f 1209 1216 1226 
f 1222 1212 1227 
f 1218 1222 1227 
f 1219 1211 1228 
f 1211 1224 1228 
f 1224 1214 1228 
f 1217 1220 1229 
f 1210 1221 1230 
f 1221 1223 1230 
f 1223 1224 1230 
f 1224 1210 1230 
f 1220 1223 1231 
f 1223 1221 1231 
f 1215 1229 1231 
f 1229 1220 1231 
f 1216 1217 1232 
f 1229 1215 1233 
f 1217 1229 1233 
f 1214 1225 1234 
f 1228 1214 1234 
f 1210 1218 1235 
f 1215 1231 1235 
f 1231 1221 1235 
f 1233 1215 1235 
f 1218 1233 1235 
f 1218 1227 1236 
f 1232 1217 1236 
f 1227 1232 1236 
f 1233 1218 1236 
f 1217 1233 1236 
f 1213 1219 1237 
f 1225 1213 1237 
f 1219 1228 1237 
f 1234 1225 1237 
f 1228 1234 1237 
f 1222 1213 1238 
f 1213 1226 1238 
f 1226 1222 1238 
f 1212 1222 1239 
f 1226 1216 1239 
f 1222 1226 1239 
f 1227 1212 1239 
f 1216 1232 1239 
f 1232 1227 1239 
f 1221 1210 1240 
f 1210 1235 1240 
