o convex_0
v -46.777987 221.276577 14.517760
v -59.357349 164.654257 10.326692
v -58.308042 165.704282 8.228900
v -49.923443 163.604232 12.422226
v -56.211893 166.754307 16.616681
v -52.019593 163.604232 6.131108
v -53.067668 212.882022 12.422226
v -49.923443 209.737592 17.665577
v -47.826062 214.982072 10.326692
v -57.259968 184.582152 15.567785
v -49.923443 163.604232 7.180004
v -46.777987 212.882022 16.616681
v -52.019593 164.654257 15.567785
v -52.019593 203.448732 9.278925
v -50.971518 218.126502 16.616681
v -46.777987 206.593162 11.374459
v -58.308042 182.487747 11.374459
v -57.259968 177.237622 8.228900
v -58.308042 163.604232 14.517760
v -50.971518 218.126502 11.374459
v -55.162586 165.704282 6.131108
v -53.067668 209.737592 16.616681
v -48.874137 207.643187 9.278925
v -59.357349 168.854357 13.469993
v -46.777987 204.498757 14.517760
v -56.211893 183.537772 16.616681
v -53.067668 207.643187 10.326692
v -54.114511 208.693212 13.469993
v -57.259968 163.604232 7.180004
v -49.923443 205.543137 17.665577
v -50.971518 163.604232 14.517760
v -46.777987 218.126502 11.374459
f 9 20 32 
f 4 6 11 
f 12 1 15 
f 8 12 15 
f 1 12 16 
f 3 2 17 
f 3 17 18 
f 6 4 19 
f 13 5 19 
f 15 1 20 
f 7 15 20 
f 18 14 21 
f 8 15 22 
f 11 6 23 
f 9 11 23 
f 20 9 23 
f 14 20 23 
f 6 21 23 
f 21 14 23 
f 17 2 24 
f 10 17 24 
f 2 19 24 
f 19 5 24 
f 4 11 25 
f 12 4 25 
f 11 16 25 
f 16 12 25 
f 8 22 26 
f 22 10 26 
f 24 5 26 
f 10 24 26 
f 17 7 27 
f 14 18 27 
f 18 17 27 
f 20 14 27 
f 7 20 27 
f 15 7 28 
f 17 10 28 
f 7 17 28 
f 10 22 28 
f 22 15 28 
f 2 3 29 
f 3 18 29 
f 19 2 29 
f 6 19 29 
f 21 6 29 
f 18 21 29 
f 12 8 30 
f 5 13 30 
f 13 12 30 
f 26 5 30 
f 8 26 30 
f 4 12 31 
f 12 13 31 
f 19 4 31 
f 13 19 31 
f 11 9 32 
f 1 16 32 
f 16 11 32 
f 20 1 32 
o convex_1
v -25.802940 148.922459 -52.585925
v -14.269292 138.438836 -28.478046
v -15.318702 138.438836 -28.478046
v -24.754763 158.361291 -47.344832
v -14.269292 152.065760 -54.683512
v -15.318702 127.952236 -29.523966
v -15.318702 158.361291 -48.393625
v -14.269292 137.391069 -45.247245
v -24.754763 142.635857 -42.106612
v -26.852350 158.361291 -56.781098
v -22.657176 138.438836 -45.247245
v -18.464466 135.292558 -28.478046
v -17.415057 144.725438 -52.585925
v -17.415057 158.361291 -57.829892
v -26.852350 155.212037 -48.393625
v -23.706585 156.262781 -57.829892
v -14.269292 127.952236 -28.478046
v -17.415057 130.050747 -29.523966
v -21.608999 143.677671 -51.537132
v -14.269292 146.820971 -53.634718
v -14.269292 154.164270 -46.296039
v -15.318702 133.200001 -40.009026
v -17.415057 158.361291 -47.344832
v -24.754763 142.635857 -48.393625
v -26.852350 152.065760 -50.491212
v -15.318702 158.361291 -53.634718
v -24.754763 157.310548 -46.296039
v -18.464466 136.346278 -44.198452
v -17.415057 156.262781 -57.829892
v -22.657176 138.438836 -37.911439
v -17.415057 137.391069 -28.478046
v -26.852350 158.361291 -50.491212
f 47 59 64 
f 37 34 40 
f 36 39 42 
f 34 35 44 
f 42 39 46 
f 41 44 47 
f 33 42 48 
f 42 46 48 
f 40 34 49 
f 34 44 49 
f 49 44 50 
f 43 38 50 
f 38 49 50 
f 45 40 51 
f 33 48 51 
f 48 45 51 
f 37 40 52 
f 40 45 52 
f 45 48 52 
f 34 37 53 
f 39 34 53 
f 40 49 54 
f 49 38 54 
f 34 39 55 
f 39 36 55 
f 43 41 56 
f 33 51 56 
f 51 43 56 
f 42 33 57 
f 41 47 57 
f 47 42 57 
f 56 41 57 
f 33 56 57 
f 37 46 58 
f 46 39 58 
f 53 37 58 
f 39 53 58 
f 35 34 59 
f 47 44 59 
f 34 55 59 
f 55 36 59 
f 38 43 60 
f 43 51 60 
f 51 40 60 
f 40 54 60 
f 54 38 60 
f 46 37 61 
f 48 46 61 
f 37 52 61 
f 52 48 61 
f 41 43 62 
f 44 41 62 
f 50 44 62 
f 43 50 62 
f 44 35 63 
f 35 59 63 
f 59 44 63 
f 36 42 64 
f 42 47 64 
f 59 36 64 
o convex_2
v -26.850707 185.621811 -71.461742
v -19.513465 159.413780 -47.352221
v -23.706585 159.413780 -47.352221
v -28.948705 195.058282 -66.218802
v -26.850707 158.364884 -56.786846
v -16.366469 160.462676 -56.786846
v -22.660461 194.009386 -67.267390
v -31.046702 194.009386 -73.558918
v -23.706585 195.058282 -73.558918
v -27.899706 164.658259 -53.641082
v -18.464466 158.364884 -58.884022
v -16.366469 158.364884 -48.398141
v -24.752710 162.560468 -60.978530
v -24.752710 195.058282 -66.218802
v -25.801709 158.364884 -48.398141
v -31.046702 195.058282 -70.413154
v -25.801709 192.960490 -74.607506
v -16.366469 162.560468 -51.543906
v -16.366469 159.413780 -48.398141
v -16.366469 162.560468 -56.786846
v -27.899706 162.560468 -56.786846
v -29.997703 194.009386 -74.607506
v -27.899706 167.801355 -62.024450
v -23.706585 188.764906 -72.510330
v -29.997703 195.058282 -67.267390
v -25.801709 162.560468 -49.446729
v -22.660461 192.960490 -71.461742
v -27.899706 162.560468 -53.641082
v -23.706585 158.364884 -58.884022
v -17.415467 158.364884 -57.835434
v -29.997703 195.058282 -74.607506
v -22.660461 189.813802 -71.461742
f 94 88 96 
f 67 66 68 
f 66 67 76 
f 69 75 76 
f 65 75 77 
f 68 66 78 
f 73 68 78 
f 71 73 78 
f 76 67 79 
f 69 76 79 
f 68 73 80 
f 75 65 81 
f 76 70 82 
f 76 82 83 
f 66 76 83 
f 78 66 83 
f 71 78 83 
f 82 71 83 
f 82 70 84 
f 71 82 84 
f 65 77 86 
f 81 65 86 
f 77 69 87 
f 69 85 87 
f 85 72 87 
f 72 86 87 
f 86 77 87 
f 81 73 88 
f 75 81 88 
f 68 80 89 
f 80 74 89 
f 67 68 90 
f 79 67 90 
f 74 79 90 
f 68 89 90 
f 89 74 90 
f 73 71 91 
f 71 84 91 
f 79 74 92 
f 69 79 92 
f 80 72 92 
f 74 80 92 
f 85 69 92 
f 72 85 92 
f 75 69 93 
f 69 77 93 
f 77 75 93 
f 70 76 94 
f 76 75 94 
f 75 88 94 
f 80 73 95 
f 72 80 95 
f 73 81 95 
f 86 72 95 
f 81 86 95 
f 84 70 96 
f 88 73 96 
f 73 91 96 
f 91 84 96 
f 70 94 96 
o convex_3
v -31.047626 210.789156 -72.515359
v -39.432328 220.223062 -81.948239
v -38.384048 219.176219 -82.997135
v -31.047626 195.064953 -74.611715
v -25.806225 201.358329 -76.706633
v -34.190927 224.416593 -82.997135
v -23.709664 199.261564 -69.367235
v -31.047626 198.211641 -69.367235
v -38.384048 222.319828 -77.754092
v -33.142647 221.272984 -77.754092
v -23.709664 195.064953 -73.562819
v -37.335767 212.885922 -75.660611
v -26.854505 198.211641 -76.706633
v -31.047626 195.064953 -70.417567
v -36.287487 221.272984 -84.044594
v -38.384048 226.516438 -82.997135
v -23.709664 195.064953 -69.367235
v -23.709664 199.261564 -72.515359
v -36.287487 216.029531 -74.611715
v -35.239207 224.416593 -78.802988
v -29.999345 201.358329 -69.367235
v -29.999345 198.211641 -76.706633
v -34.190927 221.272984 -76.706633
v -24.757944 201.358329 -69.367235
v -32.094366 220.223062 -80.899343
v -39.432328 224.416593 -79.851884
v -38.384048 216.029531 -80.899343
v -33.142647 222.319828 -78.802988
v -34.190927 218.126297 -82.997135
v -38.384048 221.272984 -84.044594
v -37.335767 226.516438 -80.899343
v -34.190927 203.455095 -75.660611
f 108 123 128 
f 107 100 109 
f 101 107 109 
f 100 107 110 
f 104 108 110 
f 102 111 112 
f 103 104 113 
f 107 103 113 
f 104 110 113 
f 110 107 113 
f 107 101 114 
f 103 107 114 
f 108 104 115 
f 105 108 115 
f 104 103 117 
f 97 115 117 
f 115 104 117 
f 100 99 118 
f 109 100 118 
f 111 109 118 
f 115 97 119 
f 105 115 119 
f 106 116 119 
f 116 105 119 
f 97 117 120 
f 117 103 120 
f 119 97 120 
f 106 119 120 
f 101 102 121 
f 114 101 121 
f 103 114 121 
f 98 108 122 
f 108 105 122 
f 112 98 122 
f 98 99 123 
f 99 100 123 
f 108 98 123 
f 116 106 124 
f 102 116 124 
f 120 103 124 
f 106 120 124 
f 121 102 124 
f 103 121 124 
f 102 101 125 
f 101 109 125 
f 111 102 125 
f 109 111 125 
f 99 98 126 
f 98 112 126 
f 112 111 126 
f 118 99 126 
f 111 118 126 
f 102 112 127 
f 116 102 127 
f 105 116 127 
f 122 105 127 
f 112 122 127 
f 100 110 128 
f 110 108 128 
f 123 100 128 
o convex_4
v -20.562053 220.225115 -40.009642
v -29.996061 195.064543 -69.364361
v -29.996061 200.307997 -69.364361
v -23.707406 195.064543 -69.364361
v -21.610846 214.981662 -53.641081
v -24.755173 218.127734 -44.204815
v -28.948294 195.064543 -66.217981
v -24.755173 202.405378 -69.364361
v -23.707406 219.176424 -48.397115
v -20.562053 214.981662 -44.204815
v -19.514286 220.225115 -45.253608
v -23.707406 214.981662 -44.204815
v -23.707406 195.064543 -67.266774
v -23.707406 200.307997 -69.364361
v -29.996061 195.064543 -67.266774
v -22.658613 222.325165 -41.058435
v -27.899501 202.405378 -69.364361
v -25.802940 216.030352 -50.494701
v -19.514286 218.127734 -43.156022
v -26.851734 211.835589 -52.592288
v -24.755173 216.030352 -44.204815
v -25.802940 195.064543 -66.217981
v -22.658613 220.225115 -40.009642
v -20.562053 222.325165 -42.107229
v -25.802940 213.932971 -54.687001
v -20.562053 211.835589 -51.543495
v -21.610846 221.273806 -45.253608
v -29.996061 199.259306 -67.266774
v -21.610846 212.884280 -46.302402
v -20.562053 222.325165 -40.009642
v -21.610846 209.738208 -57.830508
v -20.562053 217.079043 -42.107229
f 151 140 160 
f 130 131 132 
f 130 132 135 
f 132 131 136 
f 133 136 137 
f 135 132 141 
f 132 136 142 
f 136 133 142 
f 131 130 143 
f 130 135 143 
f 136 131 145 
f 137 136 145 
f 134 144 146 
f 144 137 146 
f 138 141 147 
f 146 131 148 
f 134 146 148 
f 135 140 149 
f 143 135 149 
f 148 143 149 
f 134 148 149 
f 135 141 150 
f 141 138 150 
f 144 134 151 
f 149 140 151 
f 134 149 151 
f 145 131 153 
f 137 145 153 
f 146 137 153 
f 131 146 153 
f 141 132 154 
f 139 147 154 
f 147 141 154 
f 133 137 155 
f 139 133 155 
f 137 144 155 
f 152 139 155 
f 144 152 155 
f 131 143 156 
f 148 131 156 
f 143 148 156 
f 140 135 157 
f 138 140 157 
f 135 150 157 
f 150 138 157 
f 129 147 158 
f 147 139 158 
f 151 129 158 
f 144 151 158 
f 139 152 158 
f 152 144 158 
f 133 139 159 
f 132 142 159 
f 142 133 159 
f 154 132 159 
f 139 154 159 
f 140 138 160 
f 147 129 160 
f 138 147 160 
f 129 151 160 
o convex_5
v -11.122296 143.681058 -37.912363
v -11.122296 125.855060 -29.524069
v -14.269292 127.954187 -30.571528
v -13.219267 142.630622 -50.490494
v -3.783411 133.197640 -28.474454
v -14.269292 138.435859 -28.474454
v -4.832410 125.855060 -29.524069
v -11.122296 143.681058 -49.440879
v -14.269292 143.681058 -50.490494
v -14.269292 133.197640 -40.005126
v -6.930407 137.387168 -28.474454
v -13.219267 126.905496 -28.474454
v -14.269292 143.681058 -37.912363
v -10.074324 143.681058 -42.102199
v -3.783411 129.002877 -29.524069
v -12.170269 138.435859 -46.296347
v -4.832410 125.855060 -28.474454
v -11.122296 142.630622 -49.440879
v -12.170269 140.533241 -31.621142
v -3.783411 133.197640 -29.524069
v -10.074324 143.681058 -45.246732
v -4.832410 135.289787 -28.474454
v -13.219267 130.051568 -35.815289
v -14.269292 127.954187 -28.474454
v -14.269292 137.387168 -45.246732
v -10.074324 138.435859 -28.474454
v -13.219267 133.197640 -40.005126
v -11.122296 125.855060 -28.474454
v -14.269292 140.533241 -31.621142
v -14.269292 142.630622 -50.490494
v -13.219267 137.387168 -45.246732
v -3.783411 129.002877 -28.474454
f 177 175 192 
f 168 164 169 
f 163 166 169 
f 161 168 169 
f 163 169 170 
f 166 165 171 
f 163 162 172 
f 165 166 172 
f 169 166 173 
f 161 169 173 
f 168 161 174 
f 161 171 174 
f 162 167 177 
f 165 172 177 
f 167 175 177 
f 164 168 178 
f 175 167 178 
f 168 175 178 
f 167 176 178 
f 176 164 178 
f 161 173 179 
f 165 175 180 
f 175 168 180 
f 168 174 181 
f 180 168 181 
f 180 181 182 
f 171 165 182 
f 174 171 182 
f 165 180 182 
f 181 174 182 
f 162 163 183 
f 167 162 183 
f 163 170 183 
f 166 163 184 
f 163 172 184 
f 172 166 184 
f 170 169 185 
f 171 161 186 
f 166 171 186 
f 161 179 186 
f 179 166 186 
f 167 183 187 
f 183 170 187 
f 170 185 187 
f 172 162 188 
f 162 177 188 
f 177 172 188 
f 173 166 189 
f 166 179 189 
f 179 173 189 
f 169 164 190 
f 164 176 190 
f 185 169 190 
f 176 185 190 
f 176 167 191 
f 185 176 191 
f 167 187 191 
f 187 185 191 
f 175 165 192 
f 165 177 192 
o convex_6
v 14.042586 169.893091 -55.735589
v -14.269292 143.681058 -51.539595
v -14.269292 143.681058 -38.958180
v -14.269292 154.167657 -51.539595
v 12.992253 174.090113 -52.587362
v 12.992253 165.696070 -48.394652
v -9.025941 143.681058 -45.249708
v -14.269292 153.119890 -45.249708
v 14.042586 166.749791 -53.635129
v -4.830152 158.364678 -54.686180
v 11.944691 173.039369 -55.735589
v 9.846797 167.794581 -48.394652
v -11.121065 143.681058 -38.958180
v -11.121065 143.681058 -50.491828
v -13.218959 147.878079 -53.635129
v -14.269292 146.830312 -40.007589
v 10.894358 166.749791 -55.735589
v 14.042586 169.893091 -49.444061
v -14.269292 151.021380 -53.635129
v -10.073503 146.830312 -52.587362
v -10.073503 143.681058 -40.007589
v -11.121065 144.731801 -38.958180
v -14.269292 151.021380 -43.155817
v -10.073503 143.681058 -49.444061
v -14.269292 154.167657 -49.444061
v 14.042586 174.090113 -54.686180
v 12.992253 167.794581 -48.394652
v 12.992253 166.749791 -54.686180
v 7.748902 166.749791 -55.735589
v -7.975608 144.731801 -44.201941
v -7.975608 149.976589 -53.635129
v 12.992253 173.039369 -51.539595
f 215 204 224 
f 194 195 196 
f 195 194 199 
f 196 195 200 
f 198 199 201 
f 196 197 203 
f 195 199 205 
f 199 194 206 
f 200 195 208 
f 203 193 209 
f 201 193 210 
f 198 201 210 
f 194 196 211 
f 196 203 211 
f 203 202 211 
f 207 194 211 
f 202 207 211 
f 206 194 212 
f 194 207 212 
f 198 205 213 
f 205 199 213 
f 205 198 214 
f 195 205 214 
f 208 195 214 
f 204 208 214 
f 197 200 215 
f 200 208 215 
f 208 204 215 
f 201 199 216 
f 199 206 216 
f 197 196 217 
f 196 200 217 
f 200 197 217 
f 193 203 218 
f 203 197 218 
f 210 193 218 
f 197 210 218 
f 198 210 219 
f 210 204 219 
f 214 198 219 
f 204 214 219 
f 193 201 220 
f 209 193 220 
f 206 212 220 
f 212 209 220 
f 201 216 220 
f 216 206 220 
f 202 203 221 
f 207 202 221 
f 203 209 221 
f 209 207 221 
f 199 198 222 
f 198 213 222 
f 213 199 222 
f 207 209 223 
f 212 207 223 
f 209 212 223 
f 210 197 224 
f 204 210 224 
f 197 215 224 
o convex_7
v 18.235707 170.946401 -52.589825
v 19.284706 185.624582 -47.346885
v 17.189582 185.624582 -47.346885
v 14.042586 167.798584 -49.444882
v 14.042586 173.043783 -55.735589
v 21.382703 178.282002 -47.346885
v 19.284706 179.330692 -52.589825
v 14.042586 176.189855 -51.541237
v 15.091585 169.897710 -55.735589
v 17.189582 168.849020 -50.493470
v 15.091585 178.282002 -53.638413
v 16.140583 180.379383 -47.346885
v 21.382703 180.379383 -49.444882
v 20.333704 175.141164 -51.541237
v 19.284706 185.624582 -48.396294
v 14.042586 167.798584 -53.638413
v 20.333704 176.189855 -47.346885
v 17.189582 176.189855 -54.687001
v 21.382703 183.525455 -48.396294
v 17.189582 170.946401 -54.687001
v 15.091585 167.798584 -53.638413
v 16.140583 183.525455 -49.444882
v 16.140583 182.476764 -47.346885
v 17.189582 177.233311 -47.346885
v 15.091585 167.798584 -49.444882
v 14.042586 176.189855 -53.638413
v 14.042586 170.946401 -49.444882
v 20.333704 175.141164 -48.396294
v 21.382703 183.525455 -47.346885
v 17.189582 185.624582 -48.396294
v 18.235707 181.428074 -51.541237
v 20.333704 179.330692 -51.541237
f 231 243 256 
f 226 227 230 
f 229 228 232 
f 230 227 236 
f 234 225 238 
f 237 230 238 
f 227 226 239 
f 228 229 240 
f 229 233 240 
f 230 236 241 
f 233 229 242 
f 229 235 242 
f 230 237 243 
f 239 226 243 
f 231 239 243 
f 238 225 244 
f 233 242 244 
f 242 238 244 
f 225 234 245 
f 228 240 245 
f 240 233 245 
f 244 225 245 
f 233 244 245 
f 236 227 247 
f 228 236 247 
f 227 246 247 
f 246 232 247 
f 236 228 248 
f 228 241 248 
f 241 236 248 
f 234 241 249 
f 241 228 249 
f 245 234 249 
f 228 245 249 
f 229 232 250 
f 235 229 250 
f 232 246 250 
f 246 235 250 
f 232 228 251 
f 228 247 251 
f 247 232 251 
f 234 238 252 
f 238 230 252 
f 230 241 252 
f 241 234 252 
f 226 230 253 
f 243 226 253 
f 230 243 253 
f 227 239 254 
f 246 227 254 
f 235 246 254 
f 239 231 255 
f 231 242 255 
f 242 235 255 
f 254 239 255 
f 235 254 255 
f 237 238 256 
f 242 231 256 
f 238 242 256 
f 243 237 256 
o convex_8
v 18.237760 178.284465 -46.297475
v 22.430470 206.595933 -30.569475
v 22.430470 207.644932 -31.618884
v 22.430470 184.578457 -45.246424
v 17.188350 186.676454 -47.346885
v 19.285937 202.397064 -31.618884
v 23.479879 196.108820 -33.717703
v 19.285937 207.644932 -34.767112
v 23.479879 204.497936 -34.767112
v 21.382292 185.630330 -47.346885
v 21.382292 178.284465 -47.346885
v 17.188350 184.578457 -44.198657
v 21.382292 207.644932 -34.767112
v 19.285937 207.644932 -31.618884
v 20.334115 192.964698 -35.813237
v 23.479879 202.397064 -30.569475
v 21.382292 179.333464 -45.246424
v 17.188350 179.333464 -46.297475
v 20.334115 188.774452 -46.297475
v 23.479879 195.059822 -38.958180
v 21.382292 202.397064 -30.569475
v 17.188350 179.333464 -47.346885
v 23.479879 192.964698 -36.862646
v 17.188350 187.722579 -44.198657
v 18.237760 179.333464 -45.246424
v 22.430470 206.595933 -34.767112
v 22.430470 186.676454 -45.246424
v 19.285937 196.108820 -34.767112
v 20.334115 206.595933 -30.569475
v 22.430470 184.578457 -42.103123
v 23.479879 205.544060 -31.618884
v 18.237760 188.774452 -46.297475
f 264 275 288 
f 261 266 267 
f 266 260 267 
f 264 259 269 
f 258 259 270 
f 259 264 270 
f 268 262 270 
f 263 265 272 
f 257 267 273 
f 263 271 273 
f 268 261 274 
f 262 268 274 
f 266 261 275 
f 264 269 275 
f 265 263 276 
f 262 271 277 
f 271 263 277 
f 263 272 277 
f 272 258 277 
f 261 267 278 
f 267 257 278 
f 274 261 278 
f 257 274 278 
f 260 276 279 
f 276 263 279 
f 264 261 280 
f 261 268 280 
f 270 264 280 
f 268 270 280 
f 257 273 281 
f 273 271 281 
f 274 257 281 
f 259 265 282 
f 265 266 282 
f 269 259 282 
f 266 275 282 
f 275 269 282 
f 266 265 283 
f 260 266 283 
f 276 260 283 
f 265 276 283 
f 271 262 284 
f 262 274 284 
f 281 271 284 
f 274 281 284 
f 258 270 285 
f 270 262 285 
f 277 258 285 
f 262 277 285 
f 267 260 286 
f 263 273 286 
f 273 267 286 
f 260 279 286 
f 279 263 286 
f 259 258 287 
f 265 259 287 
f 258 272 287 
f 272 265 287 
f 261 264 288 
f 275 261 288 
o convex_9
v -15.317881 134.246023 -15.890473
v -41.532583 143.679826 -8.549536
v -39.433559 142.628364 -11.696532
v -16.367392 122.709296 -19.033364
v -16.367392 137.384397 -28.472299
v -35.238078 149.972586 -7.500537
v -21.609820 131.099643 -27.423300
v -29.995650 139.484653 -7.500537
v -39.433559 147.872331 -11.696532
v -27.901759 138.435859 -24.274251
v -15.317881 127.953263 -28.472299
v -39.433559 140.530777 -7.500537
v -15.317881 124.809551 -15.890473
v -28.948705 133.197230 -20.080310
v -15.317881 137.384397 -27.423300
v -18.466416 125.855676 -25.323250
v -39.433559 149.972586 -9.600587
v -15.317881 132.151105 -14.843528
v -31.045162 145.774744 -7.500537
v -15.317881 135.297485 -16.939472
v -35.238078 138.435859 -7.500537
v -41.532583 149.972586 -7.500537
v -28.948705 136.340941 -23.227306
v -27.901759 141.582239 -22.178307
v -16.367392 122.709296 -21.129308
v -36.285024 149.972586 -9.600587
v -32.094674 147.872331 -8.549536
v -19.515928 130.053518 -28.472299
v -15.317881 127.953263 -14.843528
v -25.805301 130.053518 -19.033364
v -27.901759 133.197230 -22.178307
v -15.317881 122.709296 -21.129308
f 313 299 320 
f 291 290 297 
f 296 294 300 
f 299 289 301 
f 290 291 302 
f 300 290 302 
f 289 299 303 
f 299 293 303 
f 301 289 306 
f 294 296 307 
f 306 289 307 
f 296 306 307 
f 289 303 308 
f 307 289 308 
f 300 292 309 
f 296 300 309 
f 301 296 309 
f 292 301 309 
f 297 290 310 
f 290 300 310 
f 300 294 310 
f 294 305 310 
f 305 297 310 
f 291 297 311 
f 298 295 311 
f 297 298 311 
f 293 298 312 
f 298 297 312 
f 305 293 312 
f 297 305 312 
f 292 300 313 
f 304 299 313 
f 303 293 314 
f 294 303 314 
f 293 305 314 
f 305 294 314 
f 303 294 315 
f 294 307 315 
f 308 303 315 
f 307 308 315 
f 295 298 316 
f 298 293 316 
f 293 299 316 
f 299 304 316 
f 304 295 316 
f 296 301 317 
f 306 296 317 
f 301 306 317 
f 300 302 318 
f 302 304 318 
f 313 300 318 
f 304 313 318 
f 302 291 319 
f 295 304 319 
f 304 302 319 
f 291 311 319 
f 311 295 319 
f 299 301 320 
f 301 292 320 
f 292 313 320 
o convex_10
v -54.114819 153.116401 7.179491
v -48.870852 163.601871 11.372817
v -31.046702 144.731801 -6.450512
v -42.586098 151.022611 -7.500537
v -33.146957 139.486705 -6.450512
v -49.916977 155.212550 12.420584
v -57.261199 163.601871 7.179491
v -41.537304 142.635651 -7.500537
v -37.339462 151.022611 -7.500537
v -56.209737 160.455286 15.568401
v -52.017232 163.601871 5.081699
v -50.968439 151.022611 8.227258
v -50.968439 163.601871 14.518376
v -57.261199 159.407211 7.179491
v -37.339462 139.486705 -7.500537
v -31.046702 140.539501 -6.450512
v -58.309992 163.601871 13.470609
v -33.146957 147.878386 -7.500537
v -48.870852 163.601871 7.179491
v -58.309992 159.407211 12.420584
v -46.770597 154.164475 10.325050
v -45.724472 146.830311 -4.352720
v -45.724472 151.022611 8.227258
v -52.017232 151.022611 2.986165
v -38.388256 141.587576 -3.304953
v -39.439718 140.539501 -6.450512
v -55.163612 155.212550 11.372817
v -31.046702 140.539501 -7.500537
v -58.309992 159.407211 9.272767
v -53.066026 160.455286 15.568401
v -56.209737 163.601871 15.568401
v -53.066026 156.260625 13.470609
f 350 330 352 
f 328 324 329 
f 327 322 331 
f 324 327 331 
f 329 324 331 
f 323 322 333 
f 322 327 333 
f 327 324 334 
f 328 329 335 
f 333 327 337 
f 322 323 338 
f 335 329 338 
f 331 322 339 
f 329 331 339 
f 322 338 339 
f 338 329 339 
f 330 337 340 
f 323 333 341 
f 336 323 341 
f 324 328 342 
f 334 324 342 
f 325 336 343 
f 341 326 343 
f 336 341 343 
f 342 328 344 
f 334 342 344 
f 335 325 345 
f 325 343 345 
f 343 332 345 
f 332 321 346 
f 328 335 346 
f 321 344 346 
f 344 328 346 
f 335 345 346 
f 345 332 346 
f 321 332 347 
f 340 321 347 
f 330 340 347 
f 325 335 348 
f 336 325 348 
f 323 336 348 
f 338 323 348 
f 335 338 348 
f 327 334 349 
f 337 327 349 
f 321 340 349 
f 340 337 349 
f 344 321 349 
f 334 344 349 
f 341 333 350 
f 326 341 350 
f 337 330 351 
f 333 337 351 
f 330 350 351 
f 350 333 351 
f 332 343 352 
f 343 326 352 
f 330 347 352 
f 347 332 352 
f 326 350 352 
o convex_11
v 4.603241 1.072872 11.370559
v -5.878945 -10.461187 -14.837780
v -4.830152 -11.509980 -13.788986
v -13.217625 -10.461187 8.224179
v 15.088300 -10.461187 8.224179
v 6.700827 2.121665 -10.642606
v -11.120039 2.121665 -6.450307
v 9.844334 -10.461187 -12.740193
v -6.927739 2.121665 10.321766
v 0.410941 -11.509980 13.468146
v 10.893127 2.121665 -4.352720
v -14.266418 -10.461187 -8.545020
v 12.990714 -11.509980 -5.401513
v -7.973659 -8.363600 14.516939
v 10.893127 2.121665 6.129466
v 6.700827 -9.412394 14.516939
v 15.088300 -9.412394 -5.401513
v -11.120039 2.121665 4.031879
v -3.781359 1.072872 -11.691400
v 7.746747 -9.412394 -14.837780
v -13.217625 -11.509980 5.080673
v -14.266418 -8.363600 6.129466
v -7.973659 -10.461187 14.516939
v 3.554447 2.121665 11.370559
v 6.700827 -11.509980 12.419352
v -5.878945 -9.412394 -14.837780
v 15.088300 -9.412394 8.224179
v 6.700827 -11.509980 -12.740193
v -14.266418 -8.363600 -7.499100
v -12.168832 -11.509980 -7.499100
v 12.990714 -11.509980 6.129466
v -6.927739 2.121665 -9.593813
f 371 378 384 
f 358 359 361 
f 358 361 363 
f 354 355 364 
f 362 355 365 
f 363 361 367 
f 360 358 369 
f 358 363 369 
f 365 360 369 
f 357 365 369 
f 363 367 369 
f 361 359 370 
f 355 354 372 
f 358 360 372 
f 371 358 372 
f 355 362 373 
f 364 373 374 
f 366 361 374 
f 356 366 374 
f 361 370 374 
f 370 359 374 
f 373 356 374 
f 366 356 375 
f 362 368 375 
f 368 366 375 
f 373 362 375 
f 356 373 375 
f 361 366 376 
f 353 367 376 
f 367 361 376 
f 368 353 376 
f 366 368 376 
f 362 365 377 
f 357 368 377 
f 368 362 377 
f 354 364 378 
f 364 359 378 
f 372 354 378 
f 371 372 378 
f 367 353 379 
f 368 357 379 
f 353 368 379 
f 357 369 379 
f 369 367 379 
f 365 355 380 
f 360 365 380 
f 355 372 380 
f 372 360 380 
f 359 364 381 
f 364 374 381 
f 374 359 381 
f 364 355 382 
f 355 373 382 
f 373 364 382 
f 365 357 383 
f 377 365 383 
f 357 377 383 
f 359 358 384 
f 358 371 384 
f 378 359 384 
o convex_12
v 4.604985 100.687304 1.936345
v -11.123528 2.121665 -6.450615
v -11.123528 2.121665 4.033624
v 10.896822 2.121665 6.130903
v 6.702264 2.121665 -10.645172
v -7.976532 102.786122 -9.597611
v -4.831692 97.534149 5.081186
v 4.604985 102.786122 -8.547893
v 3.555268 16.803540 10.325461
v -5.879253 2.121665 10.325461
v -3.781974 59.784978 -11.694889
v 10.896822 9.462603 -4.351180
v 6.702264 92.292030 2.983907
v 2.507707 102.786122 -11.694889
v -7.976532 102.786122 -1.208495
v -4.831692 2.121665 -10.645172
v 2.507707 89.148729 6.130903
v -5.879253 15.759058 10.325461
v 6.702264 96.489667 -4.351180
v -6.928970 95.435331 2.983907
v 6.702264 6.319302 9.275743
v -4.831692 102.786122 -11.694889
v 1.457989 102.786122 2.983907
v -11.123528 7.373638 4.033624
v 6.702264 97.534149 1.936345
v 9.847105 2.121665 -6.450615
v 4.604985 2.121665 10.325461
v 10.896822 6.319302 6.130903
v 3.555268 96.489667 5.081186
v -1.684696 89.148729 6.130903
v -9.026249 6.319302 7.178465
v 5.652547 102.786122 -0.160934
f 409 403 416 
f 387 386 388 
f 388 386 389 
f 387 388 394 
f 390 392 398 
f 389 395 398 
f 392 390 399 
f 389 386 400 
f 395 389 400 
f 394 393 402 
f 396 392 403 
f 391 399 404 
f 402 391 404 
f 386 390 406 
f 390 398 406 
f 398 395 406 
f 400 386 406 
f 395 400 406 
f 399 391 407 
f 392 399 407 
f 386 387 408 
f 390 386 408 
f 399 390 408 
f 404 399 408 
f 396 403 409 
f 388 389 410 
f 396 388 410 
f 392 396 410 
f 398 392 410 
f 389 398 410 
f 393 394 411 
f 394 388 411 
f 405 393 411 
f 388 405 411 
f 388 396 412 
f 405 388 412 
f 396 409 412 
f 409 397 412 
f 391 401 413 
f 401 393 413 
f 393 405 413 
f 385 407 413 
f 407 391 413 
f 409 385 413 
f 397 409 413 
f 405 412 413 
f 412 397 413 
f 401 391 414 
f 393 401 414 
f 391 402 414 
f 402 393 414 
f 387 394 415 
f 394 402 415 
f 402 404 415 
f 408 387 415 
f 404 408 415 
f 403 392 416 
f 407 385 416 
f 392 407 416 
f 385 409 416 
o convex_13
v 0.411351 127.952236 1.936756
v 3.555884 166.749996 25.005694
v 2.507707 166.749996 25.005694
v -0.636826 141.589937 1.936756
v 7.751058 147.871407 13.471225
v 0.411351 143.686293 17.664551
v -4.832000 136.341454 5.084573
v 7.751058 145.778850 18.712318
v 4.605293 139.489785 1.936756
v 5.653471 164.646045 20.807852
v 0.411351 165.698021 21.857877
v 0.411351 161.505311 25.005694
v 4.605293 132.152542 1.936756
v -4.832000 137.393430 1.936756
v -4.832000 130.056187 2.986781
v 5.653471 146.830825 20.807852
v 5.653471 161.505311 25.005694
v 0.411351 127.952236 2.986781
v 4.605293 165.698021 20.807852
v 7.751058 154.164270 19.762343
v 1.459529 149.967762 21.857877
v 2.507707 141.589937 1.936756
v 3.555884 130.056187 2.986781
v 0.411351 165.698021 25.005694
v 1.459529 165.698021 20.807852
v -3.782590 139.489785 1.936756
v 4.605293 159.405158 25.005694
v -3.782590 131.100567 5.084573
v 5.653471 137.393430 4.034548
v 0.411351 147.871407 19.762343
v 5.653471 164.646045 23.955669
v 6.701648 160.457133 19.762343
f 426 447 448 
f 417 420 425 
f 418 419 428 
f 417 425 429 
f 420 417 430 
f 428 423 431 
f 430 417 431 
f 423 430 431 
f 418 428 433 
f 432 424 433 
f 431 417 434 
f 432 422 434 
f 424 432 434 
f 426 425 435 
f 424 421 436 
f 433 424 436 
f 422 432 437 
f 425 420 438 
f 420 435 438 
f 435 425 438 
f 417 429 439 
f 429 424 439 
f 434 417 439 
f 424 434 439 
f 419 427 440 
f 428 419 440 
f 423 428 440 
f 430 423 440 
f 427 430 440 
f 419 418 441 
f 427 419 441 
f 418 435 441 
f 435 420 441 
f 420 430 442 
f 430 427 442 
f 427 441 442 
f 441 420 442 
f 433 428 443 
f 432 433 443 
f 428 437 443 
f 437 432 443 
f 431 434 444 
f 434 422 444 
f 421 424 445 
f 425 421 445 
f 424 429 445 
f 429 425 445 
f 428 431 446 
f 422 437 446 
f 437 428 446 
f 444 422 446 
f 431 444 446 
f 418 433 447 
f 435 418 447 
f 426 435 447 
f 433 436 447 
f 447 436 448 
f 421 425 448 
f 425 426 448 
f 436 421 448 
o convex_14
v 1.459426 126.899851 -12.746556
v -15.317881 121.656603 -21.131259
v -15.317881 121.656603 -19.036238
v 1.459426 104.886480 -13.794837
v -3.784027 133.189840 -28.470759
v -15.317881 130.046436 -13.794837
v -15.317881 126.899851 -28.470759
v -15.317881 137.389529 -26.372660
v -9.025736 109.082988 -12.746556
v -4.832718 124.803188 -28.470759
v -4.832718 104.886480 -13.794837
v -0.637955 128.996514 -12.746556
v -5.881409 136.336425 -28.470759
v -14.267445 135.286503 -19.036238
v 2.508117 110.129728 -12.746556
v -1.686646 126.899851 -25.324379
v -12.170063 128.996514 -12.746556
v -15.317881 137.389529 -28.470759
v -11.123118 124.803188 -28.470759
v -10.072682 137.389529 -26.372660
v 2.508117 116.422899 -13.794837
v -15.317881 134.239762 -16.939677
v -15.317881 123.753266 -15.891397
v 1.459426 104.886480 -12.746556
v 1.459426 125.849929 -14.843117
v 2.508117 110.129728 -13.794837
v -3.784027 126.899851 -28.470759
v -9.025736 109.082988 -13.794837
v -10.072682 111.179651 -12.746556
v -4.832718 135.286503 -25.324379
v -15.317881 132.143099 -14.843117
v -3.784027 134.239762 -26.372660
f 461 478 480 
f 450 451 454 
f 450 454 455 
f 455 454 456 
f 451 450 457 
f 455 453 458 
f 458 452 459 
f 457 449 460 
f 453 455 461 
f 449 457 463 
f 457 460 465 
f 455 456 466 
f 461 455 466 
f 455 458 467 
f 459 455 467 
f 458 459 467 
f 462 460 468 
f 456 462 468 
f 466 456 468 
f 461 466 468 
f 449 463 469 
f 456 454 470 
f 460 462 470 
f 462 456 470 
f 454 451 471 
f 457 459 472 
f 459 452 472 
f 452 463 472 
f 463 457 472 
f 453 449 473 
f 464 453 473 
f 449 469 473 
f 469 464 473 
f 463 452 474 
f 452 464 474 
f 469 463 474 
f 464 469 474 
f 452 458 475 
f 458 453 475 
f 453 464 475 
f 464 452 475 
f 450 455 476 
f 457 450 476 
f 455 459 476 
f 459 457 476 
f 451 457 477 
f 465 454 477 
f 457 465 477 
f 471 451 477 
f 454 471 477 
f 460 449 478 
f 468 460 478 
f 461 468 478 
f 454 465 479 
f 465 460 479 
f 470 454 479 
f 460 470 479 
f 449 453 480 
f 453 461 480 
f 478 449 480 
o convex_15
v 4.605293 102.786122 -0.162678
v -10.074940 111.172979 -12.743477
v -10.074940 117.463482 -12.743477
v -5.880382 102.786122 1.936756
v 0.410736 102.786122 -12.743477
v 2.505859 117.463482 -7.498484
v -7.975506 116.416022 -4.357236
v 2.505859 117.463482 -12.743477
v -7.975506 102.786122 -9.595044
v 1.456860 104.885351 1.936756
v 4.605293 104.885351 -9.595044
v -9.025941 104.885351 -3.308237
v -0.639700 117.463482 -5.403361
v 4.605293 109.079498 -3.308237
v -4.829947 102.786122 -12.743477
v -10.074940 117.463482 -9.595044
v -5.880382 106.981706 0.887757
v 2.505859 102.786122 -11.694479
v -0.639700 111.172979 -1.211677
v -9.025941 104.885351 -10.644043
v 2.505859 105.934247 -12.743477
v -10.074940 112.221875 -7.498484
v 3.556295 114.318230 -9.595044
v -7.975506 102.786122 -1.211677
v 4.605293 102.786122 -8.548920
v -0.639700 116.416022 -4.357236
v 1.456860 102.786122 1.936756
v -7.975506 117.463482 -5.403361
v -7.975506 104.885351 -1.211677
v 4.605293 106.981706 -9.595044
v -7.975506 105.934247 -12.743477
v 3.556295 109.079498 -2.257802
f 506 490 512 
f 481 484 485 
f 482 483 485 
f 485 483 488 
f 483 486 488 
f 485 484 489 
f 486 483 493 
f 481 491 494 
f 482 485 495 
f 485 489 495 
f 483 482 496 
f 493 483 496 
f 484 490 497 
f 481 485 498 
f 487 497 499 
f 497 490 499 
f 492 482 500 
f 489 492 500 
f 495 489 500 
f 485 488 501 
f 488 491 501 
f 498 485 501 
f 491 498 501 
f 482 492 502 
f 492 487 502 
f 496 482 502 
f 487 496 502 
f 488 486 503 
f 486 494 503 
f 489 484 504 
f 492 489 504 
f 491 481 505 
f 481 498 505 
f 498 491 505 
f 486 493 506 
f 493 487 506 
f 487 499 506 
f 499 490 506 
f 484 481 507 
f 481 490 507 
f 490 484 507 
f 487 493 508 
f 496 487 508 
f 493 496 508 
f 487 492 509 
f 484 497 509 
f 497 487 509 
f 504 484 509 
f 492 504 509 
f 491 488 510 
f 494 491 510 
f 488 503 510 
f 503 494 510 
f 482 495 511 
f 500 482 511 
f 495 500 511 
f 490 481 512 
f 494 486 512 
f 481 494 512 
f 486 506 512 
o convex_16
v 3.556295 139.483113 1.936756
v -10.074940 117.466355 -12.743477
v 1.456860 117.466355 -12.743477
v -5.880382 130.047360 -12.743477
v -4.829947 127.954289 1.936756
v -1.688699 117.466355 -4.357236
v -4.829947 137.385526 1.936756
v 3.556295 128.999695 1.936756
v 1.456860 127.954289 -12.743477
v -10.074940 127.954289 -10.644043
v -7.975506 117.466355 -5.403361
v -1.688699 140.530777 0.887757
v 4.605293 132.144946 -1.211677
v 2.505859 117.466355 -7.498484
v 3.556295 139.483113 -0.162678
v -5.880382 133.192611 1.936756
v 2.505859 123.761373 -12.743477
v -10.074940 127.954289 -12.743477
v -10.074940 117.466355 -9.595044
v -2.734823 130.047360 -12.743477
v 0.410736 126.906624 1.936756
v 2.505859 117.466355 -11.694479
v 4.605293 135.290198 -1.211677
v 4.605293 132.144946 1.936756
v -10.074940 126.906624 -9.595044
v -4.829947 137.385526 -1.211677
v -9.025941 128.999695 -12.743477
v -5.880382 131.095024 1.936756
v 0.410736 128.999695 -12.743477
v -7.975506 127.954289 -3.308237
v -1.688699 126.906624 1.936756
v 2.505859 140.530777 0.887757
f 527 532 544 
f 515 514 516 
f 514 515 518 
f 517 513 519 
f 513 517 520 
f 515 516 521 
f 514 518 523 
f 519 513 524 
f 518 515 526 
f 520 518 526 
f 517 519 528 
f 519 522 528 
f 515 521 529 
f 516 514 530 
f 514 522 530 
f 522 519 530 
f 522 514 531 
f 514 523 531 
f 521 516 532 
f 516 524 532 
f 520 517 533 
f 518 520 533 
f 526 515 534 
f 525 526 534 
f 515 529 534 
f 529 525 534 
f 521 527 535 
f 527 513 535 
f 529 521 535 
f 525 529 535 
f 513 520 536 
f 520 526 536 
f 526 525 536 
f 535 513 536 
f 525 535 536 
f 528 522 537 
f 522 531 537 
f 519 524 538 
f 530 519 538 
f 530 538 539 
f 524 516 539 
f 516 530 539 
f 538 524 539 
f 523 517 540 
f 517 528 540 
f 531 523 540 
f 527 521 541 
f 521 532 541 
f 532 527 541 
f 528 537 542 
f 537 531 542 
f 540 528 542 
f 531 540 542 
f 523 518 543 
f 517 523 543 
f 533 517 543 
f 518 533 543 
f 524 513 544 
f 513 527 544 
f 532 524 544 
