o convex_0
v -16.306637 171.749134 -3.940815
v -69.246139 221.958111 -16.154435
v -69.246139 221.958111 -13.439057
v -20.384886 189.389523 -9.371571
v -19.022015 175.817417 -13.439057
v -62.452513 227.393650 -18.871407
v -62.452513 227.393650 -10.726868
v -47.523117 197.531670 -14.797543
v -16.306637 179.891281 -2.582329
v -63.810201 215.172058 -10.726868
v -16.306637 183.965145 -12.082165
v -63.810201 217.884247 -18.871407
v -24.457953 175.817417 -8.014679
v -42.107908 201.594372 -17.511326
v -67.888450 227.393650 -10.726868
v -16.306637 185.315659 -5.299302
v -17.664326 170.381879 -10.726868
v -61.094824 227.393650 -17.511326
v -62.452513 217.884247 -9.371571
v -19.022015 173.099648 -3.940815
v -16.306637 179.891281 -13.439057
v -58.384628 208.386005 -10.726868
v -69.246139 227.393650 -18.871407
v -42.107908 194.825061 -16.154435
v -61.094824 227.393650 -12.082165
v -62.452513 223.319786 -9.371571
v -17.664326 177.173512 -2.582329
v -62.452513 212.459869 -14.797543
v -36.671970 186.671753 -12.082165
v -17.664326 170.381879 -5.299302
v -44.802557 200.243858 -17.511326
v -16.306637 175.817417 -13.439057
f 31 14 32 
f 9 1 11 
f 12 6 14 
f 7 6 15 
f 3 10 15 
f 7 9 16 
f 11 4 16 
f 9 11 16 
f 6 7 18 
f 11 6 18 
f 4 11 18 
f 15 10 19 
f 19 10 20 
f 11 1 21 
f 6 11 21 
f 14 6 21 
f 20 10 22 
f 2 3 23 
f 12 2 23 
f 6 12 23 
f 3 15 23 
f 15 6 23 
f 8 12 24 
f 5 17 24 
f 17 8 24 
f 16 4 25 
f 7 16 25 
f 18 7 25 
f 4 18 25 
f 9 7 26 
f 7 15 26 
f 15 19 26 
f 26 19 27 
f 1 9 27 
f 20 1 27 
f 19 20 27 
f 9 26 27 
f 3 2 28 
f 10 3 28 
f 2 12 28 
f 12 8 28 
f 22 10 28 
f 22 28 29 
f 8 17 29 
f 17 13 29 
f 13 22 29 
f 28 8 29 
f 17 1 30 
f 13 17 30 
f 1 20 30 
f 22 13 30 
f 20 22 30 
f 12 14 31 
f 24 12 31 
f 5 24 31 
f 17 5 32 
f 1 17 32 
f 21 1 32 
f 14 21 32 
f 5 31 32 
o convex_1
v -61.103726 291.186291 -17.511858
v -70.603562 227.406138 -16.156561
v -69.245076 227.406138 -18.871407
v -61.103726 227.406138 -12.084291
v -58.386754 276.257427 -20.226704
v -67.886590 230.115936 -10.726868
v -58.386754 281.683267 -14.799137
v -65.173205 276.257427 -20.226704
v -65.173205 228.761037 -20.226704
v -65.173205 273.541385 -14.799137
v -70.603562 240.973859 -14.799137
v -61.103726 227.406138 -16.156561
v -62.459821 281.683267 -21.586253
v -69.245076 235.548020 -20.226704
v -62.459821 227.406138 -10.726868
v -58.386754 289.825148 -20.226704
v -61.103726 285.754208 -14.799137
v -61.103726 270.825344 -21.586253
v -70.603562 234.186877 -18.871407
v -65.173205 278.967225 -17.511858
v -69.245076 238.257818 -12.084291
v -70.603562 227.406138 -13.441714
v -69.245076 250.476884 -18.871407
v -62.459821 288.470249 -20.226704
v -61.103726 270.825344 -13.441714
v -58.386754 272.180243 -17.511858
v -58.386754 289.825148 -16.156561
v -63.818307 280.328368 -14.799137
v -66.529300 234.186877 -10.726868
v -63.818307 266.754403 -21.586253
v -67.886590 255.902723 -20.226704
v -63.818307 269.470445 -13.441714
f 61 57 64 
f 34 35 36 
f 36 35 44 
f 35 41 44 
f 41 37 44 
f 41 35 46 
f 34 36 47 
f 36 39 47 
f 39 37 48 
f 37 41 50 
f 48 37 50 
f 45 48 50 
f 35 34 51 
f 34 43 51 
f 46 35 51 
f 43 42 52 
f 42 43 53 
f 43 34 54 
f 34 47 54 
f 47 38 54 
f 38 53 54 
f 53 43 54 
f 51 43 55 
f 52 40 55 
f 43 52 55 
f 45 40 56 
f 33 48 56 
f 48 45 56 
f 52 33 56 
f 40 52 56 
f 47 39 57 
f 39 49 57 
f 39 36 58 
f 37 39 58 
f 36 44 58 
f 44 37 58 
f 48 33 59 
f 39 48 59 
f 33 49 59 
f 49 39 59 
f 49 33 60 
f 33 52 60 
f 52 42 60 
f 42 53 60 
f 38 47 61 
f 47 57 61 
f 41 46 62 
f 50 41 62 
f 45 50 62 
f 40 45 63 
f 46 51 63 
f 55 40 63 
f 51 55 63 
f 62 46 63 
f 45 62 63 
f 53 38 64 
f 57 49 64 
f 49 60 64 
f 60 53 64 
f 38 61 64 
o convex_2
v -36.666921 133.731454 108.726366
v -27.168281 181.241264 126.372867
v -25.808599 179.875337 125.013451
v -31.238956 136.452679 116.872499
v -27.168281 128.310266 108.726366
v -31.238956 147.311000 108.726366
v -32.593855 173.093536 122.298073
v -33.952341 144.600406 119.584422
v -38.025407 143.239794 108.726366
v -27.168281 178.525354 120.940384
v -27.168281 171.732924 126.372867
v -31.238956 170.377627 126.372867
v -38.025407 140.518570 111.443471
v -33.952341 132.381472 114.158849
v -31.238956 177.164742 120.940384
v -27.168281 135.092066 108.726366
v -27.168281 128.310266 110.085782
v -35.308435 147.311000 108.726366
v -25.808599 179.875337 122.298073
v -31.238956 177.164742 126.372867
v -29.881666 126.944339 110.085782
v -29.881666 145.950388 108.726366
v -35.308435 147.311000 118.226734
v -28.525571 169.022329 126.372867
v -29.881666 181.241264 123.655762
v -25.808599 175.804130 125.013451
v -36.666921 139.163273 114.158849
v -38.025407 143.239794 111.443471
v -33.952341 136.452679 116.872499
v -31.238956 131.020860 114.158849
v -28.525571 156.798081 122.298073
v -29.881666 178.525354 120.940384
f 79 89 96 
f 69 65 70 
f 70 65 73 
f 67 66 75 
f 75 66 76 
f 73 65 77 
f 73 71 79 
f 69 70 80 
f 70 73 82 
f 74 70 82 
f 73 79 82 
f 66 67 83 
f 69 80 83 
f 76 66 84 
f 79 71 84 
f 65 69 85 
f 78 65 85 
f 69 81 85 
f 70 74 86 
f 80 70 86 
f 74 83 86 
f 83 80 86 
f 72 76 87 
f 76 84 87 
f 72 68 88 
f 76 72 88 
f 75 76 88 
f 66 83 89 
f 83 74 89 
f 84 66 89 
f 79 84 89 
f 67 75 90 
f 81 69 90 
f 75 81 90 
f 83 67 90 
f 69 83 90 
f 77 65 91 
f 65 78 91 
f 72 87 91 
f 87 77 91 
f 71 73 92 
f 73 77 92 
f 84 71 92 
f 77 87 92 
f 87 84 92 
f 68 72 93 
f 91 78 93 
f 72 91 93 
f 81 68 94 
f 78 85 94 
f 85 81 94 
f 68 93 94 
f 93 78 94 
f 81 75 95 
f 68 81 95 
f 88 68 95 
f 75 88 95 
f 74 82 96 
f 82 79 96 
f 89 74 96 
o convex_3
v 28.488326 147.305686 95.153862
v 39.347710 196.168134 107.367482
v 39.347710 196.168134 104.652370
v 31.203172 182.594169 104.652370
v 32.561658 160.884434 103.294814
v 28.488326 159.526081 93.796306
v 37.990287 178.519110 100.581163
v 28.488326 155.455804 101.938719
v 33.918018 188.022799 100.581163
v 29.847875 147.305686 92.438750
v 33.918018 190.734722 107.367482
v 37.990287 188.022799 100.581163
v 35.275441 164.959493 101.938719
v 39.347710 189.381152 107.367482
v 28.488326 169.029770 100.581163
v 32.561658 188.022799 101.938719
v 29.847875 148.668822 97.867513
v 35.275441 194.809781 103.294814
v 35.275441 183.947739 107.367482
v 29.847875 154.097451 92.438750
v 39.347710 185.306092 101.938719
v 33.918018 159.526081 97.867513
v 32.561658 155.455804 100.581163
v 36.632864 196.168134 107.367482
v 28.488326 147.305686 92.438750
v 28.488326 169.029770 101.938719
v 29.847875 160.884434 103.294814
v 37.990287 185.306092 107.367482
v 39.347710 185.306092 104.652370
v 31.203172 155.455804 101.938719
v 39.347710 194.809781 103.294814
v 33.918018 192.093075 106.009926
f 120 114 128 
f 102 97 104 
f 103 106 108 
f 99 98 110 
f 98 107 110 
f 102 104 111 
f 105 102 112 
f 111 100 112 
f 102 111 112 
f 104 97 113 
f 97 106 113 
f 108 105 114 
f 105 112 114 
f 110 107 115 
f 102 105 116 
f 105 108 116 
f 108 106 116 
f 103 108 117 
f 99 110 117 
f 106 103 118 
f 103 109 118 
f 109 101 119 
f 113 106 119 
f 106 118 119 
f 118 109 119 
f 98 99 120 
f 107 98 120 
f 99 114 120 
f 97 102 121 
f 106 97 121 
f 102 116 121 
f 116 106 121 
f 104 107 122 
f 107 100 122 
f 100 111 122 
f 111 104 122 
f 104 101 123 
f 107 104 123 
f 101 115 123 
f 115 107 123 
f 101 109 124 
f 109 110 124 
f 115 101 124 
f 110 115 124 
f 109 103 125 
f 110 109 125 
f 103 117 125 
f 117 110 125 
f 101 104 126 
f 104 113 126 
f 119 101 126 
f 113 119 126 
f 114 99 127 
f 108 114 127 
f 99 117 127 
f 117 108 127 
f 100 107 128 
f 112 100 128 
f 114 112 128 
f 107 120 128 
o convex_4
v -25.811655 188.023064 42.212633
v -17.665921 162.237340 9.638996
v -19.023211 163.595826 9.638996
v -32.594120 181.240201 36.778158
v -33.949417 194.815495 36.778158
v -16.306637 173.102040 15.066829
v -16.306637 166.312798 24.570518
v -25.811655 193.457009 40.850693
v -25.811655 167.671284 20.497983
v -36.667984 190.740036 42.212633
v -16.306637 174.460526 27.277790
v -16.306637 167.671284 8.277056
v -27.162966 174.460526 20.497983
v -28.522250 194.815495 36.778158
v -28.522250 179.881714 38.140098
v -23.095082 167.671284 25.919171
v -36.667984 194.815495 39.492074
v -32.594120 181.240201 31.347004
v -27.162966 185.309281 42.212633
v -16.306637 162.237340 15.066829
v -17.665921 167.671284 8.277056
v -27.162966 194.815495 42.212633
v -16.306637 175.812634 21.856602
v -25.811655 193.457009 38.140098
v -25.811655 167.671284 23.211899
v -16.306637 170.385068 27.277790
v -33.949417 193.457009 35.419539
v -24.452372 179.881714 38.140098
v -19.023211 163.595826 19.142685
v -36.667984 194.815495 42.212633
v -32.594120 179.881714 34.064241
v -25.811655 170.385068 28.633087
f 153 144 160 
f 131 130 137 
f 135 134 139 
f 136 129 139 
f 134 135 140 
f 131 137 141 
f 140 133 142 
f 134 140 142 
f 138 132 143 
f 142 133 145 
f 141 137 146 
f 138 145 146 
f 145 141 146 
f 129 138 147 
f 138 143 147 
f 130 140 148 
f 140 135 148 
f 130 131 149 
f 140 130 149 
f 133 140 149 
f 131 141 149 
f 129 136 150 
f 138 129 150 
f 142 145 150 
f 139 134 151 
f 136 139 151 
f 134 142 152 
f 150 136 152 
f 142 150 152 
f 151 134 152 
f 136 151 152 
f 137 130 153 
f 139 129 154 
f 135 139 154 
f 145 133 155 
f 141 145 155 
f 133 149 155 
f 149 141 155 
f 143 135 156 
f 129 147 156 
f 147 143 156 
f 154 129 156 
f 135 154 156 
f 135 144 157 
f 130 148 157 
f 148 135 157 
f 153 130 157 
f 144 153 157 
f 145 138 158 
f 138 150 158 
f 150 145 158 
f 132 138 159 
f 146 137 159 
f 138 146 159 
f 137 153 159 
f 153 132 159 
f 135 143 160 
f 143 132 160 
f 144 135 160 
f 132 153 160 
o convex_5
v -21.736330 239.605674 28.638402
v -36.667984 194.815495 40.853350
v -36.667984 194.815495 42.212633
v -27.167617 194.815495 42.212633
v -24.453435 250.460010 32.712266
v -28.523977 219.258678 28.638402
v -35.310162 209.749275 42.212633
v -27.167617 240.967349 28.638402
v -27.167617 211.105369 42.212633
v -28.523977 194.815495 38.138770
v -21.736330 247.753402 32.712266
v -23.095613 221.965286 29.997686
v -35.310162 209.749275 38.138770
v -35.310162 194.815495 38.138770
v -25.809795 249.109496 29.997686
v -31.236697 217.897003 31.355640
v -23.095613 250.460010 28.638402
v -25.809795 219.258678 28.638402
v -21.736330 240.967349 32.712266
v -32.594519 212.472625 42.212633
v -31.236697 211.105369 31.355640
v -36.667984 205.675411 40.853350
v -25.809795 249.109496 32.712266
v -24.453435 212.472625 32.712266
v -23.095613 223.321380 32.712266
v -23.095613 250.460010 32.712266
v -25.809795 215.179233 29.997686
v -27.167617 194.815495 39.496724
v -21.736330 250.460010 29.997686
v -28.523977 212.472625 42.212633
v -33.950879 211.105369 35.425518
v -36.667984 205.675411 42.212633
f 167 183 192 
f 163 162 164 
f 163 164 167 
f 161 166 168 
f 167 164 169 
f 164 162 170 
f 169 164 171 
f 170 162 174 
f 162 173 174 
f 168 166 176 
f 161 168 177 
f 175 165 177 
f 168 175 177 
f 166 161 178 
f 161 172 178 
f 161 171 179 
f 171 164 179 
f 172 161 179 
f 167 169 180 
f 170 174 181 
f 176 166 181 
f 162 163 182 
f 173 162 182 
f 168 173 182 
f 175 168 182 
f 175 182 183 
f 165 175 183 
f 180 165 183 
f 167 180 183 
f 172 164 184 
f 164 172 185 
f 179 164 185 
f 172 179 185 
f 169 171 186 
f 177 165 186 
f 165 180 186 
f 166 178 187 
f 178 172 187 
f 170 181 187 
f 181 166 187 
f 184 170 187 
f 172 184 187 
f 164 170 188 
f 184 164 188 
f 170 184 188 
f 171 161 189 
f 161 177 189 
f 186 171 189 
f 177 186 189 
f 180 169 190 
f 169 186 190 
f 186 180 190 
f 173 168 191 
f 174 173 191 
f 168 176 191 
f 181 174 191 
f 176 181 191 
f 163 167 192 
f 182 163 192 
f 183 182 192 
o convex_6
v -16.306637 118.802325 96.510621
v -31.235634 144.588315 108.726366
v -32.595715 144.588315 108.726366
v -16.306637 124.232150 85.650173
v -32.595715 128.303888 100.578771
v -29.878743 126.948325 108.726366
v -16.306637 126.948325 97.865918
v -32.595715 139.158490 100.578771
v -19.023610 120.160412 87.007729
v -25.808068 126.948325 108.726366
v -16.306637 128.303888 89.725100
v -21.738987 120.160412 96.510621
v -32.595715 128.303888 108.726366
v -25.808068 132.370577 108.726366
v -31.235634 144.588315 106.011254
v -16.306637 122.876587 99.223474
v -16.306637 118.802325 87.007729
v -29.878743 143.230228 108.726366
v -23.094284 121.518499 101.938586
v -19.023610 118.802325 89.725100
v -16.306637 128.303888 96.510621
v -17.666718 124.232150 85.650173
v -29.878743 125.590237 101.938586
v -20.380501 121.518499 101.938586
v -19.023610 118.802325 95.153065
v -29.878743 125.590237 104.651439
v -25.808068 122.876587 96.510621
v -24.451176 122.876587 92.437953
v -24.451176 124.232150 106.011254
v -17.666718 120.160412 85.650173
v -27.163365 136.442315 108.726366
v -17.666718 125.590237 100.578771
f 223 206 224 
f 194 195 198 
f 193 196 199 
f 197 195 200 
f 194 198 202 
f 199 196 203 
f 195 197 205 
f 198 195 205 
f 194 202 206 
f 195 194 207 
f 200 195 207 
f 196 200 207 
f 203 196 207 
f 193 199 208 
f 206 202 208 
f 196 193 209 
f 194 206 210 
f 207 194 210 
f 203 207 210 
f 209 193 212 
f 199 203 213 
f 210 199 213 
f 203 210 213 
f 200 196 214 
f 197 200 214 
f 205 197 215 
f 193 208 216 
f 208 202 216 
f 211 193 216 
f 193 211 217 
f 211 204 217 
f 204 212 217 
f 212 193 217 
f 198 205 218 
f 211 198 218 
f 204 211 218 
f 205 215 218 
f 215 204 218 
f 212 204 219 
f 215 197 219 
f 204 215 219 
f 197 201 220 
f 201 212 220 
f 219 197 220 
f 212 219 220 
f 202 198 221 
f 198 211 221 
f 216 202 221 
f 211 216 221 
f 201 197 222 
f 196 209 222 
f 212 201 222 
f 209 212 222 
f 214 196 222 
f 197 214 222 
f 199 210 223 
f 210 206 223 
f 208 199 224 
f 206 208 224 
f 199 223 224 
o convex_7
v 14.911038 -3.366154 -6.650215
v -16.303581 -6.083127 -5.293589
v -16.303581 -6.083127 9.632353
v -10.874022 37.354413 6.916045
v 9.481479 -6.083127 16.418538
v 9.481479 37.354413 -6.650215
v -6.801088 37.354413 -10.723148
v 6.765171 -6.083127 -14.796081
v 8.124853 37.354413 8.272671
v -9.517396 -6.083127 -14.796081
v -8.157714 -4.722515 16.418538
v -6.801088 37.354413 10.988979
v 14.911038 -6.083127 8.272671
v -10.874022 37.354413 -3.936963
v 4.051919 37.354413 -10.723148
v 5.408545 29.203496 12.345605
v 9.481479 37.354413 5.559419
v 14.911038 -6.083127 -8.009896
v -14.943900 -4.722515 -8.009896
v 10.838105 30.559857 -3.936963
v 5.408545 37.354413 10.988979
v -16.303581 -4.722515 9.632353
v -4.087836 30.559857 12.345605
v 8.124853 -3.366154 16.418538
v 14.911038 -3.366154 6.916045
v 12.194731 -4.722515 -10.723148
v 13.551357 -4.722515 10.988979
v -9.517396 -4.722515 -14.796081
v -8.157714 -6.083127 16.418538
v -13.587274 -4.722515 12.345605
v 6.765171 -4.722515 -14.796081
v -16.303581 -4.722515 -5.293589
f 246 238 256 
f 227 226 229 
f 228 230 231 
f 229 226 232 
f 230 228 233 
f 232 226 234 
f 233 228 236 
f 229 232 237 
f 228 231 238 
f 231 230 239 
f 230 233 241 
f 230 225 242 
f 225 237 242 
f 237 232 242 
f 234 226 243 
f 238 231 243 
f 225 230 244 
f 230 241 244 
f 229 233 245 
f 233 236 245 
f 240 229 245 
f 226 227 246 
f 236 228 246 
f 228 238 246 
f 236 235 247 
f 245 236 247 
f 240 245 247 
f 235 229 248 
f 229 240 248 
f 247 235 248 
f 240 247 248 
f 237 225 249 
f 241 237 249 
f 225 244 249 
f 244 241 249 
f 230 242 250 
f 242 232 250 
f 233 229 251 
f 229 237 251 
f 241 233 251 
f 237 241 251 
f 232 234 252 
f 231 239 252 
f 234 243 252 
f 243 231 252 
f 227 229 253 
f 229 235 253 
f 253 235 254 
f 235 236 254 
f 246 227 254 
f 236 246 254 
f 227 253 254 
f 239 230 255 
f 230 250 255 
f 250 232 255 
f 232 252 255 
f 252 239 255 
f 243 226 256 
f 238 243 256 
f 226 246 256 
o convex_8
v 20.343787 162.240817 89.722443
v 6.769556 183.952673 91.080929
v 6.769556 183.952673 92.438219
v 28.488326 163.597086 95.152799
v 25.771353 152.735378 100.580765
v 8.130168 192.097991 93.795509
v 28.488326 163.597086 101.939251
v 12.199248 183.952673 89.722443
v 23.056507 152.735378 93.796705
v 28.488326 152.735378 92.439415
v 13.557734 167.673598 89.722443
v 12.199248 170.386135 93.795509
v 6.769556 185.305089 93.795509
v 27.127713 162.240817 92.439415
v 27.127713 156.811890 101.939251
v 8.130168 192.097991 91.080929
v 28.488326 152.735378 100.580765
v 6.769556 192.097991 93.795509
v 8.130168 179.880015 89.722443
v 17.631067 160.884549 95.152799
v 20.343787 166.309623 89.722443
v 9.486528 190.737869 92.438219
v 24.414993 152.735378 92.439415
v 27.127713 163.597086 101.939251
v 23.056507 152.735378 96.508894
v 6.769556 192.097991 91.080929
v 8.130168 186.665211 89.722443
v 9.486528 175.811209 92.438219
v 28.488326 162.240817 93.796705
v 14.914094 166.313476 95.152799
v 14.914094 164.957207 91.080929
v 18.987427 170.382282 89.722443
f 270 277 288 
f 261 265 266 
f 260 263 266 
f 264 257 267 
f 258 259 269 
f 269 261 271 
f 261 266 273 
f 266 263 273 
f 263 271 273 
f 271 261 273 
f 263 262 274 
f 258 269 274 
f 269 271 274 
f 262 272 274 
f 264 267 275 
f 257 264 277 
f 266 257 277 
f 270 266 277 
f 263 260 278 
f 262 263 278 
f 260 272 278 
f 272 262 278 
f 266 265 279 
f 257 266 279 
f 267 257 279 
f 265 267 279 
f 271 263 280 
f 263 274 280 
f 274 271 280 
f 265 261 281 
f 261 276 281 
f 258 274 282 
f 274 272 282 
f 275 258 282 
f 275 282 283 
f 272 264 283 
f 264 275 283 
f 282 272 283 
f 259 258 284 
f 268 269 284 
f 269 259 284 
f 258 275 284 
f 275 267 284 
f 260 266 285 
f 270 264 285 
f 266 270 285 
f 272 260 285 
f 264 272 285 
f 261 269 286 
f 269 268 286 
f 276 261 286 
f 268 276 286 
f 267 265 287 
f 276 268 287 
f 265 281 287 
f 281 276 287 
f 284 267 287 
f 268 284 287 
f 264 270 288 
f 277 264 288 
o convex_9
v 44.777403 175.809977 21.848762
v 16.271517 163.595826 -3.937228
v 16.271517 169.025784 -3.937228
v 43.415728 170.381879 6.921360
v 16.271517 160.879917 9.632220
v 44.777403 166.311735 19.132853
v 42.062424 179.883840 15.061514
v 16.271517 170.381879 5.563405
v 44.777403 177.167931 8.279314
v 17.633193 160.879917 0.136635
v 42.062424 169.025784 21.848762
v 17.633193 164.953781 10.990175
v 43.415728 178.524026 20.490808
v 17.633193 171.737973 0.136635
v 44.777403 167.669690 12.348129
v 18.986497 163.595826 -3.937228
v 28.493109 162.239732 13.703560
v 44.777403 179.883840 12.348129
v 37.988560 164.953781 10.990175
v 18.986497 167.669690 -3.937228
v 18.986497 171.737973 6.921360
v 43.415728 175.809977 21.848762
v 16.271517 166.311735 9.632220
v 29.846413 164.953781 2.850020
v 35.270791 163.595826 13.703560
v 21.704266 160.879917 8.279314
v 42.062424 178.524026 9.632220
v 42.062424 179.883840 12.348129
v 43.415728 179.883840 17.774899
v 44.777403 169.025784 9.632220
v 17.633193 171.737973 4.207975
v 44.777403 169.025784 21.848762
f 299 294 320 
f 291 290 293 
f 291 293 296 
f 289 294 297 
f 293 290 298 
f 293 299 300 
f 291 296 302 
f 297 294 303 
f 290 291 304 
f 298 290 304 
f 299 293 305 
f 294 299 305 
f 289 297 306 
f 303 294 307 
f 291 297 308 
f 297 292 308 
f 304 291 308 
f 292 304 308 
f 299 289 310 
f 300 299 310 
f 289 301 310 
f 310 301 311 
f 296 293 311 
f 293 300 311 
f 309 296 311 
f 301 309 311 
f 300 310 311 
f 298 304 312 
f 304 292 312 
f 307 298 312 
f 294 305 313 
f 307 294 313 
f 298 307 313 
f 293 298 314 
f 305 293 314 
f 298 313 314 
f 313 305 314 
f 297 291 315 
f 291 302 315 
f 306 297 315 
f 306 315 316 
f 302 295 316 
f 295 306 316 
f 315 302 316 
f 301 289 317 
f 289 306 317 
f 306 295 317 
f 295 309 317 
f 309 301 317 
f 292 297 318 
f 297 303 318 
f 303 307 318 
f 312 292 318 
f 307 312 318 
f 302 296 319 
f 295 302 319 
f 296 309 319 
f 309 295 319 
f 294 289 320 
f 289 299 320 
o convex_10
v 16.271517 190.735785 43.570057
v 17.629472 159.529137 58.501711
v 23.058500 175.818347 53.070424
v 16.271517 198.882715 50.357704
v 25.773479 174.460525 46.287162
v 16.271517 152.735378 54.428246
v 20.344451 173.102703 44.927878
v 24.415525 183.951327 44.927878
v 21.700546 160.886958 54.428246
v 17.629472 198.882715 44.927878
v 17.629472 198.882715 50.357704
v 25.773479 177.162218 49.001344
v 16.271517 152.735378 58.501711
v 16.271517 163.602602 49.001344
v 21.700546 163.602602 49.001344
v 23.058500 181.235683 43.570057
v 18.986497 179.877861 43.570057
v 23.058500 185.309148 50.357704
v 24.415525 167.671417 51.714064
v 17.629472 152.735378 54.428246
v 23.058500 173.102703 44.927878
v 24.415525 167.671417 49.001344
v 17.629472 152.735378 58.501711
v 16.271517 159.529137 58.501711
v 17.629472 200.235887 47.643522
v 16.271517 198.882715 44.927878
v 24.415525 183.951327 47.643522
v 16.271517 188.024792 43.570057
v 24.415525 177.162218 51.714064
v 20.344451 188.024792 43.570057
v 20.344451 169.029238 46.287162
v 21.700546 190.735785 44.927878
f 328 350 352 
f 324 321 326 
f 322 323 331 
f 324 322 331 
f 325 328 332 
f 324 326 333 
f 326 321 334 
f 328 325 336 
f 327 334 337 
f 321 336 337 
f 331 323 338 
f 325 332 339 
f 333 326 340 
f 325 335 341 
f 336 325 341 
f 327 337 341 
f 337 336 341 
f 335 325 342 
f 339 329 342 
f 325 339 342 
f 340 335 342 
f 329 340 342 
f 322 333 343 
f 339 322 343 
f 329 339 343 
f 333 340 343 
f 340 329 343 
f 322 324 344 
f 333 322 344 
f 324 333 344 
f 324 331 345 
f 321 324 346 
f 330 321 346 
f 324 345 346 
f 345 330 346 
f 332 328 347 
f 331 338 347 
f 338 332 347 
f 345 331 347 
f 334 321 348 
f 321 337 348 
f 337 334 348 
f 323 322 349 
f 338 323 349 
f 332 338 349 
f 322 339 349 
f 339 332 349 
f 321 330 350 
f 336 321 350 
f 328 336 350 
f 326 334 351 
f 334 327 351 
f 335 340 351 
f 340 326 351 
f 327 341 351 
f 341 335 351 
f 330 345 352 
f 347 328 352 
f 345 347 352 
f 350 330 352 
o convex_11
v 50.208158 169.027777 19.136440
v 59.706400 234.180765 54.429442
v 56.991022 234.180765 54.429442
v 54.277239 190.747610 19.136440
v 58.351103 179.894204 30.001406
v 44.777403 170.382011 23.212962
v 44.777403 179.894204 19.136440
v 59.706400 189.386865 21.855273
v 61.066480 220.605870 51.710609
v 56.991022 232.820020 47.640997
v 61.066480 227.390062 44.925619
v 54.277239 230.105041 50.352920
v 56.991022 227.390062 54.429442
v 55.635725 179.894204 31.359095
v 55.635725 173.103501 19.136440
v 50.208158 189.386865 19.136440
v 61.066480 204.309484 39.494864
v 54.277239 171.742756 25.924885
v 54.277239 227.390062 44.925619
v 58.351103 188.032631 19.136440
v 44.777403 167.667032 19.136440
v 59.706400 186.671886 21.855273
v 50.208158 174.457735 27.282574
v 44.777403 178.526949 21.855273
v 55.635725 227.390062 53.071753
v 61.066480 232.820020 50.352920
v 59.706400 196.177568 39.494864
v 59.706400 228.744296 44.925619
v 59.706400 186.671886 30.001406
v 47.492781 167.667032 21.855273
v 58.351103 179.894204 20.494129
v 58.351103 220.605870 51.710609
f 375 366 384 
f 356 353 359 
f 355 354 362 
f 355 362 364 
f 354 355 365 
f 361 354 365 
f 353 356 367 
f 356 359 368 
f 362 356 368 
f 360 363 369 
f 363 361 369 
f 357 366 370 
f 353 367 370 
f 367 357 370 
f 359 364 371 
f 364 362 371 
f 368 359 371 
f 362 368 371 
f 363 360 372 
f 367 356 372 
f 359 353 373 
f 358 359 373 
f 360 369 374 
f 372 360 374 
f 365 358 375 
f 370 366 375 
f 359 358 376 
f 358 364 376 
f 364 359 376 
f 355 364 377 
f 364 358 377 
f 365 355 377 
f 358 365 377 
f 354 361 378 
f 362 354 378 
f 361 363 378 
f 366 357 379 
f 361 366 379 
f 369 361 379 
f 356 362 380 
f 372 356 380 
f 363 372 380 
f 362 378 380 
f 378 363 380 
f 357 374 381 
f 374 369 381 
f 379 357 381 
f 369 379 381 
f 353 370 382 
f 373 353 382 
f 358 373 382 
f 375 358 382 
f 370 375 382 
f 357 367 383 
f 367 372 383 
f 374 357 383 
f 372 374 383 
f 361 365 384 
f 366 361 384 
f 365 375 384 
o convex_12
v 27.127581 143.228272 96.505306
v 2.699811 113.374625 77.505635
v 5.413727 113.374625 77.505635
v 28.485801 151.372627 91.077740
v 23.057969 152.732588 97.863792
v 4.055507 124.235050 77.505635
v 2.699811 118.802911 85.648047
v 20.344053 128.307227 82.937453
v 18.988357 126.947266 89.723506
v 10.841559 124.235050 77.505635
v 23.057969 152.732588 92.434100
v 2.699811 124.235050 84.293813
v 25.769360 148.656558 99.224404
v 28.485801 143.228272 91.077740
v 6.771947 117.446803 85.648047
v 28.485801 152.732588 99.224404
v 2.699811 124.235050 78.864121
v 14.913696 121.518980 85.648047
v 23.057969 131.023297 87.010785
v 16.269392 128.307227 91.077740
v 20.344053 133.731661 82.937453
v 9.485863 117.446803 77.505635
v 24.413664 150.016519 99.224404
v 2.699811 122.875089 85.648047
v 5.413727 113.374625 80.222607
v 16.269392 122.875089 81.581093
v 28.485801 148.656558 99.224404
v 24.413664 135.087769 92.434100
v 2.699811 114.730733 82.937453
v 18.988357 128.307227 91.077740
v 24.413664 151.372627 91.077740
v 4.055507 117.446803 85.648047
f 413 399 416 
f 387 386 390 
f 387 390 394 
f 390 388 394 
f 386 391 396 
f 392 388 398 
f 388 395 400 
f 395 389 400 
f 398 388 400 
f 390 386 401 
f 389 395 401 
f 395 390 401 
f 386 396 401 
f 396 389 401 
f 393 399 402 
f 392 398 403 
f 393 402 403 
f 388 392 405 
f 394 388 405 
f 392 394 405 
f 387 394 406 
f 394 392 406 
f 391 397 407 
f 400 389 407 
f 397 400 407 
f 396 391 408 
f 389 396 408 
f 407 389 408 
f 391 407 408 
f 386 387 409 
f 387 402 409 
f 402 399 409 
f 402 387 410 
f 392 403 410 
f 403 402 410 
f 387 406 410 
f 406 392 410 
f 385 398 411 
f 400 397 411 
f 398 400 411 
f 397 404 411 
f 398 385 412 
f 393 403 412 
f 403 398 412 
f 391 386 413 
f 386 409 413 
f 409 399 413 
f 399 393 414 
f 404 399 414 
f 385 411 414 
f 411 404 414 
f 412 385 414 
f 393 412 414 
f 388 390 415 
f 395 388 415 
f 390 395 415 
f 397 391 416 
f 404 397 416 
f 399 404 416 
f 391 413 416 
o convex_13
v 1.338800 209.749540 -35.156232
v -4.089829 265.398441 -16.156561
v -5.447252 265.398441 -16.156561
v 4.053646 224.680397 -37.875330
v -2.731343 223.324037 -36.516844
v -0.017560 230.105838 -21.586253
v -5.447252 235.547621 -21.586253
v 5.412133 221.967677 -33.799872
v -5.447252 262.680273 -20.229893
v -1.374983 259.967553 -17.515047
v 5.412133 209.749540 -37.875330
v -4.089829 223.324037 -27.018071
v -2.732406 265.398441 -18.871407
v -1.373920 213.824068 -37.875330
v -1.373920 224.680397 -37.875330
v -5.447252 254.536664 -16.156561
v 5.412133 223.324037 -37.875330
v 2.695160 223.324037 -27.018071
v -1.374983 247.754863 -17.515047
v -5.447252 235.547621 -24.301099
v -2.731343 230.105838 -21.586253
v 5.412133 209.749540 -36.516844
v -0.017560 209.749540 -37.875330
v -5.447252 245.042143 -24.301099
v 1.338800 223.324037 -25.659585
v -2.731343 223.324037 -25.659585
v -0.017560 236.903981 -20.229893
v -2.732406 255.893025 -16.156561
v -4.089829 246.398503 -17.515047
v -2.731343 220.611317 -36.516844
v -4.089829 231.462199 -21.586253
v -2.732406 259.967553 -21.586253
f 431 425 448 
f 423 419 425 
f 419 418 429 
f 425 419 429 
f 418 426 429 
f 420 427 430 
f 421 425 431 
f 420 430 431 
f 430 421 431 
f 418 419 432 
f 419 423 432 
f 426 424 433 
f 427 420 433 
f 424 427 433 
f 420 429 433 
f 429 426 433 
f 423 425 436 
f 428 423 436 
f 417 427 438 
f 427 424 438 
f 424 434 438 
f 427 417 439 
f 417 428 439 
f 430 427 439 
f 428 430 439 
f 425 421 440 
f 421 436 440 
f 436 425 440 
f 434 422 441 
f 422 437 441 
f 417 438 441 
f 438 434 441 
f 428 417 442 
f 417 441 442 
f 441 437 442 
f 424 426 443 
f 422 434 443 
f 434 424 443 
f 426 435 443 
f 435 422 443 
f 426 418 444 
f 418 432 444 
f 435 426 444 
f 432 435 444 
f 435 432 445 
f 422 435 445 
f 437 422 445 
f 421 430 446 
f 430 428 446 
f 436 421 446 
f 428 436 446 
f 423 428 447 
f 432 423 447 
f 428 442 447 
f 442 437 447 
f 445 432 447 
f 437 445 447 
f 429 420 448 
f 425 429 448 
f 420 431 448 
o convex_14
v -29.884988 201.609193 49.000721
v -52.957061 239.600928 62.571847
v -52.957061 239.600928 66.643690
v -36.668516 190.747730 43.573280
v -28.526767 211.108588 42.212633
v -46.168484 243.675437 68.001812
v -35.312820 205.683703 55.786284
v -36.668516 207.028232 42.212633
v -51.596317 245.031659 62.571847
v -27.166022 188.029442 42.212633
v -39.384956 201.615039 53.075088
v -38.026736 196.178462 42.212633
v -51.596317 238.244706 68.001812
v -47.526705 245.031659 62.571847
v -27.166022 207.028232 43.570756
v -50.240621 238.244706 58.500005
v -47.526705 220.607983 58.500005
v -27.166022 188.029442 43.573280
v -51.596317 247.744101 68.001812
v -33.954599 211.108588 42.212633
v -46.168484 234.170196 66.643690
v -35.312820 196.178462 50.361368
v -32.598904 205.683703 53.075088
v -51.596317 234.170196 59.855603
v -39.384956 205.683703 55.786284
v -33.954599 188.029442 43.573280
v -40.740652 201.615039 51.719490
v -36.668516 190.747730 42.212633
v -51.596317 232.813975 63.927445
v -50.240621 240.957149 59.855603
v -52.957061 246.387880 68.001812
v -46.168484 243.675437 63.927445
f 462 454 480 
f 456 453 458 
f 456 458 460 
f 453 454 463 
f 458 453 463 
f 450 457 464 
f 456 460 464 
f 463 449 466 
f 458 463 466 
f 461 454 467 
f 454 462 467 
f 462 457 467 
f 453 456 468 
f 456 464 468 
f 455 454 469 
f 454 461 469 
f 466 455 470 
f 454 455 471 
f 463 454 471 
f 449 463 471 
f 466 449 471 
f 455 466 471 
f 450 464 472 
f 464 460 472 
f 461 459 473 
f 455 469 473 
f 469 461 473 
f 459 470 473 
f 470 455 473 
f 458 466 474 
f 470 459 474 
f 466 470 474 
f 459 461 475 
f 452 474 475 
f 474 459 475 
f 460 458 476 
f 472 460 476 
f 465 472 476 
f 474 452 476 
f 458 474 476 
f 452 475 476 
f 475 465 476 
f 451 450 477 
f 461 451 477 
f 450 472 477 
f 472 465 477 
f 475 461 477 
f 465 475 477 
f 462 453 478 
f 457 462 478 
f 464 457 478 
f 453 468 478 
f 468 464 478 
f 450 451 479 
f 457 450 479 
f 451 461 479 
f 467 457 479 
f 461 467 479 
f 454 453 480 
f 453 462 480 
o convex_15
v -14.948151 162.240396 4.204919
v 5.412133 163.598085 5.562475
v 5.412133 159.525018 5.562475
v -16.306637 171.737309 25.923556
v -14.948151 162.240396 17.775961
v -16.306637 173.096725 16.418405
v 4.053646 155.450224 4.204919
v -0.017560 166.306553 2.847363
v -6.803613 156.809640 2.847363
v -12.231179 166.306553 2.847363
v -13.591791 166.306553 23.208444
v -13.591791 173.096725 21.850888
v 5.412133 164.948864 2.847363
v -16.306637 162.240396 6.920031
v -14.948151 171.737309 25.923556
v -16.306637 167.664242 6.920031
v -16.306637 162.240396 16.418405
v 5.412133 156.809640 2.847363
v -13.591791 167.664242 4.204919
v -12.231179 159.525018 2.847363
v -14.948151 173.096725 16.418405
v -16.306637 167.664242 24.566000
v -6.803613 156.809640 4.204919
v -5.447252 167.664242 4.204919
v -10.876945 162.240396 17.775961
v 5.412133 164.948864 4.204919
v 1.338800 155.450224 4.204919
v -14.948151 160.882707 10.994958
v -14.948151 173.096725 24.566000
v -14.948151 170.379620 25.923556
v -13.591791 164.948864 2.847363
v -13.591791 173.096725 19.135776
f 493 501 512 
f 488 489 490 
f 487 483 491 
f 482 483 493 
f 489 488 493 
f 484 486 494 
f 483 482 495 
f 481 494 496 
f 494 486 496 
f 484 494 497 
f 483 487 498 
f 487 489 498 
f 493 483 498 
f 489 493 498 
f 488 490 499 
f 496 486 499 
f 490 489 500 
f 494 481 500 
f 486 492 501 
f 493 488 501 
f 499 486 501 
f 485 491 502 
f 497 485 502 
f 484 497 502 
f 485 497 503 
f 488 499 504 
f 501 488 504 
f 499 501 504 
f 485 487 505 
f 491 485 505 
f 487 491 505 
f 482 493 506 
f 493 492 506 
f 487 485 507 
f 489 487 507 
f 485 503 507 
f 503 489 507 
f 497 494 508 
f 500 489 508 
f 494 500 508 
f 489 503 508 
f 503 497 508 
f 486 484 509 
f 492 486 509 
f 495 482 509 
f 484 495 509 
f 482 506 509 
f 506 492 509 
f 491 483 510 
f 483 495 510 
f 495 484 510 
f 502 491 510 
f 484 502 510 
f 481 496 511 
f 499 490 511 
f 496 499 511 
f 500 481 511 
f 490 500 511 
f 492 493 512 
f 501 492 512 
o convex_16
v -46.167421 152.734819 87.007596
v -32.595715 144.590712 108.726366
v -36.670509 144.590712 108.726366
v -32.595715 129.660912 100.581828
v -38.024743 135.091380 107.367880
v -48.882799 162.237340 91.080929
v -42.097809 155.445270 88.366082
v -46.167421 148.662765 88.366082
v -32.595715 141.873884 100.581828
v -32.595715 129.660912 108.726366
v -50.242215 158.158909 89.724569
v -46.167421 162.237340 88.366082
v -39.384159 141.880261 91.080929
v -42.097809 140.521847 92.437289
v -39.382432 141.873884 107.367880
v -40.740121 137.808208 100.581828
v -35.311092 143.238676 95.152135
v -33.955131 129.660912 100.581828
v -48.882799 162.237340 87.007596
v -42.097809 156.800495 89.724569
v -38.024743 136.449794 108.726366
v -46.167421 162.237340 91.080929
v -48.882799 154.086855 91.080929
v -33.955131 129.660912 108.726366
v -48.882799 155.445270 87.007596
v -32.595715 144.590712 106.009394
v -44.809732 159.517323 87.007596
v -42.097809 148.662765 88.366082
v -36.670509 132.377741 100.581828
v -44.809732 160.875737 88.366082
v -39.382432 139.160245 107.367880
v -50.242215 160.875737 89.724569
f 518 531 544 
f 515 514 518 
f 514 516 521 
f 514 515 522 
f 516 514 522 
f 520 525 526 
f 515 518 527 
f 521 516 529 
f 519 521 529 
f 516 525 529 
f 516 522 530 
f 525 516 530 
f 526 525 530 
f 518 524 531 
f 521 519 532 
f 522 515 533 
f 515 527 533 
f 518 514 534 
f 524 518 534 
f 520 526 535 
f 528 517 535 
f 526 528 535 
f 517 528 536 
f 530 522 536 
f 522 533 536 
f 533 517 536 
f 513 520 537 
f 531 513 537 
f 523 531 537 
f 520 535 537 
f 535 523 537 
f 514 521 538 
f 521 532 538 
f 513 531 539 
f 531 524 539 
f 520 513 540 
f 525 520 540 
f 519 529 540 
f 529 525 540 
f 513 539 540 
f 539 519 540 
f 528 526 541 
f 526 530 541 
f 536 528 541 
f 530 536 541 
f 532 519 542 
f 534 514 542 
f 524 534 542 
f 514 538 542 
f 538 532 542 
f 519 539 542 
f 539 524 542 
f 527 523 543 
f 517 533 543 
f 533 527 543 
f 523 535 543 
f 535 517 543 
f 527 518 544 
f 523 527 544 
f 531 523 544 
o convex_17
v -23.094550 150.022525 58.501179
v -23.093753 193.453820 69.361096
v -24.450645 193.453820 69.361096
v -25.806739 154.099922 50.357172
v -27.166022 151.383075 59.857274
v -19.021484 166.315107 65.289092
v -21.736861 192.097522 66.645187
v -21.737659 151.383075 54.431036
v -23.093753 171.744550 68.003141
v -27.166022 160.881412 53.074942
v -19.021484 170.388252 62.573183
v -20.379970 183.951231 69.361096
v -27.166022 150.022525 50.357172
v -24.450645 181.238635 69.361096
v -27.166022 163.594007 61.215228
v -20.379970 166.315107 66.645187
v -24.450645 192.097522 66.645187
v -21.737659 150.022525 57.143225
v -23.093753 162.241961 65.289092
v -19.021484 174.452894 63.931138
v -21.736861 178.521788 69.361096
v -20.379970 160.881412 63.931138
v -20.379970 179.882337 63.931138
v -21.737659 150.022525 54.431036
v -27.166022 150.022525 58.501179
v -27.166022 158.168816 51.716987
v -24.450645 163.598259 65.289092
v -27.166022 163.594007 57.143225
v -19.021484 166.315107 62.573183
v -27.166022 156.812518 61.215228
v -20.379970 171.744550 68.003141
v -24.449847 154.099922 51.716987
f 567 555 576 
f 547 546 551 
f 546 547 556 
f 551 546 556 
f 549 554 557 
f 556 547 558 
f 554 549 559 
f 558 547 559 
f 547 551 561 
f 545 557 562 
f 549 545 563 
f 560 553 563 
f 550 555 564 
f 551 556 564 
f 556 550 564 
f 558 553 565 
f 556 558 565 
f 550 560 566 
f 545 562 566 
f 562 550 566 
f 563 545 566 
f 560 563 566 
f 548 551 567 
f 551 564 567 
f 564 555 567 
f 548 552 568 
f 552 555 568 
f 557 548 568 
f 550 562 568 
f 562 557 568 
f 545 549 569 
f 557 545 569 
f 549 557 569 
f 551 548 570 
f 548 557 570 
f 557 554 570 
f 561 551 570 
f 554 561 570 
f 553 558 571 
f 549 563 571 
f 563 553 571 
f 554 559 572 
f 559 547 572 
f 547 561 572 
f 561 554 572 
f 555 550 573 
f 550 568 573 
f 568 555 573 
f 559 549 574 
f 558 559 574 
f 549 571 574 
f 571 558 574 
f 550 556 575 
f 560 550 575 
f 553 560 575 
f 565 553 575 
f 556 565 575 
f 552 548 576 
f 555 552 576 
f 548 567 576 
o convex_18
v -1.373920 106.571433 -13.441714
v -2.731210 93.000656 12.349325
v -5.445791 93.000656 12.349325
v -5.445791 37.354413 -10.725274
v 9.484402 37.354413 5.560748
v -10.876945 37.354413 6.918968
v -8.160371 140.508472 -10.725274
v 4.053248 140.508472 -2.581001
v 9.484402 37.354413 -6.653137
v -8.160371 140.508472 -1.222780
v 4.053248 140.508472 -10.725274
v 4.053248 42.796860 12.349325
v -10.876945 83.519287 12.349325
v -10.876945 37.354413 -3.939221
v 4.053248 80.803113 12.349325
v 4.053248 37.354413 -10.725274
v -2.731210 140.508472 1.488611
v -4.088501 38.727646 12.349325
v 1.338667 140.508472 -13.441714
v 9.484402 50.945384 4.202527
v -10.876945 90.284481 2.846832
v -5.445791 118.789171 -13.441714
v 9.484402 56.367637 -5.294917
v 2.695958 140.508472 0.130391
v -9.517662 37.354413 -6.653137
v -5.445791 140.508472 1.488611
v -10.876945 67.232336 12.349325
v 2.695958 88.931442 12.349325
v 5.410538 37.354413 10.991105
v -10.876945 60.446948 -3.939221
v 1.338667 105.218394 -13.441714
v -5.445791 140.508472 -13.441714
f 595 598 608 
f 580 581 582 
f 581 580 585 
f 584 583 586 
f 583 584 587 
f 578 579 588 
f 588 579 589 
f 580 582 590 
f 582 589 590 
f 578 588 591 
f 585 580 592 
f 579 578 593 
f 584 586 593 
f 588 589 594 
f 583 587 595 
f 587 585 595 
f 581 585 596 
f 584 591 596 
f 591 581 596 
f 586 583 597 
f 589 586 597 
f 590 589 597 
f 577 580 598 
f 595 577 598 
f 587 584 599 
f 585 587 599 
f 596 585 599 
f 584 596 599 
f 591 584 600 
f 584 593 600 
f 580 590 601 
f 590 583 601 
f 598 580 601 
f 583 598 601 
f 589 579 602 
f 586 589 602 
f 579 593 602 
f 593 586 602 
f 589 582 603 
f 582 594 603 
f 594 589 603 
f 578 591 604 
f 593 578 604 
f 591 600 604 
f 600 593 604 
f 582 581 605 
f 581 591 605 
f 591 588 605 
f 594 582 605 
f 588 594 605 
f 583 590 606 
f 597 583 606 
f 590 597 606 
f 580 577 607 
f 592 580 607 
f 585 592 607 
f 577 595 607 
f 595 585 607 
f 583 595 608 
f 598 583 608 
o convex_19
v -4.089298 57.722669 12.349325
v -1.375116 93.005307 29.995825
v -1.375116 93.005307 27.280448
v -10.876945 82.144859 12.349325
v 2.696888 87.575083 12.349325
v -0.018756 76.714635 29.995825
v -8.159840 78.072191 27.280448
v 4.054709 61.791882 13.707014
v 2.696888 84.859971 29.995825
v -5.447120 91.647751 12.349325
v -6.803480 90.290195 29.995825
v -9.519123 67.222106 13.707014
v 4.054709 80.787303 12.349325
v -4.089298 57.722669 13.707014
v -4.089298 76.714635 29.995825
v -9.519123 87.575083 12.349325
v 1.339066 90.290195 12.349325
v 1.339066 90.290195 29.995825
v -10.876945 72.652330 12.349325
v -8.159840 86.217527 28.636409
v 4.054709 61.791882 12.349325
v -4.089298 93.005307 29.995825
v 1.339066 78.072191 29.995825
v -10.876945 76.714635 15.064703
v -6.803480 79.429747 29.995825
v -2.732938 57.722669 13.707014
v -5.447120 59.076770 13.707014
v 4.054709 74.009886 16.424119
v -1.375116 91.647751 12.349325
v -9.519123 87.575083 15.064703
v -10.876945 72.652330 13.707014
v -10.876945 80.787303 15.064703
f 628 638 640 
f 609 612 613 
f 610 614 617 
f 613 612 618 
f 614 610 619 
f 609 613 621 
f 613 617 621 
f 614 619 623 
f 622 614 623 
f 618 612 624 
f 611 610 625 
f 613 618 625 
f 610 617 626 
f 617 613 626 
f 625 610 626 
f 613 625 626 
f 612 609 627 
f 609 620 627 
f 609 621 629 
f 621 616 629 
f 610 611 630 
f 611 618 630 
f 619 610 630 
f 614 616 631 
f 617 614 631 
f 616 617 631 
f 612 627 632 
f 615 628 632 
f 623 619 633 
f 619 628 633 
f 628 615 633 
f 616 614 634 
f 614 622 634 
f 622 609 634 
f 609 629 634 
f 629 616 634 
f 620 609 635 
f 615 620 635 
f 609 622 635 
f 622 623 635 
f 633 615 635 
f 623 633 635 
f 617 616 636 
f 616 621 636 
f 621 617 636 
f 618 611 637 
f 611 625 637 
f 625 618 637 
f 624 612 638 
f 618 624 638 
f 628 619 638 
f 630 618 638 
f 619 630 638 
f 620 615 639 
f 627 620 639 
f 632 627 639 
f 615 632 639 
f 612 632 640 
f 632 628 640 
f 638 612 640 
o convex_20
v -2.731343 178.533724 -31.088613
v 2.696223 175.817018 -16.159617
v -2.731343 175.817018 -16.159617
v 6.768493 209.742366 -36.515117
v 5.410007 164.959759 -17.519298
v 8.126979 208.384012 -47.374236
v -1.374452 209.742366 -40.588051
v -8.162099 162.243053 -16.159617
v -0.017560 205.667306 -46.014555
v 1.339332 170.388389 -25.662109
v -1.374452 209.742366 -37.871743
v -8.162099 169.030035 -16.159617
v 5.410007 173.100312 -16.159617
v 8.126979 205.667306 -37.871743
v -8.162099 164.959759 -18.875924
v 5.410007 198.880324 -43.301303
v -6.803613 160.879917 -17.519298
v 1.339332 208.384012 -35.158491
v 1.339332 160.879917 -16.159617
v -6.803613 173.100312 -16.159617
v 1.339332 209.742366 -47.374236
v 5.410007 181.245648 -31.088613
v -1.374452 207.025659 -43.301303
v -0.017560 201.597030 -44.657929
v 1.339332 160.879917 -17.519298
v -5.445126 164.959759 -21.589176
v 8.126979 201.597030 -41.944677
v -8.162099 169.030035 -18.875924
v 8.126979 209.742366 -39.228369
v -4.089829 174.458665 -28.375361
v 5.410007 164.959759 -16.159617
v 4.051521 169.030035 -22.945802
f 665 650 672 
f 642 643 648 
f 644 647 651 
f 648 643 652 
f 651 647 652 
f 644 642 653 
f 642 648 653 
f 648 652 655 
f 650 641 656 
f 648 655 657 
f 643 642 658 
f 642 644 658 
f 644 651 658 
f 653 648 659 
f 648 657 659 
f 652 643 660 
f 651 652 660 
f 643 658 660 
f 658 651 660 
f 647 644 661 
f 646 649 661 
f 656 646 662 
f 650 656 662 
f 649 655 663 
f 647 661 663 
f 661 649 663 
f 649 646 664 
f 655 649 664 
f 646 656 664 
f 656 641 664 
f 645 659 665 
f 659 657 665 
f 657 655 666 
f 650 665 666 
f 665 657 666 
f 646 654 667 
f 645 662 667 
f 662 646 667 
f 652 647 668 
f 655 652 668 
f 647 663 668 
f 663 655 668 
f 644 653 669 
f 654 646 669 
f 653 654 669 
f 661 644 669 
f 646 661 669 
f 641 650 670 
f 655 664 670 
f 664 641 670 
f 650 666 670 
f 666 655 670 
f 654 653 671 
f 659 645 671 
f 653 659 671 
f 667 654 671 
f 645 667 671 
f 662 645 672 
f 650 662 672 
f 645 665 672 
o convex_21
v 13.556671 170.381879 4.202926
v 5.412133 152.735378 -6.653004
v 5.412133 154.094794 -10.723679
v 5.412133 170.381879 -2.582329
v 16.271517 167.664774 -5.296910
v 16.271517 162.234018 9.634479
v 5.412133 158.167861 5.559020
v 5.412133 169.022462 -13.440651
v 16.271517 160.883239 -1.226235
v 5.412133 166.307085 4.202926
v 6.769556 163.591707 -14.799137
v 16.271517 170.381879 -1.226235
v 6.769556 152.735378 -2.582329
v 13.556671 162.234018 -8.011490
v 16.271517 167.664774 8.275993
v 6.769556 154.094794 -10.723679
v 14.911968 159.525550 6.915115
v 14.911968 164.949396 9.634479
v 6.769556 169.022462 -13.440651
v 6.769556 170.381879 -6.653004
v 5.412133 163.591707 5.559020
v 16.271517 162.234018 -3.938424
v 6.769556 152.735378 -6.653004
v 5.412133 169.022462 1.488345
v 5.412133 154.094794 0.132251
v 14.911968 167.664774 8.275993
v 5.412133 163.591707 -14.799137
v 6.769556 166.307085 -14.799137
v 16.271517 170.381879 4.202926
v 6.769556 156.810172 4.202926
v 8.126979 159.525550 6.915115
v 16.271517 163.591707 -5.296910
f 694 688 704 
f 675 674 676 
f 676 674 679 
f 675 676 680 
f 677 678 681 
f 676 679 682 
f 676 673 684 
f 678 677 684 
f 678 684 687 
f 674 675 688 
f 675 683 688 
f 683 686 688 
f 681 678 689 
f 678 687 690 
f 684 677 691 
f 684 691 692 
f 680 676 692 
f 676 684 692 
f 691 680 692 
f 682 679 693 
f 690 682 693 
f 677 681 694 
f 681 688 694 
f 685 674 695 
f 674 688 695 
f 688 681 695 
f 681 689 695 
f 689 685 695 
f 673 676 696 
f 676 682 696 
f 679 674 697 
f 674 685 697 
f 685 689 697 
f 687 673 698 
f 682 690 698 
f 690 687 698 
f 673 696 698 
f 696 682 698 
f 675 680 699 
f 683 675 699 
f 683 699 700 
f 677 683 700 
f 680 691 700 
f 691 677 700 
f 699 680 700 
f 684 673 701 
f 673 687 701 
f 687 684 701 
f 678 679 702 
f 689 678 702 
f 679 697 702 
f 697 689 702 
f 679 678 703 
f 678 690 703 
f 693 679 703 
f 690 693 703 
f 683 677 704 
f 686 683 704 
f 688 686 704 
f 677 694 704 
o convex_22
v -1.375515 95.723607 38.145679
v -5.446189 78.077107 29.995825
v 1.339863 78.077107 29.995825
v -0.018623 94.364191 59.859134
v -5.446189 95.723607 55.781284
v -5.446189 91.648813 29.995825
v 1.339863 91.648813 29.995825
v 1.339863 95.723607 57.140567
v -6.804676 79.436523 31.355109
v -4.088501 93.006502 57.140567
v -4.088501 78.077107 32.714392
v -6.804676 88.935163 29.995825
v -5.446189 95.723607 43.571120
v 1.339863 95.723607 40.858399
v 1.339863 78.077107 31.355109
v -4.088501 93.006502 29.995825
v -6.804676 90.291124 35.427112
v -6.804676 83.509589 36.786396
v -0.018623 94.364191 34.073675
v 1.339863 94.364191 57.140567
v -1.375515 95.723607 59.859134
v -5.446189 93.006502 31.355109
v -5.446189 94.364191 55.781284
v -4.088501 95.723607 39.499116
v -2.732406 78.077107 32.714392
v -4.088501 94.364191 58.499851
v -5.446189 78.077107 31.355109
v -6.804676 79.436523 29.995825
v -1.375515 94.364191 59.859134
v -1.375515 93.006502 29.995825
v -6.804676 88.935163 36.786396
v -4.088501 95.723607 58.499851
f 709 730 736 
f 707 706 710 
f 707 710 711 
f 705 709 712 
f 707 711 712 
f 706 707 715 
f 710 706 716 
f 709 705 717 
f 705 712 718 
f 712 711 718 
f 707 712 719 
f 715 707 719 
f 711 710 720 
f 716 713 721 
f 709 717 721 
f 721 713 722 
f 705 718 723 
f 718 711 723 
f 712 708 724 
f 719 712 724 
f 708 719 724 
f 708 712 725 
f 712 709 725 
f 710 716 726 
f 720 710 726 
f 716 721 726 
f 721 717 726 
f 713 714 727 
f 722 713 727 
f 717 705 728 
f 705 720 728 
f 726 717 728 
f 720 726 728 
f 708 715 729 
f 719 708 729 
f 715 719 729 
f 727 714 730 
f 709 727 730 
f 713 706 731 
f 714 713 731 
f 715 714 731 
f 706 715 731 
f 706 713 732 
f 716 706 732 
f 713 716 732 
f 714 715 733 
f 715 708 733 
f 708 725 733 
f 730 714 733 
f 725 730 733 
f 711 720 734 
f 720 705 734 
f 705 723 734 
f 723 711 734 
f 709 721 735 
f 721 722 735 
f 727 709 735 
f 722 727 735 
f 725 709 736 
f 730 725 736 
o convex_23
v -0.018357 112.010825 82.935327
v -4.089564 95.727062 42.212633
v -4.089564 97.082890 42.212633
v -8.162099 113.370108 78.861463
v 4.054178 113.370108 66.639872
v -0.018357 95.727062 61.222669
v -5.446189 113.370108 66.639872
v 1.339597 95.727062 43.571917
v 5.412133 112.010825 74.787599
v -5.446189 95.727062 58.508089
v -4.089564 101.155558 69.358438
v 2.696223 97.082890 58.508089
v -8.162099 113.370108 72.069033
v -0.018357 113.370108 63.925291
v -6.804144 112.010825 81.576044
v -0.018357 97.082890 42.212633
v 1.339597 102.513114 70.713736
v 5.412133 113.370108 69.358438
v -5.446189 95.727062 49.001078
v -0.018357 113.370108 82.935327
v 2.696223 97.082890 49.001078
v 4.054178 110.653269 77.498194
v -2.731609 98.440446 66.639872
v -8.162099 110.653269 72.069033
v -2.731609 109.295713 80.216760
v -0.018357 98.440446 66.639872
v 1.339597 97.082890 43.571917
v 4.054178 113.370108 78.861463
v 5.412133 110.653269 69.358438
v -8.162099 112.010825 78.861463
v 2.696223 101.155558 66.639872
v -1.374983 113.370108 63.925291
f 743 750 768 
f 740 741 743 
f 742 738 744 
f 738 742 746 
f 742 744 748 
f 743 739 749 
f 740 743 749 
f 743 741 750 
f 746 747 751 
f 738 739 752 
f 744 738 752 
f 739 750 752 
f 750 741 752 
f 741 740 754 
f 739 738 755 
f 738 746 755 
f 749 739 755 
f 751 737 756 
f 740 751 756 
f 754 740 756 
f 748 744 757 
f 737 753 758 
f 746 742 759 
f 747 746 759 
f 740 749 760 
f 755 746 760 
f 749 755 760 
f 737 751 761 
f 751 747 761 
f 747 759 761 
f 761 759 762 
f 753 737 762 
f 759 742 762 
f 737 761 762 
f 744 752 763 
f 752 741 763 
f 741 754 763 
f 757 744 763 
f 754 757 763 
f 745 754 764 
f 756 737 764 
f 754 756 764 
f 758 745 764 
f 737 758 764 
f 745 748 765 
f 754 745 765 
f 748 757 765 
f 757 754 765 
f 751 740 766 
f 746 751 766 
f 740 760 766 
f 760 746 766 
f 742 748 767 
f 748 745 767 
f 745 758 767 
f 758 753 767 
f 762 742 767 
f 753 762 767 
f 739 743 768 
f 750 739 768 
o convex_24
v -0.013972 126.944339 68.004144
v 1.341325 131.018203 77.503907
v -2.730546 131.018203 77.503907
v 14.912234 164.952186 50.357172
v 14.912234 145.948262 59.856935
v 16.271517 162.232556 57.149170
v 5.411202 126.944339 74.788171
v -4.089829 129.663968 73.430303
v 16.271517 154.092270 53.075566
v 5.411202 126.944339 68.004144
v 14.912234 151.376360 62.575329
v 10.840363 151.376360 54.430777
v 14.912234 164.952186 54.430777
v -4.089829 126.944339 77.503907
v -2.730546 133.734112 74.788171
v 1.341325 136.446301 65.291065
v 8.125783 129.663968 70.714566
v 16.271517 150.018406 59.856935
v 2.698615 129.663968 77.503907
v 5.411202 128.306014 66.646276
v 16.271517 150.018406 55.788645
v 16.271517 160.874602 50.357172
v 6.766500 126.944339 69.356698
v -1.371263 136.446301 70.714566
v 8.127776 151.376360 57.149170
v 2.698615 133.734112 63.933197
v -2.730546 126.944339 70.714566
v 16.271517 156.804458 59.856935
v 16.271517 164.952186 50.357172
v 14.912234 147.306217 62.575329
v 2.698615 126.944339 77.503907
v 9.483073 143.236074 58.507039
f 794 780 800 
f 771 770 774 
f 775 769 778 
f 771 774 781 
f 770 771 782 
f 769 775 782 
f 776 782 783 
f 771 781 783 
f 782 771 783 
f 777 774 786 
f 785 773 786 
f 775 779 787 
f 770 782 787 
f 778 769 788 
f 786 773 789 
f 777 786 789 
f 778 788 789 
f 788 777 789 
f 774 777 790 
f 780 772 790 
f 777 780 790 
f 775 778 791 
f 785 775 791 
f 773 785 791 
f 778 789 791 
f 789 773 791 
f 781 772 792 
f 776 783 792 
f 783 781 792 
f 772 780 793 
f 784 776 793 
f 792 772 793 
f 776 792 793 
f 788 769 794 
f 793 780 794 
f 784 793 794 
f 769 782 795 
f 782 776 795 
f 776 784 795 
f 794 769 795 
f 784 794 795 
f 774 770 796 
f 779 786 796 
f 786 774 796 
f 770 787 796 
f 787 779 796 
f 781 774 797 
f 772 781 797 
f 790 772 797 
f 774 790 797 
f 779 775 798 
f 775 785 798 
f 786 779 798 
f 785 786 798 
f 782 775 799 
f 775 787 799 
f 787 782 799 
f 780 777 800 
f 777 788 800 
f 788 794 800 
o convex_25
v 16.271517 202.961096 46.284903
v 4.054709 216.530013 47.642326
v 5.413196 212.457743 46.284903
v 14.913031 192.102774 50.357172
v 9.485066 217.888499 50.357172
v 14.913031 189.385802 44.927480
v 8.128972 219.246985 46.284903
v 4.054709 216.530013 50.357172
v 16.271517 201.608988 50.357172
v 10.841161 209.747149 44.927480
v 13.554545 192.102774 48.998686
v 16.271517 189.385802 44.927480
v 4.054709 221.963957 47.642326
v 16.271517 201.608988 44.927480
v 8.128972 209.747149 44.927480
v 16.271517 189.385802 48.998686
v 6.771682 220.605471 50.357172
v 10.841161 215.171527 46.284903
v 6.771682 208.388663 46.284903
v 5.413196 219.246985 46.284903
v 5.413196 212.457743 50.357172
v 13.554545 192.102774 44.927480
v 4.054709 220.605471 50.357172
v 16.271517 202.961096 48.998686
v 14.913031 189.385802 48.998686
v 16.271517 192.102774 50.357172
v 12.197255 212.457743 48.998686
v 5.413196 221.963957 48.998686
v 13.554545 207.030177 44.927480
v 6.771682 208.388663 48.998686
v 8.128972 208.388663 44.927480
v 10.841161 200.250502 50.357172
f 821 811 832 
f 802 803 808 
f 804 805 808 
f 805 804 809 
f 801 809 812 
f 806 810 812 
f 803 802 813 
f 802 808 813 
f 801 812 814 
f 812 810 814 
f 810 806 815 
f 807 810 815 
f 806 812 816 
f 812 809 816 
f 805 807 817 
f 808 805 817 
f 807 805 818 
f 801 814 818 
f 803 813 820 
f 813 807 820 
f 815 803 820 
f 807 815 820 
f 808 803 821 
f 804 808 821 
f 803 819 821 
f 806 811 822 
f 815 806 822 
f 819 803 822 
f 811 819 822 
f 813 808 823 
f 808 817 823 
f 809 801 824 
f 805 809 824 
f 811 806 825 
f 804 811 825 
f 816 804 825 
f 806 816 825 
f 809 804 826 
f 804 816 826 
f 816 809 826 
f 801 818 827 
f 818 805 827 
f 824 801 827 
f 805 824 827 
f 807 813 828 
f 817 807 828 
f 813 823 828 
f 823 817 828 
f 810 807 829 
f 814 810 829 
f 807 818 829 
f 818 814 829 
f 819 811 830 
f 811 821 830 
f 821 819 830 
f 803 815 831 
f 822 803 831 
f 815 822 831 
f 811 804 832 
f 804 821 832 
o convex_26
v 63.781327 219.249111 -9.369445
v 50.207095 183.958369 2.846832
v 50.207095 183.958369 4.204786
v 56.994211 185.314463 2.846832
v 55.638914 193.458204 -6.653536
v 56.994211 212.457876 -2.582329
v 52.923005 202.958040 -5.296910
v 58.349508 193.458204 4.204786
v 50.207095 194.821474 4.204786
v 63.781327 211.101782 -9.369445
v 63.781327 216.533334 -3.938955
v 58.349508 215.173653 -9.369445
v 56.994211 202.958040 -9.369445
v 51.566379 192.105698 -3.938955
v 54.280959 197.537250 4.204786
v 58.349508 189.389921 4.204786
v 52.923005 185.314463 -1.225704
v 58.349508 216.533334 -5.296910
v 58.349508 194.821474 -5.296910
v 50.207095 194.821474 0.132251
v 63.781327 211.101782 -5.296910
v 54.280959 182.598687 4.204786
v 55.638914 211.101782 -3.938955
v 59.707463 202.958040 -9.369445
v 55.638914 185.314463 0.132251
v 61.065417 219.249111 -6.653536
v 59.707463 216.533334 -3.938955
v 50.207095 186.674145 0.132251
v 54.280959 193.458204 -6.653536
v 56.994211 196.173981 4.204786
v 61.065417 219.249111 -9.369445
v 56.994211 209.742100 -9.369445
f 845 839 864 
f 834 835 841 
f 835 840 841 
f 842 833 843 
f 833 842 844 
f 844 842 845 
f 839 845 846 
f 838 841 847 
f 841 840 847 
f 840 835 848 
f 836 842 848 
f 843 840 848 
f 842 836 851 
f 834 841 852 
f 839 846 852 
f 842 843 853 
f 848 842 853 
f 843 848 853 
f 835 834 854 
f 848 835 854 
f 836 848 854 
f 834 849 854 
f 841 838 855 
f 844 839 855 
f 838 850 855 
f 850 844 855 
f 852 841 855 
f 839 852 855 
f 845 842 856 
f 837 845 856 
f 851 837 856 
f 842 851 856 
f 849 837 857 
f 851 836 857 
f 837 851 857 
f 836 854 857 
f 854 849 857 
f 843 833 858 
f 858 850 859 
f 838 847 859 
f 847 843 859 
f 850 838 859 
f 843 858 859 
f 849 834 860 
f 846 849 860 
f 834 852 860 
f 852 846 860 
f 845 837 861 
f 846 845 861 
f 837 849 861 
f 849 846 861 
f 840 843 862 
f 847 840 862 
f 843 847 862 
f 833 844 863 
f 844 850 863 
f 858 833 863 
f 850 858 863 
f 839 844 864 
f 844 845 864 
o convex_27
v 46.136686 170.385333 9.634612
v 56.992351 189.381551 19.136440
v 58.351634 192.097194 5.562608
v 50.209221 193.455016 6.920430
v 44.777403 179.887427 19.136440
v 55.635725 174.458798 19.136440
v 56.992351 183.952921 4.204786
v 44.777403 167.669690 19.136440
v 48.851267 189.381551 4.204786
v 44.777403 171.743155 8.278251
v 50.209221 189.381551 19.136440
v 58.351634 181.239935 19.136440
v 48.851267 169.027511 13.706615
v 55.635725 194.812837 4.204786
v 44.777403 181.239935 12.348793
v 51.564519 181.239935 4.204786
v 56.992351 178.529606 12.348793
v 51.564519 174.458798 8.278251
v 51.564519 194.812837 5.562608
v 50.209221 169.027511 19.136440
v 58.351634 189.381551 4.204786
v 55.635725 174.458798 16.419335
v 58.351634 186.668564 19.136440
v 44.777403 167.669690 13.706615
v 44.777403 177.171784 8.278251
v 48.851267 188.023729 19.136440
v 44.777403 181.239935 16.419335
v 47.493312 171.743155 8.278251
v 58.351634 185.310743 8.278251
v 50.209221 193.455016 4.204786
v 55.635725 194.812837 5.562608
v 54.277770 181.239935 4.204786
f 882 892 896 
f 866 869 870 
f 870 869 872 
f 872 869 874 
f 869 866 875 
f 866 870 876 
f 871 873 878 
f 874 869 879 
f 873 871 880 
f 874 873 880 
f 871 881 882 
f 875 866 883 
f 868 875 883 
f 870 872 884 
f 867 876 885 
f 878 867 885 
f 871 878 885 
f 876 870 886 
f 881 876 886 
f 877 882 886 
f 882 881 886 
f 870 884 886 
f 884 877 886 
f 867 866 887 
f 876 867 887 
f 866 876 887 
f 874 865 888 
f 872 874 888 
f 865 877 888 
f 884 872 888 
f 877 884 888 
f 873 874 889 
f 879 873 889 
f 874 879 889 
f 875 868 890 
f 869 875 890 
f 868 879 891 
f 879 869 891 
f 890 868 891 
f 869 890 891 
f 865 874 892 
f 877 865 892 
f 874 880 892 
f 882 877 892 
f 876 881 893 
f 881 871 893 
f 885 876 893 
f 871 885 893 
f 878 873 894 
f 879 868 894 
f 873 879 894 
f 868 883 894 
f 883 878 894 
f 866 867 895 
f 867 878 895 
f 883 866 895 
f 878 883 895 
f 880 871 896 
f 871 882 896 
f 892 880 896 
o convex_28
v -27.166022 144.590839 54.428379
v -44.812523 178.520173 46.287029
v -44.812523 178.520173 49.000812
v -27.166022 162.243318 59.859134
v -40.737729 183.948536 43.570057
v -28.523711 154.096654 49.000812
v -31.240816 150.027440 57.142162
v -27.166022 160.884168 51.714595
v -42.095418 185.307687 49.000812
v -33.956194 152.741622 51.714595
v -43.454834 179.879323 43.570057
v -28.523711 154.096654 59.859134
v -44.812523 185.307687 49.000812
v -40.737729 185.307687 44.928543
v -28.523711 148.668290 50.359298
v -44.812523 186.666837 44.928543
v -27.166022 145.954108 58.500648
v -38.022351 163.598350 47.643920
v -27.166022 158.169986 50.359298
v -43.454834 175.805991 50.359298
v -28.523711 162.243318 59.859134
v -33.956194 152.741622 54.428379
v -29.883127 145.954108 54.428379
v -42.095418 186.666837 47.643920
v -40.737729 167.663445 49.000812
v -27.166022 162.243318 55.786865
v -27.166022 148.668290 50.359298
v -40.737729 179.879323 43.570057
v -33.956194 159.529136 47.643920
v -29.883127 147.313259 51.714595
v -28.523711 145.954108 58.500648
v -28.523711 159.529136 49.000812
f 902 924 928 
f 900 897 904 
f 898 899 909 
f 900 905 909 
f 904 901 910 
f 901 907 912 
f 907 898 912 
f 898 909 912 
f 910 901 912 
f 897 900 913 
f 900 908 913 
f 898 907 914 
f 904 897 915 
f 903 908 916 
f 909 899 916 
f 909 916 917 
f 908 900 917 
f 900 909 917 
f 916 908 917 
f 916 899 918 
f 903 916 918 
f 918 906 919 
f 905 900 920 
f 909 905 920 
f 900 910 920 
f 912 909 920 
f 910 912 920 
f 899 898 921 
f 898 914 921 
f 914 906 921 
f 918 899 921 
f 906 918 921 
f 900 904 922 
f 910 900 922 
f 904 910 922 
f 897 911 923 
f 911 902 923 
f 902 915 923 
f 915 897 923 
f 907 901 924 
f 907 924 925 
f 902 911 925 
f 914 907 925 
f 924 902 925 
f 914 925 926 
f 911 897 926 
f 906 914 926 
f 897 919 926 
f 919 906 926 
f 925 911 926 
f 908 903 927 
f 897 913 927 
f 913 908 927 
f 903 918 927 
f 919 897 927 
f 918 919 927 
f 901 904 928 
f 915 902 928 
f 904 915 928 
f 924 901 928 
o convex_29
v -12.231179 116.088408 78.868007
v 8.126979 122.868084 77.503193
v 8.126979 116.088408 77.503193
v -14.945760 121.513318 97.866981
v -4.089829 125.583461 66.651647
v -16.306637 126.942612 95.150109
v 1.339332 113.373031 65.290022
v 5.407615 126.941150 68.006895
v -4.089829 113.371569 85.650622
v -16.306637 126.942612 87.005869
v -16.306637 117.444636 92.436425
v 1.336940 128.301762 78.864818
v -4.089829 113.373031 66.651647
v 2.695426 122.869545 84.288997
v 2.695426 113.373031 82.933749
v -5.448315 128.301762 74.792698
v -16.306637 118.802325 84.292185
v -9.521382 113.371569 80.223254
v -4.089829 124.225773 65.290022
v 5.407615 113.373031 69.365331
v -14.945760 125.584923 96.508545
v 2.695426 116.088408 84.288997
v -16.306637 118.802325 96.508545
v 6.768493 126.941150 70.723767
v -16.306637 124.227234 84.292185
v -4.089829 118.802325 65.290022
v -6.804410 113.371569 85.650622
v -16.306637 117.444636 87.005869
v -14.945760 118.802325 96.508545
v -2.733735 126.941150 68.006895
v 5.407615 113.373031 77.503193
v 8.126979 116.088408 76.147946
f 948 952 960 
f 934 938 939 
f 931 930 942 
f 930 940 942 
f 933 938 944 
f 938 934 944 
f 934 940 944 
f 940 936 944 
f 939 938 945 
f 941 929 945 
f 935 937 946 
f 929 941 946 
f 941 935 946 
f 936 935 947 
f 938 933 947 
f 935 936 948 
f 937 935 948 
f 934 932 949 
f 940 934 949 
f 932 942 949 
f 942 940 949 
f 931 942 950 
f 942 932 950 
f 943 931 950 
f 932 943 950 
f 932 934 951 
f 934 939 951 
f 940 930 952 
f 936 940 952 
f 948 936 952 
f 945 938 953 
f 938 947 953 
f 947 945 953 
f 935 941 954 
f 941 945 954 
f 947 935 954 
f 945 947 954 
f 946 937 955 
f 939 946 955 
f 951 939 955 
f 937 951 955 
f 945 929 956 
f 939 945 956 
f 946 939 956 
f 929 946 956 
f 943 932 957 
f 937 943 957 
f 932 951 957 
f 951 937 957 
f 933 944 958 
f 944 936 958 
f 947 933 958 
f 936 947 958 
f 931 943 959 
f 943 937 959 
f 948 931 959 
f 937 948 959 
f 930 931 960 
f 931 948 960 
f 952 930 960 
o convex_30
v -27.166022 143.227673 54.430239
v -4.089829 125.592230 74.790788
v -8.164756 125.592230 74.790788
v -4.089829 113.370108 68.000750
v -20.380501 148.658931 54.430239
v -8.164756 113.370108 74.790788
v -27.166022 150.018539 59.859400
v -4.089829 125.592230 63.932466
v -25.808466 148.658931 50.357172
v -21.735798 150.018539 59.859400
v -25.808466 140.515632 59.859400
v -6.807200 131.016313 66.644655
v -6.807200 113.370108 69.356844
v -9.522312 116.089324 74.790788
v -4.089829 113.370108 74.790788
v -6.807200 124.236210 62.573980
v -27.166022 145.943302 51.715658
v -9.522312 124.236210 74.790788
v -27.166022 150.018539 50.357172
v -27.166022 144.587281 59.859400
v -8.164756 113.370108 72.071424
v -4.089829 126.944664 65.288561
v -5.449644 113.370108 68.000750
v -19.020686 144.587281 54.430239
v -19.020686 147.299323 55.788725
v -23.093354 136.447570 58.503305
v -20.380501 148.658931 59.859400
v -21.735798 150.018539 54.430239
v -4.089829 126.944664 70.715330
v -25.808466 141.871653 54.430239
v -4.089829 124.236210 63.932466
v -25.808466 150.018539 50.357172
f 979 988 992 
f 962 963 966 
f 963 962 967 
f 962 964 968 
f 967 962 970 
f 964 966 973 
f 966 963 974 
f 971 966 974 
f 964 962 975 
f 962 966 975 
f 966 964 975 
f 964 969 976 
f 961 967 977 
f 963 967 978 
f 974 963 978 
f 967 974 978 
f 967 970 979 
f 977 967 979 
f 969 977 979 
f 967 961 980 
f 961 971 980 
f 974 967 980 
f 971 974 980 
f 966 971 981 
f 973 966 981 
f 962 968 982 
f 969 964 983 
f 964 973 983 
f 977 969 983 
f 965 968 984 
f 968 965 985 
f 982 968 985 
f 972 982 985 
f 971 961 986 
f 981 971 986 
f 973 981 986 
f 970 962 987 
f 985 970 987 
f 972 985 987 
f 979 970 988 
f 985 965 988 
f 970 985 988 
f 962 982 989 
f 982 972 989 
f 987 962 989 
f 972 987 989 
f 961 977 990 
f 983 973 990 
f 977 983 990 
f 986 961 990 
f 973 986 990 
f 968 964 991 
f 964 976 991 
f 976 969 991 
f 984 968 991 
f 969 984 991 
f 969 979 992 
f 965 984 992 
f 984 969 992 
f 988 965 992 
o convex_31
v 8.126979 215.183086 -50.088817
v 2.698349 224.681726 -37.875330
v -0.016497 224.681726 -37.875330
v 8.126979 262.686651 -59.593967
v -0.016497 209.747149 -47.380481
v 2.698349 261.328962 -59.593967
v 6.769556 209.747149 -37.875330
v 9.484402 258.608402 -55.519041
v 4.054709 254.535335 -60.951523
v -1.374983 209.747149 -37.875330
v 4.054709 261.328962 -55.519041
v 9.484402 251.819958 -59.593967
v 9.484402 215.183086 -44.665369
v 6.769556 220.613842 -37.875330
v -1.374983 223.324038 -39.232886
v 6.769556 209.747149 -48.738037
v 2.698349 221.971531 -52.806188
v 8.126979 261.328962 -55.519041
v -1.374983 220.613842 -41.947998
v 8.126979 238.243069 -56.878855
v 9.484402 217.898464 -50.088817
v 2.698349 259.971273 -55.519041
v 9.484402 220.613842 -44.665369
v 2.698349 253.177647 -59.593967
v 8.126979 209.747149 -47.380481
v 8.126979 261.328962 -60.951523
v 1.339863 213.825398 -50.088817
v 5.412133 223.324038 -37.875330
v -1.374983 223.324038 -37.875330
v 8.126979 254.535335 -60.951523
v 8.126979 209.747149 -40.592701
v -1.374983 212.462527 -41.947998
f 1011 1016 1024 
f 994 995 999 
f 999 995 1002 
f 997 999 1002 
f 995 994 1003 
f 996 998 1003 
f 1004 1000 1005 
f 994 999 1006 
f 999 997 1008 
f 1000 996 1010 
f 1003 994 1010 
f 996 1003 1010 
f 1006 1000 1010 
f 1007 998 1011 
f 1002 1007 1011 
f 993 1008 1012 
f 1009 1001 1012 
f 1008 1009 1012 
f 1004 1005 1013 
f 1008 993 1013 
f 993 1012 1013 
f 1012 1004 1013 
f 1003 998 1014 
f 1005 1000 1015 
f 1000 1006 1015 
f 998 1001 1016 
f 1011 998 1016 
f 999 1008 1017 
f 1013 1005 1017 
f 1008 1013 1017 
f 998 996 1018 
f 996 1000 1018 
f 1001 998 1018 
f 1000 1004 1018 
f 1008 997 1019 
f 1001 1009 1019 
f 1009 1008 1019 
f 1016 1001 1019 
f 997 1016 1019 
f 994 1006 1020 
f 1010 994 1020 
f 1006 1010 1020 
f 1002 995 1021 
f 995 1003 1021 
f 998 1007 1021 
f 1007 1002 1021 
f 1003 1014 1021 
f 1014 998 1021 
f 1004 1012 1022 
f 1012 1001 1022 
f 1001 1018 1022 
f 1018 1004 1022 
f 1006 999 1023 
f 1005 1015 1023 
f 1015 1006 1023 
f 999 1017 1023 
f 1017 1005 1023 
f 997 1002 1024 
f 1002 1011 1024 
f 1016 997 1024 
o convex_32
v 5.412133 145.951319 -3.941081
v -16.306637 169.024057 -10.725805
v -16.306637 169.024057 -3.941081
v 4.053646 174.448036 -14.797012
v -5.447252 140.518570 -13.439323
v 5.412133 166.301105 2.845503
v -5.447252 140.518570 1.487814
v -16.306637 185.313533 -6.654599
v -13.591791 163.586924 2.845503
v -9.516333 169.024057 -16.154700
v 5.412133 163.586924 -16.154700
v 4.053646 140.518570 -10.725805
v -8.162099 140.518570 -1.227563
v 2.697286 140.518570 0.130125
v -16.306637 181.240068 -12.081634
v 5.412133 170.374571 0.130125
v -16.306637 179.880784 -2.583392
v 5.412133 155.457532 2.845503
v -8.162099 140.518570 -10.725805
v -8.162099 158.171714 -16.154700
v 4.053646 174.448036 -16.154700
v 1.338800 140.518570 -13.439323
v -14.948151 185.313533 -9.368116
v -14.948151 185.313533 -6.654599
v -10.876945 166.301105 2.845503
v -16.306637 171.733854 -12.081634
v -2.732406 155.457532 -16.154700
v -13.591791 182.594966 -3.941081
v 5.412133 171.733854 -16.154700
v -1.376046 151.384067 2.845503
v -2.732406 174.448036 -16.154700
v -13.591791 162.245179 2.845503
f 1054 1033 1056 
f 1026 1027 1032 
f 1030 1025 1035 
f 1031 1029 1036 
f 1035 1025 1036 
f 1027 1026 1037 
f 1029 1031 1037 
f 1036 1025 1038 
f 1031 1036 1038 
f 1026 1032 1039 
f 1030 1035 1040 
f 1032 1027 1041 
f 1025 1030 1042 
f 1030 1033 1042 
f 1038 1025 1042 
f 1031 1038 1042 
f 1037 1026 1043 
f 1029 1037 1043 
f 1034 1035 1044 
f 1029 1043 1044 
f 1035 1034 1045 
f 1036 1029 1046 
f 1035 1036 1046 
f 1039 1032 1047 
f 1028 1045 1047 
f 1045 1039 1047 
f 1040 1028 1048 
f 1047 1032 1048 
f 1028 1047 1048 
f 1033 1030 1049 
f 1030 1041 1049 
f 1041 1033 1049 
f 1026 1039 1050 
f 1039 1034 1050 
f 1043 1026 1050 
f 1034 1044 1050 
f 1044 1043 1050 
f 1029 1044 1051 
f 1044 1035 1051 
f 1046 1029 1051 
f 1035 1046 1051 
f 1030 1040 1052 
f 1032 1041 1052 
f 1041 1030 1052 
f 1040 1048 1052 
f 1048 1032 1052 
f 1028 1040 1053 
f 1040 1035 1053 
f 1045 1028 1053 
f 1035 1045 1053 
f 1042 1033 1054 
f 1031 1042 1054 
f 1034 1039 1055 
f 1045 1034 1055 
f 1039 1045 1055 
f 1027 1037 1056 
f 1037 1031 1056 
f 1041 1027 1056 
f 1033 1041 1056 
f 1031 1054 1056 
