o convex_0
v -21.879249 181.831194 -14.266256
v -68.856037 221.890498 -17.032087
v -66.085743 217.744795 -17.032087
v -17.731517 173.539788 -3.214836
v -59.177996 224.649025 -11.504889
v -16.348940 185.976897 -7.362838
v -60.560573 224.649025 -18.414259
v -64.703165 217.744795 -10.124205
v -19.114095 170.770712 -7.362838
v -16.348940 181.831194 -3.214836
v -42.602488 197.032104 -17.032087
v -16.348940 181.831194 -12.887061
v -55.030264 203.925786 -11.504889
v -66.085743 224.649025 -10.124205
v -19.114095 172.157887 -11.504889
v -42.602488 192.886401 -14.266256
v -17.731517 187.358798 -10.124205
v -38.465036 199.780083 -17.032087
v -61.938011 214.980993 -18.414259
v -16.348940 170.770712 -10.124205
v -21.879249 174.921689 -4.597007
v -60.560573 224.649025 -10.124205
v -16.348940 184.594996 -4.597007
v -68.856037 224.649025 -18.414259
v -20.496672 179.067392 -3.214836
v -64.703165 214.980993 -11.504889
v -68.856037 223.272399 -11.504889
v -59.177996 224.649025 -15.648428
v -16.348940 174.921689 -12.887061
v -19.114095 185.976897 -12.887061
v -55.030264 210.835290 -18.414259
v -50.892812 201.161984 -15.648428
f 19 11 32 
f 6 10 12 
f 5 7 14 
f 9 13 16 
f 15 9 16 
f 11 15 16 
f 5 6 17 
f 6 12 17 
f 1 11 18 
f 12 1 18 
f 4 9 20 
f 10 4 20 
f 12 10 20 
f 9 15 20 
f 4 8 21 
f 9 4 21 
f 13 9 21 
f 5 14 22 
f 14 10 22 
f 6 5 23 
f 10 6 23 
f 5 22 23 
f 22 10 23 
f 3 2 24 
f 14 7 24 
f 19 3 24 
f 7 19 24 
f 8 4 25 
f 4 10 25 
f 14 8 25 
f 10 14 25 
f 2 3 26 
f 3 13 26 
f 21 8 26 
f 13 21 26 
f 8 14 27 
f 24 2 27 
f 14 24 27 
f 2 26 27 
f 26 8 27 
f 7 5 28 
f 5 17 28 
f 17 7 28 
f 11 1 29 
f 1 12 29 
f 15 11 29 
f 12 20 29 
f 20 15 29 
f 7 17 30 
f 17 12 30 
f 18 7 30 
f 12 18 30 
f 18 11 31 
f 7 18 31 
f 19 7 31 
f 11 19 31 
f 13 3 32 
f 11 16 32 
f 16 13 32 
f 3 19 32 
o convex_1
v -61.948831 285.446987 -21.177790
v -70.237802 224.666067 -15.650727
v -70.237802 224.666067 -12.888278
v -60.567336 224.666067 -17.031411
v -59.185841 282.688054 -14.270044
v -61.948831 224.666067 -10.123664
v -67.472378 224.666067 -19.796024
v -68.853873 246.776482 -12.888278
v -57.804346 278.539917 -19.796024
v -68.853873 250.918127 -19.796024
v -64.709387 278.539917 -15.650727
v -64.709387 245.393769 -21.177790
v -57.804346 288.212412 -15.650727
v -66.090883 230.196916 -10.123664
v -60.567336 224.666067 -11.505430
v -59.185841 275.774492 -21.177790
v -70.237802 244.011057 -15.650727
v -63.330326 286.829699 -19.796024
v -63.330326 278.539917 -14.270044
v -64.709387 224.666067 -19.796024
v -57.804346 289.595124 -19.796024
v -61.948831 288.212412 -15.650727
v -67.472378 249.541906 -21.177790
v -70.237802 228.814204 -18.414259
v -66.090883 273.015559 -18.414259
v -57.804346 277.157204 -17.031411
v -60.567336 290.984328 -19.796024
v -61.948831 224.666067 -18.414259
v -70.237802 235.721274 -12.888278
v -64.709387 273.015559 -21.177790
v -68.853873 255.066264 -15.650727
v -68.853873 224.666067 -11.505430
f 46 61 64 
f 35 34 36 
f 35 36 38 
f 36 34 39 
f 37 38 45 
f 38 37 46 
f 38 36 47 
f 45 38 47 
f 41 36 48 
f 44 33 48 
f 34 35 49 
f 43 40 51 
f 46 37 51 
f 40 46 51 
f 36 39 52 
f 39 44 52 
f 44 48 52 
f 45 41 53 
f 48 33 53 
f 41 48 53 
f 37 45 54 
f 50 43 54 
f 43 51 54 
f 51 37 54 
f 44 39 55 
f 33 44 55 
f 39 34 56 
f 34 49 56 
f 49 42 56 
f 55 39 56 
f 42 55 56 
f 43 50 57 
f 50 42 57 
f 36 41 58 
f 41 45 58 
f 47 36 58 
f 45 47 58 
f 33 50 59 
f 45 53 59 
f 53 33 59 
f 50 54 59 
f 54 45 59 
f 48 36 60 
f 36 52 60 
f 52 48 60 
f 46 40 61 
f 49 35 61 
f 50 33 62 
f 42 50 62 
f 55 42 62 
f 33 55 62 
f 40 43 63 
f 42 49 63 
f 57 42 63 
f 43 57 63 
f 61 40 63 
f 49 61 63 
f 35 38 64 
f 38 46 64 
f 61 35 64 
o convex_2
v -35.691496 132.083707 108.708186
v -27.404148 180.443072 126.671140
v -30.167409 180.443072 126.671140
v -34.311083 140.379170 118.377165
v -27.404148 127.935975 110.091981
v -30.167409 147.286917 108.708186
v -38.457191 141.761748 108.708186
v -26.021300 177.677917 121.142995
v -27.404148 172.142469 126.671140
v -30.167409 179.060495 121.142995
v -27.404148 136.236578 108.708186
v -30.167409 132.083707 114.236331
v -31.550256 165.234722 125.287346
v -37.074344 147.286917 114.236331
v -26.021300 177.677917 126.671140
v -35.691496 147.286917 108.708186
v -35.691496 132.083707 111.474017
v -32.928235 170.770171 122.525032
v -31.550256 144.526902 119.759201
v -31.550256 177.677917 122.525032
v -27.404148 176.295340 119.759201
v -31.550256 127.935975 108.708186
v -38.457191 140.379170 110.091981
v -32.928235 132.083707 114.236331
v -26.021300 180.443072 122.525032
v -35.691496 143.144325 117.002162
v -35.691496 137.608876 115.620125
v -28.785778 130.701130 112.854295
v -27.404148 127.935975 108.708186
v -31.550256 174.907623 119.759201
v -26.021300 172.142469 123.905309
v -27.404148 130.701130 111.474017
f 69 95 96 
f 70 65 71 
f 66 67 73 
f 65 70 75 
f 70 72 75 
f 73 67 77 
f 66 73 79 
f 70 71 80 
f 77 67 82 
f 71 78 82 
f 78 77 82 
f 68 76 83 
f 77 68 83 
f 73 77 83 
f 67 74 84 
f 82 67 84 
f 71 82 84 
f 72 70 85 
f 70 80 85 
f 80 74 85 
f 65 75 86 
f 81 65 86 
f 71 65 87 
f 78 71 87 
f 65 81 87 
f 76 68 88 
f 69 76 88 
f 86 69 88 
f 81 86 88 
f 67 66 89 
f 74 67 89 
f 66 79 89 
f 79 72 89 
f 72 85 89 
f 85 74 89 
f 68 77 90 
f 77 78 90 
f 78 87 90 
f 90 87 91 
f 87 81 91 
f 88 68 91 
f 81 88 91 
f 68 90 91 
f 76 69 92 
f 83 76 92 
f 73 83 92 
f 75 72 93 
f 86 75 93 
f 69 86 93 
f 80 71 94 
f 74 80 94 
f 84 74 94 
f 71 84 94 
f 72 79 95 
f 69 93 95 
f 93 72 95 
f 79 73 96 
f 92 69 96 
f 73 92 96 
f 95 79 96 
o convex_3
v 27.867562 145.903799 96.275000
v 38.921688 195.642495 107.326420
v 38.921688 195.642495 104.560590
v 32.015024 185.963508 101.799222
v 29.250410 145.903799 92.126998
v 33.394625 161.103897 103.178418
v 27.867562 166.629878 101.799222
v 27.867562 161.103897 93.510657
v 38.921688 183.202952 101.799222
v 33.394625 187.346220 107.326420
v 37.539922 187.346220 100.417051
v 27.867562 155.577917 101.799222
v 34.775309 194.254914 103.178418
v 38.921688 188.728933 107.326420
v 34.775309 162.486610 101.799222
v 34.775309 195.642495 105.942761
v 29.250410 147.286511 97.654196
v 32.015024 152.812492 94.892828
v 29.250410 152.812492 92.126998
v 33.394625 187.346220 100.417051
v 34.775309 184.580796 107.326420
v 27.867562 145.903799 92.126998
v 29.250410 159.721185 103.178418
v 33.394625 191.489489 105.942761
v 38.921688 184.580796 105.942761
v 37.539922 184.580796 107.326420
v 38.921688 191.489489 101.799222
v 27.867562 166.629878 99.036367
v 29.250410 151.434648 100.417051
v 33.394625 158.343341 101.799222
v 36.158157 169.395303 99.036367
v 29.250410 145.903799 96.275000
f 126 113 128 
f 97 103 104 
f 99 98 105 
f 105 101 107 
f 103 97 108 
f 106 103 108 
f 105 98 110 
f 98 106 110 
f 98 99 112 
f 106 98 112 
f 99 109 112 
f 109 100 112 
f 101 105 114 
f 104 107 115 
f 107 101 115 
f 104 100 116 
f 107 104 116 
f 100 109 116 
f 110 106 117 
f 101 97 118 
f 97 104 118 
f 115 101 118 
f 104 115 118 
f 106 108 119 
f 117 106 119 
f 100 103 120 
f 103 106 120 
f 112 100 120 
f 106 112 120 
f 105 110 121 
f 102 111 121 
f 111 105 121 
f 110 117 122 
f 119 102 122 
f 117 119 122 
f 121 110 122 
f 102 121 122 
f 99 105 123 
f 105 107 123 
f 109 99 123 
f 107 116 123 
f 116 109 123 
f 103 100 124 
f 100 104 124 
f 104 103 124 
f 108 97 125 
f 97 113 125 
f 102 119 125 
f 119 108 125 
f 111 102 126 
f 114 111 126 
f 125 113 126 
f 102 125 126 
f 105 111 127 
f 111 114 127 
f 114 105 127 
f 97 101 128 
f 113 97 128 
f 101 114 128 
f 114 126 128 
o convex_4
v -17.734628 162.480118 16.130425
v -27.399955 197.024260 42.383432
v -37.075426 197.024260 42.383432
v -17.734628 169.391651 9.222273
v -16.348940 170.774634 27.180763
v -31.546875 177.682787 32.709314
v -27.399955 185.963778 42.383432
v -26.024411 169.391651 18.896391
v -23.261150 168.012050 27.180763
v -34.310136 195.641277 36.854882
v -16.348940 176.303185 23.041959
v -28.783614 197.024260 38.234483
v -32.926477 185.963778 42.383432
v -16.348940 163.863101 7.839290
v -32.926477 185.963778 31.326331
v -17.734628 168.012050 27.180763
v -16.348940 169.391651 9.222273
v -24.640752 166.625685 20.275993
v -26.024411 192.878693 42.383432
v -23.261150 170.774634 14.750823
v -37.075426 192.878693 40.997068
v -16.348940 163.863101 20.275993
v -17.734628 163.863101 7.839290
v -16.348940 174.916821 27.180763
v -21.877491 173.540600 32.709314
v -26.024411 187.350142 42.383432
v -19.114230 162.480118 11.984857
v -35.689738 188.729744 42.383432
v -34.310136 184.587558 35.468517
v -16.348940 173.540600 16.130425
v -30.163216 179.065770 36.854882
v -27.399955 197.024260 40.997068
f 158 140 160 
f 130 131 135 
f 131 130 140 
f 138 131 140 
f 132 138 140 
f 135 131 141 
f 139 133 142 
f 132 140 145 
f 142 132 145 
f 139 142 145 
f 134 136 146 
f 137 134 146 
f 129 137 146 
f 130 135 147 
f 138 132 148 
f 136 143 148 
f 143 138 148 
f 131 138 149 
f 138 143 149 
f 137 129 150 
f 129 142 150 
f 142 133 150 
f 133 144 150 
f 144 137 150 
f 132 142 151 
f 148 132 151 
f 136 148 151 
f 139 130 152 
f 133 139 152 
f 130 147 152 
f 147 133 152 
f 135 141 153 
f 137 144 153 
f 153 144 154 
f 144 133 154 
f 147 135 154 
f 133 147 154 
f 135 153 154 
f 142 129 155 
f 146 136 155 
f 129 146 155 
f 151 142 155 
f 136 151 155 
f 141 131 156 
f 131 149 156 
f 156 149 157 
f 136 134 157 
f 143 136 157 
f 149 143 157 
f 134 156 157 
f 145 140 158 
f 139 145 158 
f 134 137 159 
f 153 141 159 
f 137 153 159 
f 141 156 159 
f 156 134 159 
f 130 139 160 
f 140 130 160 
f 139 158 160 
o convex_5
v -23.258174 227.413367 28.565775
v -37.075426 197.024260 40.999773
v -37.075426 197.024260 42.383432
v -24.641834 252.294889 29.948082
v -27.404689 197.024260 42.383432
v -28.786860 219.135758 28.565775
v -21.876003 248.145263 32.712695
v -32.927423 212.226929 42.383432
v -28.786860 197.024260 38.236512
v -37.075426 205.323511 40.999773
v -26.024005 248.145263 28.565775
v -27.404689 210.852738 42.383432
v -24.641834 250.904466 32.712695
v -24.641834 210.852738 34.093650
v -21.876003 249.530275 28.565775
v -21.876003 234.327606 31.330389
v -32.927423 205.323511 34.093650
v -26.024005 210.852738 31.330389
v -34.309595 209.467726 35.474604
v -35.693254 209.467726 42.383432
v -26.024005 248.145263 32.712695
v -34.309595 197.024260 38.236512
v -30.164568 220.515359 29.948082
v -23.258174 250.904466 32.712695
v -23.258174 221.905781 29.948082
v -21.876003 238.477231 32.712695
v -26.024005 219.135758 28.565775
v -21.876003 237.092220 28.565775
v -28.786860 212.226929 42.383432
v -23.258174 220.515359 32.712695
v -27.404689 238.477231 28.565775
v -37.075426 205.323511 42.383432
f 181 170 192 
f 163 162 165 
f 163 165 168 
f 165 162 169 
f 162 163 170 
f 161 166 171 
f 165 167 172 
f 168 165 172 
f 165 169 174 
f 161 171 175 
f 171 164 175 
f 175 167 176 
f 174 169 178 
f 177 166 178 
f 162 170 179 
f 170 171 179 
f 177 162 179 
f 163 168 180 
f 168 173 180 
f 180 173 181 
f 164 171 181 
f 171 170 181 
f 173 164 181 
f 169 162 182 
f 162 177 182 
f 178 169 182 
f 177 178 182 
f 166 177 183 
f 177 179 183 
f 172 167 184 
f 173 168 184 
f 164 173 184 
f 175 164 184 
f 167 175 184 
f 174 178 185 
f 167 165 186 
f 176 167 186 
f 166 161 187 
f 178 166 187 
f 161 185 187 
f 185 178 187 
f 161 175 188 
f 175 176 188 
f 185 161 188 
f 176 185 188 
f 168 172 189 
f 172 184 189 
f 184 168 189 
f 165 174 190 
f 185 176 190 
f 174 185 190 
f 186 165 190 
f 176 186 190 
f 171 166 191 
f 179 171 191 
f 166 183 191 
f 183 179 191 
f 170 163 192 
f 163 180 192 
f 180 181 192 
o convex_6
v -31.550797 187.358527 42.383432
v -50.888890 248.139042 68.636981
v -52.271467 248.139042 68.636981
v -34.315952 210.849616 42.383432
v -27.405636 208.088758 43.766009
v -34.315952 203.941522 54.824058
v -50.888890 231.556047 58.961510
v -37.075967 191.499813 42.383432
v -39.843691 203.941522 54.824058
v -46.743728 242.611377 68.636981
v -48.126305 243.997756 61.724094
v -52.271467 238.470091 67.254403
v -27.403066 188.738956 43.766009
v -50.888890 237.083712 58.961510
v -28.788213 210.849616 42.383432
v -46.743728 245.378185 65.866686
v -37.078536 206.708330 42.383432
v -41.215989 202.561093 52.058903
v -46.743728 235.703283 67.254403
v -32.933375 206.708330 53.441480
v -53.656614 245.378185 64.484109
v -34.313382 192.880242 47.911171
v -27.403066 191.499813 45.148587
v -27.403066 188.738956 42.383432
v -50.888890 243.997756 61.724094
v -48.126305 246.758613 64.484109
v -50.888890 239.850519 68.636981
v -52.271467 235.703283 64.484109
v -46.743728 243.997756 68.636981
v -46.743728 220.518567 53.441480
v -32.933375 198.413857 52.058903
v -34.313382 188.738956 43.766009
f 205 214 224 
f 196 193 200 
f 194 195 202 
f 193 196 207 
f 196 203 207 
f 197 207 208 
f 196 200 209 
f 206 196 209 
f 199 200 210 
f 201 204 210 
f 201 198 211 
f 198 202 211 
f 202 198 212 
f 204 195 213 
f 206 199 213 
f 197 212 215 
f 212 198 215 
f 205 193 216 
f 193 207 216 
f 207 197 216 
f 197 215 216 
f 215 205 216 
f 203 196 217 
f 196 206 217 
f 206 213 217 
f 217 213 218 
f 195 194 218 
f 207 203 218 
f 194 208 218 
f 208 207 218 
f 213 195 218 
f 203 217 218 
f 202 195 219 
f 195 204 219 
f 204 201 219 
f 201 211 219 
f 211 202 219 
f 199 210 220 
f 210 204 220 
f 204 213 220 
f 213 199 220 
f 194 202 221 
f 208 194 221 
f 197 208 221 
f 212 197 221 
f 202 212 221 
f 200 199 222 
f 199 206 222 
f 209 200 222 
f 206 209 222 
f 198 201 223 
f 201 214 223 
f 214 205 223 
f 205 215 223 
f 215 198 223 
f 200 193 224 
f 193 205 224 
f 210 200 224 
f 201 210 224 
f 214 201 224 
o convex_7
v -30.162269 126.556779 97.652978
v -16.348940 125.174878 99.034879
v -19.112471 129.315307 100.414481
v -16.348940 123.792977 85.218169
v -38.457191 136.226569 99.034879
v -30.162269 126.556779 108.708186
v -27.403066 136.226569 108.708186
v -17.731788 118.265374 87.981971
v -17.731788 129.315307 90.745773
v -37.074344 133.461009 108.708186
v -16.348940 119.647275 97.652978
v -27.403066 136.226569 100.414481
v -26.022382 126.556779 108.708186
v -17.731788 119.647275 85.218169
v -23.261015 121.029175 97.652978
v -37.074344 136.226569 108.708186
v -38.457191 134.842910 99.034879
v -16.348940 127.933406 96.273377
v -16.348940 118.265374 94.891476
v -24.641698 122.411076 103.180582
v -26.022382 133.461009 108.708186
v -17.731788 123.792977 85.218169
v -19.112471 130.697208 97.652978
v -16.348940 119.647275 85.218169
v -27.403066 123.792977 99.034879
v -26.022382 123.792977 93.511874
v -17.731788 118.265374 94.891476
v -38.457191 134.842910 105.944384
v -16.348940 127.933406 89.366171
v -17.731788 122.411076 100.414481
v -35.693660 136.226569 99.034879
v -27.403066 123.792977 103.180582
f 252 249 256 
f 230 231 234 
f 228 226 235 
f 229 231 236 
f 231 230 237 
f 231 229 240 
f 234 231 240 
f 229 238 241 
f 227 226 242 
f 226 228 242 
f 231 227 242 
f 228 235 243 
f 237 230 244 
f 235 237 244 
f 243 235 244 
f 226 227 245 
f 227 231 245 
f 237 226 245 
f 231 237 245 
f 233 228 246 
f 229 233 246 
f 238 229 246 
f 228 238 246 
f 236 231 247 
f 233 236 247 
f 231 242 247 
f 238 228 248 
f 232 238 248 
f 228 243 248 
f 243 232 248 
f 232 239 249 
f 241 225 249 
f 238 232 250 
f 225 241 250 
f 241 238 250 
f 249 225 250 
f 232 249 250 
f 239 232 251 
f 232 243 251 
f 244 239 251 
f 243 244 251 
f 240 229 252 
f 234 240 252 
f 229 241 252 
f 241 249 252 
f 228 233 253 
f 242 228 253 
f 233 247 253 
f 247 242 253 
f 235 226 254 
f 226 237 254 
f 237 235 254 
f 233 229 255 
f 229 236 255 
f 236 233 255 
f 230 234 256 
f 239 244 256 
f 244 230 256 
f 249 239 256 
f 234 252 256 
o convex_8
v 18.194120 170.769688 89.363466
v 5.759311 188.727831 90.745232
v 5.759311 188.727831 93.508763
v 15.432753 163.867370 93.508763
v 27.867562 162.481606 100.417592
v 23.721183 152.811545 99.035826
v 27.867562 152.811545 92.126998
v 9.905690 190.109810 92.126998
v 27.867562 162.481606 93.508763
v 12.669222 169.395282 89.363466
v 23.721183 152.811545 93.508763
v 26.484715 152.811545 100.417592
v 9.905690 174.915623 93.508763
v 12.669222 181.821727 89.363466
v 8.525007 191.491788 93.508763
v 25.104031 162.481606 100.417592
v 27.867562 163.859797 99.035826
v 16.813437 165.241776 89.363466
v 27.867562 152.811545 100.417592
v 25.104031 155.575501 100.417592
v 27.867562 163.859797 94.890529
v 11.288538 187.345853 90.745232
v 8.525007 180.439749 89.363466
v 26.484715 162.481606 92.126998
v 5.759311 191.491788 93.508763
v 12.669222 168.013304 93.508763
v 15.432753 163.867370 90.745232
v 25.104031 152.811545 92.126998
v 8.525007 190.109810 90.745232
v 9.905690 174.915623 90.745232
v 7.142159 183.203705 93.508763
v 8.525007 183.203705 89.363466
f 258 285 288 
f 261 263 265 
f 262 260 267 
f 263 262 267 
f 262 263 268 
f 257 266 270 
f 268 261 272 
f 261 271 272 
f 261 265 273 
f 271 261 273 
f 264 271 273 
f 257 263 274 
f 266 257 274 
f 263 261 275 
f 261 268 275 
f 268 263 275 
f 262 268 276 
f 272 259 276 
f 268 272 276 
f 273 265 277 
f 264 273 277 
f 264 277 278 
f 277 265 278 
f 270 266 279 
f 263 257 280 
f 265 263 280 
f 257 270 280 
f 270 278 280 
f 278 265 280 
f 258 259 281 
f 259 272 281 
f 272 271 281 
f 260 262 282 
f 262 269 282 
f 267 260 283 
f 266 274 283 
f 260 282 283 
f 282 266 283 
f 263 267 284 
f 274 263 284 
f 267 283 284 
f 283 274 284 
f 271 264 285 
f 264 278 285 
f 278 270 285 
f 258 281 285 
f 281 271 285 
f 258 279 286 
f 279 266 286 
f 266 282 286 
f 282 269 286 
f 259 258 287 
f 269 262 287 
f 276 259 287 
f 262 276 287 
f 258 286 287 
f 286 269 287 
f 279 258 288 
f 270 279 288 
f 285 270 288 
o convex_9
v 38.917089 170.769089 5.076029
v 41.685219 174.915198 20.275181
v 40.299937 174.915198 20.275181
v 22.344828 161.098352 10.602551
v 16.813437 170.769089 -0.450493
v 18.198719 163.864183 -4.596602
v 40.299937 165.244461 14.746225
v 41.685219 179.061306 10.602551
v 16.813437 168.010291 9.219703
v 38.917089 168.010291 20.275181
v 16.813437 162.480388 10.602551
v 40.299937 179.061306 14.746225
v 41.685219 169.390569 6.458877
v 19.581567 169.390569 -3.213754
v 18.198719 161.098352 0.932355
v 16.813437 170.769089 6.458877
v 40.299937 165.244461 18.892333
v 41.685219 166.628255 10.602551
v 40.299937 174.915198 6.458877
v 16.813437 163.864183 -4.596602
v 19.581567 172.149367 0.932355
v 36.153828 163.864183 13.365811
v 18.198719 161.098352 10.602551
v 16.813437 165.244461 10.602551
v 41.685219 168.010291 20.275181
v 34.773415 165.244461 6.458877
v 40.299937 177.679270 17.509486
v 18.198719 166.628255 -4.596602
v 16.813437 161.098352 0.932355
v 41.685219 173.531403 6.458877
v 38.917089 165.244461 10.602551
v 22.344828 161.098352 6.458877
f 319 310 320 
f 290 291 298 
f 297 293 299 
f 290 296 300 
f 294 289 301 
f 296 290 301 
f 293 297 304 
f 301 290 306 
f 305 295 306 
f 302 296 307 
f 299 293 308 
f 294 303 308 
f 300 296 309 
f 302 293 309 
f 296 302 309 
f 293 304 309 
f 304 300 309 
f 305 292 310 
f 295 305 310 
f 298 299 311 
f 303 292 311 
f 292 305 311 
f 305 298 311 
f 291 297 312 
f 298 291 312 
f 297 299 312 
f 299 298 312 
f 290 298 313 
f 298 305 313 
f 306 290 313 
f 305 306 313 
f 294 301 314 
f 303 294 314 
f 301 306 314 
f 291 290 315 
f 297 291 315 
f 290 300 315 
f 304 297 315 
f 300 304 315 
f 289 294 316 
f 293 302 316 
f 308 293 316 
f 294 308 316 
f 299 308 317 
f 308 303 317 
f 311 299 317 
f 303 311 317 
f 301 289 318 
f 296 301 318 
f 307 296 318 
f 302 307 318 
f 289 316 318 
f 316 302 318 
f 306 295 319 
f 295 310 319 
f 303 314 319 
f 314 306 319 
f 292 303 320 
f 310 292 320 
f 303 319 320 
o convex_10
v 20.958734 172.158293 45.147369
v 18.195473 158.339825 58.964621
v 16.813437 158.339825 58.964621
v 16.813437 198.406026 49.292396
v 25.104031 179.056708 50.674568
v 16.813437 192.875177 43.765198
v 16.813437 156.959277 52.055251
v 25.104031 174.919390 45.147369
v 20.958734 192.875177 45.147369
v 18.195473 197.016822 50.674568
v 25.104031 169.392869 50.674568
v 18.195473 154.193852 54.818106
v 19.578321 177.676160 43.765198
v 22.339147 170.777745 54.818106
v 23.721995 169.392869 46.529541
v 16.813437 162.485798 49.292396
v 22.339147 185.963779 43.765198
v 18.195473 154.193852 58.964621
v 23.721995 185.963779 46.529541
v 18.195473 198.406026 45.147369
v 16.813437 185.963779 43.765198
v 22.339147 162.485798 50.674568
v 19.578321 195.636274 49.292396
v 23.721995 168.012320 53.437423
v 20.958734 162.485798 49.292396
v 16.813437 197.016822 50.674568
v 16.813437 154.193852 58.964621
v 25.104031 179.056708 45.147369
v 23.721995 179.056708 52.055251
v 22.339147 177.676160 43.765198
v 16.813437 198.406026 45.147369
v 23.721995 185.963779 45.147369
f 339 348 352 
f 323 324 326 
f 323 326 327 
f 323 322 330 
f 328 325 331 
f 330 322 334 
f 328 331 335 
f 327 326 336 
f 333 321 336 
f 333 326 337 
f 322 323 338 
f 324 330 340 
f 329 337 340 
f 337 326 340 
f 326 333 341 
f 336 326 341 
f 333 336 341 
f 335 331 342 
f 331 338 342 
f 338 332 342 
f 330 325 343 
f 325 339 343 
f 339 329 343 
f 340 330 343 
f 329 340 343 
f 331 325 344 
f 334 322 344 
f 325 334 344 
f 322 338 344 
f 338 331 344 
f 332 327 345 
f 321 335 345 
f 327 336 345 
f 336 321 345 
f 342 332 345 
f 335 342 345 
f 324 323 346 
f 323 330 346 
f 330 324 346 
f 323 327 347 
f 327 332 347 
f 338 323 347 
f 332 338 347 
f 325 328 348 
f 328 337 348 
f 339 325 348 
f 325 330 349 
f 330 334 349 
f 334 325 349 
f 321 333 350 
f 335 321 350 
f 328 335 350 
f 337 328 350 
f 333 337 350 
f 326 324 351 
f 324 340 351 
f 340 326 351 
f 337 329 352 
f 329 339 352 
f 348 337 352 
o convex_11
v 61.028587 202.554434 36.857181
v 59.646551 232.938403 54.819324
v 56.883831 232.938403 54.819324
v 54.121111 197.030076 24.423048
v 47.213635 170.776934 24.423048
v 58.264515 180.450781 31.335393
v 59.646551 192.886808 23.038712
v 55.501795 228.795134 45.141418
v 47.213635 179.069692 23.038712
v 61.028587 231.557313 47.910089
v 61.028587 224.651866 53.431877
v 55.501795 173.545334 23.038712
v 54.121111 228.795134 49.291314
v 56.883831 224.651866 53.431877
v 49.977707 190.124629 23.038712
v 59.646551 184.594050 25.804273
v 58.264515 231.557313 46.522643
v 54.121111 177.688602 29.947947
v 55.501795 228.795134 53.431877
v 55.501795 173.545334 27.185497
v 56.883831 234.331934 49.291314
v 54.121111 228.795134 47.910089
v 51.358391 195.648987 24.423048
v 58.264515 179.069692 23.038712
v 61.028587 205.310392 41.000855
v 61.028587 223.270776 42.382080
v 56.883831 197.030076 24.423048
v 52.740427 170.776934 23.038712
v 48.595671 185.975139 23.038712
v 61.028587 232.938403 53.431877
v 47.213635 179.069692 24.423048
v 54.121111 191.505718 36.857181
f 370 358 384 
f 354 355 363 
f 353 362 363 
f 361 359 364 
f 363 355 366 
f 358 363 366 
f 356 359 367 
f 359 361 367 
f 359 353 368 
f 356 360 369 
f 355 365 371 
f 365 357 371 
f 357 366 371 
f 366 355 371 
f 370 357 372 
f 358 370 372 
f 355 354 373 
f 365 355 373 
f 369 360 373 
f 362 369 373 
f 361 365 374 
f 365 373 374 
f 373 360 374 
f 360 356 375 
f 356 367 375 
f 374 360 375 
f 367 374 375 
f 364 359 376 
f 368 358 376 
f 359 368 376 
f 372 364 376 
f 358 372 376 
f 363 358 377 
f 353 363 377 
f 368 353 377 
f 358 368 377 
f 353 359 378 
f 362 353 378 
f 369 362 378 
f 369 378 379 
f 359 356 379 
f 356 369 379 
f 378 359 379 
f 357 361 380 
f 361 364 380 
f 372 357 380 
f 364 372 380 
f 367 361 381 
f 361 374 381 
f 374 367 381 
f 354 363 382 
f 363 362 382 
f 373 354 382 
f 362 373 382 
f 361 357 383 
f 357 365 383 
f 365 361 383 
f 366 357 384 
f 358 366 384 
f 357 370 384 
o convex_12
v 27.867562 145.896224 97.650814
v 2.995780 114.118318 76.927575
v 5.761475 114.118318 76.927575
v 23.721454 151.421664 90.743068
v 4.378628 123.794465 86.601017
v 20.958193 127.941385 87.981700
v 19.575345 133.463038 82.454638
v 4.378628 123.794465 76.927575
v 22.338606 151.421664 97.650814
v 2.995780 116.886719 85.218169
v 27.867562 141.749304 90.743068
v 2.995780 123.794465 78.310423
v 14.051258 122.415946 87.979536
v 27.867562 152.807758 92.125916
v 20.958193 127.941385 83.839649
v 25.101867 148.657051 99.035826
v 9.905149 123.794465 76.927575
v 20.958193 130.705999 92.125916
v 2.995780 123.794465 85.218169
v 5.761475 114.118318 81.073954
v 27.867562 152.807758 99.035826
v 23.721454 152.807758 92.125916
v 14.051258 121.029852 79.695434
v 26.484715 138.988478 93.506599
v 27.867562 150.039357 90.743068
v 14.051258 127.933811 90.745232
v 12.668410 119.647545 83.837485
v 26.484715 151.421664 90.743068
v 15.431671 125.172985 79.695434
v 4.378628 114.118318 82.458966
v 9.905149 119.647545 76.927575
v 22.338606 151.421664 92.125916
f 393 406 416 
f 387 386 392 
f 392 386 396 
f 386 394 396 
f 385 395 398 
f 395 390 399 
f 391 395 399 
f 393 389 400 
f 389 394 400 
f 387 392 401 
f 392 388 401 
f 397 390 402 
f 385 400 402 
f 389 393 403 
f 394 389 403 
f 393 396 403 
f 396 394 403 
f 386 387 404 
f 385 398 405 
f 393 400 405 
f 400 385 405 
f 388 392 406 
f 392 396 406 
f 398 388 406 
f 405 398 406 
f 393 405 406 
f 399 390 407 
f 395 385 408 
f 390 395 408 
f 385 402 408 
f 402 390 408 
f 395 391 409 
f 398 395 409 
f 394 397 410 
f 400 394 410 
f 397 402 410 
f 402 400 410 
f 390 397 411 
f 404 387 411 
f 397 404 411 
f 407 390 411 
f 387 407 411 
f 388 398 412 
f 401 388 412 
f 391 401 412 
f 409 391 412 
f 398 409 412 
f 391 399 413 
f 401 391 413 
f 399 407 413 
f 394 386 414 
f 397 394 414 
f 386 404 414 
f 404 397 414 
f 387 401 415 
f 407 387 415 
f 401 413 415 
f 413 407 415 
f 396 393 416 
f 406 396 416 
o convex_13
v -20.494508 159.718953 58.965973
v -21.876544 192.873053 70.018746
v -21.876544 192.873053 68.636440
v -27.403066 152.808975 50.674026
v -27.403066 154.192594 60.346386
v -20.495319 168.008493 67.254133
v -24.638993 192.873053 70.018746
v -20.495319 183.203952 64.493307
v -27.403066 159.718953 52.056333
v -23.257769 152.808975 58.965973
v -23.257769 155.576212 53.438640
v -24.638993 194.260729 67.254133
v -24.638993 177.681650 68.636440
v -19.112471 166.632989 65.871826
v -27.403066 162.482133 61.726800
v -19.112471 176.298032 64.493307
v -26.020218 159.718953 52.056333
v -21.876544 190.109873 65.871826
v -23.257769 163.861694 65.871826
v -20.494508 161.098514 64.489519
v -21.876544 184.583514 70.018746
v -23.257769 152.808975 53.438640
v -19.112471 166.632989 61.728693
v -20.495319 187.346693 68.636440
v -26.020218 155.576212 50.674026
v -24.638993 185.963075 70.018746
v -23.257769 168.008493 67.254133
v -20.495319 174.914413 68.636440
v -27.403066 158.339392 61.726800
v -27.403066 152.808975 58.965973
v -27.403066 162.482133 56.201360
v -23.257769 194.260729 67.254133
f 419 434 448 
f 420 421 425 
f 423 418 428 
f 425 421 431 
f 423 428 431 
f 425 428 433 
f 424 433 434 
f 426 417 436 
f 421 426 436 
f 430 422 436 
f 417 430 436 
f 435 421 436 
f 422 435 436 
f 418 423 437 
f 417 426 438 
f 426 420 438 
f 438 427 439 
f 427 424 439 
f 430 417 439 
f 424 432 439 
f 432 430 439 
f 417 438 439 
f 419 418 440 
f 432 424 440 
f 430 432 440 
f 434 419 440 
f 424 434 440 
f 418 437 440 
f 420 425 441 
f 424 427 441 
f 425 433 441 
f 433 424 441 
f 438 420 441 
f 427 438 441 
f 423 431 442 
f 437 423 442 
f 421 435 443 
f 435 422 443 
f 442 429 443 
f 443 422 444 
f 422 430 444 
f 430 440 444 
f 440 437 444 
f 437 442 444 
f 442 443 444 
f 431 421 445 
f 429 442 445 
f 442 431 445 
f 421 443 445 
f 443 429 445 
f 421 420 446 
f 420 426 446 
f 426 421 446 
f 428 425 447 
f 425 431 447 
f 431 428 447 
f 418 419 448 
f 428 418 448 
f 433 428 448 
f 434 433 448 
o convex_14
v -38.460302 137.613766 94.890529
v -31.550121 144.518374 108.708186
v -45.364397 162.477548 89.365630
v -38.456245 137.611197 108.708186
v -28.786860 136.228733 103.178959
v -49.511317 162.477548 90.748478
v -43.982766 144.520943 89.365630
v -42.601136 155.567801 87.982783
v -49.511317 155.567801 87.982783
v -37.076643 144.518374 108.708186
v -38.460302 141.758587 92.126998
v -28.786860 136.228733 108.708186
v -38.456245 136.228733 107.325338
v -30.168491 143.135911 107.325338
v -49.511317 161.092515 86.599935
v -43.982766 143.141050 94.890529
v -49.511317 156.947695 90.748478
v -38.456245 136.228733 97.654060
v -43.982766 159.710052 87.982783
v -28.786860 137.611197 103.178959
v -42.601136 148.665764 87.982783
v -38.456245 141.756017 108.708186
v -41.221534 138.993660 93.509845
v -48.127658 155.567801 86.599935
v -45.364397 159.710052 86.599935
v -35.695012 144.520943 94.890529
v -48.127658 152.805445 92.126998
v -46.746027 162.477548 90.748478
v -45.364397 162.477548 87.982783
v -31.550121 136.228733 100.417592
v -39.837875 137.611197 104.559643
v -45.364397 145.903407 90.748478
f 471 464 480 
f 452 450 458 
f 450 454 458 
f 450 452 460 
f 453 460 461 
f 460 452 461 
f 451 450 462 
f 450 460 462 
f 457 454 463 
f 452 454 465 
f 454 457 465 
f 453 461 466 
f 460 453 468 
f 462 460 468 
f 456 467 468 
f 467 462 468 
f 459 455 469 
f 454 452 470 
f 452 458 470 
f 458 454 470 
f 459 449 471 
f 455 459 471 
f 449 466 471 
f 466 461 471 
f 455 457 472 
f 457 463 472 
f 469 455 472 
f 469 472 473 
f 467 456 473 
f 456 469 473 
f 472 463 473 
f 453 459 474 
f 468 453 474 
f 456 468 474 
f 459 469 474 
f 469 456 474 
f 457 464 475 
f 452 465 475 
f 465 457 475 
f 450 451 476 
f 451 454 476 
f 454 450 476 
f 454 451 477 
f 451 462 477 
f 463 454 477 
f 462 467 477 
f 473 463 477 
f 467 473 477 
f 449 459 478 
f 459 453 478 
f 466 449 478 
f 453 466 478 
f 461 452 479 
f 464 471 479 
f 471 461 479 
f 452 475 479 
f 475 464 479 
f 457 455 480 
f 464 457 480 
f 455 471 480 
o convex_15
v -16.348940 126.552156 86.598041
v 8.522843 121.026938 76.926358
v 8.522843 118.265816 76.926358
v -3.913049 114.119671 65.873449
v -16.348940 118.265816 96.269725
v 5.757147 127.932717 67.257785
v -14.966092 126.552156 96.269725
v 2.993886 114.122646 83.832481
v -3.913049 125.170108 65.873449
v -16.348940 118.265816 83.838703
v 1.613473 129.317741 78.310693
v 2.993886 122.406011 85.216817
v 4.376734 114.119671 68.639009
v -10.819984 114.119671 83.838703
v -3.913049 129.317741 76.926358
v -14.966092 121.026938 97.654060
v -16.348940 127.932717 93.507275
v 1.613473 114.119671 65.873449
v 7.139995 127.932717 71.401459
v -3.913049 126.550669 67.257785
v -16.348940 123.788059 83.838703
v -9.439571 114.119671 74.167019
v -5.293462 114.119671 86.598041
v -16.348940 127.932717 89.360491
v 5.757147 114.119671 76.926358
v 2.993886 118.267304 85.216817
v 8.522843 118.265816 75.548244
v -14.966092 123.788059 97.654060
v 1.613473 127.932717 67.257785
v -14.966092 118.265816 96.269725
v -16.348940 123.788059 97.654060
v 2.993886 123.789547 83.832481
f 499 491 512 
f 485 481 490 
f 489 484 490 
f 485 490 494 
f 484 493 494 
f 491 486 495 
f 481 485 497 
f 487 491 497 
f 491 495 497 
f 484 489 498 
f 489 486 498 
f 486 493 498 
f 493 484 498 
f 486 491 499 
f 489 481 500 
f 481 489 501 
f 490 481 501 
f 489 490 501 
f 490 484 502 
f 494 490 502 
f 484 494 502 
f 494 493 503 
f 485 494 503 
f 481 497 504 
f 497 495 504 
f 500 481 504 
f 495 500 504 
f 483 488 505 
f 488 503 505 
f 503 493 505 
f 483 482 506 
f 488 483 506 
f 482 492 506 
f 496 488 506 
f 492 496 506 
f 482 483 507 
f 493 486 507 
f 499 482 507 
f 486 499 507 
f 483 505 507 
f 505 493 507 
f 492 487 508 
f 496 492 508 
f 486 489 509 
f 495 486 509 
f 489 500 509 
f 500 495 509 
f 496 485 510 
f 488 496 510 
f 485 503 510 
f 503 488 510 
f 485 496 511 
f 497 485 511 
f 487 497 511 
f 508 487 511 
f 496 508 511 
f 491 487 512 
f 492 482 512 
f 487 492 512 
f 482 499 512 
o convex_16
v 7.138101 7.722359 13.364865
v -9.439706 -6.095298 -14.268962
v -12.202155 -6.095298 -11.503401
v 8.522437 -6.095298 17.511650
v 15.431671 -6.095298 -7.359727
v 4.375652 7.722359 -11.503401
v -13.583380 6.340052 7.836855
v -16.348940 -6.095298 10.602415
v -10.820930 7.722359 -7.359727
v 12.666111 6.340052 6.455630
v -6.674146 -4.711639 17.511650
v 7.138101 -6.095298 -14.268962
v -16.348940 -4.711639 -5.975392
v 12.666111 6.340052 -5.975392
v 15.431671 -4.711639 7.836855
v -5.292921 7.722359 13.364865
v -6.674146 7.722359 -11.503401
v -13.583380 6.340052 -3.212942
v 11.284886 7.722359 -5.975392
v -8.055370 -3.330685 -14.268962
v 11.284886 -4.711639 -11.503401
v -8.055370 7.722359 11.983640
v -16.348940 -4.711639 10.602415
v 8.522437 -4.711639 17.511650
v 15.431671 -6.095298 7.836855
v -6.674146 -6.095298 17.511650
v 15.431671 -3.330685 -1.831718
v -12.202155 7.722359 7.836855
v 5.756877 -3.330685 -14.268962
v -8.055370 6.340052 -11.503401
v 11.284886 7.722359 7.836855
v -16.348940 -6.095298 -5.975392
f 525 515 544 
f 515 514 516 
f 516 514 517 
f 515 516 520 
f 513 518 521 
f 517 514 524 
f 513 521 528 
f 523 513 528 
f 521 518 529 
f 525 519 530 
f 521 525 530 
f 518 513 531 
f 526 518 531 
f 524 514 532 
f 517 524 533 
f 518 526 533 
f 526 517 533 
f 528 521 534 
f 523 528 534 
f 520 523 535 
f 519 525 535 
f 525 520 535 
f 534 519 535 
f 523 534 535 
f 513 523 536 
f 523 516 536 
f 516 527 536 
f 516 517 537 
f 527 516 537 
f 517 527 537 
f 520 516 538 
f 516 523 538 
f 523 520 538 
f 526 522 539 
f 517 526 539 
f 527 517 539 
f 522 527 539 
f 530 519 540 
f 521 530 540 
f 519 534 540 
f 534 521 540 
f 529 518 541 
f 524 532 541 
f 532 529 541 
f 533 524 541 
f 518 533 541 
f 514 515 542 
f 515 525 542 
f 525 521 542 
f 521 529 542 
f 532 514 542 
f 529 532 542 
f 522 526 543 
f 527 522 543 
f 531 513 543 
f 526 531 543 
f 513 536 543 
f 536 527 543 
f 515 520 544 
f 520 525 544 
o convex_17
v 4.375923 7.722359 -11.505430
v -2.529931 14.634434 13.366352
v -5.293192 14.634434 13.366352
v -6.674822 51.938862 -10.122582
v 8.520814 51.938862 6.456983
v -12.201344 7.722359 -4.596061
v -10.819713 51.938862 7.837396
v 11.284075 7.722359 6.456983
v 9.902444 47.792482 -5.976474
v 4.375923 51.938862 11.983505
v -12.201344 7.722359 7.837396
v 5.757553 7.722359 13.366352
v 11.284075 7.722359 -5.976474
v -6.674822 7.722359 -11.505430
v 4.375923 51.938862 -10.122582
v -10.819713 51.938862 -4.596061
v -5.293192 51.938862 11.983505
v 11.284075 16.019446 6.456983
v -12.201344 24.303547 -3.213213
v 11.284075 22.927192 -5.976474
v -10.819713 9.107371 -7.359322
v -5.293192 7.722359 13.366352
v 4.375923 16.019446 -11.505430
v 9.902444 46.407471 2.310874
v -12.201344 20.161496 7.837396
v -8.056452 51.938862 10.600657
v 9.902444 9.107371 9.220244
v 7.139183 51.938862 9.220244
v 8.520814 51.938862 -5.976474
v -9.438083 10.488055 10.600657
v 8.520814 11.868738 -8.739735
v 5.757553 13.249422 13.366352
f 572 554 576 
f 549 548 551 
f 550 545 552 
f 547 546 554 
f 549 551 554 
f 550 552 555 
f 555 552 556 
f 546 547 556 
f 552 545 557 
f 545 550 558 
f 548 549 559 
f 551 548 560 
f 547 554 561 
f 554 551 561 
f 552 557 562 
f 550 555 563 
f 560 550 563 
f 551 560 563 
f 562 557 564 
f 548 558 565 
f 558 550 565 
f 560 548 565 
f 550 560 565 
f 555 556 566 
f 556 547 566 
f 545 558 567 
f 558 548 567 
f 548 559 567 
f 553 549 568 
f 549 562 568 
f 564 553 568 
f 562 564 568 
f 563 555 569 
f 551 563 569 
f 547 561 570 
f 561 551 570 
f 551 569 570 
f 556 552 571 
f 552 562 571 
f 571 562 572 
f 549 554 572 
f 562 549 572 
f 549 553 573 
f 559 549 573 
f 553 559 573 
f 566 547 574 
f 555 566 574 
f 569 555 574 
f 547 570 574 
f 570 569 574 
f 557 545 575 
f 559 553 575 
f 564 557 575 
f 553 564 575 
f 545 567 575 
f 567 559 575 
f 554 546 576 
f 546 556 576 
f 556 571 576 
f 571 572 576 
o convex_18
v 0.230896 68.527759 -11.503807
v -2.529930 93.398325 11.984587
v -5.294544 93.398325 11.984587
v -2.529930 138.981581 -14.268962
v -10.821877 51.947383 -4.593491
v 8.522843 51.947383 5.074270
v 4.375922 138.981581 -3.213483
v -8.057264 138.981581 -1.828336
v -10.821877 65.767203 11.984587
v 8.522843 51.947383 -5.976068
v 4.375922 51.947383 11.984587
v 4.375922 138.981581 -11.503807
v 4.375922 79.587024 11.984587
v -6.674957 51.947383 -10.121230
v -8.057264 138.981581 -10.121230
v 1.613203 138.981581 0.929109
v -10.821877 85.108136 11.984587
v -10.821877 51.947383 7.836855
v 4.375922 51.947383 -10.121230
v 8.522843 65.767203 3.691693
v -5.294544 138.981581 0.929109
v -10.821877 90.637769 2.311686
v 1.613203 90.637769 -12.886384
v 8.522843 71.296836 -5.976068
v -5.294544 98.910917 -12.886384
v -5.294544 51.947383 11.984587
v 2.995509 87.877213 11.984587
v 2.995509 133.451948 -12.886384
v -6.674957 89.257491 -11.503807
v 7.140536 53.336181 9.219432
v -10.821877 79.587024 -1.828336
v 0.230896 133.451948 -14.268962
f 604 599 608 
f 583 580 584 
f 578 579 585 
f 582 581 586 
f 581 582 587 
f 578 585 587 
f 580 583 588 
f 578 587 589 
f 586 581 590 
f 584 580 591 
f 579 578 592 
f 583 584 592 
f 581 585 593 
f 585 579 593 
f 585 581 594 
f 581 587 594 
f 590 577 595 
f 586 590 595 
f 582 586 596 
f 583 589 596 
f 579 592 597 
f 592 584 597 
f 593 579 597 
f 584 593 597 
f 584 591 598 
f 593 584 598 
f 581 593 598 
f 577 590 599 
f 595 577 599 
f 588 583 600 
f 586 588 600 
f 596 586 600 
f 583 596 600 
f 591 580 601 
f 599 590 601 
f 587 585 602 
f 585 594 602 
f 594 587 602 
f 589 583 603 
f 578 589 603 
f 592 578 603 
f 583 592 603 
f 588 586 604 
f 586 595 604 
f 595 599 604 
f 590 581 605 
f 581 591 605 
f 591 601 605 
f 601 590 605 
f 587 582 606 
f 589 587 606 
f 582 596 606 
f 596 589 606 
f 591 581 607 
f 598 591 607 
f 581 598 607 
f 580 588 608 
f 601 580 608 
f 599 601 608 
f 588 604 608 
o convex_19
v 0.231031 58.847961 11.984587
v 0.231031 93.391833 34.092838
v -5.294679 93.391833 34.092838
v -1.149653 92.009796 11.984587
v -10.821877 69.904250 11.984587
v -3.912508 79.567954 34.092838
v 4.377545 61.612033 13.367435
v -9.439706 89.245724 11.984587
v 4.377545 79.567954 11.984587
v -5.294679 57.465924 13.367435
v 1.611715 80.953507 34.092838
v -6.673875 82.335543 34.092838
v -10.821877 80.953507 16.130966
v 1.611715 90.627760 11.984587
v 1.611715 92.009796 34.092838
v -2.531824 57.465924 13.367435
v -5.294679 92.009796 11.984587
v -6.673875 89.245724 34.092838
v -9.439706 65.758142 13.367435
v 0.231031 79.567954 34.092838
v 2.995374 83.714063 25.800080
v -5.294679 57.465924 11.984587
v -10.821877 69.904250 13.367435
v -10.821877 83.714063 13.367435
v 4.377545 61.612033 11.984587
v 2.995374 86.481652 11.984587
v 4.377545 65.758142 14.748118
v -9.439706 82.335543 23.038712
v -1.149653 93.391833 29.946459
v 0.231031 58.847961 13.367435
v -9.439706 89.245724 13.367435
v 4.377545 79.567954 13.367435
f 629 635 640 
f 612 609 613 
f 610 611 614 
f 612 613 616 
f 609 612 617 
f 610 614 619 
f 614 611 620 
f 618 614 620 
f 612 610 622 
f 617 612 622 
f 610 619 623 
f 622 610 623 
f 614 618 624 
f 616 611 625 
f 612 616 625 
f 620 611 626 
f 618 620 627 
f 615 619 628 
f 619 614 628 
f 614 624 628 
f 623 619 629 
f 613 609 630 
f 609 624 630 
f 624 618 630 
f 627 613 630 
f 618 627 630 
f 621 613 631 
f 613 627 631 
f 627 620 631 
f 616 613 632 
f 613 621 632 
f 621 626 632 
f 615 609 633 
f 609 617 633 
f 617 615 633 
f 617 622 634 
f 622 623 634 
f 615 617 635 
f 619 615 635 
f 629 619 635 
f 620 626 636 
f 626 621 636 
f 621 631 636 
f 631 620 636 
f 611 610 637 
f 610 612 637 
f 625 611 637 
f 612 625 637 
f 609 615 638 
f 624 609 638 
f 615 628 638 
f 628 624 638 
f 611 616 639 
f 626 611 639 
f 616 632 639 
f 632 626 639 
f 623 629 640 
f 617 634 640 
f 634 623 640 
f 635 617 640 
o convex_20
v -2.530201 180.447264 -32.231645
v 4.377545 174.922906 -15.650727
v -3.913049 174.922906 -15.650727
v 5.758770 209.450143 -36.372208
v 8.522843 206.687964 -46.047003
v -1.148976 209.450143 -43.284554
v 1.613473 161.107008 -17.035063
v -8.058346 161.107008 -15.650727
v -1.148976 209.450143 -37.756544
v 5.758770 165.250276 -15.650727
v 0.232248 203.925785 -46.047003
v 8.522843 208.069054 -39.137769
v 2.994698 180.447264 -32.231645
v -8.058346 169.393544 -15.650727
v -6.675498 158.339825 -17.035063
v -8.058346 166.631365 -19.797512
v 4.377545 172.160727 -25.325522
v 1.613473 208.069054 -34.990984
v 7.139995 209.450143 -47.431338
v 5.758770 172.160727 -15.650727
v 4.377545 201.163606 -44.662667
v 0.232248 168.012455 -23.947408
v 5.758770 165.250276 -17.035063
v 1.613473 209.450143 -47.431338
v -5.294273 168.012455 -23.947408
v -5.294273 158.339825 -15.650727
v -2.530201 197.020338 -39.137769
v -8.058346 169.393544 -19.797512
v -6.675498 172.160727 -15.650727
v 0.232248 209.450143 -36.372208
v 8.522843 203.925785 -41.903329
v 5.758770 206.687964 -47.431338
f 664 659 672 
f 642 643 648 
f 644 646 649 
f 642 648 650 
f 648 643 654 
f 649 646 654 
f 648 654 656 
f 655 648 656 
f 653 645 657 
f 643 642 658 
f 642 644 658 
f 646 644 659 
f 644 652 659 
f 652 645 659 
f 644 642 660 
f 642 650 660 
f 652 644 660 
f 650 652 660 
f 641 651 661 
f 653 641 661 
f 645 653 661 
f 641 653 662 
f 647 655 662 
f 657 647 662 
f 653 657 662 
f 650 647 663 
f 657 645 663 
f 647 657 663 
f 651 646 664 
f 646 659 664 
f 651 641 665 
f 656 651 665 
f 655 656 665 
f 641 662 665 
f 662 655 665 
f 647 650 666 
f 650 648 666 
f 655 647 666 
f 648 655 666 
f 646 651 667 
f 651 656 667 
f 667 656 668 
f 654 646 668 
f 656 654 668 
f 646 667 668 
f 654 643 669 
f 649 654 669 
f 644 649 670 
f 643 658 670 
f 658 644 670 
f 669 643 670 
f 649 669 670 
f 645 652 671 
f 652 650 671 
f 663 645 671 
f 650 663 671 
f 659 645 672 
f 661 651 672 
f 645 661 672 
f 651 664 672 
o convex_21
v 1.613744 114.116425 82.450715
v -5.292380 80.958241 34.092838
v 0.230084 80.958241 34.092838
v 0.230084 94.771987 35.479067
v -8.058346 114.116425 71.395913
v 5.759311 114.116425 70.014689
v -5.293732 112.733752 85.218169
v 0.230084 98.913514 67.247235
v -6.676039 90.633705 34.092838
v -2.530472 114.116425 64.494794
v -8.058346 112.733752 82.450715
v 5.759311 112.733752 75.539587
v 1.612391 82.340914 34.092838
v -5.292380 93.392560 34.092838
v -6.676039 82.340914 35.479067
v -3.911426 97.537333 64.484786
v 1.612391 92.013132 34.092838
v -3.911426 80.958241 36.860292
v 2.994698 114.116425 65.876019
v 4.377004 111.351079 78.307041
v 0.230084 83.723586 41.003966
v -8.058346 114.116425 82.450715
v 1.612391 90.633705 50.682548
v 1.613744 112.733752 82.450715
v -6.676039 114.116425 68.638468
v 0.231437 114.116425 64.494794
v 1.612391 82.340914 35.479067
v 0.231437 104.444206 74.163367
v 5.759311 111.351079 70.014689
v -2.529119 98.913514 67.247235
v 4.377004 114.116425 67.252239
v 2.994698 103.061533 68.633464
f 695 699 704 
f 677 673 678 
f 675 674 681 
f 677 678 682 
f 678 673 684 
f 675 681 685 
f 685 681 686 
f 681 677 686 
f 682 676 686 
f 681 674 687 
f 677 681 687 
f 683 677 687 
f 683 687 688 
f 679 683 688 
f 678 685 689 
f 685 686 689 
f 686 676 689 
f 674 675 690 
f 687 674 690 
f 688 687 690 
f 682 678 691 
f 684 673 692 
f 690 675 693 
f 680 690 693 
f 673 677 694 
f 679 673 694 
f 677 683 694 
f 683 679 694 
f 680 693 695 
f 673 679 696 
f 692 673 696 
f 677 682 697 
f 686 677 697 
f 682 686 697 
f 676 682 698 
f 691 676 698 
f 682 691 698 
f 675 685 699 
f 693 675 699 
f 695 693 699 
f 679 680 700 
f 680 692 700 
f 696 679 700 
f 692 696 700 
f 678 684 701 
f 685 678 701 
f 684 699 701 
f 699 685 701 
f 680 679 702 
f 679 688 702 
f 690 680 702 
f 688 690 702 
f 689 676 703 
f 678 689 703 
f 676 691 703 
f 691 678 703 
f 692 680 704 
f 684 692 704 
f 680 695 704 
f 699 684 704 
o convex_22
v -5.294814 234.340778 -25.323533
v -3.911967 261.960657 -15.650727
v -2.529119 264.722091 -17.032557
v 7.141077 209.460152 -37.755398
v -1.148706 223.278409 -39.139527
v 0.232925 231.579344 -21.178045
v -1.148706 209.460152 -37.755398
v 5.758229 223.278409 -39.139527
v -5.294814 266.108353 -18.414386
v -3.911967 228.812366 -22.559874
v -5.294814 249.523117 -17.032557
v 7.141077 219.136259 -37.755398
v -2.530336 221.897692 -37.755398
v 1.613338 223.283954 -25.323533
v -2.529119 261.960657 -21.178045
v -1.149923 259.199224 -18.414386
v -1.148706 209.460152 -39.139527
v 0.234142 209.460152 -36.373569
v -5.294814 260.574396 -21.178045
v 0.234142 224.659126 -39.139527
v 7.141077 209.460152 -39.139527
v -3.911967 223.278409 -26.707661
v 1.613338 231.579344 -23.941703
v -1.149923 242.619533 -18.414386
v -2.529119 223.283954 -25.323533
v 5.758229 209.460152 -36.373569
v -5.294814 232.954516 -22.559874
v -3.911967 223.278409 -30.850850
v -2.529119 264.722091 -18.414386
v -3.911967 231.579344 -21.178045
v -5.294814 249.523117 -23.941703
v -5.294814 257.812962 -15.650727
f 715 728 736 
f 706 707 713 
f 713 705 715 
f 708 710 718 
f 710 714 718 
f 708 711 721 
f 709 712 721 
f 717 709 721 
f 711 708 722 
f 705 713 723 
f 709 717 723 
f 713 719 723 
f 723 719 724 
f 712 709 724 
f 719 712 724 
f 709 723 724 
f 716 708 725 
f 712 716 725 
f 708 721 725 
f 721 712 725 
f 721 711 726 
f 711 722 726 
f 710 708 727 
f 708 716 727 
f 720 710 727 
f 716 720 727 
f 707 706 728 
f 720 707 728 
f 710 720 728 
f 718 714 729 
f 722 718 729 
f 714 726 729 
f 726 722 729 
f 708 718 730 
f 722 708 730 
f 718 722 730 
f 715 705 731 
f 726 714 731 
f 726 731 732 
f 705 717 732 
f 717 721 732 
f 721 726 732 
f 731 705 732 
f 713 707 733 
f 716 712 733 
f 712 719 733 
f 719 713 733 
f 707 720 733 
f 720 716 733 
f 714 710 734 
f 728 715 734 
f 710 728 734 
f 715 731 734 
f 731 714 734 
f 717 705 735 
f 705 723 735 
f 723 717 735 
f 706 713 736 
f 713 715 736 
f 728 706 736 
o convex_23
v 1.615502 129.323634 65.874667
v 1.615502 132.084344 76.927575
v -1.147759 132.084344 76.927575
v 15.429778 166.621628 50.674026
v 16.813437 150.042217 58.966920
v 7.137966 127.937598 71.397266
v -3.913049 129.323634 72.777273
v 16.813437 163.860917 56.204335
v 16.813437 151.424466 54.821758
v 16.813437 155.571212 60.346927
v -3.913049 130.702096 76.927575
v 15.429778 159.714171 50.674026
v 5.760393 127.937598 67.257244
v 2.997132 127.937598 76.927575
v 4.378763 144.517009 61.729505
v 15.429778 166.621628 53.439181
v -1.147759 127.937598 68.632111
v 1.615502 141.752512 67.257244
v -3.913049 127.937598 76.927575
v 16.813437 166.621628 50.674026
v 8.521625 130.702096 67.257244
v 4.378763 133.466593 75.542428
v 5.760393 127.937598 74.162420
v 5.760393 140.370263 60.346927
v 16.813437 151.424466 60.346927
v 15.429778 163.860917 56.204335
v 5.760393 129.323634 65.874667
v -2.529389 133.466593 71.397266
v 16.813437 159.714171 50.674026
v 8.521625 130.702096 70.017259
v 16.813437 150.042217 56.204335
v 0.233871 138.988014 71.397266
f 762 752 768 
f 744 741 745 
f 741 744 746 
f 738 739 747 
f 738 747 750 
f 749 742 750 
f 737 749 753 
f 749 750 753 
f 743 751 753 
f 752 740 754 
f 747 743 755 
f 750 747 755 
f 743 753 755 
f 753 750 755 
f 744 745 756 
f 748 740 756 
f 752 744 756 
f 740 752 756 
f 742 749 757 
f 744 738 758 
f 746 744 758 
f 738 750 758 
f 758 750 759 
f 750 742 759 
f 746 758 759 
f 740 748 760 
f 751 740 760 
f 737 753 760 
f 753 751 760 
f 741 746 761 
f 746 759 761 
f 739 738 762 
f 738 744 762 
f 747 739 762 
f 744 752 762 
f 749 737 763 
f 745 749 763 
f 737 760 763 
f 760 745 763 
f 743 747 764 
f 740 751 764 
f 751 743 764 
f 747 754 764 
f 754 740 764 
f 756 745 765 
f 748 756 765 
f 745 760 765 
f 760 748 765 
f 757 741 766 
f 742 757 766 
f 759 742 766 
f 741 761 766 
f 761 759 766 
f 745 741 767 
f 749 745 767 
f 741 757 767 
f 757 749 767 
f 754 747 768 
f 752 754 768 
f 747 762 768 
o convex_24
v 14.048959 208.072976 49.291314
v 4.377545 214.984509 46.529270
v 4.377545 214.984509 49.291314
v 15.430589 187.351900 45.147910
v 15.430589 192.883832 50.673350
v 16.813437 201.174968 45.147910
v 7.142024 220.513060 50.673350
v 8.523654 219.126696 46.529270
v 16.813437 190.121248 43.765874
v 16.813437 199.788603 50.673350
v 15.430589 187.351900 49.291314
v 4.377545 216.364111 50.673350
v 7.142024 212.221925 45.147910
v 4.377545 221.896043 47.909954
v 16.813437 187.351900 49.291314
v 11.284480 212.221925 45.147910
v 15.430589 190.121248 43.765874
v 5.760393 210.835560 49.291314
v 16.813437 194.263434 43.765874
v 8.523654 219.126696 50.673350
v 5.760393 220.513060 46.529270
v 15.430589 205.310391 46.529270
v 4.377545 220.513060 50.673350
v 7.142024 209.459340 45.147910
v 11.284480 199.788603 50.673350
v 5.760393 210.835560 46.529270
v 5.760393 212.221925 50.673350
v 16.813437 201.174968 49.291314
v 5.760393 221.896043 47.909954
v 16.813437 187.351900 45.147910
v 4.377545 219.126696 46.529270
v 16.813437 192.883832 50.673350
f 783 778 800 
f 775 773 778 
f 777 774 778 
f 770 771 780 
f 773 775 780 
f 770 780 782 
f 777 778 783 
f 779 772 783 
f 773 779 783 
f 776 774 784 
f 777 772 785 
f 771 770 786 
f 780 771 786 
f 774 777 787 
f 784 774 787 
f 781 784 787 
f 777 785 787 
f 785 781 787 
f 776 775 788 
f 778 769 788 
f 775 778 788 
f 776 784 789 
f 784 781 789 
f 774 776 790 
f 788 769 790 
f 776 788 790 
f 780 775 791 
f 775 782 791 
f 782 780 791 
f 770 781 792 
f 785 772 792 
f 781 785 792 
f 779 773 793 
f 773 780 793 
f 772 779 794 
f 786 770 794 
f 779 786 794 
f 770 792 794 
f 792 772 794 
f 786 779 795 
f 780 786 795 
f 779 793 795 
f 793 780 795 
f 769 778 796 
f 778 774 796 
f 774 790 796 
f 790 769 796 
f 775 776 797 
f 782 775 797 
f 776 789 797 
f 789 782 797 
f 772 777 798 
f 783 772 798 
f 777 783 798 
f 781 770 799 
f 770 782 799 
f 789 781 799 
f 782 789 799 
f 778 773 800 
f 773 783 800 
o convex_25
v 54.122734 197.029129 -7.359592
v 55.503418 194.264786 6.457524
v 51.359879 194.264786 6.457524
v 63.793471 219.132512 -5.978367
v 56.884101 183.211202 5.074676
v 63.793471 210.835696 -8.740817
v 56.884101 213.600039 -7.359592
v 48.594048 187.357716 5.074676
v 54.122734 185.975545 -1.833070
v 58.264785 187.357716 6.457524
v 51.359879 180.446859 6.457524
v 59.646956 217.746553 -4.595520
v 59.646956 216.364382 -10.123664
v 58.264785 197.029129 -7.359592
v 51.359879 198.411301 -3.214295
v 49.977707 185.975545 0.929379
v 49.977707 194.264786 5.074676
v 63.793471 217.746553 -4.595520
v 61.027640 208.075140 -10.123664
v 55.503418 206.692969 -8.740817
v 63.793471 210.835696 -4.595520
v 55.503418 210.835696 -3.214295
v 63.793471 219.132512 -8.740817
v 58.264785 191.500444 6.457524
v 52.740562 190.122059 -4.595520
v 54.122734 181.829031 2.312227
v 56.884101 187.357716 -0.451846
v 48.594048 188.739888 6.457524
v 56.884101 199.789685 -8.740817
v 49.977707 188.739888 -0.451846
v 61.027640 219.132512 -8.740817
v 56.884101 192.882615 -5.978367
f 825 829 832 
f 802 803 810 
f 805 806 810 
f 810 803 811 
f 805 810 811 
f 803 802 812 
f 811 808 816 
f 803 812 817 
f 806 804 818 
f 812 802 818 
f 804 812 818 
f 806 814 819 
f 807 813 820 
f 801 815 820 
f 815 807 820 
f 813 819 820 
f 810 806 821 
f 806 818 821 
f 812 807 822 
f 807 815 822 
f 817 812 822 
f 815 817 822 
f 804 806 823 
f 819 813 823 
f 806 819 823 
f 802 810 824 
f 818 802 824 
f 810 821 824 
f 821 818 824 
f 809 816 825 
f 805 811 826 
f 816 809 826 
f 811 816 826 
f 806 805 827 
f 814 806 827 
f 805 826 827 
f 811 803 828 
f 808 811 828 
f 815 808 828 
f 803 817 828 
f 817 815 828 
f 819 814 829 
f 801 820 829 
f 820 819 829 
f 825 801 829 
f 815 801 830 
f 808 815 830 
f 816 808 830 
f 801 825 830 
f 825 816 830 
f 812 804 831 
f 807 812 831 
f 813 807 831 
f 804 823 831 
f 823 813 831 
f 809 825 832 
f 826 809 832 
f 814 827 832 
f 827 826 832 
f 829 814 832 
o convex_26
v 59.648174 190.111239 23.038712
v 41.685219 166.625415 11.985669
v 43.067256 166.625415 11.985669
v 49.977437 192.878963 6.457524
v 56.882343 181.820915 6.457524
v 41.685219 176.300886 20.273017
v 51.355956 169.393139 23.038712
v 52.736234 192.878963 23.038712
v 41.685219 176.300886 7.840372
v 56.882343 192.878963 6.457524
v 55.502065 173.538301 17.510568
v 41.685219 169.393139 21.655865
v 41.685219 179.066040 17.510568
v 58.266137 179.066040 23.038712
v 41.685219 169.393139 7.840372
v 49.977437 172.153154 9.221596
v 49.977437 190.111239 23.038712
v 58.266137 187.351224 6.457524
v 41.685219 166.625415 20.273017
v 48.597159 168.007992 16.129343
v 44.451050 173.538301 23.038712
v 56.882343 192.878963 23.038712
v 41.685219 179.066040 10.602821
v 52.736234 177.683463 6.457524
v 58.266137 183.203492 10.602821
v 45.831328 166.625415 20.273017
v 59.648174 185.966077 21.655865
v 48.597159 183.203492 6.457524
v 58.266137 190.111239 6.457524
v 55.502065 173.538301 23.038712
v 45.831328 169.393139 23.038712
v 56.882343 177.683463 13.366894
f 857 846 864 
f 839 833 840 
f 834 838 841 
f 837 836 842 
f 836 840 842 
f 838 834 844 
f 841 838 845 
f 833 839 846 
f 835 834 847 
f 834 841 847 
f 837 843 848 
f 835 847 848 
f 839 840 849 
f 840 836 849 
f 845 838 849 
f 836 845 849 
f 837 842 850 
f 834 835 851 
f 844 834 851 
f 843 839 852 
f 848 843 852 
f 835 848 852 
f 838 844 853 
f 839 849 853 
f 849 838 853 
f 840 833 854 
f 833 842 854 
f 842 840 854 
f 836 841 855 
f 845 836 855 
f 841 845 855 
f 836 837 856 
f 837 848 856 
f 848 847 856 
f 837 850 857 
f 851 835 858 
f 839 851 858 
f 852 839 858 
f 835 852 858 
f 833 846 859 
f 846 857 859 
f 857 850 859 
f 841 836 860 
f 847 841 860 
f 836 856 860 
f 856 847 860 
f 842 833 861 
f 850 842 861 
f 833 859 861 
f 859 850 861 
f 839 843 862 
f 846 839 862 
f 843 846 862 
f 851 839 863 
f 844 851 863 
f 853 844 863 
f 839 853 863 
f 843 837 864 
f 846 843 864 
f 837 857 864 
o convex_27
v -31.549174 158.343882 47.910495
v -45.366020 180.434146 45.148046
v -39.837875 166.619870 47.910495
v -27.403066 161.106737 60.346386
v -41.219911 185.964049 43.765198
v -28.785102 144.521221 57.582314
v -27.403066 159.723214 50.674568
v -43.983984 184.580525 49.293343
v -42.598431 173.529104 50.674568
v -27.403066 148.671793 50.674568
v -28.785102 156.960358 60.346386
v -39.837875 184.580525 47.910495
v -31.549174 150.055317 50.674568
v -42.598431 179.054815 43.765198
v -34.316763 154.197503 54.818242
v -27.403066 144.521221 57.582314
v -27.403066 161.106737 52.055792
v -42.601947 187.351765 47.910495
v -45.366020 185.964049 43.765198
v -28.785102 161.106737 49.293343
v -38.452322 162.486069 49.293343
v -45.366020 185.964049 47.910495
v -37.073803 172.145581 45.148046
v -28.785102 161.106737 60.346386
v -28.785102 144.521221 54.818242
v -32.931211 152.818172 56.201089
v -38.452322 166.619870 46.529270
v -31.549174 148.671793 53.437017
v -42.598431 172.145581 49.293343
v -45.366020 180.434146 47.910495
v -39.837875 184.580525 45.148046
v -45.366020 181.817670 43.765198
f 878 891 896 
f 871 868 874 
f 865 874 877 
f 874 868 880 
f 868 875 880 
f 875 870 880 
f 868 871 881 
f 876 868 881 
f 872 868 882 
f 868 876 882 
f 869 878 883 
f 882 869 883 
f 869 871 884 
f 874 865 884 
f 871 874 884 
f 866 867 885 
f 867 877 885 
f 872 882 886 
f 883 866 886 
f 882 883 886 
f 865 878 887 
f 878 869 887 
f 884 865 887 
f 869 884 887 
f 868 872 888 
f 872 873 888 
f 875 868 888 
f 873 875 888 
f 877 874 889 
f 880 870 889 
f 874 880 889 
f 870 875 890 
f 875 873 890 
f 873 879 890 
f 879 870 890 
f 865 877 891 
f 877 867 891 
f 878 865 891 
f 870 879 892 
f 885 877 892 
f 879 885 892 
f 877 889 892 
f 889 870 892 
f 879 873 893 
f 866 885 893 
f 885 879 893 
f 873 872 894 
f 886 866 894 
f 872 886 894 
f 866 893 894 
f 893 873 894 
f 871 869 895 
f 881 871 895 
f 876 881 895 
f 869 882 895 
f 882 876 895 
f 867 866 896 
f 866 883 896 
f 883 878 896 
f 891 867 896 
o convex_28
v -21.875462 141.750039 53.440128
v -3.913049 126.560822 74.164043
v -5.297249 126.560822 74.164043
v -3.913049 114.120888 67.254539
v -9.442952 115.506890 74.164043
v -27.403066 152.807758 58.965432
v -3.913049 126.560822 64.490737
v -23.255063 152.807758 53.440128
v -27.403066 143.132254 54.822029
v -10.820254 123.796392 74.164043
v -27.403066 143.132254 58.965432
v -26.018865 152.807758 50.674026
v -23.255063 152.807758 58.965432
v -3.913049 114.120888 74.164043
v -6.679150 114.120888 68.634140
v -3.913049 127.935463 68.634140
v -8.061051 125.178607 61.729234
v -27.403066 145.896683 52.058227
v -16.347858 141.750039 56.201630
v -20.493561 150.043328 56.201630
v -8.061051 114.120888 71.397942
v -5.297249 114.120888 67.254539
v -27.403066 152.807758 50.674026
v -26.018865 140.371611 57.583531
v -26.018865 148.657326 50.674026
v -5.297249 125.178607 63.111135
v -24.636964 140.371611 54.822029
v -16.347858 136.224966 56.201630
v -3.913049 127.935463 65.872638
v -9.442952 125.178607 74.164043
v -23.255063 151.425543 52.058227
v -10.820254 121.031963 74.164043
f 907 901 928 
f 898 899 901 
f 899 898 902 
f 898 900 903 
f 901 899 906 
f 906 902 907 
f 902 905 907 
f 902 904 908 
f 902 898 909 
f 904 902 909 
f 900 898 910 
f 898 901 910 
f 900 910 911 
f 898 903 912 
f 909 898 912 
f 905 902 914 
f 904 909 916 
f 909 912 916 
f 910 901 917 
f 911 910 917 
f 905 911 917 
f 900 911 918 
f 902 908 919 
f 914 902 919 
f 901 907 920 
f 907 905 920 
f 917 901 920 
f 905 917 920 
f 897 914 921 
f 919 908 921 
f 914 919 921 
f 903 900 922 
f 900 913 922 
f 915 903 922 
f 911 905 923 
f 914 897 923 
f 905 914 923 
f 897 918 923 
f 918 911 923 
f 913 900 924 
f 918 897 924 
f 900 918 924 
f 897 921 924 
f 922 913 924 
f 915 922 924 
f 903 904 925 
f 912 903 925 
f 904 916 925 
f 916 912 925 
f 899 902 926 
f 906 899 926 
f 902 906 926 
f 904 903 927 
f 908 904 927 
f 903 915 927 
f 921 908 927 
f 924 921 927 
f 915 924 927 
f 901 906 928 
f 906 907 928 
o convex_29
v 7.141077 232.958825 -55.720310
v 5.759311 223.285924 -39.142908
v -1.149517 223.285924 -39.142908
v 4.377545 261.967248 -55.720310
v 0.233330 209.460152 -47.434855
v 8.522843 209.460152 -40.525621
v 9.904608 257.819517 -55.720310
v 2.997944 261.967248 -59.864119
v 8.522843 209.460152 -47.434855
v -1.149517 209.460152 -39.142908
v 9.904608 248.141476 -58.481407
v 4.377545 256.431800 -61.248995
v 1.615096 217.760755 -51.574337
v -1.149517 220.515630 -43.288882
v 9.904608 228.811093 -47.434855
v 8.522843 261.967248 -59.864119
v 7.141077 221.903347 -39.142908
v 7.141077 259.202094 -54.337597
v 7.141077 213.607883 -50.195952
v 2.997944 252.294347 -59.864119
v 9.904608 226.051079 -51.574337
v 7.141077 255.049223 -61.248995
v 2.997944 260.584671 -55.720310
v 7.141077 209.460152 -39.142908
v -1.149517 209.460152 -43.288882
v 1.615096 209.460152 -48.815403
v 2.997944 232.958825 -55.720310
v 7.141077 261.967248 -61.248995
v 0.233330 214.995600 -48.815403
v 8.522843 260.584671 -55.720310
v 9.904608 232.958825 -54.337597
v 9.904608 259.202094 -58.481407
f 958 935 960 
f 934 933 937 
f 930 931 938 
f 933 934 938 
f 931 936 942 
f 938 931 942 
f 939 935 943 
f 936 932 944 
f 930 938 945 
f 934 943 945 
f 943 935 945 
f 931 930 946 
f 932 931 946 
f 930 945 946 
f 941 929 947 
f 936 940 948 
f 934 937 949 
f 943 934 949 
f 939 943 949 
f 939 929 950 
f 931 932 951 
f 932 936 951 
f 936 931 951 
f 938 934 952 
f 945 938 952 
f 934 945 952 
f 933 938 953 
f 938 942 953 
f 937 933 954 
f 933 941 954 
f 947 937 954 
f 941 947 954 
f 929 941 955 
f 948 940 955 
f 941 948 955 
f 950 929 955 
f 940 950 955 
f 940 936 956 
f 936 944 956 
f 939 950 956 
f 950 940 956 
f 941 933 957 
f 942 936 957 
f 936 948 957 
f 948 941 957 
f 933 953 957 
f 953 942 957 
f 944 932 958 
f 945 935 958 
f 932 946 958 
f 946 945 958 
f 929 939 959 
f 937 947 959 
f 947 929 959 
f 949 937 959 
f 939 949 959 
f 935 939 960 
f 956 944 960 
f 939 956 960 
f 944 958 960 
o convex_30
v 5.759311 151.432890 -10.122582
v -16.348940 169.382996 -10.122582
v -16.348940 169.382996 -4.597954
v -8.054018 138.999027 -10.122582
v 5.759311 168.003935 2.312227
v 4.376463 173.529104 -15.650727
v -5.294814 138.999027 0.930191
v -16.348940 181.816858 -3.217676
v 0.232248 138.999027 -14.268691
v -16.348940 179.054274 -12.886655
v 4.376463 138.999027 -3.217676
v -12.202561 159.720644 2.312227
v -8.054018 156.958059 -15.650727
v -13.583245 184.588369 -7.356752
v 5.759311 155.574535 2.312227
v 5.759311 163.857826 -15.650727
v -8.054018 138.999027 -1.833882
v 4.376463 138.999027 -11.504619
v -10.819713 166.620411 2.312227
v 5.759311 170.766520 -3.217676
v -6.673334 138.999027 -12.886655
v -9.439030 169.382996 -15.650727
v 1.612932 138.999027 0.930191
v -16.348940 184.588369 -10.122582
v -16.348940 173.529104 -12.886655
v -2.533447 150.049366 2.312227
v -9.439030 180.437798 -3.217676
v -6.673334 152.811951 -15.650727
v 5.759311 170.766520 -15.650727
v -3.916295 173.529104 -15.650727
v -16.348940 183.200382 -11.504619
v -5.294814 140.378088 -14.268691
f 973 988 992 
f 963 962 964 
f 962 963 968 
f 967 964 969 
f 962 968 970 
f 967 969 971 
f 968 963 972 
f 961 965 975 
f 971 961 975 
f 965 972 975 
f 965 961 976 
f 973 966 976 
f 963 964 977 
f 964 967 977 
f 972 963 977 
f 967 972 977 
f 961 971 978 
f 971 969 978 
f 976 961 978 
f 969 976 978 
f 965 968 979 
f 972 965 979 
f 968 972 979 
f 966 974 980 
f 965 976 980 
f 969 964 981 
f 966 973 982 
f 967 971 983 
f 971 975 983 
f 970 968 984 
f 974 966 984 
f 968 974 984 
f 964 962 985 
f 962 970 985 
f 981 964 985 
f 970 982 985 
f 982 973 985 
f 972 967 986 
f 975 972 986 
f 967 983 986 
f 983 975 986 
f 968 965 987 
f 974 968 987 
f 965 980 987 
f 980 974 987 
f 976 969 988 
f 973 976 988 
f 976 966 989 
f 966 980 989 
f 980 976 989 
f 966 982 990 
f 982 970 990 
f 970 984 991 
f 984 966 991 
f 966 990 991 
f 990 970 991 
f 969 981 992 
f 981 985 992 
f 985 973 992 
f 988 969 992 
o convex_31
v 15.431265 169.387053 -4.595933
v 5.760528 152.811274 -4.595933
v 5.760528 155.573318 -10.121079
v 1.614014 165.241350 3.692934
v 16.813437 161.100922 9.220379
v 5.760528 168.005152 -12.884801
v 1.614014 154.189659 3.692934
v 15.431265 170.768954 5.074796
v 16.813437 163.859449 -4.595933
v 1.614014 162.479306 6.456657
v 5.760528 162.477548 -14.268962
v 5.760528 169.387053 0.929212
v 16.813437 166.625009 9.220379
v 16.813437 159.719021 7.836219
v 16.813437 170.768954 -1.836810
v 7.141212 152.811274 -4.595933
v 5.760528 169.387053 -10.121079
v 7.141212 162.477548 -14.268962
v 7.141212 156.955219 -11.502940
v 16.813437 161.100922 -0.452649
v 7.141212 152.811274 -1.836810
v 1.614014 154.189659 2.311073
v 7.141212 165.241350 -14.268962
v 1.614014 165.241350 2.311073
v 15.431265 162.477548 -5.977795
v 4.381333 154.189659 3.692934
v 16.813437 168.005152 -4.595933
v 7.141212 168.005152 -12.884801
v 15.431265 166.625009 9.220379
v 1.614014 161.100922 6.456657
v 14.049094 170.768954 -1.836810
v 15.431265 161.100922 9.220379
f 1021 1022 1024 
f 996 999 1002 
f 1000 996 1002 
f 996 1000 1004 
f 997 1001 1005 
f 1001 997 1006 
f 1000 1005 1007 
f 1005 1001 1007 
f 994 995 1008 
f 996 1004 1009 
f 1003 1010 1011 
f 995 1003 1011 
f 1008 995 1011 
f 1001 1006 1012 
f 1006 1008 1012 
f 999 994 1013 
f 994 1008 1013 
f 1008 1006 1013 
f 995 994 1014 
f 999 996 1014 
f 994 999 1014 
f 1003 995 1014 
f 1003 998 1015 
f 1001 1010 1015 
f 1010 1003 1015 
f 998 1003 1016 
f 996 1009 1016 
f 1009 998 1016 
f 1014 996 1016 
f 1003 1014 1016 
f 1010 1001 1017 
f 1011 1010 1017 
f 1008 1011 1017 
f 1001 1012 1017 
f 1012 1008 1017 
f 997 999 1018 
f 1006 997 1018 
f 999 1013 1018 
f 1013 1006 1018 
f 993 1007 1019 
f 1007 1001 1019 
f 1001 1015 1019 
f 1019 1015 1020 
f 1007 993 1020 
f 998 1009 1020 
f 1009 1007 1020 
f 1015 998 1020 
f 993 1019 1020 
f 1000 1002 1021 
f 1005 1000 1021 
f 997 1005 1021 
f 1002 999 1022 
f 1021 1002 1022 
f 1004 1000 1023 
f 1000 1007 1023 
f 1009 1004 1023 
f 1007 1009 1023 
f 999 997 1024 
f 997 1021 1024 
f 1022 999 1024 
o convex_32
v -16.348940 172.150178 14.746901
v 0.231978 154.189524 2.316825
v 1.614014 154.189524 2.316825
v -16.348940 166.623386 24.418314
v -13.584868 161.100381 2.316825
v 1.614014 165.241215 2.316825
v -14.966904 172.150178 25.799944
v -16.348940 162.482552 17.510162
v 1.614014 158.337931 6.459417
v -12.202831 166.623386 2.316825
v -14.966904 173.530456 17.510162
v -16.348940 166.623386 6.459417
v 1.614014 163.860937 6.459417
v -5.296167 155.573588 2.316825
v -14.966904 173.530456 24.418314
v -1.150058 166.623386 2.316825
v 1.614014 154.189524 3.696157
v -12.202831 165.241215 21.655053
v -16.348940 162.482552 6.459417
v -16.348940 173.530456 24.418314
v -10.820795 158.337931 2.316825
v -14.966904 165.241215 23.036684
v -2.532095 163.860937 11.985939
v -14.966904 169.385836 25.799944
v 1.614014 165.241215 5.077787
v -5.296167 155.573588 3.696157
v -14.966904 161.100381 13.367570
v -13.584868 168.005558 5.077787
v 0.231978 154.189524 3.696157
v -14.966904 165.241215 3.696157
v -16.348940 169.385836 9.222678
v 0.231978 165.241215 7.841048
f 1049 1039 1056 
f 1027 1026 1029 
f 1027 1029 1030 
f 1028 1025 1032 
f 1027 1030 1033 
f 1030 1029 1034 
f 1032 1025 1036 
f 1033 1030 1037 
f 1029 1026 1038 
f 1030 1034 1040 
f 1035 1039 1040 
f 1026 1027 1041 
f 1027 1033 1041 
f 1041 1033 1042 
f 1032 1036 1043 
f 1025 1028 1044 
f 1028 1031 1044 
f 1035 1025 1044 
f 1031 1039 1044 
f 1039 1035 1044 
f 1029 1038 1045 
f 1043 1029 1045 
f 1028 1032 1046 
f 1041 1042 1046 
f 1037 1031 1047 
f 1033 1037 1047 
f 1031 1028 1048 
f 1042 1033 1048 
f 1028 1046 1048 
f 1046 1042 1048 
f 1047 1031 1048 
f 1033 1047 1048 
f 1037 1030 1049 
f 1030 1040 1049 
f 1040 1039 1049 
f 1038 1026 1050 
f 1045 1038 1050 
f 1045 1050 1051 
f 1032 1043 1051 
f 1043 1045 1051 
f 1050 1032 1051 
f 1025 1035 1052 
f 1040 1034 1052 
f 1035 1040 1052 
f 1026 1041 1053 
f 1046 1032 1053 
f 1041 1046 1053 
f 1050 1026 1053 
f 1032 1050 1053 
f 1034 1029 1054 
f 1043 1036 1054 
f 1029 1043 1054 
f 1036 1052 1054 
f 1052 1034 1054 
f 1036 1025 1055 
f 1025 1052 1055 
f 1052 1036 1055 
f 1031 1037 1056 
f 1039 1031 1056 
f 1037 1049 1056 
