o convex_0
v 7.081669 89.494838 -2.077996
v -10.885836 -6.661678 -5.249389
v -10.885836 -6.661678 6.373984
v 11.309573 -6.661678 4.260446
v -4.543980 108.519059 4.260446
v 4.967717 64.133002 -10.532148
v -7.713822 108.519059 -5.249389
v -3.483745 -6.661678 -11.590003
v 6.023607 -4.545348 10.601060
v 11.309573 -6.661678 -5.249389
v 3.907482 91.611168 6.373984
v -5.599870 -6.661678 10.601060
v 1.795703 108.519059 -8.418610
v -3.483745 63.074836 -10.532148
v 4.967717 108.519059 1.089053
v 9.195621 59.900340 -6.305072
v 4.967717 -6.661678 -10.532148
v -7.713822 103.228232 2.146908
v -5.599870 -5.603513 -11.590003
v -3.483745 93.716121 6.373984
v 7.081669 87.378507 2.146908
v -4.543980 108.519059 -8.418610
v 4.967717 -7.719844 8.487522
v 4.967717 108.519059 -5.249389
v -5.599870 -7.719844 -8.418610
v 2.853765 1.792267 10.601060
v 2.853765 108.519059 4.260446
v 9.195621 -5.603513 7.429667
v -6.657932 90.553003 4.260446
v 7.081669 -6.661678 -9.476465
v 9.195621 -7.719844 -4.191534
v -8.771884 -7.719844 5.316129
f 25 23 32 
f 2 3 7 
f 7 5 13 
f 13 5 15 
f 4 10 16 
f 10 6 16 
f 8 6 17 
f 7 3 18 
f 5 7 18 
f 2 7 19 
f 6 8 19 
f 14 6 19 
f 1 15 21 
f 15 11 21 
f 16 1 21 
f 4 16 21 
f 13 6 22 
f 7 13 22 
f 6 14 22 
f 19 7 22 
f 14 19 22 
f 9 12 23 
f 6 13 24 
f 15 1 24 
f 13 15 24 
f 1 16 24 
f 16 6 24 
f 8 17 25 
f 2 19 25 
f 19 8 25 
f 9 11 26 
f 12 9 26 
f 11 20 26 
f 20 12 26 
f 11 15 27 
f 15 5 27 
f 5 20 27 
f 20 11 27 
f 11 9 28 
f 4 21 28 
f 21 11 28 
f 23 4 28 
f 9 23 28 
f 3 12 29 
f 18 3 29 
f 5 18 29 
f 20 5 29 
f 12 20 29 
f 6 10 30 
f 17 6 30 
f 10 4 31 
f 4 23 31 
f 25 17 31 
f 23 25 31 
f 30 10 31 
f 17 30 31 
f 3 2 32 
f 12 3 32 
f 23 12 32 
f 2 25 32 
o convex_1
v -9.826429 126.496909 -11.592176
v 4.968027 110.645529 1.090087
v 3.910689 119.096060 0.033990
v -16.170457 124.381820 11.660157
v -7.711752 108.530439 -5.248768
v -4.545946 127.552489 10.601784
v 1.796013 128.611999 -7.363238
v 1.796013 108.530439 -8.419334
v -14.053712 128.611999 -9.477707
v -4.545946 108.530439 4.260653
v -5.601215 119.096060 11.660157
v -12.998443 128.611999 11.660157
v -15.113119 120.155571 11.660157
v 2.851282 108.530439 4.260653
v 4.968027 108.530439 -5.248768
v 1.796013 128.611999 -1.022106
v -5.601215 109.589950 -8.419334
v -6.656484 128.611999 -11.592176
v -2.431270 125.439364 9.545688
v -16.170457 122.266730 10.601784
v -7.711752 108.530439 1.090087
v 3.910689 121.211150 -6.307141
v -0.318663 128.611999 -9.477707
v -14.053712 127.552489 -9.477707
v -7.711752 128.611999 11.660157
v -15.113119 127.552489 11.660157
v -4.545946 120.155571 11.660157
v -14.053712 119.096060 11.660157
v -11.941105 127.552489 -11.592176
v -2.431270 112.760619 -9.477707
v 2.851282 126.496909 -2.078203
v -0.318663 124.381820 6.375122
f 63 48 64 
f 37 40 42 
f 39 41 44 
f 36 43 44 
f 43 36 45 
f 42 40 46 
f 43 42 46 
f 34 46 47 
f 46 40 47 
f 39 44 48 
f 40 37 49 
f 41 39 50 
f 46 34 51 
f 48 38 51 
f 36 41 52 
f 37 45 52 
f 45 36 52 
f 37 42 53 
f 45 37 53 
f 35 34 54 
f 34 47 54 
f 47 40 54 
f 40 50 55 
f 50 39 55 
f 39 54 55 
f 54 40 55 
f 49 37 56 
f 37 52 56 
f 52 41 56 
f 44 43 57 
f 38 48 57 
f 48 44 57 
f 41 36 58 
f 36 44 58 
f 44 41 58 
f 43 46 59 
f 51 38 59 
f 46 51 59 
f 38 57 59 
f 57 43 59 
f 42 43 60 
f 43 45 60 
f 53 42 60 
f 45 53 60 
f 50 33 61 
f 41 50 61 
f 56 41 61 
f 49 56 61 
f 40 49 62 
f 33 50 62 
f 50 40 62 
f 61 33 62 
f 49 61 62 
f 39 48 63 
f 35 54 63 
f 54 39 63 
f 34 35 64 
f 51 34 64 
f 48 51 64 
f 35 63 64 
o convex_2
v -25.681637 128.611586 37.022820
v -4.544290 125.440606 12.720599
v -4.544290 120.157019 12.720599
v -16.167767 121.214358 11.660157
v -17.223657 122.270661 33.851841
v -13.000098 128.611586 11.660157
v -19.337608 129.668924 37.022820
v -22.511795 121.214358 31.738717
v -26.739699 129.668924 32.793986
v -14.060333 119.099681 20.117827
v -8.772194 128.611586 11.660157
v -15.116223 119.099681 11.660157
v -24.625747 123.327999 29.625592
v -16.167767 126.497944 11.660157
v -14.060333 125.440606 29.625592
v -6.658242 119.099681 11.660157
v -17.223657 120.157019 28.567737
v -6.658242 127.554247 13.775868
v -23.567685 126.497944 37.022820
v -11.946381 119.099681 20.117827
v -20.397843 128.611586 38.083262
v -25.681637 125.440606 33.851841
v -20.397843 129.668924 30.680861
v -4.544290 125.440606 11.660157
v -14.060333 121.214358 28.567737
v -22.511795 121.214358 27.509882
v -25.681637 125.440606 30.680861
v -6.658242 125.440606 16.949434
v -23.567685 129.668924 38.083262
v -22.511795 122.270661 33.851841
v -19.337608 120.157019 27.509882
v -16.167767 127.554247 12.720599
f 78 73 96 
f 68 70 75 
f 68 75 76 
f 68 76 77 
f 70 68 78 
f 68 73 78 
f 71 69 79 
f 74 76 80 
f 76 75 80 
f 69 72 81 
f 71 66 82 
f 75 71 82 
f 80 67 84 
f 74 80 84 
f 81 74 84 
f 69 71 85 
f 83 69 85 
f 65 73 86 
f 77 72 86 
f 70 73 87 
f 73 71 87 
f 75 70 87 
f 71 75 87 
f 66 67 88 
f 67 80 88 
f 80 75 88 
f 82 66 88 
f 75 82 88 
f 67 79 89 
f 79 69 89 
f 69 81 89 
f 84 67 89 
f 81 84 89 
f 72 77 90 
f 77 76 90 
f 73 68 91 
f 68 77 91 
f 86 73 91 
f 77 86 91 
f 67 66 92 
f 66 71 92 
f 79 67 92 
f 71 79 92 
f 73 65 93 
f 71 73 93 
f 65 83 93 
f 85 71 93 
f 83 85 93 
f 72 69 94 
f 83 65 94 
f 69 83 94 
f 65 86 94 
f 86 72 94 
f 76 74 95 
f 81 72 95 
f 74 81 95 
f 72 90 95 
f 90 76 95 
f 73 70 96 
f 70 78 96 
o convex_3
v -32.021527 147.642429 40.198869
v -33.079899 184.619259 49.705911
v -33.079899 187.794066 48.650746
v -19.341229 131.791152 37.028097
v -21.456423 131.791152 31.741717
v -29.907885 151.869815 46.536897
v -35.195093 177.222755 44.423049
v -26.742078 129.674614 32.800400
v -35.195093 167.709713 47.593821
v -26.742078 129.674614 37.028097
v -32.021527 184.619259 45.479973
v -30.966258 168.767982 49.705911
v -21.456423 130.732883 39.141945
v -29.907885 176.164486 48.650746
v -25.683706 131.791152 31.741717
v -19.341229 130.732883 32.800400
v -33.079899 153.986353 45.479973
v -35.195093 184.619259 49.705911
v -30.966258 182.508410 45.479973
v -24.628437 142.356773 43.366125
v -27.794244 137.076807 41.252276
v -35.195093 183.566679 45.479973
v -34.136720 166.657133 48.650746
v -28.852616 136.018538 34.914248
v -35.195093 166.657133 44.423049
v -29.907885 138.129387 39.141945
v -19.341229 129.674614 37.028097
v -30.966258 182.508410 48.650746
v -22.514795 140.245925 41.252276
v -20.401154 129.674614 31.741717
v -25.683706 138.129387 42.309200
v -27.794244 151.869815 46.536897
f 127 116 128 
f 98 108 110 
f 107 101 111 
f 101 107 112 
f 98 99 114 
f 103 105 114 
f 108 98 114 
f 107 99 115 
f 100 112 115 
f 112 107 115 
f 106 109 117 
f 102 113 117 
f 99 107 118 
f 111 103 118 
f 107 111 118 
f 114 99 118 
f 103 114 118 
f 102 108 119 
f 113 102 119 
f 105 113 119 
f 114 105 119 
f 108 114 119 
f 111 104 120 
f 103 111 120 
f 105 103 121 
f 113 105 121 
f 97 113 121 
f 120 97 121 
f 103 120 121 
f 104 106 122 
f 113 97 122 
f 106 117 122 
f 117 113 122 
f 97 120 122 
f 120 104 122 
f 106 104 123 
f 109 106 123 
f 112 100 123 
f 99 98 124 
f 98 110 124 
f 110 100 124 
f 115 99 124 
f 100 115 124 
f 100 110 125 
f 116 109 125 
f 109 123 125 
f 123 100 125 
f 111 101 126 
f 104 111 126 
f 101 112 126 
f 123 104 126 
f 112 123 126 
f 109 116 127 
f 117 109 127 
f 102 117 127 
f 108 102 128 
f 110 108 128 
f 125 110 128 
f 116 125 128 
f 102 127 128 
o convex_4
v 2.855627 211.055088 18.004806
v 7.081048 229.015662 30.684793
v 6.024227 229.015662 30.684793
v -0.315766 217.396426 11.660157
v -0.315766 213.167488 22.226502
v 8.138800 229.015662 25.397896
v 2.855627 209.997853 11.660157
v 2.855627 227.960496 26.453785
v 6.024227 217.396426 25.397896
v -1.373518 208.940619 11.660157
v -1.373518 216.339192 20.118447
v 2.855627 217.396426 27.513399
v 2.855627 216.339192 11.660157
v 3.909655 229.015662 23.284254
v -1.373518 216.339192 11.660157
v 3.909655 229.015662 29.627041
v 3.909655 215.281957 26.453785
v 8.138800 225.846027 25.397896
v 0.741055 207.881315 12.717909
v 7.081048 223.731558 29.627041
v 6.024227 229.015662 23.284254
v 0.741055 217.396426 25.397896
v 8.138800 226.903261 29.627041
v -1.373518 211.055088 16.947054
v 0.741055 213.167488 23.284254
v 1.797876 217.396426 11.660157
v -0.315766 207.881315 12.717909
v 2.855627 209.997853 14.831550
v 2.855627 212.112323 21.172475
v 2.855627 227.960496 24.340144
v 0.741055 219.504689 25.397896
v 4.967407 215.281957 24.340144
f 145 157 160 
f 131 130 134 
f 132 135 138 
f 135 132 141 
f 134 135 141 
f 131 134 142 
f 132 138 143 
f 139 136 143 
f 138 139 143 
f 142 132 143 
f 136 139 144 
f 140 131 144 
f 131 142 144 
f 142 136 144 
f 135 134 146 
f 137 135 146 
f 138 135 147 
f 130 131 148 
f 131 140 148 
f 145 137 148 
f 140 145 148 
f 134 141 149 
f 142 134 149 
f 132 142 149 
f 139 133 150 
f 140 144 150 
f 134 130 151 
f 146 134 151 
f 137 146 151 
f 130 148 151 
f 148 137 151 
f 133 139 152 
f 139 138 152 
f 145 140 153 
f 150 133 153 
f 140 150 153 
f 141 132 154 
f 132 149 154 
f 149 141 154 
f 138 147 155 
f 133 152 155 
f 152 138 155 
f 147 153 155 
f 153 133 155 
f 135 137 156 
f 129 147 156 
f 147 135 156 
f 147 129 157 
f 153 147 157 
f 145 153 157 
f 136 142 158 
f 143 136 158 
f 142 143 158 
f 144 139 159 
f 139 150 159 
f 150 144 159 
f 137 145 160 
f 129 156 160 
f 156 137 160 
f 157 129 160 
o convex_5
v 9.195621 233.254945 27.514641
v 10.252235 277.628796 38.083262
v 7.082393 277.628796 38.083262
v 9.195621 274.459575 31.740475
v 3.911103 233.254945 24.343247
v 4.968441 230.085724 30.686034
v 11.309573 264.947154 37.024786
v 6.025055 276.572389 33.853393
v 11.309573 267.064726 31.740475
v 7.082393 233.254945 24.343247
v 3.911103 229.024558 29.630248
v 8.138283 230.085724 30.686034
v 9.195621 269.177540 38.083262
v 8.138283 229.024558 25.400379
v 11.309573 276.572389 33.853393
v 11.309573 256.495898 33.853393
v 7.082393 274.459575 31.740475
v 9.195621 243.823773 33.853393
v 6.025055 276.572389 35.969000
v 3.911103 229.024558 24.343247
v 3.911103 237.480573 28.573117
v 10.252235 242.767366 28.573117
v 10.252235 243.823773 32.797607
v 7.082393 273.403168 38.083262
v 11.309573 276.572389 38.083262
v 10.252235 277.628796 33.853393
v 7.082393 238.536980 32.797607
v 4.968441 234.311352 24.343247
v 7.082393 229.024558 30.686034
v 10.252235 272.346761 31.740475
v 8.138283 236.424166 25.400379
v 11.309573 256.495898 31.740475
f 176 182 192 
f 162 163 173 
f 161 172 174 
f 167 169 175 
f 169 167 176 
f 165 168 177 
f 167 173 178 
f 163 168 179 
f 165 170 180 
f 171 165 180 
f 170 174 180 
f 174 171 180 
f 168 165 181 
f 165 171 181 
f 179 168 181 
f 171 179 181 
f 161 174 182 
f 182 176 183 
f 172 161 183 
f 176 167 183 
f 178 172 183 
f 167 178 183 
f 161 182 183 
f 171 166 184 
f 173 163 184 
f 163 179 184 
f 179 171 184 
f 162 173 185 
f 173 167 185 
f 175 162 185 
f 167 175 185 
f 163 162 186 
f 168 163 186 
f 162 175 186 
f 175 164 186 
f 164 177 186 
f 177 168 186 
f 178 173 187 
f 184 166 187 
f 173 184 187 
f 164 170 188 
f 170 165 188 
f 177 164 188 
f 165 177 188 
f 166 171 189 
f 171 174 189 
f 174 172 189 
f 172 178 189 
f 187 166 189 
f 178 187 189 
f 170 164 190 
f 164 175 190 
f 175 169 190 
f 174 170 191 
f 169 182 191 
f 182 174 191 
f 170 190 191 
f 190 169 191 
f 169 176 192 
f 182 169 192 
o convex_6
v -52.104328 162.443609 -31.672908
v -44.707411 153.983664 -23.218342
v -44.707411 158.213636 -24.276094
v -51.047508 202.589350 -27.447487
v -46.821880 205.757329 -31.672908
v -44.707411 149.759691 -32.730660
v -52.104328 155.045657 -26.389736
v -52.104328 189.905432 -32.730660
v -46.821880 206.813322 -28.501515
v -53.161977 188.849438 -27.447487
v -46.821880 149.759691 -23.218342
v -47.878700 147.647705 -30.615156
v -51.047508 205.757329 -31.672908
v -44.707411 167.723575 -30.615156
v -49.990687 155.045657 -32.730660
v -48.934694 200.477363 -32.730660
v -44.707411 146.585712 -24.276094
v -53.161977 168.779568 -30.615156
v -49.990687 158.213636 -24.276094
v -53.161977 195.191397 -29.559267
v -47.878700 204.701336 -27.447487
v -48.934694 148.703698 -25.333846
v -52.104328 155.045657 -28.501515
v -53.161977 164.555595 -27.447487
v -53.161977 190.961425 -31.672908
v -52.104328 185.681459 -26.389736
v -46.821880 152.927671 -23.218342
v -48.934694 207.881315 -29.559267
v -52.104328 202.589350 -28.501515
v -44.707411 146.585712 -29.559267
v -46.821880 146.585712 -24.276094
v -52.104328 178.283507 -32.730660
f 210 217 224 
f 195 194 198 
f 194 195 201 
f 195 198 206 
f 198 197 206 
f 201 195 206 
f 197 201 206 
f 200 198 207 
f 198 204 207 
f 197 198 208 
f 198 200 208 
f 205 197 208 
f 200 205 208 
f 198 194 209 
f 194 203 209 
f 199 203 211 
f 210 202 212 
f 194 201 213 
f 203 199 214 
f 193 207 215 
f 207 204 215 
f 210 193 215 
f 214 199 215 
f 204 214 215 
f 199 202 216 
f 202 210 216 
f 210 215 216 
f 215 199 216 
f 205 200 217 
f 212 205 217 
f 210 212 217 
f 196 202 218 
f 202 199 218 
f 199 211 218 
f 218 211 219 
f 203 194 219 
f 211 203 219 
f 194 213 219 
f 213 196 219 
f 196 218 219 
f 201 197 220 
f 197 205 220 
f 196 213 220 
f 213 201 220 
f 202 196 221 
f 212 202 221 
f 205 212 221 
f 220 205 221 
f 196 220 221 
f 204 198 222 
f 198 209 222 
f 222 209 223 
f 209 203 223 
f 203 214 223 
f 214 204 223 
f 204 222 223 
f 207 193 224 
f 200 207 224 
f 193 210 224 
f 217 200 224 
o convex_7
v -36.249120 145.526925 -28.499239
v -25.682775 139.182380 -8.423679
v -26.740527 139.182380 -8.423679
v -44.707411 161.376650 -29.557405
v -44.707411 145.526925 -23.217515
v -25.682775 136.011400 -20.047570
v -25.682775 144.469070 -18.991680
v -44.707411 147.640049 -31.671460
v -44.707411 151.861125 -22.159349
v -27.798278 134.953545 -13.707680
v -25.682775 142.353359 -9.481845
v -43.649659 161.376650 -30.613294
v -41.536017 143.411214 -27.443349
v -44.707411 160.318795 -26.387460
v -26.740527 142.353359 -22.159349
v -41.536017 152.918980 -31.671460
v -25.682775 144.469070 -13.707680
v -26.740527 134.953545 -10.537735
v -29.913782 136.011400 -17.935790
v -42.591907 143.411214 -22.159349
v -26.740527 142.353359 -9.481845
v -36.249120 142.353359 -15.821735
v -43.649659 160.318795 -26.387460
v -37.308734 149.748001 -29.557405
v -42.591907 147.640049 -31.671460
v -44.707411 158.203084 -31.671460
v -25.682775 134.953545 -17.935790
v -44.707411 147.640049 -22.159349
v -44.707411 145.526925 -28.499239
v -28.854168 136.011400 -11.595900
v -25.682775 142.353359 -21.103459
v -26.740527 140.240235 -22.159349
f 239 255 256 
f 226 230 231 
f 229 228 232 
f 228 229 233 
f 227 226 235 
f 226 231 235 
f 232 230 237 
f 228 233 238 
f 235 231 241 
f 231 236 241 
f 226 227 242 
f 237 243 244 
f 243 234 244 
f 233 227 245 
f 227 235 245 
f 238 233 245 
f 229 244 246 
f 236 228 247 
f 228 238 247 
f 235 241 247 
f 241 236 247 
f 245 235 247 
f 238 245 247 
f 240 236 248 
f 240 248 249 
f 225 230 249 
f 230 232 249 
f 232 240 249 
f 248 225 249 
f 232 228 250 
f 228 236 250 
f 236 240 250 
f 240 232 250 
f 230 226 251 
f 237 230 251 
f 226 242 251 
f 242 234 251 
f 234 243 251 
f 243 237 251 
f 227 233 252 
f 233 229 252 
f 246 227 252 
f 229 246 252 
f 229 232 253 
f 232 237 253 
f 237 244 253 
f 244 229 253 
f 242 227 254 
f 234 242 254 
f 244 234 254 
f 227 246 254 
f 246 244 254 
f 231 230 255 
f 236 231 255 
f 239 248 255 
f 248 236 255 
f 230 225 256 
f 225 248 256 
f 248 239 256 
f 255 230 256 
o convex_8
v -0.317007 128.613551 2.144114
v -25.682775 137.066462 -20.045293
v -25.682775 141.292918 -20.045293
v -2.433960 144.464311 -12.648065
v -25.682775 142.349531 -9.477500
v -0.317007 128.613551 -9.477500
v -2.433960 144.464311 -1.026451
v -14.054332 128.613551 -2.082548
v -7.716925 129.671717 3.202487
v -24.622954 132.841558 -13.704162
v 0.737434 144.464311 -9.477500
v -14.054332 128.613551 -12.648065
v -25.682775 143.406145 -18.989197
v -25.682775 136.011400 -8.421403
v -8.776746 144.464311 -2.082548
v 1.797255 129.671717 -1.026451
v -23.568512 138.123076 -20.045293
v -24.622954 139.179690 -7.367583
v 1.797255 128.613551 -7.367583
v 0.737434 143.406145 -4.197017
v -3.491091 130.728330 -11.591969
v -25.682775 134.954786 -18.989197
v -5.602663 128.613551 -11.591969
v -1.374139 129.671717 3.202487
v -25.682775 143.406145 -11.591969
v -12.994511 144.464311 -10.533596
v -25.682775 133.898172 -10.533596
v -16.168595 128.613551 -6.311486
v -7.716925 128.613551 3.202487
v -23.568512 136.011400 -6.311486
v -1.374139 138.123076 -11.591969
v 1.797255 133.898172 -7.367583
f 276 272 288 
f 259 258 261 
f 262 257 264 
f 260 263 267 
f 262 264 268 
f 260 259 269 
f 259 261 269 
f 261 258 270 
f 263 260 271 
f 265 263 271 
f 258 259 273 
f 259 260 273 
f 261 270 274 
f 265 271 274 
f 271 261 274 
f 257 262 275 
f 272 257 275 
f 267 263 276 
f 268 266 278 
f 270 258 278 
f 262 268 279 
f 258 273 279 
f 277 262 279 
f 273 277 279 
f 268 278 279 
f 278 258 279 
f 263 265 280 
f 257 272 280 
f 276 263 280 
f 272 276 280 
f 269 261 281 
f 261 271 281 
f 281 271 282 
f 260 269 282 
f 271 260 282 
f 269 281 282 
f 264 270 283 
f 278 266 283 
f 270 278 283 
f 268 264 284 
f 266 268 284 
f 264 283 284 
f 283 266 284 
f 264 257 285 
f 257 280 285 
f 280 265 285 
f 270 264 286 
f 274 270 286 
f 265 274 286 
f 264 285 286 
f 285 265 286 
f 260 267 287 
f 273 260 287 
f 275 262 287 
f 267 275 287 
f 262 277 287 
f 277 273 287 
f 275 267 288 
f 272 275 288 
f 267 276 288 
o convex_9
v -8.771987 155.038208 -14.761604
v -2.430442 145.526718 -1.022934
v -0.317421 146.583952 -3.138127
v -3.489435 181.454589 -5.251769
v -11.942760 144.465863 -4.194948
v -11.942760 181.454589 -14.761604
v -1.373932 181.454589 -13.703231
v -2.430442 144.465863 -12.647962
v -10.885008 179.340120 -6.308589
v -11.942760 146.583952 -11.591141
v -5.601215 180.397354 -16.876797
v 0.740331 144.465863 -9.477500
v -1.373932 181.454589 -7.366962
v -8.771987 181.454589 -5.251769
v -8.771987 147.641187 -2.081306
v -9.827256 177.225651 -16.876797
v -8.771987 144.465863 -13.703231
v -11.942760 180.397354 -7.366962
v -0.317421 168.771395 -12.647962
v 0.740331 144.465863 -6.308589
v -3.489435 172.996713 -15.818424
v -4.544704 144.465863 -1.022934
v -3.489435 176.168416 -4.194948
v -5.601215 145.526718 -13.703231
v -9.827256 181.454589 -16.876797
v -0.317421 151.870125 -11.591141
v -11.942760 148.698421 -4.194948
v 0.740331 146.583952 -6.308589
v -11.942760 144.465863 -10.534321
v -5.601215 176.168416 -4.194948
v -0.317421 169.828630 -10.534321
v -9.827256 177.225651 -5.251769
f 315 303 320 
f 294 292 295 
f 293 294 298 
f 293 296 300 
f 295 292 301 
f 292 294 302 
f 298 294 304 
f 296 293 305 
f 304 289 305 
f 298 304 305 
f 294 293 306 
f 302 294 306 
f 297 302 306 
f 291 290 308 
f 293 300 308 
f 299 295 309 
f 295 307 309 
f 302 303 310 
f 303 293 310 
f 308 290 310 
f 293 308 310 
f 290 291 311 
f 291 301 311 
f 301 292 311 
f 292 302 311 
f 289 304 312 
f 304 299 312 
f 296 305 312 
f 305 289 312 
f 299 309 312 
f 309 296 312 
f 294 295 313 
f 295 299 313 
f 304 294 313 
f 299 304 313 
f 300 296 314 
f 307 300 314 
f 296 309 314 
f 309 307 314 
f 293 303 315 
f 306 293 315 
f 297 306 315 
f 301 291 316 
f 300 307 316 
f 291 308 316 
f 308 300 316 
f 293 298 317 
f 305 293 317 
f 298 305 317 
f 310 290 318 
f 302 310 318 
f 290 311 318 
f 311 302 318 
f 295 301 319 
f 307 295 319 
f 301 316 319 
f 316 307 319 
f 302 297 320 
f 303 302 320 
f 297 315 320 
o convex_10
v -10.886663 266.005319 -16.878762
v -24.625851 286.087914 -23.216894
v -22.509105 281.864252 -24.273921
v -14.056608 218.450558 -12.650652
v -7.716718 218.450558 -21.102839
v -4.544704 220.573407 -11.593624
v -22.509105 286.087914 -17.931756
v -7.716718 251.226175 -21.102839
v -14.056608 218.450558 -18.988783
v -19.341229 289.253824 -24.273921
v -8.774056 223.739317 -10.535252
v -3.487366 218.450558 -17.931756
v -16.167146 279.741402 -16.878762
v -5.604111 238.533152 -13.707679
v -15.111877 275.517740 -24.273921
v -11.946071 218.450558 -21.102839
v -11.946071 218.450558 -10.535252
v -14.056608 278.683650 -22.159866
v -7.716718 243.829257 -12.650652
v -21.453836 293.492177 -21.102839
v -18.281822 267.063071 -24.273921
v -23.568512 282.922003 -18.988783
v -5.604111 242.771505 -18.988783
v -8.774056 259.658808 -16.878762
v -6.659380 221.623813 -21.102839
v -17.226553 287.145665 -20.045811
v -3.487366 218.450558 -13.707679
v -9.831395 263.889815 -21.102839
v -23.568512 293.492177 -22.159866
v -5.604111 218.450558 -10.535252
v -24.625851 286.087914 -21.102839
v -8.774056 235.367242 -11.593624
f 350 339 352 
f 325 324 329 
f 323 322 330 
f 324 325 332 
f 323 330 335 
f 322 323 336 
f 329 322 336 
f 325 329 336 
f 331 327 337 
f 324 332 337 
f 335 330 338 
f 321 333 339 
f 326 334 339 
f 327 333 340 
f 323 335 341 
f 335 325 341 
f 336 323 341 
f 325 336 341 
f 324 337 342 
f 337 327 342 
f 332 328 343 
f 321 339 344 
f 339 334 344 
f 334 343 344 
f 332 325 345 
f 328 332 345 
f 325 335 345 
f 335 328 345 
f 333 321 346 
f 338 330 346 
f 330 340 346 
f 340 333 346 
f 321 344 346 
f 344 338 346 
f 334 326 347 
f 337 332 347 
f 332 343 347 
f 343 334 347 
f 328 335 348 
f 335 338 348 
f 343 328 348 
f 338 344 348 
f 344 343 348 
f 330 322 349 
f 327 340 349 
f 340 330 349 
f 331 337 350 
f 326 339 350 
f 347 326 350 
f 337 347 350 
f 322 329 351 
f 329 324 351 
f 324 342 351 
f 342 327 351 
f 349 322 351 
f 327 349 351 
f 327 331 352 
f 333 327 352 
f 339 333 352 
f 331 350 352 
o convex_11
v -10.883042 189.920535 -17.932893
v 0.738882 212.106529 -4.193706
v -1.374759 212.106529 -4.193706
v -11.941415 218.450558 -21.104494
v 0.738882 201.536770 -14.762949
v -9.827773 181.458210 -6.309210
v -14.056608 218.450558 -12.649100
v -1.374759 181.458210 -14.762949
v -5.602042 218.450558 -20.046742
v -1.374759 181.458210 -7.366962
v -12.996684 182.515548 -10.535252
v -4.545222 181.458210 -16.873486
v 1.797255 203.651446 -4.193706
v -14.056608 206.819839 -17.932893
v -4.545222 203.651446 -4.193706
v 1.797255 208.934515 -10.535252
v -3.488401 218.450558 -12.649100
v -5.602042 205.766122 -20.046742
v -3.488401 181.458210 -5.251458
v -11.941415 181.458210 -14.762949
v -11.941415 218.450558 -10.535252
v -10.883042 201.536770 -20.046742
v -10.883042 193.088929 -7.366962
v -3.488401 218.450558 -17.932893
v -14.056608 200.479432 -11.593004
v 1.797255 202.594108 -9.480810
v -2.431580 201.536770 -17.932893
v -14.056608 218.450558 -18.988990
v -9.827773 181.458210 -16.873486
v -2.431580 214.221205 -17.932893
v 1.797255 211.045570 -6.309210
v -12.996684 195.199984 -9.480810
f 377 363 384 
f 356 359 361 
f 358 360 362 
f 360 358 364 
f 354 355 365 
f 365 355 367 
f 361 359 369 
f 356 361 370 
f 358 362 371 
f 362 365 371 
f 367 358 371 
f 365 367 371 
f 358 363 372 
f 364 358 372 
f 366 353 372 
f 363 366 372 
f 355 354 373 
f 367 355 373 
f 354 369 373 
f 369 359 373 
f 353 366 374 
f 366 356 374 
f 356 370 374 
f 370 364 374 
f 358 367 375 
f 367 373 375 
f 361 369 376 
f 359 366 377 
f 366 363 377 
f 360 357 378 
f 362 360 378 
f 365 362 378 
f 357 368 378 
f 368 365 378 
f 357 360 379 
f 360 364 379 
f 370 361 379 
f 364 370 379 
f 359 356 380 
f 356 366 380 
f 366 359 380 
f 372 353 381 
f 364 372 381 
f 353 374 381 
f 374 364 381 
f 368 357 382 
f 361 376 382 
f 376 368 382 
f 357 379 382 
f 379 361 382 
f 354 365 383 
f 365 368 383 
f 369 354 383 
f 368 376 383 
f 376 369 383 
f 363 358 384 
f 373 359 384 
f 358 375 384 
f 375 373 384 
f 359 377 384 
o convex_12
v -0.316594 200.482846 -4.193706
v 1.797048 217.390323 11.660157
v -0.316594 217.390323 11.660157
v -1.373104 212.107047 -4.193706
v -2.430235 207.883074 8.486591
v 2.854179 209.993405 11.660157
v 1.797048 212.107047 -4.193706
v -3.487366 208.937412 -4.193706
v -3.487366 200.482846 -3.135334
v -1.373104 207.883074 11.660157
v 1.797048 203.655791 -4.193706
v -2.430235 213.163040 10.600232
v 0.739917 205.769432 8.486591
v 2.854179 214.220688 6.374501
v 2.854179 207.883074 2.148770
v -1.373104 216.334330 9.544963
v 1.797048 204.713439 3.205591
v -0.316594 213.163040 -3.135334
v 2.854179 216.334330 10.600232
v -2.430235 200.482846 -2.078513
v 1.797048 207.883074 11.660157
v 0.739917 201.542149 -2.078513
v -3.487366 200.482846 -4.193706
v 1.797048 217.390323 10.600232
v -3.487366 203.655791 -1.021692
v -2.430235 212.107047 -1.021692
v -1.373104 205.769432 8.486591
v -0.316594 217.390323 10.600232
v -1.373104 200.482846 -2.078513
v -1.373104 216.334330 11.660157
v 0.739917 213.163040 -3.135334
v -2.430235 211.049398 10.600232
f 396 409 416 
f 386 387 390 
f 385 388 391 
f 388 385 392 
f 390 387 394 
f 389 393 394 
f 385 391 395 
f 395 391 399 
f 398 390 399 
f 391 398 399 
f 392 396 400 
f 399 390 401 
f 395 399 401 
f 391 388 402 
f 386 390 403 
f 390 398 403 
f 398 391 403 
f 393 385 404 
f 390 394 405 
f 394 397 405 
f 401 390 405 
f 401 405 406 
f 385 395 406 
f 395 401 406 
f 405 397 406 
f 392 385 407 
f 393 392 407 
f 385 393 407 
f 387 386 408 
f 386 403 408 
f 403 391 408 
f 392 393 409 
f 396 392 409 
f 388 392 410 
f 400 388 410 
f 392 400 410 
f 394 393 411 
f 397 394 411 
f 393 404 411 
f 404 397 411 
f 400 387 412 
f 388 400 412 
f 402 388 412 
f 387 408 412 
f 408 402 412 
f 404 385 413 
f 397 404 413 
f 385 406 413 
f 406 397 413 
f 394 387 414 
f 396 394 414 
f 387 400 414 
f 400 396 414 
f 391 402 415 
f 402 408 415 
f 408 391 415 
f 393 389 416 
f 389 394 416 
f 394 396 416 
f 409 393 416 
