o convex_0
v 8.113679 63.758318 1.532385
v -11.388077 -6.653375 -3.882047
v -11.388077 -6.653375 5.866604
v 11.365456 -6.653375 4.784163
v 5.946570 -6.653375 -10.383374
v -2.719640 68.093172 -10.383374
v -4.886749 68.093172 3.699495
v 5.946570 -5.569662 11.285490
v 9.198347 60.507177 -7.133824
v -5.969190 -6.653375 -11.468042
v -4.886749 -6.653375 11.285490
v -7.053858 59.423463 -6.049156
v 4.864129 68.093172 4.784163
v 11.365456 -6.653375 -6.049156
v 4.864129 65.925745 -10.383374
v -3.802081 41.007755 8.033713
v -9.220967 35.589187 3.699495
v 4.864129 43.175182 8.033713
v 4.864129 -7.737089 9.118381
v 8.113679 68.093172 -7.133824
v 1.612351 -5.569662 -11.468042
v -4.886749 -7.737089 -9.300933
v -5.969190 68.093172 2.617054
v -2.719640 61.590890 5.866604
v 9.198347 45.342609 2.617054
v -9.220967 -7.737089 4.784163
v 9.198347 -7.737089 -4.966715
v -8.136299 39.924041 4.784163
v -4.886749 68.093172 -8.216265
v -10.303408 -5.569662 -6.049156
v -3.802081 60.507177 -10.383374
v 1.612351 30.178042 9.118381
f 18 16 32 
f 6 7 13 
f 9 4 14 
f 5 9 14 
f 9 5 15 
f 2 3 17 
f 12 2 17 
f 1 13 18 
f 4 8 19 
f 8 11 19 
f 1 9 20 
f 6 13 20 
f 13 1 20 
f 9 15 20 
f 15 6 20 
f 5 10 21 
f 10 6 21 
f 15 5 21 
f 6 15 21 
f 2 10 22 
f 10 5 22 
f 7 6 23 
f 12 17 23 
f 13 7 24 
f 7 16 24 
f 18 13 24 
f 16 18 24 
f 8 4 25 
f 9 1 25 
f 4 9 25 
f 1 18 25 
f 18 8 25 
f 3 2 26 
f 11 3 26 
f 19 11 26 
f 2 22 26 
f 22 19 26 
f 14 4 27 
f 5 14 27 
f 4 19 27 
f 22 5 27 
f 19 22 27 
f 3 11 28 
f 16 7 28 
f 11 16 28 
f 17 3 28 
f 7 23 28 
f 23 17 28 
f 23 6 29 
f 12 23 29 
f 10 2 30 
f 2 12 30 
f 6 10 31 
f 29 6 31 
f 12 29 31 
f 10 30 31 
f 30 12 31 
f 11 8 32 
f 16 11 32 
f 8 18 32 
o convex_1
v 5.946251 103.852648 -2.797484
v -9.221073 114.681830 -1.715680
v -9.221073 114.681830 -0.633875
v -5.969720 68.100596 2.616311
v -3.802717 68.100596 -9.301039
v 3.780945 70.276932 5.866498
v 8.114951 68.100596 -7.132657
v 0.527895 116.858166 -9.301039
v -3.802717 116.858166 4.783102
v 2.696595 116.858166 2.616311
v -4.885370 116.858166 -9.301039
v 8.114951 69.188764 1.532916
v 3.780945 89.773279 6.951484
v -3.802717 80.027492 5.866498
v 4.863598 115.769998 -6.047671
v -5.969720 68.100596 -6.047671
v 4.863598 68.100596 -9.301039
v -9.221073 116.858166 1.532916
v -8.136723 116.858166 -6.047671
v 7.030601 88.694656 2.616311
v -7.052373 76.772533 2.616311
v -5.969720 116.858166 4.783102
v 4.863598 113.603207 0.447929
v -3.802717 68.100596 4.783102
v 8.114951 76.772533 -4.965866
v -7.052373 85.439697 3.698116
v 0.527895 88.694656 6.951484
v 4.863598 68.100596 4.783102
v 1.613942 111.436416 4.783102
v -2.716670 71.355555 5.866498
v 3.780945 116.858166 -7.132657
v -7.052373 77.855928 -1.715680
f 48 53 64 
f 36 37 39 
f 40 41 42 
f 40 37 43 
f 41 40 43 
f 37 36 48 
f 39 37 49 
f 37 40 49 
f 34 35 50 
f 41 43 50 
f 43 37 51 
f 48 34 51 
f 37 48 51 
f 34 50 51 
f 50 43 51 
f 45 44 52 
f 35 34 53 
f 48 36 53 
f 50 35 53 
f 45 41 54 
f 41 50 54 
f 42 45 55 
f 33 47 55 
f 47 42 55 
f 52 33 55 
f 45 52 55 
f 36 39 56 
f 53 36 56 
f 44 39 57 
f 47 33 57 
f 39 47 57 
f 33 52 57 
f 52 44 57 
f 50 53 58 
f 54 50 58 
f 46 54 58 
f 56 46 58 
f 53 56 58 
f 38 45 59 
f 45 54 59 
f 54 46 59 
f 39 44 60 
f 44 45 60 
f 45 38 60 
f 56 39 60 
f 38 56 60 
f 42 41 61 
f 45 42 61 
f 41 45 61 
f 56 38 62 
f 46 56 62 
f 38 59 62 
f 59 46 62 
f 40 42 63 
f 47 39 63 
f 42 47 63 
f 39 49 63 
f 49 40 63 
f 34 48 64 
f 53 34 64 
o convex_2
v -24.389247 123.360024 28.618227
v -4.887067 125.525330 13.454403
v -5.970993 125.525330 15.620663
v -26.557098 129.858064 31.871596
v -15.722083 126.609044 11.285490
v -14.642399 119.026230 11.285490
v -17.885692 122.276310 34.037856
v -18.969618 129.858064 36.204117
v -9.224892 128.775411 11.285490
v -4.887067 120.109943 11.285490
v -21.139591 121.193657 32.953400
v -25.473173 128.775411 37.288573
v -12.474548 119.026230 19.958488
v -12.474548 121.193657 26.451967
v -16.801766 122.276310 12.369946
v -23.303200 121.193657 30.787140
v -5.970993 127.691697 12.369946
v -12.474548 128.775411 11.285490
v -16.801766 126.609044 34.037856
v -21.139591 128.775411 38.373029
v -25.473173 125.525330 35.122313
v -7.057040 119.026230 13.454403
v -4.887067 121.193657 13.454403
v -16.801766 120.109943 28.618227
v -15.722083 119.026230 13.454403
v -26.557098 129.858064 36.204117
v -26.557098 127.691697 31.871596
v -18.969618 120.109943 28.618227
v -4.887067 126.609044 11.285490
v -22.219274 126.609044 37.288573
v -17.885692 123.360024 35.122313
v -21.139591 129.858064 30.787140
f 73 82 96 
f 67 66 72 
f 70 69 73 
f 70 73 74 
f 68 69 79 
f 69 70 79 
f 72 66 81 
f 73 72 81 
f 69 68 82 
f 73 69 82 
f 67 72 83 
f 78 67 83 
f 65 80 85 
f 80 75 85 
f 70 74 86 
f 77 70 86 
f 78 86 87 
f 66 67 87 
f 74 66 87 
f 67 78 87 
f 86 74 87 
f 71 75 88 
f 78 71 88 
f 77 86 88 
f 86 78 88 
f 70 77 89 
f 65 79 89 
f 79 70 89 
f 80 65 89 
f 72 68 90 
f 84 72 90 
f 76 84 90 
f 85 76 90 
f 85 90 91 
f 79 65 91 
f 68 79 91 
f 65 85 91 
f 90 68 91 
f 75 80 92 
f 88 75 92 
f 77 88 92 
f 89 77 92 
f 80 89 92 
f 66 74 93 
f 74 73 93 
f 81 66 93 
f 73 81 93 
f 84 76 94 
f 76 85 94 
f 85 75 94 
f 75 71 95 
f 71 78 95 
f 83 72 95 
f 78 83 95 
f 72 84 95 
f 94 75 95 
f 84 94 95 
f 68 72 96 
f 72 73 96 
f 82 68 96 
o convex_3
v -27.638161 130.950580 36.209420
v -33.056729 187.274526 49.208045
v -33.056729 187.274526 47.039345
v -18.972587 130.950580 36.209420
v -30.889938 153.702733 47.039345
v -24.391156 133.120128 31.872020
v -35.225111 165.607146 44.870645
v -23.307760 136.368830 41.622686
v -20.057574 130.950580 31.872020
v -30.889938 182.941050 49.208045
v -35.225111 181.861896 44.870645
v -26.559538 129.860185 31.872020
v -35.225111 174.274098 49.208045
v -28.721556 163.443218 48.121998
v -33.056729 151.538806 43.787992
v -30.889938 180.777122 44.870645
v -24.391156 129.860185 38.373029
v -18.972587 130.950580 32.958067
v -27.638161 137.453604 41.622686
v -31.971743 148.284483 39.457379
v -20.057574 130.950580 38.373029
v -30.889938 165.607146 49.208045
v -35.225111 186.195372 49.208045
v -27.638161 149.369257 45.956692
v -34.140124 164.527992 48.121998
v -18.972587 129.860185 32.958067
v -31.971743 181.861896 44.870645
v -28.721556 134.204902 38.373029
v -30.889938 182.941050 47.039345
v -33.056729 152.617959 44.870645
v -28.721556 167.776694 48.121998
v -26.559538 152.617959 45.956692
f 127 110 128 
f 99 98 106 
f 102 105 108 
f 107 102 108 
f 106 98 109 
f 107 103 109 
f 97 108 113 
f 106 100 114 
f 105 112 114 
f 113 104 115 
f 103 107 116 
f 108 97 116 
f 107 108 116 
f 111 103 116 
f 104 113 117 
f 106 109 118 
f 110 106 118 
f 98 99 119 
f 99 107 119 
f 109 98 119 
f 107 109 119 
f 101 115 120 
f 115 104 120 
f 118 101 120 
f 109 103 121 
f 101 118 121 
f 118 109 121 
f 108 105 122 
f 113 108 122 
f 114 100 122 
f 105 114 122 
f 100 117 122 
f 117 113 122 
f 105 102 123 
f 107 99 123 
f 102 107 123 
f 112 105 123 
f 99 112 123 
f 97 113 124 
f 113 115 124 
f 116 97 124 
f 111 116 124 
f 99 106 125 
f 112 99 125 
f 106 114 125 
f 114 112 125 
f 103 111 126 
f 115 101 126 
f 121 103 126 
f 101 121 126 
f 111 124 126 
f 124 115 126 
f 100 106 127 
f 106 110 127 
f 117 100 127 
f 117 127 128 
f 104 117 128 
f 110 118 128 
f 120 104 128 
f 118 120 128 
o convex_4
v -0.552213 207.872297 11.285490
v 7.030601 227.375325 29.705017
v 4.863810 227.375325 29.705017
v -0.552213 217.623811 11.285490
v -0.552213 213.292138 22.117961
v 2.697974 208.958556 11.285490
v 4.863810 215.457020 25.370586
v 8.114951 227.375325 25.370586
v 2.697974 227.375325 23.203371
v -1.636563 215.457020 18.872547
v 2.697974 216.541370 11.285490
v 2.697974 217.623811 27.537802
v 2.697974 227.375325 27.537802
v 8.114951 225.206625 28.621409
v 1.614578 208.958556 15.619921
v 5.947206 227.375325 23.203371
v -1.636563 208.958556 11.285490
v -1.636563 215.457020 11.285490
v 3.780415 213.292138 12.369098
v 0.531183 212.209697 22.117961
v 7.030601 224.124184 29.705017
v 7.030601 220.873043 25.370586
v 8.114951 225.206625 25.370586
v 3.780415 215.457020 26.452391
v 1.614578 223.037925 26.452391
v 5.947206 217.623811 26.452391
v 1.614578 217.623811 11.285490
v -1.636563 210.040997 14.536313
v 1.614578 216.541370 26.452391
v -0.552213 207.872297 12.369098
v 1.614578 207.872297 12.369098
v 4.863810 224.124184 29.705017
f 140 149 160 
f 129 132 134 
f 131 130 136 
f 131 136 137 
f 134 132 139 
f 131 137 141 
f 137 138 141 
f 140 131 141 
f 136 130 142 
f 132 137 144 
f 137 136 144 
f 136 139 144 
f 132 129 145 
f 145 138 146 
f 137 132 146 
f 138 137 146 
f 132 145 146 
f 134 139 147 
f 139 136 147 
f 130 131 149 
f 142 130 149 
f 136 142 151 
f 134 147 151 
f 147 136 151 
f 150 134 151 
f 142 150 151 
f 143 135 152 
f 148 143 152 
f 149 140 152 
f 138 133 153 
f 141 138 153 
f 140 141 153 
f 135 134 154 
f 142 149 154 
f 134 150 154 
f 150 142 154 
f 152 135 154 
f 149 152 154 
f 139 132 155 
f 132 144 155 
f 144 139 155 
f 133 138 156 
f 138 145 156 
f 148 133 156 
f 133 148 157 
f 152 140 157 
f 148 152 157 
f 153 133 157 
f 140 153 157 
f 145 129 158 
f 143 148 158 
f 156 145 158 
f 148 156 158 
f 129 134 159 
f 134 135 159 
f 135 143 159 
f 158 129 159 
f 143 158 159 
f 131 140 160 
f 149 131 160 
o convex_5
v 8.113679 227.375325 25.371859
v 9.198347 278.294913 38.373029
v 10.281530 278.294913 37.289104
v 5.948054 276.126744 32.954885
v 4.864871 230.635056 30.788518
v 3.780945 229.548479 23.204008
v 10.281530 273.958574 31.869475
v 11.365456 257.709763 35.121252
v 5.948054 277.208336 36.205178
v 8.113679 227.375325 29.707562
v 9.198347 263.122710 37.289104
v 3.780945 227.375325 28.622152
v 7.031980 275.040167 38.373029
v 11.365456 267.459050 31.869475
v 8.113679 237.134580 25.371859
v 11.365456 276.126744 38.373029
v 10.281530 243.634105 28.622152
v 3.780945 234.966411 29.707562
v 9.198347 244.715698 34.038811
v 7.031980 275.040167 31.869475
v 5.948054 227.375325 23.204008
v 9.198347 278.294913 34.038811
v 11.365456 276.126744 34.038811
v 9.198347 233.884818 30.788518
v 3.780945 236.048004 26.457270
v 5.948054 228.466886 30.788518
v 11.365456 265.290880 37.289104
v 8.113679 271.790405 38.373029
v 11.365456 257.709763 31.869475
v 4.864871 229.548479 23.204008
v 9.198347 233.884818 26.457270
v 3.780945 227.375325 23.204008
f 181 172 192 
f 161 170 172 
f 162 169 173 
f 167 174 175 
f 163 162 176 
f 162 173 176 
f 168 174 176 
f 166 172 178 
f 172 165 178 
f 173 169 178 
f 165 173 178 
f 166 164 180 
f 161 172 181 
f 162 163 182 
f 169 162 182 
f 164 169 182 
f 180 164 182 
f 167 180 182 
f 174 167 183 
f 163 176 183 
f 176 174 183 
f 182 163 183 
f 167 182 183 
f 170 161 184 
f 177 168 184 
f 179 170 184 
f 168 179 184 
f 164 166 185 
f 169 164 185 
f 166 178 185 
f 178 169 185 
f 165 172 186 
f 172 170 186 
f 170 179 186 
f 179 171 186 
f 168 176 187 
f 179 168 187 
f 171 179 187 
f 173 165 188 
f 176 173 188 
f 165 186 188 
f 186 171 188 
f 187 176 188 
f 171 187 188 
f 174 168 189 
f 168 177 189 
f 177 174 189 
f 167 175 190 
f 166 180 190 
f 180 167 190 
f 181 166 190 
f 175 181 190 
f 175 174 191 
f 174 177 191 
f 161 181 191 
f 181 175 191 
f 184 161 191 
f 177 184 191 
f 172 166 192 
f 166 181 192 
o convex_6
v -52.559439 168.873559 -32.052769
v -44.976625 155.875995 -23.386559
v -46.061823 155.875995 -23.386559
v -49.310631 207.872297 -28.803537
v -44.976625 148.282999 -32.052769
v -52.559439 158.040240 -26.638655
v -47.144476 205.702006 -32.052769
v -52.559439 198.109010 -27.721096
v -52.559439 195.944765 -32.052769
v -49.310631 154.787827 -33.138073
v -46.061823 146.112708 -24.470909
v -47.144476 204.619883 -27.721096
v -44.976625 168.873559 -30.969373
v -53.644637 187.275692 -27.721096
v -50.393284 160.204486 -24.470909
v -49.310631 149.365122 -29.885978
v -51.476786 180.782955 -33.138073
v -47.144476 161.292654 -33.138073
v -50.393284 193.780519 -26.638655
v -51.476786 154.787827 -30.969373
v -53.644637 169.961727 -28.803537
v -51.476786 202.449592 -32.052769
v -50.393284 151.535413 -25.555260
v -44.976625 147.200876 -23.386559
v -53.644637 188.363860 -29.885978
v -47.144476 207.872297 -28.803537
v -50.393284 205.702006 -27.721096
v -44.976625 167.785391 -27.721096
v -44.976625 162.368732 -32.052769
v -47.144476 149.365122 -23.386559
v -48.227130 148.282999 -30.969373
v -51.476786 204.619883 -30.969373
f 219 196 224 
f 194 197 205 
f 206 198 207 
f 200 206 207 
f 193 201 209 
f 202 193 209 
f 202 209 210 
f 197 202 210 
f 209 199 210 
f 195 194 211 
f 194 204 211 
f 207 195 211 
f 200 207 211 
f 193 202 212 
f 198 206 213 
f 193 212 213 
f 212 198 213 
f 199 209 214 
f 209 201 214 
f 207 198 215 
f 208 203 215 
f 198 212 215 
f 212 208 215 
f 194 195 216 
f 197 194 216 
f 203 197 216 
f 201 193 217 
f 200 201 217 
f 206 200 217 
f 193 213 217 
f 213 206 217 
f 199 196 218 
f 204 194 218 
f 205 199 218 
f 211 204 219 
f 200 211 219 
f 218 196 219 
f 204 218 219 
f 194 205 220 
f 218 194 220 
f 205 218 220 
f 205 197 221 
f 199 205 221 
f 197 210 221 
f 210 199 221 
f 195 207 222 
f 215 203 222 
f 207 215 222 
f 216 195 222 
f 203 216 222 
f 202 197 223 
f 197 203 223 
f 203 208 223 
f 212 202 223 
f 208 212 223 
f 196 199 224 
f 201 200 224 
f 199 214 224 
f 214 201 224 
f 200 219 224 
o convex_7
v -39.557314 145.032388 -29.886932
v -25.475506 138.531591 -8.217538
v -25.475506 141.781989 -9.302524
v -44.974716 151.527883 -22.299028
v -43.890472 161.279079 -30.969586
v -25.475506 141.781989 -21.218708
v -26.559750 134.194191 -12.552817
v -44.974716 145.032388 -24.466667
v -25.475506 135.281192 -19.053402
v -44.974716 159.110379 -25.551654
v -44.974716 146.116738 -29.886932
v -25.475506 143.948038 -12.552817
v -26.559750 137.447241 -8.217538
v -42.806228 154.778281 -32.054572
v -26.559750 145.032388 -20.136055
v -39.557314 141.781989 -25.551654
v -43.890472 161.279079 -27.719293
v -44.974716 148.277484 -32.054572
v -44.974716 147.198437 -22.299028
v -34.143730 138.531591 -15.805442
v -36.306491 149.359183 -28.801946
v -26.559750 141.781989 -9.302524
v -28.726329 135.281192 -17.973082
v -44.974716 161.279079 -30.969586
v -25.475506 139.615941 -21.218708
v -26.559750 135.281192 -9.302524
v -38.473070 146.116738 -29.886932
v -26.559750 137.447241 -21.218708
v -25.475506 134.194191 -12.552817
v -44.974716 154.778281 -23.386347
v -41.723893 142.866339 -24.466667
v -42.806228 149.359183 -32.054572
f 238 251 256 
f 227 226 230 
f 230 226 233 
f 232 228 234 
f 232 234 235 
f 227 230 236 
f 230 229 239 
f 236 230 239 
f 225 233 240 
f 235 225 240 
f 234 227 241 
f 227 236 241 
f 239 229 241 
f 236 239 241 
f 235 234 242 
f 225 235 242 
f 228 232 243 
f 237 228 243 
f 243 232 244 
f 229 230 245 
f 238 229 245 
f 226 227 246 
f 227 234 246 
f 237 226 246 
f 228 237 246 
f 233 231 247 
f 240 233 247 
f 231 244 247 
f 229 238 248 
f 234 241 248 
f 241 229 248 
f 242 234 248 
f 238 242 248 
f 230 233 249 
f 245 230 249 
f 226 237 250 
f 237 243 250 
f 243 244 250 
f 244 231 250 
f 238 245 251 
f 245 249 251 
f 251 249 252 
f 233 225 252 
f 249 233 252 
f 225 251 252 
f 231 233 253 
f 233 226 253 
f 226 250 253 
f 250 231 253 
f 234 228 254 
f 246 234 254 
f 228 246 254 
f 232 235 255 
f 235 240 255 
f 244 232 255 
f 240 247 255 
f 247 244 255 
f 225 242 256 
f 242 238 256 
f 251 225 256 
o convex_8
v -16.805584 129.860185 -7.133612
v 3.780945 119.026866 0.449626
v 3.780945 116.858166 0.449626
v -15.721446 121.194294 11.285490
v -5.972266 127.691485 11.285490
v 1.612669 129.860185 -7.133612
v -4.890143 116.858166 -9.298918
v -14.637309 128.774562 -12.551544
v -12.471048 128.774562 11.285490
v -7.052373 117.942516 10.198171
v 0.528531 116.858166 -9.298918
v -9.220649 116.858166 -2.798333
v 1.612669 129.860185 -0.633027
v -4.890143 129.860185 -11.464224
v -3.803990 125.524057 11.285490
v -16.805584 128.774562 -10.383904
v 3.780945 122.276098 -6.048625
v -3.803990 120.109944 11.285490
v -15.721446 125.524057 11.285490
v -13.553171 119.026866 11.285490
v -7.052373 116.858166 4.782572
v -0.553591 129.860185 2.617266
v 3.780945 116.858166 -6.048625
v -1.637729 129.860185 -10.383904
v -9.220649 129.860185 -12.551544
v 2.696807 116.858166 2.617266
v -8.134496 116.858166 -6.048625
v -8.134496 129.860185 2.617266
v 0.528531 124.442253 4.782572
v -14.637309 127.691485 11.285490
v -13.553171 119.026866 8.032865
v 2.696807 126.609680 -0.633027
f 269 285 288 
f 260 261 265 
f 259 263 267 
f 263 264 267 
f 263 259 268 
f 262 257 269 
f 257 262 270 
f 261 260 271 
f 260 257 272 
f 264 263 272 
f 257 264 272 
f 258 259 273 
f 271 260 274 
f 257 260 275 
f 260 265 275 
f 274 260 276 
f 266 274 276 
f 268 259 277 
f 276 268 277 
f 266 276 277 
f 265 261 278 
f 269 257 278 
f 261 271 278 
f 271 269 278 
f 259 267 279 
f 273 259 279 
f 267 273 279 
f 270 262 280 
f 267 270 280 
f 273 267 280 
f 262 273 280 
f 264 257 281 
f 267 264 281 
f 257 270 281 
f 270 267 281 
f 259 258 282 
f 274 266 282 
f 271 274 282 
f 277 259 282 
f 266 277 282 
f 263 268 283 
f 272 263 283 
f 268 272 283 
f 257 265 284 
f 278 257 284 
f 265 278 284 
f 269 271 285 
f 282 258 285 
f 271 282 285 
f 265 257 286 
f 257 275 286 
f 275 265 286 
f 260 272 287 
f 272 268 287 
f 276 260 287 
f 268 276 287 
f 262 269 288 
f 258 273 288 
f 273 262 288 
f 285 258 288 
o convex_9
v -9.224255 262.038149 -17.966400
v -24.390095 284.790939 -23.386347
v -24.390095 284.790939 -20.133828
v -14.636884 217.631235 -13.637061
v -8.138102 218.715055 -21.217541
v -5.971841 221.966514 -10.384541
v -15.719007 277.204201 -24.470061
v -22.219804 286.958578 -17.966400
v -3.803566 217.631235 -19.050114
v -12.474654 218.715055 -21.217541
v -11.388501 217.631235 -10.384541
v -17.885268 288.042398 -19.050114
v -5.971841 244.719304 -20.133828
v -5.971841 244.719304 -14.720774
v -8.138102 243.635484 -12.553347
v -22.219804 289.126218 -24.470061
v -14.636884 218.715055 -17.966400
v -18.969406 269.624887 -24.470061
v -3.803566 217.631235 -12.553347
v -13.556777 277.204201 -22.301255
v -21.137682 292.377677 -23.386347
v -9.224255 252.306042 -22.301255
v -15.719007 278.288021 -16.888202
v -24.390095 292.377677 -21.217541
v -9.224255 223.050334 -10.384541
v -3.803566 225.217973 -17.966400
v -13.556777 276.120381 -17.966400
v -9.224255 260.954329 -21.217541
v -7.055979 221.966514 -21.217541
v -18.969406 288.042398 -24.470061
v -23.305957 279.371841 -19.050114
v -11.388501 217.631235 -21.217541
f 298 306 320 
f 291 290 292 
f 292 297 299 
f 301 289 302 
f 294 302 303 
f 292 290 305 
f 290 298 305 
f 295 293 306 
f 298 290 306 
f 290 304 306 
f 304 295 306 
f 294 299 307 
f 299 297 307 
f 302 294 307 
f 301 297 310 
f 300 296 311 
f 296 303 311 
f 290 291 312 
f 291 296 312 
f 296 300 312 
f 304 290 312 
f 300 309 312 
f 309 304 312 
f 296 299 313 
f 299 294 313 
f 303 296 313 
f 294 303 313 
f 297 301 314 
f 301 302 314 
f 307 297 314 
f 302 307 314 
f 302 289 315 
f 303 302 315 
f 289 308 315 
f 308 300 315 
f 300 311 315 
f 311 303 315 
f 289 301 316 
f 308 289 316 
f 295 308 316 
f 310 295 316 
f 301 310 316 
f 293 295 317 
f 297 293 317 
f 295 310 317 
f 310 297 317 
f 295 304 318 
f 300 308 318 
f 308 295 318 
f 309 300 318 
f 304 309 318 
f 291 292 319 
f 296 291 319 
f 292 299 319 
f 299 296 319 
f 297 292 320 
f 293 297 320 
f 292 305 320 
f 305 298 320 
f 306 293 320 
o convex_10
v -25.473597 143.945705 -13.634409
v -16.807706 129.860185 -13.634409
v -13.555928 129.860185 -13.634409
v -13.555928 129.860185 -1.716528
v -12.471578 143.945705 -8.218174
v -25.473597 137.442044 -20.136055
v -25.473597 135.280132 -8.218174
v -12.471578 139.610850 -13.634409
v -13.555928 140.694564 -3.885547
v -24.389247 141.776899 -20.136055
v -25.473597 140.694564 -8.218174
v -23.304897 132.028991 -12.550801
v -12.471578 129.860185 -1.716528
v -12.471578 130.945277 -13.634409
v -12.471578 143.945705 -10.385389
v -18.972587 129.860185 -8.218174
v -25.473597 135.280132 -19.052447
v -17.889510 136.363846 -3.885547
v -25.473597 142.860613 -10.385389
v -25.473597 142.860613 -19.052447
v -13.555928 133.111326 -14.718017
v -23.304897 133.111326 -7.134566
v -24.389247 135.280132 -7.134566
v -12.471578 142.860613 -6.050959
v -24.389247 137.442044 -20.136055
v -25.473597 134.195040 -16.883429
v -16.807706 129.860185 -3.885547
v -24.389247 133.111326 -9.301782
v -22.223092 138.525758 -6.050959
v -18.972587 129.860185 -11.467194
v -12.471578 140.694564 -3.885547
v -24.389247 143.945705 -14.718017
f 335 340 352 
f 322 323 324 
f 321 326 327 
f 321 327 331 
f 324 323 333 
f 328 325 333 
f 329 324 333 
f 333 323 334 
f 328 333 334 
f 321 325 335 
f 325 328 335 
f 328 330 335 
f 322 324 336 
f 323 322 337 
f 327 326 337 
f 324 329 338 
f 325 321 339 
f 321 331 339 
f 331 329 339 
f 326 321 340 
f 330 326 340 
f 335 330 340 
f 330 328 341 
f 328 334 341 
f 331 327 343 
f 342 324 343 
f 327 342 343 
f 333 325 344 
f 325 339 344 
f 339 329 344 
f 326 330 345 
f 334 323 345 
f 323 337 345 
f 337 326 345 
f 330 341 345 
f 341 334 345 
f 337 322 346 
f 327 337 346 
f 336 324 347 
f 324 342 347 
f 347 342 348 
f 332 336 348 
f 342 327 348 
f 346 332 348 
f 327 346 348 
f 336 347 348 
f 329 331 349 
f 324 338 349 
f 338 329 349 
f 331 343 349 
f 343 324 349 
f 322 336 350 
f 336 332 350 
f 346 322 350 
f 332 346 350 
f 329 333 351 
f 333 344 351 
f 344 329 351 
f 321 335 352 
f 340 321 352 
o convex_11
v -7.053010 154.778706 -14.718547
v -1.637199 133.111856 1.533976
v -2.720913 133.111856 1.533976
v -2.720913 163.448733 -3.884592
v -12.471578 133.111856 -1.719392
v 1.613942 129.860185 -8.216583
v -12.471578 130.948459 -13.633561
v -11.386486 163.448733 -6.052974
v -0.553485 163.448733 -11.465179
v -11.386486 163.448733 -12.550165
v 1.613942 129.860185 -1.719392
v -7.053010 129.860185 1.533976
v -9.219058 163.448733 -3.884592
v -3.804626 160.197062 -14.718547
v -3.804626 129.860185 -11.465179
v -12.471578 155.860404 -7.131597
v -0.553485 163.448733 -6.052974
v -9.219058 163.448733 -14.718547
v -12.471578 129.860185 -1.719392
v 0.530228 153.697007 -10.383374
v -4.888340 161.278760 -2.801197
v -0.553485 132.030158 1.533976
v -9.219058 133.111856 -13.633561
v -2.720913 151.523746 -13.633561
v -12.471578 129.860185 -12.550165
v -12.471578 139.611911 -13.633561
v 1.613942 132.030158 -1.719392
v -1.637199 135.281829 -11.465179
v -7.053010 130.948459 1.533976
v -2.720913 160.197062 -2.801197
v -3.804626 163.448733 -14.718547
v -0.553485 129.860185 1.533976
f 363 374 384 
f 360 356 361 
f 360 361 362 
f 354 355 364 
f 358 363 364 
f 360 357 365 
f 356 360 365 
f 358 364 367 
f 359 357 368 
f 357 360 368 
f 360 362 368 
f 361 356 369 
f 353 359 370 
f 362 361 370 
f 366 353 370 
f 357 359 371 
f 364 357 371 
f 367 364 371 
f 361 369 372 
f 355 354 373 
f 356 365 373 
f 354 364 374 
f 359 353 375 
f 353 366 375 
f 367 359 375 
f 372 358 376 
f 366 372 376 
f 375 366 376 
f 359 367 377 
f 371 359 377 
f 367 371 377 
f 359 368 378 
f 368 362 378 
f 370 359 378 
f 362 370 378 
f 363 358 379 
f 358 372 379 
f 372 369 379 
f 374 363 379 
f 369 374 379 
f 358 367 380 
f 367 375 380 
f 375 376 380 
f 376 358 380 
f 364 355 381 
f 357 364 381 
f 365 357 381 
f 355 373 381 
f 373 365 381 
f 369 356 382 
f 373 354 382 
f 356 373 382 
f 354 374 382 
f 374 369 382 
f 370 361 383 
f 366 370 383 
f 372 366 383 
f 361 372 383 
f 364 363 384 
f 374 364 384 
o convex_12
v -11.386804 202.448214 -20.135206
v 1.613942 212.199410 -3.883531
v 1.613942 212.199410 -4.967881
v -0.554440 163.454036 -6.052231
v -11.386804 168.873135 -6.052231
v -14.638581 216.531507 -12.551544
v -3.804626 217.618509 -19.052553
v -0.554440 163.454036 -12.551544
v -11.386804 163.454036 -12.551544
v 0.528956 206.780312 -15.801200
v -9.218422 163.454036 -3.883531
v -3.804626 207.867313 -3.883531
v -3.804626 163.454036 -14.718547
v -13.553595 217.618509 -19.052553
v -5.971417 206.780312 -20.135206
v -2.721231 163.454036 -3.883531
v -11.386804 217.618509 -10.384541
v 1.613942 203.529913 -11.468891
v -9.218422 167.791436 -15.801200
v -13.553595 198.116117 -16.885550
v -12.470199 169.954833 -8.219235
v -11.386804 217.618509 -21.219556
v -10.303408 184.043429 -6.052231
v 1.613942 202.448214 -3.883531
v -3.804626 217.618509 -12.551544
v -2.721231 201.366516 -17.968203
v -2.721231 165.622736 -14.718547
v 0.528956 202.448214 -15.801200
v -14.638581 215.449809 -15.801200
v -11.386804 163.454036 -6.052231
v -9.218422 202.448214 -20.135206
v 1.613942 206.780312 -12.551544
f 392 412 416 
f 386 387 391 
f 392 388 393 
f 393 388 395 
f 395 386 396 
f 392 393 397 
f 386 395 400 
f 395 388 400 
f 396 386 401 
f 390 396 401 
f 391 398 401 
f 398 390 401 
f 387 386 402 
f 393 385 403 
f 397 393 403 
f 385 393 404 
f 398 385 404 
f 404 393 405 
f 385 398 406 
f 398 391 406 
f 391 399 406 
f 390 389 407 
f 389 395 407 
f 396 390 407 
f 395 396 407 
f 388 392 408 
f 386 400 408 
f 400 388 408 
f 402 386 408 
f 392 402 408 
f 386 391 409 
f 401 386 409 
f 391 401 409 
f 399 391 410 
f 399 410 411 
f 392 397 411 
f 397 399 411 
f 391 394 412 
f 410 391 412 
f 411 410 412 
f 392 411 412 
f 390 398 413 
f 398 404 413 
f 405 390 413 
f 404 405 413 
f 389 390 414 
f 395 389 414 
f 393 395 414 
f 390 405 414 
f 405 393 414 
f 399 397 415 
f 403 385 415 
f 397 403 415 
f 385 406 415 
f 406 399 415 
f 391 387 416 
f 394 391 416 
f 387 402 416 
f 402 392 416 
f 412 394 416 
o convex_13
v -0.553061 200.289377 -3.883531
v 1.613730 216.538719 11.285490
v -0.553061 216.538719 11.285490
v 1.613730 212.203970 -3.883531
v -3.803566 207.873994 -3.883531
v -1.636138 207.873994 11.285490
v 2.697444 208.954102 11.285490
v 2.697444 206.790704 0.450687
v -3.803566 202.457546 -2.799606
v -0.553061 213.287259 -2.799606
v -2.719852 212.203970 8.032228
v 2.697444 215.453838 8.032228
v -1.636138 215.453838 6.951272
v 1.613730 203.540836 -3.883531
v -2.719852 200.289377 -2.799606
v 0.530016 206.790704 10.201565
v 1.613730 216.538719 8.032228
v 1.613730 203.540836 0.450687
v -1.636138 212.203970 -3.883531
v -1.636138 215.453838 11.285490
v -0.553061 200.289377 -2.799606
v -0.553061 216.538719 8.032228
v 2.697444 211.120681 1.534613
v -3.803566 202.457546 -3.883531
v 2.697444 215.453838 11.285490
v -2.719852 211.120681 -2.799606
v 1.613730 206.790704 9.117639
v -3.803566 203.540836 -1.715680
v 1.613730 213.287259 -1.715680
v -1.636138 205.707415 8.032228
v -2.719852 208.954102 6.951272
v 0.530016 201.374257 -2.799606
f 434 437 448 
f 420 417 421 
f 418 419 422 
f 418 422 423 
f 423 424 428 
f 421 427 429 
f 417 420 430 
f 420 424 430 
f 422 425 431 
f 423 422 432 
f 419 418 433 
f 418 428 433 
f 424 423 434 
f 430 424 434 
f 420 421 435 
f 426 420 435 
f 422 419 436 
f 427 422 436 
f 419 429 436 
f 429 427 436 
f 431 417 437 
f 432 431 437 
f 429 419 438 
f 419 433 438 
f 433 426 438 
f 426 435 438 
f 435 429 438 
f 424 420 439 
f 420 428 439 
f 428 424 439 
f 421 417 440 
f 425 421 440 
f 417 431 440 
f 431 425 440 
f 418 423 441 
f 428 418 441 
f 423 428 441 
f 421 429 442 
f 435 421 442 
f 429 435 442 
f 423 432 443 
f 434 423 443 
f 432 437 443 
f 437 434 443 
f 421 425 444 
f 425 422 444 
f 427 421 444 
f 420 426 445 
f 428 420 445 
f 426 433 445 
f 433 428 445 
f 422 431 446 
f 432 422 446 
f 431 432 446 
f 422 427 447 
f 444 422 447 
f 427 444 447 
f 417 430 448 
f 430 434 448 
f 437 417 448 
