o convex_0
v -50.892013 223.890332 -13.198285
v -59.488912 168.011541 -14.272529
v -59.488912 168.011541 -11.048745
v -50.892013 168.011541 -8.899205
v -48.741841 212.068071 -18.572662
v -51.965205 168.011541 -16.422070
v -57.337478 189.508628 -17.497366
v -46.590407 219.589779 -13.198285
v -55.187306 173.385813 -7.823908
v -59.488912 181.986920 -12.124041
v -51.965205 222.816614 -17.497366
v -56.263023 181.986920 -18.572662
v -46.590407 215.294906 -16.422070
v -48.741841 215.294906 -11.048745
v -53.039659 215.294906 -12.124041
v -47.666124 226.043449 -16.422070
v -59.488912 171.238377 -16.422070
v -55.187306 209.920634 -15.347826
v -58.413195 179.839484 -9.974501
v -50.892013 168.011541 -14.272529
v -54.114114 168.011541 -17.497366
v -51.965205 168.011541 -7.823908
v -53.039659 213.141789 -18.572662
v -51.965205 213.141789 -11.048745
v -56.263023 168.011541 -7.823908
v -54.114114 214.215507 -13.198285
v -59.488912 181.986920 -14.272529
v -46.590407 222.816614 -13.198285
v -49.816296 219.589779 -18.572662
v -57.337478 186.287474 -9.974501
v -57.337478 169.090941 -17.497366
v -54.114114 213.141789 -17.497366
f 27 18 32 
f 3 2 4 
f 4 2 6 
f 2 3 10 
f 6 5 13 
f 8 4 13 
f 11 1 16 
f 13 5 16 
f 2 10 17 
f 7 12 17 
f 10 3 19 
f 4 6 20 
f 6 13 20 
f 13 4 20 
f 6 2 21 
f 5 6 21 
f 12 5 21 
f 3 4 22 
f 4 8 22 
f 14 9 22 
f 5 12 23 
f 12 7 23 
f 14 1 24 
f 9 14 24 
f 1 15 24 
f 19 3 25 
f 3 22 25 
f 22 9 25 
f 1 11 26 
f 15 1 26 
f 18 10 26 
f 11 18 26 
f 17 10 27 
f 7 17 27 
f 10 18 27 
f 8 13 28 
f 1 14 28 
f 16 1 28 
f 13 16 28 
f 22 8 28 
f 14 22 28 
f 16 5 29 
f 11 16 29 
f 5 23 29 
f 23 11 29 
f 10 19 30 
f 9 24 30 
f 24 15 30 
f 19 25 30 
f 25 9 30 
f 15 26 30 
f 26 10 30 
f 2 17 31 
f 17 12 31 
f 21 2 31 
f 12 21 31 
f 18 11 32 
f 11 23 32 
f 23 7 32 
f 7 27 32 
o convex_1
v -37.991194 130.385221 72.791746
v -20.794555 105.663087 37.325382
v -19.718522 105.663087 37.325382
v -19.718522 114.265983 37.325382
v -19.718522 114.265983 59.891873
v -37.991194 121.782325 60.967169
v -32.615449 130.385221 64.185693
v -40.141050 129.305927 63.117762
v -28.317946 112.114654 55.590688
v -19.718522 120.707871 53.447461
v -41.214873 129.305927 72.791746
v -27.246333 114.265983 42.701863
v -30.470012 112.114654 49.149958
v -21.868378 106.742382 46.995683
v -34.763095 130.385221 70.637471
v -37.991194 130.385221 62.038783
v -20.794555 113.191529 36.250086
v -42.290906 130.385221 66.339968
v -21.868378 112.114654 57.741281
v -20.794555 118.561382 44.845091
v -19.718522 116.412473 59.891873
v -19.718522 109.965745 54.515392
v -32.615449 114.265983 54.515392
v -20.794555 107.814416 35.171107
v -30.470012 115.340438 46.995683
v -28.317946 109.965745 49.149958
v -34.763095 130.385221 62.038783
v -42.290906 128.231472 69.565857
v -35.839128 120.707871 64.185693
v -19.718522 118.561382 57.741281
v -32.615449 130.385221 66.339968
v -19.718522 105.663087 43.773477
f 54 46 64 
f 35 36 37 
f 37 36 42 
f 37 33 43 
f 33 37 47 
f 39 33 47 
f 33 39 48 
f 44 40 49 
f 48 36 49 
f 40 48 49 
f 43 33 50 
f 33 48 50 
f 48 40 50 
f 37 43 51 
f 42 36 52 
f 39 42 52 
f 37 42 53 
f 47 37 53 
f 35 37 54 
f 41 46 54 
f 37 51 54 
f 51 41 54 
f 38 45 55 
f 35 34 56 
f 36 35 56 
f 34 45 56 
f 49 36 56 
f 44 49 56 
f 40 44 57 
f 45 38 57 
f 38 50 57 
f 50 40 57 
f 44 56 57 
f 56 45 57 
f 45 34 58 
f 46 41 58 
f 34 46 58 
f 41 55 58 
f 55 45 58 
f 48 39 59 
f 36 48 59 
f 52 36 59 
f 39 52 59 
f 43 50 60 
f 50 38 60 
f 38 55 60 
f 60 55 61 
f 51 43 61 
f 41 51 61 
f 55 41 61 
f 43 60 61 
f 53 42 62 
f 47 53 62 
f 42 39 63 
f 39 47 63 
f 62 42 63 
f 47 62 63 
f 34 35 64 
f 46 34 64 
f 35 54 64 
o convex_2
v -29.398293 135.763596 2.923478
v -27.245807 140.059941 15.823350
v -27.245807 142.213480 14.747002
v -59.488912 168.005860 -11.046220
v -50.885280 168.005860 -15.345090
v -55.183940 158.325668 -11.046220
v -28.322050 132.536866 13.670653
v -27.245807 143.290249 3.996564
v -49.812193 168.005860 -7.823698
v -55.183940 162.625591 -16.418177
v -57.333270 166.929090 -7.823698
v -27.245807 145.436633 8.298696
v -27.245807 136.840366 2.923478
v -28.322050 131.460097 8.298696
v -53.034610 156.175707 -5.671001
v -29.398293 137.909980 15.823350
v -51.961523 155.106093 -11.046220
v -45.513533 154.029323 -11.046220
v -54.110853 168.005860 -6.747350
v -29.398293 140.059941 15.823350
v -55.183940 168.005860 -17.497787
v -58.409513 163.702360 -15.345090
v -29.398293 142.213480 0.770781
v -58.409513 162.625591 -9.973133
v -49.812193 168.005860 -13.192393
v -27.245807 131.460097 11.517957
v -51.961523 165.855899 -16.418177
v -27.245807 143.290249 13.670653
v -28.322050 131.460097 11.517957
v -30.471380 134.686827 3.996564
v -48.735950 154.029323 -11.046220
v -51.961523 168.005860 -6.747350
f 92 73 96 
f 67 66 72 
f 69 68 73 
f 67 72 76 
f 72 66 77 
f 65 77 78 
f 70 78 79 
f 71 66 80 
f 79 71 80 
f 78 70 81 
f 77 65 82 
f 73 68 83 
f 68 75 83 
f 66 67 84 
f 80 66 84 
f 75 80 84 
f 67 83 84 
f 83 75 84 
f 68 69 85 
f 74 81 86 
f 81 70 86 
f 68 85 86 
f 85 74 86 
f 69 72 87 
f 72 77 87 
f 77 82 87 
f 75 68 88 
f 70 79 88 
f 80 75 88 
f 79 80 88 
f 68 86 88 
f 86 70 88 
f 72 69 89 
f 69 73 89 
f 76 72 89 
f 73 76 89 
f 66 71 90 
f 77 66 90 
f 78 77 90 
f 82 74 91 
f 85 69 91 
f 74 85 91 
f 69 87 91 
f 87 82 91 
f 67 76 92 
f 76 73 92 
f 71 79 93 
f 79 78 93 
f 90 71 93 
f 78 90 93 
f 65 78 94 
f 78 81 94 
f 81 74 95 
f 74 82 95 
f 82 65 95 
f 65 94 95 
f 94 81 95 
f 83 67 96 
f 73 83 96 
f 67 92 96 
o convex_3
v -26.166302 128.239363 10.449289
v -16.493896 140.055944 26.572104
v -16.493896 140.055944 24.422248
v -16.493896 116.414577 17.972680
v -26.166302 141.130924 3.999721
v -27.242650 134.681041 16.896647
v -16.493896 128.239363 10.449289
v -27.242650 143.280885 13.677387
v -16.493896 118.564538 11.525322
v -17.570245 130.386589 25.496071
v -16.493896 138.980963 16.896647
v -27.242650 135.756021 3.999721
v -17.570245 117.489557 20.122536
v -26.166302 144.355866 8.301642
v -17.570245 140.055944 26.572104
v -18.645541 127.164383 8.301642
v -27.242650 131.456099 6.149577
v -17.570245 116.414577 14.751210
v -27.242650 140.055944 16.896647
v -27.242650 131.456099 14.751210
v -16.493896 133.606060 12.599145
v -27.242650 143.280885 6.149577
v -16.493896 130.386589 25.496071
v -25.091006 135.756021 3.999721
v -25.091006 133.606060 19.044294
v -17.570245 116.414577 17.972680
v -17.570245 135.756021 26.572104
v -27.242650 144.355866 10.449289
v -17.570245 118.564538 11.525322
v -24.016761 137.905982 5.075754
v -27.242650 130.386589 12.599145
v -26.166302 143.280885 6.149577
f 118 110 128 
f 99 98 100 
f 99 100 103 
f 103 100 105 
f 99 103 107 
f 102 104 108 
f 98 99 110 
f 99 107 110 
f 103 105 112 
f 102 108 113 
f 105 100 114 
f 97 113 114 
f 104 102 115 
f 111 104 115 
f 102 111 115 
f 109 102 116 
f 102 113 116 
f 107 103 117 
f 101 107 117 
f 101 108 118 
f 108 104 118 
f 100 98 119 
f 109 100 119 
f 106 109 119 
f 108 101 120 
f 105 108 120 
f 112 105 120 
f 102 109 121 
f 109 106 121 
f 100 109 122 
f 114 100 122 
f 97 114 122 
f 109 116 122 
f 98 111 123 
f 111 102 123 
f 119 98 123 
f 106 119 123 
f 102 121 123 
f 121 106 123 
f 98 110 124 
f 111 98 124 
f 104 111 124 
f 118 104 124 
f 110 118 124 
f 108 105 125 
f 113 108 125 
f 105 114 125 
f 114 113 125 
f 103 112 126 
f 101 117 126 
f 117 103 126 
f 120 101 126 
f 112 120 126 
f 113 97 127 
f 116 113 127 
f 97 122 127 
f 122 116 127 
f 107 101 128 
f 110 107 128 
f 101 118 128 
o convex_4
v -14.342357 -3.973360 -9.971134
v 13.602614 -2.897643 3.999300
v 9.301640 19.672215 9.371573
v -7.893736 -3.973360 12.597461
v -11.118046 20.747932 11.521113
v 2.853019 20.747932 -4.598861
v 13.602614 -3.973360 -9.971134
v 5.003506 20.747932 15.823350
v -8.967559 -2.897643 -16.422911
v -7.893736 20.747932 -3.522513
v 5.003506 -5.049077 11.521113
v -15.419021 -3.973360 7.222032
v 3.926842 -5.049077 -15.346563
v 8.227817 20.747932 -0.299781
v -5.743249 18.593973 15.823350
v 3.926842 -2.897643 -16.422911
v -11.118046 20.747932 0.773411
v 7.151153 -3.973360 12.597461
v -14.342357 -5.049077 -0.299781
v -15.419021 -1.824451 -6.748402
v 12.525950 -5.049077 2.922952
v 13.602614 -2.897643 -9.971134
v -7.893736 -5.049077 -14.270215
v -6.819913 20.747932 -4.598861
v -7.893736 20.747932 14.747002
v -6.819913 -5.049077 11.521113
v -14.342357 -2.897643 -9.971134
v 3.926842 17.520781 15.823350
v 9.301640 -3.973360 10.447921
v 8.227817 20.747932 11.521113
v 9.301640 19.672215 2.922952
v -15.419021 -1.824451 6.148840
f 133 148 160 
f 134 133 136 
f 133 134 138 
f 134 136 142 
f 137 134 144 
f 135 141 144 
f 141 137 144 
f 133 138 145 
f 132 139 146 
f 140 129 147 
f 141 139 147 
f 129 140 148 
f 133 145 148 
f 135 130 149 
f 139 141 149 
f 141 135 149 
f 131 130 150 
f 130 135 150 
f 134 142 150 
f 144 134 150 
f 135 144 150 
f 129 137 151 
f 137 141 151 
f 147 129 151 
f 141 147 151 
f 134 137 152 
f 138 134 152 
f 137 138 152 
f 136 133 153 
f 133 140 153 
f 140 132 153 
f 132 143 153 
f 143 136 153 
f 139 132 154 
f 132 140 154 
f 147 139 154 
f 140 147 154 
f 137 129 155 
f 138 137 155 
f 145 138 155 
f 129 148 155 
f 148 145 155 
f 143 132 156 
f 136 143 156 
f 146 136 156 
f 132 146 156 
f 136 146 157 
f 146 139 157 
f 149 130 157 
f 139 149 157 
f 130 131 158 
f 131 142 158 
f 142 136 158 
f 157 130 158 
f 136 157 158 
f 142 131 159 
f 131 150 159 
f 150 142 159 
f 140 133 160 
f 148 140 160 
o convex_5
v -5.742828 21.826174 16.896963
v 1.777723 80.940954 25.494388
v -4.669004 80.940954 25.494388
v 2.851546 22.898524 -3.518726
v -6.818545 80.940954 10.449604
v -11.119519 20.747932 1.852180
v 8.228238 20.747932 11.523217
v 5.001086 80.940954 12.596830
v -10.041908 75.561526 22.267868
v 2.851546 41.181507 23.344322
v -10.041908 42.253857 20.120642
v 8.228238 20.747932 -0.295046
v 7.150627 54.067385 19.044189
v -6.818545 22.898524 -3.518726
v 1.777723 80.940954 9.375991
v -5.742828 55.139736 25.494388
v -11.119519 20.747932 12.596830
v -8.966191 80.940954 13.670443
v 3.927263 20.747932 16.896963
v 2.851546 55.139736 25.494388
v 5.001086 80.940954 21.194255
v 8.228238 39.030914 7.225925
v -4.669004 36.874430 22.267868
v 8.228238 35.796187 15.820510
v -5.742828 80.940954 9.375991
v -11.119519 40.103264 9.375991
v -11.119519 36.874430 17.970576
v 3.927263 20.747932 -3.518726
v -10.041908 73.410934 14.746897
v -11.119519 22.898524 1.852180
v -10.041908 55.139736 22.267868
v 6.074909 40.103264 20.120642
f 184 173 192 
f 163 162 165 
f 165 162 168 
f 167 166 172 
f 165 168 175 
f 168 172 175 
f 164 174 175 
f 162 163 176 
f 163 169 176 
f 166 167 177 
f 163 165 178 
f 169 163 178 
f 161 177 179 
f 177 167 179 
f 162 176 180 
f 176 170 180 
f 168 162 181 
f 173 168 181 
f 162 180 181 
f 180 173 181 
f 167 172 182 
f 172 168 182 
f 168 173 182 
f 170 176 183 
f 176 171 183 
f 161 179 183 
f 179 170 183 
f 167 182 184 
f 182 173 184 
f 174 165 185 
f 165 175 185 
f 175 174 185 
f 166 177 186 
f 177 161 187 
f 161 183 187 
f 183 171 187 
f 186 177 187 
f 169 186 187 
f 172 166 188 
f 174 164 188 
f 166 174 188 
f 164 175 188 
f 175 172 188 
f 169 178 189 
f 186 169 189 
f 186 189 190 
f 165 174 190 
f 174 166 190 
f 178 165 190 
f 166 186 190 
f 189 178 190 
f 176 169 191 
f 171 176 191 
f 169 187 191 
f 187 171 191 
f 170 179 192 
f 179 167 192 
f 173 180 192 
f 180 170 192 
f 167 184 192 
o convex_6
v -30.468855 156.181284 55.593950
v -35.839654 137.912295 68.492244
v -39.064596 137.912295 68.492244
v -39.064596 130.385221 63.116815
v -33.693796 130.385221 68.492244
v -30.468855 166.930563 56.669036
v -42.289538 133.611110 66.342072
v -28.318893 162.625696 58.819207
v -33.693796 130.385221 64.191901
v -31.543835 164.779971 54.518864
v -42.289538 135.765385 68.492244
v -28.318893 157.252897 56.669036
v -42.289538 130.385221 68.492244
v -31.543835 161.554082 59.894293
v -28.318893 168.005860 54.518864
v -34.768777 130.385221 63.116815
v -28.318893 160.478786 54.518864
v -32.618816 156.181284 55.593950
v -32.618816 162.625696 58.819207
v -36.914635 145.435686 59.894293
v -31.543835 152.955395 63.116815
v -28.318893 157.252897 58.819207
v -32.618816 162.625696 55.593950
v -34.768777 136.836999 68.492244
v -42.289538 130.385221 66.342072
v -29.393874 156.181284 60.969379
v -42.289538 135.765385 67.415790
v -28.318893 166.930563 56.669036
v -29.393874 161.554082 59.894293
v -35.839654 144.364072 66.342072
v -34.768777 156.181284 57.744121
v -31.543835 160.478786 54.518864
f 210 223 224 
f 194 195 197 
f 197 196 201 
f 197 195 203 
f 197 201 204 
f 196 197 205 
f 197 203 205 
f 203 199 205 
f 203 195 206 
f 202 198 207 
f 200 204 207 
f 201 196 208 
f 204 201 209 
f 202 207 209 
f 207 204 209 
f 208 193 209 
f 201 208 209 
f 193 208 210 
f 208 196 210 
f 209 193 210 
f 198 202 211 
f 206 198 211 
f 203 206 211 
f 210 196 212 
f 197 204 214 
f 204 200 214 
f 211 202 215 
f 203 211 215 
f 194 197 216 
f 213 194 216 
f 196 205 217 
f 205 199 217 
f 212 196 217 
f 199 212 217 
f 197 214 218 
f 214 200 218 
f 216 197 218 
f 213 216 218 
f 199 203 219 
f 203 215 219 
f 198 206 220 
f 207 198 220 
f 200 207 220 
f 218 200 221 
f 213 218 221 
f 200 220 221 
f 220 206 221 
f 195 194 222 
f 206 195 222 
f 194 213 222 
f 221 206 222 
f 213 221 222 
f 212 199 223 
f 210 212 223 
f 215 202 223 
f 199 219 223 
f 219 215 223 
f 202 209 224 
f 209 210 224 
f 223 202 224 
o convex_7
v -47.662442 135.761702 71.717501
v -53.037660 151.882729 85.688567
v -51.961733 150.807433 86.764284
v -35.844915 135.761702 68.492244
v -39.068278 130.385221 73.868936
v -55.187306 145.430951 85.688567
v -54.111378 148.656840 79.238052
v -43.367569 130.385221 68.492244
v -43.367569 136.836999 68.492244
v -35.844915 130.385221 71.717501
v -57.336951 148.656840 83.539026
v -51.961733 146.506248 86.764284
v -43.367569 130.385221 72.793219
v -49.812087 148.656840 79.238052
v -56.261024 151.882729 87.840001
v -34.768987 133.611110 69.567961
v -51.961733 140.062887 77.094193
v -34.768987 130.385221 68.492244
v -47.662442 141.133975 71.717501
v -54.111378 144.357760 78.166122
v -55.187306 151.882729 83.539026
v -48.738369 148.656840 82.463309
v -44.443497 142.205063 72.793219
v -55.187306 144.357760 83.539026
v -37.994560 134.686406 73.868936
v -57.336951 150.807433 83.539026
v -41.217924 130.385221 73.868936
v -44.443497 135.761702 68.492244
v -56.261024 149.730032 87.840001
v -46.588724 133.611110 73.868936
v -57.336951 148.656840 85.688567
v -36.918633 130.385221 72.793219
f 234 249 256 
f 228 232 233 
f 229 232 234 
f 232 229 237 
f 227 226 239 
f 236 227 239 
f 225 232 241 
f 232 228 242 
f 234 232 242 
f 228 240 242 
f 240 234 242 
f 231 238 243 
f 225 241 244 
f 241 235 244 
f 231 243 244 
f 226 238 245 
f 238 231 245 
f 239 226 245 
f 226 227 246 
f 238 226 246 
f 228 238 246 
f 227 240 246 
f 240 228 246 
f 228 233 247 
f 238 228 247 
f 233 243 247 
f 243 238 247 
f 237 230 248 
f 235 241 248 
f 227 236 249 
f 240 227 249 
f 234 240 249 
f 231 244 250 
f 244 235 250 
f 245 231 250 
f 239 245 250 
f 236 230 251 
f 229 236 251 
f 237 229 251 
f 230 237 251 
f 232 225 252 
f 233 232 252 
f 243 233 252 
f 225 244 252 
f 244 243 252 
f 230 236 253 
f 236 239 253 
f 232 237 254 
f 241 232 254 
f 237 248 254 
f 248 241 254 
f 248 230 255 
f 235 248 255 
f 250 235 255 
f 239 250 255 
f 230 253 255 
f 253 239 255 
f 229 234 256 
f 236 229 256 
f 249 236 256 
o convex_8
v 8.228238 169.084733 -27.171244
v 6.077750 159.415588 -16.424595
v 7.152520 162.636743 -17.500101
v 1.779617 198.092165 -29.320574
v -1.445641 142.219055 -17.500101
v 2.854387 191.644175 -33.619234
v 8.228238 197.018447 -29.320574
v 8.228238 148.667045 -19.649431
v 0.704846 152.967599 -23.948091
v -0.369924 156.188753 -16.424595
v 3.928210 192.717893 -26.095738
v 7.152520 191.644175 -33.619234
v 8.228238 148.667045 -16.424595
v -1.445641 152.967599 -20.724938
v 5.002980 152.967599 -23.948091
v 1.779617 198.092165 -32.543728
v 3.928210 141.139656 -16.424595
v 7.152520 195.944729 -27.171244
v 5.002980 145.440210 -20.724938
v -1.445641 151.888199 -16.424595
v 8.228238 195.944729 -32.543728
v 1.779617 189.496739 -32.543728
v 1.779617 159.415588 -16.424595
v 1.779617 197.018447 -28.245068
v 6.077750 198.092165 -33.619234
v 6.077750 169.084733 -28.245068
v 8.228238 186.269904 -25.021914
v 5.002980 199.171564 -29.320574
v 8.228238 151.888199 -21.798761
v 1.779617 173.373924 -29.320574
v 8.228238 154.041317 -16.424595
v 0.704846 147.593327 -21.798761
f 271 275 288 
f 257 263 264 
f 264 263 269 
f 258 266 269 
f 265 261 270 
f 270 260 272 
f 264 269 273 
f 269 266 273 
f 258 259 274 
f 267 258 274 
f 273 261 275 
f 264 273 275 
f 260 270 276 
f 270 261 276 
f 261 273 276 
f 273 266 276 
f 263 257 277 
f 257 268 277 
f 265 270 278 
f 272 262 278 
f 270 272 278 
f 266 258 279 
f 258 267 279 
f 279 267 280 
f 267 274 280 
f 260 276 280 
f 276 266 280 
f 266 279 280 
f 268 262 281 
f 262 272 281 
f 263 277 281 
f 277 268 281 
f 268 257 282 
f 257 271 282 
f 271 265 282 
f 269 263 283 
f 274 259 283 
f 263 274 283 
f 272 260 284 
f 274 263 284 
f 260 280 284 
f 280 274 284 
f 263 281 284 
f 281 272 284 
f 257 264 285 
f 271 257 285 
f 264 275 285 
f 275 271 285 
f 262 268 286 
f 278 262 286 
f 265 278 286 
f 282 265 286 
f 268 282 286 
f 259 258 287 
f 258 269 287 
f 283 259 287 
f 269 283 287 
f 261 265 288 
f 265 271 288 
f 275 261 288 
o convex_9
v -0.370766 112.121282 -0.301254
v -0.370766 119.643621 8.299222
v -3.593919 119.643621 8.299222
v 1.776881 156.176865 -16.422911
v -8.968085 105.672030 7.222348
v 7.151048 142.199908 -16.422911
v -1.444589 140.053734 -16.422911
v 1.776881 104.593577 8.299222
v 7.151048 155.098412 -15.346037
v -2.520095 146.502986 -11.045799
v 3.926211 118.570534 5.071019
v -8.968085 111.042830 8.299222
v -2.520095 146.502986 -16.422911
v -6.818755 101.363586 7.222348
v 1.776881 156.176865 -15.346037
v -6.818755 117.492082 8.299222
v 8.226554 150.800699 -16.422911
v 3.926211 138.975282 -16.422911
v 1.776881 118.570534 8.299222
v 3.926211 116.418995 -0.301254
v -3.593919 125.014421 -7.822435
v -1.444589 101.363586 7.222348
v 5.001718 149.727612 -11.045799
v -6.818755 101.363586 8.299222
v 2.852388 113.194369 0.773201
v 2.852388 108.896656 8.299222
v 8.226554 149.727612 -15.346037
v -1.444589 151.873786 -14.271582
v -7.892579 103.520491 6.147893
v -2.520095 144.351447 -16.422911
v -5.743249 111.042830 0.773201
v 0.703058 149.727612 -11.045799
f 316 304 320 
f 292 294 295 
f 290 291 296 
f 296 291 300 
f 300 298 301 
f 292 295 301 
f 293 300 301 
f 297 292 303 
f 300 291 304 
f 298 300 304 
f 294 292 305 
f 292 297 305 
f 295 294 306 
f 290 296 307 
f 299 297 307 
f 306 289 309 
f 295 306 309 
f 302 289 310 
f 291 290 311 
f 297 303 311 
f 290 307 311 
f 307 297 311 
f 296 300 312 
f 300 293 312 
f 293 302 312 
f 302 310 312 
f 310 296 312 
f 289 306 313 
f 306 294 313 
f 294 308 313 
f 308 296 313 
f 310 289 313 
f 296 310 313 
f 307 296 314 
f 299 307 314 
f 296 308 314 
f 314 308 315 
f 297 299 315 
f 294 305 315 
f 305 297 315 
f 308 294 315 
f 299 314 315 
f 301 298 316 
f 292 301 316 
f 303 292 316 
f 298 304 316 
f 302 293 317 
f 295 309 317 
f 293 301 318 
f 301 295 318 
f 317 293 318 
f 295 317 318 
f 289 302 319 
f 309 289 319 
f 302 317 319 
f 317 309 319 
f 304 291 320 
f 291 311 320 
f 311 303 320 
f 303 316 320 
o convex_10
v -14.342883 121.788747 10.448973
v -6.821070 149.730453 31.946481
v -11.118572 149.730453 31.946481
v -3.596759 118.567168 25.492599
v -16.490845 136.831934 31.946481
v -1.445641 120.717938 17.976047
v -16.492423 136.828883 15.827559
v -16.492423 118.567168 21.195623
v -4.673108 136.828883 22.270919
v -16.492423 118.567168 11.526374
v -17.568772 141.130424 28.720592
v -6.821070 133.613406 31.946481
v -10.042224 118.567168 25.492599
v -15.417653 126.090287 10.448973
v -1.445641 118.567168 22.270919
v -5.746300 148.653543 30.869080
v -3.596759 118.567168 15.827559
v -15.416075 146.502773 29.795888
v -5.746300 137.905794 31.946481
v -15.417653 136.828883 15.827559
v -16.490845 144.352003 31.946481
v -11.118572 149.730453 30.869080
v -16.492423 126.090287 10.448973
v -12.191764 133.613406 31.946481
v -6.821070 149.730453 30.869080
v -17.568772 136.831934 27.647400
v -14.342883 118.567168 23.344111
v -2.521989 120.717938 16.902855
v -15.417653 131.459585 12.601670
v -7.897418 140.053513 22.270919
v -17.568772 141.130424 26.572104
v -5.746300 148.653543 31.946481
f 339 335 352 
f 322 323 325 
f 324 328 330 
f 322 325 332 
f 328 324 333 
f 324 332 333 
f 324 330 335 
f 326 329 336 
f 330 321 337 
f 321 334 337 
f 326 335 337 
f 335 330 337 
f 322 332 339 
f 332 324 339 
f 324 335 339 
f 325 323 341 
f 331 325 341 
f 323 338 341 
f 323 322 342 
f 338 323 342 
f 327 338 342 
f 340 327 342 
f 321 330 343 
f 334 321 343 
f 332 325 344 
f 325 333 344 
f 333 332 344 
f 322 336 345 
f 336 329 345 
f 342 322 345 
f 340 342 345 
f 328 325 346 
f 330 328 346 
f 325 331 346 
f 325 328 347 
f 333 325 347 
f 328 333 347 
f 329 326 348 
f 337 334 348 
f 326 337 348 
f 327 340 349 
f 343 327 349 
f 334 343 349 
f 329 348 349 
f 348 334 349 
f 345 329 350 
f 340 345 350 
f 349 340 350 
f 329 349 350 
f 338 327 351 
f 331 341 351 
f 341 338 351 
f 343 330 351 
f 327 343 351 
f 330 346 351 
f 346 331 351 
f 335 326 352 
f 336 322 352 
f 326 336 352 
f 322 339 352 
o convex_11
v -7.895525 111.035781 29.800202
v -8.970505 98.142958 26.572104
v -2.520622 98.142958 26.572104
v -16.493581 107.815574 49.144487
v -19.718522 113.184585 35.171528
v -13.268639 117.484192 49.144487
v -19.718522 104.591368 36.249770
v -19.718522 118.561592 49.144487
v -1.445641 104.591368 30.871816
v -14.343619 105.664771 26.572104
v -3.595602 108.884978 26.572104
v -19.718522 105.664771 44.844775
v -3.595602 102.440565 34.099914
v -2.520622 98.142958 28.721960
v -18.641753 118.561592 45.916389
v -12.193658 108.884978 26.572104
v -2.520622 108.884978 30.871816
v -14.343619 118.561592 48.068454
v -13.268639 114.259986 49.144487
v -19.718522 107.815574 49.144487
v -13.268639 101.367163 26.572104
v -8.970505 98.142958 28.721960
v -1.445641 106.740172 26.572104
v -19.718522 106.740172 34.099914
v -3.595602 106.740172 35.171528
v -14.343619 106.740172 46.994631
v -14.343619 113.184585 34.099914
v -1.445641 99.216360 27.648137
v -13.268639 102.440565 38.392998
v -3.595602 104.591368 35.171528
v -11.118678 109.960380 27.648137
v -14.343619 111.035781 49.144487
f 382 371 384 
f 357 359 360 
f 356 358 360 
f 355 354 362 
f 355 362 363 
f 360 359 364 
f 354 355 366 
f 357 360 367 
f 362 357 368 
f 363 362 368 
f 369 363 370 
f 360 358 370 
f 363 353 370 
f 353 367 370 
f 367 360 370 
f 358 369 370 
f 358 356 371 
f 356 360 372 
f 364 356 372 
f 360 364 372 
f 354 359 373 
f 362 354 373 
f 359 354 374 
f 364 359 374 
f 354 366 374 
f 355 363 375 
f 369 361 375 
f 363 369 375 
f 359 357 376 
f 357 362 376 
f 373 359 376 
f 362 373 376 
f 369 358 377 
f 361 369 377 
f 358 371 377 
f 356 364 378 
f 366 365 378 
f 367 353 379 
f 357 367 379 
f 361 365 380 
f 365 366 380 
f 366 355 380 
f 355 375 380 
f 375 361 380 
f 364 374 381 
f 374 366 381 
f 378 364 381 
f 366 378 381 
f 365 361 382 
f 361 377 382 
f 377 371 382 
f 353 363 383 
f 368 357 383 
f 363 368 383 
f 379 353 383 
f 357 379 383 
f 371 356 384 
f 356 378 384 
f 378 365 384 
f 365 382 384 
o convex_12
v -12.194009 114.263511 51.297915
v 2.852177 134.683460 71.712978
v -1.448942 134.683460 71.712978
v -12.191800 121.785587 67.416116
v -19.715998 119.636783 50.222043
v -16.492919 108.887714 51.297915
v -19.715998 117.485454 60.965301
v -1.448942 127.161384 71.712978
v -12.194009 118.561119 49.148380
v -19.715998 112.114707 57.744312
v 0.700513 128.234524 68.489779
v -19.715998 108.887714 49.148380
v -7.895099 128.234524 71.712978
v 2.852177 134.683460 70.639314
v -19.715998 119.636783 55.596986
v -4.672020 123.936916 58.822393
v -7.897308 120.709922 66.340244
v -15.417087 109.965903 49.148380
v -7.895099 126.085720 71.712978
v -12.194009 120.709922 51.297915
v -1.448942 134.683460 70.639314
v 0.700513 128.234524 70.639314
v -19.715998 118.561119 49.148380
v -10.040136 127.161384 68.489779
v -19.715998 115.336650 60.965301
v -17.566542 112.114707 57.744312
v -11.120386 117.485454 50.222043
v -1.448942 126.085720 64.190709
v -4.672020 122.861251 67.416116
v -19.715998 118.561119 59.893847
v 1.776345 130.383328 68.489779
v -3.598397 126.085720 71.712978
f 401 413 416 
f 386 387 392 
f 391 389 394 
f 394 389 396 
f 390 394 396 
f 392 387 397 
f 387 386 398 
f 387 389 399 
f 389 391 399 
f 393 398 400 
f 390 396 402 
f 396 393 402 
f 397 391 403 
f 392 397 403 
f 393 389 404 
f 398 393 404 
f 398 404 405 
f 389 387 405 
f 387 398 405 
f 404 389 405 
f 386 392 406 
f 402 395 406 
f 390 402 406 
f 389 393 407 
f 393 396 407 
f 396 389 407 
f 397 387 408 
f 387 399 408 
f 391 394 409 
f 394 388 409 
f 388 403 409 
f 403 391 409 
f 394 390 410 
f 388 394 410 
f 401 388 410 
f 390 401 410 
f 393 400 411 
f 385 402 411 
f 402 393 411 
f 402 385 412 
f 395 402 412 
f 385 411 412 
f 411 400 412 
f 401 390 413 
f 406 392 413 
f 390 406 413 
f 391 397 414 
f 399 391 414 
f 397 408 414 
f 408 399 414 
f 398 386 415 
f 400 398 415 
f 386 406 415 
f 406 395 415 
f 395 412 415 
f 412 400 415 
f 388 401 416 
f 403 388 416 
f 392 403 416 
f 413 392 416 
o convex_13
v -1.444168 204.548887 40.545484
v 12.526266 185.208179 62.042992
v 10.375148 185.208179 62.042992
v 11.451496 184.128991 54.518022
v 6.076067 185.208179 54.518022
v 2.856491 204.548887 45.919861
v -2.520516 205.623237 44.848773
v 7.152415 197.026022 48.070453
v 8.225607 184.128991 60.967695
v 0.705372 206.697586 40.545484
v 13.602614 185.208179 57.739702
v 6.076067 193.805394 46.997261
v 1.780143 199.174721 51.294238
v 0.705372 195.954092 49.147854
v -1.444168 201.323420 42.698181
v 1.780143 205.623237 45.919861
v -2.520516 208.848704 40.545484
v 7.152415 184.128991 54.518022
v 13.602614 185.208179 60.967695
v 5.006031 188.431227 56.666510
v 2.856491 193.805394 46.997261
v 13.602614 184.128991 60.967695
v -2.520516 203.474538 44.848773
v 5.006031 201.323420 46.997261
v 8.225607 186.282529 60.967695
v 1.780143 200.249070 42.698181
v -1.444168 206.697586 44.848773
v 12.526266 184.128991 55.591214
v 3.929683 200.249070 43.771373
v 6.076067 185.208179 56.666510
v 2.856491 204.548887 42.698181
v 7.152415 197.026022 52.367430
f 435 440 448 
f 418 419 425 
f 419 418 429 
f 421 430 431 
f 422 426 432 
f 429 418 432 
f 426 417 433 
f 417 431 433 
f 432 426 433 
f 420 425 434 
f 428 420 434 
f 429 423 436 
f 421 431 437 
f 434 421 437 
f 428 434 437 
f 418 425 438 
f 425 420 438 
f 435 418 438 
f 427 435 438 
f 431 430 439 
f 433 431 439 
f 423 433 439 
f 436 423 439 
f 430 436 439 
f 427 424 440 
f 435 427 440 
f 425 419 441 
f 419 429 441 
f 436 425 441 
f 429 436 441 
f 417 426 442 
f 431 417 442 
f 428 437 442 
f 437 431 442 
f 423 429 443 
f 429 432 443 
f 433 423 443 
f 432 433 443 
f 424 427 444 
f 420 428 444 
f 438 420 444 
f 427 438 444 
f 442 426 445 
f 428 442 445 
f 424 444 445 
f 444 428 445 
f 430 421 446 
f 434 425 446 
f 421 434 446 
f 425 436 446 
f 436 430 446 
f 426 422 447 
f 422 440 447 
f 440 424 447 
f 424 445 447 
f 445 426 447 
f 432 418 448 
f 422 432 448 
f 418 435 448 
f 440 422 448 
o convex_14
v 13.602720 184.128991 63.117867
v 17.901695 205.626498 81.390749
v 18.976991 204.551202 80.315768
v 14.678016 184.128991 71.719501
v 11.452864 195.948832 72.789115
v 17.901695 184.128991 65.269617
v 17.901695 202.400609 74.940865
v 11.452864 189.507576 73.865884
v 17.901695 198.101529 80.315768
v 14.678016 204.551202 81.390749
v 11.452864 185.204287 64.192848
v 14.678016 204.551202 77.090826
v 17.901695 184.128991 69.567751
v 13.602720 195.948832 79.238999
v 15.751839 190.580768 66.342809
v 11.452864 184.128991 70.642731
v 13.602720 198.101529 71.719501
v 18.976991 199.174721 73.865884
v 18.976991 201.325313 81.390749
v 16.826399 186.281687 64.192848
v 12.528896 199.174721 78.165807
v 18.976991 193.806657 74.940865
v 14.678016 200.250017 81.390749
v 18.976991 204.551202 78.165807
v 13.602720 185.204287 63.117867
v 12.528896 200.250017 74.940865
v 13.602720 193.806657 78.165807
v 15.751839 205.626498 78.165807
v 16.826399 185.204287 71.719501
v 16.826399 197.026233 70.642731
v 13.602720 203.473801 79.238999
v 11.452864 192.729256 69.567751
f 474 465 480 
f 452 449 454 
f 456 453 459 
f 452 454 461 
f 449 452 464 
f 459 449 464 
f 456 459 464 
f 460 455 465 
f 451 450 467 
f 450 458 467 
f 457 461 467 
f 466 451 467 
f 454 449 468 
f 466 454 468 
f 453 456 469 
f 456 462 469 
f 461 454 470 
f 454 466 470 
f 467 461 470 
f 466 467 470 
f 462 457 471 
f 467 458 471 
f 457 467 471 
f 458 469 471 
f 469 462 471 
f 450 451 472 
f 451 466 472 
f 466 455 472 
f 449 459 473 
f 459 465 473 
f 465 463 473 
f 468 449 473 
f 463 468 473 
f 460 465 474 
f 453 469 474 
f 452 457 475 
f 462 456 475 
f 457 462 475 
f 464 452 475 
f 456 464 475 
f 458 450 476 
f 455 460 476 
f 460 458 476 
f 450 472 476 
f 472 455 476 
f 457 452 477 
f 452 461 477 
f 461 457 477 
f 465 455 478 
f 463 465 478 
f 455 466 478 
f 468 463 478 
f 466 468 478 
f 458 460 479 
f 469 458 479 
f 460 474 479 
f 474 469 479 
f 459 453 480 
f 465 459 480 
f 453 474 480 
o convex_15
v -8.968296 91.688024 12.601249
v 6.078487 90.613043 19.047555
v 6.078487 86.317224 19.047555
v -4.669215 82.017302 25.495545
v 1.777828 80.942321 9.376412
v -7.891947 94.912966 22.270709
v 0.703058 94.912966 8.300906
v -8.968296 80.942321 13.675072
v 2.852598 80.942321 24.420039
v 0.703058 94.912966 22.270709
v -6.818755 94.912966 9.376412
v 5.002138 94.912966 11.525742
v -8.968296 80.942321 22.270709
v 5.002138 80.942321 11.525742
v -5.742407 80.942321 9.376412
v -10.044644 94.912966 20.121379
v 2.852598 86.317224 24.420039
v 6.078487 84.167263 12.601249
v 5.002138 80.942321 21.195202
v -10.044644 94.912966 15.824402
v -4.669215 93.837985 8.300906
v 3.925790 94.912966 19.047555
v 2.852598 87.392205 9.376412
v 6.078487 91.688024 12.601249
v -7.891947 93.837985 10.451919
v -2.519675 80.942321 25.495545
v 1.777828 93.837985 22.270709
v 5.002138 94.912966 15.824402
v 0.703058 92.763005 8.300906
v 3.925790 84.167263 23.346215
v -10.044644 93.837985 15.824402
v -6.818755 80.942321 10.451919
f 505 495 512 
f 488 485 489 
f 486 484 490 
f 487 486 490 
f 486 487 491 
f 487 490 492 
f 484 486 493 
f 488 489 493 
f 489 485 494 
f 485 488 495 
f 486 491 496 
f 493 486 496 
f 490 484 497 
f 482 483 498 
f 494 498 499 
f 489 494 499 
f 498 483 499 
f 496 491 500 
f 491 487 501 
f 495 491 501 
f 492 490 502 
f 487 492 503 
f 494 485 503 
f 498 494 503 
f 498 503 504 
f 482 498 504 
f 503 492 504 
f 488 481 505 
f 491 495 505 
f 481 500 505 
f 500 491 505 
f 484 493 506 
f 493 489 506 
f 489 497 506 
f 497 484 506 
f 497 482 507 
f 490 497 507 
f 482 502 507 
f 502 490 507 
f 502 482 508 
f 492 502 508 
f 482 504 508 
f 504 492 508 
f 485 495 509 
f 501 487 509 
f 495 501 509 
f 503 485 509 
f 487 503 509 
f 483 482 510 
f 482 497 510 
f 497 489 510 
f 499 483 510 
f 489 499 510 
f 481 488 511 
f 488 493 511 
f 493 496 511 
f 500 481 511 
f 496 500 511 
f 495 488 512 
f 488 505 512 
o convex_16
v 3.928736 98.141064 15.825875
v -16.493896 114.258513 15.825875
v -16.493896 114.258513 19.045451
v 1.775724 117.482929 9.374203
v -3.595813 118.561592 25.495335
v -12.193869 99.217412 26.572104
v -5.748825 94.914334 8.299222
v -16.493896 118.561592 11.525953
v -2.522305 97.064716 26.572104
v -10.042855 94.914334 13.674125
v 3.928736 94.914334 11.525953
v -15.418390 118.561592 22.272182
v -3.595813 118.561592 8.299222
v -0.371292 103.513547 26.572104
v 2.853229 108.886030 8.299222
v -7.893841 94.914334 23.345374
v -1.446798 117.482929 23.345374
v 2.853229 94.914334 20.120432
v -13.267376 105.666244 26.572104
v -8.969348 102.439513 8.299222
v 0.702216 94.914334 8.299222
v -8.969348 118.561592 25.495335
v 2.853229 114.258513 9.374203
v -8.969348 112.108131 8.299222
v 3.928736 95.992997 17.972259
v -11.118362 95.992997 16.899067
v -16.493896 115.334862 12.599145
v -16.493896 118.561592 21.197201
v -4.671319 108.886030 26.572104
v -13.267376 102.439513 26.572104
v -8.969348 94.914334 11.525953
v -1.446798 118.561592 22.272182
f 529 535 544 
f 514 515 520 
f 522 519 523 
f 517 520 524 
f 520 517 525 
f 518 521 526 
f 525 516 527 
f 519 525 527 
f 521 518 528 
f 522 523 528 
f 517 526 529 
f 526 521 530 
f 521 528 530 
f 528 523 530 
f 518 526 531 
f 525 519 532 
f 523 519 533 
f 527 523 533 
f 519 527 533 
f 517 524 534 
f 524 531 534 
f 513 523 535 
f 527 516 535 
f 523 527 535 
f 520 525 536 
f 532 520 536 
f 525 532 536 
f 523 513 537 
f 529 526 537 
f 530 523 537 
f 526 530 537 
f 513 535 537 
f 535 529 537 
f 528 518 538 
f 522 528 538 
f 514 520 539 
f 520 532 539 
f 538 514 539 
f 522 538 539 
f 520 515 540 
f 524 520 540 
f 531 524 540 
f 526 517 541 
f 531 526 541 
f 517 534 541 
f 534 531 541 
f 515 514 542 
f 518 531 542 
f 514 538 542 
f 538 518 542 
f 540 515 542 
f 531 540 542 
f 519 522 543 
f 532 519 543 
f 522 539 543 
f 539 532 543 
f 516 525 544 
f 525 517 544 
f 517 529 544 
f 535 516 544 
o convex_17
v 8.225081 154.034374 49.142874
v 13.599879 173.380237 55.593213
v 13.599879 173.380237 54.517525
v -4.670267 155.108197 38.397358
v 18.976991 166.929722 38.397358
v 18.976991 161.554924 41.622528
v 7.153362 161.558712 55.593213
v 2.854913 154.034374 36.247876
v 14.676227 164.780181 55.593213
v 9.303744 172.302626 54.517525
v -2.519885 154.034374 45.919598
v 18.976991 161.554924 46.993392
v 10.377778 154.034374 42.698216
v -3.593919 155.108197 36.247876
v 7.153362 169.077368 55.593213
v 18.976991 166.929722 46.993392
v 2.854913 154.034374 50.218562
v 10.375463 157.257737 52.368044
v 18.976991 163.706358 38.397358
v 17.896014 166.929722 38.397358
v -4.670267 155.108197 41.622528
v 12.523530 155.108197 45.919598
v 8.225081 154.034374 39.473046
v -4.670267 154.034374 38.397358
v 14.676227 172.302626 55.593213
v 13.602194 157.259631 49.142874
v 18.976991 168.005439 40.546840
v 18.976991 164.778288 48.069080
v 11.449497 173.380237 54.517525
v 8.227396 171.228802 55.593213
v 11.449497 161.558712 55.593213
v 7.153362 156.185808 52.368044
f 575 551 576 
f 546 551 553 
f 552 545 555 
f 550 549 556 
f 545 552 557 
f 549 552 558 
f 548 554 558 
f 551 546 559 
f 555 551 559 
f 556 549 560 
f 551 555 561 
f 555 545 561 
f 549 550 563 
f 552 549 563 
f 549 558 564 
f 555 559 565 
f 550 556 566 
f 545 557 566 
f 557 550 566 
f 557 552 567 
f 550 557 567 
f 563 550 567 
f 552 563 567 
f 552 555 568 
f 558 552 568 
f 548 558 568 
f 565 548 568 
f 555 565 568 
f 546 553 569 
f 556 553 570 
f 553 562 570 
f 562 545 570 
f 566 556 570 
f 545 566 570 
f 547 546 571 
f 560 549 571 
f 549 564 571 
f 546 569 571 
f 569 560 571 
f 553 556 572 
f 556 560 572 
f 569 553 572 
f 560 569 572 
f 546 547 573 
f 558 554 573 
f 564 558 573 
f 547 571 573 
f 571 564 573 
f 554 548 574 
f 559 546 574 
f 548 565 574 
f 565 559 574 
f 546 573 574 
f 573 554 574 
f 553 551 575 
f 562 553 575 
f 562 575 576 
f 561 545 576 
f 551 561 576 
f 545 562 576 
o convex_18
v -14.342462 146.505827 36.247666
v 9.303113 154.032480 44.843302
v 9.303113 154.032480 42.695235
v -7.893210 135.759598 33.022198
v -5.744301 150.807538 31.946481
v 1.778144 154.032480 49.144487
v -6.820018 154.032480 37.323383
v -16.493896 138.984540 33.022198
v -12.193553 141.134501 38.395733
v 7.151679 152.955710 49.144487
v 2.853861 154.032480 36.247666
v -15.418179 146.505827 31.946481
v -6.820018 136.836367 31.946481
v -7.893210 151.882519 41.619518
v -11.117836 146.505827 40.545484
v 9.303113 152.955710 44.843302
v -13.266745 135.759598 31.946481
v 7.151679 152.955710 39.471450
v -3.595392 147.582596 31.946481
v -6.820018 152.955710 34.097915
v -0.370766 151.882519 48.068770
v -4.666058 145.432635 42.695235
v -15.418179 144.359443 36.247666
v -0.370766 154.032480 48.068770
v 9.303113 152.955710 42.695235
v -12.193553 149.730769 31.946481
v -6.820018 154.032480 39.471450
v -13.266745 135.759598 33.022198
v -15.418179 141.134501 36.247666
v 8.227396 152.955710 48.068770
v -15.418179 146.505827 34.097915
v -16.493896 144.359443 31.946481
f 599 607 608 
f 578 579 582 
f 582 579 583 
f 578 582 586 
f 583 579 587 
f 588 581 589 
f 579 578 592 
f 588 589 593 
f 589 580 593 
f 587 579 594 
f 594 589 595 
f 581 587 595 
f 589 581 595 
f 587 594 595 
f 587 581 596 
f 583 587 596 
f 586 582 597 
f 591 585 597 
f 580 586 598 
f 586 597 598 
f 597 585 598 
f 590 577 599 
f 591 590 599 
f 582 583 600 
f 590 591 600 
f 597 582 600 
f 591 597 600 
f 580 589 601 
f 579 592 601 
f 592 580 601 
f 594 579 601 
f 589 594 601 
f 581 588 602 
f 596 581 602 
f 583 596 602 
f 600 583 603 
f 590 600 603 
f 583 602 603 
f 593 580 604 
f 584 593 604 
f 580 598 604 
f 598 585 604 
f 585 591 605 
f 599 584 605 
f 591 599 605 
f 584 604 605 
f 604 585 605 
f 578 586 606 
f 586 580 606 
f 592 578 606 
f 580 592 606 
f 577 590 607 
f 599 577 607 
f 602 588 607 
f 590 603 607 
f 603 602 607 
f 593 584 608 
f 588 593 608 
f 584 599 608 
f 607 588 608 
o convex_19
v 14.676227 165.859160 55.593739
v 15.751524 184.126886 70.641995
v 12.527739 184.126886 70.641995
v 12.527739 184.126886 55.593739
v 7.153362 164.783969 56.670509
v 7.153362 184.126886 58.819628
v 17.902116 183.051695 63.117867
v 16.825768 179.826122 68.489929
v 10.379251 162.631483 56.670509
v 8.229711 184.126886 55.593739
v 15.751524 172.308202 55.593739
v 17.902116 177.677844 65.266987
v 7.153362 164.783969 55.593739
v 12.527739 180.901313 69.565226
v 11.453495 183.051695 69.565226
v 17.902116 184.126886 68.489929
v 12.527739 163.708778 56.670509
v 9.303955 166.934351 59.894924
v 12.527739 171.233011 63.117867
v 7.153362 184.126886 56.670509
v 17.902116 177.677844 63.117867
v 8.229711 162.631483 55.593739
v 17.902116 184.126886 64.190217
v 15.751524 169.082629 58.819628
v 15.751524 169.082629 56.670509
v 15.751524 180.901313 69.565226
v 8.229711 162.631483 56.670509
v 12.527739 165.859160 58.819628
v 17.902116 181.976504 68.489929
v 16.825768 176.602653 58.819628
v 15.751524 183.051695 70.641995
v 10.379251 162.631483 55.593739
f 617 630 640 
f 611 610 612 
f 611 612 614 
f 612 609 618 
f 614 612 618 
f 609 612 619 
f 613 614 621 
f 618 609 621 
f 611 614 623 
f 614 613 623 
f 622 611 623 
f 612 610 624 
f 620 615 624 
f 620 616 625 
f 623 613 626 
f 622 623 626 
f 622 626 627 
f 614 618 628 
f 621 614 628 
f 618 621 628 
f 615 620 629 
f 613 621 630 
f 621 609 630 
f 615 612 631 
f 612 624 631 
f 624 615 631 
f 625 609 632 
f 620 625 632 
f 609 619 633 
f 619 629 633 
f 629 620 633 
f 632 609 633 
f 620 632 633 
f 627 616 634 
f 622 627 634 
f 626 613 635 
f 617 627 635 
f 627 626 635 
f 630 617 635 
f 613 630 635 
f 617 625 636 
f 625 616 636 
f 616 627 636 
f 627 617 636 
f 616 620 637 
f 624 610 637 
f 620 624 637 
f 612 615 638 
f 619 612 638 
f 629 619 638 
f 615 629 638 
f 610 611 639 
f 611 622 639 
f 634 616 639 
f 622 634 639 
f 637 610 639 
f 616 637 639 
f 609 625 640 
f 625 617 640 
f 630 609 640 
o convex_20
v 7.152941 143.281832 74.942128
v -6.820018 127.162805 71.716870
v -2.518833 127.162805 71.716870
v 3.928526 147.581123 81.390749
v 5.002349 149.730769 77.090721
v 5.002349 140.056259 79.240261
v 0.704110 136.837314 71.716870
v -3.594129 131.462096 76.016898
v 1.777933 130.388378 71.716870
v 8.228238 143.281832 78.165491
v -6.820018 129.312450 71.716870
v 1.777933 131.462096 74.942128
v 3.928526 149.730769 80.315032
v 7.152941 149.730769 79.240261
v -2.518833 136.837314 77.090721
v 3.928526 134.687669 71.716870
v 7.152941 147.581123 76.016898
v 7.152941 144.355550 80.315032
v -2.518833 129.312450 74.942128
v 3.928526 149.730769 78.165491
v -3.594129 133.611741 71.716870
v -6.820018 127.162805 72.792587
v 8.228238 143.281832 76.016898
v 0.704110 133.611741 77.090721
v -1.443537 128.238732 73.867357
v 8.228238 147.581123 78.165491
v 7.152941 141.132187 78.165491
v 7.152941 148.654841 80.315032
v 2.853229 136.837314 71.716870
v -0.368240 136.837314 78.165491
v -6.820018 129.312450 72.792587
v 7.152941 149.730769 77.090721
f 666 663 672 
f 643 642 647 
f 643 647 649 
f 647 642 651 
f 645 653 654 
f 648 644 655 
f 644 653 655 
f 649 647 656 
f 647 645 657 
f 644 646 658 
f 653 645 660 
f 651 653 660 
f 645 647 661 
f 647 651 661 
f 660 645 661 
f 651 660 661 
f 642 643 662 
f 651 642 662 
f 659 648 662 
f 656 641 663 
f 649 656 663 
f 641 657 663 
f 652 646 664 
f 648 659 664 
f 664 659 665 
f 643 649 665 
f 649 652 665 
f 662 643 665 
f 659 662 665 
f 652 664 665 
f 658 650 666 
f 650 663 666 
f 646 652 667 
f 652 649 667 
f 658 646 667 
f 650 658 667 
f 649 663 667 
f 663 650 667 
f 653 644 668 
f 654 653 668 
f 644 658 668 
f 666 654 668 
f 658 666 668 
f 641 656 669 
f 656 647 669 
f 647 657 669 
f 657 641 669 
f 646 644 670 
f 644 648 670 
f 664 646 670 
f 648 664 670 
f 653 651 671 
f 648 655 671 
f 655 653 671 
f 651 662 671 
f 662 648 671 
f 645 654 672 
f 657 645 672 
f 663 657 672 
f 654 666 672 
o convex_21
v 23.275441 166.934351 38.396575
v 21.127794 166.934351 46.993895
v 18.976991 166.934351 46.993895
v 20.052077 184.126886 41.621411
v 18.976991 164.783969 38.396575
v 25.426244 176.602653 42.695235
v 23.275441 181.976504 38.396575
v 25.426244 168.007438 43.769900
v 20.052077 162.631483 45.919230
v 23.275441 177.677844 44.844565
v 20.052077 183.051695 38.396575
v 25.426244 170.157820 39.472081
v 22.201618 184.126886 41.621411
v 25.426244 172.308202 44.844565
v 20.052077 162.631483 41.621411
v 21.127794 180.901313 43.769900
v 18.976991 162.631483 45.919230
v 18.976991 168.007438 38.396575
v 24.351158 177.677844 38.396575
v 24.351158 166.934351 39.472081
v 23.275441 166.934351 45.919230
v 24.351158 178.750931 43.769900
v 25.426244 176.602653 40.546746
v 21.127794 164.783969 38.396575
v 22.201618 184.126886 39.472081
v 20.052077 163.708778 46.993895
v 24.351158 179.826122 41.621411
v 24.351158 169.082629 38.396575
v 22.201618 183.051695 42.695235
v 18.976991 162.631483 41.621411
v 25.426244 168.007438 40.546746
v 25.426244 169.082629 44.844565
f 693 680 704 
f 673 677 679 
f 675 674 682 
f 679 677 683 
f 678 680 684 
f 680 678 686 
f 682 674 686 
f 680 681 687 
f 676 675 688 
f 675 682 688 
f 675 677 689 
f 687 681 689 
f 675 676 690 
f 677 675 690 
f 676 683 690 
f 683 677 690 
f 673 679 691 
f 681 680 693 
f 686 678 694 
f 682 686 694 
f 678 684 695 
f 691 679 695 
f 684 691 695 
f 677 673 696 
f 687 677 696 
f 673 692 696 
f 692 687 696 
f 683 676 697 
f 679 683 697 
f 676 685 697 
f 674 675 698 
f 675 689 698 
f 689 681 698 
f 693 674 698 
f 681 693 698 
f 694 678 699 
f 685 694 699 
f 678 695 699 
f 695 679 699 
f 679 697 699 
f 697 685 699 
f 673 691 700 
f 691 684 700 
f 692 673 700 
f 685 676 701 
f 676 688 701 
f 688 682 701 
f 694 685 701 
f 682 694 701 
f 677 687 702 
f 689 677 702 
f 687 689 702 
f 684 680 703 
f 680 687 703 
f 687 692 703 
f 700 684 703 
f 692 700 703 
f 686 674 704 
f 680 686 704 
f 674 693 704 
