o convex_0
v -27.101577 172.237446 -64.807253
v -14.051913 138.115933 -28.671153
v -17.066277 138.115933 -28.671153
v -25.095146 193.322267 -65.811156
v -14.051913 145.142077 -52.760412
v -25.095146 143.136433 -42.730223
v -30.115940 193.322267 -67.823385
v -23.085570 193.322267 -71.838999
v -15.056701 128.068546 -29.679479
v -25.095146 144.139255 -49.761969
v -14.051913 154.180254 -45.741933
v -28.107937 191.310235 -73.851228
v -23.085570 193.322267 -66.819482
v -14.051913 133.095433 -39.722935
v -30.115940 186.289735 -68.827289
v -14.051913 155.183077 -52.760412
v -27.101577 157.188722 -49.761969
v -21.082284 144.139255 -51.756508
v -18.067920 136.110288 -28.671153
v -24.091930 189.304590 -72.842902
v -23.085570 139.118755 -45.741933
v -29.111152 192.313057 -65.811156
v -17.066277 130.086966 -28.671153
v -24.091930 162.196447 -60.796061
v -27.101577 156.185899 -54.772641
v -30.115940 191.310235 -72.842902
v -18.067920 136.110288 -43.738549
v -14.051913 148.156932 -53.768738
v -14.051913 128.068546 -28.671153
v -22.083927 190.307412 -65.811156
v -26.099934 151.165400 -53.768738
v -24.091930 151.165400 -42.730223
f 19 22 32 
f 3 2 4 
f 7 4 8 
f 2 5 11 
f 4 2 13 
f 8 4 13 
f 5 2 14 
f 11 5 16 
f 7 15 17 
f 2 3 19 
f 12 8 20 
f 6 10 21 
f 10 18 21 
f 3 4 22 
f 4 7 22 
f 7 17 22 
f 19 3 22 
f 2 19 23 
f 19 6 23 
f 6 21 23 
f 21 9 23 
f 1 12 24 
f 5 18 24 
f 20 5 24 
f 12 20 24 
f 10 6 25 
f 6 17 25 
f 17 15 25 
f 7 8 26 
f 12 1 26 
f 8 12 26 
f 15 7 26 
f 25 15 26 
f 5 14 27 
f 14 9 27 
f 18 5 27 
f 9 21 27 
f 21 18 27 
f 16 5 28 
f 8 16 28 
f 5 20 28 
f 20 8 28 
f 14 2 29 
f 9 14 29 
f 2 23 29 
f 23 9 29 
f 2 11 30 
f 13 2 30 
f 8 13 30 
f 16 8 30 
f 11 16 30 
f 18 10 31 
f 1 24 31 
f 24 18 31 
f 10 25 31 
f 26 1 31 
f 25 26 31 
f 17 6 32 
f 6 19 32 
f 22 17 32 
o convex_1
v -49.193544 221.429303 14.498954
v -59.230711 164.223121 10.486092
v -58.226611 163.208605 8.477499
v -51.201744 163.208605 14.498954
v -50.197644 163.208605 6.468906
v -56.218412 183.293748 16.508628
v -52.205844 211.392430 10.486092
v -46.179967 214.407482 15.504332
v -46.179967 218.419951 11.489308
v -53.206112 209.386196 16.508628
v -55.214312 166.229356 16.508628
v -49.193544 207.379961 17.512925
v -58.226611 182.290631 11.489308
v -55.214312 168.235590 6.468906
v -49.193544 210.389313 9.482877
v -58.226611 163.208605 14.498954
v -57.222511 178.278162 8.477499
v -46.179967 208.383079 14.498954
v -50.197644 163.208605 12.492523
v -53.206112 212.395548 12.492523
v -58.226611 182.290631 13.495739
v -47.185345 218.419951 16.508628
v -50.197644 219.423068 11.489308
v -51.201744 217.416834 16.508628
v -52.205844 205.368027 17.512925
v -58.226611 169.238707 15.504332
v -47.185345 208.383079 16.508628
v -52.205844 164.223121 15.504332
v -59.230711 173.256876 10.486092
v -56.218412 163.208605 6.468906
v -59.230711 170.241825 13.495739
v -46.179967 209.386196 12.492523
f 41 50 64 
f 36 35 37 
f 41 37 47 
f 37 46 47 
f 46 39 47 
f 34 35 48 
f 35 36 48 
f 39 46 49 
f 41 40 50 
f 36 37 51 
f 37 50 51 
f 49 45 52 
f 39 49 52 
f 38 42 53 
f 42 52 53 
f 52 45 53 
f 41 33 54 
f 40 41 54 
f 33 41 55 
f 47 39 55 
f 41 47 55 
f 39 52 55 
f 55 52 56 
f 52 42 56 
f 54 33 56 
f 44 54 56 
f 33 55 56 
f 42 38 57 
f 38 43 57 
f 43 44 57 
f 56 42 57 
f 44 56 57 
f 43 38 58 
f 48 43 58 
f 38 53 58 
f 50 40 59 
f 36 51 59 
f 51 50 59 
f 40 54 59 
f 54 44 59 
f 44 43 60 
f 48 36 60 
f 43 48 60 
f 36 59 60 
f 59 44 60 
f 35 34 61 
f 49 35 61 
f 45 49 61 
f 53 45 61 
f 37 35 62 
f 46 37 62 
f 35 49 62 
f 49 46 62 
f 34 48 63 
f 48 58 63 
f 58 53 63 
f 61 34 63 
f 53 61 63 
f 37 41 64 
f 50 37 64 
o convex_2
v -24.092716 200.359812 -71.845190
v -39.151955 218.427420 -79.874059
v -39.151955 218.427420 -78.869762
v -31.119942 194.334033 -70.840894
v -28.108723 198.352300 -76.862545
v -34.131161 224.449955 -82.885573
v -32.121585 214.409152 -73.852407
v -37.142380 217.418799 -82.885573
v -31.119942 200.359812 -69.835221
v -24.092716 193.328655 -73.852407
v -24.092716 200.359812 -69.835221
v -30.118299 193.328655 -73.852407
v -38.147167 224.449955 -78.869762
v -23.087929 193.328655 -69.835221
v -34.131161 224.449955 -79.874059
v -35.135949 210.390885 -72.849487
v -39.151955 225.455333 -82.885573
v -26.102292 199.354434 -76.862545
v -35.135949 221.437066 -83.888493
v -24.092716 199.354434 -73.852407
v -38.147167 215.411287 -80.876980
v -30.118299 193.328655 -69.835221
v -33.127945 220.434931 -76.862545
v -38.147167 220.434931 -76.862545
v -36.137592 226.460711 -82.885573
v -39.151955 220.434931 -82.885573
v -38.147167 215.411287 -76.862545
v -36.137592 219.429554 -75.861000
v -30.118299 201.361946 -69.835221
v -38.147167 225.455333 -83.888493
v -36.137592 220.434931 -83.888493
v -25.095932 199.354434 -75.861000
f 84 74 96 
f 65 70 75 
f 72 69 76 
f 69 74 76 
f 65 75 78 
f 75 73 78 
f 76 74 78 
f 75 70 79 
f 66 67 81 
f 67 77 81 
f 74 69 82 
f 70 82 83 
f 70 65 84 
f 65 78 84 
f 78 74 84 
f 67 66 85 
f 76 68 85 
f 72 76 85 
f 68 76 86 
f 78 73 86 
f 76 78 86 
f 80 68 86 
f 73 80 86 
f 71 75 87 
f 75 79 87 
f 79 77 87 
f 77 67 88 
f 79 70 89 
f 77 79 89 
f 81 77 89 
f 66 81 90 
f 85 66 90 
f 72 85 90 
f 68 80 91 
f 67 85 91 
f 85 68 91 
f 88 67 91 
f 80 88 91 
f 80 71 92 
f 71 87 92 
f 87 77 92 
f 77 88 92 
f 88 80 92 
f 75 71 93 
f 73 75 93 
f 80 73 93 
f 71 80 93 
f 70 83 94 
f 89 70 94 
f 81 89 94 
f 90 81 94 
f 90 94 95 
f 69 72 95 
f 82 69 95 
f 83 82 95 
f 72 90 95 
f 94 83 95 
f 82 70 96 
f 74 82 96 
f 70 84 96 
o convex_3
v -21.080318 222.444704 -41.725926
v -30.115940 193.328655 -69.835221
v -23.089108 193.328655 -69.835221
v -25.095932 201.365779 -69.835221
v -21.080318 217.422926 -41.725926
v -27.102756 211.397934 -56.783003
v -20.075923 217.422926 -48.751776
v -24.093503 217.422926 -42.728355
v -27.102756 193.328655 -65.813711
v -30.115940 200.356863 -69.835221
v -24.093503 219.429357 -47.752295
v -20.075923 215.416496 -44.736162
v -30.115940 193.328655 -67.824466
v -25.095932 193.328655 -65.813711
v -25.095932 217.422926 -45.741540
v -23.089108 196.344002 -69.835221
v -28.107151 203.372210 -67.824466
v -21.080318 219.429357 -47.752295
v -23.089108 193.328655 -67.824466
v -22.084713 222.444704 -39.715171
v -30.115940 200.356863 -67.824466
v -20.075923 221.438638 -40.720549
v -24.093503 200.356863 -69.835221
v -23.089108 216.419711 -42.728355
v -24.093503 213.404365 -55.777625
v -27.102756 208.388287 -53.772767
v -29.111545 193.328655 -66.822037
v -20.075923 215.416496 -48.751776
v -23.089108 221.438638 -44.736162
v -21.080318 214.407580 -44.736162
v -25.095932 203.372210 -67.824466
v -23.089108 221.438638 -40.720549
f 116 125 128 
f 99 98 100 
f 98 99 105 
f 100 98 106 
f 98 105 109 
f 106 98 109 
f 105 99 110 
f 107 102 111 
f 99 100 112 
f 103 99 112 
f 100 106 113 
f 106 102 113 
f 102 107 113 
f 97 103 114 
f 103 100 114 
f 99 108 115 
f 110 99 115 
f 102 106 117 
f 106 109 117 
f 111 102 117 
f 103 97 118 
f 101 108 118 
f 108 103 118 
f 97 116 118 
f 116 101 118 
f 100 103 119 
f 112 100 119 
f 103 112 119 
f 101 116 120 
f 116 104 120 
f 113 107 121 
f 107 114 121 
f 109 104 122 
f 104 111 122 
f 117 109 122 
f 111 117 122 
f 104 109 123 
f 109 105 123 
f 120 104 123 
f 105 120 123 
f 99 103 124 
f 103 108 124 
f 108 99 124 
f 114 107 125 
f 97 114 125 
f 116 97 125 
f 108 101 126 
f 105 110 126 
f 115 108 126 
f 110 115 126 
f 120 105 126 
f 101 120 126 
f 100 113 127 
f 114 100 127 
f 113 121 127 
f 121 114 127 
f 111 104 128 
f 107 111 128 
f 104 116 128 
f 125 107 128 
o convex_4
v -12.043124 142.121425 -34.698504
v -12.043124 126.062312 -29.678594
v -5.017274 126.062312 -29.678594
v -14.051913 143.126114 -50.757027
v -5.017274 135.095673 -28.671153
v -14.051913 138.106204 -28.671153
v -10.035317 144.130804 -46.740235
v -14.051913 127.067001 -28.671153
v -14.051913 144.130804 -38.713135
v -4.011897 133.089832 -30.681711
v -11.039712 143.126114 -49.751748
v -14.051913 137.103284 -44.731838
v -11.039712 144.130804 -38.713135
v -9.031905 138.106204 -28.671153
v -5.017274 126.062312 -28.671153
v -12.043124 138.106204 -45.737117
v -14.051913 133.089832 -39.714090
v -4.011897 129.074611 -29.678594
v -14.051913 144.130804 -50.757027
v -10.035317 144.130804 -41.720325
v -7.024098 138.106204 -30.681711
v -14.051913 141.118504 -32.690107
v -5.017274 127.067001 -30.681711
v -4.011897 133.089832 -28.671153
v -12.043124 130.079301 -35.701621
v -4.011897 131.082222 -30.681711
v -14.051913 127.067001 -29.678594
v -11.039712 144.130804 -49.751748
v -13.047519 137.103284 -44.731838
v -11.039712 139.110894 -29.678594
v -12.043124 126.062312 -28.671153
v -13.047519 143.126114 -50.757027
f 147 156 160 
f 134 132 136 
f 133 134 136 
f 132 134 137 
f 135 133 138 
f 136 132 140 
f 135 137 141 
f 134 133 142 
f 130 131 143 
f 133 136 143 
f 140 132 144 
f 136 140 145 
f 143 131 146 
f 132 137 147 
f 137 135 147 
f 133 135 148 
f 135 141 148 
f 148 141 149 
f 142 133 149 
f 141 142 149 
f 133 148 149 
f 137 134 150 
f 129 141 150 
f 141 137 150 
f 131 144 151 
f 144 139 151 
f 146 131 151 
f 138 133 152 
f 133 143 152 
f 146 138 152 
f 143 146 152 
f 131 130 153 
f 130 145 153 
f 139 138 154 
f 138 146 154 
f 151 139 154 
f 146 151 154 
f 130 136 155 
f 145 130 155 
f 136 145 155 
f 135 138 156 
f 138 139 156 
f 147 135 156 
f 144 131 157 
f 140 144 157 
f 145 140 157 
f 131 153 157 
f 153 145 157 
f 141 129 158 
f 134 142 158 
f 142 141 158 
f 150 134 158 
f 129 150 158 
f 136 130 159 
f 130 143 159 
f 143 136 159 
f 139 144 160 
f 144 132 160 
f 132 147 160 
f 156 139 160 
o convex_5
v 11.047932 171.240618 -51.763191
v -14.051913 144.132573 -51.763191
v -13.047715 144.132573 -51.763191
v -11.039319 144.132573 -39.715171
v -14.051913 153.173011 -45.739181
v 12.052130 164.208872 -51.763191
v -4.009931 159.188470 -54.774410
v 12.052130 168.223601 -55.779198
v 12.052130 168.223601 -48.748828
v -14.051913 146.141264 -39.715171
v -9.030922 144.132573 -46.745541
v -14.051913 153.173011 -51.763191
v 10.043734 171.240618 -55.779198
v 11.047932 163.208507 -47.747185
v -14.051913 148.149956 -53.769622
v -7.022526 147.149590 -50.758403
v 10.043734 169.231927 -49.752043
v -9.030922 144.132573 -43.731178
v -5.014129 152.164685 -53.769622
v 12.052130 166.217563 -54.774410
v -14.051913 149.155628 -41.724747
v -11.039319 146.141264 -39.715171
v -14.051913 144.132573 -39.715171
v -14.051913 151.164319 -53.769622
v 12.052130 171.240618 -55.779198
v -10.035120 144.132573 -40.719959
v 10.043734 171.240618 -53.769622
v 11.047932 165.214544 -47.747185
v -10.035120 144.132573 -49.752043
v 9.039536 161.197162 -50.758403
v 11.047932 168.223601 -48.748828
v 12.052130 165.214544 -53.769622
f 180 166 192 
f 162 163 164 
f 166 168 169 
f 165 162 170 
f 164 163 171 
f 162 165 172 
f 168 167 173 
f 172 165 173 
f 166 169 174 
f 163 162 175 
f 167 168 175 
f 162 172 175 
f 161 165 177 
f 169 161 177 
f 164 171 178 
f 163 175 179 
f 175 168 179 
f 176 163 179 
f 176 179 180 
f 168 166 180 
f 179 168 180 
f 165 170 181 
f 177 165 181 
f 170 164 182 
f 169 170 182 
f 162 164 183 
f 170 162 183 
f 164 170 183 
f 173 167 184 
f 172 173 184 
f 167 175 184 
f 175 172 184 
f 161 169 185 
f 169 168 185 
f 173 161 185 
f 168 173 185 
f 174 164 186 
f 164 178 186 
f 178 174 186 
f 165 161 187 
f 161 173 187 
f 173 165 187 
f 164 174 188 
f 174 169 188 
f 182 164 188 
f 169 182 188 
f 171 163 189 
f 176 166 189 
f 163 176 189 
f 166 174 190 
f 178 171 190 
f 174 178 190 
f 171 189 190 
f 189 166 190 
f 170 169 191 
f 169 177 191 
f 181 170 191 
f 177 181 191 
f 166 176 192 
f 176 180 192 
o convex_6
v 18.074666 178.266566 -53.770408
v 12.052130 165.218574 -51.763191
v 12.052130 165.218574 -48.751972
v 20.082473 174.255276 -51.763191
v 17.070763 184.290380 -47.747185
v 12.052130 172.246683 -55.779198
v 21.088145 177.262270 -47.747185
v 17.070763 170.238091 -54.774410
v 21.088145 183.286083 -48.751972
v 18.074666 170.238091 -49.755974
v 12.052130 171.242387 -50.759190
v 18.074666 185.294676 -48.751972
v 14.060822 169.235759 -55.779198
v 20.082473 177.262270 -52.765620
v 16.069513 182.281787 -47.747185
v 13.056918 165.218574 -51.763191
v 16.069513 182.281787 -50.759190
v 15.065609 173.250980 -55.779198
v 13.056918 165.218574 -48.751972
v 12.052130 167.227166 -54.774410
v 21.088145 183.286083 -47.747185
v 18.074666 170.238091 -52.765620
v 17.070763 176.257973 -47.747185
v 16.069513 178.266566 -53.770408
v 12.052130 168.231463 -48.751972
v 21.088145 177.262270 -49.755974
v 13.056918 166.222870 -53.770408
v 20.082473 183.286083 -49.755974
v 12.052130 172.246683 -52.765620
v 19.079454 185.294676 -47.747185
v 17.070763 175.255642 -54.774410
v 20.082473 174.255276 -48.751972
f 211 202 224 
f 194 195 198 
f 198 195 203 
f 196 200 206 
f 199 197 207 
f 195 194 208 
f 197 204 209 
f 207 197 209 
f 198 207 209 
f 205 198 210 
f 200 205 210 
f 195 208 211 
f 194 198 212 
f 198 205 212 
f 197 199 213 
f 199 201 213 
f 200 196 214 
f 196 202 214 
f 208 200 214 
f 202 211 214 
f 211 208 214 
f 207 195 215 
f 199 207 215 
f 195 211 215 
f 211 199 215 
f 204 193 216 
f 198 209 216 
f 209 204 216 
f 193 210 216 
f 210 198 216 
f 203 195 217 
f 195 207 217 
f 207 203 217 
f 199 196 218 
f 201 199 218 
f 196 206 218 
f 206 201 218 
f 205 200 219 
f 208 194 219 
f 200 208 219 
f 194 212 219 
f 212 205 219 
f 193 204 220 
f 204 201 220 
f 206 193 220 
f 201 206 220 
f 198 203 221 
f 207 198 221 
f 203 207 221 
f 204 197 222 
f 201 204 222 
f 197 213 222 
f 213 201 222 
f 206 200 223 
f 193 206 223 
f 210 193 223 
f 200 210 223 
f 196 199 224 
f 202 196 224 
f 199 211 224 
o convex_7
v 22.091950 182.288470 -46.741512
v 22.091950 207.383303 -30.679156
v 21.087752 208.388680 -31.684828
v 17.072139 178.270006 -46.741512
v 17.072139 186.300840 -47.743843
v 23.096149 196.339383 -33.692832
v 19.080535 201.360177 -32.688830
v 23.096149 207.383303 -33.692832
v 19.080535 207.383303 -34.696833
v 20.084144 186.300840 -47.743843
v 21.087752 177.264628 -46.741512
v 21.087752 196.339383 -33.692832
v 23.096149 191.324681 -41.721504
v 19.080535 207.383303 -31.684828
v 23.096149 202.359462 -30.679156
v 21.087752 177.264628 -47.743843
v 22.091950 207.383303 -34.696833
v 22.091950 187.306218 -45.737510
v 23.096149 189.313926 -39.713500
v 17.072139 187.306218 -44.733509
v 21.087752 202.359462 -30.679156
v 18.076337 177.264628 -46.741512
v 17.072139 178.270006 -47.743843
v 20.084144 195.334005 -34.696833
v 17.072139 183.293847 -44.733509
v 21.087752 185.301556 -47.743843
v 23.096149 193.326297 -35.700835
v 20.084144 205.375594 -30.679156
v 23.096149 207.383303 -31.684828
v 20.084144 208.388680 -33.692832
v 20.084144 190.319304 -37.708838
v 19.080535 205.375594 -31.684828
f 231 252 256 
f 229 233 234 
f 232 230 237 
f 226 227 238 
f 230 232 239 
f 236 230 239 
f 229 234 240 
f 225 235 240 
f 234 233 241 
f 237 225 242 
f 232 237 242 
f 241 232 242 
f 235 225 243 
f 225 237 243 
f 237 230 243 
f 229 228 244 
f 233 229 244 
f 238 233 244 
f 239 226 245 
f 236 239 245 
f 240 235 246 
f 240 246 247 
f 228 229 247 
f 229 240 247 
f 246 228 247 
f 231 228 248 
f 245 231 248 
f 236 245 248 
f 228 246 248 
f 228 231 249 
f 244 228 249 
f 238 244 249 
f 225 240 250 
f 240 234 250 
f 234 241 250 
f 241 242 250 
f 242 225 250 
f 230 236 251 
f 235 243 251 
f 243 230 251 
f 226 238 252 
f 231 245 252 
f 245 226 252 
f 227 226 253 
f 232 227 253 
f 226 239 253 
f 239 232 253 
f 227 232 254 
f 238 227 254 
f 233 238 254 
f 232 241 254 
f 241 233 254 
f 246 235 255 
f 236 248 255 
f 248 246 255 
f 251 236 255 
f 235 251 255 
f 249 231 256 
f 238 249 256 
f 252 238 256 
o convex_8
v -31.117780 134.096094 -13.613486
v -36.138771 150.154028 -7.587117
v -36.138771 150.154028 -8.592200
v -16.059917 137.103284 -28.671153
v -16.059917 130.079694 -14.616505
v -23.091860 132.087894 -26.663051
v -16.059917 124.055094 -23.649867
v -42.163960 145.133528 -8.592200
v -34.127819 138.104829 -7.587117
v -35.132018 144.129428 -16.626670
v -16.059917 136.104294 -18.628581
v -17.066670 124.055094 -18.628581
v -30.113582 144.129428 -7.587117
v -28.110296 133.091994 -21.639701
v -27.106097 137.103284 -24.654949
v -17.066670 128.071494 -28.671153
v -41.157207 150.154028 -8.592200
v -20.079265 126.063294 -22.644784
v -41.157207 143.125328 -7.587117
v -34.127819 149.149928 -7.587117
v -29.111939 140.113028 -7.587117
v -16.059917 127.067394 -15.619524
v -16.059917 135.100194 -16.626670
v -27.106097 141.117128 -22.644784
v -20.079265 127.067394 -25.655904
v -37.142969 150.154028 -9.595219
v -29.111939 136.104294 -22.644784
v -37.142969 139.108929 -7.587117
v -18.068313 124.055094 -19.631600
v -36.138771 138.104829 -11.603321
v -16.059917 132.087894 -14.616505
v -19.072511 131.083794 -28.671153
f 272 262 288 
f 260 261 263 
f 261 260 267 
f 258 265 269 
f 260 263 272 
f 258 259 273 
f 266 264 273 
f 265 258 275 
f 258 273 275 
f 273 264 275 
f 259 258 276 
f 260 259 276 
f 267 260 276 
f 258 269 276 
f 269 265 277 
f 263 261 278 
f 268 263 278 
f 265 268 278 
f 261 277 278 
f 277 265 278 
f 261 267 279 
f 267 276 279 
f 276 269 279 
f 260 271 280 
f 271 266 280 
f 266 273 280 
f 270 262 281 
f 262 272 281 
f 272 263 281 
f 263 274 281 
f 274 270 281 
f 259 260 282 
f 273 259 282 
f 260 280 282 
f 280 273 282 
f 264 266 283 
f 262 270 283 
f 270 264 283 
f 271 262 283 
f 266 271 283 
f 268 265 284 
f 265 275 284 
f 263 268 285 
f 257 274 285 
f 274 263 285 
f 284 257 285 
f 268 284 285 
f 264 270 286 
f 274 257 286 
f 270 274 286 
f 275 264 286 
f 257 284 286 
f 284 275 286 
f 277 261 287 
f 269 277 287 
f 261 279 287 
f 279 269 287 
f 271 260 288 
f 262 271 288 
f 260 272 288 
o convex_9
v -56.219296 156.178136 9.478749
v -49.187550 163.206246 11.488227
v -49.187550 163.206246 6.467923
v -31.119942 140.119613 -7.587117
v -42.166417 151.161764 -7.587117
v -50.195876 155.173447 12.491835
v -40.160380 141.124302 -7.587117
v -58.227987 163.206246 8.475140
v -34.136959 149.154743 -7.587117
v -56.219296 163.206246 15.504921
v -52.201913 152.161737 9.478749
v -31.119942 145.140702 -6.581248
v -36.142997 139.117282 -6.581248
v -45.172821 146.143033 -4.574031
v -51.196241 160.194536 14.499052
v -31.119942 140.119613 -6.581248
v -53.204932 152.161737 4.460706
v -57.219661 158.185157 13.495444
v -54.210605 163.206246 5.464315
v -39.152054 152.161737 -6.581248
v -46.178493 151.161764 8.475140
v -58.227987 159.189847 8.475140
v -55.210970 159.189847 15.504921
v -50.195876 163.206246 13.495444
v -45.172821 153.166426 8.475140
v -58.227987 163.206246 13.495444
v -33.128633 139.117282 -6.581248
v -50.195876 163.206246 5.464315
v -42.166417 144.136013 -7.587117
v -52.201913 151.161764 5.464315
v -41.160745 142.128992 -4.574031
v -43.169436 154.171116 6.467923
f 312 313 320 
f 293 292 295 
f 290 291 296 
f 291 290 297 
f 292 293 297 
f 290 296 298 
f 297 290 300 
f 292 297 300 
f 295 292 301 
f 292 300 304 
f 302 295 305 
f 289 299 306 
f 293 296 307 
f 296 291 307 
f 291 297 308 
f 297 293 308 
f 293 307 308 
f 294 299 309 
f 299 301 309 
f 296 293 310 
f 305 289 310 
f 302 305 310 
f 289 306 310 
f 299 294 311 
f 294 303 311 
f 303 298 311 
f 298 306 311 
f 306 299 311 
f 290 298 312 
f 300 290 312 
f 298 303 312 
f 303 294 313 
f 294 309 313 
f 309 304 313 
f 312 303 313 
f 298 296 314 
f 306 298 314 
f 296 310 314 
f 310 306 314 
f 301 292 315 
f 292 304 315 
f 309 301 315 
f 304 309 315 
f 307 291 316 
f 291 308 316 
f 308 307 316 
f 293 295 317 
f 295 302 317 
f 310 293 317 
f 302 310 317 
f 299 289 318 
f 289 305 318 
f 305 295 318 
f 295 301 319 
f 301 299 319 
f 318 295 319 
f 299 318 319 
f 304 300 320 
f 300 312 320 
f 313 304 320 
o convex_10
v 6.026351 -9.478013 14.498069
v -6.018131 -10.483489 -14.612279
v -5.012950 -11.487687 -13.606411
v 11.043412 1.564335 -4.573540
v -11.035192 1.564335 4.459330
v -15.052967 -10.483489 5.462350
v 13.050825 -11.487687 -5.576559
v -11.035192 1.564335 -6.579578
v 11.043412 1.564335 6.465369
v 6.026351 0.560136 -11.600372
v -6.018131 0.560136 11.486163
v -7.020364 -11.487687 12.489182
v 15.061187 -10.483489 7.471237
v 8.033765 -10.483489 -14.612279
v -15.052967 -10.483489 -7.585447
v -8.025545 -8.475092 14.498069
v 15.061187 -9.478013 -5.576559
v -5.012950 1.564335 -10.594504
v 5.021171 1.564335 10.480294
v 5.021171 -11.487687 13.492201
v -13.042605 -11.487687 -1.561633
v -5.012950 -8.475092 -14.612279
v -15.052967 -9.478013 5.462350
v -8.025545 -10.483489 14.498069
v 10.041179 -9.478013 -12.603391
v -9.027778 -9.478013 -12.603391
v 4.018938 0.560136 11.486163
v 8.033765 -9.478013 13.492201
v 12.048592 -11.487687 7.471237
v 15.061187 -9.478013 7.471237
v -15.052967 -9.478013 -7.585447
v 7.028584 -11.487687 -12.603391
f 334 327 352 
f 325 324 328 
f 324 325 329 
f 323 327 332 
f 323 322 334 
f 322 323 335 
f 331 325 336 
f 324 329 337 
f 333 327 337 
f 327 334 337 
f 328 324 338 
f 324 330 338 
f 329 325 339 
f 325 331 339 
f 332 327 340 
f 323 332 341 
f 332 326 341 
f 335 323 341 
f 326 335 341 
f 334 322 342 
f 330 334 342 
f 338 330 342 
f 325 328 343 
f 335 326 343 
f 336 325 343 
f 326 336 343 
f 326 332 344 
f 336 326 344 
f 321 336 344 
f 332 340 344 
f 340 321 344 
f 330 324 345 
f 334 330 345 
f 324 337 345 
f 337 334 345 
f 322 335 346 
f 328 338 346 
f 342 322 346 
f 338 342 346 
f 331 336 347 
f 336 321 347 
f 339 331 347 
f 339 347 348 
f 329 339 348 
f 340 333 348 
f 321 340 348 
f 347 321 348 
f 327 333 349 
f 340 327 349 
f 333 340 349 
f 337 329 350 
f 333 337 350 
f 329 348 350 
f 348 333 350 
f 343 328 351 
f 335 343 351 
f 346 335 351 
f 328 346 351 
f 327 323 352 
f 323 334 352 
o convex_11
v -2.002321 57.784104 -11.603124
v 4.016972 13.619431 10.484913
v 4.016972 26.667915 9.479535
v -11.039908 4.581843 4.459134
v 6.027727 1.564335 -10.597747
v 6.027727 77.868462 2.452703
v -8.023776 77.868462 1.447325
v -11.039908 1.564335 -5.577345
v 11.048129 1.564335 5.464511
v 6.027727 77.868462 -6.582723
v -9.031315 69.824262 -7.585938
v -6.019507 1.564335 10.484913
v -5.014129 77.868462 5.464511
v 11.048129 4.581843 -4.574130
v -5.014129 1.564335 -10.597747
v 4.016972 76.852667 -9.594531
v 9.039536 41.710643 4.459134
v 3.015919 77.868462 5.464511
v -4.008752 77.868462 -9.594531
v -6.019507 12.611105 10.484913
v -4.008752 67.822549 -11.603124
v 4.016972 67.822549 -10.597747
v 5.022349 1.564335 10.484913
v 9.039536 42.726438 -4.574130
v 2.010541 66.821692 -11.603124
v -8.023776 1.564335 -8.589154
v -0.999105 42.726438 8.476320
v -8.023776 77.868462 -6.582723
v -9.031315 66.821692 -0.559106
v 10.042751 8.592740 6.467727
v 8.031996 1.564335 -8.589154
v -8.023776 39.716398 5.464511
f 372 365 384 
f 360 357 361 
f 359 358 362 
f 360 356 363 
f 356 360 364 
f 360 361 364 
f 358 359 365 
f 353 357 367 
f 357 360 367 
f 361 366 369 
f 358 365 370 
f 355 369 370 
f 369 358 370 
f 359 362 371 
f 362 368 371 
f 364 354 372 
f 356 364 372 
f 353 367 373 
f 363 371 373 
f 371 368 373 
f 362 366 374 
f 368 362 374 
f 354 364 375 
f 364 361 375 
f 362 358 376 
f 366 362 376 
f 358 369 376 
f 369 366 376 
f 357 353 377 
f 353 373 377 
f 373 368 377 
f 374 357 377 
f 368 374 377 
f 360 363 378 
f 367 360 378 
f 373 367 378 
f 363 373 378 
f 354 355 379 
f 355 370 379 
f 370 365 379 
f 372 354 379 
f 365 372 379 
f 363 359 380 
f 359 371 380 
f 371 363 380 
f 356 359 381 
f 359 363 381 
f 363 356 381 
f 355 354 382 
f 369 355 382 
f 361 369 382 
f 354 375 382 
f 375 361 382 
f 361 357 383 
f 366 361 383 
f 357 374 383 
f 374 366 383 
f 359 356 384 
f 365 359 384 
f 356 372 384 
o convex_12
v -5.015898 105.975006 -14.615129
v 2.011327 96.942234 5.464904
v -4.011110 96.942234 5.464904
v 3.016115 77.868462 -9.595121
v -8.025545 77.868462 1.447325
v 4.019331 107.982616 -10.595584
v 6.027334 77.868462 2.451720
v -9.031905 107.982616 -4.575112
v -8.025545 77.868462 -6.581936
v 5.022546 105.975006 -1.563894
v -5.015898 77.868462 5.464904
v 6.027334 77.868462 -6.581936
v -4.011110 107.982616 0.444896
v -9.031905 107.982616 -11.599979
v 1.006539 107.982616 -14.615129
v 7.032122 83.897189 2.451720
v -4.011110 77.868462 -9.595121
v 3.016115 77.868462 5.464904
v 6.027334 99.952175 -5.577542
v -7.022329 95.936955 2.451720
v 6.027334 96.942234 2.451720
v 2.011327 107.982616 -0.561464
v -6.019114 106.980285 -14.615129
v -6.019114 104.972675 1.447325
v 3.016115 95.936955 5.464904
v -5.015898 95.936955 5.464904
v -9.031905 104.972675 -3.572683
v 1.006539 105.975006 1.447325
v 7.032122 81.889579 0.444896
v 6.027334 100.957454 0.444896
v -8.025545 88.914741 1.447325
v -9.031905 105.975006 -11.599979
f 411 398 416 
f 389 388 391 
f 388 389 393 
f 386 387 395 
f 389 391 395 
f 391 388 396 
f 390 392 397 
f 392 390 398 
f 388 385 399 
f 396 388 399 
f 390 396 399 
f 398 390 399 
f 385 388 401 
f 388 393 401 
f 386 395 402 
f 395 391 402 
f 391 400 402 
f 390 394 403 
f 396 390 403 
f 394 390 406 
f 390 397 406 
f 399 385 407 
f 398 399 407 
f 385 401 407 
f 401 393 407 
f 387 397 408 
f 397 392 408 
f 386 402 409 
f 402 400 409 
f 400 405 409 
f 395 387 410 
f 389 395 410 
f 387 408 410 
f 408 404 410 
f 393 389 411 
f 392 398 411 
f 408 392 411 
f 404 408 411 
f 387 386 412 
f 397 387 412 
f 394 406 412 
f 406 397 412 
f 386 409 412 
f 391 396 413 
f 400 391 413 
f 396 403 413 
f 403 400 413 
f 403 394 414 
f 400 403 414 
f 405 400 414 
f 409 405 414 
f 394 412 414 
f 412 409 414 
f 389 410 415 
f 410 404 415 
f 411 389 415 
f 404 411 415 
f 407 393 416 
f 398 407 416 
f 393 411 416 
o convex_13
v 1.007326 126.055825 -15.620408
v -16.059917 123.048538 -22.644784
v -16.059917 123.048538 -18.632119
v 1.007326 107.988513 -13.611127
v -4.014845 133.087572 -28.671153
v -16.059917 132.082194 -14.616505
v -16.059917 128.066581 -28.671153
v -11.039515 138.108563 -27.665775
v -7.023902 107.988513 -13.611127
v -5.016095 125.056345 -28.671153
v 0.002538 128.066581 -13.611127
v -16.059917 137.103185 -28.671153
v -6.020883 107.988513 -15.620408
v 2.012113 115.020259 -15.620408
v -15.055129 135.092430 -17.629689
v -14.050341 128.066581 -13.611127
v -5.016095 135.092430 -24.652591
v 0.002538 107.988513 -15.620408
v -11.039515 125.056345 -28.671153
v -10.032958 112.010023 -13.611127
v -3.008288 128.066581 -27.665775
v -16.059917 125.056345 -15.620408
v 2.012113 122.049057 -14.616505
v -2.005269 129.069010 -13.611127
v -2.005269 129.069010 -25.657968
v -5.016095 135.092430 -28.671153
v -4.014845 126.055825 -28.671153
v 2.012113 111.001697 -14.616505
v 1.007326 127.064151 -13.611127
v -16.059917 136.097808 -20.639925
v -9.031708 109.999268 -14.616505
v -15.055129 138.108563 -28.671153
f 446 424 448 
f 418 419 422 
f 418 422 423 
f 423 421 426 
f 425 420 427 
f 421 423 428 
f 423 422 428 
f 418 423 429 
f 420 425 429 
f 425 427 432 
f 424 431 433 
f 420 429 434 
f 429 426 434 
f 423 426 435 
f 429 423 435 
f 426 429 435 
f 425 432 436 
f 422 419 438 
f 432 422 438 
f 419 436 438 
f 436 432 438 
f 431 422 440 
f 422 432 440 
f 432 427 440 
f 427 433 440 
f 433 431 440 
f 421 417 441 
f 437 421 441 
f 430 437 441 
f 417 439 441 
f 439 430 441 
f 421 428 442 
f 424 433 442 
f 426 421 443 
f 434 426 443 
f 421 437 443 
f 443 437 444 
f 420 434 444 
f 437 430 444 
f 439 420 444 
f 430 439 444 
f 434 443 444 
f 417 421 445 
f 427 420 445 
f 433 427 445 
f 439 417 445 
f 420 439 445 
f 421 442 445 
f 442 433 445 
f 428 422 446 
f 422 431 446 
f 431 424 446 
f 419 418 447 
f 418 429 447 
f 429 425 447 
f 436 419 447 
f 425 436 447 
f 442 428 448 
f 424 442 448 
f 428 446 448 
o convex_14
v 4.020117 131.079765 -4.577176
v -11.039908 118.030495 -13.611127
v -11.039908 118.030495 -12.606929
v 4.020117 107.988513 -10.597255
v -6.018917 107.988513 -0.559106
v -5.015014 136.097808 -0.559106
v 1.006932 128.066581 -13.611127
v 1.006932 107.988513 -0.559106
v -8.026724 107.988513 -13.611127
v -11.039908 128.066581 -13.611127
v 3.014739 138.108563 -0.559106
v -9.030627 107.988513 -4.577176
v 4.020117 107.988513 -3.571700
v 2.010836 107.988513 -13.611127
v -7.022821 131.079765 -1.563304
v -2.004778 137.103185 -3.571700
v 4.020117 129.069010 -0.559106
v 2.010836 125.056345 -13.611127
v -1.000874 129.069010 -13.611127
v -11.039908 128.066581 -12.606929
v -10.034531 111.001697 -13.611127
v -3.008681 138.108563 -1.563304
v 3.014739 138.108563 -1.563304
v -8.026724 129.069010 -13.611127
v -10.034531 111.001697 -7.584660
v 4.020117 136.097808 -1.563304
v -8.026724 107.988513 -2.567502
v -8.026724 128.066581 -3.571700
v -6.018917 134.087053 -0.559106
v 4.020117 109.999268 -10.597255
v -9.030627 107.988513 -12.606929
v 3.014739 108.993890 -12.606929
f 466 478 480 
f 453 452 456 
f 454 453 456 
f 452 453 457 
f 450 455 457 
f 450 451 458 
f 455 450 458 
f 454 456 459 
f 457 453 460 
f 452 449 461 
f 456 452 461 
f 452 457 462 
f 457 455 462 
f 459 456 465 
f 461 449 465 
f 456 461 465 
f 462 455 466 
f 455 458 467 
f 458 451 468 
f 454 458 468 
f 450 457 469 
f 458 454 470 
f 454 459 470 
f 464 470 471 
f 455 467 471 
f 467 464 471 
f 470 459 471 
f 467 458 472 
f 464 467 472 
f 458 470 472 
f 470 464 472 
f 451 450 473 
f 468 451 473 
f 450 469 473 
f 469 460 473 
f 465 449 474 
f 459 465 474 
f 449 466 474 
f 466 455 474 
f 455 471 474 
f 471 459 474 
f 460 453 475 
f 453 463 475 
f 463 460 475 
f 460 463 476 
f 463 468 476 
f 473 460 476 
f 468 473 476 
f 453 454 477 
f 463 453 477 
f 454 468 477 
f 468 463 477 
f 449 452 478 
f 466 449 478 
f 457 460 479 
f 469 457 479 
f 460 469 479 
f 452 462 480 
f 462 466 480 
f 478 452 480 
o convex_15
v -5.015505 126.060543 -0.559106
v 7.031729 153.168588 16.508923
v 2.009755 153.168588 16.508923
v 3.014150 139.113056 -0.559106
v 7.031729 143.125132 15.504823
v 4.019920 129.077560 -0.559106
v -5.015505 137.109672 -0.559106
v 0.005093 143.125132 16.508923
v 1.008112 126.060543 0.444994
v -5.015505 136.103999 4.461394
v 5.021563 136.103999 0.444994
v 5.021563 142.119459 16.508923
v -5.015505 127.066215 1.449094
v -0.997926 142.119459 2.453194
v 0.005093 150.151571 15.504823
v 8.036123 147.142514 15.504823
v 7.031729 153.168588 15.504823
v -6.019900 131.083598 1.449094
v 2.009755 153.168588 15.504823
v -0.997926 144.128150 15.504823
v 4.019920 129.077560 1.449094
v 1.008112 141.116440 15.504823
v 8.036123 150.151571 15.504823
v 8.036123 147.142514 16.508923
v -6.019900 133.092289 -0.559106
v -2.003697 139.113056 -0.559106
v -0.997926 146.136842 15.504823
v 1.008112 126.060543 -0.559106
v 1.008112 152.160262 16.508923
v 4.019920 137.109672 -0.559106
v -4.009735 138.112691 -0.559106
v 5.021563 134.092654 1.449094
f 491 496 512 
f 481 484 486 
f 484 481 487 
f 482 483 488 
f 482 488 492 
f 481 489 493 
f 487 490 495 
f 483 482 497 
f 484 494 497 
f 481 493 498 
f 483 497 499 
f 497 494 499 
f 493 488 500 
f 490 498 500 
f 498 493 500 
f 489 486 501 
f 485 492 501 
f 492 489 501 
f 486 496 501 
f 492 488 502 
f 489 492 502 
f 493 489 502 
f 488 493 502 
f 496 491 503 
f 497 482 503 
f 491 497 503 
f 482 492 504 
f 492 485 504 
f 485 501 504 
f 501 496 504 
f 503 482 504 
f 496 503 504 
f 487 481 505 
f 490 487 505 
f 481 498 505 
f 498 490 505 
f 484 487 506 
f 494 484 506 
f 495 490 507 
f 500 488 507 
f 490 500 507 
f 481 486 508 
f 486 489 508 
f 489 481 508 
f 488 483 509 
f 487 495 509 
f 499 487 509 
f 483 499 509 
f 507 488 509 
f 495 507 509 
f 486 484 510 
f 491 486 510 
f 484 497 510 
f 497 491 510 
f 487 499 511 
f 499 494 511 
f 506 487 511 
f 494 506 511 
f 486 491 512 
f 496 486 512 
o convex_16
v 2.012900 143.128571 16.508923
v 4.020117 165.212481 25.544938
v 5.023332 166.220610 24.539266
v 1.009684 166.220610 21.527555
v 8.036123 151.164221 16.508923
v 7.030549 148.151135 20.526305
v 1.009684 161.198046 25.544938
v 0.004110 149.157004 16.508923
v 6.027334 160.192177 18.517614
v 1.009684 146.143918 19.522402
v 2.012900 155.174134 16.508923
v 0.004110 164.208872 24.539266
v 6.027334 160.192177 24.539266
v 5.023332 143.128571 17.514595
v 5.023332 149.157004 21.527555
v 6.027334 164.208872 21.527555
v 0.004110 145.140309 17.514595
v 7.030549 145.140309 16.508923
v 5.023332 165.212481 20.526305
v 8.036123 151.164221 18.517614
v 1.009684 152.167830 22.531459
v 0.004110 163.205263 21.527555
v 4.020117 161.198046 25.544938
v 2.012900 145.140309 19.522402
v 1.009684 165.212481 25.544938
v 6.027334 155.174134 16.508923
v 2.012900 163.205263 19.522402
v 6.027334 163.205263 24.539266
v 0.004110 159.188569 23.536247
v 1.009684 156.177743 17.514595
v 7.030549 145.140309 18.517614
v 5.023332 145.140309 19.522402
f 543 518 544 
f 517 513 520 
f 517 520 523 
f 517 521 528 
f 520 513 529 
f 524 520 529 
f 513 517 530 
f 526 513 530 
f 516 515 531 
f 515 528 531 
f 528 521 531 
f 525 518 532 
f 517 528 532 
f 530 517 532 
f 527 519 533 
f 529 522 533 
f 524 516 534 
f 520 524 534 
f 514 519 535 
f 525 514 535 
f 518 525 535 
f 519 527 535 
f 527 518 535 
f 513 526 536 
f 529 513 536 
f 522 529 536 
f 533 522 536 
f 527 533 536 
f 514 515 537 
f 515 516 537 
f 519 514 537 
f 516 524 537 
f 524 519 537 
f 521 517 538 
f 517 523 538 
f 516 531 539 
f 531 521 539 
f 521 538 539 
f 538 523 539 
f 515 514 540 
f 514 525 540 
f 528 515 540 
f 525 532 540 
f 532 528 540 
f 519 524 541 
f 524 529 541 
f 533 519 541 
f 529 533 541 
f 523 520 542 
f 534 516 542 
f 520 534 542 
f 516 539 542 
f 539 523 542 
f 526 530 543 
f 532 518 543 
f 530 532 543 
f 518 527 544 
f 536 526 544 
f 527 536 544 
f 526 543 544 
