o convex_0
v -0.946914 47.163360 -3.634126
v 1.770140 77.051557 1.801402
v 1.770140 77.051557 -1.821928
v 1.770140 32.664608 1.801402
v -1.853190 77.051557 1.801402
v -1.853190 32.664608 1.801402
v 2.676416 48.067088 -3.634126
v -1.853190 77.051557 -1.821928
v -1.853190 32.664608 -1.821928
v 1.770140 32.664608 -1.821928
v 2.676416 49.870199 -2.728027
v -0.946914 49.870199 -3.634126
v 2.676416 49.870199 -3.634126
v 1.770140 47.163360 -3.634126
v 2.676416 48.067088 -2.728027
f 7 11 15 
f 2 3 5 
f 4 2 5 
f 4 5 6 
f 5 3 8 
f 6 5 8 
f 4 6 9 
f 8 1 9 
f 6 8 9 
f 7 4 10 
f 4 9 10 
f 9 1 10 
f 2 4 11 
f 7 1 12 
f 8 3 12 
f 1 8 12 
f 3 2 13 
f 2 11 13 
f 11 7 13 
f 7 12 13 
f 12 3 13 
f 1 7 14 
f 10 1 14 
f 7 10 14 
f 4 7 15 
f 11 4 15 
o convex_1
v -4.568116 58.933043 19.920714
v 8.111944 60.743319 33.508646
v 8.111944 58.933043 33.508646
v 1.769785 49.875013 1.801402
v -6.382796 58.933043 31.696094
v -1.852481 48.062077 3.617058
v 4.488259 58.933043 19.011334
v -6.382796 61.650452 30.789818
v -2.757693 51.686619 5.426506
v 1.769785 48.062077 3.617058
v 7.205313 60.743319 28.070990
v -6.382796 61.650452 33.508646
v 3.581628 58.933043 33.508646
v 5.393470 61.650452 31.696094
v -4.569535 58.025910 17.201886
v -6.382796 58.933043 28.070990
v 8.111944 58.933043 31.696094
v -0.040638 53.496895 8.145334
v -1.852481 48.062077 1.801402
v -2.757693 49.875013 4.523334
v -1.852481 49.875013 1.801402
v 1.769785 48.062077 1.801402
v -6.382796 59.837516 33.508646
v 6.300101 59.837516 23.542714
v 3.581628 55.307171 11.764230
v 4.488259 61.650452 33.508646
v -6.382796 60.743319 28.070990
v 0.864574 58.933043 19.011334
v -1.849643 61.650452 30.789818
v 8.111944 60.743319 31.696094
v -3.664323 55.307171 11.764230
v -2.757693 50.782146 4.523334
f 30 46 47 
f 18 21 25 
f 18 17 27 
f 23 20 27 
f 21 18 28 
f 20 21 28 
f 18 27 28 
f 23 27 29 
f 23 16 30 
f 20 23 31 
f 17 18 32 
f 18 25 32 
f 25 21 34 
f 21 20 35 
f 20 31 35 
f 34 21 35 
f 34 35 36 
f 33 19 36 
f 19 34 36 
f 32 25 37 
f 19 32 37 
f 34 19 37 
f 25 34 37 
f 27 20 38 
f 20 28 38 
f 28 27 38 
f 22 29 39 
f 29 26 39 
f 19 33 40 
f 33 22 40 
f 39 19 40 
f 22 39 40 
f 27 17 41 
f 17 29 41 
f 29 27 41 
f 23 30 42 
f 31 23 42 
f 35 31 42 
f 16 23 43 
f 23 22 43 
f 30 16 43 
f 22 33 43 
f 22 23 44 
f 29 22 44 
f 23 29 44 
f 29 17 45 
f 26 29 45 
f 17 32 45 
f 32 19 45 
f 19 39 45 
f 39 26 45 
f 36 24 46 
f 33 36 46 
f 30 43 46 
f 43 33 46 
f 36 35 47 
f 24 36 47 
f 42 30 47 
f 35 42 47 
f 46 24 47 
o convex_2
v -33.558838 140.464625 10.862388
v -29.030916 139.561364 24.449433
v -29.935862 139.561364 24.449433
v -35.370326 128.689068 18.107275
v -20.878423 145.899798 6.331008
v -20.878423 148.619335 20.822556
v -27.219428 148.619335 9.957886
v -20.878423 144.994586 20.822556
v -36.275271 138.654202 16.296497
v -34.463784 128.689068 19.918053
v -37.183409 128.689068 20.824329
v -36.275271 136.843778 12.674940
v -27.219428 148.619335 7.237284
v -29.935862 135.938566 24.449433
v -31.748946 138.654202 24.449433
v -20.878423 147.712173 6.331008
v -23.596453 146.805010 21.730605
v -36.275271 139.557462 12.674940
v -23.596453 145.899798 6.331008
v -37.183409 130.505344 20.824329
v -37.183409 136.843778 13.579442
v -21.784965 144.087423 21.730605
v -29.935862 145.899798 11.766890
v -32.655488 136.843778 24.449433
v -20.878423 148.619335 14.485718
v -37.183409 129.596231 18.107275
v -34.463784 138.654202 19.918053
v -34.463784 128.689068 19.011777
v -37.183409 137.748990 15.390221
v -30.842404 134.128142 23.541384
v -21.784965 148.619335 20.822556
v -24.502995 148.619335 7.237284
f 72 63 79 
f 52 53 55 
f 51 57 58 
f 54 53 60 
f 49 50 61 
f 61 50 62 
f 53 52 63 
f 50 49 64 
f 49 53 64 
f 62 50 64 
f 48 59 65 
f 60 48 65 
f 54 60 65 
f 52 51 66 
f 59 48 66 
f 51 59 66 
f 48 60 66 
f 63 52 66 
f 60 63 66 
f 65 59 68 
f 58 67 68 
f 53 49 69 
f 55 53 69 
f 57 55 69 
f 49 61 69 
f 54 65 70 
f 65 56 70 
f 58 61 71 
f 61 62 71 
f 67 58 71 
f 60 53 72 
f 53 63 72 
f 51 58 73 
f 59 51 73 
f 58 68 73 
f 68 59 73 
f 62 64 74 
f 64 70 74 
f 70 56 74 
f 71 62 74 
f 67 71 74 
f 51 52 75 
f 52 55 75 
f 57 51 75 
f 55 57 75 
f 56 65 76 
f 65 68 76 
f 68 67 76 
f 74 56 76 
f 67 74 76 
f 58 57 77 
f 61 58 77 
f 57 69 77 
f 69 61 77 
f 53 54 78 
f 64 53 78 
f 54 70 78 
f 70 64 78 
f 63 60 79 
f 60 72 79 
o convex_3
v -3.664323 54.403171 48.001967
v 8.111944 58.933309 42.568567
v 8.111944 58.027033 42.568567
v -6.382796 59.838344 33.508646
v 2.674997 48.967998 53.437494
v 8.111944 58.933309 33.508646
v -4.569535 58.027033 48.908597
v -0.037801 61.650896 34.417405
v 7.205313 58.027033 48.001967
v 1.766948 50.781791 55.250756
v -6.382796 61.650896 35.324035
v 8.111944 60.743378 36.230666
v -0.944431 58.933309 33.508646
v 6.298682 53.498136 49.815228
v -6.382796 58.027033 38.946301
v 1.766948 48.967998 53.437494
v -4.569535 55.309447 48.908597
v -0.037801 58.933309 46.190834
v 1.766948 52.594343 54.344125
v 8.111944 60.743378 33.508646
v -5.476166 58.933309 46.190834
v -6.382796 61.650896 33.508646
v 3.581628 51.688067 54.344125
v 8.111944 57.120757 39.850804
v -5.476166 58.933309 34.417405
v 8.111944 59.838344 40.755306
v 1.766948 48.967998 55.250756
v 7.205313 55.309447 48.908597
v -0.039219 58.027033 48.908597
v 3.581628 49.875515 54.344125
v -6.382796 58.933309 35.324035
v 7.205313 57.120757 48.908597
f 102 107 111 
f 81 82 85 
f 81 85 91 
f 85 84 92 
f 83 85 92 
f 90 83 94 
f 92 84 95 
f 80 94 95 
f 89 86 96 
f 94 80 96 
f 87 90 97 
f 86 89 98 
f 85 83 99 
f 91 85 99 
f 87 91 99 
f 90 94 100 
f 96 86 100 
f 94 96 100 
f 86 97 100 
f 97 90 100 
f 83 90 101 
f 90 87 101 
f 99 83 101 
f 87 99 101 
f 98 89 102 
f 85 82 103 
f 84 85 103 
f 93 84 103 
f 83 92 104 
f 92 95 104 
f 88 81 105 
f 81 91 105 
f 91 87 105 
f 97 88 105 
f 87 97 105 
f 95 84 106 
f 80 95 106 
f 89 96 106 
f 96 80 106 
f 102 89 106 
f 82 81 107 
f 103 82 107 
f 93 103 107 
f 97 86 108 
f 88 97 108 
f 86 98 108 
f 98 88 108 
f 84 93 109 
f 106 84 109 
f 102 106 109 
f 93 107 109 
f 107 102 109 
f 94 83 110 
f 95 94 110 
f 83 104 110 
f 104 95 110 
f 81 88 111 
f 88 98 111 
f 98 102 111 
f 107 81 111 
o convex_4
v 23.508792 135.939751 33.505808
v 6.301963 145.900052 20.825748
v 6.301963 145.900052 22.639009
v 19.886792 148.619335 20.825748
v 8.113894 148.619335 28.074005
v 20.793688 128.692881 33.505808
v 15.363481 137.750005 37.132331
v 20.791826 144.992974 20.825748
v 25.322585 139.556358 29.884074
v 14.454722 135.939751 36.225700
v 25.322585 136.844878 28.074005
v 23.508792 129.598008 35.319069
v 11.737757 148.619335 27.167374
v 6.301963 147.712257 20.825748
v 17.167964 138.653182 36.225700
v 8.112032 145.898101 28.979039
v 22.601895 129.598008 32.602370
v 21.698723 146.807130 22.639009
v 19.884929 130.503135 36.225700
v 11.737757 144.992974 31.695739
v 7.206998 148.619335 25.355709
v 21.698723 131.410213 36.225700
v 18.979895 130.503135 35.319069
v 25.322585 136.844878 31.695739
v 10.832722 143.180769 32.602370
v 19.886792 148.619335 21.732379
v 24.417551 138.653182 31.695739
v 24.417551 141.372465 26.262340
v 14.456585 148.619335 20.825748
v 10.832722 141.368564 32.602370
v 25.322585 135.034624 29.884074
v 18.981757 144.992974 20.825748
f 119 128 143 
f 113 115 119 
f 114 113 121 
f 115 116 124 
f 113 114 125 
f 115 113 125 
f 117 113 128 
f 119 122 128 
f 123 117 128 
f 119 115 129 
f 118 121 130 
f 117 123 130 
f 124 116 131 
f 118 126 131 
f 126 124 131 
f 116 115 132 
f 125 114 132 
f 114 127 132 
f 127 116 132 
f 123 112 133 
f 126 118 133 
f 112 126 133 
f 118 130 133 
f 130 123 133 
f 113 117 134 
f 121 113 134 
f 117 130 134 
f 130 121 134 
f 122 120 135 
f 112 123 135 
f 121 118 136 
f 116 127 136 
f 131 116 136 
f 118 131 136 
f 115 124 137 
f 129 115 137 
f 120 129 137 
f 126 112 138 
f 124 126 138 
f 135 120 138 
f 112 135 138 
f 137 124 138 
f 120 137 138 
f 122 119 139 
f 120 122 139 
f 119 129 139 
f 129 120 139 
f 115 125 140 
f 132 115 140 
f 125 132 140 
f 114 121 141 
f 127 114 141 
f 121 136 141 
f 136 127 141 
f 128 122 142 
f 123 128 142 
f 122 135 142 
f 135 123 142 
f 113 119 143 
f 128 113 143 
o convex_5
v 27.135226 121.441027 8.142851
v 27.135226 119.627844 -6.351889
v 27.135226 121.441027 -6.351889
v 2.676416 107.853500 0.895481
v 29.854054 119.627844 8.142851
v 3.583579 110.571857 -2.726785
v 29.854054 119.627844 -6.351889
v 20.793068 119.627844 5.424378
v 3.583579 107.853500 -1.821574
v 2.676416 109.665265 1.800693
v 18.984063 118.722671 -4.537209
v 28.946891 122.346200 -6.351889
v 29.854054 122.346200 8.142851
v 11.737402 115.101978 3.612535
v 28.039728 122.346200 8.142851
v 3.583579 108.760092 -2.726785
v 28.039728 122.346200 -2.726785
v 5.395244 108.760092 1.800693
v 27.135226 119.627844 8.142851
v 29.854054 122.346200 -6.351889
v 2.676416 108.760092 1.800693
v 9.925737 114.195386 0.895481
v 3.583579 110.571857 1.800693
v 25.320900 121.441027 4.517747
v 5.395244 108.760092 -2.726785
v 2.676416 109.665265 -1.821574
v 3.583579 107.853500 0.895481
v 2.676416 107.853500 -1.821574
v 13.549067 116.005733 -2.726785
v 25.320900 121.441027 7.236220
v 26.225403 121.441027 -5.445259
v 20.793068 119.627844 3.612535
f 167 154 175 
f 146 145 149 
f 145 146 150 
f 146 149 154 
f 150 146 155 
f 146 154 155 
f 144 148 156 
f 148 150 156 
f 153 144 158 
f 156 155 158 
f 144 156 158 
f 149 145 159 
f 145 150 159 
f 158 155 160 
f 148 144 162 
f 144 153 162 
f 161 148 162 
f 150 155 163 
f 156 150 163 
f 155 156 163 
f 153 147 164 
f 147 161 164 
f 162 153 164 
f 161 162 164 
f 157 154 165 
f 157 165 166 
f 149 153 166 
f 165 149 166 
f 160 154 167 
f 158 160 167 
f 150 152 168 
f 159 150 168 
f 152 159 168 
f 147 153 169 
f 153 149 169 
f 149 159 169 
f 150 148 170 
f 147 152 170 
f 152 150 170 
f 161 147 170 
f 148 161 170 
f 152 147 171 
f 159 152 171 
f 147 169 171 
f 169 159 171 
f 154 149 172 
f 149 165 172 
f 165 154 172 
f 151 157 173 
f 153 158 173 
f 157 166 173 
f 166 153 173 
f 167 151 173 
f 158 167 173 
f 155 154 174 
f 154 160 174 
f 160 155 174 
f 157 151 175 
f 154 157 175 
f 151 167 175 
o convex_6
v 9.924495 169.456647 5.424378
v 14.451530 171.267376 -6.351889
v 14.451530 173.078105 -6.351889
v 2.676416 166.737760 -5.445259
v 16.263550 174.890431 7.236220
v 2.676416 168.550085 1.799274
v 18.077077 172.172342 8.142851
v 17.169560 174.890431 -6.351889
v 5.395953 166.737760 2.705904
v 18.077077 172.172342 -6.351889
v 2.676416 168.550085 -5.445259
v 18.077077 174.890431 8.142851
v 9.924495 168.550883 -4.537209
v 2.676416 166.737760 1.799274
v 16.263550 174.890431 -0.006893
v 14.451530 173.983869 7.236220
v 18.077077 174.890431 -6.351889
v 5.395953 166.737760 -3.633416
v 5.395953 169.455849 3.612535
v 16.263550 171.267376 -6.351889
v 4.489943 169.455849 2.705904
v 3.583934 166.737760 2.705904
v 12.641018 173.078105 -5.445259
v 17.169560 172.172342 8.142851
v 3.583934 166.737760 -5.445259
v 17.169560 174.890431 8.142851
v 16.263550 171.267376 -3.630578
v 9.924495 168.550883 -3.630578
v 5.395953 167.645120 3.612535
v 14.451530 172.172342 7.236220
v 3.583934 168.550085 2.705904
v 15.359048 173.983869 -6.351889
f 186 183 207 
f 178 177 179 
f 177 178 183 
f 177 183 185 
f 178 179 186 
f 179 181 186 
f 183 180 187 
f 182 185 187 
f 181 179 189 
f 179 184 189 
f 180 183 190 
f 185 183 192 
f 183 187 192 
f 187 185 192 
f 184 179 193 
f 188 184 193 
f 179 177 195 
f 185 182 195 
f 177 185 195 
f 188 193 195 
f 186 181 196 
f 180 190 196 
f 190 186 196 
f 191 180 196 
f 181 194 196 
f 194 191 196 
f 184 182 197 
f 181 189 197 
f 189 184 197 
f 183 186 198 
f 190 183 198 
f 186 190 198 
f 182 187 199 
f 197 182 199 
f 193 179 200 
f 179 195 200 
f 195 193 200 
f 187 180 201 
f 180 191 201 
f 199 187 201 
f 191 199 201 
f 195 182 202 
f 188 195 202 
f 182 184 203 
f 184 188 203 
f 202 182 203 
f 188 202 203 
f 191 194 204 
f 194 197 204 
f 199 176 204 
f 197 199 204 
f 176 199 205 
f 199 191 205 
f 204 176 205 
f 191 204 205 
f 194 181 206 
f 181 197 206 
f 197 194 206 
f 183 178 207 
f 178 186 207 
o convex_7
v 31.663768 153.148941 1.800515
v 26.229659 167.640844 9.048772
v 25.324447 167.640844 9.048772
v 18.077077 174.888923 -7.257811
v 29.853344 164.923346 -6.351180
v 18.077077 171.264884 8.142141
v 29.853344 153.148941 0.895481
v 18.077077 172.169297 -7.257811
v 18.985127 174.888923 6.330476
v 29.853344 161.303563 8.142141
v 28.041502 162.210105 -6.351180
v 26.229659 163.116646 9.048772
v 29.853344 164.923346 2.707146
v 32.571817 154.057611 0.895481
v 24.419235 170.358342 -6.351180
v 29.853344 153.148941 2.707146
v 29.853344 164.018932 8.142141
v 18.077077 173.982381 8.142141
v 30.759975 163.116646 -5.444549
v 32.571817 154.964153 2.707146
v 18.985127 174.888923 -7.257811
v 29.853344 162.210105 -6.351180
v 18.077077 171.264884 4.518811
v 19.888920 173.982381 8.142141
v 30.759975 154.057611 3.612180
v 28.948132 164.923346 9.048772
v 24.419235 164.923346 9.048772
v 31.663768 158.586065 3.612180
v 18.077077 174.888923 6.330476
v 24.419235 170.358342 -4.539515
v 32.571817 154.057611 2.707146
v 30.759975 163.116646 -3.632884
f 235 227 239 
f 213 211 215 
f 214 215 218 
f 209 210 219 
f 208 214 221 
f 213 214 223 
f 214 208 223 
f 210 209 225 
f 211 213 225 
f 212 220 226 
f 224 217 227 
f 221 226 227 
f 215 211 228 
f 211 216 228 
f 222 212 228 
f 216 222 228 
f 214 218 229 
f 218 215 229 
f 221 214 229 
f 212 226 229 
f 226 221 229 
f 228 212 229 
f 215 228 229 
f 214 213 230 
f 215 214 230 
f 213 215 230 
f 209 220 231 
f 225 209 231 
f 216 225 231 
f 217 219 232 
f 219 223 232 
f 209 219 233 
f 219 217 233 
f 220 209 233 
f 217 224 233 
f 224 220 233 
f 219 210 234 
f 213 223 234 
f 223 219 234 
f 210 225 234 
f 225 213 234 
f 224 227 235 
f 216 211 236 
f 211 225 236 
f 225 216 236 
f 220 212 237 
f 212 222 237 
f 222 216 237 
f 231 220 237 
f 216 231 237 
f 208 221 238 
f 223 208 238 
f 221 227 238 
f 227 217 238 
f 217 232 238 
f 232 223 238 
f 220 224 239 
f 226 220 239 
f 227 226 239 
f 224 235 239 
o convex_8
v -36.275892 14.546249 -21.750384
v -20.877536 29.940877 -7.257811
v -20.877536 30.849573 -15.415586
v -29.030828 29.940877 -9.071477
v -33.559192 9.111099 -22.655356
v -28.125793 23.599159 -25.372131
v -20.877536 27.225430 -21.750384
v -37.184119 19.072704 -16.320557
v -20.877536 28.129870 -7.257811
v -21.785763 30.849573 -20.843551
v -35.370857 20.881584 -19.938580
v -29.935862 16.357257 -26.280827
v -36.275892 17.259569 -16.320557
v -31.745931 19.072704 -26.280827
v -28.124197 30.849573 -10.885144
v -35.370857 9.111099 -24.467160
v -23.597428 28.129870 -7.257811
v -35.370857 10.922106 -20.843551
v -35.370857 22.694719 -16.320557
v -22.690798 27.225430 -23.560327
v -29.934266 26.318862 -9.978310
v -30.840897 13.639682 -25.372131
v -28.125793 19.072704 -26.280827
v -30.840897 28.129870 -12.695086
v -25.409093 30.849573 -9.071477
v -30.840897 20.881584 -26.280827
v -37.184119 19.977144 -17.223666
v -24.502463 22.694719 -24.467160
v -20.877536 29.940877 -21.750384
v -35.370857 19.977144 -14.508753
v -35.370857 22.694719 -14.508753
v -35.370857 11.828674 -24.467160
f 253 255 271 
f 242 241 246 
f 244 246 248 
f 246 241 248 
f 249 245 250 
f 240 250 253 
f 242 249 254 
f 247 240 255 
f 253 251 255 
f 241 243 256 
f 248 241 256 
f 256 252 257 
f 244 248 257 
f 252 247 257 
f 247 255 257 
f 255 244 257 
f 248 256 257 
f 245 249 259 
f 256 243 260 
f 246 244 261 
f 244 255 261 
f 255 251 261 
f 251 253 262 
f 245 259 262 
f 261 251 262 
f 249 250 263 
f 243 254 263 
f 254 249 263 
f 250 258 263 
f 241 242 264 
f 243 241 264 
f 242 254 264 
f 254 243 264 
f 250 245 265 
f 253 250 265 
f 245 262 265 
f 262 253 265 
f 240 247 266 
f 250 240 266 
f 258 250 266 
f 259 246 267 
f 246 261 267 
f 262 259 267 
f 261 262 267 
f 242 246 268 
f 249 242 268 
f 259 249 268 
f 246 259 268 
f 247 252 269 
f 252 256 269 
f 260 243 269 
f 256 260 269 
f 243 263 270 
f 263 258 270 
f 266 247 270 
f 258 266 270 
f 269 243 270 
f 247 269 270 
f 240 253 271 
f 255 240 271 
o convex_9
v -1.853013 48.968619 -47.116217
v 1.770229 48.968087 -8.169229
v 1.770229 48.062343 -8.169229
v -0.946848 48.968087 -8.169229
v -0.947202 50.779575 -47.116217
v -1.853013 48.062343 -26.287299
v -1.853013 50.779575 -42.582887
v -0.041392 48.968619 -40.771842
v -0.947202 48.062343 -33.527665
v -0.946848 48.062343 -8.169229
v 0.864064 49.873831 -22.657585
v -1.853013 49.873565 -25.379871
v 0.864064 48.062343 -23.565014
v -0.947202 48.968619 -47.116217
v -0.041392 49.873565 -40.771842
v -0.946848 49.873831 -22.657585
v -1.853013 50.779575 -47.116217
v 1.770229 48.062343 -9.980274
v 0.864064 49.873831 -25.376058
v -1.853013 48.062343 -33.527665
v -0.947202 50.779575 -42.582887
v 1.770229 48.968087 -9.980274
v -1.853013 48.968619 -25.379871
f 275 283 294 
f 274 273 275 
f 272 277 278 
f 274 277 280 
f 274 275 281 
f 277 274 281 
f 275 273 282 
f 278 277 283 
f 274 280 284 
f 284 280 285 
f 272 276 285 
f 276 279 285 
f 280 272 285 
f 279 284 285 
f 279 276 286 
f 275 282 287 
f 282 278 287 
f 278 283 287 
f 283 275 287 
f 276 272 288 
f 272 278 288 
f 278 276 288 
f 273 274 289 
f 274 284 289 
f 284 279 289 
f 279 286 289 
f 282 273 290 
f 276 282 290 
f 286 276 290 
f 277 272 291 
f 272 280 291 
f 280 277 291 
f 276 278 292 
f 278 282 292 
f 282 276 292 
f 273 289 293 
f 289 286 293 
f 286 290 293 
f 290 273 293 
f 281 275 294 
f 277 281 294 
f 283 277 294 
o convex_10
v -9.100915 21.791779 -3.634835
v -1.853190 20.886213 -2.730333
v -3.665121 22.696282 -2.730333
v -19.970640 30.848509 -21.752550
v -20.877536 29.942942 -7.259229
v -20.877536 28.131809 -21.752550
v -12.722915 29.037376 -10.879367
v -20.877536 28.131809 -6.352599
v -5.478915 19.978518 -0.010441
v -1.853190 19.979582 -3.636963
v -17.253674 29.036312 -5.445968
v -7.290846 25.414046 -9.068234
v -4.573880 21.791779 -0.010441
v -14.534846 29.942942 -15.410392
v -4.573880 19.979582 -3.636963
v -20.877536 30.848509 -17.221525
v -19.970640 28.131809 -21.752550
v -10.005949 25.414046 -2.730333
v -18.158708 29.942942 -9.072491
v -5.478915 21.791779 -0.010441
v -10.912846 22.697346 -2.730333
v -5.478915 19.978518 -1.823702
v -19.063743 30.848509 -18.126028
v -10.912846 28.130745 -11.785998
v -15.441743 29.942942 -17.221525
v -14.534846 29.037376 -8.163732
v -4.573880 23.602913 -6.352599
v -18.158708 29.036312 -5.445968
v -20.877536 30.848509 -21.752550
v -4.573880 19.978518 -0.010441
v -14.534846 29.942942 -14.503762
v -4.573880 23.602913 -4.543594
f 321 318 326 
f 299 300 302 
f 296 297 307 
f 300 304 309 
f 300 299 310 
f 300 298 311 
f 298 304 311 
f 304 300 311 
f 307 297 312 
f 305 307 312 
f 299 305 313 
f 302 303 314 
f 303 307 314 
f 307 305 314 
f 300 295 315 
f 302 300 315 
f 303 302 315 
f 303 315 316 
f 295 300 316 
f 300 309 316 
f 309 304 316 
f 315 295 316 
f 308 298 317 
f 298 310 317 
f 310 299 317 
f 299 313 317 
f 308 301 318 
f 308 318 319 
f 304 298 319 
f 298 308 319 
f 318 306 319 
f 297 301 320 
f 312 297 320 
f 305 312 320 
f 313 305 320 
f 297 296 321 
f 296 304 321 
f 306 318 321 
f 304 319 321 
f 319 306 321 
f 299 302 322 
f 305 299 322 
f 302 314 322 
f 314 305 322 
f 298 300 323 
f 310 298 323 
f 300 310 323 
f 304 296 324 
f 296 307 324 
f 307 303 324 
f 303 316 324 
f 316 304 324 
f 301 308 325 
f 308 317 325 
f 317 313 325 
f 320 301 325 
f 313 320 325 
f 301 297 326 
f 318 301 326 
f 297 321 326 
o convex_11
v -2.759111 77.957655 -2.728204
v 17.171156 88.828533 19.013906
v 17.171156 87.014030 19.013906
v 17.171156 87.014030 6.333846
v -1.851949 82.488148 -1.821574
v 2.678012 77.051557 -0.914943
v -1.851949 77.051557 1.802821
v 3.583224 80.674798 -2.728204
v -1.851949 82.488148 1.802821
v 17.171156 85.204139 6.333846
v 11.734032 87.921282 12.671748
v 16.263993 87.921282 7.238348
v 16.263993 88.828533 19.013906
v 2.678012 77.051557 0.896190
v 3.583224 78.864907 -2.728204
v 12.639244 82.488148 5.427215
v 1.770850 82.488148 -1.821574
v 1.770850 77.051557 1.802821
v 16.263993 87.014030 19.013906
v -2.759111 77.051557 0.896190
v -2.759111 79.769853 -2.728204
v 11.734032 87.921282 14.482881
v 17.171156 85.204139 8.142851
v 6.300811 78.864907 0.896190
v 1.770850 77.051557 -1.821574
v 17.171156 88.828533 16.294014
v 4.488436 77.957655 1.802821
v 17.171156 87.921282 7.238348
v -1.851949 77.051557 -1.821574
v 2.678012 77.957655 -2.728204
v 16.263993 88.828533 16.294014
v -2.759111 79.769853 -0.010441
f 347 346 358 
f 328 329 330 
f 330 329 336 
f 334 330 336 
f 331 335 337 
f 331 337 338 
f 329 328 339 
f 335 333 339 
f 333 332 340 
f 327 334 341 
f 334 336 341 
f 334 331 343 
f 330 334 343 
f 329 333 344 
f 340 329 344 
f 333 340 344 
f 333 329 345 
f 329 339 345 
f 339 333 345 
f 332 333 346 
f 333 335 346 
f 334 327 347 
f 331 334 347 
f 335 331 347 
f 327 346 347 
f 337 335 348 
f 339 337 348 
f 335 339 348 
f 336 329 349 
f 329 342 349 
f 342 336 349 
f 336 342 350 
f 332 346 351 
f 328 330 352 
f 339 328 352 
f 329 340 353 
f 340 332 353 
f 342 329 353 
f 332 350 353 
f 350 342 353 
f 331 338 354 
f 343 331 354 
f 330 343 354 
f 352 330 354 
f 338 352 354 
f 346 327 355 
f 327 351 355 
f 351 346 355 
f 327 341 356 
f 341 336 356 
f 350 332 356 
f 336 350 356 
f 351 327 356 
f 332 351 356 
f 338 337 357 
f 337 339 357 
f 352 338 357 
f 339 352 357 
f 346 335 358 
f 335 347 358 
o convex_12
v 2.676416 25.413031 2.707323
v -4.570954 19.976809 -2.728204
v -2.759111 0.048251 -2.728204
v 4.488259 21.789947 -2.728204
v 2.676416 0.048251 2.707323
v -3.664323 19.073432 2.707323
v 9.923786 22.696516 1.801225
v -1.852481 32.659199 -1.822106
v 2.676416 0.048251 -2.728204
v -2.759111 0.048251 2.707323
v -1.852481 32.659199 1.800693
v 1.771204 32.659199 -1.822106
v 9.923786 23.599893 2.707323
v 1.771204 32.659199 1.800693
v -4.570954 21.789947 -0.010441
v -4.570954 21.789947 -2.728204
v -1.852481 25.413031 2.707323
v 9.923786 23.599893 1.801225
v 4.488259 19.976809 -2.728204
v -4.570954 19.976809 -0.010441
v -3.664323 20.883378 2.707323
v 9.923786 22.696516 2.707323
f 371 363 380 
f 361 360 362 
f 363 359 364 
f 361 362 367 
f 363 361 367 
f 365 363 367 
f 360 361 368 
f 361 363 368 
f 363 364 368 
f 366 369 370 
f 362 366 370 
f 359 363 371 
f 369 359 372 
f 370 369 372 
f 371 370 372 
f 359 371 372 
f 369 366 373 
f 362 360 374 
f 366 362 374 
f 360 373 374 
f 373 366 374 
f 364 359 375 
f 359 369 375 
f 365 362 376 
f 362 370 376 
f 371 365 376 
f 370 371 376 
f 362 365 377 
f 367 362 377 
f 365 367 377 
f 360 368 378 
f 368 364 378 
f 373 360 378 
f 364 373 378 
f 373 364 379 
f 369 373 379 
f 364 375 379 
f 375 369 379 
f 363 365 380 
f 365 371 380 
o convex_13
v -4.572373 28.131462 16.295876
v -4.572373 19.980585 2.709185
v -4.572373 21.791507 2.709185
v -21.783458 28.131462 21.729807
v -16.343674 29.942383 15.390841
v -6.385634 28.131462 21.729807
v -0.041348 19.073395 3.614220
v -16.343674 30.849573 21.729807
v -5.479003 29.037499 16.295876
v -1.854609 21.791507 2.709185
v -11.819033 29.037499 12.672014
v -20.874699 30.849573 19.917876
v -6.385634 29.942383 21.729807
v -0.041348 20.886622 4.519254
v -21.783458 28.131462 20.824773
v -6.383506 23.602428 4.519254
v -1.854609 19.073395 3.614220
v -9.103398 29.942383 18.107807
v -1.854609 23.602428 6.333048
v -20.874699 30.849573 21.729807
v -0.041348 20.886622 2.709185
v -8.194639 24.507313 6.333048
v -16.343674 30.849573 20.824773
v -14.534669 29.942383 15.390841
v -0.041348 19.073395 2.709185
v -6.385634 29.942383 19.917876
v -7.288008 25.412197 7.238082
v -0.947978 22.697544 5.426151
v -12.725664 29.037499 12.672014
v -10.010028 29.037499 13.577048
v -21.783458 29.942383 20.824773
v -4.572373 19.980585 3.614220
f 397 384 412 
f 386 384 387 
f 384 386 388 
f 382 383 390 
f 388 386 393 
f 381 389 393 
f 386 387 394 
f 381 393 394 
f 393 386 394 
f 382 384 395 
f 383 382 396 
f 390 383 396 
f 387 384 397 
f 384 388 400 
f 388 392 400 
f 382 390 401 
f 394 387 401 
f 392 385 402 
f 382 395 402 
f 396 382 402 
f 385 396 402 
f 392 388 403 
f 388 393 403 
f 403 398 404 
f 391 385 404 
f 385 392 404 
f 398 391 404 
f 392 403 404 
f 397 382 405 
f 387 397 405 
f 382 401 405 
f 401 387 405 
f 393 389 406 
f 389 398 406 
f 403 393 406 
f 398 403 406 
f 390 396 407 
f 396 391 407 
f 399 390 407 
f 389 381 408 
f 381 394 408 
f 399 389 408 
f 390 399 408 
f 401 390 408 
f 394 401 408 
f 385 391 409 
f 391 396 409 
f 396 385 409 
f 398 389 410 
f 391 398 410 
f 389 399 410 
f 407 391 410 
f 399 407 410 
f 395 384 411 
f 384 400 411 
f 400 392 411 
f 392 402 411 
f 402 395 411 
f 384 382 412 
f 382 397 412 
o convex_14
v -7.288718 119.628969 -26.279851
v 6.300101 120.534742 -23.564216
v 6.300101 118.723195 -23.564216
v -1.852392 108.761017 -3.634126
v 5.392938 119.628969 -29.905842
v -7.288718 122.347619 -28.090275
v 2.675441 110.572564 -3.634126
v -7.288718 119.628969 -29.905842
v 2.675441 108.761017 -5.449692
v -2.758225 114.192998 -9.980895
v 5.392938 122.347619 -29.905842
v -5.475722 119.628969 -20.848580
v 4.487106 117.817422 -17.217446
v -1.852392 108.761017 -5.449692
v -1.852392 110.572564 -3.634126
v -7.288718 122.347619 -29.905842
v 6.300101 118.723195 -27.185063
v 5.392938 122.347619 -28.090275
v 2.675441 108.761017 -3.634126
v -7.288718 121.440516 -26.279851
v -0.042057 113.289885 -8.167900
v 6.300101 121.440516 -28.092846
v -2.758225 121.440516 -25.374639
v 4.487106 118.724525 -19.035585
v 3.581273 115.100101 -11.786175
v 3.581273 111.478338 -8.167900
v -1.851062 119.628969 -20.848580
v -6.381555 121.440516 -25.374639
v 4.487106 116.908988 -15.409594
v -1.852392 113.289885 -8.167900
v 6.300101 119.628969 -28.092846
v 6.300101 121.440516 -26.279851
f 434 430 444 
f 416 413 420 
f 413 418 420 
f 417 420 423 
f 416 420 426 
f 420 417 426 
f 417 421 426 
f 421 416 426 
f 413 416 427 
f 416 419 427 
f 422 424 427 
f 420 418 428 
f 418 423 428 
f 423 420 428 
f 414 415 429 
f 415 421 429 
f 421 417 429 
f 423 418 430 
f 419 416 431 
f 421 415 431 
f 416 421 431 
f 418 413 432 
f 424 418 432 
f 413 427 432 
f 427 424 432 
f 427 419 433 
f 417 423 434 
f 414 429 434 
f 423 430 434 
f 430 418 435 
f 424 425 436 
f 425 414 436 
f 425 433 437 
f 433 419 437 
f 415 414 438 
f 414 419 438 
f 431 415 438 
f 419 431 438 
f 414 430 439 
f 435 424 439 
f 430 435 439 
f 424 436 439 
f 436 414 439 
f 418 424 440 
f 424 435 440 
f 435 418 440 
f 419 414 441 
f 414 425 441 
f 437 419 441 
f 425 437 441 
f 424 422 442 
f 425 424 442 
f 422 427 442 
f 433 425 442 
f 427 433 442 
f 429 417 443 
f 417 434 443 
f 434 429 443 
f 430 414 444 
f 414 434 444 
o convex_15
v -8.196590 28.128750 28.978241
v -25.407143 18.169070 30.790261
v -25.407143 18.169070 32.602281
v -19.969487 9.107463 35.320311
v -6.382796 28.128750 21.731669
v -21.781418 29.941923 21.731669
v -16.349349 20.880316 37.132331
v -21.781418 27.224292 21.731669
v -10.913555 30.848509 28.073739
v -13.630521 19.073528 37.132331
v -21.781418 10.016178 37.132331
v -24.500246 20.880316 32.602281
v -6.382796 29.941923 21.731669
v -19.967625 30.848509 22.639187
v -18.157556 10.920636 36.226321
v -8.196590 30.848509 28.073739
v -11.818590 24.504533 34.414301
v -22.686452 13.638266 36.226321
v -20.876384 9.107463 35.320311
v -25.407143 20.880316 29.884251
v -14.539280 30.848509 21.731669
v -15.444314 15.451439 37.132331
v -21.781418 28.128750 25.357217
v -6.382796 28.128750 22.639187
v -25.407143 19.977986 32.602281
v -23.593349 23.602203 25.357217
v -19.969487 9.107463 37.132331
v -19.967625 27.224292 21.731669
v -24.500246 23.602203 28.978241
v -18.157556 20.880316 36.226321
v -8.196590 30.848509 25.357217
v -13.630521 20.880316 37.132331
f 454 461 476 
f 450 449 452 
f 454 451 455 
f 447 446 455 
f 449 450 457 
f 448 449 459 
f 458 453 460 
f 453 451 461 
f 454 445 461 
f 460 453 461 
f 445 460 461 
f 455 451 462 
f 447 455 462 
f 452 448 463 
f 455 446 463 
f 446 447 464 
f 457 450 465 
f 450 458 465 
f 458 460 465 
f 454 455 466 
f 453 458 467 
f 458 450 467 
f 445 454 468 
f 449 457 468 
f 459 449 468 
f 460 445 468 
f 457 460 468 
f 454 466 468 
f 466 459 468 
f 447 462 469 
f 464 447 469 
f 450 452 470 
f 463 446 470 
f 452 463 470 
f 446 464 470 
f 464 450 470 
f 448 459 471 
f 463 448 471 
f 455 463 471 
f 466 455 471 
f 459 466 471 
f 449 448 472 
f 448 452 472 
f 452 449 472 
f 450 464 473 
f 467 450 473 
f 456 467 473 
f 469 456 473 
f 464 469 473 
f 451 453 474 
f 462 451 474 
f 453 467 474 
f 467 456 474 
f 456 469 474 
f 469 462 474 
f 460 457 475 
f 457 465 475 
f 465 460 475 
f 451 454 476 
f 461 451 476 
o convex_16
v 7.206022 173.985130 -19.036028
v -8.194639 162.210371 -28.997881
v -7.288629 161.305336 -29.904068
v 0.863953 156.774577 -27.186748
v 7.206022 164.923612 -29.904068
v -7.288629 173.985130 -19.036028
v -7.288629 170.359406 -19.036028
v 7.206022 170.359406 -19.036028
v -2.757072 154.960784 -31.717684
v -7.288629 164.022302 -29.904068
v 7.206022 162.210371 -27.186748
v -2.757072 154.960784 -28.997881
v -7.288629 173.985130 -19.942215
v 0.863953 154.960784 -31.717684
v 7.206022 173.985130 -19.942215
v -0.042057 158.586509 -31.717684
v -8.194639 167.640578 -21.754590
v -0.042057 164.923612 -29.904068
v 3.581983 166.735543 -20.848403
v -8.194639 170.359406 -23.565723
v -8.194639 162.210371 -27.186748
v 0.863953 154.960784 -28.997881
v 4.487993 166.735543 -28.092935
v 7.206022 162.210371 -28.997881
v 5.394002 162.210371 -30.810256
v -3.664589 155.867681 -31.717684
v -8.194639 164.923612 -28.997881
v -0.042057 156.774577 -27.186748
v 6.300012 168.547474 -19.942215
v -3.664589 157.681474 -31.717684
v -4.570599 156.774577 -28.997881
v 7.206022 163.117268 -29.904068
f 501 481 508 
f 477 482 483 
f 481 477 484 
f 477 483 484 
f 479 478 486 
f 481 484 487 
f 482 477 489 
f 488 485 490 
f 477 481 491 
f 489 477 491 
f 490 485 492 
f 483 482 493 
f 488 483 493 
f 492 486 494 
f 482 489 496 
f 493 482 496 
f 478 493 496 
f 489 494 496 
f 493 478 497 
f 480 488 498 
f 490 487 498 
f 488 490 498 
f 491 481 499 
f 489 491 499 
f 481 494 499 
f 494 489 499 
f 481 487 500 
f 487 490 500 
f 490 492 501 
f 494 481 501 
f 492 494 501 
f 478 479 502 
f 479 486 502 
f 485 488 502 
f 492 485 502 
f 486 478 503 
f 494 486 503 
f 478 496 503 
f 496 494 503 
f 483 488 504 
f 488 480 504 
f 480 495 504 
f 495 483 504 
f 484 483 505 
f 487 484 505 
f 495 480 505 
f 483 495 505 
f 480 498 505 
f 498 487 505 
f 486 492 506 
f 502 486 506 
f 492 502 506 
f 488 493 507 
f 497 478 507 
f 493 497 507 
f 478 502 507 
f 502 488 507 
f 481 500 508 
f 500 490 508 
f 490 501 508 
o convex_17
v 18.076013 28.131809 5.426151
v 1.772357 19.978518 2.709185
v 1.772357 19.978518 3.616082
v 12.638357 29.037376 11.765117
v 20.792979 28.131809 21.729807
v 10.830151 22.697346 2.709185
v 18.981048 30.848509 20.824773
v 20.792979 28.131809 6.333048
v 10.830151 25.414046 2.709185
v 20.792979 29.942942 7.239944
v 4.489323 19.978518 4.521117
v 3.582426 22.697346 4.521117
v 20.792979 30.848509 21.729807
v 16.264082 29.036312 6.333048
v 19.887944 27.225179 6.333048
v 19.887944 28.131809 21.729807
v 12.638357 29.037376 13.577048
v 7.206288 20.885149 3.616082
v 3.582426 22.697346 3.616082
v 16.264082 29.942942 12.672014
v 1.772357 20.885149 3.616082
v 2.677392 21.791779 2.709185
v 18.981048 30.848509 19.012842
v 4.489323 19.978518 2.709185
v 11.733323 25.414046 2.709185
v 11.733323 26.319612 3.616082
v 19.887944 29.942942 7.239944
v 3.582426 19.978518 4.521117
v 20.792979 30.848509 18.105945
v 16.264082 25.414046 4.521117
v 15.357185 29.942942 14.482082
v 19.887944 27.225179 7.239944
f 526 523 540 
f 514 510 517 
f 513 516 518 
f 516 509 518 
f 511 510 519 
f 513 518 521 
f 509 517 522 
f 516 513 523 
f 515 511 524 
f 519 513 524 
f 513 521 524 
f 521 515 524 
f 512 520 525 
f 513 519 526 
f 514 523 526 
f 520 512 527 
f 510 511 529 
f 511 515 529 
f 515 525 529 
f 525 520 529 
f 517 510 530 
f 520 527 530 
f 510 529 530 
f 529 520 530 
f 515 521 531 
f 510 514 532 
f 519 510 532 
f 514 526 532 
f 526 519 532 
f 509 516 533 
f 517 509 533 
f 514 517 533 
f 522 517 534 
f 512 522 534 
f 527 512 534 
f 517 530 534 
f 530 527 534 
f 518 509 535 
f 509 522 535 
f 522 512 535 
f 512 528 535 
f 528 531 535 
f 511 519 536 
f 524 511 536 
f 519 524 536 
f 521 518 537 
f 531 521 537 
f 518 535 537 
f 535 531 537 
f 523 514 538 
f 516 523 538 
f 514 533 538 
f 533 516 538 
f 525 515 539 
f 512 525 539 
f 528 512 539 
f 515 531 539 
f 531 528 539 
f 523 513 540 
f 513 526 540 
o convex_18
v 7.206022 174.891051 18.107984
v -3.663614 167.643681 5.425087
v -3.663614 169.455524 5.425087
v -7.288718 173.079209 18.107984
v 7.206022 172.172578 18.107984
v -6.382087 174.891051 16.294191
v 3.580919 170.361445 6.331363
v 3.580919 167.643681 7.237639
v -5.475456 170.361445 13.576605
v 7.206022 173.984421 14.482881
v 3.580919 167.643681 5.425087
v -7.288718 174.891051 18.107984
v -3.663614 167.643681 7.237639
v -0.946559 172.172578 18.107984
v 7.206022 174.891051 16.294191
v -4.570244 170.361445 7.237639
v 7.206022 172.172578 14.482881
v -0.946559 170.361445 6.331363
v 3.580919 169.455524 5.425087
v -6.382087 171.267366 13.576605
v 4.487549 171.267366 8.143915
v -7.288718 174.891051 17.200467
v 4.487549 168.550312 7.237639
v -6.382087 171.267366 15.389157
v -4.570244 168.550312 7.237639
v 5.394180 169.455524 10.862743
v -6.382087 172.172578 17.200467
v 4.487549 170.361445 7.237639
v -6.382087 173.984421 14.482881
v -7.288718 173.079209 17.200467
v -4.570244 168.550312 9.050191
v -6.382087 173.079209 13.576605
f 560 562 572 
f 541 544 545 
f 541 545 550 
f 542 543 551 
f 548 542 551 
f 544 541 552 
f 541 546 552 
f 542 548 553 
f 548 545 553 
f 549 553 554 
f 545 544 554 
f 553 545 554 
f 546 541 555 
f 541 550 555 
f 543 542 556 
f 550 545 557 
f 547 543 558 
f 543 556 558 
f 543 547 559 
f 551 543 559 
f 546 555 561 
f 555 550 561 
f 547 558 561 
f 558 546 561 
f 559 547 561 
f 544 552 562 
f 552 546 562 
f 550 557 563 
f 551 559 563 
f 553 549 564 
f 549 554 564 
f 544 560 564 
f 564 560 565 
f 542 553 565 
f 556 542 565 
f 560 556 565 
f 545 548 566 
f 548 551 566 
f 557 545 566 
f 551 563 566 
f 563 557 566 
f 554 544 567 
f 564 554 567 
f 544 564 567 
f 561 550 568 
f 559 561 568 
f 550 563 568 
f 563 559 568 
f 546 558 569 
f 558 556 569 
f 562 546 569 
f 556 562 569 
f 560 544 570 
f 544 562 570 
f 562 560 570 
f 553 564 571 
f 564 565 571 
f 565 553 571 
f 556 560 572 
f 562 556 572 
o convex_19
v 20.795728 27.224144 20.824861
v 30.758546 19.977897 27.167197
v 31.665128 19.977897 26.258083
v 34.381679 9.107463 22.635285
v 28.948576 30.848332 9.049304
v 20.795728 28.128595 7.236929
v 37.099827 18.168996 16.298802
v 21.702309 30.848332 20.824861
v 36.194842 20.880220 19.012487
v 36.194842 10.920621 24.447660
v 28.041994 19.075575 26.260034
v 20.795728 29.941753 7.236929
v 23.513876 28.128595 7.236929
v 33.476694 10.016170 24.447660
v 28.948576 30.848332 10.863629
v 35.288261 10.920621 20.824861
v 20.795728 29.941753 21.730073
v 26.230428 26.317565 23.540497
v 37.099827 20.880220 16.298802
v 35.288261 19.977897 14.486428
v 27.137009 28.128595 8.144092
v 20.795728 30.848332 16.296851
v 36.194842 9.107463 24.447660
v 37.099827 19.073447 19.012487
v 21.702309 26.317565 22.635285
v 29.853561 19.073447 27.167197
v 31.665128 26.319693 10.861679
v 32.571709 20.880220 24.447660
v 33.476694 10.016170 22.635285
v 21.702309 29.035174 22.635285
v 26.230428 30.848332 9.049304
v 25.325442 30.848332 16.296851
f 590 600 604 
f 575 574 582 
f 578 573 584 
f 578 584 585 
f 584 577 585 
f 577 580 587 
f 576 578 588 
f 578 585 588 
f 584 573 589 
f 577 587 591 
f 587 581 591 
f 579 588 592 
f 588 585 592 
f 585 577 593 
f 592 585 593 
f 580 577 594 
f 589 580 594 
f 584 589 594 
f 582 574 595 
f 586 576 595 
f 576 588 595 
f 588 579 595 
f 575 582 596 
f 579 591 596 
f 591 581 596 
f 582 595 596 
f 595 579 596 
f 573 586 597 
f 586 583 597 
f 589 573 597 
f 583 586 598 
f 595 574 598 
f 586 595 598 
f 577 591 599 
f 591 579 599 
f 579 592 599 
f 593 577 599 
f 592 593 599 
f 574 575 600 
f 581 587 600 
f 590 574 600 
f 575 596 600 
f 596 581 600 
f 573 578 601 
f 578 576 601 
f 586 573 601 
f 576 586 601 
f 580 589 602 
f 574 590 602 
f 590 580 602 
f 597 583 602 
f 589 597 602 
f 583 598 602 
f 598 574 602 
f 577 584 603 
f 594 577 603 
f 584 594 603 
f 587 580 604 
f 580 590 604 
f 600 587 604 
o convex_20
v -17.253213 146.806916 4.519432
v -2.759111 140.467662 5.427038
v -10.913263 145.900397 11.763964
v -20.876295 145.901461 20.825748
v -4.571539 137.749167 -0.010441
v -20.876295 145.901461 6.332604
v -19.970081 148.618892 20.825748
v -2.759111 139.562207 -0.010441
v -2.759111 138.655687 5.427038
v -16.346999 147.712372 7.238171
v -20.876295 147.712372 6.332604
v -3.665325 137.749167 3.615905
v -14.534571 147.712372 10.860437
v -20.876295 148.618892 16.293836
v -5.479526 142.278574 5.427038
v -19.970081 145.901461 20.825748
v -5.479526 139.562207 -0.010441
v -19.970081 145.901461 5.427038
v -14.534571 147.712372 14.482703
v -10.913263 144.088421 2.710338
v -2.759111 137.749167 -0.010441
v -18.157653 147.712372 5.427038
v -19.063867 148.618892 19.918142
v -4.571539 137.749167 1.802732
v -20.876295 148.618892 20.825748
v -19.970081 147.712372 5.427038
v -10.913263 145.900397 9.954871
v -19.970081 148.618892 16.293836
v -6.383967 142.278574 3.615905
v -10.007049 140.467662 1.802732
v -2.759111 140.467662 3.615905
v -7.290181 141.373118 0.897166
f 624 612 636 
f 609 608 610 
f 606 611 613 
f 612 606 613 
f 610 608 615 
f 615 608 618 
f 611 608 620 
f 613 611 620 
f 608 616 620 
f 616 613 620 
f 612 609 621 
f 610 615 622 
f 607 617 623 
f 609 612 625 
f 612 613 625 
f 616 609 625 
f 613 616 625 
f 624 605 626 
f 614 624 626 
f 606 607 627 
f 611 606 627 
f 618 611 627 
f 607 623 627 
f 623 617 627 
f 608 609 628 
f 616 608 628 
f 609 616 628 
f 608 611 629 
f 618 608 629 
f 611 618 629 
f 615 618 630 
f 605 621 630 
f 622 615 630 
f 621 622 630 
f 626 605 630 
f 618 626 630 
f 607 606 631 
f 617 607 631 
f 614 617 631 
f 617 614 632 
f 614 626 632 
f 626 618 632 
f 627 617 632 
f 618 627 632 
f 624 614 633 
f 612 624 633 
f 614 631 633 
f 631 619 633 
f 609 610 634 
f 621 609 634 
f 610 622 634 
f 622 621 634 
f 606 612 635 
f 631 606 635 
f 619 631 635 
f 612 633 635 
f 633 619 635 
f 621 605 636 
f 612 621 636 
f 605 624 636 
o convex_21
v -4.571220 53.500080 -52.551652
v 6.300101 60.744974 -36.252139
v -2.758225 60.744974 -35.345093
v -0.946559 48.968707 -47.117181
v 5.392938 58.025689 -48.925420
v -7.288718 59.837778 -40.779565
v -7.288718 58.024537 -36.250188
v 6.300101 58.025689 -36.252139
v -0.946559 48.968707 -55.270839
v -7.288718 58.024537 -48.020325
v -5.475722 52.594036 -49.832466
v 5.392938 56.214754 -48.020325
v -2.758225 51.685687 -55.270839
v 6.300101 60.744974 -38.969375
v 3.581273 58.931734 -47.115230
v -1.852392 48.968707 -47.117181
v -7.288718 60.744974 -36.250188
v -2.758225 48.968707 -54.363793
v -7.288718 55.309863 -46.208184
v -0.945229 58.025689 -48.925420
v -7.288718 58.931734 -35.345093
v 1.769608 51.685687 -50.741462
v -0.946559 51.685687 -55.270839
v -6.381555 54.406124 -49.832466
v 2.675441 60.744974 -38.969375
v 6.300101 58.025689 -42.591706
v 5.392938 56.214754 -43.498751
v -5.475722 58.931734 -45.305040
v -6.381555 60.744974 -37.157234
v -2.758225 49.874751 -55.270839
v 6.300101 59.836625 -42.591706
v 4.487106 55.311016 -49.832466
f 645 659 668 
f 643 640 644 
f 638 639 644 
f 643 642 646 
f 637 646 649 
f 639 638 650 
f 638 644 650 
f 640 643 652 
f 645 640 652 
f 642 643 653 
f 639 650 653 
f 645 652 654 
f 652 647 654 
f 643 646 655 
f 652 643 655 
f 647 652 655 
f 641 649 656 
f 649 646 656 
f 651 641 656 
f 646 651 656 
f 643 644 657 
f 644 639 657 
f 653 643 657 
f 639 653 657 
f 640 645 658 
f 649 641 659 
f 645 649 659 
f 646 637 660 
f 654 647 660 
f 655 646 660 
f 647 655 660 
f 650 651 661 
f 653 650 661 
f 644 648 662 
f 648 641 662 
f 650 644 662 
f 644 640 663 
f 648 644 663 
f 640 658 663 
f 658 648 663 
f 646 642 664 
f 651 646 664 
f 661 651 664 
f 661 664 665 
f 642 653 665 
f 653 661 665 
f 664 642 665 
f 649 645 666 
f 637 649 666 
f 645 654 666 
f 660 637 666 
f 654 660 666 
f 641 651 667 
f 651 650 667 
f 662 641 667 
f 650 662 667 
f 641 648 668 
f 658 645 668 
f 648 658 668 
f 659 641 668 
o convex_22
v -0.946559 47.156865 -5.450520
v 7.206022 61.649477 -30.809812
v 7.206022 59.837723 -30.809812
v -7.288718 60.742890 -35.336433
v -3.665033 56.215634 -13.600353
v 7.206022 58.932555 -36.246226
v 2.675707 50.780373 -3.634126
v -7.288718 58.931137 -35.336433
v -7.288718 60.742890 -28.996610
v 4.487549 58.024550 -17.223565
v -1.851771 48.970038 -3.634126
v 1.769076 48.063451 -8.167131
v -4.570244 58.931137 -19.940176
v 7.206022 61.649477 -35.336433
v 2.675707 48.970038 -3.634126
v -4.570244 61.649477 -31.710029
v -2.758402 58.932555 -36.246226
v -1.851771 50.780373 -3.634126
v -7.288718 58.931137 -29.900019
v 5.394180 58.929718 -19.940176
v -2.758402 60.742890 -36.246226
v -0.946559 48.063451 -8.167131
v -0.946559 54.403880 -9.977141
v -0.041348 47.156865 -3.634126
v -4.570244 61.649477 -33.523231
v 3.580919 51.688378 -8.170323
v -5.475456 59.837723 -23.563388
v 7.206022 60.742890 -36.246226
v -3.665033 58.025969 -17.226757
v 2.675707 48.970038 -5.450520
v 4.487549 57.119383 -15.410363
v 3.580919 61.649477 -35.336433
f 693 682 700 
f 670 671 674 
f 672 676 677 
f 677 673 681 
f 670 674 682 
f 674 671 683 
f 675 679 683 
f 672 677 684 
f 670 682 684 
f 676 672 685 
f 674 680 685 
f 673 677 686 
f 679 675 686 
f 677 679 686 
f 676 669 687 
f 677 676 687 
f 669 679 687 
f 679 677 687 
f 670 681 688 
f 681 678 688 
f 685 672 689 
f 674 685 689 
f 669 676 690 
f 680 669 690 
f 676 685 690 
f 685 680 690 
f 673 686 691 
f 686 675 691 
f 679 669 692 
f 669 680 692 
f 683 679 692 
f 680 683 692 
f 672 684 693 
f 684 682 693 
f 671 670 694 
f 683 671 694 
f 675 683 694 
f 670 688 694 
f 688 675 694 
f 681 670 695 
f 677 681 695 
f 684 677 695 
f 670 684 695 
f 682 674 696 
f 689 682 696 
f 674 689 696 
f 681 673 697 
f 678 681 697 
f 680 674 698 
f 674 683 698 
f 683 680 698 
f 675 688 699 
f 688 678 699 
f 691 675 699 
f 673 691 699 
f 697 673 699 
f 678 697 699 
f 689 672 700 
f 682 689 700 
f 672 693 700 
o convex_23
v -0.946914 106.947540 -3.634126
v 1.770140 110.569577 4.519166
v 1.770140 125.964299 1.800072
v -1.853190 125.964299 1.800072
v -1.853190 82.487084 1.800870
v 1.770140 82.487084 -1.821662
v 2.676416 109.667260 -3.634126
v -1.853190 125.964299 -1.821662
v -1.853190 82.487084 -1.821662
v 1.770140 82.487084 1.800870
v -1.853190 108.760686 4.519166
v 1.770140 125.964299 -1.821662
v 2.676416 107.854113 0.894239
v 1.770140 108.760686 4.519166
v 2.676416 107.854113 -3.634126
v -0.946914 109.667260 -3.634126
v -1.853190 110.569577 4.519166
v 2.676416 109.667260 0.894239
v 1.770140 106.947540 -3.634126
f 715 706 719 
f 702 703 704 
f 704 703 708 
f 705 704 708 
f 706 705 709 
f 701 706 709 
f 708 701 709 
f 705 708 709 
f 705 706 710 
f 704 705 711 
f 705 710 711 
f 703 707 712 
f 708 703 712 
f 707 708 712 
f 710 706 713 
f 710 713 714 
f 702 711 714 
f 711 710 714 
f 713 702 714 
f 701 707 715 
f 707 713 715 
f 713 706 715 
f 707 701 716 
f 701 708 716 
f 708 707 716 
f 702 704 717 
f 711 702 717 
f 704 711 717 
f 703 702 718 
f 707 703 718 
f 702 713 718 
f 713 707 718 
f 706 701 719 
f 701 715 719 
o convex_24
v 42.536951 101.515244 0.895481
v 30.761571 121.438683 8.142851
v 30.761571 122.347619 -3.630578
v 40.724399 111.473638 2.705904
v 29.854054 118.722959 -6.351889
v 40.724399 111.473638 -4.538628
v 40.724399 99.701805 2.705904
v 29.854054 118.722959 8.142851
v 39.819365 109.664633 8.142851
v 38.913089 107.851194 -3.633416
v 29.854054 122.347619 -6.351889
v 38.006813 114.193796 8.142851
v 42.536951 103.326465 3.612535
v 38.006813 109.664633 8.142851
v 40.724399 99.701805 1.800693
v 32.572881 120.534180 -6.351889
v 40.724399 109.664633 -4.538628
v 42.536951 100.608524 3.612535
v 40.724399 109.664633 7.236220
v 29.854054 121.438683 8.142851
v 39.819365 102.421963 4.517747
v 30.761571 117.814022 -6.351889
v 41.629434 107.851194 -2.726785
v 32.572881 115.100515 8.142851
v 39.819365 112.380357 6.329589
v 41.629434 105.137687 -1.820155
v 37.099295 113.289293 -5.445259
v 39.819365 102.421963 -0.009731
v 38.913089 109.664633 -4.538628
v 40.724399 110.569135 6.329589
v 39.819365 111.473638 8.142851
v 41.629434 99.701805 1.800693
f 729 745 751 
f 724 726 727 
f 721 727 728 
f 724 727 730 
f 722 721 731 
f 721 728 731 
f 728 727 733 
f 726 724 734 
f 723 725 735 
f 730 722 735 
f 724 730 735 
f 720 732 737 
f 728 733 737 
f 737 732 738 
f 728 737 738 
f 721 722 739 
f 727 721 739 
f 722 730 739 
f 730 727 739 
f 726 737 740 
f 737 733 740 
f 734 724 741 
f 724 735 741 
f 725 723 742 
f 723 732 742 
f 732 720 742 
f 736 725 742 
f 727 726 743 
f 733 727 743 
f 726 740 743 
f 740 733 743 
f 722 731 744 
f 723 735 744 
f 735 722 744 
f 729 736 745 
f 742 720 745 
f 736 742 745 
f 735 725 746 
f 725 736 746 
f 741 735 746 
f 729 734 747 
f 734 741 747 
f 741 729 747 
f 736 729 748 
f 729 741 748 
f 746 736 748 
f 741 746 748 
f 732 723 749 
f 738 732 749 
f 723 744 749 
f 749 744 750 
f 731 728 750 
f 728 738 750 
f 744 731 750 
f 738 749 750 
f 726 734 751 
f 734 729 751 
f 720 737 751 
f 737 726 751 
f 745 720 751 
o convex_25
v 1.770229 107.851815 -3.634126
v -1.853013 100.606218 -38.965054
v -1.853013 101.512007 -38.965054
v -0.946848 106.946027 -3.634126
v 1.770229 106.040239 -4.543683
v -0.041392 103.323583 -32.622364
v -0.946848 107.851815 -5.449781
v -0.946848 100.606218 -34.431103
v -1.852658 102.417795 -24.467477
v -1.852658 104.229371 -27.185772
v -0.041392 101.512007 -33.528463
v -0.946848 106.040239 -4.543683
v 1.770229 107.851815 -5.449781
v -0.946848 102.417795 -38.055497
v 1.770229 106.946027 -8.168077
v -1.852658 104.229371 -21.752639
v -0.946848 100.606218 -38.965054
v -0.946848 105.135160 -9.070717
v -1.853013 100.606218 -34.431103
v -1.853013 102.417795 -38.055497
v -0.946848 107.851815 -3.634126
v 1.770229 106.040239 -8.168077
v -0.041392 101.512007 -31.716265
v -1.852658 103.323583 -21.752639
v -0.041392 102.417795 -33.528463
v 1.770229 106.946027 -3.634126
v -0.041037 105.135160 -9.070717
v -0.946848 101.512007 -38.965054
v 0.864064 105.134450 -20.849999
v -1.853013 103.323583 -32.622364
v -1.853013 101.512007 -29.904068
v -1.853013 103.323583 -29.904068
f 782 767 783 
f 756 755 763 
f 752 756 764 
f 758 752 764 
f 757 758 764 
f 764 756 766 
f 758 761 767 
f 753 754 768 
f 759 753 768 
f 762 759 768 
f 756 763 769 
f 763 760 769 
f 754 753 770 
f 753 759 770 
f 759 769 770 
f 769 760 770 
f 765 754 771 
f 757 765 771 
f 754 770 771 
f 755 752 772 
f 752 758 772 
f 767 755 772 
f 758 767 772 
f 756 762 773 
f 766 756 773 
f 762 766 773 
f 756 759 774 
f 762 756 774 
f 759 762 774 
f 763 755 775 
f 760 763 775 
f 755 767 775 
f 766 762 776 
f 762 768 776 
f 752 755 777 
f 756 752 777 
f 755 756 777 
f 759 756 778 
f 756 769 778 
f 769 759 778 
f 754 765 779 
f 765 757 779 
f 768 754 779 
f 757 776 779 
f 776 768 779 
f 757 764 780 
f 764 766 780 
f 776 757 780 
f 766 776 780 
f 758 757 781 
f 761 758 781 
f 767 761 781 
f 757 771 781 
f 771 770 781 
f 770 760 782 
f 760 775 782 
f 775 767 782 
f 781 770 782 
f 781 782 783 
f 767 781 783 
o convex_26
v 0.864574 199.340817 0.895481
v -1.853190 125.975206 -1.822283
v 1.770495 125.975206 -1.822283
v -1.853190 125.975206 1.801402
v -1.853190 194.816065 -1.822283
v 1.770495 125.975206 1.801402
v 1.770495 194.816065 -1.822283
v -1.853190 194.816065 1.801402
v 1.770495 195.721016 1.801402
v -0.947269 199.340817 -0.916362
v 0.864574 199.340817 -0.916362
v -0.947269 199.340817 0.895481
v -0.947269 195.721016 1.801402
v 1.770495 195.721016 -0.916362
f 790 794 797 
f 785 786 787 
f 786 785 788 
f 785 787 788 
f 787 786 789 
f 786 788 790 
f 789 786 790 
f 788 787 791 
f 787 789 791 
f 791 789 792 
f 789 790 792 
f 790 788 793 
f 788 791 793 
f 784 792 794 
f 793 784 794 
f 790 793 794 
f 792 784 795 
f 784 793 795 
f 793 791 795 
f 791 792 796 
f 795 791 796 
f 792 795 796 
f 792 790 797 
f 794 792 797 
o convex_27
v -8.194107 151.337454 -25.376945
v -1.853900 154.054508 -32.623605
v -1.853900 154.960784 -32.623605
v -0.041348 154.054508 -29.000275
v -12.724245 151.337454 -24.470314
v -9.100383 150.431178 -28.093644
v -0.947624 154.960784 -29.000275
v -4.571486 151.337454 -29.000275
v -8.194107 150.431178 -25.376945
v -10.911693 151.337454 -27.188610
v -0.947624 153.148675 -31.716975
v -2.760176 154.960784 -29.906108
v -12.724245 150.431178 -25.376945
v -0.041348 154.960784 -31.716975
v -12.724245 151.337454 -25.376945
v -0.041348 154.960784 -29.000275
v -10.911693 151.337454 -24.470314
v -7.287831 150.431178 -26.282777
v -3.665210 153.148675 -31.716975
v -2.760176 154.960784 -31.716975
v -10.911693 150.431178 -24.470314
v -0.947624 153.148675 -29.906108
v -3.665210 152.243730 -30.810344
v -10.911693 150.431178 -27.188610
v -0.041348 154.054508 -31.716975
v -4.571486 151.337454 -28.094443
v -0.947624 154.054508 -32.623605
v -8.194107 150.431178 -28.093644
v -12.724245 150.431178 -24.470314
v -3.665210 154.054508 -31.716975
v -0.947624 154.960784 -32.623605
v -7.287831 150.431178 -27.189408
f 815 825 829 
f 801 798 806 
f 804 800 809 
f 802 804 809 
f 803 806 810 
f 800 804 811 
f 800 807 812 
f 802 809 812 
f 810 802 812 
f 807 810 812 
f 798 801 813 
f 804 802 813 
f 811 804 813 
f 801 811 813 
f 806 798 814 
f 798 813 814 
f 813 802 814 
f 806 803 815 
f 801 806 815 
f 800 799 816 
f 799 808 816 
f 809 800 817 
f 800 812 817 
f 812 809 817 
f 810 806 818 
f 806 814 818 
f 814 802 818 
f 808 801 819 
f 805 808 819 
f 808 805 820 
f 803 816 820 
f 816 808 820 
f 803 810 821 
f 810 807 821 
f 807 816 821 
f 816 803 821 
f 801 808 822 
f 811 801 822 
f 801 815 823 
f 815 805 823 
f 819 801 823 
f 805 819 823 
f 799 800 824 
f 808 799 824 
f 822 808 824 
f 811 822 824 
f 815 803 825 
f 803 820 825 
f 820 805 825 
f 802 810 826 
f 810 818 826 
f 818 802 826 
f 807 800 827 
f 800 816 827 
f 816 807 827 
f 800 811 828 
f 824 800 828 
f 811 824 828 
f 805 815 829 
f 825 805 829 
o convex_28
v 23.511895 24.508789 -28.999545
v 7.206022 28.128750 -24.472745
v 7.206022 28.128750 -21.754856
v 19.886792 9.107463 -37.153212
v 14.456230 20.880316 -37.153212
v 21.699343 27.224292 -21.754856
v 10.831126 30.848509 -28.093582
v 21.699343 9.107463 -35.339778
v 25.324447 19.977986 -32.623397
v 20.794841 30.848509 -21.754856
v 25.324447 19.977986 -28.999545
v 8.112298 30.848509 -28.093582
v 16.267008 20.880316 -37.153212
v 14.456230 18.169070 -37.153212
v 21.699343 12.733808 -37.153212
v 7.206022 29.941923 -21.754856
v 22.605619 29.035336 -23.566782
v 19.886792 9.107463 -35.339778
v 25.324447 17.262484 -32.623397
v 21.699343 20.880316 -34.433815
v 20.794841 30.848509 -22.660819
v 12.643678 27.224292 -31.717434
v 25.324447 22.695617 -29.904000
v 21.699343 9.107463 -37.153212
v 9.924850 25.408991 -30.812978
v 24.418171 22.695617 -26.281656
v 15.360732 30.848509 -21.754856
v 25.324447 17.262484 -30.812978
v 19.888565 27.224292 -21.754856
v 15.360732 16.358025 -37.153212
v 11.737402 25.408991 -33.529360
v 22.605619 29.035336 -22.660819
f 855 852 861 
f 832 835 839 
f 839 836 841 
f 833 834 842 
f 834 833 843 
f 833 842 844 
f 831 832 845 
f 832 839 845 
f 841 831 845 
f 832 831 847 
f 831 833 847 
f 833 837 847 
f 838 840 848 
f 844 838 848 
f 838 844 849 
f 844 842 849 
f 836 839 850 
f 839 846 850 
f 841 836 851 
f 830 849 851 
f 849 842 851 
f 850 830 851 
f 836 850 851 
f 840 838 852 
f 849 830 852 
f 838 849 852 
f 830 850 852 
f 850 846 852 
f 837 833 853 
f 833 844 853 
f 848 837 853 
f 844 848 853 
f 831 841 854 
f 843 831 854 
f 835 837 855 
f 840 852 855 
f 839 841 856 
f 845 839 856 
f 841 845 856 
f 837 848 857 
f 848 840 857 
f 855 837 857 
f 840 855 857 
f 835 832 858 
f 837 835 858 
f 832 847 858 
f 847 837 858 
f 833 831 859 
f 831 843 859 
f 843 833 859 
f 842 834 860 
f 834 843 860 
f 841 851 860 
f 851 842 860 
f 854 841 860 
f 843 854 860 
f 839 835 861 
f 846 839 861 
f 852 846 861 
f 835 855 861 
o convex_29
v 20.794841 147.713148 20.825748
v 3.584998 138.654202 2.707323
v 3.584998 140.467552 2.707323
v 6.301697 147.713148 20.825748
v 14.451796 147.713148 13.579088
v -0.041348 138.654202 6.332427
v 20.794841 145.901749 20.825748
v 6.301697 145.900773 20.825748
v 3.584998 144.994586 12.671038
v 5.396131 138.654202 3.613599
v 19.887235 148.618360 19.013196
v 6.301697 147.713148 17.200644
v 0.866258 141.372763 6.332427
v 9.923963 146.806961 12.671038
v 2.677392 138.654202 6.332427
v 20.794841 145.901749 19.919472
v 7.207264 142.279926 5.426151
v 15.359402 148.618360 20.825748
v 0.866258 141.372763 8.144979
v 12.640663 147.713148 13.579088
v -0.041348 139.561364 5.426151
v 4.490564 138.654202 5.426151
v 17.170535 148.618360 19.013196
v 4.490564 140.467552 2.707323
v 19.887235 148.618360 20.825748
v 5.396131 138.654202 4.519875
v 8.110791 141.373739 6.332427
v 5.396131 142.279926 5.426151
v 3.584998 144.994586 14.483590
v 20.794841 147.713148 19.919472
v -0.041348 138.654202 5.426151
v -0.041348 139.561364 6.332427
f 890 880 893 
f 862 865 868 
f 865 867 869 
f 868 865 869 
f 867 863 871 
f 870 865 873 
f 870 873 875 
f 869 867 876 
f 868 869 876 
f 867 871 876 
f 862 868 877 
f 866 872 878 
f 865 862 879 
f 873 865 879 
f 870 874 880 
f 872 866 881 
f 875 873 881 
f 866 878 881 
f 864 863 882 
f 874 864 882 
f 880 874 882 
f 868 876 883 
f 876 871 883 
f 879 872 884 
f 873 879 884 
f 872 881 884 
f 881 873 884 
f 863 864 885 
f 871 863 885 
f 878 871 885 
f 862 872 886 
f 879 862 886 
f 872 879 886 
f 877 868 887 
f 871 877 887 
f 868 883 887 
f 883 871 887 
f 877 871 888 
f 871 878 888 
f 864 874 889 
f 874 870 889 
f 870 875 889 
f 875 881 889 
f 881 878 889 
f 885 864 889 
f 878 885 889 
f 865 870 890 
f 870 880 890 
f 872 862 891 
f 862 877 891 
f 878 872 891 
f 877 888 891 
f 888 878 891 
f 863 867 892 
f 882 863 892 
f 867 882 892 
f 867 865 893 
f 882 867 893 
f 880 882 893 
f 865 890 893 
o convex_30
v 5.394446 21.790893 -2.730066
v 7.207619 28.132430 -21.750688
v 7.207619 29.942322 -21.750688
v 21.700762 30.849573 -19.940619
v 21.700762 28.132430 -21.750688
v 0.864574 19.072597 -3.635101
v 5.394446 29.036223 -16.316757
v 13.544545 29.035070 -12.691032
v 1.772180 21.790893 -2.730066
v 6.302052 20.885947 -3.635101
v 1.772180 23.604243 -8.165860
v 21.700762 30.849573 -21.750688
v 14.450111 29.942322 -15.409860
v 21.700762 29.036223 -19.940619
v 5.394446 23.604243 -4.541998
v 4.488879 19.979848 -4.541998
v 6.302052 28.132430 -20.845654
v 0.864574 19.979848 -5.448894
v 17.168850 30.849573 -20.845654
v 8.113185 29.942322 -19.033723
v 9.924318 28.128972 -11.787860
v 0.864574 21.790893 -3.635101
v 5.394446 29.036223 -18.128688
v 1.772180 19.072597 -2.730066
v 6.302052 22.696991 -3.635101
v 21.700762 28.132430 -20.845654
v 1.772180 19.072597 -3.635101
v 12.638978 29.035070 -12.691032
v 1.772180 22.696991 -4.541998
v 4.488879 19.979848 -2.730066
v 18.074417 30.849573 -19.940619
v 0.864574 19.072597 -2.730066
f 899 917 925 
f 895 896 898 
f 895 898 899 
f 897 898 905 
f 898 896 905 
f 901 897 906 
f 898 897 907 
f 896 895 910 
f 904 910 911 
f 895 899 911 
f 910 895 911 
f 905 896 912 
f 897 905 912 
f 896 900 913 
f 900 906 913 
f 912 896 913 
f 900 904 915 
f 904 911 915 
f 911 899 915 
f 900 896 916 
f 904 900 916 
f 896 910 916 
f 910 904 916 
f 894 902 917 
f 897 901 918 
f 902 894 918 
f 894 903 918 
f 907 897 918 
f 903 907 918 
f 901 908 918 
f 908 902 918 
f 898 907 919 
f 907 903 919 
f 909 898 919 
f 899 898 920 
f 898 909 920 
f 917 899 920 
f 909 917 920 
f 906 900 921 
f 901 906 921 
f 908 901 921 
f 900 914 921 
f 914 908 921 
f 902 908 922 
f 914 900 922 
f 908 914 922 
f 900 915 922 
f 915 902 922 
f 903 894 923 
f 894 917 923 
f 917 909 923 
f 919 903 923 
f 909 919 923 
f 906 897 924 
f 897 912 924 
f 913 906 924 
f 912 913 924 
f 902 915 925 
f 915 899 925 
f 917 902 925 
o convex_31
v -31.750657 77.956059 -32.623605
v -33.557707 86.110769 -16.317023
v -34.463492 86.110769 -16.317023
v -37.182356 67.992344 -28.998679
v -40.805499 79.768611 -23.566876
v -25.410157 86.110769 -28.093644
v -29.033300 85.202720 -29.905310
v -35.372292 77.051557 -32.623605
v -27.221729 85.202720 -23.566876
v -38.993927 67.992344 -30.810344
v -40.805499 77.051557 -22.658649
v -35.369278 86.110769 -19.941949
v -33.557707 85.202720 -16.317023
v -32.656442 80.674887 -32.623605
v -25.410157 85.202720 -26.281979
v -27.221729 82.485665 -29.905310
v -39.899713 79.768611 -25.373753
v -38.993927 69.806670 -27.187014
v -39.899713 72.523724 -28.998679
v -34.466506 72.523724 -31.716975
v -29.939085 85.202720 -19.941949
v -38.088142 83.390168 -19.941949
v -29.939085 86.110769 -27.185418
v -38.993927 78.864109 -20.846984
v -27.221729 85.202720 -29.905310
v -36.276570 78.864109 -30.810344
v -40.805499 77.956059 -25.376945
v -39.899713 70.712946 -27.187014
v -27.221729 86.110769 -23.566876
v -33.560721 75.239005 -32.623605
v -34.463492 80.674887 -30.810344
v -38.993927 70.712946 -30.810344
f 935 944 957 
f 928 927 931 
f 928 931 937 
f 927 928 938 
f 926 933 939 
f 934 929 940 
f 940 929 941 
f 931 940 941 
f 930 937 942 
f 935 929 943 
f 929 938 943 
f 929 935 945 
f 926 941 945 
f 941 929 945 
f 929 934 946 
f 927 938 946 
f 938 929 946 
f 930 936 947 
f 928 937 947 
f 937 930 947 
f 931 932 948 
f 937 931 948 
f 942 937 948 
f 938 928 949 
f 936 943 949 
f 943 938 949 
f 928 947 949 
f 947 936 949 
f 932 931 950 
f 926 939 950 
f 939 932 950 
f 941 926 950 
f 931 941 950 
f 939 933 951 
f 933 944 951 
f 951 944 952 
f 936 930 952 
f 930 942 952 
f 942 951 952 
f 935 943 953 
f 943 936 953 
f 944 935 953 
f 952 944 953 
f 936 952 953 
f 931 927 954 
f 940 931 954 
f 934 940 954 
f 927 946 954 
f 946 934 954 
f 933 926 955 
f 935 933 955 
f 926 945 955 
f 945 935 955 
f 932 939 956 
f 948 932 956 
f 942 948 956 
f 939 951 956 
f 951 942 956 
f 933 935 957 
f 944 933 957 
o convex_32
v 2.676416 169.455169 5.425087
v -2.759023 167.644036 -5.445968
v -2.759023 169.455169 -5.445968
v -9.100560 168.550135 4.517392
v 2.676416 165.831839 1.800693
v -9.100560 171.266834 -4.538273
v 2.676416 168.549071 -5.445968
v -2.759023 165.831839 -1.821574
v -9.100560 168.550135 -4.538273
v -9.100560 170.360736 4.517392
v -2.759023 166.737938 4.518456
v 2.676416 166.737938 -5.445968
v 0.864219 169.455169 -5.445968
v -8.194462 171.266834 0.894062
v -2.759023 165.831839 2.707323
v 2.676416 167.644036 5.425087
v -3.663969 167.644036 5.425087
v -8.194462 171.266834 -4.538273
v 2.676416 165.831839 -2.727140
v -2.759023 166.737938 -4.539337
v 2.676416 166.737938 4.518456
v -7.288363 167.644036 3.611826
v -3.663969 169.455169 5.425087
v -1.854077 165.831839 -2.727140
v -0.041880 166.737938 -5.445968
v 2.676416 169.455169 4.518456
v -9.100560 171.266834 0.894062
v -7.288363 170.360736 4.517392
v 1.769165 165.831839 2.707323
v -7.288363 167.644036 -0.914943
v 1.769165 169.455169 -0.916007
f 975 983 988 
f 960 959 963 
f 959 960 964 
f 958 962 964 
f 963 959 966 
f 961 963 966 
f 963 961 967 
f 959 964 969 
f 964 962 969 
f 960 963 970 
f 964 960 970 
f 965 962 972 
f 968 961 972 
f 962 958 973 
f 967 961 974 
f 961 968 974 
f 968 973 974 
f 973 958 974 
f 970 963 975 
f 963 971 975 
f 962 965 976 
f 969 962 976 
f 968 972 978 
f 973 968 978 
f 962 973 978 
f 961 966 979 
f 972 961 979 
f 965 972 979 
f 958 967 980 
f 974 958 980 
f 967 974 980 
f 965 966 981 
f 976 965 981 
f 969 976 981 
f 966 977 981 
f 981 977 982 
f 966 959 982 
f 959 969 982 
f 977 966 982 
f 969 981 982 
f 958 964 983 
f 971 958 983 
f 975 971 983 
f 963 967 984 
f 967 971 984 
f 971 963 984 
f 967 958 985 
f 958 971 985 
f 971 967 985 
f 972 962 986 
f 962 978 986 
f 978 972 986 
f 966 965 987 
f 979 966 987 
f 965 979 987 
f 964 970 988 
f 970 975 988 
f 983 964 988 
o convex_33
v -22.690532 168.549603 6.331008
v -31.748591 153.148941 -2.727584
v -31.748591 154.962469 -3.632086
v -21.784433 167.643593 -8.163643
v -29.935419 164.924055 4.518988
v -29.029320 164.924055 -9.069653
v -29.029320 154.054951 -0.917071
v -25.407852 168.549603 -9.069653
v -29.029320 162.206026 6.331008
v -26.313951 162.206026 -9.069653
v -21.784433 167.643593 3.612978
v -25.407852 168.549603 6.331008
v -29.029320 154.054951 -3.632086
v -31.748591 157.680499 -0.011061
v -27.218098 162.206026 6.331008
v -21.784433 168.549603 -8.163643
v -29.935419 164.924055 6.331008
v -31.748591 154.962469 -0.011061
v -22.690532 167.643593 6.331008
v -28.124197 162.206026 -9.069653
v -22.690532 166.736075 -9.069653
v -28.124197 157.680499 2.706968
v -30.841517 160.397021 -3.632086
v -31.748591 156.774489 -3.632086
v -30.841517 159.492518 3.612978
v -21.784433 168.549603 3.612978
v -29.029320 163.113543 -9.069653
v -29.935419 153.148941 -1.821574
v -29.935419 163.113543 -5.445613
v -29.935419 163.113543 6.331008
v -29.935419 157.680499 2.706968
v -30.841517 154.054951 -3.632086
f 1008 1001 1020 
f 994 993 996 
f 994 996 998 
f 995 992 999 
f 989 996 1000 
f 996 993 1000 
f 997 989 1000 
f 992 995 1001 
f 991 990 1002 
f 989 997 1003 
f 996 989 1004 
f 999 992 1004 
f 1000 993 1005 
f 997 1000 1005 
f 993 1002 1005 
f 1002 990 1006 
f 999 989 1007 
f 995 999 1007 
f 989 1003 1007 
f 994 998 1008 
f 998 1001 1008 
f 998 996 1009 
f 992 1001 1009 
f 1001 998 1009 
f 996 1004 1009 
f 1004 992 1009 
f 995 1007 1010 
f 1007 1003 1010 
f 1002 993 1011 
f 1002 1011 1012 
f 994 991 1012 
f 991 1002 1012 
f 1005 1002 1013 
f 1002 1006 1013 
f 1006 997 1013 
f 989 999 1014 
f 1004 989 1014 
f 999 1004 1014 
f 990 991 1015 
f 991 994 1015 
f 1008 990 1015 
f 994 1008 1015 
f 990 1001 1016 
f 1001 995 1016 
f 1006 990 1016 
f 995 1010 1016 
f 993 994 1017 
f 1011 993 1017 
f 1012 1011 1017 
f 994 1012 1017 
f 997 1005 1018 
f 1013 997 1018 
f 1005 1013 1018 
f 1003 997 1019 
f 997 1006 1019 
f 1010 1003 1019 
f 1006 1016 1019 
f 1016 1010 1019 
f 1001 990 1020 
f 990 1008 1020 
o convex_34
v -26.312717 89.734454 -25.374351
v -15.442807 87.017666 -6.355968
v -15.442807 85.205291 -6.355968
v -35.370325 86.111035 -17.223920
v -24.502366 86.111035 -28.093999
v -32.652848 89.734454 -14.508528
v -15.442807 88.827824 -18.126213
v -15.442807 87.017666 -18.126213
v -22.688113 89.734011 -26.278773
v -20.877762 88.827824 -9.980037
v -30.840546 87.016779 -24.467802
v -17.255109 85.205291 -6.355968
v -27.217893 86.111035 -28.093999
v -32.652848 89.734454 -17.223920
v -15.442807 85.205291 -9.073488
v -19.067411 87.921636 -7.262517
v -33.559974 86.111035 -15.412949
v -15.442807 87.921636 -8.166939
v -26.312717 87.922523 -28.093999
v -35.370325 87.016779 -18.130469
v -23.597190 89.734454 -22.656831
v -17.255109 87.017666 -20.841605
v -33.559974 86.111035 -20.843733
v -29.933420 89.734454 -14.508528
v -15.442807 86.111922 -14.508528
v -23.597190 89.734454 -27.185322
v -32.652848 87.922523 -14.508528
v -16.349933 85.205291 -9.073488
v -15.442807 88.827824 -17.221792
v -17.255109 88.827824 -20.841605
v -30.840546 86.111035 -24.467802
v -23.595240 88.827824 -9.980037
f 1036 1030 1052 
f 1022 1023 1027 
f 1027 1023 1028 
f 1023 1022 1032 
f 1026 1021 1034 
f 1021 1031 1034 
f 1028 1023 1035 
f 1023 1032 1035 
f 1033 1025 1035 
f 1032 1022 1036 
f 1026 1024 1037 
f 1024 1032 1037 
f 1022 1027 1038 
f 1030 1036 1038 
f 1036 1022 1038 
f 1031 1021 1039 
f 1025 1033 1039 
f 1033 1031 1039 
f 1024 1026 1040 
f 1026 1034 1040 
f 1034 1031 1040 
f 1021 1026 1041 
f 1028 1025 1042 
f 1027 1028 1042 
f 1025 1029 1042 
f 1024 1040 1043 
f 1040 1031 1043 
f 1026 1030 1044 
f 1041 1026 1044 
f 1030 1041 1044 
f 1025 1028 1045 
f 1028 1035 1045 
f 1035 1025 1045 
f 1029 1025 1046 
f 1039 1021 1046 
f 1025 1039 1046 
f 1021 1041 1046 
f 1041 1029 1046 
f 1036 1026 1047 
f 1032 1036 1047 
f 1026 1037 1047 
f 1037 1032 1047 
f 1032 1024 1048 
f 1035 1032 1048 
f 1033 1035 1048 
f 1024 1043 1048 
f 1027 1029 1049 
f 1038 1027 1049 
f 1030 1038 1049 
f 1029 1041 1049 
f 1041 1030 1049 
f 1029 1027 1050 
f 1027 1042 1050 
f 1042 1029 1050 
f 1031 1033 1051 
f 1043 1031 1051 
f 1033 1048 1051 
f 1048 1043 1051 
f 1030 1026 1052 
f 1026 1036 1052 
o convex_35
v 38.910428 68.898798 28.072675
v 33.477739 80.675951 32.602724
v 31.667315 80.675951 32.602724
v 34.382950 85.204848 17.202063
v 26.230369 84.296710 27.166665
v 40.725108 79.769498 24.450143
v 30.760684 85.204848 28.071167
v 39.817059 67.992344 30.789197
v 37.100005 68.898798 28.978685
v 40.725108 78.863045 21.733620
v 37.101423 85.204848 19.920093
v 31.667315 77.958276 32.602724
v 34.382950 84.296710 17.202063
v 26.230369 85.204848 28.975670
v 35.289581 77.956591 32.602724
v 36.194793 69.806936 30.789197
v 31.667315 84.296710 19.920093
v 40.725108 75.238916 27.166665
v 40.725108 74.334148 24.450143
v 37.101423 85.204848 18.108073
v 28.948842 85.204848 29.884695
v 26.230369 84.296710 28.975670
v 38.913266 79.769498 27.166665
v 28.042211 84.296710 24.450143
v 37.101423 81.580720 19.015591
v 34.384369 75.238916 32.602724
v 39.817059 69.806936 30.789197
v 28.042211 85.204848 24.450143
v 38.006635 67.992344 28.978685
v 39.817059 81.580720 20.829118
v 39.817059 74.334148 28.978685
v 38.006635 67.992344 30.789197
f 1061 1081 1084 
f 1056 1059 1063 
f 1059 1054 1063 
f 1054 1055 1064 
f 1059 1056 1066 
f 1064 1055 1066 
f 1054 1064 1067 
f 1057 1061 1068 
f 1056 1065 1069 
f 1065 1061 1069 
f 1062 1058 1070 
f 1060 1053 1071 
f 1062 1070 1071 
f 1070 1060 1071 
f 1056 1063 1072 
f 1065 1056 1072 
f 1055 1054 1073 
f 1054 1059 1073 
f 1066 1055 1073 
f 1059 1066 1073 
f 1066 1057 1074 
f 1064 1066 1074 
f 1057 1068 1074 
f 1068 1064 1074 
f 1063 1054 1075 
f 1058 1063 1075 
f 1054 1067 1075 
f 1070 1058 1075 
f 1061 1057 1076 
f 1069 1061 1076 
f 1053 1065 1077 
f 1071 1053 1077 
f 1062 1071 1077 
f 1072 1062 1077 
f 1065 1072 1077 
f 1060 1067 1078 
f 1067 1064 1078 
f 1067 1060 1079 
f 1060 1070 1079 
f 1066 1056 1080 
f 1057 1066 1080 
f 1056 1069 1080 
f 1076 1057 1080 
f 1069 1076 1080 
f 1053 1060 1081 
f 1065 1053 1081 
f 1061 1065 1081 
f 1058 1062 1082 
f 1063 1058 1082 
f 1062 1072 1082 
f 1072 1063 1082 
f 1075 1067 1083 
f 1070 1075 1083 
f 1067 1079 1083 
f 1079 1070 1083 
f 1068 1061 1084 
f 1064 1068 1084 
f 1060 1078 1084 
f 1078 1064 1084 
f 1081 1060 1084 
o convex_36
v -9.099851 80.677338 -3.636254
v -1.853190 80.677338 -2.729800
v -4.572018 81.580558 -1.823347
v -14.534846 87.922612 -17.222944
v -15.442009 87.015489 -6.353929
v -11.816018 87.922612 -12.692363
v -2.760353 78.865044 -4.541022
v -15.442009 86.109342 -15.408353
v -15.442009 84.297048 -5.447476
v -4.572018 78.865044 -0.010441
v -5.479181 83.392852 -8.165151
v -3.666185 77.957921 -1.823347
v -13.629014 86.109342 -16.314806
v -14.534846 87.922612 -9.071604
v -8.195348 82.486705 -1.823347
v -2.760353 79.770215 -0.010441
v -15.442009 87.922612 -17.222944
v -11.816018 87.922612 -14.503584
v -3.666185 80.677338 -6.353929
v -2.760353 77.957921 -0.010441
v -15.442009 84.297048 -7.258697
v -12.723181 86.109342 -5.447476
v -9.099851 86.109342 -9.974687
v -14.534846 86.109342 -16.314806
v -1.853190 78.865044 -3.636254
v -15.442009 86.109342 -5.447476
v -3.666185 77.957921 -0.010441
v -3.666185 78.865044 -4.541022
v -12.723181 87.922612 -10.877771
v -1.853190 80.677338 -3.636254
v -8.195348 83.392852 -2.729800
v -15.442009 87.922612 -9.071604
f 1098 1101 1116 
f 1089 1092 1093 
f 1085 1092 1096 
f 1090 1088 1098 
f 1099 1094 1100 
f 1086 1087 1100 
f 1092 1089 1101 
f 1088 1097 1101 
f 1098 1088 1101 
f 1088 1090 1102 
f 1102 1095 1103 
f 1097 1088 1103 
f 1091 1097 1103 
f 1088 1102 1103 
f 1100 1094 1104 
f 1086 1100 1104 
f 1092 1085 1105 
f 1093 1092 1105 
f 1085 1093 1105 
f 1098 1089 1106 
f 1087 1086 1107 
f 1102 1090 1107 
f 1095 1102 1107 
f 1096 1092 1108 
f 1097 1091 1108 
f 1092 1101 1108 
f 1101 1097 1108 
f 1096 1091 1109 
f 1091 1103 1109 
f 1086 1104 1109 
f 1104 1096 1109 
f 1089 1093 1110 
f 1093 1094 1110 
f 1099 1089 1110 
f 1094 1099 1110 
f 1093 1085 1111 
f 1094 1093 1111 
f 1085 1096 1111 
f 1096 1104 1111 
f 1104 1094 1111 
f 1091 1096 1112 
f 1108 1091 1112 
f 1096 1108 1112 
f 1090 1098 1113 
f 1098 1106 1113 
f 1087 1107 1113 
f 1107 1090 1113 
f 1103 1095 1114 
f 1107 1086 1114 
f 1095 1107 1114 
f 1086 1109 1114 
f 1109 1103 1114 
f 1089 1099 1115 
f 1099 1100 1115 
f 1100 1087 1115 
f 1106 1089 1115 
f 1087 1113 1115 
f 1113 1106 1115 
f 1089 1098 1116 
f 1101 1089 1116 
o convex_37
v 27.133363 86.108641 -28.096127
v 10.829707 87.015343 -29.906551
v 12.641638 87.015343 -33.530236
v 24.416398 67.992344 -40.774768
v 20.796260 79.763947 -41.682818
v 16.265501 82.484052 -27.188078
v 29.854054 77.961628 -37.152502
v 22.604467 89.733230 -28.096127
v 26.228329 70.710232 -37.152502
v 13.548535 90.639932 -32.625024
v 18.984329 77.054926 -41.682818
v 10.829707 88.826529 -27.188078
v 26.228329 84.295238 -27.188078
v 26.228329 67.992344 -41.682818
v 29.854054 77.961628 -33.530236
v 29.854054 79.763947 -36.245872
v 10.829707 87.015343 -27.188078
v 12.641638 89.733230 -33.530236
v 26.228329 71.616934 -41.682818
v 22.604467 89.733230 -27.188078
v 24.416398 67.992344 -39.870975
v 18.984329 82.484052 -39.870975
v 11.736604 90.639932 -30.811763
v 27.133363 68.899046 -39.870975
v 26.228329 87.917610 -28.096127
v 18.077432 80.670648 -40.774768
v 25.323294 82.484052 -28.096127
v 24.416398 79.763947 -39.870975
v 17.174260 87.015343 -35.340660
v 16.265501 81.577350 -28.096127
v 29.854054 80.670648 -33.530236
v 29.854054 76.148225 -37.152502
f 1131 1140 1148 
f 1118 1119 1127 
f 1120 1118 1127 
f 1128 1122 1129 
f 1120 1127 1130 
f 1127 1121 1130 
f 1117 1129 1131 
f 1129 1125 1131 
f 1131 1123 1132 
f 1118 1120 1133 
f 1128 1118 1133 
f 1122 1128 1133 
f 1119 1118 1134 
f 1130 1121 1135 
f 1123 1130 1135 
f 1124 1126 1136 
f 1128 1129 1136 
f 1125 1122 1137 
f 1120 1130 1137 
f 1133 1120 1137 
f 1134 1126 1138 
f 1118 1128 1139 
f 1134 1118 1139 
f 1126 1134 1139 
f 1136 1126 1139 
f 1128 1136 1139 
f 1131 1125 1140 
f 1125 1137 1140 
f 1137 1130 1140 
f 1129 1117 1141 
f 1124 1136 1141 
f 1136 1129 1141 
f 1127 1119 1142 
f 1121 1127 1142 
f 1119 1134 1142 
f 1138 1121 1142 
f 1134 1138 1142 
f 1122 1125 1143 
f 1129 1122 1143 
f 1125 1129 1143 
f 1132 1123 1144 
f 1135 1121 1144 
f 1123 1135 1144 
f 1121 1138 1144 
f 1126 1124 1145 
f 1138 1126 1145 
f 1141 1132 1145 
f 1124 1141 1145 
f 1132 1144 1145 
f 1144 1138 1145 
f 1122 1133 1146 
f 1137 1122 1146 
f 1133 1137 1146 
f 1117 1131 1147 
f 1131 1132 1147 
f 1141 1117 1147 
f 1132 1141 1147 
f 1130 1123 1148 
f 1123 1131 1148 
f 1140 1130 1148 
o convex_38
v 8.111944 85.203074 -8.164530
v 5.396840 85.203074 -16.317023
v 5.396840 87.016424 -16.317023
v 16.265235 87.016424 -16.317023
v 0.865283 77.957478 -3.635367
v -0.041348 80.677015 -3.635367
v 4.488613 78.863665 -2.728204
v 14.451973 85.203074 -16.317023
v 14.451973 87.922612 -12.692363
v 7.206909 87.922612 -15.409860
v 0.865283 79.770828 -7.258697
v 4.488613 80.677015 -2.728204
v 15.358604 86.109262 -13.598195
v 16.265235 87.922612 -16.317023
v 4.488613 84.298838 -15.409860
v 0.865283 80.677015 -2.728204
v -0.041348 80.677015 -5.447032
v 4.488613 86.109262 -12.692363
v 10.827047 87.922612 -12.692363
v -0.041348 77.957478 -2.728204
v 7.206909 83.392651 -5.447032
v 3.583579 85.203074 -13.598195
v 4.488613 78.863665 -3.635367
v 2.676948 79.770828 -7.258697
v -0.041348 78.863665 -5.447032
v 16.265235 87.922612 -14.504028
v 7.206909 87.922612 -16.317023
v 12.640308 87.016424 -10.880697
v 6.300278 84.298838 -15.409860
v 2.676948 84.298838 -9.974865
v 2.676948 82.487439 -5.447032
v 14.451973 85.203074 -15.409860
f 1161 1155 1180 
f 1150 1151 1152 
f 1150 1152 1156 
f 1156 1152 1161 
f 1152 1151 1162 
f 1158 1157 1162 
f 1151 1150 1163 
f 1150 1156 1163 
f 1155 1160 1164 
f 1158 1151 1166 
f 1157 1158 1167 
f 1158 1166 1167 
f 1153 1155 1168 
f 1164 1154 1168 
f 1155 1164 1168 
f 1154 1165 1168 
f 1149 1164 1169 
f 1164 1160 1169 
f 1151 1163 1170 
f 1155 1153 1171 
f 1153 1156 1171 
f 1156 1155 1171 
f 1156 1153 1172 
f 1159 1163 1172 
f 1163 1159 1173 
f 1153 1168 1173 
f 1168 1165 1173 
f 1170 1163 1173 
f 1165 1170 1173 
f 1172 1153 1173 
f 1159 1172 1173 
f 1160 1155 1174 
f 1161 1152 1174 
f 1155 1161 1174 
f 1152 1162 1174 
f 1162 1157 1174 
f 1169 1160 1174 
f 1151 1158 1175 
f 1162 1151 1175 
f 1158 1162 1175 
f 1167 1149 1176 
f 1157 1167 1176 
f 1149 1169 1176 
f 1174 1157 1176 
f 1169 1174 1176 
f 1163 1156 1177 
f 1156 1172 1177 
f 1172 1163 1177 
f 1154 1164 1178 
f 1165 1154 1178 
f 1166 1151 1178 
f 1164 1166 1178 
f 1151 1170 1178 
f 1170 1165 1178 
f 1164 1149 1179 
f 1166 1164 1179 
f 1149 1167 1179 
f 1167 1166 1179 
f 1155 1156 1180 
f 1156 1161 1180 
o convex_39
v 18.981757 88.827436 -18.129220
v 9.924052 87.017123 -27.188078
v 6.301786 86.111257 -19.034787
v 17.170624 82.487084 -27.188078
v 25.320723 89.733301 -26.280383
v 14.453924 85.204682 -16.317023
v 26.230369 85.205391 -27.188078
v 8.116998 88.827436 -23.561555
v 6.301786 87.921570 -16.317023
v 18.981757 89.733301 -27.188078
v 17.166545 88.827436 -16.317023
v 16.263018 82.487084 -24.469250
v 5.394180 86.111257 -16.317023
v 26.230369 85.205391 -26.280383
v 15.359491 82.487084 -26.280383
v 25.320723 89.733301 -24.469250
v 17.166545 87.017123 -16.317023
v 9.924052 88.827436 -27.188078
v 9.020525 88.827436 -20.846984
v 26.230369 87.921570 -27.188078
v 25.320723 87.017123 -24.469250
v 23.507550 89.733301 -23.562619
v 16.263018 83.393659 -21.751486
v 15.359491 82.487084 -24.469250
v 5.394180 87.017123 -17.224718
v 14.455964 88.827436 -17.224718
v 23.507550 89.733301 -27.188078
v 13.548358 85.204682 -16.317023
v 18.981757 89.733301 -26.280383
v 5.394180 86.111257 -17.224718
v 17.170624 82.487084 -25.375881
v 16.263018 82.487084 -27.188078
f 1184 1195 1212 
f 1184 1182 1187 
f 1187 1182 1190 
f 1189 1186 1191 
f 1186 1189 1193 
f 1184 1187 1194 
f 1183 1182 1195 
f 1184 1192 1195 
f 1185 1190 1196 
f 1191 1181 1196 
f 1181 1191 1197 
f 1191 1186 1197 
f 1186 1194 1197 
f 1182 1188 1198 
f 1190 1182 1198 
f 1188 1190 1198 
f 1188 1189 1199 
f 1187 1190 1200 
f 1194 1187 1200 
f 1185 1196 1200 
f 1196 1194 1200 
f 1196 1181 1201 
f 1194 1196 1201 
f 1197 1194 1201 
f 1181 1197 1201 
f 1196 1190 1202 
f 1191 1196 1202 
f 1186 1192 1203 
f 1194 1186 1203 
f 1195 1192 1204 
f 1193 1195 1204 
f 1189 1188 1205 
f 1193 1189 1205 
f 1189 1191 1206 
f 1199 1189 1206 
f 1191 1202 1206 
f 1190 1185 1207 
f 1185 1200 1207 
f 1200 1190 1207 
f 1192 1186 1208 
f 1186 1193 1208 
f 1204 1192 1208 
f 1193 1204 1208 
f 1190 1188 1209 
f 1188 1199 1209 
f 1202 1190 1209 
f 1199 1206 1209 
f 1206 1202 1209 
f 1182 1183 1210 
f 1188 1182 1210 
f 1183 1195 1210 
f 1195 1193 1210 
f 1205 1188 1210 
f 1193 1205 1210 
f 1192 1184 1211 
f 1184 1194 1211 
f 1203 1192 1211 
f 1194 1203 1211 
f 1182 1184 1212 
f 1195 1182 1212 
o convex_40
v -11.820097 173.078677 -4.538628
v -23.595211 168.550223 -8.163732
v -24.501221 168.550223 -7.257101
v -9.100560 169.456411 4.516328
v -19.063654 174.890431 6.331008
v -24.501221 168.550223 6.331008
v -18.157644 174.890431 -8.163732
v -9.100560 169.456411 -5.445259
v -14.536620 173.984243 6.331008
v -24.501221 169.456411 -7.257101
v -9.100560 171.268164 4.516328
v -16.348640 174.890431 -8.163732
v -20.877182 168.550223 -8.163732
v -9.100560 171.268164 -5.445259
v -24.501221 169.456411 6.331008
v -21.781684 168.550223 6.331008
v -16.348640 174.890431 6.331008
v -14.536620 171.268164 6.331008
v -19.063654 174.890431 0.894062
v -16.348640 173.078677 -8.163732
v -10.006570 172.172490 -1.821574
v -10.912580 170.361977 5.424378
v -20.877182 168.550223 3.611116
v -10.006570 172.172490 -5.445259
v -23.595211 169.456411 -8.163732
v -10.912580 172.172490 5.424378
v -19.971172 173.984243 -0.916362
v -11.820097 173.078677 -6.351889
v -22.689201 171.268164 6.331008
v -22.689201 171.268164 -4.538628
v -17.253142 172.172490 -8.163732
f 1225 1232 1243 
f 1215 1214 1218 
f 1217 1218 1221 
f 1214 1215 1222 
f 1215 1218 1222 
f 1216 1220 1223 
f 1214 1219 1224 
f 1219 1217 1224 
f 1218 1214 1225 
f 1220 1216 1225 
f 1214 1224 1225 
f 1223 1220 1226 
f 1220 1224 1226 
f 1218 1217 1227 
f 1222 1218 1227 
f 1221 1218 1228 
f 1218 1225 1228 
f 1217 1221 1229 
f 1224 1217 1229 
f 1213 1224 1229 
f 1221 1228 1230 
f 1217 1219 1231 
f 1224 1220 1232 
f 1225 1224 1232 
f 1223 1226 1233 
f 1213 1229 1233 
f 1229 1221 1233 
f 1216 1223 1234 
f 1228 1216 1234 
f 1221 1230 1234 
f 1230 1228 1234 
f 1225 1216 1235 
f 1216 1228 1235 
f 1228 1225 1235 
f 1233 1226 1236 
f 1213 1233 1236 
f 1219 1214 1237 
f 1214 1222 1237 
f 1222 1219 1237 
f 1233 1221 1238 
f 1223 1233 1238 
f 1234 1223 1238 
f 1221 1234 1238 
f 1219 1222 1239 
f 1217 1231 1239 
f 1231 1219 1239 
f 1224 1213 1240 
f 1226 1224 1240 
f 1213 1236 1240 
f 1236 1226 1240 
f 1227 1217 1241 
f 1222 1227 1241 
f 1217 1239 1241 
f 1241 1239 1242 
f 1239 1222 1242 
f 1222 1241 1242 
f 1220 1225 1243 
f 1232 1220 1243 
o convex_41
v 17.173018 88.828267 19.918083
v 36.193640 86.111922 19.013654
v 36.193640 85.205291 19.013654
v 17.173018 86.111035 7.236929
v 26.230812 85.205291 28.977266
v 33.476674 89.734011 15.391684
v 25.325777 89.734011 27.164152
v 17.173018 87.922523 7.236929
v 17.173018 87.016779 19.918083
v 34.381709 85.205291 16.298240
v 28.949640 86.111922 28.977266
v 24.418881 88.828267 9.956600
v 22.606950 89.734454 26.259724
v 19.889984 88.828267 11.767585
v 18.983087 86.111035 7.236929
v 34.381709 88.827824 17.204797
v 28.042743 87.017666 11.769713
v 17.173018 86.111035 12.674142
v 30.755984 89.734011 14.487255
v 25.325777 85.205291 28.070709
v 21.700053 87.016779 25.353167
v 28.949640 85.205291 28.977266
v 17.173018 88.828267 15.391684
v 35.288606 86.111922 20.822512
v 32.569778 89.734011 14.487255
v 22.606950 89.734454 24.446610
v 28.949640 85.205291 21.729068
v 23.511984 89.734454 27.166280
v 36.193640 86.111922 18.109226
v 21.700053 88.828267 9.956600
v 18.983087 87.922523 7.236929
v 28.949640 89.734011 22.635625
f 1271 1250 1275 
f 1247 1244 1251 
f 1244 1247 1252 
f 1246 1248 1253 
f 1247 1251 1258 
f 1253 1247 1258 
f 1253 1258 1260 
f 1258 1255 1260 
f 1252 1247 1261 
f 1253 1248 1263 
f 1261 1247 1263 
f 1252 1261 1263 
f 1244 1252 1264 
f 1256 1244 1264 
f 1263 1248 1264 
f 1252 1263 1264 
f 1248 1246 1265 
f 1254 1248 1265 
f 1251 1244 1266 
f 1244 1256 1266 
f 1257 1251 1266 
f 1246 1245 1267 
f 1245 1259 1267 
f 1265 1246 1267 
f 1254 1265 1267 
f 1249 1253 1268 
f 1253 1260 1268 
f 1260 1255 1268 
f 1255 1262 1268 
f 1268 1262 1269 
f 1262 1257 1269 
f 1266 1256 1269 
f 1257 1266 1269 
f 1249 1268 1269 
f 1247 1253 1270 
f 1263 1247 1270 
f 1253 1263 1270 
f 1248 1254 1271 
f 1254 1250 1271 
f 1264 1248 1271 
f 1256 1264 1271 
f 1249 1269 1271 
f 1269 1256 1271 
f 1245 1246 1272 
f 1246 1253 1272 
f 1253 1249 1272 
f 1259 1245 1272 
f 1249 1259 1272 
f 1255 1251 1273 
f 1251 1257 1273 
f 1262 1255 1273 
f 1257 1262 1273 
f 1251 1255 1274 
f 1258 1251 1274 
f 1255 1258 1274 
f 1250 1254 1275 
f 1259 1249 1275 
f 1267 1259 1275 
f 1254 1267 1275 
f 1249 1271 1275 
o convex_42
v 10.828958 92.454007 -30.810344
v 4.488686 116.909165 -18.128865
v 3.582515 116.909165 -18.128865
v 5.394857 116.909165 -20.848757
v 13.547471 90.641085 -30.810344
v 13.547471 91.548832 -32.623605
v 4.488686 114.193640 -21.753969
v 9.923762 95.172104 -28.093290
v 5.394857 116.909165 -19.035496
v 9.923762 96.982454 -29.905132
v 3.582515 116.003990 -18.128865
v 12.640324 91.548832 -29.905132
v 3.582515 116.003990 -19.942127
v 4.488686 116.003990 -18.128865
v 4.488686 116.909165 -20.848757
v 11.735129 90.641085 -30.810344
v 12.640324 91.548832 -32.623605
v 13.547471 91.548832 -30.810344
v 6.301028 106.947095 -24.471024
v 8.111420 108.757446 -23.564393
v 5.394857 109.660049 -22.659181
v 12.640324 90.641085 -32.623605
v 5.394857 115.098815 -19.035496
v 9.923762 95.172104 -29.905132
v 5.394857 109.660049 -21.755388
v 3.582515 116.909165 -19.942127
v 8.111420 108.757446 -24.471024
v 13.547471 90.641085 -32.623605
v 11.735129 90.641085 -31.715556
v 10.828958 95.172104 -28.093290
v 6.301028 108.757446 -24.471024
v 11.735129 91.548832 -29.905132
f 1291 1287 1307 
f 1278 1277 1279 
f 1279 1277 1284 
f 1277 1278 1286 
f 1286 1278 1288 
f 1284 1277 1289 
f 1277 1286 1289 
f 1286 1283 1289 
f 1287 1280 1289 
f 1278 1279 1290 
f 1279 1281 1290 
f 1283 1276 1291 
f 1280 1287 1291 
f 1290 1281 1292 
f 1280 1281 1293 
f 1284 1280 1293 
f 1288 1282 1294 
f 1279 1284 1295 
f 1293 1281 1295 
f 1284 1293 1295 
f 1286 1288 1296 
f 1288 1294 1296 
f 1280 1291 1297 
f 1285 1292 1297 
f 1292 1281 1297 
f 1280 1284 1298 
f 1284 1289 1298 
f 1289 1280 1298 
f 1276 1283 1299 
f 1282 1285 1299 
f 1294 1282 1299 
f 1283 1296 1299 
f 1296 1294 1299 
f 1297 1276 1299 
f 1285 1297 1299 
f 1283 1286 1300 
f 1296 1283 1300 
f 1286 1296 1300 
f 1288 1278 1301 
f 1282 1288 1301 
f 1278 1290 1301 
f 1290 1282 1301 
f 1281 1279 1302 
f 1279 1295 1302 
f 1295 1281 1302 
f 1281 1280 1303 
f 1280 1297 1303 
f 1297 1281 1303 
f 1291 1276 1304 
f 1276 1297 1304 
f 1297 1291 1304 
f 1283 1287 1305 
f 1289 1283 1305 
f 1287 1289 1305 
f 1285 1282 1306 
f 1282 1290 1306 
f 1292 1285 1306 
f 1290 1292 1306 
f 1287 1283 1307 
f 1283 1291 1307 
o convex_43
v 3.582337 140.465689 5.425087
v -0.946559 136.843068 -3.634835
v 0.864130 136.843068 -3.634835
v -1.852835 142.276645 -10.881496
v -2.759111 139.560566 4.518456
v -1.852835 144.089020 1.800160
v 1.769785 144.089020 -1.823170
v -2.759111 136.843068 1.800160
v 3.582337 137.749610 1.800160
v -2.759111 141.370103 -10.881496
v 0.864130 137.749610 5.425087
v 1.769785 144.089020 1.800160
v 2.676061 136.843068 1.800160
v -0.040904 138.654734 -7.256569
v -2.759111 137.748901 -4.539869
v -1.852835 144.089020 -1.823170
v 0.864130 140.465689 5.425087
v 3.582337 138.654734 5.425087
v -2.759111 142.276645 -10.881496
v -1.852835 136.843068 3.611826
v 3.582337 139.560566 1.800160
v -1.852835 139.561275 -9.068234
v -2.759111 137.749610 4.518456
v -0.040904 140.465689 -7.256569
v 1.769785 136.843068 -2.728204
v -2.759111 142.276645 -8.161604
v 0.864130 136.843068 3.611826
v -2.759111 136.843068 -1.823170
v -0.040904 137.749610 5.425087
v -1.852835 141.370103 -10.881496
v 3.582337 140.465689 3.611826
v 3.582337 137.749610 3.611826
f 1334 1320 1339 
f 1309 1310 1315 
f 1315 1312 1317 
f 1313 1308 1319 
f 1308 1314 1319 
f 1314 1313 1319 
f 1315 1310 1320 
f 1310 1309 1321 
f 1315 1317 1322 
f 1314 1311 1323 
f 1313 1314 1323 
f 1308 1313 1324 
f 1313 1312 1324 
f 1318 1308 1324 
f 1316 1308 1325 
f 1308 1318 1325 
f 1311 1317 1326 
f 1317 1312 1326 
f 1323 1311 1326 
f 1313 1323 1326 
f 1315 1320 1327 
f 1308 1316 1328 
f 1316 1321 1328 
f 1321 1309 1329 
f 1322 1317 1329 
f 1309 1322 1329 
f 1312 1315 1330 
f 1315 1327 1330 
f 1311 1314 1331 
f 1321 1311 1331 
f 1314 1328 1331 
f 1328 1321 1331 
f 1320 1310 1332 
f 1316 1320 1332 
f 1310 1321 1332 
f 1321 1316 1332 
f 1312 1313 1333 
f 1326 1312 1333 
f 1313 1326 1333 
f 1325 1318 1334 
f 1318 1327 1334 
f 1327 1320 1334 
f 1309 1315 1335 
f 1322 1309 1335 
f 1315 1322 1335 
f 1324 1312 1336 
f 1318 1324 1336 
f 1327 1318 1336 
f 1312 1330 1336 
f 1330 1327 1336 
f 1317 1311 1337 
f 1311 1321 1337 
f 1321 1329 1337 
f 1329 1317 1337 
f 1314 1308 1338 
f 1308 1328 1338 
f 1328 1314 1338 
f 1320 1316 1339 
f 1316 1325 1339 
f 1325 1334 1339 
o convex_44
v 7.206022 118.722214 -31.719103
v -7.288718 109.668676 -39.868847
v -7.288718 109.668676 -38.055586
v -0.946559 99.699588 -39.870266
v 5.394180 111.477610 -40.774059
v -7.288718 121.440048 -29.908679
v 7.206022 119.628898 -28.093999
v -7.288718 118.719997 -29.908679
v 7.206022 122.346732 -29.907261
v -7.288718 114.188795 -38.055586
v -2.758402 100.606272 -42.588739
v 5.394180 109.668676 -38.055586
v -1.851771 100.606272 -38.965054
v -4.568826 110.573143 -40.774059
v -0.041348 101.512956 -42.588739
v -7.288718 121.440048 -30.813891
v 5.394180 122.346732 -28.093999
v 5.394180 119.628898 -28.093999
v 5.394180 109.668676 -40.774059
v -2.758402 102.417423 -42.588739
v -0.041348 100.606272 -41.680690
v -0.041348 111.477610 -40.774059
v -7.288718 114.188795 -33.532364
v -6.382087 109.668676 -40.774059
v -2.758402 100.606272 -40.775478
v 3.580919 106.948625 -38.055586
v 1.769076 103.324106 -39.868847
v -5.475456 112.379861 -39.868847
v 6.299392 113.286544 -35.341369
v 6.299392 115.099912 -37.153212
v 7.206022 122.346732 -28.093999
v -0.946559 100.606272 -38.965054
f 1346 1352 1371 
f 1341 1342 1345 
f 1345 1342 1347 
f 1346 1340 1348 
f 1341 1345 1349 
f 1349 1345 1355 
f 1348 1355 1356 
f 1355 1345 1356 
f 1345 1347 1357 
f 1352 1346 1357 
f 1347 1352 1357 
f 1346 1356 1357 
f 1356 1345 1357 
f 1354 1344 1358 
f 1354 1350 1359 
f 1344 1354 1359 
f 1343 1350 1360 
f 1350 1354 1360 
f 1354 1358 1360 
f 1359 1353 1361 
f 1344 1359 1361 
f 1347 1342 1362 
f 1352 1347 1362 
f 1342 1352 1362 
f 1341 1349 1363 
f 1350 1341 1363 
f 1359 1350 1363 
f 1353 1359 1363 
f 1342 1341 1364 
f 1341 1350 1364 
f 1350 1343 1364 
f 1343 1352 1364 
f 1352 1342 1364 
f 1346 1343 1365 
f 1351 1346 1365 
f 1351 1365 1366 
f 1358 1351 1366 
f 1343 1360 1366 
f 1360 1358 1366 
f 1365 1343 1366 
f 1349 1355 1367 
f 1361 1353 1367 
f 1355 1361 1367 
f 1363 1349 1367 
f 1353 1363 1367 
f 1340 1346 1368 
f 1346 1351 1368 
f 1358 1340 1368 
f 1351 1358 1368 
f 1348 1340 1369 
f 1355 1348 1369 
f 1340 1358 1369 
f 1358 1344 1369 
f 1344 1361 1369 
f 1361 1355 1369 
f 1346 1348 1370 
f 1356 1346 1370 
f 1348 1356 1370 
f 1343 1346 1371 
f 1352 1343 1371 
o convex_45
v -2.757693 109.664722 4.519166
v 8.111944 122.345136 28.979039
v 8.111944 120.534003 28.979039
v -6.382796 122.345136 28.979039
v -6.382796 119.627816 28.979039
v 2.676416 112.384525 6.331629
v 1.769785 109.664722 6.331629
v -4.568116 118.722870 19.009294
v 7.205313 119.627816 28.979039
v 5.393470 119.627816 20.824152
v -2.757693 111.478337 5.426594
v -6.382796 122.345136 28.071611
v -2.757693 109.664722 6.331629
v 8.111944 122.345136 28.071611
v -6.382796 118.722870 25.354113
v 2.676416 110.572150 6.331629
v 1.769785 110.572150 4.519166
v -6.382796 120.534003 25.354113
v -1.851062 112.384525 6.331629
v -0.039219 121.440190 25.354113
v 2.676416 110.572150 8.144092
v -1.851062 119.627816 20.824152
v 7.205313 121.440190 25.354113
v -4.568116 117.816683 17.201620
v 1.769785 109.664722 4.519166
v 8.111944 120.534003 28.071611
v 7.205313 118.722870 26.256753
v -2.757693 110.572150 4.519166
v -6.382796 118.722870 26.256753
v -3.662904 115.101845 11.766624
v -6.382796 121.440190 26.256753
v -2.757693 113.289471 8.144092
f 1382 1401 1403 
f 1374 1373 1375 
f 1374 1375 1376 
f 1374 1376 1380 
f 1377 1379 1381 
f 1375 1373 1383 
f 1376 1375 1383 
f 1372 1378 1384 
f 1380 1376 1384 
f 1378 1380 1384 
f 1373 1374 1385 
f 1383 1373 1385 
f 1376 1383 1386 
f 1372 1384 1386 
f 1377 1385 1387 
f 1377 1387 1388 
f 1372 1386 1389 
f 1386 1383 1389 
f 1377 1388 1390 
f 1380 1378 1392 
f 1378 1387 1392 
f 1381 1379 1393 
f 1379 1383 1393 
f 1391 1381 1393 
f 1383 1391 1393 
f 1377 1381 1394 
f 1385 1377 1394 
f 1383 1385 1394 
f 1381 1391 1394 
f 1391 1383 1394 
f 1378 1372 1396 
f 1387 1378 1396 
f 1372 1388 1396 
f 1388 1387 1396 
f 1385 1374 1397 
f 1387 1385 1397 
f 1387 1397 1398 
f 1374 1380 1398 
f 1380 1392 1398 
f 1392 1387 1398 
f 1397 1374 1398 
f 1388 1372 1399 
f 1372 1389 1399 
f 1382 1390 1399 
f 1390 1388 1399 
f 1384 1376 1400 
f 1376 1386 1400 
f 1386 1384 1400 
f 1379 1377 1401 
f 1377 1390 1401 
f 1395 1379 1401 
f 1383 1379 1402 
f 1389 1383 1402 
f 1379 1395 1402 
f 1399 1389 1402 
f 1382 1399 1402 
f 1401 1382 1402 
f 1395 1401 1402 
f 1390 1382 1403 
f 1401 1390 1403 
o convex_46
v 7.205313 108.761461 39.849030
v -6.382796 116.003422 32.603700
v -6.382796 116.003422 34.416695
v 8.111944 122.347619 28.979039
v 2.676416 99.704022 40.754863
v -4.568116 111.474702 40.754863
v -6.382796 119.627727 28.979039
v 8.111944 119.627727 28.979039
v -6.382796 122.347619 29.886202
v 8.111944 116.910052 35.321198
v 0.864574 100.608435 42.567858
v 6.300101 109.668091 40.754863
v -3.662904 106.950416 38.943198
v -0.039219 101.515066 39.849030
v 8.111944 115.096791 32.603700
v 2.676416 102.419480 42.567858
v -5.476166 110.572505 39.849030
v 8.111944 122.347619 29.886202
v 7.205313 111.474702 39.849030
v 7.205313 108.761461 38.036035
v -6.382796 122.347619 28.979039
v -5.476166 110.572505 37.130202
v 2.676416 100.608435 42.567858
v -6.382796 117.814466 34.416695
v -2.757693 111.474702 40.754863
v -1.851062 104.232741 41.659365
v 3.581628 101.515066 39.849030
v 0.864574 112.379116 39.849030
v 4.488259 103.326110 41.659365
v -5.476166 112.379116 39.849030
v 1.769785 99.704022 40.754863
v -4.568116 108.761461 40.754863
f 1416 1429 1435 
f 1405 1406 1410 
f 1408 1410 1411 
f 1410 1407 1411 
f 1410 1406 1412 
f 1411 1407 1413 
f 1405 1410 1417 
f 1413 1404 1418 
f 1411 1413 1418 
f 1409 1414 1419 
f 1406 1405 1420 
f 1407 1412 1421 
f 1413 1407 1421 
f 1404 1413 1422 
f 1415 1404 1422 
f 1418 1404 1423 
f 1407 1410 1424 
f 1412 1407 1424 
f 1410 1412 1424 
f 1417 1416 1425 
f 1405 1417 1425 
f 1420 1405 1425 
f 1416 1420 1425 
f 1414 1408 1426 
f 1419 1414 1426 
f 1415 1419 1426 
f 1412 1406 1427 
f 1409 1412 1427 
f 1406 1420 1427 
f 1412 1409 1428 
f 1409 1419 1428 
f 1419 1415 1428 
f 1421 1412 1428 
f 1413 1421 1428 
f 1415 1422 1428 
f 1417 1414 1429 
f 1416 1417 1429 
f 1408 1411 1430 
f 1411 1418 1430 
f 1423 1408 1430 
f 1418 1423 1430 
f 1422 1413 1431 
f 1413 1428 1431 
f 1428 1422 1431 
f 1404 1415 1432 
f 1423 1404 1432 
f 1408 1423 1432 
f 1426 1408 1432 
f 1415 1426 1432 
f 1420 1409 1433 
f 1409 1427 1433 
f 1427 1420 1433 
f 1410 1408 1434 
f 1408 1414 1434 
f 1414 1417 1434 
f 1417 1410 1434 
f 1414 1409 1435 
f 1409 1420 1435 
f 1420 1416 1435 
f 1429 1414 1435 
o convex_47
v -11.818590 140.461825 -34.432167
v -25.407143 135.937443 -31.717862
v -25.407143 135.937443 -29.906640
v -15.440590 150.429936 -24.469605
v -8.196590 144.088140 -19.940708
v -20.874521 128.691196 -33.529083
v -19.969487 145.899170 -19.940708
v -7.289693 148.618907 -29.000186
v -15.444314 138.655051 -37.153212
v -6.382796 147.710200 -19.940708
v -25.407143 138.655051 -30.811408
v -19.969487 148.616778 -19.940708
v -22.686452 128.691196 -36.246758
v -13.634245 136.846150 -36.246758
v -6.382796 145.899170 -24.469605
v -22.686452 128.691196 -33.529083
v -10.010383 150.429936 -24.469605
v -17.250659 132.317512 -36.246758
v -19.064452 138.655051 -35.340305
v -11.820452 150.429936 -26.280827
v -19.969487 148.616778 -21.753615
v -21.779556 132.317512 -36.246758
v -23.595211 140.466081 -25.377743
v -14.539280 150.429936 -22.660068
v -6.382796 145.899170 -19.940708
v -20.874521 142.277111 -22.660068
v -7.289693 146.805749 -29.000186
v -10.010383 144.088140 -19.940708
v -24.500246 138.655051 -31.717862
v -24.500246 136.846150 -28.095418
v -20.874521 147.710200 -20.848846
v -17.250659 134.128541 -37.153212
f 1457 1444 1467 
f 1443 1436 1444 
f 1442 1440 1445 
f 1437 1438 1446 
f 1442 1445 1447 
f 1438 1437 1448 
f 1444 1436 1449 
f 1443 1445 1450 
f 1441 1440 1451 
f 1438 1448 1451 
f 1448 1441 1451 
f 1445 1443 1452 
f 1441 1448 1453 
f 1449 1450 1453 
f 1439 1444 1454 
f 1444 1439 1455 
f 1443 1444 1455 
f 1439 1452 1455 
f 1452 1443 1455 
f 1439 1446 1456 
f 1447 1439 1456 
f 1448 1437 1457 
f 1454 1444 1457 
f 1446 1438 1458 
f 1439 1447 1459 
f 1447 1445 1459 
f 1452 1439 1459 
f 1445 1452 1459 
f 1440 1441 1460 
f 1445 1440 1460 
f 1450 1445 1460 
f 1441 1453 1460 
f 1453 1450 1460 
f 1436 1443 1462 
f 1449 1436 1462 
f 1443 1450 1462 
f 1450 1449 1462 
f 1440 1442 1463 
f 1451 1440 1463 
f 1442 1461 1463 
f 1461 1451 1463 
f 1437 1446 1464 
f 1446 1439 1464 
f 1439 1454 1464 
f 1457 1437 1464 
f 1454 1457 1464 
f 1438 1451 1465 
f 1458 1438 1465 
f 1442 1458 1465 
f 1461 1442 1465 
f 1451 1461 1465 
f 1442 1447 1466 
f 1456 1446 1466 
f 1447 1456 1466 
f 1446 1458 1466 
f 1458 1442 1466 
f 1444 1449 1467 
f 1453 1448 1467 
f 1449 1453 1467 
f 1448 1457 1467 
o convex_48
v 5.394180 171.267366 -9.070628
v -7.288718 171.267366 -19.034787
v -2.758402 167.643681 -7.258963
v 7.206022 171.267366 -19.034787
v -7.288718 174.891051 -16.314629
v 7.206022 174.891051 -19.034787
v -2.758402 169.455524 -5.445968
v 4.487549 167.643681 -6.353131
v -6.382087 174.891051 -19.034787
v 4.487549 174.891051 -16.314629
v -3.663614 168.550312 -6.353131
v 3.580919 169.455524 -5.445968
v 7.206022 173.984421 -15.410126
v -2.758402 167.643681 -5.445968
v -7.288718 172.172578 -16.314629
v 4.487549 167.643681 -7.258963
v 7.206022 172.172578 -15.410126
v -5.475456 172.172578 -10.883624
v 3.580919 167.643681 -5.445968
v -7.288718 173.984421 -19.034787
v 7.206022 174.891051 -17.221791
v 6.299392 173.984421 -14.502964
v -5.475456 170.361445 -10.883624
v -7.288718 171.267366 -18.127624
v 4.487549 169.455524 -6.353131
v 7.206022 171.267366 -18.127624
v -3.663614 169.455524 -6.353131
v 5.394180 169.455524 -9.070628
v -7.288718 174.891051 -18.127624
v 6.299392 170.361445 -12.692629
v 6.299392 173.079209 -12.692629
v -6.382087 171.267366 -13.597131
f 1491 1490 1499 
f 1470 1469 1471 
f 1471 1469 1473 
f 1473 1469 1476 
f 1472 1473 1476 
f 1473 1472 1477 
f 1472 1474 1477 
f 1477 1474 1479 
f 1471 1473 1480 
f 1469 1470 1481 
f 1470 1475 1481 
f 1474 1478 1481 
f 1479 1474 1481 
f 1472 1469 1482 
f 1470 1471 1483 
f 1475 1470 1483 
f 1471 1475 1483 
f 1471 1480 1484 
f 1480 1468 1484 
f 1474 1472 1485 
f 1475 1479 1486 
f 1481 1475 1486 
f 1479 1481 1486 
f 1469 1472 1487 
f 1476 1469 1487 
f 1473 1477 1488 
f 1480 1473 1488 
f 1488 1477 1489 
f 1478 1485 1490 
f 1469 1481 1491 
f 1481 1478 1491 
f 1482 1469 1491 
f 1478 1490 1491 
f 1475 1468 1492 
f 1468 1479 1492 
f 1479 1475 1492 
f 1475 1471 1493 
f 1471 1484 1493 
f 1478 1474 1494 
f 1474 1485 1494 
f 1485 1478 1494 
f 1468 1475 1495 
f 1475 1484 1495 
f 1484 1468 1495 
f 1472 1476 1496 
f 1487 1472 1496 
f 1476 1487 1496 
f 1484 1475 1497 
f 1475 1493 1497 
f 1493 1484 1497 
f 1479 1468 1498 
f 1477 1479 1498 
f 1468 1480 1498 
f 1480 1488 1498 
f 1488 1489 1498 
f 1489 1477 1498 
f 1472 1482 1499 
f 1485 1472 1499 
f 1490 1485 1499 
f 1482 1491 1499 
o convex_49
v -3.665742 143.183010 -15.411102
v -2.759111 139.562280 -1.822283
v -3.665742 139.562280 -1.822283
v -13.629102 147.712380 -13.596776
v -18.157467 145.901483 -19.940708
v -5.479003 147.712380 -19.940708
v -3.665742 137.749256 -3.636608
v -19.065694 148.618892 -19.032658
v -6.385634 144.996035 -19.940708
v -2.759111 144.088458 -11.785998
v -18.157467 145.901483 -18.128156
v -2.759111 139.562280 -8.166215
v -10.912403 147.712380 -14.503052
v -3.665742 137.749256 -1.822283
v -5.479003 147.712380 -18.128156
v -3.665742 141.373177 -4.541111
v -9.102334 144.996035 -19.940708
v -17.252433 148.618892 -19.940708
v -2.759111 137.749256 -3.636608
v -2.759111 142.279689 -12.692274
v -3.665742 139.562280 -8.166215
v -10.005772 145.899355 -10.881496
v -17.252433 148.618892 -19.032658
v -5.479003 145.901483 -19.940708
v -19.065694 146.806931 -19.032658
v -19.065694 148.618892 -19.940708
v -2.759111 144.088458 -12.692274
v -4.572373 139.562280 -2.730333
v -2.759111 142.279689 -7.259939
v -2.759111 137.749256 -1.822283
v -2.759111 141.373177 -11.785998
v -12.722472 147.712380 -13.596776
f 1512 1522 1531 
f 1502 1503 1507 
f 1504 1505 1508 
f 1504 1506 1510 
f 1509 1501 1511 
f 1501 1502 1513 
f 1510 1506 1513 
f 1509 1505 1514 
f 1504 1508 1516 
f 1505 1504 1517 
f 1514 1505 1517 
f 1511 1501 1518 
f 1506 1511 1518 
f 1513 1506 1518 
f 1509 1511 1519 
f 1506 1504 1520 
f 1511 1506 1520 
f 1508 1511 1520 
f 1504 1516 1520 
f 1516 1508 1520 
f 1502 1501 1521 
f 1503 1502 1521 
f 1515 1512 1521 
f 1501 1515 1521 
f 1507 1503 1522 
f 1512 1514 1522 
f 1517 1507 1522 
f 1514 1517 1522 
f 1505 1500 1523 
f 1500 1508 1523 
f 1508 1505 1523 
f 1504 1510 1524 
f 1510 1513 1524 
f 1517 1504 1525 
f 1507 1517 1525 
f 1504 1524 1525 
f 1524 1507 1525 
f 1500 1505 1526 
f 1505 1509 1526 
f 1519 1500 1526 
f 1509 1519 1526 
f 1502 1507 1527 
f 1513 1502 1527 
f 1507 1524 1527 
f 1524 1513 1527 
f 1501 1509 1528 
f 1509 1514 1528 
f 1514 1512 1528 
f 1512 1515 1528 
f 1515 1501 1528 
f 1501 1513 1529 
f 1518 1501 1529 
f 1513 1518 1529 
f 1508 1500 1530 
f 1511 1508 1530 
f 1500 1519 1530 
f 1519 1511 1530 
f 1503 1521 1531 
f 1521 1512 1531 
f 1522 1503 1531 
o convex_50
v 7.204604 163.116646 29.882478
v -7.288718 166.734302 23.544310
v -7.288718 166.734302 24.451473
v 0.864574 153.148941 29.882478
v 8.111234 171.264884 18.107984
v -6.382087 164.923346 29.882478
v -7.288718 174.888923 18.107984
v 8.111234 172.169297 21.732645
v -7.288718 172.169297 18.107984
v 9.017865 163.116646 26.260478
v 3.581273 154.964153 31.696803
v 1.769608 174.888923 19.015147
v 9.017865 164.923346 28.977975
v -6.382087 162.210105 29.882478
v 8.111234 173.982381 18.107984
v 3.581273 154.964153 28.977975
v -0.947092 157.681651 31.696803
v -0.947092 171.264884 18.107984
v -7.288718 174.888923 19.015147
v -4.570422 159.492607 28.072143
v 0.864574 153.148941 31.696803
v 3.581273 157.681651 31.696803
v -0.947092 154.964153 28.977975
v 9.017865 163.116646 28.977975
v -4.570422 164.923346 29.882478
v -6.382087 162.210105 27.164980
v -7.288718 169.451800 24.451473
v 1.769608 153.148941 29.882478
v 8.111234 173.982381 19.015147
v 3.581273 164.018932 29.882478
v -4.570422 160.399149 30.789640
v -4.570422 159.492607 29.882478
f 1554 1552 1563 
f 1533 1534 1538 
f 1533 1538 1540 
f 1538 1536 1540 
f 1534 1533 1545 
f 1536 1538 1546 
f 1541 1536 1546 
f 1538 1543 1546 
f 1544 1541 1546 
f 1536 1541 1547 
f 1541 1542 1547 
f 1535 1540 1549 
f 1540 1536 1549 
f 1538 1534 1550 
f 1543 1538 1550 
f 1537 1543 1550 
f 1542 1548 1552 
f 1544 1532 1553 
f 1542 1544 1553 
f 1537 1548 1553 
f 1548 1542 1553 
f 1533 1540 1554 
f 1540 1535 1554 
f 1535 1552 1554 
f 1542 1541 1555 
f 1541 1544 1555 
f 1544 1542 1555 
f 1543 1537 1556 
f 1539 1543 1556 
f 1544 1539 1556 
f 1537 1553 1556 
f 1545 1533 1557 
f 1551 1545 1557 
f 1533 1554 1557 
f 1554 1551 1557 
f 1534 1545 1558 
f 1545 1537 1558 
f 1550 1534 1558 
f 1537 1550 1558 
f 1536 1547 1559 
f 1547 1542 1559 
f 1535 1549 1559 
f 1549 1536 1559 
f 1552 1535 1559 
f 1542 1552 1559 
f 1543 1539 1560 
f 1539 1544 1560 
f 1546 1543 1560 
f 1544 1546 1560 
f 1532 1544 1561 
f 1553 1532 1561 
f 1544 1556 1561 
f 1556 1553 1561 
f 1537 1545 1562 
f 1548 1537 1562 
f 1545 1552 1562 
f 1552 1548 1562 
f 1545 1551 1563 
f 1552 1545 1563 
f 1551 1554 1563 
