o convex_0
v -1.653957 48.981170 -5.441906
v 1.014535 49.870406 2.565138
v 1.904381 65.888673 1.674770
v 2.794226 48.981170 -5.441906
v 1.904381 24.971794 2.565138
v -2.543803 45.432236 2.565138
v -2.543803 24.971794 -1.882784
v -1.653957 65.888673 -1.882784
v 1.904381 24.971794 -1.882784
v -2.543803 24.971794 2.565138
v -1.653957 65.888673 1.674770
v 1.904381 65.888673 -1.882784
v -2.543803 48.981170 -1.882784
v 2.794226 49.870406 -2.772368
v 2.794226 50.759642 -5.441906
v -1.653957 50.759642 -5.441906
v 1.904381 45.432236 2.565138
v -2.543803 48.981170 1.674770
v -1.653957 49.870406 2.565138
v 2.794226 48.981170 -2.772368
v 2.794226 50.759642 -3.661953
f 14 15 21 
f 5 2 6 
f 1 4 7 
f 4 5 9 
f 5 7 9 
f 7 4 9 
f 5 6 10 
f 7 5 10 
f 6 7 10 
f 2 3 11 
f 3 8 11 
f 8 3 12 
f 7 6 13 
f 1 7 13 
f 11 8 13 
f 4 1 15 
f 12 3 15 
f 14 4 15 
f 8 12 16 
f 1 13 16 
f 13 8 16 
f 15 1 16 
f 12 15 16 
f 3 2 17 
f 2 5 17 
f 5 14 17 
f 14 3 17 
f 6 11 18 
f 13 6 18 
f 11 13 18 
f 6 2 19 
f 2 11 19 
f 11 6 19 
f 5 4 20 
f 4 14 20 
f 14 5 20 
f 3 14 21 
f 15 3 21 
o convex_1
v 4.573570 58.774697 19.468897
v -1.653957 48.098639 2.565138
v 1.014361 48.098639 2.565138
v 0.125212 56.104637 19.468897
v -4.323146 57.884329 16.798315
v 1.904381 50.768698 3.456987
v -4.323146 56.104637 19.468897
v 4.573570 56.104637 18.578703
v -2.543106 50.768698 3.456987
v 1.904381 48.989007 5.237375
v 3.683550 55.215314 11.458806
v -3.433126 58.774697 19.468897
v -2.543106 48.989007 5.237375
v 4.573570 58.774697 18.578703
v -4.323146 55.215314 15.019582
v 1.904381 48.989007 2.565138
v 2.793530 50.768698 8.793187
v 4.573570 56.104637 16.798315
v -4.323146 56.995006 15.019582
v -1.653957 49.878330 2.565138
v -2.543106 48.989007 3.456987
v 4.573570 56.995006 19.468897
v -3.433126 58.774697 18.578703
v 2.793530 53.436668 14.127733
v 0.125212 55.215314 11.458806
v 1.014361 48.098639 3.456987
v -3.433126 51.658022 10.575230
v 3.683550 53.436668 11.458806
v 1.904381 49.878330 2.565138
v -4.323146 57.884329 19.468897
v 4.573570 57.884329 16.798315
v -1.653957 48.098639 3.456987
f 47 28 53 
f 25 22 28 
f 28 22 33 
f 22 29 35 
f 33 22 35 
f 28 26 36 
f 24 23 37 
f 31 24 37 
f 31 37 38 
f 35 29 39 
f 29 38 39 
f 36 26 40 
f 30 36 40 
f 23 30 41 
f 30 27 41 
f 37 23 41 
f 30 23 42 
f 23 34 42 
f 36 30 42 
f 22 25 43 
f 25 29 43 
f 29 22 43 
f 26 33 44 
f 35 32 44 
f 33 35 44 
f 40 26 44 
f 29 25 45 
f 25 31 45 
f 38 29 45 
f 31 38 45 
f 27 30 46 
f 32 27 46 
f 30 40 46 
f 44 32 46 
f 40 44 46 
f 23 24 47 
f 25 28 47 
f 24 31 47 
f 31 25 47 
f 34 28 48 
f 28 36 48 
f 42 34 48 
f 36 42 48 
f 37 32 49 
f 38 37 49 
f 39 38 49 
f 27 32 50 
f 32 37 50 
f 41 27 50 
f 37 41 50 
f 26 28 51 
f 33 26 51 
f 28 33 51 
f 32 35 52 
f 35 39 52 
f 49 32 52 
f 39 49 52 
f 28 34 53 
f 34 23 53 
f 23 47 53 
o convex_2
v -6.102402 60.552908 26.586618
v 8.132256 59.663411 39.929601
v 7.242497 58.775655 44.379701
v 4.570260 56.995789 19.468897
v -5.212643 56.995789 44.379701
v 8.132256 61.443712 31.036718
v -6.102402 61.443712 35.484379
v -5.212643 56.995789 21.251376
v 7.242497 56.995789 44.379701
v 4.570260 58.775655 19.468897
v -5.212643 59.663411 43.489681
v -4.322885 58.775655 19.468897
v -6.992160 59.663411 35.484379
v 8.132256 58.775655 32.811881
v 7.242497 61.443712 33.701900
v -6.992160 61.443712 31.036718
v 5.462980 56.995789 20.358917
v 1.900984 59.663411 22.141396
v 8.132256 57.886158 37.261980
v -6.102402 61.443712 30.144259
v -4.322885 56.995789 19.468897
v -2.543367 59.663411 43.489681
v -6.102402 57.886158 41.707203
v -6.102402 60.552908 39.929601
v -5.212643 58.775655 44.379701
v 6.352738 59.663411 41.707203
v -0.760889 61.443712 35.484379
v -6.992160 59.663411 31.924299
v 5.462980 58.775655 20.358917
v 0.125909 61.443712 30.144259
v -6.992160 61.443712 34.594359
v 8.132256 59.663411 31.036718
f 67 70 85 
f 57 58 61 
f 55 56 62 
f 58 57 62 
f 56 58 62 
f 61 54 65 
f 63 57 65 
f 59 55 67 
f 56 55 68 
f 55 59 68 
f 59 60 68 
f 60 59 69 
f 54 61 69 
f 62 57 70 
f 57 63 70 
f 59 63 71 
f 65 54 71 
f 63 65 71 
f 55 62 72 
f 67 55 72 
f 62 70 72 
f 70 67 72 
f 54 69 73 
f 69 59 73 
f 71 54 73 
f 57 61 74 
f 61 65 74 
f 65 57 74 
f 64 56 75 
f 61 58 76 
f 64 75 77 
f 58 56 78 
f 56 64 78 
f 76 58 78 
f 77 76 78 
f 64 77 78 
f 56 68 79 
f 75 56 79 
f 75 79 80 
f 68 60 80 
f 60 77 80 
f 77 75 80 
f 79 68 80 
f 69 61 81 
f 66 69 81 
f 61 76 81 
f 76 66 81 
f 63 59 82 
f 59 70 82 
f 70 63 82 
f 59 71 83 
f 73 59 83 
f 71 73 83 
f 60 69 84 
f 69 66 84 
f 66 76 84 
f 76 77 84 
f 77 60 84 
f 59 67 85 
f 70 59 85 
o convex_3
v 15.250325 148.630826 20.358221
v 22.367000 144.184297 24.806927
v 22.367000 141.514847 24.806927
v 14.360305 145.962073 14.130868
v 13.470285 145.962073 24.806927
v 20.586961 148.630826 19.468897
v 13.470285 148.630826 24.806927
v 13.470285 147.741241 14.130868
v 22.367000 142.405128 23.027235
v 13.470285 145.962073 14.130868
v 20.586961 148.630826 21.246499
v 21.476980 141.514847 23.916558
v 14.360305 145.073185 24.806927
v 18.807792 145.962073 17.691296
v 15.250325 148.630826 24.806927
v 20.586961 145.962073 24.806927
v 22.367000 145.073185 23.027235
v 14.360305 147.741241 14.130868
v 19.696941 148.630826 18.579574
v 20.586961 146.851657 19.468897
v 22.367000 141.514847 23.916558
v 21.476980 146.851657 23.027235
v 13.470285 148.630826 22.136867
v 21.476980 141.514847 24.806927
v 17.918643 148.630826 18.579574
v 14.360305 145.073185 23.916558
v 21.476980 144.184297 21.246499
v 18.807792 147.741241 17.691296
v 22.367000 145.073185 23.916558
v 21.476980 146.851657 21.246499
v 17.029494 147.741241 24.806927
v 19.696941 146.851657 18.579574
f 104 105 117 
f 88 87 90 
f 90 87 92 
f 91 86 92 
f 90 92 93 
f 87 88 94 
f 93 89 95 
f 90 93 95 
f 91 92 96 
f 95 89 97 
f 88 90 98 
f 90 95 98 
f 94 89 99 
f 92 87 100 
f 96 92 100 
f 100 87 101 
f 87 94 102 
f 91 96 102 
f 89 93 103 
f 99 89 103 
f 86 91 104 
f 103 93 104 
f 104 91 105 
f 94 88 106 
f 89 94 106 
f 88 97 106 
f 97 89 106 
f 96 100 107 
f 101 87 107 
f 92 86 108 
f 86 93 108 
f 93 92 108 
f 97 88 109 
f 98 97 109 
f 88 98 109 
f 93 86 110 
f 86 104 110 
f 104 93 110 
f 95 97 111 
f 98 95 111 
f 97 98 111 
f 94 99 112 
f 102 94 112 
f 105 91 112 
f 99 105 112 
f 99 103 113 
f 104 99 113 
f 103 104 113 
f 87 102 114 
f 102 96 114 
f 96 107 114 
f 107 87 114 
f 91 102 115 
f 102 112 115 
f 112 91 115 
f 100 101 116 
f 107 100 116 
f 101 107 116 
f 99 104 117 
f 105 99 117 
o convex_4
v 7.242584 56.993874 48.829452
v -5.212817 56.993874 44.379701
v 1.014883 48.988310 53.276068
v 7.242584 56.103941 44.379701
v -4.322797 57.884764 48.829452
v 2.792485 51.659067 55.055759
v 7.242584 58.774697 44.379701
v 2.792485 48.988310 55.055759
v -5.212817 58.774697 44.379701
v -1.653957 52.548041 52.385699
v -5.212817 56.103941 47.939083
v -0.762718 58.774697 47.049760
v 1.014883 57.884764 48.829452
v 6.352564 53.437974 48.829452
v 1.014883 51.659067 55.055759
v 2.792485 48.988310 53.276068
v 3.683724 56.103941 44.379701
v 7.242584 57.884764 47.939083
v -5.212817 58.774697 47.049760
v 7.242584 55.214966 48.829452
v 1.014883 49.878243 55.055759
v 3.683724 52.548041 54.165391
v -5.212817 56.103941 46.159392
v -2.541539 55.214966 51.496376
v 1.014883 48.988310 54.165391
v 7.242584 58.774697 45.270069
v 5.461325 52.548041 51.496376
v 3.683724 49.878243 52.385699
v 7.242584 55.214966 46.159392
v -5.212817 57.884764 47.939083
v 6.352564 53.437974 49.717730
v 2.792485 55.214966 51.496376
f 139 135 149 
f 121 119 124 
f 118 121 124 
f 124 119 126 
f 126 119 128 
f 124 126 129 
f 122 123 130 
f 129 122 130 
f 123 122 132 
f 125 123 132 
f 120 121 133 
f 125 120 133 
f 120 119 134 
f 121 120 134 
f 119 121 134 
f 118 124 135 
f 129 130 135 
f 126 128 136 
f 122 129 136 
f 129 126 136 
f 121 118 137 
f 125 132 138 
f 132 127 138 
f 123 125 139 
f 130 123 139 
f 118 135 139 
f 137 118 139 
f 119 120 140 
f 120 128 140 
f 128 119 140 
f 128 127 141 
f 132 122 141 
f 127 132 141 
f 120 125 142 
f 128 120 142 
f 127 128 142 
f 125 138 142 
f 138 127 142 
f 124 129 143 
f 135 124 143 
f 129 135 143 
f 139 125 144 
f 137 139 144 
f 133 121 145 
f 125 133 145 
f 121 137 146 
f 137 131 146 
f 145 121 146 
f 131 145 146 
f 136 128 147 
f 122 136 147 
f 141 122 147 
f 128 141 147 
f 131 137 148 
f 144 125 148 
f 137 144 148 
f 145 131 148 
f 125 145 148 
f 135 130 149 
f 130 139 149 
o convex_5
v 6.352564 112.155709 2.565138
v 26.811700 119.269732 -6.331577
v 26.811700 121.049870 -6.331577
v 29.481760 120.160454 7.903167
v 4.576008 108.596739 -1.881129
v 26.811700 121.939286 7.903167
v 18.809359 118.380316 -4.550841
v 28.590869 119.269732 -6.331577
v 4.576008 108.596739 1.674770
v 4.576008 111.264987 -2.772891
v 29.481760 121.939286 -6.331577
v 17.918468 118.380316 4.344481
v 25.032532 121.049870 -5.438422
v 2.796839 108.596739 1.674770
v 28.590869 119.269732 -0.103180
v 25.923422 119.269732 7.903167
v 29.481760 121.939286 7.903167
v 4.576008 109.487461 -2.772891
v 2.796839 110.376877 1.674770
v 17.918468 118.380316 1.674770
v 27.702591 121.939286 -6.331577
v 2.796839 108.596739 -1.881129
v 27.702591 119.269732 7.903167
v 29.481760 120.160454 -6.331577
v 26.811700 121.939286 1.674770
v 2.796839 110.376877 -0.992155
v 16.139300 117.490900 4.344481
v 6.352564 109.487461 -2.772891
v 25.923422 121.049870 7.903167
v 20.585916 119.269732 -4.550841
v 22.365084 120.160454 0.785795
v 2.796839 109.487461 -1.881129
f 171 175 181 
f 151 152 157 
f 154 157 158 
f 152 151 159 
f 157 152 160 
f 154 158 163 
f 158 157 164 
f 153 155 165 
f 163 158 165 
f 155 153 166 
f 160 155 166 
f 153 160 166 
f 151 157 167 
f 159 151 167 
f 163 165 168 
f 156 159 169 
f 152 159 170 
f 159 156 170 
f 160 152 170 
f 155 160 170 
f 154 163 171 
f 167 154 171 
f 159 167 171 
f 163 168 171 
f 164 153 172 
f 158 164 172 
f 153 165 172 
f 165 158 172 
f 160 153 173 
f 157 160 173 
f 153 164 173 
f 164 157 173 
f 155 170 174 
f 170 162 174 
f 169 159 175 
f 171 168 175 
f 150 155 176 
f 155 161 176 
f 168 150 176 
f 161 169 176 
f 169 175 176 
f 175 168 176 
f 157 154 177 
f 167 157 177 
f 154 167 177 
f 155 150 178 
f 165 155 178 
f 150 168 178 
f 168 165 178 
f 156 169 179 
f 170 156 179 
f 162 170 179 
f 161 155 180 
f 169 161 180 
f 155 174 180 
f 174 162 180 
f 179 169 180 
f 162 179 180 
f 159 171 181 
f 175 159 181 
o convex_6
v 41.047664 107.708547 7.011406
v 30.375263 121.939199 7.903167
v 29.484373 121.939199 7.903167
v 30.375263 121.939199 -6.331577
v 40.159386 100.592133 1.674770
v 41.047664 111.263489 -4.550841
v 29.484373 119.270272 -6.331577
v 30.375263 117.489535 7.903167
v 40.159386 111.263489 7.903167
v 41.938555 99.699588 3.454113
v 38.380217 109.489284 -4.550841
v 42.829446 100.592133 1.674770
v 38.380217 108.598916 7.903167
v 40.159386 100.592133 3.454113
v 40.159386 112.151680 3.454113
v 42.829446 101.482501 3.454113
v 41.047664 109.489284 -4.550841
v 40.159386 102.370692 -0.103180
v 29.484373 119.270272 7.903167
v 29.484373 121.939199 -6.331577
v 41.047664 110.377475 1.674770
v 32.154432 118.379904 -6.331577
v 34.824492 117.489535 7.903167
v 41.938555 99.699588 1.674770
v 40.159386 101.482501 4.344481
v 41.047664 108.598916 7.011406
v 37.489326 114.820608 -5.439816
v 30.375263 118.379904 -6.331577
v 36.601048 113.042049 -5.439816
v 40.159386 107.708547 -3.660472
v 41.047664 111.263489 -1.882523
v 39.268495 108.598916 7.903167
f 194 191 213 
f 184 183 185 
f 183 184 189 
f 188 186 189 
f 183 189 190 
f 190 189 194 
f 189 186 195 
f 186 191 195 
f 182 191 197 
f 193 187 197 
f 191 193 197 
f 187 193 198 
f 186 188 199 
f 184 188 200 
f 189 184 200 
f 188 189 200 
f 184 185 201 
f 188 184 201 
f 185 188 201 
f 188 185 203 
f 185 183 204 
f 187 185 204 
f 183 190 204 
f 190 196 204 
f 191 186 205 
f 193 191 205 
f 198 193 205 
f 186 199 205 
f 194 189 206 
f 191 194 206 
f 195 191 206 
f 189 195 206 
f 190 182 207 
f 182 197 207 
f 202 190 207 
f 197 202 207 
f 185 187 208 
f 187 198 208 
f 203 185 208 
f 199 188 209 
f 192 199 209 
f 188 203 209 
f 209 203 210 
f 198 192 210 
f 208 198 210 
f 203 208 210 
f 192 209 210 
f 192 198 211 
f 199 192 211 
f 198 205 211 
f 205 199 211 
f 196 190 212 
f 197 187 212 
f 190 202 212 
f 202 197 212 
f 187 204 212 
f 204 196 212 
f 182 190 213 
f 191 182 213 
f 190 194 213 
o convex_7
v -31.902964 153.970248 -2.772717
v -17.668219 174.431997 7.013496
v -19.447562 174.431997 7.013496
v -17.668219 174.431997 -8.110224
v -29.231859 164.644217 -9.000592
v -30.123620 163.755939 6.123128
v -29.231859 153.970248 -0.993548
v -17.668219 171.762983 -8.110224
v -17.668219 172.651261 7.013496
v -27.452516 159.310368 -7.219855
v -27.452516 161.979382 6.123128
v -29.231859 165.532495 4.343959
v -19.447562 174.431997 -0.993548
v -29.231859 153.970248 -3.661517
v -17.668219 171.762983 2.564790
v -24.785591 169.091878 -9.000592
v -31.902964 154.860617 -0.104747
v -26.564934 162.867661 -9.000592
v -31.902964 156.639263 -2.772717
v -29.231859 162.867661 -9.000592
v -22.118667 167.311141 -9.000592
v -18.559981 174.431997 -8.110224
v -30.123620 163.755939 1.674422
v -31.902964 154.860617 -3.661517
v -21.226905 170.872614 7.013496
v -30.123620 162.867661 6.123128
v -29.231859 165.532495 6.123128
v -31.011202 153.079880 -1.882349
v -30.123620 153.970248 -3.661517
v -31.902964 156.639263 -0.104747
v -27.452516 161.089014 5.232759
v -30.123620 156.639263 1.674422
f 230 241 245 
f 216 215 217 
f 217 215 221 
f 215 216 222 
f 221 215 222 
f 216 217 226 
f 225 216 226 
f 221 220 227 
f 223 221 227 
f 220 221 228 
f 222 220 228 
f 221 222 228 
f 218 225 229 
f 225 226 229 
f 218 229 231 
f 214 230 232 
f 218 231 233 
f 231 223 233 
f 217 221 234 
f 221 223 234 
f 229 217 234 
f 223 231 234 
f 231 229 234 
f 226 217 235 
f 217 229 235 
f 229 226 235 
f 225 218 236 
f 219 225 236 
f 218 232 236 
f 232 219 236 
f 214 232 237 
f 232 218 237 
f 218 233 237 
f 216 219 238 
f 222 216 238 
f 224 222 238 
f 224 238 239 
f 219 230 239 
f 238 219 239 
f 219 216 240 
f 216 225 240 
f 225 219 240 
f 227 220 241 
f 230 214 241 
f 223 227 242 
f 233 223 242 
f 214 237 242 
f 237 233 242 
f 241 214 242 
f 227 241 242 
f 230 219 243 
f 219 232 243 
f 232 230 243 
f 220 222 244 
f 224 220 244 
f 222 224 244 
f 220 224 245 
f 224 239 245 
f 239 230 245 
f 241 220 245 
o convex_8
v -12.330190 169.984075 -5.441644
v -3.433474 168.204906 3.452981
v -4.323843 169.093707 3.452981
v -17.668219 172.652044 7.013496
v -14.998508 174.431997 -7.221162
v -4.323843 166.425737 -2.770888
v -15.887482 174.431997 6.123737
v -17.668219 172.652044 -8.110920
v -3.433474 168.204906 -2.770888
v -4.323843 166.425737 2.563222
v -14.998508 170.873659 5.233979
v -17.668219 174.431997 -8.110920
v -17.668219 174.431997 7.013496
v -11.439821 172.652044 5.233979
v -11.439821 172.652044 -6.331403
v -3.433474 166.425737 -2.770888
v -16.776457 171.762460 -0.992851
v -4.323843 169.093707 -2.770888
v -3.433474 167.315322 3.452981
v -16.776457 174.431997 7.013496
v -11.439821 170.873659 -6.331403
v -14.998508 174.431997 -0.104573
v -7.882529 168.204906 4.344220
v -16.776457 172.652044 7.013496
v -16.776457 172.652044 -8.110920
v -16.776457 171.762460 6.123737
v -6.992160 169.093707 -4.551886
v -16.776457 174.431997 -8.110920
v -3.433474 166.425737 2.563222
v -6.992160 168.204906 4.344220
v -6.992160 169.983291 -4.551886
v -14.998508 170.873659 4.344220
f 256 262 277 
f 251 246 253 
f 248 247 254 
f 251 255 256 
f 252 250 257 
f 253 249 257 
f 257 249 258 
f 252 257 258 
f 247 248 259 
f 251 253 261 
f 254 247 261 
f 255 251 261 
f 246 251 262 
f 253 246 262 
f 249 253 262 
f 250 248 263 
f 248 254 263 
f 260 250 263 
f 254 260 263 
f 261 247 264 
f 258 249 265 
f 252 258 265 
f 247 259 265 
f 259 252 265 
f 264 247 265 
f 248 250 267 
f 250 252 267 
f 259 248 267 
f 252 259 267 
f 265 249 269 
f 264 265 269 
f 249 268 269 
f 253 257 270 
f 261 253 270 
f 260 266 270 
f 266 261 270 
f 256 255 271 
f 249 262 271 
f 262 256 271 
f 255 268 271 
f 268 249 271 
f 254 261 272 
f 266 260 272 
f 261 266 272 
f 257 250 273 
f 250 260 273 
f 270 257 273 
f 260 270 273 
f 255 261 274 
f 261 264 274 
f 268 255 274 
f 268 274 275 
f 264 269 275 
f 269 268 275 
f 274 264 275 
f 260 254 276 
f 254 272 276 
f 272 260 276 
f 251 256 277 
f 262 251 277 
o convex_9
v -34.569501 13.403974 -25.012542
v -20.337234 29.414404 -7.226473
v -20.337234 30.304685 -10.781771
v -32.790468 25.857460 -12.563252
v -21.229101 29.414404 -22.342237
v -33.679201 8.956748 -22.344153
v -36.350102 20.515773 -18.786939
v -29.232401 30.304685 -10.781771
v -29.233968 21.406054 -26.794023
v -20.337234 27.635932 -21.451497
v -36.350102 17.849110 -16.120466
v -20.337234 27.635932 -7.226473
v -28.345235 18.739391 -26.794023
v -22.119402 30.304685 -21.451497
v -26.564634 28.524123 -8.113382
v -35.459802 8.956748 -24.121802
v -32.790468 20.515773 -24.121802
v -33.679201 8.956748 -24.121802
v -22.119402 27.635932 -7.226473
v -36.350102 21.406054 -15.231641
v -28.343668 30.304685 -9.004122
v -35.459802 12.515783 -19.673848
v -30.121134 26.745651 -9.894862
v -20.337234 30.304685 -21.451497
v -35.459802 22.296335 -17.009290
v -31.011434 17.849110 -26.794023
v -36.350102 12.515783 -21.453413
v -22.119402 25.857460 -23.232978
v -31.011434 19.627582 -26.794023
v -26.564634 30.304685 -8.113382
v -36.350102 15.182446 -21.453413
v -28.345235 21.406054 -26.794023
f 305 290 309 
f 280 279 287 
f 287 279 289 
f 283 287 289 
f 285 280 291 
f 282 286 291 
f 278 284 294 
f 291 286 294 
f 287 283 295 
f 283 293 295 
f 289 279 296 
f 283 289 296 
f 281 285 297 
f 284 288 297 
f 280 285 298 
f 285 281 298 
f 293 283 299 
f 283 296 299 
f 296 288 299 
f 288 296 300 
f 296 292 300 
f 281 297 300 
f 297 288 300 
f 292 298 300 
f 298 281 300 
f 280 287 301 
f 291 280 301 
f 282 291 301 
f 285 291 302 
f 294 284 302 
f 291 294 302 
f 297 285 302 
f 284 297 302 
f 286 290 303 
f 293 278 303 
f 290 295 303 
f 295 293 303 
f 288 284 304 
f 293 299 304 
f 299 288 304 
f 287 295 305 
f 295 290 305 
f 282 301 305 
f 301 287 305 
f 278 294 306 
f 294 286 306 
f 286 303 306 
f 303 278 306 
f 279 280 307 
f 296 279 307 
f 292 296 307 
f 298 292 307 
f 280 298 307 
f 284 278 308 
f 278 293 308 
f 304 284 308 
f 293 304 308 
f 286 282 309 
f 290 286 309 
f 282 305 309 
o convex_10
v 24.145560 89.023529 10.575143
v 37.491416 83.686458 22.136345
v 32.151471 84.575259 27.473155
v 17.028971 85.465279 7.015760
v 24.145560 89.023529 27.475419
v 27.706858 82.795829 29.250582
v 33.930118 89.023529 15.022107
v 17.028971 88.133510 19.464543
v 37.491416 82.795829 18.579226
v 17.028971 88.133510 7.015760
v 17.920297 89.023529 21.244235
v 17.028971 86.354079 17.689380
v 33.040795 89.023529 18.579226
v 31.262148 82.795829 30.144956
v 25.926209 89.023529 27.473155
v 33.930118 82.795829 19.469072
v 17.920297 85.465279 7.015760
v 17.920297 87.244099 21.244235
v 33.930118 87.244099 15.022107
v 26.817535 83.686458 29.250582
v 31.262148 83.686458 30.144956
v 27.706858 82.795829 27.473155
v 37.491416 84.575259 20.358917
v 28.594179 84.575259 30.144956
v 17.920297 88.133510 7.015760
v 37.491416 82.795829 22.136345
v 24.145560 86.354079 27.475419
v 17.920297 89.023529 18.579226
v 35.710767 84.575259 16.804063
v 37.491416 84.575259 18.579226
v 34.819441 88.132900 17.693909
v 26.817535 89.023529 26.585573
f 324 330 341 
f 310 314 316 
f 313 317 319 
f 319 317 320 
f 314 310 320 
f 313 315 321 
f 317 313 321 
f 312 311 322 
f 316 314 322 
f 315 318 323 
f 322 314 324 
f 318 315 325 
f 313 318 325 
f 318 313 326 
f 313 319 326 
f 320 317 327 
f 314 320 327 
f 321 315 327 
f 317 321 327 
f 316 318 328 
f 326 316 328 
f 327 315 329 
f 311 312 330 
f 323 311 330 
f 315 313 331 
f 313 325 331 
f 325 315 331 
f 311 318 332 
f 315 323 333 
f 324 314 333 
f 314 329 333 
f 329 315 333 
f 323 330 333 
f 330 324 333 
f 310 316 334 
f 319 310 334 
f 316 326 334 
f 326 319 334 
f 318 311 335 
f 311 323 335 
f 323 318 335 
f 314 327 336 
f 329 314 336 
f 327 329 336 
f 310 319 337 
f 319 320 337 
f 320 310 337 
f 318 326 338 
f 328 318 338 
f 326 328 338 
f 318 316 339 
f 332 318 339 
f 332 339 340 
f 322 311 340 
f 316 322 340 
f 311 332 340 
f 339 316 340 
f 312 322 341 
f 322 324 341 
f 330 312 341 
o convex_11
v -5.214704 19.629149 -0.997118
v -1.654131 21.409799 -2.774720
v -3.435332 21.410844 2.565138
v -20.336624 30.304685 -21.455993
v -20.336624 29.414361 -6.334625
v -13.217307 29.414361 -11.667429
v -20.336624 28.525081 -21.455993
v -20.336624 27.635801 -6.334625
v -1.654131 19.629149 -3.663520
v -16.777880 30.304685 -18.784889
v -16.777880 29.414361 -6.334625
v -4.325932 19.629149 2.565138
v -20.336624 27.635801 -12.560933
v -19.446024 30.304685 -11.669781
v -11.437935 28.522991 -12.556230
v -19.446024 28.525081 -21.455993
v -3.435332 19.629149 -3.663520
v -1.654131 21.409799 -3.663520
v -5.214704 24.078683 -5.443473
v -4.325932 21.410844 2.565138
v -3.435332 19.629149 2.565138
v -20.336624 30.304685 -11.669781
v -4.325932 19.629149 -2.774720
v -5.214704 19.629149 -0.105966
v -16.777880 30.304685 -16.116135
v -19.446024 30.304685 -21.455993
v -13.217307 29.414361 -14.338534
v -1.654131 19.629149 -2.774720
v -11.437935 28.522991 -11.667429
v -17.666651 30.304685 -14.336183
v -5.214704 24.078683 -6.332274
f 360 359 372 
f 346 345 348 
f 346 348 349 
f 346 344 352 
f 344 347 352 
f 346 349 353 
f 342 350 353 
f 348 342 354 
f 349 348 354 
f 342 349 354 
f 351 345 355 
f 352 347 355 
f 346 352 355 
f 348 345 357 
f 350 348 357 
f 350 342 358 
f 348 350 358 
f 343 350 359 
f 351 356 359 
f 350 357 359 
f 344 343 360 
f 347 344 360 
f 343 359 360 
f 344 346 361 
f 353 344 361 
f 346 353 361 
f 343 344 362 
f 344 353 362 
f 353 350 362 
f 345 346 363 
f 355 345 363 
f 346 355 363 
f 342 348 364 
f 358 342 364 
f 348 358 364 
f 349 342 365 
f 353 349 365 
f 342 353 365 
f 347 351 366 
f 351 355 366 
f 345 351 367 
f 357 345 367 
f 351 359 367 
f 359 357 367 
f 351 347 368 
f 347 356 368 
f 356 351 368 
f 350 343 369 
f 343 362 369 
f 362 350 369 
f 356 347 370 
f 347 360 370 
f 360 356 370 
f 355 347 371 
f 347 366 371 
f 366 355 371 
f 359 356 372 
f 356 360 372 
o convex_12
v 1.906645 24.967179 2.565138
v -3.433474 18.737475 -0.993200
v -2.543454 0.058117 -2.772891
v 4.573047 21.407348 -2.772891
v 2.794226 0.058117 2.565138
v -2.543454 0.058117 2.565138
v 9.021927 24.077221 2.565138
v 2.794226 0.058117 -2.772891
v -2.543454 24.967179 -1.883045
v -3.433474 21.407348 2.565138
v -3.433474 21.407348 -2.772891
v 9.021927 22.297306 1.675293
v 1.906645 24.967179 -1.883045
v -2.543454 24.967179 2.565138
v 9.021927 24.077221 1.675293
v 4.573047 19.627433 -2.772891
v 9.021927 22.297306 2.565138
v -3.433474 19.627433 2.565138
v -3.433474 19.627433 -2.772891
v -3.433474 18.737475 0.785447
f 378 390 392 
f 375 377 378 
f 374 375 378 
f 377 373 378 
f 373 377 379 
f 375 376 380 
f 377 375 380 
f 378 373 382 
f 382 381 383 
f 376 375 383 
f 381 376 383 
f 374 382 383 
f 373 379 385 
f 381 373 385 
f 376 381 385 
f 373 381 386 
f 382 373 386 
f 381 382 386 
f 384 376 387 
f 379 384 387 
f 385 379 387 
f 376 385 387 
f 380 376 388 
f 376 384 388 
f 384 380 388 
f 379 377 389 
f 377 380 389 
f 384 379 389 
f 380 384 389 
f 382 374 390 
f 378 382 390 
f 375 374 391 
f 383 375 391 
f 374 383 391 
f 374 378 392 
f 390 374 392 
o convex_13
v -1.657919 23.188880 8.792566
v -4.324517 19.631152 2.566270
v -5.214777 22.299710 3.455194
v -21.226905 27.635780 22.137912
v -12.326402 29.414121 13.241015
v -6.997385 27.635780 22.137912
v -21.226905 30.303292 20.356234
v -6.105036 29.414121 16.798624
v -0.767660 19.631152 4.346033
v -8.773724 30.303292 22.137912
v -0.767660 21.410539 2.566270
v -6.105036 29.414121 21.245157
v -18.556127 30.303292 17.689463
v -21.226905 30.303292 22.137912
v -21.226905 28.524950 20.356234
v -8.771634 24.967222 7.014719
v 0.122600 19.631152 3.455194
v -0.767660 22.299710 4.346033
v -2.546089 19.631152 4.346033
v -6.105036 27.635780 21.245157
v -4.324517 27.635780 15.909701
v -13.216661 30.303292 18.578387
v -4.324517 23.188880 4.346033
v -11.438232 27.634735 10.570413
v -21.226905 27.635780 21.245157
v -4.324517 19.631152 3.455194
v -2.546089 24.079096 7.014719
v -0.767660 20.520323 6.125796
v 0.122600 20.520323 2.566270
v -8.771634 23.188880 7.014719
v -4.324517 27.635780 14.129938
v -0.767660 22.299710 6.125796
f 421 410 424 
f 396 398 402 
f 394 395 403 
f 402 398 404 
f 400 402 404 
f 399 402 405 
f 399 396 406 
f 396 402 406 
f 402 399 406 
f 396 399 407 
f 399 405 408 
f 401 394 409 
f 398 396 411 
f 394 401 411 
f 401 398 411 
f 393 404 412 
f 404 398 412 
f 400 404 413 
f 400 397 414 
f 402 400 414 
f 397 405 414 
f 405 402 414 
f 403 395 415 
f 395 408 415 
f 405 397 416 
f 408 405 416 
f 415 408 416 
f 397 415 416 
f 394 396 417 
f 407 394 417 
f 396 407 417 
f 396 394 418 
f 394 411 418 
f 411 396 418 
f 397 400 419 
f 410 403 419 
f 403 415 419 
f 415 397 419 
f 398 401 420 
f 401 409 420 
f 412 398 420 
f 393 412 420 
f 394 403 421 
f 409 394 421 
f 403 410 421 
f 395 394 422 
f 394 407 422 
f 407 399 422 
f 399 408 422 
f 408 395 422 
f 400 413 423 
f 413 410 423 
f 419 400 423 
f 410 419 423 
f 404 393 424 
f 413 404 424 
f 410 413 424 
f 420 409 424 
f 393 420 424 
f 409 421 424 
o convex_14
v -1.652738 165.535717 -1.881565
v 7.242584 174.430517 17.689554
v -6.992160 174.430517 17.689554
v 1.014187 169.983552 -0.992242
v 2.793530 166.425633 4.343698
v -6.099005 171.761642 16.798228
v 4.572873 166.425633 -2.772891
v -3.433474 168.204592 -2.772891
v 7.242584 172.651557 17.689554
v 7.242584 174.430517 15.019582
v -6.992160 174.430517 15.908905
v -2.541713 165.535717 1.675728
v 4.572873 168.204592 -2.772891
v -3.433474 166.425633 -2.772891
v 4.572873 166.425633 2.565051
v -1.652738 169.983552 -0.992242
v -6.992160 172.651557 17.689554
v 3.683898 171.761642 16.798228
v 0.125212 165.535717 2.565051
v 7.242584 171.761642 15.908905
v 1.903162 165.535717 -2.772891
v 1.904555 174.430517 15.019582
v -6.099005 170.873468 14.128256
v 2.793530 165.535717 -0.102918
v -6.992160 172.651557 15.908905
v -1.652738 165.535717 2.565051
v -3.433474 166.425633 2.565051
v 4.570086 169.095379 10.572966
v 7.242584 171.761642 15.019582
v 1.903162 165.535717 1.675728
v 2.793530 165.535717 -1.881565
v 1.014187 165.535717 -2.772891
f 438 445 456 
f 426 427 433 
f 427 426 434 
f 426 433 434 
f 427 434 435 
f 432 428 437 
f 431 432 437 
f 434 431 437 
f 428 434 437 
f 432 431 438 
f 435 432 438 
f 425 436 438 
f 428 432 440 
f 434 428 440 
f 432 435 440 
f 433 427 441 
f 430 433 441 
f 427 435 441 
f 433 430 442 
f 436 425 443 
f 442 430 443 
f 434 433 444 
f 439 431 444 
f 429 439 444 
f 433 442 444 
f 438 431 445 
f 443 425 445 
f 435 434 446 
f 434 440 446 
f 440 435 446 
f 436 430 447 
f 430 441 447 
f 431 439 448 
f 443 445 448 
f 435 438 449 
f 441 435 449 
f 438 447 449 
f 447 441 449 
f 430 436 450 
f 443 430 450 
f 436 443 450 
f 438 436 451 
f 436 447 451 
f 447 438 451 
f 443 429 452 
f 442 443 452 
f 429 444 452 
f 444 442 452 
f 431 434 453 
f 444 431 453 
f 434 444 453 
f 439 429 454 
f 429 443 454 
f 448 439 454 
f 443 448 454 
f 445 431 455 
f 431 448 455 
f 448 445 455 
f 425 438 456 
f 445 425 456 
o convex_15
v -9.662220 25.853367 31.035498
v -25.675263 18.740871 31.035498
v -24.784633 16.962225 31.035498
v -20.335143 26.745825 22.137912
v -19.446343 8.953091 35.481331
v -6.992160 28.524471 22.137912
v -16.778112 20.517428 37.262328
v -19.446343 30.305208 23.918910
v -7.882790 30.305208 28.366222
v -24.784633 20.517428 32.813535
v -21.225773 8.953091 37.262328
v -13.221080 19.629149 36.371089
v -22.112745 29.412750 22.137912
v -6.992160 30.305208 22.137912
v -11.441650 30.305208 28.366222
v -22.112745 26.745825 22.137912
v -13.221080 22.293984 36.371089
v -21.225773 8.953091 35.481331
v -6.992160 28.524471 24.808668
v -21.225773 12.512474 37.262328
v -15.889311 15.185669 37.262328
v -25.675263 20.517428 31.923777
v -14.109881 24.074720 34.593052
v -22.112745 27.636193 25.698427
v -20.335143 30.305208 22.137912
v -14.109881 17.850503 36.371089
v -23.892175 15.185669 34.593052
v -19.446343 8.953091 36.371089
v -14.109881 20.517428 37.262328
v -24.784633 20.519518 28.366222
v -22.114574 14.295300 36.371089
v -22.112745 29.412750 23.029151
f 481 469 488 
f 461 460 462 
f 462 460 469 
f 464 465 470 
f 462 469 470 
f 465 464 471 
f 460 461 472 
f 469 460 472 
f 457 465 473 
f 468 457 473 
f 458 459 474 
f 467 458 474 
f 461 467 474 
f 459 472 474 
f 472 461 474 
f 461 462 475 
f 465 457 475 
f 457 468 475 
f 470 465 475 
f 462 470 475 
f 467 463 476 
f 463 467 477 
f 466 463 479 
f 471 464 479 
f 465 471 479 
f 473 465 479 
f 463 473 479 
f 478 466 480 
f 466 479 480 
f 479 464 480 
f 464 470 481 
f 470 469 481 
f 475 468 482 
f 468 477 482 
f 458 467 483 
f 467 476 483 
f 466 478 483 
f 478 458 483 
f 467 461 484 
f 461 475 484 
f 477 467 484 
f 475 482 484 
f 482 477 484 
f 468 473 485 
f 473 463 485 
f 463 477 485 
f 477 468 485 
f 459 458 486 
f 472 459 486 
f 469 472 486 
f 458 478 486 
f 478 469 486 
f 463 466 487 
f 476 463 487 
f 466 483 487 
f 483 476 487 
f 469 478 488 
f 480 464 488 
f 478 480 488 
f 464 481 488 
o convex_16
v -1.653609 107.706632 1.675467
v 8.132256 121.939983 29.255284
v -6.992160 121.939983 29.255284
v 1.900984 118.381297 17.687203
v -0.760889 119.270272 28.364394
v 1.903945 110.376343 2.566357
v 8.132256 120.159247 29.255284
v -2.543367 111.265318 4.345439
v -6.992160 120.159247 29.255284
v 1.014187 107.706632 2.566357
v -6.102402 121.051008 24.803530
v 7.242497 121.939983 26.585312
v -6.102402 119.270272 28.364394
v -2.543367 108.597000 4.345439
v 4.570260 118.381297 17.687203
v -5.212643 119.270272 20.354476
v 1.903945 108.597000 2.566357
v 8.132256 121.939983 27.473503
v -6.992160 121.939983 28.364394
v 8.132256 120.159247 27.473503
v -2.543367 108.597000 3.457248
v -1.653609 109.485975 1.675467
v 1.900984 121.939983 26.585312
v 1.014187 107.706632 1.675467
v -1.653609 107.706632 2.566357
v -2.543367 110.376343 3.457248
v 1.903945 108.597000 4.345439
v 7.242497 119.270272 27.473503
v -6.992160 120.159247 28.364394
v -1.653609 110.376343 2.566357
v -6.102402 121.939983 27.473503
v 1.014187 109.485975 1.675467
f 512 510 520 
f 490 491 495 
f 495 491 497 
f 493 495 497 
f 491 490 500 
f 493 497 501 
f 498 493 501 
f 501 497 502 
f 494 492 503 
f 492 500 503 
f 492 496 504 
f 499 492 504 
f 496 499 504 
f 490 495 506 
f 500 490 506 
f 494 503 506 
f 503 500 506 
f 505 494 506 
f 497 491 507 
f 491 500 507 
f 495 505 508 
f 506 495 508 
f 505 506 508 
f 489 502 509 
f 502 497 509 
f 489 509 510 
f 492 499 511 
f 500 492 511 
f 507 500 511 
f 498 489 512 
f 494 505 512 
f 505 498 512 
f 489 510 512 
f 489 498 513 
f 498 501 513 
f 501 502 513 
f 502 489 513 
f 499 496 514 
f 507 499 514 
f 509 507 514 
f 496 510 514 
f 510 509 514 
f 495 498 515 
f 505 495 515 
f 498 505 515 
f 495 493 516 
f 493 498 516 
f 498 495 516 
f 497 507 517 
f 509 497 517 
f 507 509 517 
f 492 494 518 
f 496 492 518 
f 494 510 518 
f 510 496 518 
f 499 507 519 
f 511 499 519 
f 507 511 519 
f 510 494 520 
f 494 512 520 
o convex_17
v 21.477329 30.305208 10.572863
v 1.904555 19.629149 2.565138
v 1.904555 21.408841 2.565138
v 20.584522 27.636193 22.136171
v 13.468892 29.414840 14.130362
v 21.477329 27.636193 7.015364
v 16.137732 28.525516 5.235657
v 6.353261 20.521608 2.565138
v 19.695547 30.305208 21.245359
v 21.477329 27.636193 22.136171
v 11.690942 24.967179 2.565138
v 1.904555 19.629149 3.455950
v 14.359782 29.412750 10.572863
v 17.028623 30.305208 18.576756
v 19.697463 29.412750 6.124553
v 21.477329 30.305208 21.245359
v 3.684421 19.629149 3.455950
v 11.690942 23.188532 2.565138
v 1.904555 21.408841 3.455950
v 5.464286 23.188532 2.565138
v 10.801967 27.636193 9.682051
v 16.137732 29.412750 7.904260
v 17.028623 30.305208 15.910069
v 21.477329 29.412750 7.015364
v 9.912992 24.967179 2.565138
v 20.586438 30.305208 10.572863
v 17.915682 29.412750 6.124553
v 11.690942 26.745825 5.235657
v 6.353261 20.521608 3.455950
v 17.915682 26.745825 5.235657
v 20.584522 29.414840 22.136171
v 13.468892 29.412750 12.350654
f 543 533 552 
f 522 523 528 
f 526 521 530 
f 528 526 530 
f 528 523 531 
f 523 522 532 
f 530 524 532 
f 529 521 534 
f 531 527 535 
f 521 529 536 
f 530 521 536 
f 522 528 537 
f 532 522 537 
f 530 532 537 
f 526 528 538 
f 528 531 538 
f 523 532 539 
f 534 525 539 
f 529 534 539 
f 531 523 540 
f 523 539 541 
f 539 525 541 
f 540 523 541 
f 541 533 542 
f 525 534 543 
f 534 521 543 
f 542 533 543 
f 521 526 544 
f 535 521 544 
f 526 535 544 
f 527 531 545 
f 531 540 545 
f 540 527 545 
f 521 535 546 
f 543 521 546 
f 542 543 546 
f 535 527 547 
f 527 542 547 
f 546 535 547 
f 542 546 547 
f 527 540 548 
f 540 541 548 
f 541 542 548 
f 542 527 548 
f 528 530 549 
f 537 528 549 
f 530 537 549 
f 535 526 550 
f 531 535 550 
f 526 538 550 
f 538 531 550 
f 524 530 551 
f 532 524 551 
f 536 529 551 
f 530 536 551 
f 529 539 551 
f 539 532 551 
f 541 525 552 
f 533 541 552 
f 525 543 552 
o convex_18
v -5.211424 169.984075 -12.558755
v 7.242584 174.431997 -16.116309
v 7.242584 172.652044 -16.116309
v 2.793530 168.204906 -2.772891
v -6.992160 174.431997 -15.225070
v -2.541713 166.424953 -4.553889
v 6.349429 171.762460 -17.006068
v -6.992160 172.652044 -17.897307
v 2.793530 166.424953 -4.553889
v -1.652738 168.204906 -2.772891
v 7.242584 174.431997 -17.897307
v -6.992160 174.431997 -17.897307
v 4.572873 169.984075 -6.331925
v 2.793530 166.424953 -2.772891
v 3.683898 173.541629 -13.448514
v -6.099005 170.873659 -12.558755
v -1.652738 171.762460 -17.006068
v -3.433474 169.093707 -5.442167
v 7.242584 172.652044 -17.897307
v 4.572873 168.204906 -6.331925
v -2.541713 166.424953 -3.664130
v -6.992160 171.762460 -16.116309
v 6.349429 170.873659 -14.336792
v -1.652738 166.424953 -2.772891
v 0.125212 174.431997 -15.225070
v 3.682505 167.315322 -3.664130
v 5.463241 172.652044 -11.670477
v 6.349429 170.873659 -12.558755
v -6.992160 171.762460 -15.225070
v 4.572873 168.204906 -8.111443
v -4.319662 170.873659 -8.111443
v -3.433474 168.204906 -5.442167
f 573 570 584 
f 558 559 561 
f 556 557 562 
f 554 555 563 
f 557 554 563 
f 563 560 564 
f 560 557 564 
f 557 563 564 
f 558 561 566 
f 556 562 566 
f 558 553 569 
f 559 558 569 
f 560 559 569 
f 557 568 570 
f 559 560 571 
f 563 555 571 
f 560 563 571 
f 566 561 572 
f 558 566 573 
f 562 570 573 
f 553 558 574 
f 557 560 574 
f 569 553 574 
f 560 569 574 
f 558 573 574 
f 559 571 575 
f 571 555 575 
f 566 562 576 
f 573 566 576 
f 562 573 576 
f 557 556 577 
f 554 557 577 
f 556 565 577 
f 567 554 577 
f 565 556 578 
f 556 566 578 
f 572 565 578 
f 566 572 578 
f 565 554 579 
f 554 567 579 
f 577 565 579 
f 567 577 579 
f 555 554 580 
f 554 565 580 
f 565 572 580 
f 575 555 580 
f 572 575 580 
f 568 557 581 
f 573 568 581 
f 557 574 581 
f 574 573 581 
f 561 559 582 
f 572 561 582 
f 559 575 582 
f 575 572 582 
f 562 557 583 
f 557 570 583 
f 570 562 583 
f 570 568 584 
f 568 573 584 
o convex_19
v 28.595572 28.524471 8.795277
v 30.373173 21.407796 26.586270
v 28.595572 21.407796 26.586270
v 33.929944 8.953091 23.026539
v 21.477329 27.636193 7.013496
v 21.477329 29.412750 22.135648
v 37.491416 20.515338 17.690774
v 29.484373 30.305208 10.573227
v 21.477329 26.745825 22.135648
v 36.601048 16.964315 16.799883
v 35.709112 8.953091 23.915513
v 22.367697 30.305208 7.906303
v 22.367697 30.305208 21.244757
v 28.595572 18.742961 26.586270
v 34.821879 14.291120 24.804488
v 35.709112 11.622106 20.357698
v 23.258065 27.636193 7.013496
v 31.263542 25.853367 10.573227
v 28.595572 29.412750 14.132958
v 31.263542 20.515338 26.586270
v 37.491416 18.742961 16.799883
v 21.477329 30.305208 9.686168
v 28.595572 30.305208 8.795277
v 33.929944 24.967179 13.242068
v 33.929944 8.953091 23.915513
v 31.263542 16.964315 26.586270
v 36.601048 14.291120 22.135648
v 34.821879 20.515338 14.132958
v 26.816403 20.519518 25.695379
v 22.367697 28.524471 23.024623
v 21.477329 26.745825 20.355782
v 29.484373 24.074720 23.026539
f 603 597 616 
f 590 589 593 
f 592 596 597 
f 586 587 598 
f 588 589 600 
f 595 588 600 
f 589 596 601 
f 600 589 601 
f 594 600 601 
f 601 585 602 
f 591 592 603 
f 592 597 603 
f 591 586 604 
f 586 598 604 
f 599 591 604 
f 600 594 605 
f 595 600 605 
f 589 590 606 
f 596 589 606 
f 597 596 606 
f 590 597 606 
f 596 592 607 
f 585 601 607 
f 601 596 607 
f 602 585 607 
f 602 607 608 
f 592 591 608 
f 591 605 608 
f 605 602 608 
f 607 592 608 
f 593 588 609 
f 588 595 609 
f 598 609 610 
f 595 599 610 
f 604 598 610 
f 599 604 610 
f 609 595 610 
f 599 595 611 
f 591 599 611 
f 605 591 611 
f 595 605 611 
f 594 601 612 
f 601 602 612 
f 605 594 612 
f 602 605 612 
f 598 587 613 
f 593 609 613 
f 609 598 613 
f 587 586 614 
f 590 593 614 
f 586 597 614 
f 597 590 614 
f 613 587 614 
f 593 613 614 
f 589 588 615 
f 588 593 615 
f 593 589 615 
f 586 591 616 
f 597 586 616 
f 591 603 616 
o convex_20
v 4.573308 107.707154 -40.139313
v -7.881832 117.491277 -33.024379
v -7.881832 117.491277 -31.245297
v 7.242584 121.941376 -30.355060
v -0.765243 100.590043 -40.139313
v -6.992073 111.266798 -40.136527
v 7.242584 120.158289 -28.574585
v 5.463067 112.155077 -40.136527
v -7.881832 121.941376 -30.355060
v -2.541800 100.590043 -42.805846
v -7.881832 120.158289 -28.574585
v -3.431558 101.480499 -40.139313
v -6.992073 108.597610 -38.360231
v -7.881832 121.941376 -28.574585
v -2.543280 112.155077 -40.136527
v 5.463067 109.490242 -38.357445
v 4.573308 110.378520 -41.026764
v -0.765243 100.590043 -42.805846
v 7.242584 121.941376 -28.574585
v -4.321317 109.488065 -41.028158
v 2.793791 105.037965 -39.249076
v 6.352826 113.933810 -36.578363
v -6.992073 114.824265 -37.468601
v -0.765243 99.699588 -41.028158
v -2.541800 100.590043 -40.139313
v -2.541800 101.480499 -42.805846
v -6.100834 107.707154 -41.028158
v -2.541800 99.699588 -41.917002
v 5.463067 109.490242 -40.136527
v 0.124515 110.378520 -41.026764
v 7.242584 119.270010 -29.464822
v 1.904032 104.149687 -41.917002
f 633 645 648 
f 618 619 625 
f 622 618 625 
f 620 624 625 
f 621 623 627 
f 625 619 627 
f 628 627 629 
f 619 618 629 
f 618 622 629 
f 627 619 629 
f 620 625 630 
f 627 623 630 
f 625 627 630 
f 625 624 631 
f 631 624 633 
f 623 620 635 
f 620 630 635 
f 630 623 635 
f 622 631 636 
f 617 632 637 
f 624 620 638 
f 622 625 639 
f 631 622 639 
f 625 631 639 
f 623 621 640 
f 637 623 640 
f 617 637 640 
f 621 627 641 
f 627 628 641 
f 640 621 641 
f 634 626 642 
f 633 634 642 
f 636 642 643 
f 629 622 643 
f 622 636 643 
f 642 626 643 
f 643 626 644 
f 628 629 644 
f 626 634 644 
f 634 640 644 
f 641 628 644 
f 640 641 644 
f 629 643 644 
f 632 617 645 
f 633 624 645 
f 624 638 645 
f 638 632 645 
f 631 633 646 
f 636 631 646 
f 633 642 646 
f 642 636 646 
f 620 623 647 
f 623 637 647 
f 637 632 647 
f 638 620 647 
f 632 638 647 
f 634 633 648 
f 617 640 648 
f 640 634 648 
f 645 617 648 
o convex_21
v 5.463241 56.995354 -46.368016
v -2.543280 48.988310 -55.263512
v -2.543280 51.658631 -55.263512
v -6.992160 56.104202 -44.588498
v -6.992160 56.995354 -49.036769
v 3.683201 56.995354 -49.926005
v -0.764460 48.988310 -53.482950
v 1.904381 56.104202 -45.478779
v 1.904381 52.547432 -52.593713
v -6.992160 56.995354 -44.588498
v 5.463241 56.104202 -46.368016
v -2.543280 56.104202 -44.588498
v -0.764460 51.658631 -55.263512
v -6.992160 55.215401 -48.147533
v -3.433300 49.879462 -52.593713
v 5.463241 56.104202 -48.147533
v -0.764460 56.995354 -49.926005
v -0.764460 49.879462 -55.263512
v 3.683201 56.104202 -50.814196
v -2.543280 56.995354 -44.588498
v 0.124341 49.879462 -53.482950
v -3.433300 50.768263 -54.372186
v -2.543280 48.988310 -53.482950
v -6.992160 55.215401 -46.368016
v 5.463241 56.995354 -48.147533
v -6.992160 56.104202 -49.036769
v -2.543280 53.436232 -53.482950
v -0.764460 48.988310 -54.372186
v -3.433300 51.658631 -54.372186
v -3.433300 49.879462 -53.482950
v 3.683201 55.215401 -50.814196
v -1.652041 56.104202 -50.814196
f 665 675 680 
f 653 649 654 
f 649 653 658 
f 653 652 658 
f 649 656 659 
f 656 655 659 
f 652 655 660 
f 655 656 660 
f 658 652 660 
f 650 651 661 
f 651 654 661 
f 652 653 662 
f 649 659 664 
f 654 651 665 
f 653 654 665 
f 650 661 666 
f 661 657 666 
f 661 654 667 
f 657 661 667 
f 656 649 668 
f 649 658 668 
f 660 656 668 
f 658 660 668 
f 659 655 669 
f 657 664 669 
f 664 659 669 
f 651 650 670 
f 650 655 671 
f 655 652 671 
f 663 650 671 
f 652 663 671 
f 652 662 672 
f 663 652 672 
f 662 663 672 
f 654 649 673 
f 649 664 673 
f 667 654 673 
f 664 667 673 
f 650 662 674 
f 662 653 674 
f 670 650 674 
f 653 670 674 
f 651 653 675 
f 665 651 675 
f 655 650 676 
f 650 666 676 
f 666 657 676 
f 669 655 676 
f 657 669 676 
f 653 651 677 
f 651 670 677 
f 670 653 677 
f 662 650 678 
f 650 663 678 
f 663 662 678 
f 664 657 679 
f 657 667 679 
f 667 664 679 
f 653 665 680 
f 675 653 680 
o convex_22
v -7.881832 58.775655 -35.691664
v 7.242584 61.443712 -31.243209
v 6.349865 61.443712 -30.352368
v 4.570347 56.995789 -19.676650
v 4.573308 56.995789 -49.034156
v -7.881832 61.443712 -33.024890
v -4.319837 56.995789 -19.676650
v -6.992073 56.995789 -48.143316
v 5.463067 58.775655 -47.252475
v -4.319837 58.775655 -19.676650
v -6.992073 57.886158 -48.143316
v 6.352826 57.886158 -41.916053
v 7.242584 61.443712 -35.691664
v 4.570347 58.775655 -19.676650
v 5.463067 56.995789 -20.570364
v -6.102315 59.663411 -41.916053
v -5.211076 56.995789 -21.458331
v -6.992073 61.443712 -31.243209
v 7.242584 59.663411 -31.243209
v -1.652041 59.663411 -22.349172
v 1.904032 61.443712 -35.691664
v 5.463067 56.995789 -48.143316
v 1.904032 58.775655 -47.252475
v -7.881832 58.775655 -33.024890
v -0.763763 57.886158 -49.034156
v -6.992073 56.995789 -41.025213
v -7.881832 61.443712 -32.134049
v 4.573308 60.552908 -40.140119
v 5.463067 58.775655 -20.570364
v -6.992073 58.775655 -45.473668
v -6.992073 61.443712 -33.915730
v -0.762283 61.443712 -30.352368
f 698 700 712 
f 683 682 686 
f 685 684 687 
f 685 687 688 
f 687 684 690 
f 681 686 691 
f 688 681 691 
f 686 682 693 
f 682 683 694 
f 690 684 694 
f 684 685 695 
f 694 684 695 
f 688 687 697 
f 687 690 697 
f 683 686 698 
f 692 693 699 
f 693 682 699 
f 682 695 699 
f 695 692 699 
f 694 683 700 
f 690 694 700 
f 698 690 700 
f 686 693 701 
f 685 689 702 
f 689 693 702 
f 693 692 702 
f 695 685 702 
f 692 695 702 
f 686 681 704 
f 681 688 704 
f 685 688 705 
f 689 685 705 
f 688 691 705 
f 703 689 705 
f 691 703 705 
f 688 697 706 
f 704 688 706 
f 697 704 706 
f 697 690 707 
f 698 686 707 
f 690 698 707 
f 686 704 707 
f 704 697 707 
f 693 689 708 
f 701 693 708 
f 689 703 708 
f 703 696 708 
f 682 694 709 
f 695 682 709 
f 694 695 709 
f 691 686 710 
f 703 691 710 
f 696 703 710 
f 686 701 711 
f 701 708 711 
f 708 696 711 
f 710 686 711 
f 696 710 711 
f 683 698 712 
f 700 683 712 
o convex_23
v -28.343581 147.739273 7.905083
v -30.124317 138.841244 24.806927
v -31.013118 138.841244 24.806927
v -35.460256 128.170819 18.578007
v -21.226905 145.958866 6.123824
v -21.226905 145.069664 21.244409
v -37.240993 137.066845 14.132175
v -22.118841 148.630478 19.466807
v -32.792287 143.289257 12.352744
v -35.460256 137.066845 12.352744
v -37.240993 130.842431 20.357437
v -33.681087 129.951226 21.246238
v -21.226905 147.739273 6.123824
v -30.124317 136.179646 24.806927
v -36.349057 137.954044 16.798577
v -27.454780 148.630478 9.684514
v -21.226905 147.739273 21.244409
v -31.901918 138.841244 23.916297
v -37.240993 129.062024 20.357437
v -23.007642 148.630478 18.578007
v -26.565979 148.630478 7.014454
v -23.007642 145.958866 6.123824
v -34.569888 134.399239 23.023839
v -37.240993 129.062024 18.578007
v -21.226905 148.630478 14.134003
v -28.343581 145.069664 7.905083
v -34.569888 140.621651 11.463944
v -36.349057 134.399239 14.132175
v -23.896442 145.958866 22.136867
v -31.901918 136.179646 24.806927
v -21.226905 145.069664 19.466807
v -36.349057 128.170819 20.357437
f 742 731 744 
f 716 717 724 
f 718 717 725 
f 714 715 726 
f 718 714 726 
f 724 718 726 
f 721 719 727 
f 719 723 727 
f 713 721 728 
f 714 718 729 
f 718 725 729 
f 721 727 730 
f 723 719 731 
f 728 721 732 
f 720 728 732 
f 721 730 732 
f 713 728 733 
f 728 720 733 
f 725 717 734 
f 733 725 734 
f 727 723 735 
f 715 730 735 
f 730 727 735 
f 723 731 735 
f 731 719 736 
f 720 729 737 
f 729 725 737 
f 725 733 737 
f 733 720 737 
f 713 733 738 
f 734 722 738 
f 733 734 738 
f 721 713 739 
f 719 721 739 
f 722 719 739 
f 713 738 739 
f 738 722 739 
f 717 716 740 
f 719 722 740 
f 734 717 740 
f 722 734 740 
f 716 736 740 
f 736 719 740 
f 715 714 741 
f 714 729 741 
f 729 720 741 
f 730 715 741 
f 720 732 741 
f 732 730 741 
f 726 715 742 
f 715 735 742 
f 735 731 742 
f 717 718 743 
f 724 717 743 
f 718 724 743 
f 716 724 744 
f 724 726 744 
f 736 716 744 
f 731 736 744 
f 726 742 744 
o convex_24
v 4.573570 58.774697 -18.784889
v -1.653957 49.877982 -7.222642
v 2.793530 49.877982 -7.222642
v 1.904381 56.105508 -19.676650
v -4.323146 57.884677 -17.005546
v 2.793530 51.658892 -5.441906
v -4.323146 56.993787 -19.676650
v -1.653957 51.658892 -5.441906
v 4.573570 55.214618 -17.897307
v -4.323146 58.774697 -19.676650
v -2.543106 50.768002 -9.000592
v -0.763937 54.326339 -9.890960
v 2.793530 49.877982 -5.441906
v 4.573570 56.993787 -15.227596
v -4.323146 56.105508 -18.784889
v 4.573570 58.774697 -19.676650
v -2.543106 50.768002 -7.222642
v 3.683550 51.658892 -9.000592
v -1.653957 49.877982 -5.441906
v 4.573570 56.105508 -19.676650
v -2.543106 52.547171 -7.222642
v -2.543106 52.547171 -12.559278
v -4.323146 58.774697 -18.784889
v -2.543106 54.326339 -9.890960
v -4.323146 56.105508 -17.005546
v 4.573570 55.214618 -15.227596
v 3.683550 53.438061 -9.000592
v 3.683550 51.658892 -10.781328
v 3.683550 56.105508 -13.448253
v -1.653957 53.438061 -14.338621
v 1.904381 55.214618 -11.670303
v 1.014361 55.214618 -17.897307
f 766 774 776 
f 747 746 753 
f 748 751 754 
f 751 749 754 
f 752 750 756 
f 746 747 757 
f 750 752 757 
f 753 745 758 
f 751 748 759 
f 749 751 759 
f 745 753 760 
f 754 745 760 
f 748 754 760 
f 755 746 761 
f 759 755 761 
f 757 747 762 
f 750 757 762 
f 746 757 763 
f 757 752 763 
f 761 746 763 
f 752 761 763 
f 753 748 764 
f 748 760 764 
f 760 753 764 
f 761 752 765 
f 749 761 765 
f 746 755 766 
f 755 759 766 
f 745 754 767 
f 754 749 767 
f 756 745 767 
f 756 767 768 
f 752 756 768 
f 749 765 768 
f 765 752 768 
f 767 749 768 
f 749 759 769 
f 761 749 769 
f 759 761 769 
f 753 758 770 
f 762 753 770 
f 758 762 770 
f 758 750 771 
f 750 762 771 
f 762 758 771 
f 747 753 772 
f 762 747 772 
f 753 762 772 
f 745 756 773 
f 758 745 773 
f 750 758 773 
f 759 748 774 
f 766 759 774 
f 756 750 775 
f 773 756 775 
f 750 773 775 
f 753 746 776 
f 748 753 776 
f 746 766 776 
f 774 748 776 
o convex_25
v 6.353958 81.906505 1.675467
v 17.028971 88.132813 18.579226
v 16.137035 88.132813 18.579226
v 1.905252 77.457799 2.565661
v 17.028971 85.462753 6.126437
v 12.578698 88.132813 12.347868
v 17.028971 86.352076 18.579226
v 17.028971 88.132813 7.905170
v 2.795620 81.016137 4.344394
v 11.689897 81.906505 3.455855
v 5.463589 81.017182 7.905170
v 12.578698 88.132813 15.016795
v 15.248235 87.243490 6.126437
v 1.905252 80.127859 1.675467
v 4.576356 78.348168 1.675467
v 8.131559 81.906505 1.675467
v 16.137035 84.574475 7.905170
v 6.353958 79.238536 3.455855
v 1.014883 77.457799 2.565661
v 16.137035 86.352076 18.579226
v 17.028971 87.243490 6.126437
v 3.685988 81.016137 1.675467
v 6.353958 83.685152 8.795365
v 8.131559 80.127859 1.675467
v 1.014883 79.238536 2.565661
v 1.014883 77.457799 1.675467
v 9.909160 81.016137 4.344394
v 9.912295 86.352076 10.574098
v 4.576356 78.348168 2.565661
v 16.137035 88.132813 7.905170
v 17.028971 85.462753 9.683904
v 16.137035 84.574475 6.126437
f 793 786 808 
f 779 778 782 
f 778 779 783 
f 781 778 783 
f 778 781 784 
f 782 778 784 
f 779 782 788 
f 790 777 791 
f 777 789 792 
f 791 777 792 
f 780 783 795 
f 783 779 796 
f 779 787 796 
f 795 783 796 
f 787 795 796 
f 784 781 797 
f 789 784 797 
f 781 792 797 
f 792 789 797 
f 789 777 798 
f 782 789 798 
f 777 790 798 
f 790 782 798 
f 787 779 799 
f 779 788 799 
f 781 786 800 
f 786 791 800 
f 792 781 800 
f 791 792 800 
f 785 790 801 
f 795 787 801 
f 799 785 801 
f 787 799 801 
f 791 780 802 
f 790 791 802 
f 780 795 802 
f 801 790 802 
f 795 801 802 
f 793 783 803 
f 786 793 803 
f 783 794 803 
f 788 782 804 
f 790 785 804 
f 782 790 804 
f 785 799 804 
f 799 788 804 
f 783 780 805 
f 780 791 805 
f 791 786 805 
f 794 783 805 
f 786 803 805 
f 803 794 805 
f 782 784 806 
f 789 782 806 
f 784 789 806 
f 781 783 807 
f 793 781 807 
f 783 793 807 
f 786 781 808 
f 781 793 808 
o convex_26
v -2.542932 111.265492 -9.893398
v 6.352913 120.160553 -24.123266
v 6.352913 118.381994 -24.123266
v -6.992160 120.160553 -28.573366
v -4.322101 118.381994 -17.896610
v 2.793269 112.156470 -6.333754
v 6.352913 119.270707 -28.573366
v -6.992160 121.941376 -26.792455
v 2.793269 110.375646 -8.112488
v 6.352913 121.941376 -27.682910
v -2.542932 112.156470 -7.222032
v -6.992160 119.270707 -27.682910
v 5.462022 119.270707 -20.565799
v -6.992160 121.941376 -28.573366
v -1.652041 110.375646 -8.112488
v 3.682853 111.265492 -9.002943
v -1.652041 110.375646 -6.333754
v 6.352913 121.941376 -28.573366
v -1.652041 112.156470 -6.333754
v 2.793269 119.270707 -28.573366
v -0.763763 118.381994 -17.896610
v -6.992160 119.270707 -25.904177
v -0.763763 121.941376 -26.792455
v 2.793269 110.375646 -6.333754
v 3.682853 113.046316 -9.002943
v -2.542932 111.265492 -7.222032
v 6.352913 121.051531 -25.011544
v -6.992160 121.051531 -25.904177
v 3.682853 111.265492 -9.893398
v -2.542932 113.046316 -8.112488
v 6.352913 118.381994 -25.904177
v 3.682853 113.935029 -9.893398
f 833 835 840 
f 810 811 815 
f 810 815 818 
f 816 812 820 
f 815 812 822 
f 812 816 822 
f 816 818 822 
f 815 817 823 
f 809 820 823 
f 811 810 824 
f 823 817 825 
f 809 823 825 
f 818 815 826 
f 815 822 826 
f 822 818 826 
f 814 813 827 
f 825 814 827 
f 819 825 827 
f 812 815 828 
f 820 812 828 
f 815 823 828 
f 823 820 828 
f 813 814 829 
f 816 813 829 
f 820 809 830 
f 816 820 830 
f 818 816 831 
f 816 829 831 
f 824 814 832 
f 817 824 832 
f 814 825 832 
f 825 817 832 
f 824 810 833 
f 814 824 833 
f 809 825 834 
f 825 819 834 
f 830 809 834 
f 819 830 834 
f 810 818 835 
f 829 821 835 
f 818 831 835 
f 831 829 835 
f 833 810 835 
f 819 816 836 
f 830 819 836 
f 816 830 836 
f 817 815 837 
f 811 824 837 
f 824 817 837 
f 813 816 838 
f 816 819 838 
f 827 813 838 
f 819 827 838 
f 815 811 839 
f 811 837 839 
f 837 815 839 
f 829 814 840 
f 821 829 840 
f 814 833 840 
f 835 821 840 
o convex_27
v -6.993380 146.850873 -27.681661
v -25.675263 137.066315 -31.243081
v -23.002591 129.060403 -35.689197
v -6.102489 145.961550 -19.677608
v -20.333750 148.629520 -20.567528
v -15.001817 137.955638 -37.469036
v -21.224641 128.169077 -33.909357
v -21.224641 144.182904 -21.457447
v -9.664136 148.631523 -28.573322
v -14.112842 136.176992 -36.577375
v -24.782456 138.844961 -31.243081
v -6.102489 147.740196 -19.677608
v -24.782456 135.287669 -29.463242
v -17.664910 137.955638 -36.577375
v -6.993380 148.629520 -27.681661
v -20.333750 148.629520 -21.457447
v -23.002591 131.728373 -35.689197
v -18.555800 130.839050 -35.689197
v -6.102489 145.961550 -23.237287
v -25.675263 137.955638 -29.463242
v -7.884270 147.740196 -29.461500
v -14.112842 141.512931 -34.797535
v -8.773245 145.961550 -19.677608
v -22.113616 128.169077 -33.909357
v -19.444775 130.839050 -36.577375
v -12.331061 148.629520 -22.347367
v -23.004506 143.293580 -26.793483
v -20.333750 145.959547 -20.567528
v -21.224641 131.728373 -36.577375
v -25.675263 137.955638 -31.243081
v -12.332976 138.844961 -34.797535
v -21.224641 128.169077 -35.689197
f 869 865 872 
f 842 843 853 
f 845 849 856 
f 843 842 857 
f 844 847 858 
f 850 844 858 
f 844 850 859 
f 852 844 859 
f 841 855 859 
f 855 852 859 
f 848 845 860 
f 842 853 860 
f 853 848 860 
f 849 855 861 
f 855 841 861 
f 846 854 862 
f 854 851 862 
f 861 846 862 
f 849 861 862 
f 847 844 863 
f 844 852 863 
f 852 845 863 
f 853 843 864 
f 848 853 864 
f 847 863 864 
f 863 848 864 
f 846 850 865 
f 850 858 865 
f 849 845 866 
f 845 852 866 
f 855 849 866 
f 852 855 866 
f 845 856 867 
f 856 849 867 
f 860 845 867 
f 849 862 867 
f 862 851 867 
f 845 848 868 
f 863 845 868 
f 848 863 868 
f 854 846 869 
f 843 857 869 
f 857 854 869 
f 846 865 869 
f 851 854 870 
f 857 842 870 
f 854 857 870 
f 842 860 870 
f 860 867 870 
f 867 851 870 
f 850 846 871 
f 841 859 871 
f 859 850 871 
f 846 861 871 
f 861 841 871 
f 858 847 872 
f 864 843 872 
f 847 864 872 
f 865 858 872 
f 843 869 872 
o convex_28
v 1.014535 199.342800 0.785447
v -1.654131 126.396875 -1.883219
v 1.904555 126.396875 -1.883219
v -1.654131 126.396875 1.675467
v -1.654131 193.994147 -1.883219
v 1.904555 126.396875 1.675467
v -1.654131 196.664903 1.675467
v 1.904555 193.994147 -1.883219
v 1.904555 193.994147 1.675467
v -0.764111 199.342800 -0.993200
v 1.014535 199.342800 -0.993200
v -0.764111 199.342800 0.785447
v 1.014535 196.664903 1.675467
v -1.654131 196.664903 -0.993200
f 882 877 886 
f 874 875 876 
f 875 874 877 
f 874 876 877 
f 876 875 878 
f 876 878 879 
f 877 876 879 
f 875 877 880 
f 878 875 880 
f 878 880 881 
f 879 878 881 
f 880 873 881 
f 880 877 882 
f 880 882 883 
f 873 880 883 
f 882 873 883 
f 879 873 884 
f 873 882 884 
f 882 879 884 
f 873 879 885 
f 879 881 885 
f 881 873 885 
f 877 879 886 
f 879 882 886 
o convex_29
v 23.256149 133.509022 34.591833
v 9.911599 143.291577 29.257287
v 10.801967 141.512931 31.032450
v 21.476980 128.169077 33.703120
v 23.256149 143.291577 24.806927
v 16.139474 138.844961 36.372657
v 9.911599 148.631523 24.806927
v 21.476980 140.623608 24.806927
v 10.801967 148.631523 27.477596
v 25.925686 137.955638 30.147133
v 10.801967 145.961550 24.806927
v 14.360305 136.176992 36.372657
v 24.143382 140.623608 29.257287
v 23.256149 129.060403 35.482811
v 25.035318 135.287669 29.257287
v 9.911599 145.072227 31.032450
v 13.471504 148.631523 25.696772
v 17.918643 137.955638 36.372657
v 19.697812 130.839050 36.372657
v 13.471504 143.291577 32.812142
v 23.256149 140.623608 24.806927
v 22.365781 144.182904 25.696772
v 12.581136 141.512931 34.591833
v 23.256149 137.955638 32.812142
v 17.918643 131.728373 34.591833
v 12.581136 148.631523 26.587750
v 9.911599 145.072227 26.587750
v 25.925686 137.066315 29.257287
v 22.365781 128.169077 33.703120
v 21.476980 128.169077 35.482811
v 13.471504 148.631523 24.806927
v 20.586612 133.509022 36.372657
f 910 904 918 
f 893 891 894 
f 894 890 897 
f 893 894 897 
f 896 887 900 
f 888 889 902 
f 893 888 902 
f 895 893 902 
f 889 898 902 
f 893 895 903 
f 892 898 904 
f 904 898 905 
f 892 904 906 
f 904 899 906 
f 890 894 907 
f 894 891 907 
f 896 891 908 
f 899 896 908 
f 898 892 909 
f 895 902 909 
f 902 898 909 
f 906 895 909 
f 892 906 909 
f 887 896 910 
f 896 899 910 
f 899 904 910 
f 889 888 911 
f 888 890 911 
f 898 889 911 
f 903 895 912 
f 895 906 912 
f 906 899 912 
f 899 908 912 
f 908 903 912 
f 890 888 913 
f 888 893 913 
f 897 890 913 
f 893 897 913 
f 891 896 914 
f 896 900 914 
f 900 901 914 
f 907 891 914 
f 901 907 914 
f 901 900 915 
f 890 907 915 
f 907 901 915 
f 900 905 916 
f 905 898 916 
f 911 890 916 
f 898 911 916 
f 890 915 916 
f 915 900 916 
f 891 893 917 
f 893 903 917 
f 908 891 917 
f 903 908 917 
f 900 887 918 
f 905 900 918 
f 904 905 918 
f 887 910 918 
o convex_30
v 7.243629 168.204296 -4.550841
v 17.918643 174.431300 7.903167
v 16.138167 174.431300 7.903167
v 17.918643 174.431300 -6.331577
v 4.573570 169.093968 -3.661866
v 12.581136 169.984336 5.230669
v 17.026446 171.762286 -6.331577
v 5.464460 167.314625 3.454113
v 17.918643 172.651957 7.903167
v 4.573570 169.093968 2.563745
v 15.248583 174.431300 0.785795
v 6.354045 167.314625 -3.661866
v 14.358999 173.541629 -6.331577
v 4.573570 167.314625 -3.661866
v 9.022798 168.204296 -2.771498
v 17.026446 171.762286 2.565138
v 11.691551 172.651957 6.123824
v 6.354045 167.314625 3.454113
v 17.918643 172.651957 -6.331577
v 16.138167 172.651957 7.903167
v 16.138167 174.431300 -6.331577
v 9.912383 171.762286 -4.550841
v 15.248583 174.431300 7.010013
v 4.573570 167.314625 2.563745
v 14.358999 171.762286 -6.331577
v 15.248583 170.873311 -5.438422
v 7.243629 169.983639 4.344481
v 9.022798 168.204296 -4.550841
v 10.803273 169.093968 2.565138
v 7.243629 169.983639 -4.550841
v 15.248583 170.873311 -2.772891
v 11.691551 172.651957 -3.659079
f 940 923 950 
f 921 920 922 
f 920 921 927 
f 922 920 927 
f 921 922 929 
f 923 928 929 
f 922 925 931 
f 923 919 932 
f 928 923 932 
f 919 930 932 
f 930 926 932 
f 927 924 934 
f 925 927 934 
f 924 927 936 
f 927 926 936 
f 926 930 936 
f 930 933 936 
f 925 922 937 
f 922 927 937 
f 927 925 937 
f 927 921 938 
f 926 927 938 
f 929 922 939 
f 922 931 939 
f 939 931 940 
f 931 923 940 
f 921 929 941 
f 929 928 941 
f 935 921 941 
f 928 935 941 
f 926 928 942 
f 928 932 942 
f 932 926 942 
f 919 931 943 
f 931 925 943 
f 925 934 944 
f 928 926 945 
f 921 935 945 
f 935 928 945 
f 938 921 945 
f 926 938 945 
f 930 919 946 
f 933 930 946 
f 919 943 946 
f 943 925 946 
f 925 944 946 
f 944 933 946 
f 934 924 947 
f 924 936 947 
f 936 933 947 
f 919 923 948 
f 931 919 948 
f 923 931 948 
f 933 944 949 
f 944 934 949 
f 934 947 949 
f 947 933 949 
f 923 929 950 
f 929 939 950 
f 939 940 950 
o convex_31
v 31.261626 153.079880 1.674596
v 25.036015 169.091878 8.792839
v 23.256672 170.872614 7.012103
v 30.372651 164.644217 -6.330880
v 17.918643 172.651261 -7.221249
v 17.918643 171.762983 7.902471
v 29.482283 162.867661 8.792839
v 19.697986 174.431997 -7.221249
v 29.482283 153.970248 3.453765
v 27.702940 161.979382 -6.330880
v 17.918643 174.431997 7.902471
v 32.153387 156.639263 3.453765
v 26.815358 161.979382 8.792839
v 29.482283 153.970248 0.785795
v 29.482283 164.644217 8.792839
v 32.153387 154.860617 -0.103006
v 17.918643 171.762983 -1.882174
v 19.697986 174.431997 1.674596
v 17.918643 174.431997 -7.221249
v 31.261626 153.970248 3.453765
v 28.593308 166.422863 -4.551712
v 30.372651 162.867661 -6.330880
v 18.810404 174.431997 7.902471
v 22.369090 167.311141 8.792839
v 32.153387 154.860617 3.453765
v 30.372651 162.867661 4.344133
v 32.153387 156.639263 -0.103006
v 28.593308 161.979382 8.792839
v 19.697986 171.762983 -7.221249
v 27.702940 161.089014 -5.440512
v 30.372651 156.639263 -1.882174
v 29.482283 165.532495 -3.661343
f 954 971 982 
f 955 956 961 
f 957 952 963 
f 956 959 963 
f 951 959 964 
f 959 956 964 
f 952 957 965 
f 957 962 965 
f 956 955 967 
f 955 964 967 
f 964 956 967 
f 958 961 968 
f 958 955 969 
f 955 961 969 
f 961 958 969 
f 959 951 970 
f 963 959 970 
f 953 952 971 
f 954 958 971 
f 968 953 971 
f 958 968 971 
f 958 954 972 
f 954 966 972 
f 952 953 973 
f 961 952 973 
f 953 968 973 
f 968 961 973 
f 952 961 974 
f 961 956 974 
f 963 952 974 
f 956 963 974 
f 962 957 975 
f 951 966 975 
f 966 962 975 
f 970 951 975 
f 962 954 976 
f 954 965 976 
f 965 962 976 
f 954 962 977 
f 966 954 977 
f 962 966 977 
f 957 963 978 
f 963 970 978 
f 975 957 978 
f 970 975 978 
f 955 958 979 
f 960 955 979 
f 958 972 979 
f 972 960 979 
f 955 960 980 
f 964 955 980 
f 960 964 980 
f 951 964 981 
f 964 960 981 
f 966 951 981 
f 960 972 981 
f 972 966 981 
f 952 965 982 
f 965 954 982 
f 971 952 982 
o convex_32
v 8.131559 164.644217 24.806927
v -6.992160 162.867661 27.473851
v -6.992160 162.867661 29.253194
v -6.992160 174.431997 19.470291
v 0.126083 153.970248 29.253194
v 9.021927 164.644217 29.253194
v 8.131559 171.762983 17.689554
v -6.992160 172.651261 17.689554
v 7.241191 174.431997 18.581316
v 2.794052 153.970248 31.924299
v -6.101792 163.755939 30.143563
v 2.794052 153.970248 29.253194
v -0.764285 156.639263 31.924299
v 8.131559 171.762983 22.140002
v -2.543454 171.762983 17.689554
v 7.241191 160.200736 27.473851
v -6.992160 174.431997 17.689554
v 2.794052 156.639263 31.924299
v -0.764285 154.860617 31.032537
v 7.241191 174.431997 17.689554
v 9.021927 163.755939 27.473851
v 5.462022 162.867661 30.143563
v 1.903684 174.431997 19.470291
v 7.241191 160.200736 29.253194
v 8.131559 173.541629 18.581316
v 1.014883 153.079880 31.032537
v -6.992160 164.644217 29.253194
v -0.764285 155.748895 31.924299
v -1.653086 163.755939 30.143563
v -5.211424 160.200736 28.365613
v -6.101792 161.979382 30.143563
v 9.021927 163.755939 29.253194
f 1006 1003 1014 
f 984 985 986 
f 984 986 990 
f 987 984 990 
f 987 989 994 
f 986 993 996 
f 989 987 997 
f 987 990 997 
f 990 989 997 
f 989 983 998 
f 994 989 998 
f 992 994 998 
f 990 986 999 
f 989 990 999 
f 986 991 999 
f 992 988 1000 
f 995 992 1000 
f 993 995 1000 
f 989 999 1002 
f 999 991 1002 
f 983 989 1003 
f 998 983 1003 
f 1000 988 1004 
f 991 986 1005 
f 996 991 1005 
f 986 996 1005 
f 992 998 1006 
f 998 1003 1006 
f 996 988 1007 
f 991 996 1007 
f 989 1002 1007 
f 1002 991 1007 
f 1003 989 1007 
f 988 1003 1007 
f 987 994 1008 
f 994 992 1008 
f 1001 987 1008 
f 986 985 1009 
f 985 993 1009 
f 993 986 1009 
f 992 995 1010 
f 995 993 1010 
f 1008 992 1010 
f 1001 1008 1010 
f 988 996 1011 
f 996 993 1011 
f 993 1000 1011 
f 1004 988 1011 
f 1000 1004 1011 
f 985 984 1012 
f 984 987 1012 
f 1001 985 1012 
f 987 1001 1012 
f 993 985 1013 
f 985 1001 1013 
f 1010 993 1013 
f 1001 1010 1013 
f 988 992 1014 
f 1003 988 1014 
f 992 1006 1014 
o convex_33
v 6.351258 108.594597 40.819882
v -6.992160 119.270348 29.255284
v -6.102402 113.934649 34.592791
v 2.792224 100.592137 39.930298
v 8.132256 121.937109 29.255284
v -5.212643 111.261358 40.819882
v -6.992160 121.937109 30.147481
v 8.132256 119.270348 29.255284
v 7.242497 113.932472 38.152435
v 1.014187 99.699588 41.709467
v 7.242497 108.594597 38.152435
v 2.792224 100.592137 42.600357
v 8.132256 121.937109 30.147481
v -5.212643 109.484968 38.152435
v 1.014187 99.699588 40.819882
v 7.242497 111.261358 39.930298
v -5.212643 109.484968 40.819882
v -6.992160 121.937109 29.255284
v 8.132256 115.713216 33.703207
v 1.014187 101.480331 42.600357
v 5.460019 109.484968 40.819882
v 3.683463 101.480331 39.930298
v 7.242497 108.594597 39.930298
v 4.570260 112.151729 39.930298
v -0.762370 102.370703 39.930298
v 2.792224 99.699588 41.709467
v 3.683463 105.930012 41.709467
v 1.014187 100.592137 39.930298
v 8.132256 118.379977 33.703207
v -3.430165 111.261358 40.819882
v 1.014187 100.592137 42.600357
v -6.992160 119.270348 30.147481
f 1031 1021 1046 
f 1018 1016 1022 
f 1016 1019 1022 
f 1021 1020 1023 
f 1019 1021 1027 
f 1022 1019 1027 
f 1021 1023 1027 
f 1017 1016 1028 
f 1020 1021 1031 
f 1017 1028 1031 
f 1019 1016 1032 
f 1016 1021 1032 
f 1021 1019 1032 
f 1025 1022 1033 
f 1022 1027 1033 
f 1020 1031 1034 
f 1015 1030 1035 
f 1018 1022 1036 
f 1022 1025 1036 
f 1015 1026 1037 
f 1030 1015 1037 
f 1025 1033 1037 
f 1033 1030 1037 
f 1036 1025 1037 
f 1030 1023 1038 
f 1035 1030 1038 
f 1028 1016 1039 
f 1029 1024 1039 
f 1016 1029 1039 
f 1024 1031 1039 
f 1031 1028 1039 
f 1026 1024 1040 
f 1024 1029 1040 
f 1029 1018 1040 
f 1018 1036 1040 
f 1037 1026 1040 
f 1036 1037 1040 
f 1026 1015 1041 
f 1034 1026 1041 
f 1015 1035 1041 
f 1016 1018 1042 
f 1029 1016 1042 
f 1018 1029 1042 
f 1027 1023 1043 
f 1023 1030 1043 
f 1033 1027 1043 
f 1030 1033 1043 
f 1023 1020 1044 
f 1020 1034 1044 
f 1038 1023 1044 
f 1035 1038 1044 
f 1034 1041 1044 
f 1041 1035 1044 
f 1024 1026 1045 
f 1031 1024 1045 
f 1026 1034 1045 
f 1034 1031 1045 
f 1016 1017 1046 
f 1021 1016 1046 
f 1017 1031 1046 
o convex_34
v 17.917336 22.297990 -34.798034
v 7.242584 28.523688 -24.126478
v 7.242584 28.523688 -22.345665
v 19.696767 8.954223 -35.689181
v 22.364997 29.413969 -22.345665
v 9.023843 29.413969 -29.464476
v 25.925686 20.517428 -32.131995
v 14.362134 18.738955 -37.468514
v 22.364997 26.745216 -22.345665
v 21.476197 12.513258 -37.468514
v 25.925686 18.738955 -30.352663
v 16.139735 30.304250 -25.905811
v 16.141564 20.517428 -37.468514
v 7.242584 30.304250 -22.345665
v 21.476197 8.954223 -35.689181
v 10.805102 30.304250 -28.576290
v 20.587396 30.304250 -23.238292
v 21.476197 9.844504 -37.468514
v 19.694938 26.745216 -22.345665
v 14.362134 17.848674 -36.578847
v 20.585567 9.844504 -34.799514
v 24.144428 14.293820 -34.799514
v 8.133214 28.523688 -27.685144
v 19.696767 9.844504 -37.468514
v 12.582703 27.633407 -31.240849
v 14.362134 20.517428 -37.468514
v 22.364997 26.745216 -26.796958
v 21.476197 20.517428 -34.799514
v 23.255627 14.293820 -32.131995
v 8.133214 30.304250 -27.685144
v 23.253798 27.633407 -25.017625
v 13.473333 24.966743 -33.909848
f 1059 1072 1078 
f 1049 1048 1050 
f 1051 1049 1055 
f 1051 1055 1057 
f 1056 1054 1059 
f 1048 1049 1060 
f 1049 1051 1060 
f 1060 1058 1062 
f 1060 1051 1063 
f 1058 1060 1063 
f 1054 1056 1064 
f 1061 1050 1064 
f 1055 1049 1065 
f 1050 1048 1066 
f 1049 1050 1067 
f 1050 1061 1067 
f 1061 1055 1067 
f 1065 1049 1067 
f 1055 1065 1067 
f 1056 1053 1068 
f 1053 1057 1068 
f 1057 1061 1068 
f 1064 1056 1068 
f 1061 1064 1068 
f 1052 1054 1069 
f 1066 1048 1069 
f 1054 1066 1069 
f 1064 1050 1070 
f 1054 1064 1070 
f 1050 1066 1070 
f 1066 1054 1070 
f 1062 1058 1071 
f 1054 1052 1072 
f 1059 1054 1072 
f 1053 1047 1073 
f 1058 1063 1073 
f 1047 1071 1073 
f 1071 1058 1073 
f 1047 1053 1074 
f 1053 1056 1074 
f 1059 1047 1074 
f 1056 1059 1074 
f 1057 1055 1075 
f 1055 1061 1075 
f 1061 1057 1075 
f 1048 1060 1076 
f 1062 1052 1076 
f 1060 1062 1076 
f 1052 1069 1076 
f 1069 1048 1076 
f 1051 1057 1077 
f 1057 1053 1077 
f 1063 1051 1077 
f 1053 1073 1077 
f 1073 1063 1077 
f 1047 1059 1078 
f 1052 1062 1078 
f 1071 1047 1078 
f 1062 1071 1078 
f 1072 1052 1078 
o convex_35
v 3.685378 139.736462 1.676686
v 13.470285 148.631523 24.802485
v 13.470285 145.961985 24.802485
v 7.243629 148.630390 27.472284
v 9.021056 144.183426 30.144956
v 13.470285 147.741677 14.134787
v 2.795533 137.065793 2.567577
v 1.904555 142.403735 7.904300
v 12.579307 144.182294 11.464989
v 1.904555 140.626308 10.574098
v 6.352651 147.740545 17.686855
v 9.910902 144.183426 30.144956
v 10.800748 146.851831 12.355879
v 1.904555 137.065793 2.567577
v 9.910902 146.851831 30.144956
v 5.463938 138.846616 5.237375
v 2.795533 137.065793 0.785795
v 1.904555 138.846616 0.785795
v 8.131211 145.073272 29.251191
v 12.579307 148.631523 22.132687
v 12.579307 145.961985 11.464989
v 13.470285 145.072140 13.243896
v 1.904555 142.403735 10.574098
v 3.685378 145.071008 14.131913
v 12.579307 144.182294 13.243896
v 9.021056 148.630390 28.360301
v 4.574092 141.516153 4.346484
v 6.352651 141.516153 4.346484
v 1.904555 138.846616 7.016283
v 8.131211 147.740545 29.251191
v 7.243629 146.851831 27.472284
v 7.243629 148.630390 25.693376
f 1098 1089 1110 
f 1080 1081 1084 
f 1081 1080 1090 
f 1083 1085 1090 
f 1089 1084 1091 
f 1086 1089 1091 
f 1085 1083 1092 
f 1088 1086 1092 
f 1090 1080 1093 
f 1083 1090 1093 
f 1090 1085 1094 
f 1085 1092 1095 
f 1087 1094 1095 
f 1094 1085 1095 
f 1092 1086 1096 
f 1079 1095 1096 
f 1095 1092 1096 
f 1088 1083 1097 
f 1082 1080 1098 
f 1080 1084 1098 
f 1084 1089 1098 
f 1091 1084 1099 
f 1084 1081 1100 
f 1087 1099 1100 
f 1099 1084 1100 
f 1088 1082 1101 
f 1086 1088 1101 
f 1082 1089 1102 
f 1089 1086 1102 
f 1101 1082 1102 
f 1086 1101 1102 
f 1081 1090 1103 
f 1094 1087 1103 
f 1090 1094 1103 
f 1100 1081 1103 
f 1087 1100 1103 
f 1080 1082 1104 
f 1093 1080 1104 
f 1086 1091 1105 
f 1079 1096 1105 
f 1096 1086 1105 
f 1095 1079 1106 
f 1087 1095 1106 
f 1099 1087 1106 
f 1091 1099 1106 
f 1079 1105 1106 
f 1105 1091 1106 
f 1083 1088 1107 
f 1092 1083 1107 
f 1088 1092 1107 
f 1083 1093 1108 
f 1082 1097 1108 
f 1097 1083 1108 
f 1104 1082 1108 
f 1093 1104 1108 
f 1082 1088 1109 
f 1097 1082 1109 
f 1088 1097 1109 
f 1089 1082 1110 
f 1082 1098 1110 
o convex_36
v 6.353581 24.078900 -5.442860
v 7.246147 27.636193 -22.345665
v 6.355758 27.636193 -20.565918
v 21.474957 30.305208 -20.565918
v 4.574980 19.629149 -3.665029
v 22.365346 27.636193 -22.345665
v 6.355758 29.414840 -17.008340
v 0.125212 20.520563 -3.665029
v 14.358375 29.413795 -13.446931
v 9.024749 30.305208 -22.345665
v 5.465369 20.520563 -2.776113
v 1.015601 19.629149 -4.553944
v 1.015601 21.410931 -2.776113
v 5.465369 22.298164 -2.776113
v 6.355758 29.414840 -20.565918
v 17.915577 30.305208 -17.008340
v 21.474957 30.305208 -22.345665
v 22.365346 27.636193 -21.454834
v 9.910784 27.634103 -10.782100
v 2.798556 24.967179 -9.004269
v 0.125212 19.629149 -3.665029
v 9.022572 29.413795 -15.226678
v 3.686768 22.298164 -2.776113
v 4.574980 19.629149 -2.776113
v 9.915138 30.305208 -20.565918
v 2.796379 19.629149 -4.553944
v 4.577157 27.634103 -15.226678
v 1.015601 22.298164 -6.333691
v 12.577597 29.413795 -13.446931
v 1.015601 20.520563 -6.333691
v 0.125212 19.629149 -2.776113
v 22.365346 29.414840 -21.454834
f 1121 1128 1142 
f 1116 1112 1120 
f 1112 1116 1122 
f 1123 1121 1124 
f 1119 1111 1124 
f 1112 1113 1125 
f 1117 1120 1125 
f 1120 1112 1125 
f 1114 1120 1126 
f 1119 1124 1126 
f 1124 1114 1126 
f 1116 1120 1127 
f 1120 1114 1127 
f 1115 1116 1128 
f 1122 1115 1131 
f 1117 1130 1132 
f 1130 1129 1132 
f 1123 1124 1133 
f 1124 1111 1133 
f 1130 1123 1133 
f 1129 1130 1133 
f 1121 1123 1134 
f 1115 1128 1134 
f 1128 1121 1134 
f 1131 1115 1134 
f 1120 1117 1135 
f 1126 1120 1135 
f 1117 1132 1135 
f 1116 1115 1136 
f 1122 1116 1136 
f 1115 1122 1136 
f 1117 1125 1137 
f 1130 1117 1137 
f 1130 1137 1138 
f 1118 1123 1138 
f 1125 1113 1138 
f 1123 1130 1138 
f 1131 1118 1138 
f 1137 1125 1138 
f 1111 1119 1139 
f 1119 1126 1139 
f 1132 1129 1139 
f 1133 1111 1139 
f 1129 1133 1139 
f 1126 1135 1139 
f 1135 1132 1139 
f 1113 1112 1140 
f 1112 1122 1140 
f 1122 1131 1140 
f 1138 1113 1140 
f 1131 1138 1140 
f 1123 1118 1141 
f 1118 1131 1141 
f 1134 1123 1141 
f 1131 1134 1141 
f 1124 1121 1142 
f 1114 1124 1142 
f 1127 1114 1142 
f 1116 1127 1142 
f 1128 1116 1142 
o convex_37
v -32.793332 81.015500 -32.131965
v -33.682307 84.574475 -17.897307
v -36.347838 84.574475 -17.897307
v -37.239599 67.671413 -29.461208
v -26.564934 83.684318 -27.683172
v -40.799679 78.346683 -25.015376
v -30.123620 84.574475 -29.459728
v -38.128574 72.122199 -31.240726
v -31.902964 78.346683 -33.021723
v -40.799679 77.456525 -22.349061
v -39.906524 81.015500 -23.235859
v -33.682307 83.684318 -17.897307
v -39.018942 67.671413 -30.350967
v -34.571281 78.346683 -33.021723
v -26.564934 84.574475 -29.459728
v -37.240993 84.574475 -19.676824
v -36.347838 82.794160 -17.897307
v -27.458089 83.684318 -25.903654
v -34.571281 72.122199 -31.240726
v -39.018942 69.453382 -27.683172
v -26.564934 83.684318 -29.459728
v -39.906524 79.236840 -25.903654
v -37.239599 69.453382 -31.240726
v -37.239599 69.453382 -27.683172
v -39.018942 72.122199 -30.350967
v -39.907917 70.343539 -28.571450
v -40.799679 79.236840 -22.349061
v -29.237432 82.794160 -31.242206
v -27.458089 84.574475 -25.903654
v -36.347838 84.574475 -21.459303
v -30.123620 83.684318 -22.349061
v -37.239599 67.671413 -30.350967
f 1165 1151 1174 
f 1145 1144 1149 
f 1149 1143 1153 
f 1144 1145 1154 
f 1143 1151 1156 
f 1149 1144 1157 
f 1145 1149 1158 
f 1145 1152 1159 
f 1154 1145 1159 
f 1146 1147 1160 
f 1155 1146 1162 
f 1159 1152 1162 
f 1147 1146 1163 
f 1157 1147 1163 
f 1151 1157 1163 
f 1161 1151 1163 
f 1148 1153 1164 
f 1153 1143 1164 
f 1143 1156 1164 
f 1155 1150 1165 
f 1150 1156 1165 
f 1156 1151 1165 
f 1146 1154 1166 
f 1154 1159 1166 
f 1162 1146 1166 
f 1159 1162 1166 
f 1150 1155 1167 
f 1156 1150 1167 
f 1148 1164 1167 
f 1164 1156 1167 
f 1152 1148 1168 
f 1155 1162 1168 
f 1162 1152 1168 
f 1148 1167 1168 
f 1167 1155 1168 
f 1152 1145 1169 
f 1148 1152 1169 
f 1153 1148 1169 
f 1145 1158 1169 
f 1158 1153 1169 
f 1143 1149 1170 
f 1151 1143 1170 
f 1149 1157 1170 
f 1157 1151 1170 
f 1147 1157 1171 
f 1157 1144 1171 
f 1160 1147 1171 
f 1149 1153 1172 
f 1158 1149 1172 
f 1153 1158 1172 
f 1144 1154 1173 
f 1154 1146 1173 
f 1146 1160 1173 
f 1171 1144 1173 
f 1160 1171 1173 
f 1146 1155 1174 
f 1151 1161 1174 
f 1163 1146 1174 
f 1161 1163 1174 
f 1155 1165 1174 
o convex_38
v 0.124515 174.431997 -19.676650
v -7.881832 161.979382 -29.460947
v -6.992073 161.089014 -30.352709
v 0.124515 153.970248 -29.460947
v 7.242584 164.644217 -29.460947
v 7.242584 172.651261 -17.897307
v -6.992073 171.762983 -17.897307
v -7.881832 164.644217 -29.460947
v 1.012793 156.639263 -32.132052
v -2.543280 153.970248 -29.460947
v 7.242584 162.867661 -26.794023
v -6.992073 174.431997 -18.789069
v 7.242584 174.431997 -19.676650
v -7.881832 161.979382 -26.794023
v 0.124515 153.970248 -32.132052
v 4.573308 171.762983 -17.897307
v -7.881832 170.872614 -18.789069
v 6.352826 163.755939 -30.352709
v -2.543280 153.970248 -32.132052
v -7.881832 170.872614 -23.235336
v 7.242584 174.431997 -17.897307
v -2.543280 156.639263 -32.132052
v 6.352826 161.979382 -30.352709
v -6.992073 174.431997 -17.897307
v 5.463067 160.200736 -27.681604
v -3.433039 162.867661 -30.352709
v -0.763763 153.079880 -31.240290
v -7.881832 173.541629 -18.789069
v -3.433039 154.860617 -30.352709
v 7.242584 165.532495 -24.127098
v 1.904032 155.748895 -30.352709
v 7.242584 162.867661 -29.460947
f 1199 1205 1206 
f 1177 1176 1182 
f 1178 1181 1184 
f 1179 1180 1185 
f 1180 1179 1187 
f 1175 1186 1187 
f 1182 1176 1188 
f 1178 1180 1190 
f 1181 1178 1190 
f 1180 1181 1190 
f 1184 1181 1191 
f 1182 1188 1191 
f 1188 1184 1191 
f 1175 1187 1192 
f 1187 1179 1192 
f 1176 1177 1193 
f 1183 1189 1193 
f 1186 1175 1194 
f 1182 1191 1194 
f 1175 1192 1194 
f 1192 1182 1194 
f 1181 1180 1195 
f 1180 1187 1195 
f 1187 1186 1195 
f 1177 1182 1196 
f 1192 1183 1196 
f 1193 1177 1196 
f 1183 1193 1196 
f 1189 1183 1197 
f 1183 1192 1197 
f 1192 1179 1197 
f 1191 1181 1198 
f 1181 1195 1198 
f 1195 1186 1198 
f 1182 1192 1200 
f 1196 1182 1200 
f 1192 1196 1200 
f 1178 1184 1201 
f 1184 1193 1201 
f 1193 1189 1201 
f 1186 1194 1202 
f 1194 1191 1202 
f 1191 1198 1202 
f 1198 1186 1202 
f 1188 1176 1203 
f 1184 1188 1203 
f 1176 1193 1203 
f 1193 1184 1203 
f 1180 1178 1204 
f 1185 1180 1204 
f 1178 1199 1204 
f 1199 1185 1204 
f 1199 1178 1205 
f 1178 1201 1205 
f 1201 1189 1205 
f 1179 1185 1206 
f 1197 1179 1206 
f 1189 1197 1206 
f 1185 1199 1206 
f 1205 1189 1206 
o convex_39
v -30.124230 84.575607 -27.679949
v -17.668219 88.133510 -7.221249
v -18.558848 88.133510 -7.221249
v -24.785940 89.023094 -26.791671
v -33.679433 89.022659 -15.230992
v -35.460692 84.575607 -17.011903
v -17.668219 86.355212 -17.011903
v -17.668219 86.355212 -7.221249
v -25.676569 84.575607 -28.570405
v -17.668219 89.023094 -20.565015
v -36.351321 85.465627 -19.676737
v -23.895310 89.023094 -10.780893
v -26.565370 88.133074 -27.679949
v -19.447649 87.244361 -23.232027
v -33.679433 89.022659 -17.011903
v -23.006509 89.023094 -26.791671
v -29.233601 87.243490 -12.561803
v -28.344800 85.465627 -29.463037
v -31.011202 84.575607 -19.676737
v -18.558848 86.355212 -7.221249
v -31.011202 85.465627 -26.789494
v -36.351321 84.575607 -19.676737
v -17.668219 87.244361 -20.565015
v -25.676569 84.575607 -26.789494
v -17.668219 89.023094 -17.895827
v -29.233601 89.022659 -12.561803
v -26.565370 84.575607 -29.463037
v -36.351321 85.465627 -17.900181
v -33.679433 86.355212 -15.230992
v -23.895310 86.355212 -27.682127
v -27.454170 89.022659 -25.010761
v -33.679433 84.575607 -17.011903
f 1225 1214 1238 
f 1208 1209 1214 
f 1213 1208 1214 
f 1213 1214 1215 
f 1212 1207 1215 
f 1208 1213 1216 
f 1209 1208 1218 
f 1210 1211 1218 
f 1216 1210 1218 
f 1211 1210 1221 
f 1217 1211 1221 
f 1210 1216 1222 
f 1219 1210 1222 
f 1216 1220 1222 
f 1219 1222 1224 
f 1212 1215 1225 
f 1214 1209 1226 
f 1212 1214 1226 
f 1209 1223 1226 
f 1217 1221 1227 
f 1224 1207 1227 
f 1219 1224 1227 
f 1207 1212 1228 
f 1227 1207 1228 
f 1217 1227 1228 
f 1213 1215 1229 
f 1216 1213 1229 
f 1215 1220 1229 
f 1220 1216 1229 
f 1215 1214 1230 
f 1214 1225 1230 
f 1225 1215 1230 
f 1208 1216 1231 
f 1218 1208 1231 
f 1216 1218 1231 
f 1209 1218 1232 
f 1218 1211 1232 
f 1223 1209 1232 
f 1211 1223 1232 
f 1215 1207 1233 
f 1207 1224 1233 
f 1224 1222 1233 
f 1211 1217 1234 
f 1228 1212 1234 
f 1217 1228 1234 
f 1223 1211 1235 
f 1212 1226 1235 
f 1226 1223 1235 
f 1211 1234 1235 
f 1234 1212 1235 
f 1220 1215 1236 
f 1222 1220 1236 
f 1215 1233 1236 
f 1233 1222 1236 
f 1210 1219 1237 
f 1221 1210 1237 
f 1227 1221 1237 
f 1219 1227 1237 
f 1214 1212 1238 
f 1212 1225 1238 
o convex_40
v -6.993064 138.847025 0.789120
v -2.543803 139.736770 5.232818
v -2.543803 138.847025 5.232818
v -21.225947 147.741081 21.246586
v -18.556024 147.741081 5.237520
v -14.110420 147.741081 14.129617
v -21.225947 145.962722 6.126259
v -21.225947 145.962722 21.246586
v -2.543803 138.847025 -2.772891
v -3.434387 137.066402 1.677860
v -19.444780 148.630826 20.355495
v -12.331081 146.851335 11.461047
v -21.225947 147.741081 6.126259
v -3.434387 137.957279 -2.772891
v -14.999175 146.851335 6.126259
v -3.434387 140.625383 2.568950
v -20.335363 145.962722 21.246586
v -2.543803 137.957279 4.344078
v -21.225947 148.630826 15.907096
v -6.993064 143.292355 8.794829
v -14.110420 147.741081 12.352138
v -19.444780 147.741081 5.237520
v -2.543803 137.066402 -0.101970
v -20.335363 148.630826 15.907096
v -4.324970 141.513996 5.232818
v -3.434387 137.066402 -0.101970
v -21.225947 148.630826 20.355495
v -3.434387 138.847025 -2.772891
v -14.110420 145.962722 4.348780
v -3.434387 137.957279 4.344078
v -20.335363 147.741081 21.246586
v -17.667269 147.741081 6.126259
f 1253 1267 1270 
f 1242 1245 1246 
f 1240 1241 1247 
f 1246 1245 1248 
f 1245 1242 1251 
f 1239 1245 1252 
f 1245 1251 1252 
f 1253 1250 1254 
f 1240 1247 1254 
f 1247 1253 1254 
f 1241 1240 1255 
f 1242 1246 1255 
f 1247 1241 1256 
f 1241 1255 1256 
f 1255 1246 1256 
f 1251 1242 1257 
f 1249 1240 1258 
f 1244 1249 1258 
f 1250 1244 1258 
f 1249 1244 1259 
f 1244 1250 1259 
f 1250 1253 1259 
f 1243 1247 1260 
f 1257 1243 1260 
f 1251 1257 1260 
f 1252 1247 1261 
f 1247 1256 1261 
f 1256 1248 1261 
f 1243 1257 1262 
f 1257 1249 1262 
f 1249 1259 1262 
f 1254 1250 1263 
f 1240 1254 1263 
f 1258 1240 1263 
f 1250 1258 1263 
f 1245 1239 1264 
f 1248 1245 1264 
f 1239 1252 1264 
f 1252 1261 1264 
f 1261 1248 1264 
f 1242 1249 1265 
f 1257 1242 1265 
f 1249 1257 1265 
f 1247 1252 1266 
f 1252 1251 1266 
f 1260 1247 1266 
f 1251 1260 1266 
f 1247 1243 1267 
f 1253 1247 1267 
f 1246 1248 1268 
f 1256 1246 1268 
f 1248 1256 1268 
f 1240 1249 1269 
f 1249 1242 1269 
f 1255 1240 1269 
f 1242 1255 1269 
f 1259 1253 1270 
f 1243 1262 1270 
f 1262 1259 1270 
f 1267 1243 1270 
o convex_41
v -12.328361 88.133858 -12.556782
v -17.668219 87.242880 -19.674996
v -17.668219 88.133858 -19.674996
v 4.570609 78.348951 -2.773940
v -17.668219 85.462057 -7.223346
v -1.655699 76.568128 -1.883640
v 6.352913 81.017356 1.675467
v -17.668219 88.133858 -7.223346
v -1.655699 76.568128 1.675467
v -1.655699 81.907202 1.675467
v -12.328361 88.133858 -15.225589
v -17.668219 86.351902 -17.894397
v 1.901855 76.568128 -1.883640
v 4.570609 80.126379 -2.773940
v -15.885915 86.351902 -18.784696
v 6.352913 79.237665 1.675467
v -16.777067 87.242880 -6.333047
v -16.777067 88.133858 -19.674996
v -16.777067 88.133858 -7.223346
v 1.901855 76.568128 1.675467
v 6.352913 81.017356 0.785167
v 1.901855 81.907202 1.675467
v -14.108314 88.133858 -9.890064
v -3.433300 77.457974 0.785167
v -17.668219 85.462057 -8.113645
v -16.777067 85.462057 -6.333047
v -16.777067 86.351902 -18.784696
v -5.213253 80.126379 -0.105132
v 3.681808 77.457974 -0.105132
v -16.777067 87.242880 -19.674996
v 6.352913 79.237665 0.785167
v -3.433300 77.457974 -0.993341
f 1294 1295 1302 
f 1273 1272 1275 
f 1271 1273 1278 
f 1273 1275 1278 
f 1279 1277 1280 
f 1273 1271 1281 
f 1271 1277 1281 
f 1275 1272 1282 
f 1279 1276 1283 
f 1274 1283 1285 
f 1283 1276 1285 
f 1277 1279 1286 
f 1278 1275 1287 
f 1280 1278 1287 
f 1272 1273 1288 
f 1273 1281 1288 
f 1284 1274 1288 
f 1281 1284 1288 
f 1271 1278 1289 
f 1278 1280 1289 
f 1279 1283 1290 
f 1286 1279 1290 
f 1281 1277 1291 
f 1274 1284 1291 
f 1284 1281 1291 
f 1277 1286 1291 
f 1280 1277 1292 
f 1277 1289 1292 
f 1289 1280 1292 
f 1277 1271 1293 
f 1271 1289 1293 
f 1289 1277 1293 
f 1276 1279 1294 
f 1275 1282 1295 
f 1282 1276 1295 
f 1294 1275 1295 
f 1287 1275 1296 
f 1275 1294 1296 
f 1282 1272 1297 
f 1276 1282 1297 
f 1272 1285 1297 
f 1285 1276 1297 
f 1279 1280 1298 
f 1280 1287 1298 
f 1294 1279 1298 
f 1287 1296 1298 
f 1296 1294 1298 
f 1283 1274 1299 
f 1290 1283 1299 
f 1286 1290 1299 
f 1285 1272 1300 
f 1274 1285 1300 
f 1272 1288 1300 
f 1288 1274 1300 
f 1274 1291 1301 
f 1291 1286 1301 
f 1299 1274 1301 
f 1286 1299 1301 
f 1276 1294 1302 
f 1295 1276 1302 
o convex_42
v 31.263716 80.121937 -34.802111
v 10.801270 87.242793 -26.795459
v 10.801270 87.242793 -25.906702
v 25.923771 67.671413 -41.026547
v 19.698508 81.012305 -41.026547
v 26.813094 89.021439 -25.906702
v 16.141215 89.021439 -33.911787
v 27.700414 83.685500 -27.685784
v 27.702417 68.563871 -39.247465
v 27.702417 69.452149 -41.918439
v 20.589834 76.570915 -41.918439
v 31.263716 79.233659 -36.581193
v 12.581920 89.021439 -31.242380
v 22.366478 79.233659 -41.918439
v 31.263716 77.461283 -33.911787
v 10.801270 89.021439 -25.906702
v 25.923771 89.021439 -27.685784
v 26.813094 86.352425 -25.906702
v 25.923771 68.563871 -39.247465
v 15.249889 84.573778 -35.690869
v 19.698508 84.573778 -37.469950
v 15.249889 87.240703 -35.690869
v 31.263716 76.570915 -36.581193
v 24.145124 79.233659 -41.026547
v 30.372390 81.906854 -33.911787
v 27.700414 87.242793 -26.795459
v 27.702417 68.563871 -41.918439
v 24.145124 70.342517 -41.026547
v 28.591740 82.795132 -28.574541
v 26.813094 83.685500 -27.685784
v 25.923771 67.671413 -40.137789
v 18.811188 79.233659 -40.137789
f 1322 1324 1334 
f 1305 1304 1306 
f 1308 1309 1315 
f 1313 1307 1316 
f 1312 1313 1316 
f 1314 1303 1317 
f 1304 1305 1318 
f 1305 1308 1318 
f 1315 1304 1318 
f 1308 1315 1318 
f 1309 1308 1319 
f 1308 1305 1320 
f 1311 1310 1321 
f 1304 1315 1322 
f 1307 1309 1323 
f 1316 1307 1323 
f 1309 1319 1323 
f 1309 1307 1324 
f 1315 1309 1324 
f 1322 1315 1324 
f 1312 1314 1325 
f 1317 1311 1325 
f 1314 1317 1325 
f 1314 1312 1326 
f 1312 1316 1326 
f 1316 1323 1326 
f 1323 1314 1326 
f 1308 1303 1327 
f 1303 1314 1327 
f 1319 1308 1327 
f 1314 1323 1327 
f 1323 1319 1327 
f 1303 1308 1328 
f 1317 1303 1328 
f 1308 1320 1328 
f 1311 1306 1329 
f 1306 1313 1329 
f 1313 1312 1329 
f 1325 1311 1329 
f 1312 1325 1329 
f 1306 1304 1330 
f 1304 1313 1330 
f 1313 1306 1330 
f 1310 1311 1331 
f 1311 1317 1331 
f 1320 1310 1331 
f 1317 1328 1331 
f 1328 1320 1331 
f 1320 1305 1332 
f 1310 1320 1332 
f 1305 1321 1332 
f 1321 1310 1332 
f 1305 1306 1333 
f 1306 1311 1333 
f 1321 1305 1333 
f 1311 1321 1333 
f 1313 1304 1334 
f 1307 1313 1334 
f 1304 1322 1334 
f 1324 1307 1334 
o convex_43
v 40.158864 77.456319 22.139741
v 33.934820 80.125334 32.811358
v 32.153561 80.125334 32.811358
v 37.491242 67.672893 30.143127
v 30.375960 81.904677 25.697382
v 41.050103 79.235662 24.807972
v 35.709983 82.795829 19.470204
v 39.268844 68.562565 31.032538
v 28.594701 82.795829 30.143127
v 38.380043 82.795829 22.139741
v 37.491242 68.562565 28.364307
v 32.153561 77.456319 32.811358
v 28.594701 81.904677 28.364307
v 36.600003 81.015005 19.470204
v 40.158864 70.341908 27.474896
v 31.264761 82.795829 31.032538
v 39.268844 71.231579 31.032538
v 38.380043 82.795829 19.470204
v 33.044801 81.904677 22.139741
v 34.822402 79.235662 32.811358
v 41.050103 78.345991 22.139741
v 39.268844 69.452236 27.474896
v 28.594701 81.904677 30.143127
v 41.050103 74.790265 25.697382
v 33.934820 75.676976 32.811358
v 30.375960 82.795829 25.697382
v 39.268844 67.672893 29.253717
v 36.600003 82.795829 24.807972
v 40.158864 70.341908 29.253717
v 40.158864 81.015005 21.250330
v 37.491242 68.562565 31.032538
v 40.158864 76.566648 27.474896
f 1354 1351 1366 
f 1341 1343 1344 
f 1336 1337 1346 
f 1337 1343 1346 
f 1345 1338 1347 
f 1339 1345 1347 
f 1337 1336 1350 
f 1343 1337 1350 
f 1344 1343 1350 
f 1341 1344 1352 
f 1348 1341 1352 
f 1345 1339 1353 
f 1341 1348 1353 
f 1348 1345 1353 
f 1340 1336 1354 
f 1336 1346 1354 
f 1342 1351 1354 
f 1335 1348 1355 
f 1348 1352 1355 
f 1348 1335 1356 
f 1345 1348 1356 
f 1335 1355 1356 
f 1355 1349 1356 
f 1338 1346 1357 
f 1346 1343 1357 
f 1343 1347 1357 
f 1347 1338 1357 
f 1349 1355 1358 
f 1355 1340 1358 
f 1354 1346 1359 
f 1342 1354 1359 
f 1343 1341 1360 
f 1347 1343 1360 
f 1339 1347 1360 
f 1353 1339 1360 
f 1341 1353 1360 
f 1342 1338 1361 
f 1338 1345 1361 
f 1345 1356 1361 
f 1356 1349 1361 
f 1336 1340 1362 
f 1340 1344 1362 
f 1350 1336 1362 
f 1344 1350 1362 
f 1340 1351 1363 
f 1351 1342 1363 
f 1349 1358 1363 
f 1358 1340 1363 
f 1342 1361 1363 
f 1361 1349 1363 
f 1344 1340 1364 
f 1352 1344 1364 
f 1340 1355 1364 
f 1355 1352 1364 
f 1338 1342 1365 
f 1346 1338 1365 
f 1342 1359 1365 
f 1359 1346 1365 
f 1351 1340 1366 
f 1340 1354 1366 
o convex_44
v 9.023234 84.574823 -7.224183
v 10.803709 87.243838 -25.903306
v 9.914734 87.243838 -25.011236
v 1.014883 78.348516 -4.554766
v 26.815358 87.243838 -25.903306
v 7.245284 88.133161 -16.117709
v 20.582432 89.023529 -17.897321
v 5.464809 79.237839 -2.772891
v 9.914734 89.023529 -25.011236
v 1.014883 80.129252 -2.772891
v 26.815358 89.023529 -25.903306
v 15.246057 88.133161 -12.558487
v 5.464809 86.352425 -15.227904
v 26.815358 87.243838 -25.011236
v 3.686859 78.348516 -3.664961
v 5.464809 81.018576 -2.772891
v 1.906384 81.906854 -5.444572
v 9.912208 88.133161 -14.338098
v 1.906384 81.906854 -7.224183
v 10.803709 89.023529 -25.903306
v 4.575834 81.906854 -3.664961
v 20.582432 87.243838 -17.897321
v 18.804482 89.023529 -17.897321
v 1.014883 78.348516 -2.772891
v 13.470633 88.133161 -12.558487
v 9.023234 86.354515 -23.233889
v 26.815358 89.023529 -25.011236
v 7.245284 88.133161 -18.787126
v 10.803709 89.023529 -23.233889
v 1.906384 80.129252 -7.224183
v 1.906384 78.348516 -4.554766
v 3.686859 78.348516 -2.772891
f 1390 1381 1398 
f 1370 1368 1371 
f 1368 1369 1375 
f 1371 1368 1377 
f 1375 1373 1377 
f 1371 1377 1380 
f 1371 1380 1381 
f 1376 1374 1382 
f 1378 1367 1382 
f 1374 1378 1382 
f 1372 1379 1383 
f 1372 1383 1384 
f 1370 1376 1385 
f 1376 1383 1385 
f 1383 1379 1385 
f 1368 1375 1386 
f 1377 1368 1386 
f 1375 1377 1386 
f 1382 1367 1387 
f 1376 1382 1387 
f 1383 1376 1387 
f 1384 1383 1387 
f 1373 1378 1388 
f 1378 1374 1388 
f 1374 1380 1388 
f 1380 1373 1388 
f 1373 1375 1389 
f 1378 1373 1389 
f 1374 1376 1390 
f 1376 1370 1390 
f 1370 1381 1390 
f 1367 1378 1391 
f 1387 1367 1391 
f 1384 1387 1391 
f 1378 1389 1391 
f 1389 1384 1391 
f 1369 1368 1392 
f 1368 1370 1392 
f 1375 1369 1392 
f 1379 1375 1392 
f 1385 1379 1392 
f 1377 1373 1393 
f 1373 1380 1393 
f 1380 1377 1393 
f 1372 1375 1394 
f 1375 1379 1394 
f 1379 1372 1394 
f 1375 1372 1395 
f 1372 1384 1395 
f 1389 1375 1395 
f 1384 1389 1395 
f 1370 1385 1396 
f 1392 1370 1396 
f 1385 1392 1396 
f 1370 1371 1397 
f 1381 1370 1397 
f 1371 1381 1397 
f 1380 1374 1398 
f 1381 1380 1398 
f 1374 1390 1398 
o convex_45
v -3.434868 145.070586 -13.447487
v -20.337234 146.851315 -20.566322
v -20.337234 148.630913 -20.566322
v -4.323146 137.957855 -2.776200
v -5.213514 145.070586 -18.784872
v -12.330190 146.851315 -12.559374
v 1.014883 137.065793 -3.666054
v -0.765853 139.736321 -2.776200
v -6.101792 147.739982 -19.674726
v -18.556497 145.961517 -20.566322
v -6.101792 141.515919 -4.555909
v -20.337234 148.630913 -19.676467
v -10.549453 147.739982 -15.225454
v -8.772897 145.961517 -20.566322
v 1.014883 138.846522 -4.555909
v -1.656221 137.065793 -3.666054
v -2.544499 141.515919 -12.557632
v -5.213514 146.850183 -16.115309
v -8.772897 145.072850 -9.891552
v -20.337234 146.851315 -19.676467
v 1.014883 138.846522 -2.776200
v -4.323146 145.960384 -17.003421
v -16.777851 148.630913 -20.566322
v -14.110926 147.739982 -14.339083
v -8.772897 147.739982 -20.566322
v -4.323146 139.736321 -2.776200
v 1.014883 137.065793 -2.776200
v -16.777851 148.630913 -19.676467
v -4.323146 137.957855 -3.666054
v -7.882529 146.850183 -14.335600
v -4.323146 141.515919 -4.555909
v -6.101792 147.739982 -18.784872
f 1426 1411 1430 
f 1400 1401 1408 
f 1401 1400 1410 
f 1407 1403 1412 
f 1408 1401 1412 
f 1414 1408 1415 
f 1412 1403 1415 
f 1408 1412 1415 
f 1403 1413 1415 
f 1413 1405 1415 
f 1405 1414 1415 
f 1406 1399 1416 
f 1404 1409 1417 
f 1411 1404 1417 
f 1400 1402 1418 
f 1402 1409 1418 
f 1410 1400 1418 
f 1409 1410 1418 
f 1399 1406 1419 
f 1406 1402 1419 
f 1405 1413 1419 
f 1413 1399 1419 
f 1403 1407 1420 
f 1413 1403 1420 
f 1399 1413 1420 
f 1401 1410 1421 
f 1412 1401 1421 
f 1409 1404 1422 
f 1410 1409 1422 
f 1404 1411 1422 
f 1407 1412 1423 
f 1421 1407 1423 
f 1412 1421 1423 
f 1402 1406 1424 
f 1409 1402 1424 
f 1406 1409 1424 
f 1402 1414 1425 
f 1414 1405 1425 
f 1419 1402 1425 
f 1405 1419 1425 
f 1421 1410 1426 
f 1407 1421 1426 
f 1410 1422 1426 
f 1422 1411 1426 
f 1402 1400 1427 
f 1400 1408 1427 
f 1414 1402 1427 
f 1408 1414 1427 
f 1406 1416 1428 
f 1416 1411 1428 
f 1411 1417 1428 
f 1428 1417 1429 
f 1409 1406 1429 
f 1417 1409 1429 
f 1406 1428 1429 
f 1416 1399 1430 
f 1411 1416 1430 
f 1420 1407 1430 
f 1399 1420 1430 
f 1407 1426 1430 
o convex_46
v -1.654131 109.482840 -6.331577
v 1.904207 126.389734 1.675467
v 2.794226 109.482840 0.785098
v -1.654131 65.892069 1.675467
v 2.794226 109.482840 -6.331577
v 1.904207 65.892069 -1.883655
v -1.654131 126.389734 1.675467
v 1.904207 65.892069 1.675467
v -1.654131 65.892069 -1.883655
v -1.654131 126.389734 -1.883655
v 1.904207 126.389734 -1.883655
v 2.794226 111.265318 -6.331577
v -1.654131 111.265318 -6.331577
v 2.794226 107.706283 0.785098
v 2.794226 107.706283 -1.883655
v 2.794226 111.265318 -4.551624
v 2.794226 108.594562 -4.551624
f 1445 1436 1447 
f 1434 1432 1437 
f 1431 1434 1437 
f 1433 1432 1438 
f 1432 1434 1438 
f 1434 1436 1438 
f 1434 1431 1439 
f 1431 1435 1439 
f 1435 1436 1439 
f 1436 1434 1439 
f 1437 1432 1440 
f 1431 1437 1440 
f 1440 1432 1441 
f 1440 1441 1442 
f 1435 1431 1442 
f 1433 1435 1442 
f 1441 1432 1442 
f 1431 1440 1443 
f 1440 1442 1443 
f 1442 1431 1443 
f 1435 1433 1444 
f 1433 1438 1444 
f 1444 1438 1445 
f 1438 1436 1445 
f 1435 1444 1445 
f 1432 1433 1446 
f 1433 1442 1446 
f 1442 1432 1446 
f 1436 1435 1447 
f 1435 1445 1447 
o convex_47
v 1.904555 141.513541 7.903167
v -1.653783 135.287059 -1.882523
v 1.904555 135.287059 -1.882523
v -1.653783 141.513541 -1.882523
v -2.543803 137.956248 4.343785
v 1.904555 141.513541 -1.882523
v 1.904555 135.287059 1.675815
v -2.543803 138.844352 -2.772891
v -2.543803 139.734285 4.343785
v 1.014535 139.734285 7.903167
v -1.653783 135.287059 1.675815
v 1.904555 136.176992 -2.772891
v -1.653783 141.513541 1.675815
v -2.543803 137.066315 -2.772891
v 1.014535 141.513541 7.903167
v 1.904555 138.844352 7.012799
v 1.904555 137.956248 -2.772891
v -2.543803 137.066315 3.454461
v 1.014535 138.844352 7.012799
v 0.124951 138.844352 -2.772891
v 1.904555 139.734285 7.903167
v 0.124951 136.176992 -2.772891
v -2.543803 139.734285 2.565138
f 1455 1456 1470 
f 1448 1450 1453 
f 1451 1448 1453 
f 1450 1448 1454 
f 1449 1450 1454 
f 1451 1453 1455 
f 1455 1452 1456 
f 1456 1452 1457 
f 1449 1454 1458 
f 1450 1449 1459 
f 1453 1450 1459 
f 1448 1451 1460 
f 1451 1456 1460 
f 1452 1455 1461 
f 1449 1458 1461 
f 1455 1459 1461 
f 1457 1448 1462 
f 1456 1457 1462 
f 1448 1460 1462 
f 1460 1456 1462 
f 1454 1448 1463 
f 1458 1454 1463 
f 1453 1459 1464 
f 1459 1455 1464 
f 1457 1452 1465 
f 1452 1461 1465 
f 1461 1458 1465 
f 1463 1457 1466 
f 1458 1463 1466 
f 1457 1465 1466 
f 1465 1458 1466 
f 1455 1453 1467 
f 1453 1464 1467 
f 1464 1455 1467 
f 1448 1457 1468 
f 1463 1448 1468 
f 1457 1463 1468 
f 1459 1449 1469 
f 1449 1461 1469 
f 1461 1459 1469 
f 1451 1455 1470 
f 1456 1451 1470 
