v -16.0115048289299 16.380129698297402 -9.491505162282008
v -15.75452983379364 15.790719799928656 -12.117387691834852
v -24.84254539012909 42.7720740571343 -9.064127022700546
v -24.31299090385437 42.62403133892351 -7.110721856750829
v -15.75452983379364 15.790719799928656 -12.117387691834852
v -16.0115048289299 16.380129698297402 -9.491505162282008
v -5.004393309354782 -0.3355857564608978 -9.50211877123887
v -4.374706745147705 -0.3263248575156186 -12.848935968163246
v -24.31299090385437 42.62403133892351 -7.110721856750829
v -24.84254539012909 42.7720740571343 -9.064127022700546
v -25.07593035697937 63.29736583486088 -7.74050343121294
v -24.687673151493073 63.183729817120806 -6.2825901927705035
v -16.6737899184227 15.634968804447071 -9.590606703515697
v -25.035256147384644 42.537986102581 -6.933609621014442
v -25.564342737197876 42.690508110054346 -8.885739993353793
v -16.41106605529785 15.049948788137995 -12.21666134219553
v -16.41106605529785 15.049948788137995 -12.21666134219553
v -5.115851387381554 -0.9272697114109958 -12.983529118624217
v -5.7455651462078094 -0.9365473741621324 -9.63670894146487
v -16.6737899184227 15.634968804447071 -9.590606703515697
v -25.035256147384644 42.537986102581 -6.933609621014442
v -25.442159175872803 63.14092179343136 -6.0850201598753175
v -25.830423831939697 63.25456973210112 -7.542928927971339
v -25.564342737197876 42.690508110054346 -8.885739993353793
v -16.0115048289299 16.380129698297402 -9.491505162282008
v -24.31299090385437 42.62403133892351 -7.110721856750829
v -25.035256147384644 42.537986102581 -6.933609621014442
v -16.6737899184227 15.634968804447071 -9.590606703515697
v -24.84254539012909 42.7720740571343 -9.064127022700546
v -15.75452983379364 15.790719799928656 -12.117387691834852
v -16.41106605529785 15.049948788137995 -12.21666134219553
v -25.564342737197876 42.690508110054346 -8.885739993353793
v -15.75452983379364 15.790719799928656 -12.117387691834852
v -4.374706745147705 -0.3263248575156186 -12.848935968163246
v -5.115851387381554 -0.9272697114109958 -12.983529118624217
v -16.41106605529785 15.049948788137995 -12.21666134219553
v -5.004393309354782 -0.3355857564608978 -9.50211877123887
v -16.0115048289299 16.380129698297402 -9.491505162282008
v -16.6737899184227 15.634968804447071 -9.590606703515697
v -5.7455651462078094 -0.9365473741621324 -9.63670894146487
v -24.687673151493073 63.183729817120806 -6.2825901927705035
v -25.07593035697937 63.29736583486088 -7.74050343121294
v -25.830423831939697 63.25456973210112 -7.542928927971339
v -25.442159175872803 63.14092179343136 -6.0850201598753175
v -24.31299090385437 42.62403133892351 -7.110721856750829
v -24.687673151493073 63.183729817120806 -6.2825901927705035
v -25.442159175872803 63.14092179343136 -6.0850201598753175
v -25.035256147384644 42.537986102581 -6.933609621014442
v -25.07593035697937 63.29736583486088 -7.74050343121294
v -24.84254539012909 42.7720740571343 -9.064127022700546
v -25.564342737197876 42.690508110054346 -8.885739993353793
v -25.830423831939697 63.25456973210112 -7.542928927971339
v -6.3421666622161865 13.169639268793338 -24.63835394366477
v -3.701367601752281 13.176304525507238 -24.838992119761365
v -13.423436880111694 33.479023369361286 -34.19357487619428
v -15.245012938976288 33.40405577209416 -33.30541797311135
v -3.701367601752281 13.176304525507238 -24.838992119761365
v -6.3421666622161865 13.169639268793338 -24.63835394366477
v -3.9087146520614624 0.01715476767005234 -10.337978604250829
v -0.5082793533802032 0.017154395141022495 -10.337978604250768
v -15.245012938976288 33.40405577209416 -33.30541797311135
v -13.423436880111694 33.479023369361286 -34.19357487619428
v -15.896545350551605 53.18077174838847 -38.53527875911994
v -17.255578935146332 53.12485077861646 -37.872647953576745
v -6.360549479722977 12.59372120113391 -25.30399170059724
v -15.549728274345398 33.15622550958703 -33.98056570457002
v -13.729706406593323 33.23518959816205 -34.86948554775719
v -3.7182003259658813 12.599088567888664 -25.497381951677692
v -3.7182003259658813 12.599088567888664 -25.497381951677692
v -0.5082797259092331 -0.5828421003184311 -11.089277172499319
v -3.9087146520614624 -0.5828421003184311 -11.089277172499319
v -6.360549479722977 12.59372120113391 -25.30399170059724
v -15.549728274345398 33.15622550958703 -33.98056570457002
v -17.581048607826233 52.933305180771406 -38.55638472351749
v -16.222019493579865 52.989238071470915 -39.21902446975934
v -13.729706406593323 33.23518959816205 -34.86948554775719
v -6.3421666622161865 13.169639268793338 -24.63835394366477
v -15.245012938976288 33.40405577209416 -33.30541797311135
v -15.549728274345398 33.15622550958703 -33.98056570457002
v -6.360549479722977 12.59372120113391 -25.30399170059724
v -13.423436880111694 33.479023369361286 -34.19357487619428
v -3.701367601752281 13.176304525507238 -24.838992119761365
v -3.7182003259658813 12.599088567888664 -25.497381951677692
v -13.729706406593323 33.23518959816205 -34.86948554775719
v -3.701367601752281 13.176304525507238 -24.838992119761365
v -0.5082793533802032 0.017154395141022495 -10.337978604250768
v -0.5082797259092331 -0.5828421003184311 -11.089277172499319
v -3.7182003259658813 12.599088567888664 -25.497381951677692
v -3.9087146520614624 0.01715476767005234 -10.337978604250829
v -6.3421666622161865 13.169639268793338 -24.63835394366477
v -6.360549479722977 12.59372120113391 -25.30399170059724
v -3.9087146520614624 -0.5828421003184311 -11.089277172499319
v -17.255578935146332 53.12485077861646 -37.872647953576745
v -15.896545350551605 53.18077174838847 -38.53527875911994
v -16.222019493579865 52.989238071470915 -39.21902446975934
v -17.581048607826233 52.933305180771406 -38.55638472351749
v -15.245012938976288 33.40405577209416 -33.30541797311135
v -17.255578935146332 53.12485077861646 -37.872647953576745
v -17.581048607826233 52.933305180771406 -38.55638472351749
v -15.549728274345398 33.15622550958703 -33.98056570457002
v -15.896545350551605 53.18077174838847 -38.53527875911994
v -13.423436880111694 33.479023369361286 -34.19357487619428
v -13.729706406593323 33.23518959816205 -34.86948554775719
v -16.222019493579865 52.989238071470915 -39.21902446975934
v -3.875577077269554 17.96769765085988 -2.008095703250434
v -3.4861236810684204 71.26092821731845 -5.464926050987597
v -1.6309753060340881 71.36557011109309 -5.591325167862742
v -1.128653809428215 17.967375785782703 -2.008067390991727
v -1.1149503290653229 17.983808942950056 -1.0468463841761286
v -3.861904516816139 17.983808942950116 -1.0468460116470988
v -3.9087146520614624 -0.13675884755869286 -2.826344199549599
v -0.5082792602479458 -0.13675894069091998 -2.826344013285069
v -10.74105054140091 59.81974497266236 -6.41290774992861
v -11.840246617794037 58.48593600450759 -6.837832025459558
v -11.076538264751434 56.86978588692793 -6.695537593682991
v -3.0741140246391296 56.45392459138561 -4.786291975298059
v -2.832917869091034 58.81069228463937 -4.54792593422686
v -3.861904516816139 17.983808942950116 -1.0468460116470988
v -3.4202441573143005 71.25115917230788 -4.50575916497369
v -3.4861236810684204 71.26092821731845 -5.464926050987597
v -3.875577077269554 17.96769765085988 -2.008095703250434
v -1.128653809428215 17.967375785782703 -2.008067390991727
v -0.5082792602479458 -0.042802618646091174 -3.783222280919964
v -3.9087146520614624 -0.042802711778348636 -3.783222280919949
v -3.875577077269554 17.96769765085988 -2.008095703250434
v -10.506601631641388 59.88788485106269 -7.342850488118957
v -2.5984659790992737 58.87882620257547 -5.477867182300117
v -2.8396621346473694 56.522058509321944 -5.7162317332551975
v -10.842090845108032 56.93791980486353 -7.625481821988487
v -11.605799198150635 58.55406992244369 -7.767773273532815
v -1.5651002526283264 71.3557951056183 -4.632156791731744
v -1.1149503290653229 17.983808942950056 -1.0468463841761286
v -1.128653809428215 17.967375785782703 -2.008067390991727
v -1.6309753060340881 71.36557011109309 -5.591325167862742
v -1.1149503290653229 17.983808942950056 -1.0468463841761286
v -0.5082792602479458 -0.13675894069091998 -2.826344013285069
v -0.5082792602479458 -0.042802618646091174 -3.783222280919964
v -1.128653809428215 17.967375785782703 -2.008067390991727
v -3.9087146520614624 -0.13675884755869286 -2.826344199549599
v -3.861904516816139 17.983808942950116 -1.0468460116470988
v -3.875577077269554 17.96769765085988 -2.008095703250434
v -3.9087146520614624 -0.042802711778348636 -3.783222280919949
v -3.4202441573143005 71.25115917230788 -4.50575916497369
v -1.5651002526283264 71.3557951056183 -4.632156791731744
v -1.6309753060340881 71.36557011109309 -5.591325167862742
v -3.4861236810684204 71.26092821731845 -5.464926050987597
v -11.840246617794037 58.48593600450759 -6.837832025459558
v -10.74105054140091 59.81974497266236 -6.41290774992861
v -10.506601631641388 59.88788485106269 -7.342850488118957
v -11.605799198150635 58.55406992244369 -7.767773273532815
v -11.076538264751434 56.86978588692793 -6.695537593682991
v -11.840246617794037 58.48593600450759 -6.837832025459558
v -11.605799198150635 58.55406992244369 -7.767773273532815
v -10.842090845108032 56.93791980486353 -7.625481821988487
v -1.1149503290653229 17.983808942950056 -1.0468463841761286
v -1.5651002526283264 71.3557951056183 -4.632156791731744
v -3.4202441573143005 71.25115917230788 -4.50575916497369
v -3.861904516816139 17.983808942950116 -1.0468460116470988
v -3.0741140246391296 56.45392459138561 -4.786291975298059
v -11.076538264751434 56.86978588692793 -6.695537593682991
v -10.842090845108032 56.93791980486353 -7.625481821988487
v -2.8396621346473694 56.522058509321944 -5.7162317332551975
v -2.832917869091034 58.81069228463937 -4.54792593422686
v -3.0741140246391296 56.45392459138561 -4.786291975298059
v -2.8396621346473694 56.522058509321944 -5.7162317332551975
v -2.5984659790992737 58.87882620257547 -5.477867182300117
v 7.059630751609802 28.02318886558816 -2.7048238573870678
v 8.036519587039948 29.510342627004455 -2.7485455967340364
v 7.053752243518829 31.004213860839773 -2.6145560887775887
v -1.1529073119163513 30.312740404831136 -2.4425049338039155
v -1.1247068643569946 27.932482551087684 -2.4966322689892855
v 7.028703391551971 28.046571611219864 -3.665497998073686
v -1.1556349694728851 27.955871257183503 -3.4573086448510537
v -1.1838346719741821 30.336129110927075 -3.4031805646076245
v 7.022825628519058 31.02759958670335 -3.5752324646388716
v 8.005590736865997 29.533731333100636 -3.709219737421626
v 8.036519587039948 29.510342627004455 -2.7485455967340364
v 7.059630751609802 28.02318886558816 -2.7048238573870678
v 7.028703391551971 28.046571611219864 -3.665497998073686
v 8.005590736865997 29.533731333100636 -3.709219737421626
v 7.053752243518829 31.004213860839773 -2.6145560887775887
v 8.036519587039948 29.510342627004455 -2.7485455967340364
v 8.005590736865997 29.533731333100636 -3.709219737421626
v 7.022825628519058 31.02759958670335 -3.5752324646388716
v -10.74105054140091 59.81974497266236 -6.41290774992861
v -2.832917869091034 58.81069228463937 -4.54792593422686
v -2.5984659790992737 58.87882620257547 -5.477867182300117
v -10.506601631641388 59.88788485106269 -7.342850488118957
v -1.1529073119163513 30.312740404831136 -2.4425049338039155
v 7.053752243518829 31.004213860839773 -2.6145560887775887
v 7.022825628519058 31.02759958670335 -3.5752324646388716
v -1.1838346719741821 30.336129110927075 -3.4031805646076245
v -1.1247068643569946 27.932482551087684 -2.4966322689892855
v -1.1529073119163513 30.312740404831136 -2.4425049338039155
v -1.1838346719741821 30.336129110927075 -3.4031805646076245
v -1.1556349694728851 27.955871257183503 -3.4573086448510537
v 7.059630751609802 28.02318886558816 -2.7048238573870678
v -1.1247068643569946 27.932482551087684 -2.4966322689892855
v -1.1556349694728851 27.955871257183503 -3.4573086448510537
v 7.028703391551971 28.046571611219864 -3.665497998073686
f 1 2 3
f 1 3 4
f 5 6 7
f 5 7 8
f 9 10 11
f 9 11 12
f 13 14 15
f 13 15 16
f 17 18 19
f 17 19 20
f 21 22 23
f 21 23 24
f 25 26 27
f 25 27 28
f 29 30 31
f 29 31 32
f 33 34 35
f 33 35 36
f 37 38 39
f 37 39 40
f 41 42 43
f 41 43 44
f 45 46 47
f 45 47 48
f 49 50 51
f 49 51 52
f 53 54 55
f 53 55 56
f 57 58 59
f 57 59 60
f 61 62 63
f 61 63 64
f 65 66 67
f 65 67 68
f 69 70 71
f 69 71 72
f 73 74 75
f 73 75 76
f 77 78 79
f 77 79 80
f 81 82 83
f 81 83 84
f 85 86 87
f 85 87 88
f 89 90 91
f 89 91 92
f 93 94 95
f 93 95 96
f 97 98 99
f 97 99 100
f 101 102 103
f 101 103 104
f 105 106 107
f 105 107 108
f 109 110 111
f 109 111 112
f 117 113 114
f 117 114 115
f 115 116 117
f 118 119 120
f 118 120 121
f 122 123 124
f 122 124 125
f 130 126 127
f 130 127 128
f 128 129 130
f 131 132 133
f 131 133 134
f 135 136 137
f 135 137 138
f 139 140 141
f 139 141 142
f 143 144 145
f 143 145 146
f 147 148 149
f 147 149 150
f 151 152 153
f 151 153 154
f 155 156 157
f 155 157 158
f 159 160 161
f 159 161 162
f 163 164 165
f 163 165 166
f 171 167 168
f 171 168 169
f 169 170 171
f 176 172 173
f 176 173 174
f 174 175 176
f 177 178 179
f 177 179 180
f 181 182 183
f 181 183 184
f 185 186 187
f 185 187 188
f 189 190 191
f 189 191 192
f 193 194 195
f 193 195 196
f 197 198 199
f 197 199 200
v -21.80361896753311 62.792144318357984 -11.585673489168428
v -27.293899655342102 62.41518097240485 -9.931713080577664
v -29.593098163604736 63.64287538908346 -11.97659516087788
v -21.222281455993652 64.2106330940501 -14.299055964379761
v -27.058884501457214 63.43193025896667 -1.7372085679775697
v -17.848682403564453 64.0428059904234 -3.8972616226525196
v -19.235216081142426 70.3844968457824 2.4266798862311845
v -23.83424937725067 70.07761655599971 3.5579537423234826
v -25.51203966140747 70.76602270140235 -18.90632322005625
v -30.034464597702026 70.45401049637772 -17.50084713553538
v -28.150099515914917 71.63929630142039 -18.974151957968854
v -25.714045763015747 62.31688187757635 -4.497565050970797
v -20.316345989704132 62.67640496059559 -5.807018060499014
v -17.848682403564453 64.0428059904234 -3.8972616226525196
v -27.058884501457214 63.43193025896667 -1.7372085679775697
v -17.688049376010895 64.08910670628012 -4.9542471872752065
v -20.081008970737457 64.27088745776788 -14.125263731192593
v -14.355334639549255 71.20859410797011 -13.022195973301027
v -13.107843697071075 71.12091642140959 -8.443869316503124
v -23.83424937725067 70.07761655599971 3.5579537423234826
v -19.235216081142426 70.3844968457824 2.4266798862311845
v -21.325230598449707 71.23739186097401 3.851738887005534
v -20.316345989704132 62.67640496059559 -5.807018060499014
v -21.80361896753311 62.792144318357984 -11.585673489168428
v -20.081008970737457 64.27088745776788 -14.125263731192593
v -17.688049376010895 64.08910670628012 -4.9542471872752065
v -30.041268467903137 63.59143073843119 -11.250761080860263
v -28.162848949432373 63.37561575405341 -1.9614248411704847
v -34.59981679916382 69.67930745838731 -2.941533354420254
v -35.5903685092926 69.78409166789181 -7.581893548055155
v -13.107843697071075 71.12091642140959 -8.443869316503124
v -14.355334639549255 71.20859410797011 -13.022195973301027
v -12.975087761878967 72.24171578744667 -10.984092799561584
v -27.293899655342102 62.41518097240485 -9.931713080577664
v -25.714045763015747 62.31688187757635 -4.497565050970797
v -28.162848949432373 63.37561575405341 -1.9614248411704847
v -30.041268467903137 63.59143073843119 -11.250761080860263
v -21.129201352596283 64.82809556711908 -13.829825949563489
v -25.34569799900055 71.18478715814747 -18.268303249676887
v -29.868245124816895 70.87335311812035 -16.86317585242215
v -29.49775457382202 64.254997287041 -11.500856317982043
v -35.5903685092926 69.78409166789181 -7.581893548055155
v -34.59981679916382 69.67930745838731 -2.941533354420254
v -35.98490357398987 70.69454111893617 -4.985358907777576
v -21.93790376186371 63.54525499125996 -11.427925449119297
v -21.129201352596283 64.82809556711908 -13.829825949563489
v -29.49775457382202 64.254997287041 -11.500856317982043
v -27.20014750957489 63.18408090640072 -9.831091624769783
v -27.204754948616028 64.0597578314292 -2.178439503794101
v -24.012848734855652 70.5202763101599 2.9396851207627477
v -19.413775205612183 70.82771092320405 1.8088106157001338
v -17.994818091392517 64.66946531159827 -4.340027377881685
v -25.34569799900055 71.18478715814747 -18.268303249676887
v -28.00176739692688 72.13295994645595 -18.3872876861706
v -29.868245124816895 70.87335311812035 -16.86317585242215
v -25.68732500076294 63.08970376286533 -4.607678797637522
v -27.204754948616028 64.0597578314292 -2.178439503794101
v -17.994818091392517 64.66946531159827 -4.340027377881685
v -20.495621860027313 63.433926341008245 -5.871480607239498
v -18.177984654903412 64.68120734930335 -4.8145876405674235
v -13.761304318904877 71.5079770933776 -8.261415091557476
v -15.008465945720673 71.59624486591193 -12.839799862980176
v -20.576705038547516 64.85780845739536 -13.984160261121255
v -24.012848734855652 70.5202763101599 2.9396851207627477
v -21.49764448404312 71.75257855619016 3.290511898678711
v -19.413775205612183 70.82771092320405 1.8088106157001338
v -20.495621860027313 63.433926341008245 -5.871480607239498
v -18.177984654903412 64.68120734930335 -4.8145876405674235
v -20.576705038547516 64.85780845739536 -13.984160261121255
v -21.93790376186371 63.54525499125996 -11.427925449119297
v -29.621616005897522 64.24600297475881 -11.325222289989275
v -34.978389739990234 70.25517099834632 -7.698903502962291
v -33.9882493019104 70.15094707251338 -3.0584777443094193
v -27.745258808135986 64.03153505541097 -2.0355299127664277
v -13.761304318904877 71.5079770933776 -8.261415091557476
v -13.57872188091278 72.70616116824274 -10.810746176945187
v -15.008465945720673 71.59624486591193 -12.839799862980176
v -27.20014750957489 63.18408090640072 -9.831091624769783
v -29.621616005897522 64.24600297475881 -11.325222289989275
v -27.745258808135986 64.03153505541097 -2.0355299127664277
v -25.68732500076294 63.08970376286533 -4.607678797637522
v -21.222281455993652 64.2106330940501 -14.299055964379761
v -25.51203966140747 70.76602270140235 -18.90632322005625
v -25.34569799900055 71.18478715814747 -18.268303249676887
v -21.129201352596283 64.82809556711908 -13.829825949563489
v -34.978389739990234 70.25517099834632 -7.698903502962291
v -35.43192744255066 71.23593009019287 -5.0911661811540725
v -33.9882493019104 70.15094707251338 -3.0584777443094193
v -20.495621860027313 63.433926341008245 -5.871480607239498
v -21.757890284061432 63.72021328669842 -6.630319307446034
v -24.981243908405304 63.50314522055895 -5.837273512880087
v -25.68732500076294 63.08970376286533 -4.607678797637522
v -27.20014750957489 63.18408090640072 -9.831091624769783
v -25.919002294540405 63.56355996029633 -9.07938472877767
v -22.64358252286911 63.78986671656471 -10.055410823844769
v -21.93790376186371 63.54525499125996 -11.427925449119297
v -25.68732500076294 63.08970376286533 -4.607678797637522
v -24.981243908405304 63.50314522055895 -5.837273512880087
v -25.919002294540405 63.56355996029633 -9.07938472877767
v -27.20014750957489 63.18408090640072 -9.831091624769783
v -21.93790376186371 63.54525499125996 -11.427925449119297
v -22.64358252286911 63.78986671656471 -10.055410823844769
v -21.757890284061432 63.72021328669842 -6.630319307446034
v -20.495621860027313 63.433926341008245 -5.871480607239498
v -21.80361896753311 62.792144318357984 -11.585673489168428
v -21.222281455993652 64.2106330940501 -14.299055964379761
v -21.129201352596283 64.82809556711908 -13.829825949563489
v -21.93790376186371 63.54525499125996 -11.427925449119297
v -29.593098163604736 63.64287538908346 -11.97659516087788
v -27.293899655342102 62.41518097240485 -9.931713080577664
v -27.20014750957489 63.18408090640072 -9.831091624769783
v -29.49775457382202 64.254997287041 -11.500856317982043
v -30.034464597702026 70.45401049637772 -17.50084713553538
v -29.593098163604736 63.64287538908346 -11.97659516087788
v -29.49775457382202 64.254997287041 -11.500856317982043
v -29.868245124816895 70.87335311812035 -16.86317585242215
v -27.058884501457214 63.43193025896667 -1.7372085679775697
v -23.83424937725067 70.07761655599971 3.5579537423234826
v -24.012848734855652 70.5202763101599 2.9396851207627477
v -27.204754948616028 64.0597578314292 -2.178439503794101
v -28.150099515914917 71.63929630142039 -18.974151957968854
v -30.034464597702026 70.45401049637772 -17.50084713553538
v -29.868245124816895 70.87335311812035 -16.86317585242215
v -28.00176739692688 72.13295994645595 -18.3872876861706
v -25.51203966140747 70.76602270140235 -18.90632322005625
v -28.150099515914917 71.63929630142039 -18.974151957968854
v -28.00176739692688 72.13295994645595 -18.3872876861706
v -25.34569799900055 71.18478715814747 -18.268303249676887
v -25.714045763015747 62.31688187757635 -4.497565050970797
v -27.058884501457214 63.43193025896667 -1.7372085679775697
v -27.204754948616028 64.0597578314292 -2.178439503794101
v -25.68732500076294 63.08970376286533 -4.607678797637522
v -17.848682403564453 64.0428059904234 -3.8972616226525196
v -20.316345989704132 62.67640496059559 -5.807018060499014
v -20.495621860027313 63.433926341008245 -5.871480607239498
v -17.994818091392517 64.66946531159827 -4.340027377881685
v -19.235216081142426 70.3844968457824 2.4266798862311845
v -17.848682403564453 64.0428059904234 -3.8972616226525196
v -17.994818091392517 64.66946531159827 -4.340027377881685
v -19.413775205612183 70.82771092320405 1.8088106157001338
v -17.688049376010895 64.08910670628012 -4.9542471872752065
v -13.107843697071075 71.12091642140959 -8.443869316503124
v -13.761304318904877 71.5079770933776 -8.261415091557476
v -18.177984654903412 64.68120734930335 -4.8145876405674235
v -21.325230598449707 71.23739186097401 3.851738887005534
v -19.235216081142426 70.3844968457824 2.4266798862311845
v -19.413775205612183 70.82771092320405 1.8088106157001338
v -21.49764448404312 71.75257855619016 3.290511898678711
v -23.83424937725067 70.07761655599971 3.5579537423234826
v -21.325230598449707 71.23739186097401 3.851738887005534
v -21.49764448404312 71.75257855619016 3.290511898678711
v -24.012848734855652 70.5202763101599 2.9396851207627477
v -20.081008970737457 64.27088745776788 -14.125263731192593
v -21.80361896753311 62.792144318357984 -11.585673489168428
v -21.93790376186371 63.54525499125996 -11.427925449119297
v -20.576705038547516 64.85780845739536 -13.984160261121255
v -14.355334639549255 71.20859410797011 -13.022195973301027
v -20.081008970737457 64.27088745776788 -14.125263731192593
v -20.576705038547516 64.85780845739536 -13.984160261121255
v -15.008465945720673 71.59624486591193 -12.839799862980176
v -30.041268467903137 63.59143073843119 -11.250761080860263
v -35.5903685092926 69.78409166789181 -7.581893548055155
v -34.978389739990234 70.25517099834632 -7.698903502962291
v -29.621616005897522 64.24600297475881 -11.325222289989275
v -12.975087761878967 72.24171578744667 -10.984092799561584
v -14.355334639549255 71.20859410797011 -13.022195973301027
v -15.008465945720673 71.59624486591193 -12.839799862980176
v -13.57872188091278 72.70616116824274 -10.810746176945187
v -13.107843697071075 71.12091642140959 -8.443869316503124
v -12.975087761878967 72.24171578744667 -10.984092799561584
v -13.57872188091278 72.70616116824274 -10.810746176945187
v -13.761304318904877 71.5079770933776 -8.261415091557476
v -28.162848949432373 63.37561575405341 -1.9614248411704847
v -25.714045763015747 62.31688187757635 -4.497565050970797
v -25.68732500076294 63.08970376286533 -4.607678797637522
v -27.745258808135986 64.03153505541097 -2.0355299127664277
v -20.316345989704132 62.67640496059559 -5.807018060499014
v -17.688049376010895 64.08910670628012 -4.9542471872752065
v -18.177984654903412 64.68120734930335 -4.8145876405674235
v -20.495621860027313 63.433926341008245 -5.871480607239498
v -34.59981679916382 69.67930745838731 -2.941533354420254
v -28.162848949432373 63.37561575405341 -1.9614248411704847
v -27.745258808135986 64.03153505541097 -2.0355299127664277
v -33.9882493019104 70.15094707251338 -3.0584777443094193
v -8.812738209962845 54.916638200464014 -36.188849813145765
v -12.547458708286285 52.69870641596636 -43.73334312703095
v -7.527542859315872 59.36897236226279 -46.4558370278193
v -5.361891537904739 60.57447696225795 -42.40838978121239
v -35.98490357398987 70.69454111893617 -4.985358907777576
v -34.59981679916382 69.67930745838731 -2.941533354420254
v -33.9882493019104 70.15094707251338 -3.0584777443094193
v -35.43192744255066 71.23593009019287 -5.0911661811540725
v -35.5903685092926 69.78409166789181 -7.581893548055155
v -35.98490357398987 70.69454111893617 -4.985358907777576
v -35.43192744255066 71.23593009019287 -5.0911661811540725
v -34.978389739990234 70.25517099834632 -7.698903502962291
v -27.293899655342102 62.41518097240485 -9.931713080577664
v -30.041268467903137 63.59143073843119 -11.250761080860263
v -29.621616005897522 64.24600297475881 -11.325222289989275
v -27.20014750957489 63.18408090640072 -9.831091624769783
v -11.513574421405792 53.374970056912375 -35.98568713025922
v -14.091373980045319 51.91398192528281 -40.909227246009195
v -12.547458708286285 52.69870641596636 -43.73334312703095
v -8.812738209962845 54.916638200464014 -36.188849813145765
v -22.155079245567322 52.84431531254638 -39.37626447929815
v -18.43377947807312 55.26566000372245 -31.00036388997462
v -25.20531415939331 61.1287183460333 -32.379786198528244
v -27.115195989608765 59.917116170510134 -36.55224822609364
v -5.361891537904739 60.57447696225795 -42.40838978121239
v -7.527542859315872 59.36897236226279 -46.4558370278193
v -5.804099887609482 60.91846684461297 -45.131019742002536
v -19.149386882781982 52.050369686694914 -38.37279631329635
v -16.925770044326782 53.47150018860848 -33.472302326955145
v -18.43377947807312 55.26566000372245 -31.00036388997462
v -22.155079245567322 52.84431531254638 -39.37626447929815
v -17.368587851524353 55.35687298396087 -31.047388989330646
v -8.784839510917664 55.19546295097826 -35.06732588224606
v -9.196169674396515 63.09903360709861 -30.651877669817114
v -13.472135365009308 63.19291721825748 -28.594599528832124
v -27.115195989608765 59.917116170510134 -36.55224822609364
v -25.20531415939331 61.1287183460333 -32.379786198528244
v -27.017229795455933 61.538881436263225 -34.29683853433428
v -16.925770044326782 53.47150018860848 -33.472302326955145
v -11.513574421405792 53.374970056912375 -35.98568713025922
v -8.784839510917664 55.19546295097826 -35.06732588224606
v -17.368587851524353 55.35687298396087 -31.047388989330646
v -13.33768516778946 52.551053742684125 -44.023328640504275
v -22.127020359039307 52.57730420686733 -40.471759063749126
v -22.609025239944458 57.52053670025581 -48.05226071024486
v -18.227513134479523 57.49428651753953 -49.87619859888203
v -13.472135365009308 63.19291721825748 -28.594599528832124
v -9.196169674396515 63.09903360709861 -30.651877669817114
v -11.006258428096771 64.35292484418774 -29.142688268388994
v -14.091373980045319 51.91398192528281 -40.909227246009195
v -19.149386882781982 52.050369686694914 -38.37279631329635
v -22.127020359039307 52.57730420686733 -40.471759063749126
v -13.33768516778946 52.551053742684125 -44.023328640504275
v -9.287723898887634 55.53389795090041 -36.12988303863384
v -5.98016083240509 61.008798159607984 -42.21034745924158
v -8.145514875650406 59.80382404090569 -46.25807484776535
v -13.028180599212646 53.31108454670891 -43.669998390564956
v -18.227513134479523 57.49428651753953 -49.87619859888203
v -22.609025239944458 57.52053670025581 -48.05226071024486
v -20.8942249417305 58.274773565395805 -49.95409305606423
v -11.729172617197037 54.08530837143836 -36.22865663971819
v -9.287723898887634 55.53389795090041 -36.12988303863384
v -13.028180599212646 53.31108454670891 -43.669998390564956
v -14.21128511428833 52.684979920452015 -40.94562196772057
v -21.77778035402298 53.43775102146418 -39.71627629187008
v -26.560598611831665 60.3250026155222 -36.92123084602884
v -24.651119112968445 61.53716507470674 -32.74876583832249
v -18.054959177970886 55.8579215010872 -31.34068862674032
v -5.98016083240509 61.008798159607984 -42.21034745924158
v -6.378909945487976 61.423443381220075 -44.97385429692991
v -8.145514875650406 59.80382404090569 -46.25807484776535
v -19.074170291423798 52.81504957258175 -38.513144514698894
v -21.77778035402298 53.43775102146418 -39.71627629187008
v -18.054959177970886 55.8579215010872 -31.34068862674032
v -16.93108081817627 54.1804616220129 -33.80014288988547
v -17.62138605117798 55.84031424573113 -31.606397189583717
v -13.785889744758606 63.44285130553332 -29.264841879121885
v -9.509838372468948 63.34961142457298 -31.32190544349056
v -9.03981402516365 55.67269340805792 -35.63066137869796
v -26.560598611831665 60.3250026155222 -36.92123084602884
v -26.52115225791931 62.018311336840064 -34.663115115052584
v -24.651119112968445 61.53716507470674 -32.74876583832249
v -16.93108081817627 54.1804616220129 -33.80014288988547
v -17.62138605117798 55.84031424573113 -31.606397189583717
v -9.03981402516365 55.67269340805792 -35.63066137869796
v -11.729172617197037 54.08530837143836 -36.22865663971819
v -13.222289085388184 53.27574493885984 -43.755694962833225
v -18.02733987569809 58.0770233263295 -49.396122023175224
v -22.409015893936157 58.10373246473044 -47.57267587293223
v -22.012408077716827 53.302919274680676 -40.206312876691854
v -13.785889744758606 63.44285130553332 -29.264841879121885
v -11.306030303239822 64.68857041583325 -29.781119633726302
v -9.509838372468948 63.34961142457298 -31.32190544349056
v -14.21128511428833 52.684979920452015 -40.94562196772057
v -13.222289085388184 53.27574493885984 -43.755694962833225
v -22.012408077716827 53.302919274680676 -40.206312876691854
v -19.074170291423798 52.81504957258175 -38.513144514698894
v -8.812738209962845 54.916638200464014 -36.188849813145765
v -5.361891537904739 60.57447696225795 -42.40838978121239
v -5.98016083240509 61.008798159607984 -42.21034745924158
v -9.287723898887634 55.53389795090041 -36.12988303863384
v -18.02733987569809 58.0770233263295 -49.396122023175224
v -20.718923211097717 58.9148440708909 -49.54217440099893
v -22.409015893936157 58.10373246473044 -47.57267587293223
v -16.93108081817627 54.1804616220129 -33.80014288988547
v -16.42216444015503 54.226011261718234 -35.21084178799253
v -17.760828137397766 53.374862418416186 -38.13480412319218
v -19.074170291423798 52.81504957258175 -38.513144514698894
v -14.21128511428833 52.684979920452015 -40.94562196772057
v -14.742361009120941 53.296172120540476 -39.643779139363645
v -13.215070962905884 54.16901109652779 -36.70476961512421
v -11.729172617197037 54.08530837143836 -36.22865663971819
v -19.074170291423798 52.81504957258175 -38.513144514698894
v -17.760828137397766 53.374862418416186 -38.13480412319218
v -14.742361009120941 53.296172120540476 -39.643779139363645
v -14.21128511428833 52.684979920452015 -40.94562196772057
v -11.729172617197037 54.08530837143836 -36.22865663971819
v -13.215070962905884 54.16901109652779 -36.70476961512421
v -16.42216444015503 54.226011261718234 -35.21084178799253
v -16.93108081817627 54.1804616220129 -33.80014288988547
v -11.513574421405792 53.374970056912375 -35.98568713025922
v -8.812738209962845 54.916638200464014 -36.188849813145765
v -9.287723898887634 55.53389795090041 -36.12988303863384
v -11.729172617197037 54.08530837143836 -36.22865663971819
v -12.547458708286285 52.69870641596636 -43.73334312703095
v -14.091373980045319 51.91398192528281 -40.909227246009195
v -14.21128511428833 52.684979920452015 -40.94562196772057
v -13.028180599212646 53.31108454670891 -43.669998390564956
v -7.527542859315872 59.36897236226279 -46.4558370278193
v -12.547458708286285 52.69870641596636 -43.73334312703095
v -13.028180599212646 53.31108454670891 -43.669998390564956
v -8.145514875650406 59.80382404090569 -46.25807484776535
v -22.155079245567322 52.84431531254638 -39.37626447929815
v -27.115195989608765 59.917116170510134 -36.55224822609364
v -26.560598611831665 60.3250026155222 -36.92123084602884
v -21.77778035402298 53.43775102146418 -39.71627629187008
v -5.804099887609482 60.91846684461297 -45.131019742002536
v -7.527542859315872 59.36897236226279 -46.4558370278193
v -8.145514875650406 59.80382404090569 -46.25807484776535
v -6.378909945487976 61.423443381220075 -44.97385429692991
v -5.361891537904739 60.57447696225795 -42.40838978121239
v -5.804099887609482 60.91846684461297 -45.131019742002536
v -6.378909945487976 61.423443381220075 -44.97385429692991
v -5.98016083240509 61.008798159607984 -42.21034745924158
v -19.149386882781982 52.050369686694914 -38.37279631329635
v -22.155079245567322 52.84431531254638 -39.37626447929815
v -21.77778035402298 53.43775102146418 -39.71627629187008
v -19.074170291423798 52.81504957258175 -38.513144514698894
v -18.43377947807312 55.26566000372245 -31.00036388997462
v -16.925770044326782 53.47150018860848 -33.472302326955145
v -16.93108081817627 54.1804616220129 -33.80014288988547
v -18.054959177970886 55.8579215010872 -31.34068862674032
v -25.20531415939331 61.1287183460333 -32.379786198528244
v -18.43377947807312 55.26566000372245 -31.00036388997462
v -18.054959177970886 55.8579215010872 -31.34068862674032
v -24.651119112968445 61.53716507470674 -32.74876583832249
v -17.368587851524353 55.35687298396087 -31.047388989330646
v -13.472135365009308 63.19291721825748 -28.594599528832124
v -13.785889744758606 63.44285130553332 -29.264841879121885
v -17.62138605117798 55.84031424573113 -31.606397189583717
v -27.017229795455933 61.538881436263225 -34.29683853433428
v -25.20531415939331 61.1287183460333 -32.379786198528244
v -24.651119112968445 61.53716507470674 -32.74876583832249
v -26.52115225791931 62.018311336840064 -34.663115115052584
v -27.115195989608765 59.917116170510134 -36.55224822609364
v -27.017229795455933 61.538881436263225 -34.29683853433428
v -26.52115225791931 62.018311336840064 -34.663115115052584
v -26.560598611831665 60.3250026155222 -36.92123084602884
v -8.784839510917664 55.19546295097826 -35.06732588224606
v -11.513574421405792 53.374970056912375 -35.98568713025922
v -11.729172617197037 54.08530837143836 -36.22865663971819
v -9.03981402516365 55.67269340805792 -35.63066137869796
v -9.196169674396515 63.09903360709861 -30.651877669817114
v -8.784839510917664 55.19546295097826 -35.06732588224606
v -9.03981402516365 55.67269340805792 -35.63066137869796
v -9.509838372468948 63.34961142457298 -31.32190544349056
v -13.33768516778946 52.551053742684125 -44.023328640504275
v -18.227513134479523 57.49428651753953 -49.87619859888203
v -18.02733987569809 58.0770233263295 -49.396122023175224
v -13.222289085388184 53.27574493885984 -43.755694962833225
v -11.006258428096771 64.35292484418774 -29.142688268388994
v -9.196169674396515 63.09903360709861 -30.651877669817114
v -9.509838372468948 63.34961142457298 -31.32190544349056
v -11.306030303239822 64.68857041583325 -29.781119633726302
v -13.472135365009308 63.19291721825748 -28.594599528832124
v -11.006258428096771 64.35292484418774 -29.142688268388994
v -11.306030303239822 64.68857041583325 -29.781119633726302
v -13.785889744758606 63.44285130553332 -29.264841879121885
v -22.127020359039307 52.57730420686733 -40.471759063749126
v -19.149386882781982 52.050369686694914 -38.37279631329635
v -19.074170291423798 52.81504957258175 -38.513144514698894
v -22.012408077716827 53.302919274680676 -40.206312876691854
v -16.925770044326782 53.47150018860848 -33.472302326955145
v -17.368587851524353 55.35687298396087 -31.047388989330646
v -17.62138605117798 55.84031424573113 -31.606397189583717
v -16.93108081817627 54.1804616220129 -33.80014288988547
v -22.609025239944458 57.52053670025581 -48.05226071024486
v -22.127020359039307 52.57730420686733 -40.471759063749126
v -22.012408077716827 53.302919274680676 -40.206312876691854
v -22.409015893936157 58.10373246473044 -47.57267587293223
v -20.8942249417305 58.274773565395805 -49.95409305606423
v -22.609025239944458 57.52053670025581 -48.05226071024486
v -22.409015893936157 58.10373246473044 -47.57267587293223
v -20.718923211097717 58.9148440708909 -49.54217440099893
v -18.227513134479523 57.49428651753953 -49.87619859888203
v -20.8942249417305 58.274773565395805 -49.95409305606423
v -20.718923211097717 58.9148440708909 -49.54217440099893
v -18.02733987569809 58.0770233263295 -49.396122023175224
v -14.091373980045319 51.91398192528281 -40.909227246009195
v -13.33768516778946 52.551053742684125 -44.023328640504275
v -13.222289085388184 53.27574493885984 -43.755694962833225
v -14.21128511428833 52.684979920452015 -40.94562196772057
v 2.3127123713493347 70.3365445393016 0.1571153250471171
v 1.57003253698349 70.33654339327882 -6.877122357772249
v 4.607962071895599 71.92052454694308 -9.08870676662676
v 5.499233305454254 71.92052628672941 1.5900256285453591
v -8.359862864017487 71.92052466116428 -8.387622033617422
v -7.857421040534973 71.92053252097081 3.270456398464737
v -14.998237788677216 80.07943640753541 0.6466228434109531
v -15.312835574150085 80.07943545712928 -5.186928444240109
v 12.24774420261383 80.07943597278013 -2.0218860438800017
v 11.58386766910553 80.07943502715854 -7.826070123050228
v 12.963922321796417 81.33727824683382 -5.1222039654071105
v -5.365957319736481 70.33654350026643 -6.220437124656099
v -5.018831789493561 70.33654461502712 0.621915325237852
v -7.857421040534973 71.92053252097081 3.270456398464737
v -8.359862864017487 71.92052466116428 -8.387622033617422
v -6.615553796291351 71.92052663205669 3.709629381635264
v 5.027440190315247 71.92053246590798 2.9324831614270783
v 2.5726884603500366 80.07943795309083 10.133174426224215
v -3.2518237829208374 80.07943802673704 10.58521158185242
v -15.312835574150085 80.07943545712928 -5.186928444240109
v -14.998237788677216 80.07943640753541 0.6466228434109531
v -16.21365398168564 81.33728469395261 -2.1351410343472907
v -5.018831789493561 70.33654461502712 0.621915325237852
v 2.3127123713493347 70.3365445393016 0.1571153250471171
v 5.027440190315247 71.92053246590798 2.9324831614270783
v -6.615553796291351 71.92052663205669 3.709629381635264
v 3.8325920701026917 71.92052443112202 -9.799611364862844
v -7.835620641708374 71.92052445171505 -9.673212265036032
v -4.9829840660095215 80.0794395376814 -16.72574841294149
v 0.8576735854148865 80.07943355662412 -16.852146022651212
v -3.2518237829208374 80.07943802673704 10.58521158185242
v 2.5726884603500366 80.07943795309083 10.133174426224215
v -0.17964541912078857 81.33728690136003 11.413829188125854
v 1.57003253698349 70.33654339327882 -6.877122357772249
v -5.365957319736481 70.33654350026643 -6.220437124656099
v -7.835620641708374 71.92052445171505 -9.673212265036032
v 3.8325920701026917 71.92052443112202 -9.799611364862844
v 4.928390681743622 72.6923408801478 1.6433418575523906
v 11.450231075286865 80.60925571399903 -1.9342673023787664
v 10.786822438240051 80.60995214271644 -7.738481183984998
v 4.0285855531692505 72.68591972025268 -9.034570972708211
v 0.8576735854148865 80.07943355662412 -16.852146022651212
v -4.9829840660095215 80.0794395376814 -16.72574841294149
v -2.163490653038025 81.33728213353665 -17.850862283927675
v 2.3127123713493347 70.3365445393016 0.1571153250471171
v -5.018831789493561 70.33654461502712 0.621915325237852
v -5.365957319736481 70.33654350026643 -6.220437124656099
v 1.57003253698349 70.33654339327882 -6.877122357772249
v 2.174769341945648 71.27781510643733 0.01782805755130271
v 4.928390681743622 72.6923408801478 1.6433418575523906
v 4.0285855531692505 72.68591972025268 -9.034570972708211
v 1.4489635825157166 71.278463698212 -6.72688602384193
v -7.774728536605835 72.68299919380573 -8.41373495271639
v -14.511506259441376 80.60926113808367 -5.226543267593513
v -14.197377860546112 80.60995350236895 0.6070065298287838
v -7.270416617393494 72.68153481887585 3.244279404612494
v 11.450231075286865 80.60925571399903 -1.9342673023787664
v 12.234565615653992 81.95818580551433 -5.038784385970391
v 10.786822438240051 80.60995214271644 -7.738481183984998
v -5.216720700263977 71.27902408357755 -6.102627207690993
v -7.774728536605835 72.68299919380573 -8.41373495271639
v -7.270416617393494 72.68153481887585 3.244279404612494
v -4.877662658691406 71.2768674677987 0.4794839128845379
v -6.6541701555252075 72.68864563480699 3.132626492744611
v -3.3103346824645996 80.60925762331458 9.785028080120929
v 2.5141775608062744 80.60995492408775 9.333454350492236
v 4.98826801776886 72.68277444943072 2.347791274317888
v -14.511506259441376 80.60926113808367 -5.226543267593513
v -15.480606257915497 81.95818627213764 -2.1746709359200374
v -14.197377860546112 80.60995350236895 0.6070065298287838
v -4.877662658691406 71.2768674677987 0.4794839128845379
v -6.6541701555252075 72.68864563480699 3.132626492744611
v 4.98826801776886 72.68277444943072 2.347791274317888
v 2.174769341945648 71.27781510643733 0.01782805755130271
v 3.844618797302246 72.6912543049471 -9.224927347364256
v 0.8714392781257629 80.6092593747294 -16.049934645519386
v -4.969194531440735 80.60995676958935 -15.924007912616036
v -7.823505997657776 72.69307822726871 -9.100992899896058
v -3.3103346824645996 80.60925762331458 9.785028080120929
v -0.23642480373382568 81.95818836674285 10.681924282261573
v 2.5141775608062744 80.60995492408775 9.333454350492236
v 1.4489635825157166 71.278463698212 -6.72688602384193
v 3.844618797302246 72.6912543049471 -9.224927347364256
v -7.823505997657776 72.69307822726871 -9.100992899896058
v -5.216720700263977 71.27902408357755 -6.102627207690993
v 5.499233305454254 71.92052628672941 1.5900256285453591
v 12.24774420261383 80.07943597278013 -2.0218860438800017
v 11.450231075286865 80.60925571399903 -1.9342673023787664
v 4.928390681743622 72.6923408801478 1.6433418575523906
v 0.8714392781257629 80.6092593747294 -16.049934645519386
v -2.1476134657859802 81.95814807494787 -17.1169295323345
v -4.969194531440735 80.60995676958935 -15.924007912616036
v -4.877662658691406 71.2768674677987 0.4794839128845379
v -3.6607638001441956 71.68594584951971 -0.8481649126510693
v -3.8815245032310486 71.68351331386505 -4.936951156647263
v -5.216720700263977 71.27902408357755 -6.102627207690993
v 1.4489635825157166 71.278463698212 -6.72688602384193
v 0.2555578947067261 71.68536099499076 -5.3227973545534315
v 0.6857335567474365 71.68756705016864 -1.128601786351178
v 2.174769341945648 71.27781510643733 0.01782805755130271
v -5.216720700263977 71.27902408357755 -6.102627207690993
v -3.8815245032310486 71.68351331386505 -4.936951156647263
v 0.2555578947067261 71.68536099499076 -5.3227973545534315
v 1.4489635825157166 71.278463698212 -6.72688602384193
v 2.174769341945648 71.27781510643733 0.01782805755130271
v 0.6857335567474365 71.68756705016864 -1.128601786351178
v -3.6607638001441956 71.68594584951971 -0.8481649126510693
v -4.877662658691406 71.2768674677987 0.4794839128845379
v 2.3127123713493347 70.3365445393016 0.1571153250471171
v 5.499233305454254 71.92052628672941 1.5900256285453591
v 4.928390681743622 72.6923408801478 1.6433418575523906
v 2.174769341945648 71.27781510643733 0.01782805755130271
v 4.607962071895599 71.92052454694308 -9.08870676662676
v 1.57003253698349 70.33654339327882 -6.877122357772249
v 1.4489635825157166 71.278463698212 -6.72688602384193
v 4.0285855531692505 72.68591972025268 -9.034570972708211
v 11.58386766910553 80.07943502715854 -7.826070123050228
v 4.607962071895599 71.92052454694308 -9.08870676662676
v 4.0285855531692505 72.68591972025268 -9.034570972708211
v 10.786822438240051 80.60995214271644 -7.738481183984998
v -8.359862864017487 71.92052466116428 -8.387622033617422
v -15.312835574150085 80.07943545712928 -5.186928444240109
v -14.511506259441376 80.60926113808367 -5.226543267593513
v -7.774728536605835 72.68299919380573 -8.41373495271639
v 12.963922321796417 81.33727824683382 -5.1222039654071105
v 11.58386766910553 80.07943502715854 -7.826070123050228
v 10.786822438240051 80.60995214271644 -7.738481183984998
v 12.234565615653992 81.95818580551433 -5.038784385970391
v 12.24774420261383 80.07943597278013 -2.0218860438800017
v 12.963922321796417 81.33727824683382 -5.1222039654071105
v 12.234565615653992 81.95818580551433 -5.038784385970391
v 11.450231075286865 80.60925571399903 -1.9342673023787664
v -5.365957319736481 70.33654350026643 -6.220437124656099
v -8.359862864017487 71.92052466116428 -8.387622033617422
v -7.774728536605835 72.68299919380573 -8.41373495271639
v -5.216720700263977 71.27902408357755 -6.102627207690993
v -7.857421040534973 71.92053252097081 3.270456398464737
v -5.018831789493561 70.33654461502712 0.621915325237852
v -4.877662658691406 71.2768674677987 0.4794839128845379
v -7.270416617393494 72.68153481887585 3.244279404612494
v -14.998237788677216 80.07943640753541 0.6466228434109531
v -7.857421040534973 71.92053252097081 3.270456398464737
v -7.270416617393494 72.68153481887585 3.244279404612494
v -14.197377860546112 80.60995350236895 0.6070065298287838
v -6.615553796291351 71.92052663205669 3.709629381635264
v -3.2518237829208374 80.07943802673704 10.58521158185242
v -3.3103346824645996 80.60925762331458 9.785028080120929
v -6.6541701555252075 72.68864563480699 3.132626492744611
v -16.21365398168564 81.33728469395261 -2.1351410343472907
v -14.998237788677216 80.07943640753541 0.6466228434109531
v -14.197377860546112 80.60995350236895 0.6070065298287838
v -15.480606257915497 81.95818627213764 -2.1746709359200374
v -15.312835574150085 80.07943545712928 -5.186928444240109
v -16.21365398168564 81.33728469395261 -2.1351410343472907
v -15.480606257915497 81.95818627213764 -2.1746709359200374
v -14.511506259441376 80.60926113808367 -5.226543267593513
v 5.027440190315247 71.92053246590798 2.9324831614270783
v 2.3127123713493347 70.3365445393016 0.1571153250471171
v 2.174769341945648 71.27781510643733 0.01782805755130271
v 4.98826801776886 72.68277444943072 2.347791274317888
v 2.5726884603500366 80.07943795309083 10.133174426224215
v 5.027440190315247 71.92053246590798 2.9324831614270783
v 4.98826801776886 72.68277444943072 2.347791274317888
v 2.5141775608062744 80.60995492408775 9.333454350492236
v 3.8325920701026917 71.92052443112202 -9.799611364862844
v 0.8576735854148865 80.07943355662412 -16.852146022651212
v 0.8714392781257629 80.6092593747294 -16.049934645519386
v 3.844618797302246 72.6912543049471 -9.224927347364256
v -0.17964541912078857 81.33728690136003 11.413829188125854
v 2.5726884603500366 80.07943795309083 10.133174426224215
v 2.5141775608062744 80.60995492408775 9.333454350492236
v -0.23642480373382568 81.95818836674285 10.681924282261573
v -3.2518237829208374 80.07943802673704 10.58521158185242
v -0.17964541912078857 81.33728690136003 11.413829188125854
v -0.23642480373382568 81.95818836674285 10.681924282261573
v -3.3103346824645996 80.60925762331458 9.785028080120929
v -7.835620641708374 71.92052445171505 -9.673212265036032
v -5.365957319736481 70.33654350026643 -6.220437124656099
v -5.216720700263977 71.27902408357755 -6.102627207690993
v -7.823505997657776 72.69307822726871 -9.100992899896058
v -5.018831789493561 70.33654461502712 0.621915325237852
v -6.615553796291351 71.92052663205669 3.709629381635264
v -6.6541701555252075 72.68864563480699 3.132626492744611
v -4.877662658691406 71.2768674677987 0.4794839128845379
v -4.9829840660095215 80.0794395376814 -16.72574841294149
v -7.835620641708374 71.92052445171505 -9.673212265036032
v -7.823505997657776 72.69307822726871 -9.100992899896058
v -4.969194531440735 80.60995676958935 -15.924007912616036
v -2.163490653038025 81.33728213353665 -17.850862283927675
v -4.9829840660095215 80.0794395376814 -16.72574841294149
v -4.969194531440735 80.60995676958935 -15.924007912616036
v -2.1476134657859802 81.95814807494787 -17.1169295323345
v 0.8576735854148865 80.07943355662412 -16.852146022651212
v -2.163490653038025 81.33728213353665 -17.850862283927675
v -2.1476134657859802 81.95814807494787 -17.1169295323345
v 0.8714392781257629 80.6092593747294 -16.049934645519386
v 1.57003253698349 70.33654339327882 -6.877122357772249
v 3.8325920701026917 71.92052443112202 -9.799611364862844
v 3.844618797302246 72.6912543049471 -9.224927347364256
v 1.4489635825157166 71.278463698212 -6.72688602384193
v 5.499233305454254 71.92052628672941 1.5900256285453591
v 4.607962071895599 71.92052454694308 -9.08870676662676
v 11.58386766910553 80.07943502715854 -7.826070123050228
v 12.24774420261383 80.07943597278013 -2.0218860438800017
v -21.222281455993652 64.2106330940501 -14.299055964379761
v -29.593098163604736 63.64287538908346 -11.97659516087788
v -30.034464597702026 70.45401049637772 -17.50084713553538
v -25.51203966140747 70.76602270140235 -18.90632322005625
v -11.513574421405792 53.374970056912375 -35.98568713025922
v -16.925770044326782 53.47150018860848 -33.472302326955145
v -19.149386882781982 52.050369686694914 -38.37279631329635
v -14.091373980045319 51.91398192528281 -40.909227246009195
v -21.80361896753311 62.792144318357984 -11.585673489168428
v -20.316345989704132 62.67640496059559 -5.807018060499014
v -25.714045763015747 62.31688187757635 -4.497565050970797
v -27.293899655342102 62.41518097240485 -9.931713080577664
f 201 202 203
f 201 203 204
f 205 206 207
f 205 207 208
f 209 210 211
f 212 213 214
f 212 214 215
f 216 217 218
f 216 218 219
f 220 221 222
f 223 224 225
f 223 225 226
f 227 228 229
f 227 229 230
f 231 232 233
f 234 235 236
f 234 236 237
f 238 239 240
f 238 240 241
f 242 243 244
f 245 246 247
f 245 247 248
f 249 250 251
f 249 251 252
f 253 254 255
f 256 257 258
f 256 258 259
f 260 261 262
f 260 262 263
f 264 265 266
f 267 268 269
f 267 269 270
f 271 272 273
f 271 273 274
f 275 276 277
f 278 279 280
f 278 280 281
f 282 283 284
f 282 284 285
f 286 287 288
f 289 290 291
f 289 291 292
f 293 294 295
f 293 295 296
f 297 298 299
f 297 299 300
f 301 302 303
f 301 303 304
f 305 306 307
f 305 307 308
f 309 310 311
f 309 311 312
f 313 314 315
f 313 315 316
f 317 318 319
f 317 319 320
f 321 322 323
f 321 323 324
f 325 326 327
f 325 327 328
f 329 330 331
f 329 331 332
f 333 334 335
f 333 335 336
f 337 338 339
f 337 339 340
f 341 342 343
f 341 343 344
f 345 346 347
f 345 347 348
f 349 350 351
f 349 351 352
f 353 354 355
f 353 355 356
f 357 358 359
f 357 359 360
f 361 362 363
f 361 363 364
f 365 366 367
f 365 367 368
f 369 370 371
f 369 371 372
f 373 374 375
f 373 375 376
f 377 378 379
f 377 379 380
f 381 382 383
f 381 383 384
f 385 386 387
f 385 387 388
f 389 390 391
f 389 391 392
f 393 394 395
f 393 395 396
f 397 398 399
f 397 399 400
f 401 402 403
f 401 403 404
f 405 406 407
f 405 407 408
f 409 410 411
f 412 413 414
f 412 414 415
f 416 417 418
f 416 418 419
f 420 421 422
f 423 424 425
f 423 425 426
f 427 428 429
f 427 429 430
f 431 432 433
f 434 435 436
f 434 436 437
f 438 439 440
f 438 440 441
f 442 443 444
f 445 446 447
f 445 447 448
f 449 450 451
f 449 451 452
f 453 454 455
f 456 457 458
f 456 458 459
f 460 461 462
f 460 462 463
f 464 465 466
f 467 468 469
f 467 469 470
f 471 472 473
f 471 473 474
f 475 476 477
f 478 479 480
f 478 480 481
f 482 483 484
f 482 484 485
f 486 487 488
f 489 490 491
f 489 491 492
f 493 494 495
f 493 495 496
f 497 498 499
f 497 499 500
f 501 502 503
f 501 503 504
f 505 506 507
f 505 507 508
f 509 510 511
f 509 511 512
f 513 514 515
f 513 515 516
f 517 518 519
f 517 519 520
f 521 522 523
f 521 523 524
f 525 526 527
f 525 527 528
f 529 530 531
f 529 531 532
f 533 534 535
f 533 535 536
f 537 538 539
f 537 539 540
f 541 542 543
f 541 543 544
f 545 546 547
f 545 547 548
f 549 550 551
f 549 551 552
f 553 554 555
f 553 555 556
f 557 558 559
f 557 559 560
f 561 562 563
f 561 563 564
f 565 566 567
f 565 567 568
f 569 570 571
f 569 571 572
f 573 574 575
f 573 575 576
f 577 578 579
f 577 579 580
f 581 582 583
f 581 583 584
f 585 586 587
f 585 587 588
f 589 590 591
f 589 591 592
f 593 594 595
f 593 595 596
f 597 598 599
f 597 599 600
f 601 602 603
f 601 603 604
f 605 606 607
f 608 609 610
f 608 610 611
f 612 613 614
f 612 614 615
f 616 617 618
f 619 620 621
f 619 621 622
f 623 624 625
f 623 625 626
f 627 628 629
f 630 631 632
f 630 632 633
f 634 635 636
f 634 636 637
f 638 639 640
f 641 642 643
f 641 643 644
f 645 646 647
f 645 647 648
f 649 650 651
f 649 651 652
f 653 654 655
f 656 657 658
f 656 658 659
f 660 661 662
f 660 662 663
f 664 665 666
f 667 668 669
f 667 669 670
f 671 672 673
f 671 673 674
f 675 676 677
f 678 679 680
f 678 680 681
f 682 683 684
f 682 684 685
f 686 687 688
f 689 690 691
f 689 691 692
f 693 694 695
f 693 695 696
f 697 698 699
f 697 699 700
f 701 702 703
f 701 703 704
f 705 706 707
f 705 707 708
f 709 710 711
f 709 711 712
f 713 714 715
f 713 715 716
f 717 718 719
f 717 719 720
f 721 722 723
f 721 723 724
f 725 726 727
f 725 727 728
f 729 730 731
f 729 731 732
f 733 734 735
f 733 735 736
f 737 738 739
f 737 739 740
f 741 742 743
f 741 743 744
f 745 746 747
f 745 747 748
f 749 750 751
f 749 751 752
f 753 754 755
f 753 755 756
f 757 758 759
f 757 759 760
f 761 762 763
f 761 763 764
f 765 766 767
f 765 767 768
f 769 770 771
f 769 771 772
f 773 774 775
f 773 775 776
f 777 778 779
f 777 779 780
f 781 782 783
f 781 783 784
f 785 786 787
f 785 787 788
f 789 790 791
f 789 791 792
f 793 794 795
f 793 795 796
f 797 798 799
f 797 799 800
f 801 802 803
f 801 803 804
f 805 806 807
f 805 807 808
f 809 810 811
f 809 811 812
v -22.64358252286911 63.78986671656471 -10.055410823844769
v -23.92081320285797 64.99343982347048 -7.865300932536942
v -21.757890284061432 63.72021328669842 -6.630319307446034
v -24.981243908405304 63.50314522055895 -5.837273512880087
v -23.92081320285797 64.99343982347048 -7.865300932536942
v -25.919002294540405 63.56355996029633 -9.07938472877767
v -25.919002294540405 63.56355996029633 -9.07938472877767
v -23.92081320285797 64.99343982347048 -7.865300932536942
v -22.64358252286911 63.78986671656471 -10.055410823844769
v -21.757890284061432 63.72021328669842 -6.630319307446034
v -23.92081320285797 64.99343982347048 -7.865300932536942
v -24.981243908405304 63.50314522055895 -5.837273512880087
v -13.215070962905884 54.16901109652779 -36.70476961512421
v -15.652565658092499 55.07078151569297 -37.764000924112516
v -16.42216444015503 54.226011261718234 -35.21084178799253
v -17.760828137397766 53.374862418416186 -38.13480412319218
v -15.652565658092499 55.07078151569297 -37.764000924112516
v -14.742361009120941 53.296172120540476 -39.643779139363645
v -14.742361009120941 53.296172120540476 -39.643779139363645
v -15.652565658092499 55.07078151569297 -37.764000924112516
v -13.215070962905884 54.16901109652779 -36.70476961512421
v -16.42216444015503 54.226011261718234 -35.21084178799253
v -15.652565658092499 55.07078151569297 -37.764000924112516
v -17.760828137397766 53.374862418416186 -38.13480412319218
v 0.6857335567474365 71.68756705016864 -1.128601786351178
v -1.6319334506988525 73.35093567310513 -3.0768931206570898
v -3.6607638001441956 71.68594584951971 -0.8481649126510693
v -3.8815245032310486 71.68351331386505 -4.936951156647263
v -1.6319334506988525 73.35093567310513 -3.0768931206570898
v 0.2555578947067261 71.68536099499076 -5.3227973545534315
v 0.2555578947067261 71.68536099499076 -5.3227973545534315
v -1.6319334506988525 73.35093567310513 -3.0768931206570898
v 0.6857335567474365 71.68756705016864 -1.128601786351178
v -3.6607638001441956 71.68594584951971 -0.8481649126510693
v -1.6319334506988525 73.35093567310513 -3.0768931206570898
v -3.8815245032310486 71.68351331386505 -4.936951156647263
f 813 814 815
f 816 817 818
f 819 820 821
f 822 823 824
f 825 826 827
f 828 829 830
f 831 832 833
f 834 835 836
f 837 838 839
f 840 841 842
f 843 844 845
f 846 847 848
