v -13.45796287059784 66.63066954247378 -23.729561693984955
v -11.443544924259186 -1.5862326759524108 -24.962253610150423
v -9.962808340787888 -1.5862321089604028 -21.482081452862825
v -12.247864156961441 66.63067000583499 -20.885470934230774
v -13.45796287059784 66.63066954247378 -23.729561693984955
v -12.247864156961441 66.63067000583499 -20.885470934230774
v -10.703164339065552 99.69204881939565 -23.222189992297356
v 6.500009447336197 47.975899766219456 -6.156465404342878
v 8.80625993013382 -1.5862295292405253 -5.647873620049563
v 7.460027188062668 -1.586228953416579 -2.113491410867778
v 5.399836972355843 47.975900236798104 -3.268074237417448
v 6.500009447336197 47.975899766219456 -6.156465404342878
v 5.399836972355843 47.975900236798104 -3.268074237417448
v 8.133155107498169 68.9435177679498 -3.8806878594838885
v -11.674416810274124 66.6306711849122 -13.648346491176575
v -11.295127123594284 -1.5862304529121374 -11.317329595343676
v -15.07682055234909 -1.5862304440255148 -11.262783894793596
v -14.764919877052307 66.63067119217493 -13.60376817734906
v -11.674416810274124 66.6306711849122 -13.648346491176575
v -14.764919877052307 66.63067119217493 -13.60376817734906
v -13.185974955558777 99.6920507633865 -11.290059089291757
v 8.251143991947174 85.47860637663076 15.57048656681752
v 7.301831990480423 -1.5862257200187315 17.732963224394712
v 4.098531603813171 -1.5862260476084546 15.722231825335417
v 5.633317679166794 85.47860610891534 13.92726101616597
v 8.251143991947174 85.47860637663076 15.57048656681752
v 5.633317679166794 85.47860610891534 13.92726101616597
v 5.70017471909523 118.53997979894274 16.72758912969307
v 11.339841783046722 47.97590152301486 -13.665867217492815
v 9.000640362501144 -1.5862248221326156 -13.340921441572293
v 9.03412327170372 -1.5862254382886092 -17.12285999442874
v 11.367203295230865 47.97590101947535 -16.756570704889057
v 11.339841783046722 47.97590152301486 -13.665867217492815
v 11.367203295230865 47.97590101947535 -16.756570704889057
v 9.017366915941238 68.94352187906624 -15.231905188986966
v -1.794862188398838 66.63067233994008 -6.558835931140869
v -3.3244263380765915 -1.5862299708145042 -8.358235398785677
v -0.11529410257935524 -1.586230296886182 -10.35964910175046
v 0.8277279324829578 66.6306720734652 -8.194446988422364
v -1.794862188398838 66.63067233994008 -6.558835931140869
v 0.8277279324829578 66.6306720734652 -8.194446988422364
v -1.7198672518134117 99.69205107800099 -9.35896918140716
v -15.062481164932251 47.97590671262635 -0.10479399250174162
v -17.38480031490326 -1.5862286960956902 -0.5340670445128354
v -16.16043448448181 -1.5862292790950288 -4.112491498248187
v -14.061897993087769 47.9759062361835 -3.029179379952198
v -15.062481164932251 47.97590671262635 -0.10479399250174162
v -14.061897993087769 47.9759062361835 -3.029179379952198
v -16.77262932062149 68.94352398214568 -2.323295605013081
v -4.169802740216255 35.08335966741241 1.1509116391664531
v -5.115502327680588 -1.5862280690090051 3.314963614089879
v -8.322156965732574 -1.5862283957272116 1.30958154563466
v -6.7903682589530945 34.87532726921459 -0.4879395485916498
v -4.169802740216255 35.08335966741241 1.1509116391664531
v -6.7903682589530945 34.87532726921459 -0.4879395485916498
v -6.7188359797000885 67.93670095922309 2.3122725221426537
v 12.520739436149597 80.3442787817493 7.128816419275658
v 11.293447017669678 -1.5862271189226633 9.146552046282682
v 8.384601026773453 -1.5862275127324725 6.729364653571042
v 10.143551230430603 80.34427845991699 5.153423869045632
v 12.520739436149597 80.3442787817493 7.128816419275658
v 10.143551230430603 80.34427845991699 5.153423869045632
v 9.839017689228058 113.40565810783404 7.9379478110095665
v 2.613597735762596 16.428584092119465 -16.87023758322994
v 1.386305969208479 -1.586231028866148 -14.852510134236422
v -1.5225421637296677 -1.5862314226764427 -17.2697005071803
v 0.23640843573957682 16.428583770287293 -18.845629388401907
v 2.613597735762596 16.428584092119465 -16.87023758322994
v 0.23640843573957682 16.428583770287293 -18.845629388401907
v -0.06812545470893383 37.39620781536822 -16.06110049588287
v -12.312109023332596 35.083361123347544 10.087377822679857
v -14.193461835384369 -1.5862271982227507 8.659811576350126
v -11.490950733423233 -1.586227629289309 6.013943885906133
v -10.10354608297348 35.08336077106755 7.925098634046891
v -12.312109023332596 35.083361123347544 10.087377822679857
v -10.10354608297348 35.08336077106755 7.925098634046891
v -12.842214107513428 68.14473986949139 7.336857243550422
v -3.0577315017580986 35.08336167274826 13.459575420898775
v -5.419336259365082 -1.5862264189563875 13.442914446337614
v -4.83943372964859 -1.586227027850259 9.705550482018385
v -2.5838226079940796 35.08335521467868 10.405297076983805
v -3.0577315017580986 35.08336167274826 13.459575420898775
v -2.5838226079940796 35.08335521467868 10.405297076983805
v -5.1293980330228806 68.14475248077399 11.574217750798311
v -11.738590151071548 66.61020714873702 -24.461116318069745
v -10.52849367260933 66.6102076120987 -21.617022578083326
v -8.244381844997406 -1.5217102001108704 -22.21323375944108
v -9.725117683410645 -1.5217107671026355 -25.69340442661256
v -11.738590151071548 66.61020714873702 -24.461116318069745
v -8.988042175769806 99.55911246126244 -23.95193559708888
v -10.52849367260933 66.6102076120987 -21.617022578083326
v 8.21787491440773 47.94919677136484 -6.856163207423648
v 7.116435468196869 47.899972746140094 -3.967254217127043
v 9.17440950870514 -1.464003782603892 -2.8117682262276764
v 10.520640760660172 -1.4640043584276865 -6.346149504086887
v 8.21787491440773 47.94919677136484 -6.856163207423648
v 9.831107407808304 68.65734383478059 -4.572273428137546
v 7.116435468196869 47.899972746140094 -3.967254217127043
v -13.287107646465302 66.54036431183734 -12.885862998871229
v -16.37895405292511 66.58150940549169 -12.84065139239636
v -16.685330867767334 -1.423718256143001 -10.502276337652008
v -12.903639674186707 -1.4237182650297449 -10.556822783260147
v -13.287107646465302 66.54036431183734 -12.885862998871229
v -14.775188267230988 99.3607265468896 -10.53867468763494
v -16.37895405292511 66.58150940549169 -12.84065139239636
v 6.546808034181595 85.44342783711785 16.31829538659762
v 3.9287716150283813 85.4582095213213 14.675159240504945
v 2.3953963071107864 -1.5078935016970578 16.46951312551595
v 5.598697811365128 -1.5078931741068493 18.480247504807483
v 6.546808034181595 85.44342783711785 16.31829538659762
v 4.001845791935921 118.37878511901697 17.472766424936967
v 3.9287716150283813 85.4582095213213 14.675159240504945
v 9.618020802736282 47.95401481449117 -12.947494153700559
v 9.645751118659973 47.93005920419093 -16.038354099386552
v 7.3144592344760895 -1.489498903856641 -16.4053914504455
v 7.280977815389633 -1.4894982877008902 -12.623454387705172
v 9.618020802736282 47.95401481449117 -12.947494153700559
v 7.3080748319625854 68.71626140565283 -14.518759419081878
v 9.645751118659973 47.93005920419093 -16.038354099386552
v -3.186853975057602 66.51807327561308 -6.128453497143866
v -0.5606512073427439 66.4551543459307 -7.765185484025416
v -1.4894315972924232 -1.266534754950228 -9.93478799093454
v -4.698563739657402 -1.2665344288784288 -7.9333735429116965
v -3.186853975057602 66.51807327561308 -6.128453497143866
v -3.0333761125802994 99.06148764662142 -8.95285879196268
v -0.5606512073427439 66.4551543459307 -7.765185484025416
v -16.781239211559296 47.95017848209912 0.5973272601586944
v -15.779544413089752 47.90376088846294 -2.3275153525474614
v -17.87591427564621 -1.4677232101809223 -3.4117107682342733
v -19.100283086299896 -1.4677226271815533 0.16671387176559294
v -16.781239211559296 47.95017848209912 0.5973272601586944
v -18.472646176815033 68.6658379762082 -1.628834206649082
v -15.779544413089752 47.90376088846294 -2.3275153525474614
v -5.874057859182358 35.04806191861724 1.8987652555818122
v -8.49483385682106 34.85491876069879 0.2600029135715625
v -10.025209933519363 -1.5078362451635745 2.0569086668761534
v -6.818556040525436 -1.5078359184456107 4.062289245215253
v -5.874057859182358 35.04806191861724 1.8987652555818122
v -8.417084068059921 67.77533938629904 3.057493403310236
v -8.49483385682106 34.85491876069879 0.2600029135715625
v 10.81119105219841 80.31396994111901 7.872969983421531
v 8.43389555811882 80.32520509483459 5.897624742547804
v 6.676095724105835 -1.5137958272386742 7.4730562649813495
v 9.58494171500206 -1.5137954334286223 9.89024514780911
v 10.81119105219841 80.31396994111901 7.872969983421531
v 8.134641498327255 113.25657509119216 8.6798446136434
v 8.43389555811882 80.32520509483459 5.897624742547804
v 0.9044673293828964 16.378558034967867 -16.12626581003829
v -1.4732453972101212 16.40658381714647 -18.1014281418939
v -3.229892998933792 -1.486584256458801 -16.526503618755594
v -0.3210479859262705 -1.486583862648749 -14.109314735927835
v 0.9044673293828964 16.378558034967867 -16.12626581003829
v -1.7645511776208878 37.16218221889285 -15.322665964213524
v -1.4732453972101212 16.40658381714647 -18.1014281418939
v -13.975541293621063 35.03208334979808 10.715602591328043
v -11.765535175800323 34.98966833220755 8.552781007337847
v -13.148351013660431 -1.4181007057914536 6.639892093907368
v -15.850859880447388 -1.4181002747245919 9.285761646996509
v -13.975541293621063 35.03208334979808 10.715602591328043
v -14.478360116481781 67.80224572081944 7.954777161620172
v -11.765535175800323 34.98966833220755 8.552781007337847
v -4.779047891497612 35.06359688856063 14.171700427456745
v -4.304982349276543 35.05023899005056 11.11735577554969
v -6.559430807828903 -1.5104694084095818 10.417130835572145
v -7.139336317777634 -1.510468799515589 14.154495544949434
v -4.779047891497612 35.06359688856063 14.171700427456745
v -6.844863295555115 67.9888268456678 12.28392655625212
v -4.304982349276543 35.05023899005056 11.11735577554969
v -11.443544924259186 -1.5862326759524108 -24.962253610150423
v -13.45796287059784 66.63066954247378 -23.729561693984955
v -11.738590151071548 66.61020714873702 -24.461116318069745
v -9.725117683410645 -1.5217107671026355 -25.69340442661256
v -9.962808340787888 -1.5862321089604028 -21.482081452862825
v -11.443544924259186 -1.5862326759524108 -24.962253610150423
v -9.725117683410645 -1.5217107671026355 -25.69340442661256
v -8.244381844997406 -1.5217102001108704 -22.21323375944108
v -12.247864156961441 66.63067000583499 -20.885470934230774
v -9.962808340787888 -1.5862321089604028 -21.482081452862825
v -8.244381844997406 -1.5217102001108704 -22.21323375944108
v -10.52849367260933 66.6102076120987 -21.617022578083326
v -13.45796287059784 66.63066954247378 -23.729561693984955
v -10.703164339065552 99.69204881939565 -23.222189992297356
v -8.988042175769806 99.55911246126244 -23.95193559708888
v -11.738590151071548 66.61020714873702 -24.461116318069745
v -10.703164339065552 99.69204881939565 -23.222189992297356
v -12.247864156961441 66.63067000583499 -20.885470934230774
v -10.52849367260933 66.6102076120987 -21.617022578083326
v -8.988042175769806 99.55911246126244 -23.95193559708888
v 8.80625993013382 -1.5862295292405253 -5.647873620049563
v 6.500009447336197 47.975899766219456 -6.156465404342878
v 8.21787491440773 47.94919677136484 -6.856163207423648
v 10.520640760660172 -1.4640043584276865 -6.346149504086887
v 7.460027188062668 -1.586228953416579 -2.113491410867778
v 8.80625993013382 -1.5862295292405253 -5.647873620049563
v 10.520640760660172 -1.4640043584276865 -6.346149504086887
v 9.17440950870514 -1.464003782603892 -2.8117682262276764
v 5.399836972355843 47.975900236798104 -3.268074237417448
v 7.460027188062668 -1.586228953416579 -2.113491410867778
v 9.17440950870514 -1.464003782603892 -2.8117682262276764
v 7.116435468196869 47.899972746140094 -3.967254217127043
v 6.500009447336197 47.975899766219456 -6.156465404342878
v 8.133155107498169 68.9435177679498 -3.8806878594838885
v 9.831107407808304 68.65734383478059 -4.572273428137546
v 8.21787491440773 47.94919677136484 -6.856163207423648
v 8.133155107498169 68.9435177679498 -3.8806878594838885
v 5.399836972355843 47.975900236798104 -3.268074237417448
v 7.116435468196869 47.899972746140094 -3.967254217127043
v 9.831107407808304 68.65734383478059 -4.572273428137546
v -11.295127123594284 -1.5862304529121374 -11.317329595343676
v -11.674416810274124 66.6306711849122 -13.648346491176575
v -13.287107646465302 66.54036431183734 -12.885862998871229
v -12.903639674186707 -1.4237182650297449 -10.556822783260147
v -15.07682055234909 -1.5862304440255148 -11.262783894793596
v -11.295127123594284 -1.5862304529121374 -11.317329595343676
v -12.903639674186707 -1.4237182650297449 -10.556822783260147
v -16.685330867767334 -1.423718256143001 -10.502276337652008
v -14.764919877052307 66.63067119217493 -13.60376817734906
v -15.07682055234909 -1.5862304440255148 -11.262783894793596
v -16.685330867767334 -1.423718256143001 -10.502276337652008
v -16.37895405292511 66.58150940549169 -12.84065139239636
v -11.674416810274124 66.6306711849122 -13.648346491176575
v -13.185974955558777 99.6920507633865 -11.290059089291757
v -14.775188267230988 99.3607265468896 -10.53867468763494
v -13.287107646465302 66.54036431183734 -12.885862998871229
v -13.185974955558777 99.6920507633865 -11.290059089291757
v -14.764919877052307 66.63067119217493 -13.60376817734906
v -16.37895405292511 66.58150940549169 -12.84065139239636
v -14.775188267230988 99.3607265468896 -10.53867468763494
v 7.301831990480423 -1.5862257200187315 17.732963224394712
v 8.251143991947174 85.47860637663076 15.57048656681752
v 6.546808034181595 85.44342783711785 16.31829538659762
v 5.598697811365128 -1.5078931741068493 18.480247504807483
v 4.098531603813171 -1.5862260476084546 15.722231825335417
v 7.301831990480423 -1.5862257200187315 17.732963224394712
v 5.598697811365128 -1.5078931741068493 18.480247504807483
v 2.3953963071107864 -1.5078935016970578 16.46951312551595
v 5.633317679166794 85.47860610891534 13.92726101616597
v 4.098531603813171 -1.5862260476084546 15.722231825335417
v 2.3953963071107864 -1.5078935016970578 16.46951312551595
v 3.9287716150283813 85.4582095213213 14.675159240504945
v 8.251143991947174 85.47860637663076 15.57048656681752
v 5.70017471909523 118.53997979894274 16.72758912969307
v 4.001845791935921 118.37878511901697 17.472766424936967
v 6.546808034181595 85.44342783711785 16.31829538659762
v 5.70017471909523 118.53997979894274 16.72758912969307
v 5.633317679166794 85.47860610891534 13.92726101616597
v 3.9287716150283813 85.4582095213213 14.675159240504945
v 4.001845791935921 118.37878511901697 17.472766424936967
v 9.000640362501144 -1.5862248221326156 -13.340921441572293
v 11.339841783046722 47.97590152301486 -13.665867217492815
v 9.618020802736282 47.95401481449117 -12.947494153700559
v 7.280977815389633 -1.4894982877008902 -12.623454387705172
v 9.03412327170372 -1.5862254382886092 -17.12285999442874
v 9.000640362501144 -1.5862248221326156 -13.340921441572293
v 7.280977815389633 -1.4894982877008902 -12.623454387705172
v 7.3144592344760895 -1.489498903856641 -16.4053914504455
v 11.367203295230865 47.97590101947535 -16.756570704889057
v 9.03412327170372 -1.5862254382886092 -17.12285999442874
v 7.3144592344760895 -1.489498903856641 -16.4053914504455
v 9.645751118659973 47.93005920419093 -16.038354099386552
v 11.339841783046722 47.97590152301486 -13.665867217492815
v 9.017366915941238 68.94352187906624 -15.231905188986966
v 7.3080748319625854 68.71626140565283 -14.518759419081878
v 9.618020802736282 47.95401481449117 -12.947494153700559
v 9.017366915941238 68.94352187906624 -15.231905188986966
v 11.367203295230865 47.97590101947535 -16.756570704889057
v 9.645751118659973 47.93005920419093 -16.038354099386552
v 7.3080748319625854 68.71626140565283 -14.518759419081878
v -3.3244263380765915 -1.5862299708145042 -8.358235398785677
v -1.794862188398838 66.63067233994008 -6.558835931140869
v -3.186853975057602 66.51807327561308 -6.128453497143866
v -4.698563739657402 -1.2665344288784288 -7.9333735429116965
v -0.11529410257935524 -1.586230296886182 -10.35964910175046
v -3.3244263380765915 -1.5862299708145042 -8.358235398785677
v -4.698563739657402 -1.2665344288784288 -7.9333735429116965
v -1.4894315972924232 -1.266534754950228 -9.93478799093454
v 0.8277279324829578 66.6306720734652 -8.194446988422364
v -0.11529410257935524 -1.586230296886182 -10.35964910175046
v -1.4894315972924232 -1.266534754950228 -9.93478799093454
v -0.5606512073427439 66.4551543459307 -7.765185484025416
v -1.794862188398838 66.63067233994008 -6.558835931140869
v -1.7198672518134117 99.69205107800099 -9.35896918140716
v -3.0333761125802994 99.06148764662142 -8.95285879196268
v -3.186853975057602 66.51807327561308 -6.128453497143866
v -1.7198672518134117 99.69205107800099 -9.35896918140716
v 0.8277279324829578 66.6306720734652 -8.194446988422364
v -0.5606512073427439 66.4551543459307 -7.765185484025416
v -3.0333761125802994 99.06148764662142 -8.95285879196268
v -17.38480031490326 -1.5862286960956902 -0.5340670445128354
v -15.062481164932251 47.97590671262635 -0.10479399250174162
v -16.781239211559296 47.95017848209912 0.5973272601586944
v -19.100283086299896 -1.4677226271815533 0.16671387176559294
v -16.16043448448181 -1.5862292790950288 -4.112491498248187
v -17.38480031490326 -1.5862286960956902 -0.5340670445128354
v -19.100283086299896 -1.4677226271815533 0.16671387176559294
v -17.87591427564621 -1.4677232101809223 -3.4117107682342733
v -14.061897993087769 47.9759062361835 -3.029179379952198
v -16.16043448448181 -1.5862292790950288 -4.112491498248187
v -17.87591427564621 -1.4677232101809223 -3.4117107682342733
v -15.779544413089752 47.90376088846294 -2.3275153525474614
v -15.062481164932251 47.97590671262635 -0.10479399250174162
v -16.77262932062149 68.94352398214568 -2.323295605013081
v -18.472646176815033 68.6658379762082 -1.628834206649082
v -16.781239211559296 47.95017848209912 0.5973272601586944
v -16.77262932062149 68.94352398214568 -2.323295605013081
v -14.061897993087769 47.9759062361835 -3.029179379952198
v -15.779544413089752 47.90376088846294 -2.3275153525474614
v -18.472646176815033 68.6658379762082 -1.628834206649082
v -5.115502327680588 -1.5862280690090051 3.314963614089879
v -4.169802740216255 35.08335966741241 1.1509116391664531
v -5.874057859182358 35.04806191861724 1.8987652555818122
v -6.818556040525436 -1.5078359184456107 4.062289245215253
v -8.322156965732574 -1.5862283957272116 1.30958154563466
v -5.115502327680588 -1.5862280690090051 3.314963614089879
v -6.818556040525436 -1.5078359184456107 4.062289245215253
v -10.025209933519363 -1.5078362451635745 2.0569086668761534
v -6.7903682589530945 34.87532726921459 -0.4879395485916498
v -8.322156965732574 -1.5862283957272116 1.30958154563466
v -10.025209933519363 -1.5078362451635745 2.0569086668761534
v -8.49483385682106 34.85491876069879 0.2600029135715625
v -4.169802740216255 35.08335966741241 1.1509116391664531
v -6.7188359797000885 67.93670095922309 2.3122725221426537
v -8.417084068059921 67.77533938629904 3.057493403310236
v -5.874057859182358 35.04806191861724 1.8987652555818122
v -6.7188359797000885 67.93670095922309 2.3122725221426537
v -6.7903682589530945 34.87532726921459 -0.4879395485916498
v -8.49483385682106 34.85491876069879 0.2600029135715625
v -8.417084068059921 67.77533938629904 3.057493403310236
v 11.293447017669678 -1.5862271189226633 9.146552046282682
v 12.520739436149597 80.3442787817493 7.128816419275658
v 10.81119105219841 80.31396994111901 7.872969983421531
v 9.58494171500206 -1.5137954334286223 9.89024514780911
v 8.384601026773453 -1.5862275127324725 6.729364653571042
v 11.293447017669678 -1.5862271189226633 9.146552046282682
v 9.58494171500206 -1.5137954334286223 9.89024514780911
v 6.676095724105835 -1.5137958272386742 7.4730562649813495
v 10.143551230430603 80.34427845991699 5.153423869045632
v 8.384601026773453 -1.5862275127324725 6.729364653571042
v 6.676095724105835 -1.5137958272386742 7.4730562649813495
v 8.43389555811882 80.32520509483459 5.897624742547804
v 12.520739436149597 80.3442787817493 7.128816419275658
v 9.839017689228058 113.40565810783404 7.9379478110095665
v 8.134641498327255 113.25657509119216 8.6798446136434
v 10.81119105219841 80.31396994111901 7.872969983421531
v 9.839017689228058 113.40565810783404 7.9379478110095665
v 10.143551230430603 80.34427845991699 5.153423869045632
v 8.43389555811882 80.32520509483459 5.897624742547804
v 8.134641498327255 113.25657509119216 8.6798446136434
v 1.386305969208479 -1.586231028866148 -14.852510134236422
v 2.613597735762596 16.428584092119465 -16.87023758322994
v 0.9044673293828964 16.378558034967867 -16.12626581003829
v -0.3210479859262705 -1.486583862648749 -14.109314735927835
v -1.5225421637296677 -1.5862314226764427 -17.2697005071803
v 1.386305969208479 -1.586231028866148 -14.852510134236422
v -0.3210479859262705 -1.486583862648749 -14.109314735927835
v -3.229892998933792 -1.486584256458801 -16.526503618755594
v 0.23640843573957682 16.428583770287293 -18.845629388401907
v -1.5225421637296677 -1.5862314226764427 -17.2697005071803
v -3.229892998933792 -1.486584256458801 -16.526503618755594
v -1.4732453972101212 16.40658381714647 -18.1014281418939
v 2.613597735762596 16.428584092119465 -16.87023758322994
v -0.06812545470893383 37.39620781536822 -16.06110049588287
v -1.7645511776208878 37.16218221889285 -15.322665964213524
v 0.9044673293828964 16.378558034967867 -16.12626581003829
v -0.06812545470893383 37.39620781536822 -16.06110049588287
v 0.23640843573957682 16.428583770287293 -18.845629388401907
v -1.4732453972101212 16.40658381714647 -18.1014281418939
v -1.7645511776208878 37.16218221889285 -15.322665964213524
v -14.193461835384369 -1.5862271982227507 8.659811576350126
v -12.312109023332596 35.083361123347544 10.087377822679857
v -13.975541293621063 35.03208334979808 10.715602591328043
v -15.850859880447388 -1.4181002747245919 9.285761646996509
v -11.490950733423233 -1.586227629289309 6.013943885906133
v -14.193461835384369 -1.5862271982227507 8.659811576350126
v -15.850859880447388 -1.4181002747245919 9.285761646996509
v -13.148351013660431 -1.4181007057914536 6.639892093907368
v -10.10354608297348 35.08336077106755 7.925098634046891
v -11.490950733423233 -1.586227629289309 6.013943885906133
v -13.148351013660431 -1.4181007057914536 6.639892093907368
v -11.765535175800323 34.98966833220755 8.552781007337847
v -12.312109023332596 35.083361123347544 10.087377822679857
v -12.842214107513428 68.14473986949139 7.336857243550422
v -14.478360116481781 67.80224572081944 7.954777161620172
v -13.975541293621063 35.03208334979808 10.715602591328043
v -12.842214107513428 68.14473986949139 7.336857243550422
v -10.10354608297348 35.08336077106755 7.925098634046891
v -11.765535175800323 34.98966833220755 8.552781007337847
v -14.478360116481781 67.80224572081944 7.954777161620172
v -5.419336259365082 -1.5862264189563875 13.442914446337614
v -3.0577315017580986 35.08336167274826 13.459575420898775
v -4.779047891497612 35.06359688856063 14.171700427456745
v -7.139336317777634 -1.510468799515589 14.154495544949434
v -4.83943372964859 -1.586227027850259 9.705550482018385
v -5.419336259365082 -1.5862264189563875 13.442914446337614
v -7.139336317777634 -1.510468799515589 14.154495544949434
v -6.559430807828903 -1.5104694084095818 10.417130835572145
v -2.5838226079940796 35.08335521467868 10.405297076983805
v -4.83943372964859 -1.586227027850259 9.705550482018385
v -6.559430807828903 -1.5104694084095818 10.417130835572145
v -4.304982349276543 35.05023899005056 11.11735577554969
v -3.0577315017580986 35.08336167274826 13.459575420898775
v -5.1293980330228806 68.14475248077399 11.574217750798311
v -6.844863295555115 67.9888268456678 12.28392655625212
v -4.779047891497612 35.06359688856063 14.171700427456745
v -5.1293980330228806 68.14475248077399 11.574217750798311
v -2.5838226079940796 35.08335521467868 10.405297076983805
v -4.304982349276543 35.05023899005056 11.11735577554969
v -6.844863295555115 67.9888268456678 12.28392655625212
f 1 2 3
f 1 3 4
f 5 6 7
f 8 9 10
f 8 10 11
f 12 13 14
f 15 16 17
f 15 17 18
f 19 20 21
f 22 23 24
f 22 24 25
f 26 27 28
f 29 30 31
f 29 31 32
f 33 34 35
f 36 37 38
f 36 38 39
f 40 41 42
f 43 44 45
f 43 45 46
f 47 48 49
f 50 51 52
f 50 52 53
f 54 55 56
f 57 58 59
f 57 59 60
f 61 62 63
f 64 65 66
f 64 66 67
f 68 69 70
f 71 72 73
f 71 73 74
f 75 76 77
f 78 79 80
f 78 80 81
f 82 83 84
f 85 86 87
f 85 87 88
f 89 90 91
f 92 93 94
f 92 94 95
f 96 97 98
f 99 100 101
f 99 101 102
f 103 104 105
f 106 107 108
f 106 108 109
f 110 111 112
f 113 114 115
f 113 115 116
f 117 118 119
f 120 121 122
f 120 122 123
f 124 125 126
f 127 128 129
f 127 129 130
f 131 132 133
f 134 135 136
f 134 136 137
f 138 139 140
f 141 142 143
f 141 143 144
f 145 146 147
f 148 149 150
f 148 150 151
f 152 153 154
f 155 156 157
f 155 157 158
f 159 160 161
f 162 163 164
f 162 164 165
f 166 167 168
f 169 170 171
f 169 171 172
f 173 174 175
f 173 175 176
f 177 178 179
f 177 179 180
f 181 182 183
f 181 183 184
f 185 186 187
f 185 187 188
f 189 190 191
f 189 191 192
f 193 194 195
f 193 195 196
f 197 198 199
f 197 199 200
f 201 202 203
f 201 203 204
f 205 206 207
f 205 207 208
f 209 210 211
f 209 211 212
f 213 214 215
f 213 215 216
f 217 218 219
f 217 219 220
f 221 222 223
f 221 223 224
f 225 226 227
f 225 227 228
f 229 230 231
f 229 231 232
f 233 234 235
f 233 235 236
f 237 238 239
f 237 239 240
f 241 242 243
f 241 243 244
f 245 246 247
f 245 247 248
f 249 250 251
f 249 251 252
f 253 254 255
f 253 255 256
f 257 258 259
f 257 259 260
f 261 262 263
f 261 263 264
f 265 266 267
f 265 267 268
f 269 270 271
f 269 271 272
f 273 274 275
f 273 275 276
f 277 278 279
f 277 279 280
f 281 282 283
f 281 283 284
f 285 286 287
f 285 287 288
f 289 290 291
f 289 291 292
f 293 294 295
f 293 295 296
f 297 298 299
f 297 299 300
f 301 302 303
f 301 303 304
f 305 306 307
f 305 307 308
f 309 310 311
f 309 311 312
f 313 314 315
f 313 315 316
f 317 318 319
f 317 319 320
f 321 322 323
f 321 323 324
f 325 326 327
f 325 327 328
f 329 330 331
f 329 331 332
f 333 334 335
f 333 335 336
f 337 338 339
f 337 339 340
f 341 342 343
f 341 343 344
f 345 346 347
f 345 347 348
f 349 350 351
f 349 351 352
f 353 354 355
f 353 355 356
f 357 358 359
f 357 359 360
f 361 362 363
f 361 363 364
f 365 366 367
f 365 367 368
f 369 370 371
f 369 371 372
f 373 374 375
f 373 375 376
f 377 378 379
f 377 379 380
f 381 382 383
f 381 383 384
f 385 386 387
f 385 387 388
f 389 390 391
f 389 391 392
f 393 394 395
f 393 395 396
f 397 398 399
f 397 399 400
f 401 402 403
f 401 403 404
f 405 406 407
f 405 407 408
