o convex_0
v -11.022323 23.887469 -16.139023
v -16.617645 51.843540 -13.901267
v -16.617645 51.843540 -13.342594
v -11.582036 99.961868 -13.342594
v -12.141749 -1.856036 -12.222621
v -15.498219 65.268434 -16.699010
v -13.819683 -1.856036 -15.020364
v -15.498219 9.336359 -12.222621
v -10.462610 -1.856036 -15.020364
v -14.378793 97.719403 -13.342594
v -12.141749 77.577078 -16.139023
v -13.260572 5.419519 -16.139023
v -11.582036 99.393777 -14.460815
v -16.617645 71.427739 -13.342594
v -14.378793 97.719403 -14.460815
v -12.141749 47.378542 -16.699010
v -15.498219 21.645003 -12.222621
v -14.938506 -0.171696 -13.342594
v -16.617645 70.869615 -14.460815
v -10.462610 -1.856036 -15.579036
v -11.582036 -0.171696 -12.782608
v -13.260572 22.761253 -12.222621
v -14.938506 70.311490 -16.699010
v -14.938506 -1.856036 -12.222621
v -11.022323 6.535768 -16.139023
v -12.701462 70.311490 -16.699010
v -10.462610 6.535768 -15.579036
v -11.582036 92.128188 -15.020364
v -14.938506 51.285415 -16.699010
v -13.819683 99.961868 -13.342594
v -16.617645 58.560970 -14.460815
v -15.498219 67.510899 -16.699010
f 15 23 32 
f 3 2 8 
f 5 7 9 
f 2 3 14 
f 3 8 14 
f 14 10 15 
f 11 1 16 
f 8 5 17 
f 14 8 17 
f 10 14 17 
f 8 2 18 
f 2 14 19 
f 14 15 19 
f 9 7 20 
f 7 12 20 
f 4 5 21 
f 9 4 21 
f 5 9 21 
f 5 4 22 
f 17 5 22 
f 15 13 23 
f 16 6 23 
f 7 5 24 
f 5 8 24 
f 18 7 24 
f 8 18 24 
f 16 1 25 
f 12 16 25 
f 1 20 25 
f 20 12 25 
f 11 16 26 
f 16 23 26 
f 4 9 27 
f 13 4 27 
f 9 20 27 
f 20 1 27 
f 1 11 28 
f 23 13 28 
f 11 26 28 
f 26 23 28 
f 27 1 28 
f 13 27 28 
f 12 7 29 
f 6 16 29 
f 16 12 29 
f 7 18 29 
f 4 13 30 
f 15 10 30 
f 13 15 30 
f 10 17 30 
f 22 4 30 
f 17 22 30 
f 18 2 31 
f 2 19 31 
f 19 6 31 
f 6 29 31 
f 29 18 31 
f 6 19 32 
f 19 15 32 
f 23 6 32 
o convex_1
v -0.950449 33.395523 -7.746232
v -6.545770 59.119095 -10.543099
v -6.545770 59.119095 -9.984427
v -1.510162 99.961868 -10.543099
v -2.069874 -1.856036 -12.222621
v -3.189300 -1.856036 -8.866206
v -4.866631 72.543989 -7.746232
v -4.866631 -1.856036 -12.222621
v -0.390736 -1.856036 -9.984427
v -4.306919 95.476937 -10.543099
v -2.069874 73.660238 -7.746232
v -4.306919 41.229203 -7.746232
v -0.390736 -1.856036 -8.306219
v -4.866631 9.894483 -12.222621
v -4.866631 -1.287945 -11.102647
v -1.510162 94.918812 -9.424878
v -6.545770 69.185274 -10.543099
v -3.747206 99.961868 -9.984427
v -0.390736 15.495664 -8.306219
v -2.628985 -1.856036 -8.306219
v -5.986057 68.627149 -8.866206
v -2.628985 10.452608 -12.222621
v -1.510162 0.386429 -11.662634
v -5.986057 56.876629 -11.102647
v -3.747206 99.961868 -10.543099
v -4.306919 88.211348 -8.866206
v -4.866631 54.644130 -7.746232
v -6.545770 69.185274 -9.984427
v -3.747206 31.153057 -7.746232
v -1.510162 87.653224 -8.866206
v -3.189300 5.419519 -8.306219
v -0.390736 10.452608 -9.424878
f 51 41 64 
f 35 34 40 
f 37 38 40 
f 38 37 41 
f 39 33 43 
f 33 39 44 
f 38 41 45 
f 40 34 46 
f 37 40 46 
f 35 40 47 
f 40 38 47 
f 34 35 49 
f 46 34 49 
f 48 36 50 
f 33 45 51 
f 45 41 51 
f 36 48 51 
f 38 45 52 
f 36 37 54 
f 37 46 54 
f 37 36 55 
f 36 41 55 
f 41 37 55 
f 49 42 56 
f 46 49 56 
f 50 36 57 
f 42 50 57 
f 36 54 57 
f 54 46 57 
f 56 42 57 
f 46 56 57 
f 39 43 58 
f 43 48 58 
f 48 50 58 
f 53 39 58 
f 44 39 59 
f 35 47 59 
f 47 44 59 
f 53 35 59 
f 39 53 59 
f 49 35 60 
f 42 49 60 
f 50 42 60 
f 35 53 60 
f 58 50 60 
f 53 58 60 
f 33 44 61 
f 45 33 61 
f 52 45 61 
f 43 33 62 
f 48 43 62 
f 33 51 62 
f 51 48 62 
f 47 38 63 
f 44 47 63 
f 38 52 63 
f 61 44 63 
f 52 61 63 
f 41 36 64 
f 36 51 64 
o convex_2
v 8.561384 64.710911 -11.103031
v 4.645201 38.415359 -9.425371
v 5.205517 24.436502 -9.425371
v 5.764737 41.211131 -12.781677
v 10.240687 -1.859049 -12.221799
v 9.120604 -0.176022 -7.746725
v 9.680372 67.506682 -9.425371
v 6.324504 -1.859049 -7.746725
v 8.001617 -1.859049 -12.221799
v 6.883724 67.506682 -9.425371
v 8.561384 49.605400 -12.781677
v 5.764737 52.964498 -12.221799
v 9.680372 69.189709 -10.543647
v 10.240687 -1.859049 -10.543647
v 4.645201 51.281472 -9.425371
v 6.883724 0.380350 -10.543647
v 6.883724 68.070009 -10.543647
v 4.645201 43.450530 -8.865987
v 10.240687 9.894318 -12.221799
v 4.645201 44.013857 -10.543647
v 5.764737 49.605400 -12.781677
v 9.680372 -1.859049 -8.865987
v 8.561384 36.175960 -12.781677
v 6.324504 -1.859049 -8.865987
v 4.645201 49.605400 -10.543647
v 7.442944 3.739449 -12.221799
v 5.205517 48.485700 -12.221799
v 6.324504 35.619588 -12.781677
v 6.324504 -0.739349 -7.746725
v 7.442944 69.189709 -10.543647
v 10.240687 3.739449 -10.543647
v 9.120604 -1.859049 -7.746725
f 72 86 96 
f 66 67 72 
f 69 72 73 
f 70 71 74 
f 74 71 77 
f 75 65 77 
f 72 69 78 
f 79 74 81 
f 66 72 82 
f 79 66 82 
f 74 79 82 
f 69 75 83 
f 77 71 83 
f 75 77 83 
f 78 69 83 
f 67 66 84 
f 66 79 84 
f 65 75 85 
f 75 68 85 
f 76 81 85 
f 71 70 86 
f 72 78 86 
f 68 75 87 
f 75 69 87 
f 72 67 88 
f 73 72 88 
f 80 73 88 
f 67 84 88 
f 84 80 88 
f 79 81 89 
f 84 79 89 
f 68 73 90 
f 73 80 90 
f 84 68 90 
f 80 84 90 
f 81 76 91 
f 68 84 91 
f 85 68 91 
f 76 85 91 
f 89 81 91 
f 84 89 91 
f 69 73 92 
f 73 68 92 
f 87 69 92 
f 68 87 92 
f 72 70 93 
f 70 74 93 
f 82 72 93 
f 74 82 93 
f 77 65 94 
f 74 77 94 
f 81 74 94 
f 65 85 94 
f 85 81 94 
f 83 71 95 
f 78 83 95 
f 71 86 95 
f 86 78 95 
f 70 72 96 
f 86 70 96 
o convex_3
v 15.836173 65.830610 6.802359
v 10.800236 42.894157 7.361251
v 10.800236 42.894157 7.920635
v 17.514819 -1.859049 6.802359
v 13.038868 44.570229 4.564329
v 12.479539 -1.859049 9.599281
v 15.836173 69.189709 7.920635
v 14.157527 0.380350 6.242975
v 14.716857 -1.859049 9.599281
v 16.394845 24.436502 5.124207
v 13.038868 66.386983 7.920635
v 15.836173 52.964498 5.124207
v 13.038868 57.436341 5.683591
v 11.920209 11.570390 7.920635
v 15.276186 2.063377 5.683591
v 10.800236 49.049027 6.802359
v 17.514819 2.619749 6.242975
v 13.598198 69.189709 7.361251
v 12.479539 2.063377 9.599281
v 15.276186 48.485700 4.564329
v 12.479539 -1.859049 8.480019
v 10.800236 49.049027 7.920635
v 10.800236 45.133556 6.802359
v 14.716857 3.176121 9.599281
v 17.514819 -1.859049 6.242975
v 13.038868 49.049027 4.564329
v 13.598198 24.999830 5.124207
v 11.920209 6.535220 8.480019
v 13.598198 69.189709 7.920635
v 14.716857 -1.859049 6.242975
v 16.954832 3.176121 5.683591
v 17.514819 2.619749 6.802359
f 103 120 128 
f 102 100 105 
f 101 106 111 
f 98 99 112 
f 97 103 113 
f 108 97 113 
f 106 108 113 
f 103 97 114 
f 97 109 114 
f 112 107 114 
f 109 112 114 
f 99 102 115 
f 102 105 115 
f 106 101 116 
f 108 106 116 
f 100 102 117 
f 110 104 117 
f 112 99 118 
f 107 112 118 
f 99 115 118 
f 115 107 118 
f 98 112 119 
f 112 101 119 
f 105 100 120 
f 115 105 120 
f 113 100 121 
f 106 113 121 
f 100 117 121 
f 97 108 122 
f 109 97 122 
f 101 112 122 
f 112 109 122 
f 116 101 122 
f 108 116 122 
f 104 110 123 
f 111 104 123 
f 101 111 123 
f 119 101 123 
f 110 119 123 
f 99 98 124 
f 102 99 124 
f 117 102 124 
f 110 117 124 
f 98 119 124 
f 119 110 124 
f 103 114 125 
f 114 107 125 
f 107 115 125 
f 120 103 125 
f 115 120 125 
f 104 111 126 
f 117 104 126 
f 111 121 126 
f 121 117 126 
f 111 106 127 
f 121 111 127 
f 106 121 127 
f 100 113 128 
f 113 103 128 
f 120 100 128 
o convex_4
v 6.322971 85.968883 1.206107
v 2.966556 -1.856036 -2.150746
v 2.966556 -1.856036 2.325642
v 2.966556 99.961868 -0.472101
v 7.442944 53.527881 -2.150746
v 5.763860 4.861394 2.325642
v 5.204750 -1.856036 -2.150746
v 7.442944 73.102114 1.765655
v 2.966556 97.719403 0.646558
v 5.763860 96.603153 -0.472101
v 4.645640 58.002845 -2.150746
v 4.645640 74.218363 1.765655
v 7.442944 73.102114 -1.591198
v 7.442944 53.527881 1.765655
v 3.526542 23.319377 2.325642
v 5.763860 4.861394 -2.150746
v 5.204750 -1.856036 2.325642
v 6.882958 78.135203 -1.591198
v 5.204750 98.277527 0.646558
v 6.322971 23.319377 2.325642
v 2.966556 11.020699 -2.150746
v 3.526542 89.885723 -1.031649
v 5.204750 99.961868 -0.472101
v 2.966556 11.020699 2.325642
v 5.763860 96.603153 0.646558
v 4.645640 78.135203 -1.591198
v 7.442944 58.002845 -2.150746
v 2.966556 99.961868 0.087448
v 6.882958 74.218363 1.765655
v 5.204750 99.961868 0.087448
v 5.763860 89.885723 -1.031649
v 4.086529 43.461702 -2.150746
f 149 150 160 
f 130 131 132 
f 131 130 135 
f 130 133 135 
f 132 131 137 
f 133 130 139 
f 136 133 141 
f 138 136 141 
f 134 133 142 
f 133 136 142 
f 131 134 143 
f 140 137 143 
f 133 134 144 
f 134 135 144 
f 135 133 144 
f 134 131 145 
f 131 135 145 
f 135 134 145 
f 138 141 146 
f 137 140 147 
f 134 142 148 
f 142 136 148 
f 143 134 148 
f 140 143 148 
f 130 132 149 
f 139 130 149 
f 149 132 150 
f 138 146 151 
f 150 132 151 
f 137 131 152 
f 131 143 152 
f 143 137 152 
f 129 136 153 
f 136 138 153 
f 147 129 153 
f 138 151 153 
f 139 150 154 
f 150 146 154 
f 133 139 155 
f 141 133 155 
f 146 141 155 
f 139 154 155 
f 154 146 155 
f 132 137 156 
f 137 147 156 
f 151 132 156 
f 136 129 157 
f 129 147 157 
f 147 140 157 
f 148 136 157 
f 140 148 157 
f 147 153 158 
f 153 151 158 
f 156 147 158 
f 151 156 158 
f 146 150 159 
f 151 146 159 
f 150 151 159 
f 139 149 160 
f 150 139 160 
o convex_5
v 10.240523 17.160783 14.635054
v 4.645201 38.420397 11.838625
v 4.645201 38.420397 12.398010
v 5.764627 -1.866005 10.719364
v 7.443766 47.363644 11.838625
v 6.324943 54.080035 15.754315
v 8.002274 -1.866005 14.635054
v 8.561987 -1.866005 10.719364
v 8.561987 59.124790 15.754315
v 4.645201 59.124790 12.398010
v 10.800236 -1.866005 14.635054
v 8.561987 58.002407 14.075670
v 5.764627 -1.866005 11.838625
v 10.240523 -1.304813 12.957394
v 5.204914 56.324802 14.635054
v 7.443766 3.172780 14.635054
v 6.883451 59.124790 12.398010
v 9.680810 18.838388 15.194438
v 4.645201 47.930806 11.838625
v 9.120495 52.969592 14.635054
v 8.561987 1.495175 10.719364
v 6.324943 59.124790 15.754315
v 7.443766 17.727945 15.194438
v 4.645201 51.286016 13.516285
v 10.240523 17.160783 14.075670
v 9.680810 35.053247 15.194438
v 4.645201 59.124790 13.516285
v 6.883451 25.554778 15.194438
v 6.324943 1.495175 12.957394
v 5.764627 0.933984 10.719364
v 4.645201 41.775608 12.957394
v 10.800236 -1.866005 14.075670
f 174 185 192 
f 163 162 164 
f 167 164 168 
f 162 163 170 
f 167 168 171 
f 163 164 173 
f 164 167 173 
f 165 172 174 
f 173 167 176 
f 170 169 177 
f 172 165 177 
f 169 172 177 
f 169 166 178 
f 171 169 178 
f 164 162 179 
f 162 170 179 
f 177 165 179 
f 170 177 179 
f 172 169 180 
f 168 164 181 
f 165 174 181 
f 174 168 181 
f 179 165 181 
f 166 169 182 
f 169 170 182 
f 175 166 182 
f 167 171 183 
f 176 167 183 
f 178 166 183 
f 171 178 183 
f 170 163 184 
f 161 171 185 
f 174 172 185 
f 180 161 185 
f 172 180 185 
f 171 161 186 
f 169 171 186 
f 161 180 186 
f 180 169 186 
f 182 170 187 
f 175 182 187 
f 170 184 187 
f 184 175 187 
f 166 175 188 
f 183 166 188 
f 176 183 188 
f 173 176 189 
f 188 175 189 
f 176 188 189 
f 164 179 190 
f 181 164 190 
f 179 181 190 
f 163 173 191 
f 184 163 191 
f 175 184 191 
f 173 189 191 
f 189 175 191 
f 171 168 192 
f 168 174 192 
f 185 171 192 
o convex_6
v 6.883396 97.728987 13.516833
v 4.085653 60.807927 12.397517
v 4.645968 59.132787 12.397517
v 6.324176 59.132787 15.754808
v 9.681139 98.288700 12.397517
v 8.561056 59.132787 15.754808
v 6.883396 59.132787 12.397517
v 5.764956 69.203620 15.754808
v 9.120823 83.180450 14.635492
v 6.883396 99.971837 12.397517
v 4.085653 67.524482 13.516833
v 8.561056 59.132787 14.635492
v 9.681139 99.971837 12.957503
v 8.561056 69.203620 15.754808
v 4.085653 68.643908 12.397517
v 8.001836 59.132787 13.516833
v 6.324176 93.810997 13.516833
v 5.205188 59.132787 14.635492
v 9.120823 97.728987 13.516833
v 5.764956 61.927353 15.754808
v 4.085653 64.725917 13.516833
v 6.324176 94.930423 12.957503
v 6.883396 99.971837 12.957503
v 6.324176 83.740163 14.635492
v 5.205188 65.845343 15.194821
v 4.085653 60.807927 12.957503
v 9.681139 99.971837 12.397517
v 6.324176 94.930423 12.397517
v 5.205188 82.061025 12.957503
v 5.205188 80.941599 13.516833
v 9.681139 98.288700 12.957503
v 4.645968 60.807927 14.076162
f 213 218 224 
f 195 194 197 
f 196 195 198 
f 195 197 199 
f 198 195 199 
f 196 198 200 
f 197 194 202 
f 197 198 204 
f 198 199 204 
f 200 198 206 
f 198 201 206 
f 202 194 207 
f 194 203 207 
f 199 197 208 
f 197 204 208 
f 204 199 208 
f 195 196 210 
f 201 205 211 
f 205 193 211 
f 206 201 211 
f 196 200 212 
f 210 196 212 
f 203 194 213 
f 214 209 215 
f 193 205 215 
f 205 202 215 
f 209 193 215 
f 202 214 215 
f 200 206 216 
f 193 209 216 
f 209 200 216 
f 211 193 216 
f 206 211 216 
f 200 203 217 
f 212 200 217 
f 213 212 217 
f 203 213 217 
f 194 195 218 
f 195 210 218 
f 213 194 218 
f 197 202 219 
f 205 197 219 
f 202 205 219 
f 202 207 220 
f 214 202 220 
f 214 220 221 
f 207 203 221 
f 209 214 221 
f 220 207 221 
f 209 221 222 
f 203 200 222 
f 200 209 222 
f 221 203 222 
f 198 197 223 
f 201 198 223 
f 197 205 223 
f 205 201 223 
f 210 212 224 
f 212 213 224 
f 218 210 224 
o convex_7
v -13.820504 43.457430 -2.710295
v -19.974334 -1.866005 -2.710295
v -18.295359 -1.866005 -4.948051
v -14.939820 -1.866005 -4.388064
v -16.618192 41.216990 -3.829392
v -16.058534 27.783223 -1.031649
v -18.295359 43.457430 -1.031649
v -14.939820 2.051438 -5.508038
v -17.176646 4.850878 -1.591636
v -13.820504 43.457430 -3.829392
v -18.855017 31.700666 -2.150746
v -19.414676 5.409879 -1.591636
v -17.176646 2.610438 -5.508038
v -15.499479 43.457430 -1.031649
v -13.820504 28.901225 -3.269844
v -17.176646 -1.866005 -2.150746
v -19.974334 5.968880 -2.710295
v -18.855017 26.110657 -1.031649
v -13.820504 31.700666 -4.388064
v -14.939820 -1.866005 -5.508038
v -16.618192 32.264103 -4.388064
v -16.618192 2.610438 -2.150746
v -17.736304 -0.743567 -5.508038
v -19.974334 -1.866005 -2.150746
v -18.855017 35.063544 -1.031649
v -18.295359 43.457430 -1.591636
v -14.380162 7.650319 -4.948051
v -15.499479 36.181546 -1.031649
v -16.058534 43.457430 -3.829392
v -14.380162 12.126763 -3.829392
v -13.820504 37.299548 -2.710295
v -19.974334 5.968880 -2.150746
f 249 241 256 
f 226 227 228 
f 231 225 234 
f 225 231 238 
f 231 230 238 
f 234 225 239 
f 226 228 240 
f 227 226 241 
f 230 231 242 
f 233 230 242 
f 236 233 242 
f 232 237 243 
f 234 239 243 
f 228 227 244 
f 237 232 244 
f 232 243 244 
f 234 243 245 
f 243 237 245 
f 230 233 246 
f 240 228 246 
f 233 240 246 
f 235 229 247 
f 227 241 247 
f 241 235 247 
f 244 227 247 
f 237 244 247 
f 229 245 247 
f 245 237 247 
f 233 236 248 
f 226 240 248 
f 240 233 248 
f 241 226 248 
f 236 242 248 
f 248 242 249 
f 235 241 249 
f 242 231 249 
f 231 234 250 
f 229 235 250 
f 249 231 250 
f 235 249 250 
f 243 239 251 
f 244 243 251 
f 228 244 251 
f 225 238 252 
f 238 230 252 
f 230 246 252 
f 246 239 252 
f 245 229 253 
f 234 245 253 
f 250 234 253 
f 229 250 253 
f 246 228 254 
f 239 246 254 
f 228 251 254 
f 251 239 254 
f 239 225 255 
f 225 252 255 
f 252 239 255 
f 241 248 256 
f 248 249 256 
o convex_8
v -13.820614 49.055764 -2.150746
v -18.854744 65.835649 -3.829392
v -18.854744 65.835649 -3.269405
v -18.295578 43.457430 -1.591417
v -13.820614 43.457430 -3.829392
v -15.499205 48.493915 -0.472101
v -16.057822 69.196665 -3.269405
v -18.295578 48.493915 -0.472101
v -16.057822 43.457430 -3.829392
v -13.820614 52.971070 -3.829392
v -15.499205 43.457430 -1.031759
v -18.854744 69.196665 -3.269405
v -16.057822 69.196665 -3.829392
v -13.260353 46.259117 -2.710076
v -16.057822 65.835649 -2.710076
v -15.499205 45.140458 -0.472101
v -18.295578 43.457430 -1.031759
v -13.260353 48.493915 -2.710076
v -15.499205 60.242354 -2.150746
v -13.820614 43.457430 -2.710076
v -18.854744 69.196665 -3.829392
v -18.295578 65.835649 -2.710076
v -18.295578 46.259117 -0.472101
v -15.499205 52.971070 -1.031759
v -13.260353 46.259117 -3.269405
v -15.499205 65.835649 -3.269405
v -17.176700 57.445706 -1.591417
v -15.499205 63.598331 -2.710076
v -14.939492 49.612574 -1.031759
v -14.380327 56.327047 -2.710076
v -15.499205 65.835649 -3.829392
v -13.260353 48.493915 -3.269405
f 274 281 288 
f 259 258 260 
f 260 258 265 
f 261 260 265 
f 258 261 265 
f 261 258 266 
f 260 261 267 
f 258 259 268 
f 259 264 268 
f 266 258 269 
f 268 263 269 
f 263 268 271 
f 262 264 272 
f 270 262 272 
f 259 260 273 
f 260 267 273 
f 267 272 273 
f 262 270 274 
f 263 271 275 
f 267 261 276 
f 261 270 276 
f 272 267 276 
f 270 272 276 
f 258 268 277 
f 269 258 277 
f 268 269 277 
f 268 264 278 
f 271 268 278 
f 264 259 279 
f 272 264 279 
f 259 273 279 
f 273 272 279 
f 264 262 280 
f 275 271 280 
f 261 266 281 
f 270 261 281 
f 274 270 281 
f 269 263 282 
f 274 266 282 
f 278 264 283 
f 271 278 283 
f 264 280 283 
f 280 271 283 
f 263 275 284 
f 282 263 284 
f 274 257 285 
f 262 274 285 
f 280 262 285 
f 275 280 285 
f 257 274 286 
f 274 282 286 
f 284 275 286 
f 282 284 286 
f 285 257 286 
f 275 285 286 
f 266 269 287 
f 282 266 287 
f 269 282 287 
f 266 274 288 
f 281 266 288 
o convex_9
v -12.141420 23.315982 7.921128
v -17.736742 58.002407 4.563837
v -17.736742 58.002407 5.123385
v -16.057603 -1.866005 3.444739
v -13.261449 6.527991 3.444739
v -14.379669 -1.866005 7.361141
v -13.261449 57.435245 7.921128
v -16.057603 59.124790 7.921128
v -14.938780 59.124790 4.563837
v -11.581707 -1.866005 6.242044
v -14.938780 16.605561 7.921128
v -16.057603 0.933984 4.563837
v -13.261449 57.435245 7.361141
v -11.581707 -1.866005 7.361141
v -16.617316 52.402430 7.361141
v -13.261449 -1.866005 3.444739
v -16.057603 7.656344 3.444739
v -14.379669 58.002407 5.123385
v -11.581707 0.372792 6.242044
v -12.141420 14.366764 7.921128
v -14.379669 36.175630 4.004726
v -17.736742 59.124790 4.563837
v -17.177029 44.575596 5.682934
v -13.819956 59.124790 7.921128
v -11.581707 5.978739 6.801154
v -16.057603 45.686039 7.921128
v -14.938780 1.495175 6.801154
v -12.701133 -1.866005 4.004726
v -14.379669 13.250351 7.921128
v -16.057603 -1.866005 4.004726
v -16.617316 59.124790 7.361141
v -13.261449 51.286016 6.801154
f 307 306 320 
f 291 290 292 
f 289 295 296 
f 294 292 298 
f 289 296 299 
f 295 289 301 
f 294 298 302 
f 292 293 304 
f 298 292 304 
f 292 290 305 
f 293 292 305 
f 293 297 306 
f 297 301 306 
f 302 298 307 
f 293 306 307 
f 289 299 308 
f 302 289 308 
f 297 293 309 
f 293 305 309 
f 309 305 310 
f 290 291 310 
f 296 297 310 
f 305 290 310 
f 297 309 310 
f 291 300 311 
f 303 291 311 
f 296 295 312 
f 297 296 312 
f 295 301 312 
f 301 297 312 
f 301 289 313 
f 289 302 313 
f 307 301 313 
f 302 307 313 
f 299 296 314 
f 296 303 314 
f 303 299 314 
f 294 299 315 
f 300 294 315 
f 299 303 315 
f 311 300 315 
f 303 311 315 
f 304 293 316 
f 298 304 316 
f 293 307 316 
f 307 298 316 
f 299 294 317 
f 294 302 317 
f 308 299 317 
f 302 308 317 
f 291 292 318 
f 292 294 318 
f 300 291 318 
f 294 300 318 
f 291 303 319 
f 303 296 319 
f 310 291 319 
f 296 310 319 
f 306 301 320 
f 301 307 320 
o convex_10
v -13.820668 82.620738 7.361141
v -17.736249 59.132787 4.563837
v -17.736249 59.132787 5.683372
v -14.939547 99.971837 5.123988
v -14.939547 59.132787 4.563837
v -16.057439 63.606492 8.480677
v -13.820668 59.132787 7.920526
v -12.700805 99.971837 5.123988
v -15.498000 94.930423 6.243140
v -17.736249 69.759335 5.683372
v -12.700805 97.169274 6.243140
v -12.700805 91.572146 5.123988
v -13.820668 66.964769 8.480677
v -16.057439 74.796751 7.920526
v -13.820668 59.132787 6.801374
v -12.700805 87.098441 6.801374
v -16.616878 60.248214 7.920526
v -16.616878 69.759335 7.920526
v -17.736249 63.046779 4.563837
v -14.939547 97.728987 6.243140
v -16.616878 83.180450 5.123988
v -16.057439 67.524482 8.480677
v -14.939547 63.606492 4.563837
v -16.057439 59.132787 7.920526
v -13.261229 74.796751 7.920526
v -12.700805 99.971837 5.683372
v -15.498000 96.049849 5.123988
v -17.736249 69.759335 5.123988
v -14.939547 99.971837 5.683372
v -13.820668 64.725917 8.480677
v -12.700805 88.217866 5.683372
v -17.176317 70.319048 6.801374
f 330 338 352 
f 323 322 325 
f 323 325 327 
f 322 323 330 
f 325 328 332 
f 328 331 332 
f 327 325 335 
f 325 332 335 
f 332 331 336 
f 327 335 336 
f 330 323 337 
f 334 329 338 
f 337 326 338 
f 330 337 338 
f 325 322 339 
f 322 330 339 
f 321 331 340 
f 329 334 340 
f 326 333 342 
f 338 326 342 
f 334 338 342 
f 321 340 342 
f 340 334 342 
f 324 328 343 
f 328 325 343 
f 325 339 343 
f 339 324 343 
f 323 327 344 
f 327 326 344 
f 337 323 344 
f 326 337 344 
f 331 321 345 
f 336 331 345 
f 327 336 345 
f 321 342 345 
f 342 333 345 
f 328 324 346 
f 331 328 346 
f 340 331 346 
f 330 329 347 
f 324 339 347 
f 341 330 347 
f 339 341 347 
f 339 330 348 
f 330 341 348 
f 341 339 348 
f 329 340 349 
f 346 324 349 
f 340 346 349 
f 324 347 349 
f 347 329 349 
f 326 327 350 
f 333 326 350 
f 327 345 350 
f 345 333 350 
f 335 332 351 
f 332 336 351 
f 336 335 351 
f 329 330 352 
f 338 329 352 
o convex_11
v -3.189136 33.936342 0.646777
v -7.664210 40.652677 -1.031375
v -7.664210 40.652677 -0.472758
v -7.104333 -1.852422 -2.150527
v -2.629916 63.592800 0.087393
v -3.748356 0.381829 -2.710295
v -0.950942 -1.295557 -0.472758
v -7.664210 67.518019 -0.472758
v -5.985893 65.827051 1.206545
v -3.748356 -1.852422 -0.472758
v -2.070039 64.149665 1.206545
v -0.950942 -1.852422 -1.590760
v -7.104333 6.534508 -2.710295
v -4.866796 57.996985 -1.031375
v -7.104333 2.622871 -1.590760
v -4.866796 53.521692 1.206545
v -4.307576 67.518019 -0.472758
v -2.070039 54.642213 1.206545
v -4.866796 8.775550 -2.710295
v -7.664210 56.319599 -1.031375
v -7.104333 67.518019 0.646777
v -2.629916 67.518019 1.206545
v -2.070039 57.440120 0.087393
v -7.104333 -1.852422 -2.710295
v -7.664210 54.078557 0.087393
v -0.950942 -0.175036 -1.590760
v -4.307576 2.059215 -0.472758
v -2.070039 64.149665 0.646777
v -3.748356 -1.852422 -2.710295
v -3.748356 14.928230 0.087393
v -5.985893 41.773198 -1.590760
v -6.545113 -1.852422 -1.590760
f 379 367 384 
f 355 354 356 
f 354 355 360 
f 362 356 364 
f 359 362 364 
f 355 356 367 
f 363 361 368 
f 361 367 368 
f 366 360 369 
f 358 366 369 
f 353 359 370 
f 359 363 370 
f 368 353 370 
f 363 368 370 
f 358 365 371 
f 366 358 371 
f 354 360 372 
f 365 354 372 
f 360 366 372 
f 369 360 373 
f 369 373 374 
f 361 363 374 
f 373 361 374 
f 369 357 375 
f 356 354 376 
f 364 356 376 
f 354 365 376 
f 365 358 376 
f 360 355 377 
f 355 367 377 
f 367 361 377 
f 373 360 377 
f 361 373 377 
f 363 359 378 
f 364 358 378 
f 359 364 378 
f 358 369 378 
f 369 375 378 
f 362 368 379 
f 368 367 379 
f 357 369 380 
f 369 374 380 
f 374 363 380 
f 375 357 380 
f 363 378 380 
f 378 375 380 
f 358 364 381 
f 376 358 381 
f 364 376 381 
f 359 353 382 
f 362 359 382 
f 368 362 382 
f 353 368 382 
f 371 365 383 
f 366 371 383 
f 372 366 383 
f 365 372 383 
f 356 362 384 
f 367 356 384 
f 362 379 384 
o convex_12
v -3.189410 97.729042 -1.031430
v -7.664867 67.518019 -0.472101
v -4.307904 67.518019 -0.472101
v -4.867891 72.000433 1.206545
v -5.425906 99.971837 -2.150746
v -2.628930 67.518019 1.206545
v -3.189410 95.489423 -2.150746
v -5.425906 98.847262 -1.031430
v -7.104388 68.642593 0.646887
v -2.628930 68.083483 0.087229
v -5.985893 72.559543 -1.031430
v -2.628930 91.016540 -0.472101
v -7.664867 69.760814 0.087229
v -2.628930 96.054887 -1.591088
v -2.628930 71.434969 1.206545
v -3.189410 99.971837 -2.150746
v -4.307904 73.677764 -1.031430
v -5.425906 67.518019 1.206545
v -7.104388 73.677764 -1.031430
v -2.628930 89.898319 -1.591088
v -5.425906 97.173108 -2.150746
v -6.545387 85.981369 -0.472101
v -7.104388 78.153824 -1.031430
v -5.425906 70.316748 1.206545
v -4.307904 98.847262 -1.031430
v -3.189410 99.971837 -1.591088
v -3.748411 83.744928 -1.591088
v -5.985893 93.812092 -1.031430
v -2.628930 96.054887 -1.031430
v -7.104388 67.518019 0.646887
v -5.425906 92.137937 -0.472101
v -4.867891 83.744928 -1.591088
f 411 395 416 
f 386 387 390 
f 390 387 394 
f 387 386 395 
f 390 394 396 
f 396 394 398 
f 388 390 399 
f 390 396 399 
f 391 389 400 
f 398 391 400 
f 394 387 401 
f 387 395 401 
f 386 390 402 
f 390 388 402 
f 395 386 403 
f 391 398 404 
f 398 394 404 
f 389 391 405 
f 403 389 405 
f 397 393 406 
f 397 406 407 
f 386 397 407 
f 403 386 407 
f 389 403 407 
f 402 388 408 
f 393 402 408 
f 396 385 409 
f 388 399 409 
f 399 396 409 
f 389 392 410 
f 400 389 410 
f 398 400 410 
f 392 409 410 
f 409 385 410 
f 394 401 411 
f 401 395 411 
f 391 404 411 
f 404 394 411 
f 392 389 412 
f 406 392 412 
f 407 406 412 
f 389 407 412 
f 385 396 413 
f 396 398 413 
f 410 385 413 
f 398 410 413 
f 397 386 414 
f 393 397 414 
f 386 402 414 
f 402 393 414 
f 392 406 415 
f 406 393 415 
f 408 388 415 
f 393 408 415 
f 388 409 415 
f 409 392 415 
f 395 403 416 
f 405 391 416 
f 403 405 416 
f 391 411 416 
o convex_13
v -4.307740 17.161933 16.314357
v -9.903062 42.330830 12.957503
v -8.223923 -0.739349 11.837968
v -4.867453 69.189709 13.516614
v -8.783033 49.605400 16.314357
v -4.867453 -1.859049 12.397955
v -6.546592 -1.859049 15.754370
v -5.427166 52.964498 16.314357
v -3.748027 -1.859049 14.634835
v -7.104497 69.189709 14.076162
v -9.903062 43.450530 14.076162
v -5.427166 5.415520 11.837968
v -9.903062 46.809628 12.957503
v -7.104497 12.690090 16.314357
v -3.748027 -1.859049 15.754370
v -4.867453 62.471512 15.194383
v -8.223923 0.943677 12.957503
v -9.903062 49.605400 14.076162
v -7.664210 7.098547 11.837968
v -7.104497 69.189709 13.516614
v -7.664210 62.471512 15.194383
v -3.748027 4.859148 15.754370
v -8.783033 44.013857 16.314357
v -4.867453 66.950310 14.634835
v -7.664210 -1.859049 11.837968
v -7.664210 65.830610 14.634835
v -8.223923 52.964498 16.314357
v -5.427166 -1.859049 11.837968
v -8.223923 62.471512 13.516614
v -7.104497 67.506682 14.634835
v -3.748027 0.943677 14.634835
v -4.307740 13.246462 16.314357
f 430 431 448 
f 421 417 424 
f 423 422 425 
f 418 419 427 
f 420 422 428 
f 419 418 429 
f 418 427 429 
f 417 421 430 
f 423 425 431 
f 430 423 431 
f 424 417 432 
f 419 423 433 
f 427 419 433 
f 423 430 433 
f 427 421 434 
f 429 427 434 
f 428 419 435 
f 420 428 435 
f 419 429 435 
f 435 429 436 
f 426 420 436 
f 420 435 436 
f 417 431 438 
f 431 425 438 
f 432 417 438 
f 421 427 439 
f 430 421 439 
f 427 433 439 
f 433 430 439 
f 420 426 440 
f 438 420 440 
f 432 438 440 
f 423 419 441 
f 422 423 441 
f 419 428 441 
f 434 421 442 
f 426 436 442 
f 421 424 443 
f 442 421 443 
f 437 442 443 
f 428 422 444 
f 422 441 444 
f 441 428 444 
f 429 434 445 
f 436 429 445 
f 434 442 445 
f 442 436 445 
f 424 432 446 
f 440 426 446 
f 432 440 446 
f 426 442 446 
f 442 437 446 
f 443 424 446 
f 437 443 446 
f 422 420 447 
f 425 422 447 
f 420 438 447 
f 438 425 447 
f 417 430 448 
f 431 417 448 
o convex_14
v 18.074367 8.772210 -3.270117
v 11.359784 59.681819 -4.388503
v 11.359784 59.681819 -3.829118
v 11.919771 -1.866005 -1.591198
v 15.276405 -1.866005 -3.829118
v 16.954394 64.160728 -5.508038
v 14.157746 55.765198 -3.270117
v 15.276405 -1.866005 -1.591198
v 14.157746 54.084800 -5.508038
v 18.074367 -1.866005 -3.829118
v 11.919771 2.057079 -2.710733
v 16.394407 63.598440 -4.388503
v 11.919771 64.160728 -4.947887
v 18.074367 0.376681 -2.710733
v 11.359784 64.160728 -3.829118
v 12.479758 4.855589 -1.591198
v 16.954394 52.966689 -5.508038
v 14.717076 5.411413 -1.591198
v 17.514381 36.737918 -3.829118
v 14.717076 32.821297 -4.947887
v 11.919771 54.084800 -3.270117
v 14.717076 64.160728 -3.829118
v 13.598417 64.160728 -5.508038
v 17.514381 41.772650 -4.947887
v 11.919771 62.480329 -4.947887
v 16.954394 64.160728 -4.947887
v 15.835735 13.813405 -4.388503
v 11.919771 3.731014 -1.591198
v 12.479758 -1.866005 -2.710733
v 14.717076 51.286290 -3.270117
v 18.074367 -1.866005 -2.710733
v 15.835735 51.286290 -5.508038
f 475 468 480 
f 451 450 452 
f 452 453 456 
f 456 453 458 
f 452 450 459 
f 458 449 462 
f 450 451 463 
f 451 452 463 
f 461 450 463 
f 454 461 463 
f 452 456 464 
f 457 454 465 
f 456 462 466 
f 455 464 466 
f 464 456 466 
f 462 449 467 
f 453 459 468 
f 455 463 469 
f 464 455 469 
f 463 455 470 
f 454 463 470 
f 454 457 471 
f 461 454 471 
f 449 458 472 
f 465 454 472 
f 458 465 472 
f 467 449 472 
f 459 450 473 
f 450 461 473 
f 468 459 473 
f 457 468 473 
f 471 457 473 
f 461 471 473 
f 460 467 474 
f 454 470 474 
f 470 460 474 
f 472 454 474 
f 467 472 474 
f 458 453 475 
f 453 468 475 
f 463 452 476 
f 452 464 476 
f 469 463 476 
f 464 469 476 
f 453 452 477 
f 452 459 477 
f 459 453 477 
f 455 466 478 
f 466 462 478 
f 467 460 478 
f 462 467 478 
f 460 470 478 
f 470 455 478 
f 456 458 479 
f 462 456 479 
f 458 462 479 
f 457 465 480 
f 465 458 480 
f 468 457 480 
f 458 475 480 
o convex_15
v 16.394955 98.292753 -3.270063
v 11.359784 64.160728 -4.388393
v 11.359784 64.160728 -3.829392
v 16.955270 64.160728 -5.508038
v 16.394955 97.171027 -2.150746
v 13.598855 99.410974 -3.270063
v 14.157527 72.559653 -5.508038
v 14.716200 64.160728 -3.829392
v 13.598855 99.971837 -2.150746
v 13.039087 66.961538 -5.508038
v 16.955270 71.441432 -5.508038
v 16.955270 64.160728 -4.948051
v 11.920100 75.917820 -4.388393
v 15.275967 96.613669 -2.150746
v 16.394955 99.410974 -2.150746
v 13.598855 64.160728 -5.508038
v 16.955270 70.880569 -4.388393
v 11.359784 67.518895 -3.829392
v 14.716200 99.410974 -3.270063
v 11.920100 68.640622 -4.948051
v 14.716200 74.238736 -3.270063
v 13.598855 98.292753 -2.150746
v 15.835187 99.971837 -2.710733
v 11.920100 64.160728 -4.948051
v 15.275967 72.559653 -5.508038
v 16.955270 73.677873 -4.948051
v 11.359784 67.518895 -4.388393
v 13.598855 77.589893 -4.948051
v 15.275967 92.691133 -3.829392
v 14.157527 85.420945 -2.710733
v 13.598855 99.971837 -2.710733
v 16.955270 73.677873 -4.388393
f 497 506 512 
f 483 482 484 
f 483 484 488 
f 487 484 490 
f 484 487 491 
f 488 484 492 
f 484 491 492 
f 485 489 494 
f 489 485 495 
f 484 482 496 
f 490 484 496 
f 485 488 497 
f 488 492 497 
f 492 491 497 
f 495 485 497 
f 482 483 498 
f 483 489 498 
f 489 493 498 
f 487 486 499 
f 493 486 500 
f 483 488 501 
f 488 485 501 
f 485 494 501 
f 489 483 502 
f 494 489 502 
f 495 481 503 
f 489 495 503 
f 499 486 503 
f 481 499 503 
f 496 482 504 
f 490 496 504 
f 482 500 504 
f 500 490 504 
f 491 487 505 
f 487 499 505 
f 491 481 506 
f 481 495 506 
f 497 491 506 
f 482 498 507 
f 498 493 507 
f 500 482 507 
f 493 500 507 
f 486 487 508 
f 487 490 508 
f 490 500 508 
f 500 486 508 
f 481 491 509 
f 499 481 509 
f 491 505 509 
f 505 499 509 
f 483 501 510 
f 501 494 510 
f 502 483 510 
f 494 502 510 
f 493 489 511 
f 486 493 511 
f 503 486 511 
f 489 503 511 
f 495 497 512 
f 506 495 512 
o convex_16
v 0.168594 61.362985 6.242920
v -4.867124 -1.866005 8.480238
v -4.867124 -1.866005 9.040225
v 0.728361 -1.866005 7.920909
v -3.188369 58.559272 5.682934
v -2.628601 55.761748 7.361579
v 0.728361 9.336469 8.480238
v -4.867124 61.362985 6.802250
v -0.391174 2.051766 7.361579
v 0.168594 55.761748 5.682934
v -4.867124 1.494737 7.920909
v -0.950394 0.374490 9.040225
v 0.728361 41.210910 7.361579
v -4.867124 50.166700 6.242920
v -3.747589 7.089785 9.040225
v 0.728361 40.096852 6.242920
v -4.867124 52.401006 7.361579
v -0.391174 61.362985 6.802250
v -1.510162 18.843098 6.802250
v -3.188369 61.362985 5.682934
v -1.510162 52.964224 5.682934
v 0.728361 -1.866005 8.480238
v -3.747589 -1.866005 7.920909
v -2.628601 7.653003 9.040225
v 0.168594 61.362985 5.682934
v 0.728361 5.412508 7.361579
v 0.728361 50.166700 6.802250
v -4.867124 3.735232 9.040225
v -4.867124 61.362985 6.242920
v -1.510162 2.614985 7.361579
v -2.069382 54.084471 7.361579
v 0.168594 59.679519 6.802250
f 530 543 544 
f 515 514 516 
f 514 515 520 
f 514 520 523 
f 519 516 525 
f 523 520 526 
f 517 523 526 
f 515 524 527 
f 525 516 528 
f 520 515 529 
f 518 520 529 
f 527 518 529 
f 513 520 530 
f 520 518 530 
f 520 513 532 
f 522 517 532 
f 517 526 532 
f 517 522 533 
f 522 521 533 
f 531 517 533 
f 521 531 533 
f 515 516 534 
f 516 519 534 
f 524 515 534 
f 519 524 534 
f 516 514 535 
f 521 516 535 
f 514 523 535 
f 518 527 536 
f 527 524 536 
f 528 522 537 
f 532 513 537 
f 522 532 537 
f 516 521 538 
f 521 522 538 
f 528 516 538 
f 522 528 538 
f 525 528 539 
f 537 513 539 
f 528 537 539 
f 515 527 540 
f 529 515 540 
f 527 529 540 
f 526 520 541 
f 520 532 541 
f 532 526 541 
f 523 517 542 
f 517 531 542 
f 531 521 542 
f 521 535 542 
f 535 523 542 
f 524 519 543 
f 519 525 543 
f 530 518 543 
f 518 536 543 
f 536 524 543 
f 513 530 544 
f 525 539 544 
f 539 513 544 
f 543 525 544 
o convex_17
v -0.950668 72.557133 5.682934
v -4.867124 61.362985 6.242975
v -4.867124 61.362985 6.802469
v -3.187657 99.971837 7.920635
v -0.391667 61.362985 6.802469
v -0.950668 90.455677 8.480677
v -4.867124 66.963838 5.682934
v 0.168813 61.362985 5.682934
v -0.950668 99.408728 7.920635
v -3.187657 99.971837 8.480677
v 0.168813 77.035548 6.242975
v -3.187657 92.137445 8.480677
v 0.168813 69.756706 6.802469
v -3.187657 94.370983 7.361141
v -0.950668 99.408728 8.480677
v -4.867124 70.319815 6.802469
v -3.747644 61.362985 5.682934
v -2.628163 71.997804 5.682934
v -0.391667 91.578115 7.920635
v -2.070148 89.892568 8.480677
v 0.168813 70.879145 5.682934
v -0.391667 83.739944 7.920635
v -2.070148 94.370983 7.361141
v -4.867124 70.319815 6.242975
v -0.950668 93.256103 7.361141
v 0.168813 61.362985 6.242975
v -0.391667 91.578115 7.361141
v 0.168813 77.035548 6.802469
v -1.510162 99.971837 7.920635
v -2.070148 72.557133 5.682934
v -2.628163 90.455677 8.480677
v -1.510162 89.892568 8.480677
f 550 564 576 
f 547 546 549 
f 546 547 551 
f 549 546 552 
f 551 545 552 
f 554 547 556 
f 550 554 556 
f 552 555 557 
f 551 548 558 
f 554 550 559 
f 551 547 560 
f 547 554 560 
f 554 548 560 
f 546 551 561 
f 552 546 561 
f 551 552 561 
f 545 551 562 
f 551 558 562 
f 559 550 563 
f 553 559 563 
f 547 549 564 
f 550 556 564 
f 552 545 565 
f 555 552 565 
f 550 549 566 
f 549 557 566 
f 563 550 566 
f 557 563 566 
f 558 548 567 
f 545 558 567 
f 548 551 568 
f 551 560 568 
f 560 548 568 
f 565 545 569 
f 545 567 569 
f 549 552 570 
f 557 549 570 
f 552 557 570 
f 553 563 571 
f 563 555 571 
f 555 565 571 
f 565 569 571 
f 569 553 571 
f 557 555 572 
f 555 563 572 
f 563 557 572 
f 548 554 573 
f 554 559 573 
f 559 553 573 
f 567 548 573 
f 553 569 573 
f 569 567 573 
f 558 545 574 
f 545 562 574 
f 562 558 574 
f 556 547 575 
f 547 564 575 
f 564 556 575 
f 549 550 576 
f 564 549 576 
