v 7.313785701990128 66.630673660288 1.5454018898122621
v 4.977554827928543 -1.5862277422014333 1.8910438543990267
v 4.977553337812424 -1.5862283583814307 -1.8910420336887228
v 7.313784211874008 66.63067315672883 -1.5454222038573908
v 7.313785701990128 66.630673660288 1.5454018898122621
v 7.313784211874008 66.63067315672883 -1.5454222038573908
v 4.977539554238319 99.69205260276807 -1.546525290864779e-05
v -15.921220183372498 47.9759006117442 -0.9666714748852139
v -17.844252288341522 -1.5862306663049237 -2.337574141578011
v -15.22173285484314 -1.5862305514987114 -5.062748978392506
v -13.778029382228851 47.97590024890545 -3.1937599113695505
v -15.921220183372498 47.9759006117442 -0.9666714748852139
v -13.778029382228851 47.97590024890545 -3.1937599113695505
v -16.533000767230988 68.9435177973577 -3.7001833884202746
v -7.318207621574402 66.6306733901717 -0.11256012927734738
v -6.754602491855621 -1.5862284422742245 -2.4059723341032853
v -3.253435343503952 -1.5862274641764154 -0.9755845391319404
v -4.456957429647446 66.63067358061788 1.0563902035169912
v -7.318207621574402 66.6306733901717 -0.11256012927734738
v -4.456957429647446 66.63067358061788 1.0563902035169912
v -5.004013702273369 99.69205232730307 -1.69080760293073
v -6.173208728432655 66.63067173044692 -10.2998782471008
v -4.45304699242115 -1.586229619457848 -11.918040851609469
v -2.2926831617951393 -1.5862285549011366 -8.813688645617814
v -4.4076986610889435 66.6306721437704 -7.7629168108291315
v -6.173208728432655 66.63067173044692 -10.2998782471008
v -4.4076986610889435 66.6306721437704 -7.7629168108291315
v -3.372853994369507 99.69205091395291 -10.365889072049326
v 6.059833616018295 47.97590173317262 -12.375928082179781
v 8.339519053697586 -1.586226985858528 -11.75909165527124
v 6.828033924102783 -1.586226793553175 -8.292162904994614
v 4.824607819318771 47.97590219477069 -9.542659290742632
v 6.059833616018295 47.97590173317262 -12.375928082179781
v 4.824607819318771 47.97590219477069 -9.542659290742632
v 7.583789527416229 68.9435227272756 -10.025633182952115
v -1.4486823230981827 66.63067435210326 5.791733734291108
v -0.7457098923623562 -1.5862256217866983 8.046356101973174
v -4.4822439551353455 -1.586226271498375 8.631588031990766
v -4.502280056476593 66.63067443002319 6.2700028940849615
v -1.4486823230981827 66.63067435210326 5.791733734291108
v -4.502280056476593 66.63067443002319 6.2700028940849615
v -2.6139745488762856 99.69205396136101 8.338968605171972
v 13.286654651165009 47.97590755201556 5.047340325402969
v 15.25551974773407 -1.5862272017524985 6.3515792391136605
v 12.727895379066467 -1.586227302182769 9.164992978318159
v 11.221012473106384 47.97590792660279 7.346540323781722
v 13.286654651165009 47.97590755201556 5.047340325402969
v 11.221012473106384 47.97590792660279 7.346540323781722
v 13.991717994213104 68.94352562464339 7.7582835586574594
v 4.500507935881615 66.6306755025833 12.853329949062378
v 6.217965483665466 -1.5862282692276168 11.232298125966228
v 8.383510261774063 -1.586227205259139 14.333039780600613
v 6.270251423120499 66.63067591542585 15.387339465301544
v 4.500507935881615 66.6306755025833 12.853329949062378
v 6.270251423120499 66.63067591542585 15.387339465301544
v 7.30074867606163 99.6920546853276 12.782643884789282
v -17.410004138946533 66.6306682959848 5.204613827151347
v -15.490719676017761 -1.5862291029348738 3.828472529991245
v -13.760438561439514 -1.586228182490578 7.191552480204617
v -15.995968878269196 66.63066874375612 7.953014545125056
v -17.410004138946533 66.6306682959848 5.204613827151347
v -15.995968878269196 66.63066874375612 7.953014545125056
v -14.625568687915802 99.69205350046194 5.509990230571563
v -9.542270004749298 47.975902977469694 13.554048172522318
v -7.622985541820526 -1.586227742640167 12.17790197346983
v -5.892703682184219 -1.5862268221954463 15.54098453138641
v -8.12823474407196 47.97590342524089 16.302448145437967
v -9.542270004749298 47.975902977469694 13.554048172522318
v -8.12823474407196 47.97590342524089 16.302448145437967
v -6.7578330636024475 68.94352661864568 13.859426173737338
v 14.746196568012238 66.6306725274313 -5.408022977430313
v 15.918456017971039 -1.5862285973509769 -3.3578266599342217
v 12.395788729190826 -1.5862291181340993 -1.9812368997498122
v 11.867377161979675 66.63067271071543 -4.283032991010635
v 14.746196568012238 66.6306725274313 -5.408022977430313
v 11.867377161979675 66.63067271071543 -4.283032991010635
v 14.15712684392929 99.69205216784803 -2.6695356141812256
v -14.809824526309967 66.63067073347712 -16.41923529656598
v -12.643265724182129 -1.5862305721882837 -15.47929171706885
v -14.640101790428162 -1.5862304214189387 -12.267309168831943
v -16.441690921783447 66.63066520066663 -13.794313795882177
v -14.809824526309967 66.63067073347712 -16.41923529656598
v -16.441690921783447 66.63066520066663 -13.794313795882177
v -13.64167183637619 99.69206226345044 -13.873310237755994
v 5.445253849029541 66.61021138573665 1.545402172542762
v 5.445253476500511 66.61021088217748 -1.545421921126891
v 3.110048919916153 -1.5217053059571777 -1.8910416716718326
v 3.1100500375032425 -1.5217046897771802 1.891044216415917
v 5.445253849029541 66.61021138573665 1.545402172542762
v 3.1136276200413704 99.55911636352556 -1.5193161838738742e-05
v 5.445253476500511 66.61021088217748 -1.545421921126891
v -17.775893211364746 47.94919772620504 -0.9953957870423402
v -15.631334483623505 47.89997286748206 -3.2224625156910003
v -17.07264333963394 -1.4640033158151906 -5.091415107152515
v -19.695161283016205 -1.4640033374892365 -2.36624082913158
v -17.775893211364746 47.94919772620504 -0.9953957870423402
v -18.366174399852753 68.65734397223659 -3.7285745242192796
v -15.631334483623505 47.89997286748206 -3.2224625156910003
v -5.5357325822114944 66.54036638143103 -0.18278738970132835
v -2.6729991659522057 66.58151165815624 0.986105159465402
v -1.4755792915821075 -1.4237155978728424 -1.0456310128259503
v -4.976745694875717 -1.4237164828383637 -2.4760186215327953
v -5.5357325822114944 66.54036638143103 -0.18278738970132835
v -3.2474856823682785 99.36072797711483 -1.7600146882643648
v -2.6729991659522057 66.58151165815624 0.986105159465402
v -4.312147945165634 66.59549306570436 -10.320723475763542
v -2.5464102625846863 66.61027543093202 -7.783762786958219
v -0.4329343792051077 -1.5078949234116632 -8.834518991612862
v -2.5932982563972473 -1.5078958017041024 -11.938872687720666
v -4.312147945165634 66.59549306570436 -10.320723475763542
v -1.5183517709374428 99.53085610923787 -10.386662754607702
v -2.5464102625846863 66.61027543093202 -7.783762786958219
v 7.925456762313843 47.95401490974347 -12.362839643679349
v 6.689831614494324 47.93006026460644 -9.529570103281358
v 8.691318333148956 -1.4894986975010878 -8.279089386980198
v 10.202804207801819 -1.489498982938577 -11.74601739219875
v 7.925456762313843 47.95401490974347 -12.362839643679349
v 9.435838460922241 68.71626213979309 -10.01263858830757
v 6.689831614494324 47.93006026460644 -9.529570103281358
v 0.0006910716820129892 66.51807524192597 5.940689112690805
v -3.056670166552067 66.45515665675856 6.418574950363698
v -3.051461838185787 -1.2665318924114426 8.778633383624895
v 0.6850721314549446 -1.2665313358320232 8.193401453607317
v 0.0006910716820129892 66.51807524192597 5.940689112690805
v -1.2463226914405823 99.06149048671824 8.479531361445371
v -3.056670166552067 66.45515665675856 6.418574950363698
v 15.143096446990967 47.9501792114716 5.074183653898276
v 13.076254725456238 47.90376246893762 7.373369131207173
v 14.580799639225006 -1.4677240439107861 9.191785246838066
v 17.108425498008728 -1.4677239434803941 6.378372252691627
v 15.143096446990967 47.9501792114716 5.074183653898276
v 15.827915072441101 68.66583950988998 7.784837473145706
v 13.076254725456238 47.90376246893762 7.373369131207173
v 6.3615113496780396 66.5953776285393 12.832411704729209
v 8.13148319721222 66.61027324211146 15.366422708657758
v 10.2432020008564 -1.5078362043109652 14.312136418906368
v 8.077657222747803 -1.507837082014928 11.211394764271953
v 6.3615113496780396 66.5953776285393 12.832411704729209
v 9.155193716287613 99.53069298759554 12.761798676684366
v 8.13148319721222 66.61027324211146 15.366422708657758
v -15.54557979106903 66.60035933160098 5.189173621389268
v -14.1314297914505 66.6115952549124 7.937573965003456
v -11.897153407335281 -1.5137968069372008 7.176126786336177
v -13.627435266971588 -1.5137976342493 3.81304646359376
v -15.54557979106903 66.60035933160098 5.189173621389268
v -12.766788899898529 99.5429584395135 5.494600708110255
v -14.1314297914505 66.6115952549124 7.937573965003456
v -7.678301632404327 47.92587679659509 13.538613557908029
v -6.263695657253265 47.9539033483387 16.287007565793168
v -4.030673950910568 -1.486576426811114 15.525563303431786
v -5.760955438017845 -1.4865773472554704 12.162482980689385
v -7.678301632404327 47.92587679659509 13.538613557908029
v -4.907722026109695 68.70950089936838 13.844107818157692
v -6.263695657253265 47.9539033483387 16.287007565793168
v 16.52279794216156 66.57939466345331 -5.33484448404019
v 13.642439246177673 66.53698018150472 -4.20991931076148
v 14.16594684123993 -1.4181014465470965 -1.9083257316843028
v 17.68861413002014 -1.418101018896201 -3.284915305604182
v 16.52279794216156 66.57939466345331 -5.33484448404019
v 15.904586017131805 99.34955793023084 -2.5975577344091283
v 13.642439246177673 66.53698018150472 -4.20991931076148
v -12.947110831737518 66.61090583630617 -16.400596920924603
v -14.579147100448608 66.59754886306601 -13.775675418065575
v -12.778812646865845 -1.5104755225784776 -12.24868570991391
v -10.781975835561752 -1.5104756733478226 -15.460668258150818
v -12.947110831737518 66.61090583630617 -16.400596920924603
v -11.785288900136948 99.5361365157439 -13.854737405040453
v -14.579147100448608 66.59754886306601 -13.775675418065575
v 4.977554827928543 -1.5862277422014333 1.8910438543990267
v 7.313785701990128 66.630673660288 1.5454018898122621
v 5.445253849029541 66.61021138573665 1.545402172542762
v 3.1100500375032425 -1.5217046897771802 1.891044216415917
v 4.977553337812424 -1.5862283583814307 -1.8910420336887228
v 4.977554827928543 -1.5862277422014333 1.8910438543990267
v 3.1100500375032425 -1.5217046897771802 1.891044216415917
v 3.110048919916153 -1.5217053059571777 -1.8910416716718326
v 7.313784211874008 66.63067315672883 -1.5454222038573908
v 4.977553337812424 -1.5862283583814307 -1.8910420336887228
v 3.110048919916153 -1.5217053059571777 -1.8910416716718326
v 5.445253476500511 66.61021088217748 -1.545421921126891
v 7.313785701990128 66.630673660288 1.5454018898122621
v 4.977539554238319 99.69205260276807 -1.546525290864779e-05
v 3.1136276200413704 99.55911636352556 -1.5193161838738742e-05
v 5.445253849029541 66.61021138573665 1.545402172542762
v 4.977539554238319 99.69205260276807 -1.546525290864779e-05
v 7.313784211874008 66.63067315672883 -1.5454222038573908
v 5.445253476500511 66.61021088217748 -1.545421921126891
v 3.1136276200413704 99.55911636352556 -1.5193161838738742e-05
v -17.844252288341522 -1.5862306663049237 -2.337574141578011
v -15.921220183372498 47.9759006117442 -0.9666714748852139
v -17.775893211364746 47.94919772620504 -0.9953957870423402
v -19.695161283016205 -1.4640033374892365 -2.36624082913158
v -15.22173285484314 -1.5862305514987114 -5.062748978392506
v -17.844252288341522 -1.5862306663049237 -2.337574141578011
v -19.695161283016205 -1.4640033374892365 -2.36624082913158
v -17.07264333963394 -1.4640033158151906 -5.091415107152515
v -13.778029382228851 47.97590024890545 -3.1937599113695505
v -15.22173285484314 -1.5862305514987114 -5.062748978392506
v -17.07264333963394 -1.4640033158151906 -5.091415107152515
v -15.631334483623505 47.89997286748206 -3.2224625156910003
v -15.921220183372498 47.9759006117442 -0.9666714748852139
v -16.533000767230988 68.9435177973577 -3.7001833884202746
v -18.366174399852753 68.65734397223659 -3.7285745242192796
v -17.775893211364746 47.94919772620504 -0.9953957870423402
v -16.533000767230988 68.9435177973577 -3.7001833884202746
v -13.778029382228851 47.97590024890545 -3.1937599113695505
v -15.631334483623505 47.89997286748206 -3.2224625156910003
v -18.366174399852753 68.65734397223659 -3.7285745242192796
v -6.754602491855621 -1.5862284422742245 -2.4059723341032853
v -7.318207621574402 66.6306733901717 -0.11256012927734738
v -5.5357325822114944 66.54036638143103 -0.18278738970132835
v -4.976745694875717 -1.4237164828383637 -2.4760186215327953
v -3.253435343503952 -1.5862274641764154 -0.9755845391319404
v -6.754602491855621 -1.5862284422742245 -2.4059723341032853
v -4.976745694875717 -1.4237164828383637 -2.4760186215327953
v -1.4755792915821075 -1.4237155978728424 -1.0456310128259503
v -4.456957429647446 66.63067358061788 1.0563902035169912
v -3.253435343503952 -1.5862274641764154 -0.9755845391319404
v -1.4755792915821075 -1.4237155978728424 -1.0456310128259503
v -2.6729991659522057 66.58151165815624 0.986105159465402
v -7.318207621574402 66.6306733901717 -0.11256012927734738
v -5.004013702273369 99.69205232730307 -1.69080760293073
v -3.2474856823682785 99.36072797711483 -1.7600146882643648
v -5.5357325822114944 66.54036638143103 -0.18278738970132835
v -5.004013702273369 99.69205232730307 -1.69080760293073
v -4.456957429647446 66.63067358061788 1.0563902035169912
v -2.6729991659522057 66.58151165815624 0.986105159465402
v -3.2474856823682785 99.36072797711483 -1.7600146882643648
v -4.45304699242115 -1.586229619457848 -11.918040851609469
v -6.173208728432655 66.63067173044692 -10.2998782471008
v -4.312147945165634 66.59549306570436 -10.320723475763542
v -2.5932982563972473 -1.5078958017041024 -11.938872687720666
v -2.2926831617951393 -1.5862285549011366 -8.813688645617814
v -4.45304699242115 -1.586229619457848 -11.918040851609469
v -2.5932982563972473 -1.5078958017041024 -11.938872687720666
v -0.4329343792051077 -1.5078949234116632 -8.834518991612862
v -4.4076986610889435 66.6306721437704 -7.7629168108291315
v -2.2926831617951393 -1.5862285549011366 -8.813688645617814
v -0.4329343792051077 -1.5078949234116632 -8.834518991612862
v -2.5464102625846863 66.61027543093202 -7.783762786958219
v -6.173208728432655 66.63067173044692 -10.2998782471008
v -3.372853994369507 99.69205091395291 -10.365889072049326
v -1.5183517709374428 99.53085610923787 -10.386662754607702
v -4.312147945165634 66.59549306570436 -10.320723475763542
v -3.372853994369507 99.69205091395291 -10.365889072049326
v -4.4076986610889435 66.6306721437704 -7.7629168108291315
v -2.5464102625846863 66.61027543093202 -7.783762786958219
v -1.5183517709374428 99.53085610923787 -10.386662754607702
v 8.339519053697586 -1.586226985858528 -11.75909165527124
v 6.059833616018295 47.97590173317262 -12.375928082179781
v 7.925456762313843 47.95401490974347 -12.362839643679349
v 10.202804207801819 -1.489498982938577 -11.74601739219875
v 6.828033924102783 -1.586226793553175 -8.292162904994614
v 8.339519053697586 -1.586226985858528 -11.75909165527124
v 10.202804207801819 -1.489498982938577 -11.74601739219875
v 8.691318333148956 -1.4894986975010878 -8.279089386980198
v 4.824607819318771 47.97590219477069 -9.542659290742632
v 6.828033924102783 -1.586226793553175 -8.292162904994614
v 8.691318333148956 -1.4894986975010878 -8.279089386980198
v 6.689831614494324 47.93006026460644 -9.529570103281358
v 6.059833616018295 47.97590173317262 -12.375928082179781
v 7.583789527416229 68.9435227272756 -10.025633182952115
v 9.435838460922241 68.71626213979309 -10.01263858830757
v 7.925456762313843 47.95401490974347 -12.362839643679349
v 7.583789527416229 68.9435227272756 -10.025633182952115
v 4.824607819318771 47.97590219477069 -9.542659290742632
v 6.689831614494324 47.93006026460644 -9.529570103281358
v 9.435838460922241 68.71626213979309 -10.01263858830757
v -0.7457098923623562 -1.5862256217866983 8.046356101973174
v -1.4486823230981827 66.63067435210326 5.791733734291108
v 0.0006910716820129892 66.51807524192597 5.940689112690805
v 0.6850721314549446 -1.2665313358320232 8.193401453607317
v -4.4822439551353455 -1.586226271498375 8.631588031990766
v -0.7457098923623562 -1.5862256217866983 8.046356101973174
v 0.6850721314549446 -1.2665313358320232 8.193401453607317
v -3.051461838185787 -1.2665318924114426 8.778633383624895
v -4.502280056476593 66.63067443002319 6.2700028940849615
v -4.4822439551353455 -1.586226271498375 8.631588031990766
v -3.051461838185787 -1.2665318924114426 8.778633383624895
v -3.056670166552067 66.45515665675856 6.418574950363698
v -1.4486823230981827 66.63067435210326 5.791733734291108
v -2.6139745488762856 99.69205396136101 8.338968605171972
v -1.2463226914405823 99.06149048671824 8.479531361445371
v 0.0006910716820129892 66.51807524192597 5.940689112690805
v -2.6139745488762856 99.69205396136101 8.338968605171972
v -4.502280056476593 66.63067443002319 6.2700028940849615
v -3.056670166552067 66.45515665675856 6.418574950363698
v -1.2463226914405823 99.06149048671824 8.479531361445371
v 15.25551974773407 -1.5862272017524985 6.3515792391136605
v 13.286654651165009 47.97590755201556 5.047340325402969
v 15.143096446990967 47.9501792114716 5.074183653898276
v 17.108425498008728 -1.4677239434803941 6.378372252691627
v 12.727895379066467 -1.586227302182769 9.164992978318159
v 15.25551974773407 -1.5862272017524985 6.3515792391136605
v 17.108425498008728 -1.4677239434803941 6.378372252691627
v 14.580799639225006 -1.4677240439107861 9.191785246838066
v 11.221012473106384 47.97590792660279 7.346540323781722
v 12.727895379066467 -1.586227302182769 9.164992978318159
v 14.580799639225006 -1.4677240439107861 9.191785246838066
v 13.076254725456238 47.90376246893762 7.373369131207173
v 13.286654651165009 47.97590755201556 5.047340325402969
v 13.991717994213104 68.94352562464339 7.7582835586574594
v 15.827915072441101 68.66583950988998 7.784837473145706
v 15.143096446990967 47.9501792114716 5.074183653898276
v 13.991717994213104 68.94352562464339 7.7582835586574594
v 11.221012473106384 47.97590792660279 7.346540323781722
v 13.076254725456238 47.90376246893762 7.373369131207173
v 15.827915072441101 68.66583950988998 7.784837473145706
v 6.217965483665466 -1.5862282692276168 11.232298125966228
v 4.500507935881615 66.6306755025833 12.853329949062378
v 6.3615113496780396 66.5953776285393 12.832411704729209
v 8.077657222747803 -1.507837082014928 11.211394764271953
v 8.383510261774063 -1.586227205259139 14.333039780600613
v 6.217965483665466 -1.5862282692276168 11.232298125966228
v 8.077657222747803 -1.507837082014928 11.211394764271953
v 10.2432020008564 -1.5078362043109652 14.312136418906368
v 6.270251423120499 66.63067591542585 15.387339465301544
v 8.383510261774063 -1.586227205259139 14.333039780600613
v 10.2432020008564 -1.5078362043109652 14.312136418906368
v 8.13148319721222 66.61027324211146 15.366422708657758
v 4.500507935881615 66.6306755025833 12.853329949062378
v 7.30074867606163 99.6920546853276 12.782643884789282
v 9.155193716287613 99.53069298759554 12.761798676684366
v 6.3615113496780396 66.5953776285393 12.832411704729209
v 7.30074867606163 99.6920546853276 12.782643884789282
v 6.270251423120499 66.63067591542585 15.387339465301544
v 8.13148319721222 66.61027324211146 15.366422708657758
v 9.155193716287613 99.53069298759554 12.761798676684366
v -15.490719676017761 -1.5862291029348738 3.828472529991245
v -17.410004138946533 66.6306682959848 5.204613827151347
v -15.54557979106903 66.60035933160098 5.189173621389268
v -13.627435266971588 -1.5137976342493 3.81304646359376
v -13.760438561439514 -1.586228182490578 7.191552480204617
v -15.490719676017761 -1.5862291029348738 3.828472529991245
v -13.627435266971588 -1.5137976342493 3.81304646359376
v -11.897153407335281 -1.5137968069372008 7.176126786336177
v -15.995968878269196 66.63066874375612 7.953014545125056
v -13.760438561439514 -1.586228182490578 7.191552480204617
v -11.897153407335281 -1.5137968069372008 7.176126786336177
v -14.1314297914505 66.6115952549124 7.937573965003456
v -17.410004138946533 66.6306682959848 5.204613827151347
v -14.625568687915802 99.69205350046194 5.509990230571563
v -12.766788899898529 99.5429584395135 5.494600708110255
v -15.54557979106903 66.60035933160098 5.189173621389268
v -14.625568687915802 99.69205350046194 5.509990230571563
v -15.995968878269196 66.63066874375612 7.953014545125056
v -14.1314297914505 66.6115952549124 7.937573965003456
v -12.766788899898529 99.5429584395135 5.494600708110255
v -7.622985541820526 -1.586227742640167 12.17790197346983
v -9.542270004749298 47.975902977469694 13.554048172522318
v -7.678301632404327 47.92587679659509 13.538613557908029
v -5.760955438017845 -1.4865773472554704 12.162482980689385
v -5.892703682184219 -1.5862268221954463 15.54098453138641
v -7.622985541820526 -1.586227742640167 12.17790197346983
v -5.760955438017845 -1.4865773472554704 12.162482980689385
v -4.030673950910568 -1.486576426811114 15.525563303431786
v -8.12823474407196 47.97590342524089 16.302448145437967
v -5.892703682184219 -1.5862268221954463 15.54098453138641
v -4.030673950910568 -1.486576426811114 15.525563303431786
v -6.263695657253265 47.9539033483387 16.287007565793168
v -9.542270004749298 47.975902977469694 13.554048172522318
v -6.7578330636024475 68.94352661864568 13.859426173737338
v -4.907722026109695 68.70950089936838 13.844107818157692
v -7.678301632404327 47.92587679659509 13.538613557908029
v -6.7578330636024475 68.94352661864568 13.859426173737338
v -8.12823474407196 47.97590342524089 16.302448145437967
v -6.263695657253265 47.9539033483387 16.287007565793168
v -4.907722026109695 68.70950089936838 13.844107818157692
v 15.918456017971039 -1.5862285973509769 -3.3578266599342217
v 14.746196568012238 66.6306725274313 -5.408022977430313
v 16.52279794216156 66.57939466345331 -5.33484448404019
v 17.68861413002014 -1.418101018896201 -3.284915305604182
v 12.395788729190826 -1.5862291181340993 -1.9812368997498122
v 15.918456017971039 -1.5862285973509769 -3.3578266599342217
v 17.68861413002014 -1.418101018896201 -3.284915305604182
v 14.16594684123993 -1.4181014465470965 -1.9083257316843028
v 11.867377161979675 66.63067271071543 -4.283032991010635
v 12.395788729190826 -1.5862291181340993 -1.9812368997498122
v 14.16594684123993 -1.4181014465470965 -1.9083257316843028
v 13.642439246177673 66.53698018150472 -4.20991931076148
v 14.746196568012238 66.6306725274313 -5.408022977430313
v 14.15712684392929 99.69205216784803 -2.6695356141812256
v 15.904586017131805 99.34955793023084 -2.5975577344091283
v 16.52279794216156 66.57939466345331 -5.33484448404019
v 14.15712684392929 99.69205216784803 -2.6695356141812256
v 11.867377161979675 66.63067271071543 -4.283032991010635
v 13.642439246177673 66.53698018150472 -4.20991931076148
v 15.904586017131805 99.34955793023084 -2.5975577344091283
v -12.643265724182129 -1.5862305721882837 -15.47929171706885
v -14.809824526309967 66.63067073347712 -16.41923529656598
v -12.947110831737518 66.61090583630617 -16.400596920924603
v -10.781975835561752 -1.5104756733478226 -15.460668258150818
v -14.640101790428162 -1.5862304214189387 -12.267309168831943
v -12.643265724182129 -1.5862305721882837 -15.47929171706885
v -10.781975835561752 -1.5104756733478226 -15.460668258150818
v -12.778812646865845 -1.5104755225784776 -12.24868570991391
v -16.441690921783447 66.63066520066663 -13.794313795882177
v -14.640101790428162 -1.5862304214189387 -12.267309168831943
v -12.778812646865845 -1.5104755225784776 -12.24868570991391
v -14.579147100448608 66.59754886306601 -13.775675418065575
v -14.809824526309967 66.63067073347712 -16.41923529656598
v -13.64167183637619 99.69206226345044 -13.873310237755994
v -11.785288900136948 99.5361365157439 -13.854737405040453
v -12.947110831737518 66.61090583630617 -16.400596920924603
v -13.64167183637619 99.69206226345044 -13.873310237755994
v -16.441690921783447 66.63066520066663 -13.794313795882177
v -14.579147100448608 66.59754886306601 -13.775675418065575
v -11.785288900136948 99.5361365157439 -13.854737405040453
f 1 2 3
f 1 3 4
f 5 6 7
f 8 9 10
f 8 10 11
f 12 13 14
f 15 16 17
f 15 17 18
f 19 20 21
f 22 23 24
f 22 24 25
f 26 27 28
f 29 30 31
f 29 31 32
f 33 34 35
f 36 37 38
f 36 38 39
f 40 41 42
f 43 44 45
f 43 45 46
f 47 48 49
f 50 51 52
f 50 52 53
f 54 55 56
f 57 58 59
f 57 59 60
f 61 62 63
f 64 65 66
f 64 66 67
f 68 69 70
f 71 72 73
f 71 73 74
f 75 76 77
f 78 79 80
f 78 80 81
f 82 83 84
f 85 86 87
f 85 87 88
f 89 90 91
f 92 93 94
f 92 94 95
f 96 97 98
f 99 100 101
f 99 101 102
f 103 104 105
f 106 107 108
f 106 108 109
f 110 111 112
f 113 114 115
f 113 115 116
f 117 118 119
f 120 121 122
f 120 122 123
f 124 125 126
f 127 128 129
f 127 129 130
f 131 132 133
f 134 135 136
f 134 136 137
f 138 139 140
f 141 142 143
f 141 143 144
f 145 146 147
f 148 149 150
f 148 150 151
f 152 153 154
f 155 156 157
f 155 157 158
f 159 160 161
f 162 163 164
f 162 164 165
f 166 167 168
f 169 170 171
f 169 171 172
f 173 174 175
f 173 175 176
f 177 178 179
f 177 179 180
f 181 182 183
f 181 183 184
f 185 186 187
f 185 187 188
f 189 190 191
f 189 191 192
f 193 194 195
f 193 195 196
f 197 198 199
f 197 199 200
f 201 202 203
f 201 203 204
f 205 206 207
f 205 207 208
f 209 210 211
f 209 211 212
f 213 214 215
f 213 215 216
f 217 218 219
f 217 219 220
f 221 222 223
f 221 223 224
f 225 226 227
f 225 227 228
f 229 230 231
f 229 231 232
f 233 234 235
f 233 235 236
f 237 238 239
f 237 239 240
f 241 242 243
f 241 243 244
f 245 246 247
f 245 247 248
f 249 250 251
f 249 251 252
f 253 254 255
f 253 255 256
f 257 258 259
f 257 259 260
f 261 262 263
f 261 263 264
f 265 266 267
f 265 267 268
f 269 270 271
f 269 271 272
f 273 274 275
f 273 275 276
f 277 278 279
f 277 279 280
f 281 282 283
f 281 283 284
f 285 286 287
f 285 287 288
f 289 290 291
f 289 291 292
f 293 294 295
f 293 295 296
f 297 298 299
f 297 299 300
f 301 302 303
f 301 303 304
f 305 306 307
f 305 307 308
f 309 310 311
f 309 311 312
f 313 314 315
f 313 315 316
f 317 318 319
f 317 319 320
f 321 322 323
f 321 323 324
f 325 326 327
f 325 327 328
f 329 330 331
f 329 331 332
f 333 334 335
f 333 335 336
f 337 338 339
f 337 339 340
f 341 342 343
f 341 343 344
f 345 346 347
f 345 347 348
f 349 350 351
f 349 351 352
f 353 354 355
f 353 355 356
f 357 358 359
f 357 359 360
f 361 362 363
f 361 363 364
f 365 366 367
f 365 367 368
f 369 370 371
f 369 371 372
f 373 374 375
f 373 375 376
f 377 378 379
f 377 379 380
f 381 382 383
f 381 383 384
f 385 386 387
f 385 387 388
f 389 390 391
f 389 391 392
f 393 394 395
f 393 395 396
f 397 398 399
f 397 399 400
f 401 402 403
f 401 403 404
f 405 406 407
f 405 407 408
