v -13.45796287059784 22.440734374215115 -23.729554494530777
v -11.443544924259186 -0.534234612421565 -24.96225378154266
v -9.962808340787888 -0.5342340454295572 -21.482081624255063
v -12.247864156961441 22.44073483757631 -20.885463734776597
v -13.45796287059784 22.440734374215115 -23.729554494530777
v -12.247864156961441 22.44073483757631 -20.885463734776597
v -10.703164339065552 33.57557248877508 -23.22217922055624
v 6.500009447336197 16.157942117294784 -6.156460220539661
v 8.80625993013382 -0.5342314657096795 -5.647873791441801
v 7.460027188062668 -0.5342308898857333 -2.113491582260015
v 5.399836972355843 16.157942587873432 -3.2680690536142305
v 6.500009447336197 16.157942117294784 -6.156460220539661
v 5.399836972355843 16.157942587873432 -3.2680690536142305
v 8.133155107498169 23.219687397850116 -3.880680410126466
v -11.674416810274124 22.44073601665353 -13.648339291722397
v -11.295127123594284 -0.5342323893812916 -11.317329766735913
v -15.07682055234909 -0.5342323804946691 -11.262784066185834
v -14.764919877052307 22.440736023916262 -13.603760977894883
v -11.674416810274124 22.44073601665353 -13.648339291722397
v -14.764919877052307 22.440736023916262 -13.603760977894883
v -13.185974955558777 33.57557443276593 -11.290048317550637
v 8.251143991947174 28.78859007139296 15.570495802793385
v 7.301831990480423 -0.5342276564878858 17.732963053002475
v 4.098531603813171 -0.5342279840776089 15.72223165394318
v 5.633317679166794 28.788589803677542 13.927270252141835
v 8.251143991947174 28.78859007139296 15.570495802793385
v 5.633317679166794 28.788589803677542 13.927270252141835
v 5.70017471909523 39.923426284365355 16.72760193795523
v 11.339841783046722 16.15794189757903 -13.665862033689276
v 9.000640362501144 -0.5342307116240848 -13.340921612963887
v 9.03412327170372 -0.5342313277800784 -17.12286016582033
v 11.367203295230865 16.157941394039522 -16.756565521085516
v 11.339841783046722 16.15794189757903 -13.665862033689276
v 11.367203295230865 16.157941394039522 -16.756565521085516
v 9.017366915941238 23.219687555944255 -15.231897739628899
v -1.794862188398838 22.440737171681402 -6.558828731686692
v -3.3244263380765915 -0.5342319072836585 -8.358235570177914
v -0.11529410257935524 -0.5342322333553362 -10.359649273142697
v 0.8277279324829578 22.44073690520654 -8.194439788968186
v -1.794862188398838 22.440737171681402 -6.558828731686692
v 0.8277279324829578 22.44073690520654 -8.194439788968186
v -1.7198672518134117 33.575574747380415 -9.35895840966604
v -15.062481164932251 16.157945110679357 -0.10478880869788017
v -17.38480031490326 -0.5342306325648445 -0.5340672159050726
v -16.16043448448181 -0.5342312155641831 -4.112491669640424
v -14.061897993087769 16.157944634236504 -3.029174196148337
v -15.062481164932251 16.157945110679357 -0.10478880869788017
v -14.061897993087769 16.157944634236504 -3.029174196148337
v -16.77262932062149 23.219689659023683 -2.323288155655014
v -4.169802740216255 11.815826839150292 1.1509154299286657
v -5.115502327680588 -0.5342300054781595 3.3149634426976418
v -8.322156965732574 -0.534230332196366 1.3095813742424227
v -6.7903682589530945 11.745762825784237 -0.48793578030734
v -4.169802740216255 11.815826839150292 1.1509154299286657
v -6.7903682589530945 11.745762825784237 -0.48793578030734
v -6.7188359797000885 22.880599306453142 2.312279862713261
v 12.520739436149597 27.05938403942846 7.128825100486812
v 11.293447017669678 -0.5342290553918175 9.146551874890445
v 8.384601026773453 -0.5342294492016267 6.729364482178805
v 10.143551230430603 27.059383717596166 5.1534325502567855
v 12.520739436149597 27.05938403942846 7.128825100486812
v 10.143551230430603 27.059383717596166 5.1534325502567855
v 9.839017689228058 38.19422220315131 7.937960064507662
v 2.613597735762596 5.533028783191343 -16.870235808118686
v 1.386305969208479 -0.5342329653353023 -14.852510305628659
v -1.5225421637296677 -0.534233359145597 -17.269700678572537
v 0.23640843573957682 5.53302846135917 -18.845627613290652
v 2.613597735762596 5.533028783191343 -16.870235808118686
v 0.23640843573957682 5.53302846135917 -18.845627613290652
v -0.06812545470893383 12.594775832242782 -16.061096455216767
v -12.312109023332596 11.815828295085423 10.08738161344207
v -14.193461835384369 -0.534229134691905 8.659811404957889
v -11.490950733423233 -0.5342295657584634 6.013943714513895
v -10.10354608297348 11.81582794280543 7.925102424809103
v -12.312109023332596 11.815828295085423 10.08738161344207
v -10.10354608297348 11.81582794280543 7.925102424809103
v -12.842214107513428 22.950665878867365 7.336864606599576
v -3.0577315017580986 11.815828844486141 13.459579211660987
v -5.419336259365082 -0.5342283554255419 13.442914274945377
v -4.83943372964859 -0.5342289643194134 9.705550310626148
v -2.5838226079940796 11.81582633943888 10.405300867745375
v -3.0577315017580986 11.815828844486141 13.459579211660987
v -2.5838226079940796 11.81582633943888 10.405300867745375
v -5.1293980330228806 22.95067058410534 11.574225113848755
v -11.738590151071548 22.433842706085116 -24.46110912082652
v -10.52849367260933 22.4338431694468 -21.6170153808401
v -8.244381844997406 -0.5125036031379258 -22.213233923861704
v -9.725117683410645 -0.5125041701296909 -25.693404591033183
v -11.738590151071548 22.433842706085116 -24.46110912082652
v -8.988042175769806 33.53080038732925 -23.95192483971154
v -10.52849367260933 22.4338431694468 -21.6170153808401
v 8.21787491440773 16.14894866241055 -6.856158026505681
v 7.116435468196869 16.132370671972726 -3.96724904152779
v 9.17440950870514 -0.4930663946606969 -2.811768384413454
v 10.520640760660172 -0.49306697048449144 -6.346149662272665
v 8.21787491440773 16.14894866241055 -6.856158026505681
v 9.831107407808304 23.12330597205994 -4.572266009701247
v 7.116435468196869 16.132370671972726 -3.96724904152779
v -13.287107646465302 22.410321384670464 -12.885855809174735
v -16.37895405292511 22.42417876528564 -12.840644198254136
v -16.685330867767334 -0.4794993460256584 -10.502276491484793
v -12.903639674186707 -0.4794993549124023 -10.556822937092932
v -13.287107646465302 22.410321384670464 -12.885855809174735
v -14.775188267230988 33.46398686768279 -10.538663951693465
v -16.37895405292511 22.42417876528564 -12.840644198254136
v 6.546808034181595 28.776742269582098 16.318304618772423
v 3.9287716150283813 28.781720458444795 14.675168474276942
v 2.3953963071107864 -0.5078460574275457 16.46951296258754
v 5.598697811365128 -0.5078457298373371 18.480247341879075
v 6.546808034181595 28.776742269582098 16.318304618772423
v 4.001845791935921 39.8691371399215 17.47277921578201
v 3.9287716150283813 28.781720458444795 14.675168474276942
v 9.618020802736282 16.15057068699534 -12.947488972261894
v 9.645751118659973 16.142502273378366 -16.03834892053624
v 7.3144592344760895 -0.501654439472971 -16.405391611385788
v 7.280977815389633 -0.5016538233172201 -12.623454548645462
v 9.618020802736282 16.15057068699534 -12.947488972261894
v 7.3080748319625854 23.1431479173502 -14.51875199427935
v 9.645751118659973 16.142502273378366 -16.03834892053624
v -3.186853975057602 22.402814651903626 -6.128446309856042
v -0.5606512073427439 22.38162382577645 -7.765178303535963
v -1.4894315972924232 -0.42656099629694144 -9.934788127783634
v -4.698563739657402 -0.4265606702251424 -7.93337367976079
v -3.186853975057602 22.402814651903626 -6.128446309856042
v -3.0333761125802994 33.36320549970772 -8.95284808835404
v -0.5606512073427439 22.38162382577645 -7.765178303535963
v -16.781239211559296 16.14928010097404 0.5973324411826044
v -15.779544413089752 16.133646668614503 -2.327510176538928
v -17.87591427564621 -0.49431913631328095 -3.411710926821925
v -19.100283086299896 -0.494318553313912 0.16671371317794173
v -16.781239211559296 16.14928010097404 0.5973324411826044
v -18.472646176815033 23.12616705668893 -1.6288267872950417
v -15.779544413089752 16.133646668614503 -2.327510176538928
v -5.874057859182358 11.803938888503472 1.8987690425300847
v -8.49483385682106 11.73888946567437 0.26000667965071683
v -10.025209933519363 -0.5078283311172104 2.0569085039541863
v -6.818556040525436 -0.5078280043992467 4.062289082293287
v -5.874057859182358 11.803938888503472 1.8987690425300847
v -8.417084068059921 22.826253953635838 3.057500726445688
v -8.49483385682106 11.73888946567437 0.26000667965071683
v 10.81119105219841 27.049176317269023 7.872978661357797
v 8.43389555811882 27.052960023921166 5.897633421698064
v 6.676095724105835 -0.5098348908774925 7.473056101415354
v 9.58494171500206 -0.5098344970674406 9.890244984243113
v 10.81119105219841 27.049176317269023 7.872978661357797
v 8.134641498327255 38.14401218064766 8.67985685103304
v 8.43389555811882 27.052960023921166 5.897633421698064
v 0.9044673293828964 5.5161804423280065 -16.126264040332373
v -1.4732453972101212 5.525619113582336 -18.10142636915976
v -3.229892998933792 -0.5006728199870767 -16.526503779380953
v -0.3210479859262705 -0.5006724261770247 -14.109314896553194
v 0.9044673293828964 5.5161804423280065 -16.126264040332373
v -1.7645511776208878 12.5159577509141 -15.322661948833934
v -1.4732453972101212 5.525619113582336 -18.10142636915976
v -13.975541293621063 11.798558372510334 10.715606376549674
v -11.765535175800323 11.784273061712048 8.552784787976567
v -13.148351013660431 -0.4776055426946693 6.639891940681259
v -15.850859880447388 -0.4776051116278075 9.2857614937704
v -13.975541293621063 11.798558372510334 10.715606376549674
v -14.478360116481781 22.835316345427152 7.9547844876627725
v -11.765535175800323 11.784273061712048 8.552784787976567
v -4.779047891497612 11.809172282294446 14.171704216083358
v -4.304982349276543 11.804673106791885 11.117359562733032
v -6.559430807828903 -0.5087142585000684 10.417130672365518
v -7.139336317777634 -0.5087136496060756 14.154495381742807
v -4.779047891497612 11.809172282294446 14.171704216083358
v -6.844863295555115 22.898156012754782 12.283933902454761
v -4.304982349276543 11.804673106791885 11.117359562733032
v -11.443544924259186 -0.534234612421565 -24.96225378154266
v -13.45796287059784 22.440734374215115 -23.729554494530777
v -11.738590151071548 22.433842706085116 -24.46110912082652
v -9.725117683410645 -0.5125041701296909 -25.693404591033183
v -9.962808340787888 -0.5342340454295572 -21.482081624255063
v -11.443544924259186 -0.534234612421565 -24.96225378154266
v -9.725117683410645 -0.5125041701296909 -25.693404591033183
v -8.244381844997406 -0.5125036031379258 -22.213233923861704
v -12.247864156961441 22.44073483757631 -20.885463734776597
v -9.962808340787888 -0.5342340454295572 -21.482081624255063
v -8.244381844997406 -0.5125036031379258 -22.213233923861704
v -10.52849367260933 22.4338431694468 -21.6170153808401
v -13.45796287059784 22.440734374215115 -23.729554494530777
v -10.703164339065552 33.57557248877508 -23.22217922055624
v -8.988042175769806 33.53080038732925 -23.95192483971154
v -11.738590151071548 22.433842706085116 -24.46110912082652
v -10.703164339065552 33.57557248877508 -23.22217922055624
v -12.247864156961441 22.44073483757631 -20.885463734776597
v -10.52849367260933 22.4338431694468 -21.6170153808401
v -8.988042175769806 33.53080038732925 -23.95192483971154
v 8.80625993013382 -0.5342314657096795 -5.647873791441801
v 6.500009447336197 16.157942117294784 -6.156460220539661
v 8.21787491440773 16.14894866241055 -6.856158026505681
v 10.520640760660172 -0.49306697048449144 -6.346149662272665
v 7.460027188062668 -0.5342308898857333 -2.113491582260015
v 8.80625993013382 -0.5342314657096795 -5.647873791441801
v 10.520640760660172 -0.49306697048449144 -6.346149662272665
v 9.17440950870514 -0.4930663946606969 -2.811768384413454
v 5.399836972355843 16.157942587873432 -3.2680690536142305
v 7.460027188062668 -0.5342308898857333 -2.113491582260015
v 9.17440950870514 -0.4930663946606969 -2.811768384413454
v 7.116435468196869 16.132370671972726 -3.96724904152779
v 6.500009447336197 16.157942117294784 -6.156460220539661
v 8.133155107498169 23.219687397850116 -3.880680410126466
v 9.831107407808304 23.12330597205994 -4.572266009701247
v 8.21787491440773 16.14894866241055 -6.856158026505681
v 8.133155107498169 23.219687397850116 -3.880680410126466
v 5.399836972355843 16.157942587873432 -3.2680690536142305
v 7.116435468196869 16.132370671972726 -3.96724904152779
v 9.831107407808304 23.12330597205994 -4.572266009701247
v -11.295127123594284 -0.5342323893812916 -11.317329766735913
v -11.674416810274124 22.44073601665353 -13.648339291722397
v -13.287107646465302 22.410321384670464 -12.885855809174735
v -12.903639674186707 -0.4794993549124023 -10.556822937092932
v -15.07682055234909 -0.5342323804946691 -11.262784066185834
v -11.295127123594284 -0.5342323893812916 -11.317329766735913
v -12.903639674186707 -0.4794993549124023 -10.556822937092932
v -16.685330867767334 -0.4794993460256584 -10.502276491484793
v -14.764919877052307 22.440736023916262 -13.603760977894883
v -15.07682055234909 -0.5342323804946691 -11.262784066185834
v -16.685330867767334 -0.4794993460256584 -10.502276491484793
v -16.37895405292511 22.42417876528564 -12.840644198254136
v -11.674416810274124 22.44073601665353 -13.648339291722397
v -13.185974955558777 33.57557443276593 -11.290048317550637
v -14.775188267230988 33.46398686768279 -10.538663951693465
v -13.287107646465302 22.410321384670464 -12.885855809174735
v -13.185974955558777 33.57557443276593 -11.290048317550637
v -14.764919877052307 22.440736023916262 -13.603760977894883
v -16.37895405292511 22.42417876528564 -12.840644198254136
v -14.775188267230988 33.46398686768279 -10.538663951693465
v 7.301831990480423 -0.5342276564878858 17.732963053002475
v 8.251143991947174 28.78859007139296 15.570495802793385
v 6.546808034181595 28.776742269582098 16.318304618772423
v 5.598697811365128 -0.5078457298373371 18.480247341879075
v 4.098531603813171 -0.5342279840776089 15.72223165394318
v 7.301831990480423 -0.5342276564878858 17.732963053002475
v 5.598697811365128 -0.5078457298373371 18.480247341879075
v 2.3953963071107864 -0.5078460574275457 16.46951296258754
v 5.633317679166794 28.788589803677542 13.927270252141835
v 4.098531603813171 -0.5342279840776089 15.72223165394318
v 2.3953963071107864 -0.5078460574275457 16.46951296258754
v 3.9287716150283813 28.781720458444795 14.675168474276942
v 8.251143991947174 28.78859007139296 15.570495802793385
v 5.70017471909523 39.923426284365355 16.72760193795523
v 4.001845791935921 39.8691371399215 17.47277921578201
v 6.546808034181595 28.776742269582098 16.318304618772423
v 5.70017471909523 39.923426284365355 16.72760193795523
v 5.633317679166794 28.788589803677542 13.927270252141835
v 3.9287716150283813 28.781720458444795 14.675168474276942
v 4.001845791935921 39.8691371399215 17.47277921578201
v 9.000640362501144 -0.5342307116240848 -13.340921612963887
v 11.339841783046722 16.15794189757903 -13.665862033689276
v 9.618020802736282 16.15057068699534 -12.947488972261894
v 7.280977815389633 -0.5016538233172201 -12.623454548645462
v 9.03412327170372 -0.5342313277800784 -17.12286016582033
v 9.000640362501144 -0.5342307116240848 -13.340921612963887
v 7.280977815389633 -0.5016538233172201 -12.623454548645462
v 7.3144592344760895 -0.501654439472971 -16.405391611385788
v 11.367203295230865 16.157941394039522 -16.756565521085516
v 9.03412327170372 -0.5342313277800784 -17.12286016582033
v 7.3144592344760895 -0.501654439472971 -16.405391611385788
v 9.645751118659973 16.142502273378366 -16.03834892053624
v 11.339841783046722 16.15794189757903 -13.665862033689276
v 9.017366915941238 23.219687555944255 -15.231897739628899
v 7.3080748319625854 23.1431479173502 -14.51875199427935
v 9.618020802736282 16.15057068699534 -12.947488972261894
v 9.017366915941238 23.219687555944255 -15.231897739628899
v 11.367203295230865 16.157941394039522 -16.756565521085516
v 9.645751118659973 16.142502273378366 -16.03834892053624
v 7.3080748319625854 23.1431479173502 -14.51875199427935
v -3.3244263380765915 -0.5342319072836585 -8.358235570177914
v -1.794862188398838 22.440737171681402 -6.558828731686692
v -3.186853975057602 22.402814651903626 -6.128446309856042
v -4.698563739657402 -0.4265606702251424 -7.93337367976079
v -0.11529410257935524 -0.5342322333553362 -10.359649273142697
v -3.3244263380765915 -0.5342319072836585 -8.358235570177914
v -4.698563739657402 -0.4265606702251424 -7.93337367976079
v -1.4894315972924232 -0.42656099629694144 -9.934788127783634
v 0.8277279324829578 22.44073690520654 -8.194439788968186
v -0.11529410257935524 -0.5342322333553362 -10.359649273142697
v -1.4894315972924232 -0.42656099629694144 -9.934788127783634
v -0.5606512073427439 22.38162382577645 -7.765178303535963
v -1.794862188398838 22.440737171681402 -6.558828731686692
v -1.7198672518134117 33.575574747380415 -9.35895840966604
v -3.0333761125802994 33.36320549970772 -8.95284808835404
v -3.186853975057602 22.402814651903626 -6.128446309856042
v -1.7198672518134117 33.575574747380415 -9.35895840966604
v 0.8277279324829578 22.44073690520654 -8.194439788968186
v -0.5606512073427439 22.38162382577645 -7.765178303535963
v -3.0333761125802994 33.36320549970772 -8.95284808835404
v -17.38480031490326 -0.5342306325648445 -0.5340672159050726
v -15.062481164932251 16.157945110679357 -0.10478880869788017
v -16.781239211559296 16.14928010097404 0.5973324411826044
v -19.100283086299896 -0.494318553313912 0.16671371317794173
v -16.16043448448181 -0.5342312155641831 -4.112491669640424
v -17.38480031490326 -0.5342306325648445 -0.5340672159050726
v -19.100283086299896 -0.494318553313912 0.16671371317794173
v -17.87591427564621 -0.49431913631328095 -3.411710926821925
v -14.061897993087769 16.157944634236504 -3.029174196148337
v -16.16043448448181 -0.5342312155641831 -4.112491669640424
v -17.87591427564621 -0.49431913631328095 -3.411710926821925
v -15.779544413089752 16.133646668614503 -2.327510176538928
v -15.062481164932251 16.157945110679357 -0.10478880869788017
v -16.77262932062149 23.219689659023683 -2.323288155655014
v -18.472646176815033 23.12616705668893 -1.6288267872950417
v -16.781239211559296 16.14928010097404 0.5973324411826044
v -16.77262932062149 23.219689659023683 -2.323288155655014
v -14.061897993087769 16.157944634236504 -3.029174196148337
v -15.779544413089752 16.133646668614503 -2.327510176538928
v -18.472646176815033 23.12616705668893 -1.6288267872950417
v -5.115502327680588 -0.5342300054781595 3.3149634426976418
v -4.169802740216255 11.815826839150292 1.1509154299286657
v -5.874057859182358 11.803938888503472 1.8987690425300847
v -6.818556040525436 -0.5078280043992467 4.062289082293287
v -8.322156965732574 -0.534230332196366 1.3095813742424227
v -5.115502327680588 -0.5342300054781595 3.3149634426976418
v -6.818556040525436 -0.5078280043992467 4.062289082293287
v -10.025209933519363 -0.5078283311172104 2.0569085039541863
v -6.7903682589530945 11.745762825784237 -0.48793578030734
v -8.322156965732574 -0.534230332196366 1.3095813742424227
v -10.025209933519363 -0.5078283311172104 2.0569085039541863
v -8.49483385682106 11.73888946567437 0.26000667965071683
v -4.169802740216255 11.815826839150292 1.1509154299286657
v -6.7188359797000885 22.880599306453142 2.312279862713261
v -8.417084068059921 22.826253953635838 3.057500726445688
v -5.874057859182358 11.803938888503472 1.8987690425300847
v -6.7188359797000885 22.880599306453142 2.312279862713261
v -6.7903682589530945 11.745762825784237 -0.48793578030734
v -8.49483385682106 11.73888946567437 0.26000667965071683
v -8.417084068059921 22.826253953635838 3.057500726445688
v 11.293447017669678 -0.5342290553918175 9.146551874890445
v 12.520739436149597 27.05938403942846 7.128825100486812
v 10.81119105219841 27.049176317269023 7.872978661357797
v 9.58494171500206 -0.5098344970674406 9.890244984243113
v 8.384601026773453 -0.5342294492016267 6.729364482178805
v 11.293447017669678 -0.5342290553918175 9.146551874890445
v 9.58494171500206 -0.5098344970674406 9.890244984243113
v 6.676095724105835 -0.5098348908774925 7.473056101415354
v 10.143551230430603 27.059383717596166 5.1534325502567855
v 8.384601026773453 -0.5342294492016267 6.729364482178805
v 6.676095724105835 -0.5098348908774925 7.473056101415354
v 8.43389555811882 27.052960023921166 5.897633421698064
v 12.520739436149597 27.05938403942846 7.128825100486812
v 9.839017689228058 38.19422220315131 7.937960064507662
v 8.134641498327255 38.14401218064766 8.67985685103304
v 10.81119105219841 27.049176317269023 7.872978661357797
v 9.839017689228058 38.19422220315131 7.937960064507662
v 10.143551230430603 27.059383717596166 5.1534325502567855
v 8.43389555811882 27.052960023921166 5.897633421698064
v 8.134641498327255 38.14401218064766 8.67985685103304
v 1.386305969208479 -0.5342329653353023 -14.852510305628659
v 2.613597735762596 5.533028783191343 -16.870235808118686
v 0.9044673293828964 5.5161804423280065 -16.126264040332373
v -0.3210479859262705 -0.5006724261770247 -14.109314896553194
v -1.5225421637296677 -0.534233359145597 -17.269700678572537
v 1.386305969208479 -0.5342329653353023 -14.852510305628659
v -0.3210479859262705 -0.5006724261770247 -14.109314896553194
v -3.229892998933792 -0.5006728199870767 -16.526503779380953
v 0.23640843573957682 5.53302846135917 -18.845627613290652
v -1.5225421637296677 -0.534233359145597 -17.269700678572537
v -3.229892998933792 -0.5006728199870767 -16.526503779380953
v -1.4732453972101212 5.525619113582336 -18.10142636915976
v 2.613597735762596 5.533028783191343 -16.870235808118686
v -0.06812545470893383 12.594775832242782 -16.061096455216767
v -1.7645511776208878 12.5159577509141 -15.322661948833934
v 0.9044673293828964 5.5161804423280065 -16.126264040332373
v -0.06812545470893383 12.594775832242782 -16.061096455216767
v 0.23640843573957682 5.53302846135917 -18.845627613290652
v -1.4732453972101212 5.525619113582336 -18.10142636915976
v -1.7645511776208878 12.5159577509141 -15.322661948833934
v -14.193461835384369 -0.534229134691905 8.659811404957889
v -12.312109023332596 11.815828295085423 10.08738161344207
v -13.975541293621063 11.798558372510334 10.715606376549674
v -15.850859880447388 -0.4776051116278075 9.2857614937704
v -11.490950733423233 -0.5342295657584634 6.013943714513895
v -14.193461835384369 -0.534229134691905 8.659811404957889
v -15.850859880447388 -0.4776051116278075 9.2857614937704
v -13.148351013660431 -0.4776055426946693 6.639891940681259
v -10.10354608297348 11.81582794280543 7.925102424809103
v -11.490950733423233 -0.5342295657584634 6.013943714513895
v -13.148351013660431 -0.4776055426946693 6.639891940681259
v -11.765535175800323 11.784273061712048 8.552784787976567
v -12.312109023332596 11.815828295085423 10.08738161344207
v -12.842214107513428 22.950665878867365 7.336864606599576
v -14.478360116481781 22.835316345427152 7.9547844876627725
v -13.975541293621063 11.798558372510334 10.715606376549674
v -12.842214107513428 22.950665878867365 7.336864606599576
v -10.10354608297348 11.81582794280543 7.925102424809103
v -11.765535175800323 11.784273061712048 8.552784787976567
v -14.478360116481781 22.835316345427152 7.9547844876627725
v -5.419336259365082 -0.5342283554255419 13.442914274945377
v -3.0577315017580986 11.815828844486141 13.459579211660987
v -4.779047891497612 11.809172282294446 14.171704216083358
v -7.139336317777634 -0.5087136496060756 14.154495381742807
v -4.83943372964859 -0.5342289643194134 9.705550310626148
v -5.419336259365082 -0.5342283554255419 13.442914274945377
v -7.139336317777634 -0.5087136496060756 14.154495381742807
v -6.559430807828903 -0.5087142585000684 10.417130672365518
v -2.5838226079940796 11.81582633943888 10.405300867745375
v -4.83943372964859 -0.5342289643194134 9.705550310626148
v -6.559430807828903 -0.5087142585000684 10.417130672365518
v -4.304982349276543 11.804673106791885 11.117359562733032
v -3.0577315017580986 11.815828844486141 13.459579211660987
v -5.1293980330228806 22.95067058410534 11.574225113848755
v -6.844863295555115 22.898156012754782 12.283933902454761
v -4.779047891497612 11.809172282294446 14.171704216083358
v -5.1293980330228806 22.95067058410534 11.574225113848755
v -2.5838226079940796 11.81582633943888 10.405300867745375
v -4.304982349276543 11.804673106791885 11.117359562733032
v -6.844863295555115 22.898156012754782 12.283933902454761
f 1 2 3
f 1 3 4
f 5 6 7
f 8 9 10
f 8 10 11
f 12 13 14
f 15 16 17
f 15 17 18
f 19 20 21
f 22 23 24
f 22 24 25
f 26 27 28
f 29 30 31
f 29 31 32
f 33 34 35
f 36 37 38
f 36 38 39
f 40 41 42
f 43 44 45
f 43 45 46
f 47 48 49
f 50 51 52
f 50 52 53
f 54 55 56
f 57 58 59
f 57 59 60
f 61 62 63
f 64 65 66
f 64 66 67
f 68 69 70
f 71 72 73
f 71 73 74
f 75 76 77
f 78 79 80
f 78 80 81
f 82 83 84
f 85 86 87
f 85 87 88
f 89 90 91
f 92 93 94
f 92 94 95
f 96 97 98
f 99 100 101
f 99 101 102
f 103 104 105
f 106 107 108
f 106 108 109
f 110 111 112
f 113 114 115
f 113 115 116
f 117 118 119
f 120 121 122
f 120 122 123
f 124 125 126
f 127 128 129
f 127 129 130
f 131 132 133
f 134 135 136
f 134 136 137
f 138 139 140
f 141 142 143
f 141 143 144
f 145 146 147
f 148 149 150
f 148 150 151
f 152 153 154
f 155 156 157
f 155 157 158
f 159 160 161
f 162 163 164
f 162 164 165
f 166 167 168
f 169 170 171
f 169 171 172
f 173 174 175
f 173 175 176
f 177 178 179
f 177 179 180
f 181 182 183
f 181 183 184
f 185 186 187
f 185 187 188
f 189 190 191
f 189 191 192
f 193 194 195
f 193 195 196
f 197 198 199
f 197 199 200
f 201 202 203
f 201 203 204
f 205 206 207
f 205 207 208
f 209 210 211
f 209 211 212
f 213 214 215
f 213 215 216
f 217 218 219
f 217 219 220
f 221 222 223
f 221 223 224
f 225 226 227
f 225 227 228
f 229 230 231
f 229 231 232
f 233 234 235
f 233 235 236
f 237 238 239
f 237 239 240
f 241 242 243
f 241 243 244
f 245 246 247
f 245 247 248
f 249 250 251
f 249 251 252
f 253 254 255
f 253 255 256
f 257 258 259
f 257 259 260
f 261 262 263
f 261 263 264
f 265 266 267
f 265 267 268
f 269 270 271
f 269 271 272
f 273 274 275
f 273 275 276
f 277 278 279
f 277 279 280
f 281 282 283
f 281 283 284
f 285 286 287
f 285 287 288
f 289 290 291
f 289 291 292
f 293 294 295
f 293 295 296
f 297 298 299
f 297 299 300
f 301 302 303
f 301 303 304
f 305 306 307
f 305 307 308
f 309 310 311
f 309 311 312
f 313 314 315
f 313 315 316
f 317 318 319
f 317 319 320
f 321 322 323
f 321 323 324
f 325 326 327
f 325 327 328
f 329 330 331
f 329 331 332
f 333 334 335
f 333 335 336
f 337 338 339
f 337 339 340
f 341 342 343
f 341 343 344
f 345 346 347
f 345 347 348
f 349 350 351
f 349 351 352
f 353 354 355
f 353 355 356
f 357 358 359
f 357 359 360
f 361 362 363
f 361 363 364
f 365 366 367
f 365 367 368
f 369 370 371
f 369 371 372
f 373 374 375
f 373 375 376
f 377 378 379
f 377 379 380
f 381 382 383
f 381 383 384
f 385 386 387
f 385 387 388
f 389 390 391
f 389 391 392
f 393 394 395
f 393 395 396
f 397 398 399
f 397 399 400
f 401 402 403
f 401 403 404
f 405 406 407
f 405 407 408
