v 4.307893291115761 -1.1545592927761301 -59.4561217334393
v -39.1303688287735 -0.286908586933314 -49.30098350142234
v 2.423185855150223 -1.1545495599837212 0.2833325899865871
v 59.85977053642273 -0.2869022023789952 -10.112868202674319
v 46.13068699836731 -1.1545576821608285 -49.57023542190824
v 2.423185855150223 -1.1545495599837212 0.2833325899865871
v 56.9571316242218 -1.1545444303953354 31.768521854626798
v 59.85977053642273 -0.2869022023789952 -10.112868202674319
v 2.423185855150223 -1.1545495599837212 0.2833325899865871
v 46.13068699836731 -1.1545576821608285 -49.57023542190824
v 4.307893291115761 -1.1545592927761301 -59.4561217334393
v 2.423185855150223 -1.1545495599837212 0.2833325899865871
v -21.806398034095764 -1.1545399195127264 59.45612210963931
v 19.921664893627167 -0.2868922718406404 50.84034209157235
v 2.423185855150223 -1.1545495599837212 0.2833325899865871
v -54.533952474594116 -1.1545443865315201 32.03775603507724
v -21.806398034095764 -1.1545399195127264 59.45612210963931
v 2.423185855150223 -1.1545495599837212 0.2833325899865871
v -59.85977053642273 -1.1545511660096015 -9.574384054196214
v -54.533952474594116 -1.1545443865315201 32.03775603507724
v 2.423185855150223 -1.1545495599837212 0.2833325899865871
v -39.1303688287735 -0.286908586933314 -49.30098350142234
v -59.85977053642273 -1.1545511660096015 -9.574384054196214
v 2.423185855150223 -1.1545495599837212 0.2833325899865871
v 4.307893291115761 -2.6891445749826657 -59.45612148342363
v 2.423185855150223 -2.6891348421902563 0.28333284000226194
v -39.1303688287735 -1.8214937527245276 -49.30098325140668
v 59.85977053642273 -1.8214873681702088 -10.112867952658663
v 2.423185855150223 -2.6891348421902563 0.28333284000226194
v 46.13068699836731 -2.6891429643673637 -49.57023517189256
v 56.9571316242218 -2.6891297126018707 31.768522104642475
v 2.423185855150223 -2.6891348421902563 0.28333284000226194
v 59.85977053642273 -1.8214873681702088 -10.112867952658663
v 46.13068699836731 -2.6891429643673637 -49.57023517189256
v 2.423185855150223 -2.6891348421902563 0.28333284000226194
v 4.307893291115761 -2.6891445749826657 -59.45612148342363
v -21.806398034095764 -2.6891252017192615 59.456122359654984
v 2.423185855150223 -2.6891348421902563 0.28333284000226194
v 19.921664893627167 -1.8214774376318539 50.84034234158801
v -54.533952474594116 -2.6891296687380555 32.03775628509291
v 2.423185855150223 -2.6891348421902563 0.28333284000226194
v -21.806398034095764 -2.6891252017192615 59.456122359654984
v -59.85977053642273 -2.689136448216137 -9.57438380418054
v 2.423185855150223 -2.6891348421902563 0.28333284000226194
v -54.533952474594116 -2.6891296687380555 32.03775628509291
v -39.1303688287735 -1.8214937527245276 -49.30098325140668
v 2.423185855150223 -2.6891348421902563 0.28333284000226194
v -59.85977053642273 -2.689136448216137 -9.57438380418054
v -59.85977053642273 -1.1545511660096015 -9.574384054196214
v -59.85977053642273 -2.689136448216137 -9.57438380418054
v -54.533952474594116 -2.6891296687380555 32.03775628509291
v -54.533952474594116 -1.1545443865315201 32.03775603507724
v 19.921664893627167 -0.2868922718406404 50.84034209157235
v 19.921664893627167 -1.8214774376318539 50.84034234158801
v 2.423185855150223 -2.6891348421902563 0.28333284000226194
v 2.423185855150223 -1.1545495599837212 0.2833325899865871
v 46.13068699836731 -1.1545576821608285 -49.57023542190824
v 46.13068699836731 -2.6891429643673637 -49.57023517189256
v 4.307893291115761 -2.6891445749826657 -59.45612148342363
v 4.307893291115761 -1.1545592927761301 -59.4561217334393
v -39.1303688287735 -0.286908586933314 -49.30098350142234
v -39.1303688287735 -1.8214937527245276 -49.30098325140668
v -59.85977053642273 -2.689136448216137 -9.57438380418054
v -59.85977053642273 -1.1545511660096015 -9.574384054196214
v -21.806398034095764 -1.1545399195127264 59.45612210963931
v -21.806398034095764 -2.6891252017192615 59.456122359654984
v 19.921664893627167 -1.8214774376318539 50.84034234158801
v 19.921664893627167 -0.2868922718406404 50.84034209157235
v 59.85977053642273 -0.2869022023789952 -10.112868202674319
v 59.85977053642273 -1.8214873681702088 -10.112867952658663
v 46.13068699836731 -2.6891429643673637 -49.57023517189256
v 46.13068699836731 -1.1545576821608285 -49.57023542190824
v 4.307893291115761 -1.1545592927761301 -59.4561217334393
v 4.307893291115761 -2.6891445749826657 -59.45612148342363
v -39.1303688287735 -1.8214937527245276 -49.30098325140668
v -39.1303688287735 -0.286908586933314 -49.30098350142234
v -54.533952474594116 -1.1545443865315201 32.03775603507724
v -54.533952474594116 -2.6891296687380555 32.03775628509291
v -21.806398034095764 -2.6891252017192615 59.456122359654984
v -21.806398034095764 -1.1545399195127264 59.45612210963931
v 2.423185855150223 -1.1545495599837212 0.2833325899865871
v 2.423185855150223 -2.6891348421902563 0.28333284000226194
v 56.9571316242218 -2.6891297126018707 31.768522104642475
v 56.9571316242218 -1.1545444303953354 31.768521854626798
v 56.9571316242218 -1.1545444303953354 31.768521854626798
v 56.9571316242218 -2.6891297126018707 31.768522104642475
v 59.85977053642273 -1.8214873681702088 -10.112867952658663
v 59.85977053642273 -0.2869022023789952 -10.112868202674319
f 1 2 3
f 4 5 6
f 7 8 9
f 10 11 12
f 13 14 15
f 16 17 18
f 19 20 21
f 22 23 24
f 25 26 27
f 28 29 30
f 31 32 33
f 34 35 36
f 37 38 39
f 40 41 42
f 43 44 45
f 46 47 48
f 49 50 51
f 49 51 52
f 53 54 55
f 53 55 56
f 57 58 59
f 57 59 60
f 61 62 63
f 61 63 64
f 65 66 67
f 65 67 68
f 69 70 71
f 69 71 72
f 73 74 75
f 73 75 76
f 77 78 79
f 77 79 80
f 81 82 83
f 81 83 84
f 85 86 87
f 85 87 88
v 11.455447971820831 13.808664038344435 -22.22808973455408
v 4.432081803679466 13.700281408452058 -25.444778051838256
v -0.6243180949240923 3.9050673841358323 -21.860238055822062
v 12.037024646997452 4.100452726994479 -16.06136776256572
v 12.037024646997452 4.100452726994479 -16.06136776256572
v -0.6243180949240923 3.9050673841358323 -21.860238055822062
v -2.9315462335944176 0.1972768773309542 -7.093511553956924
v 2.3607829585671425 0.19727744265257804 -3.623592140628754
v 4.432081803679466 13.700281408452058 -25.444778051838256
v 11.455447971820831 13.808664038344435 -22.22808973455408
v 7.362779974937439 18.761911264225876 -22.73661799925457
v -12.117091566324234 13.80866404476305 -22.188692554473665
v -18.098896741867065 13.700282735295326 -17.300672080978728
v -17.10849106311798 3.9050691238022273 -11.18224177801292
v -6.324819475412369 4.1004520862710585 -19.994100106239426
v -6.324819475412369 4.1004520862710585 -19.994100106239426
v -17.10849106311798 3.9050691238022273 -11.18224177801292
v -4.868344962596893 0.1972776085007337 -2.6056234114903796
v 0.5782009568065405 0.19727708349622686 -5.828078123285232
v -18.098896741867065 13.700282735295326 -17.300672080978728
v -12.117091566324234 13.80866404476305 -22.188692554473665
v -14.376600086688995 18.761911915585568 -18.738600688158378
v -22.55699783563614 13.808667301399398 -2.1996010240314257
v -21.20940089225769 13.700286434827115 5.406892302766466
v -15.38558304309845 3.9050721720934027 7.528036196592642
v -17.814956605434418 4.10045433613513 -6.184532788872826
v -17.814956605434418 4.10045433613513 -6.184532788872826
v -15.38558304309845 3.9050721720934027 7.528036196592642
v -1.9265472888946533 0.19727820070143193 1.0292785852115762
v -2.08152886480093 0.19727716997795797 -5.297257038309036
v -21.20940089225769 13.700286434827115 5.406892302766466
v -22.55699783563614 13.808667301399398 -2.1996010240314257
v -20.648127794265747 18.76191520573344 1.456183118642465
v -9.879390895366669 13.808670400860755 16.824757293224547
v -2.5423314422369003 13.70028868882794 19.241850826278352
v 2.084866538643837 3.905073408675727 15.11812444484551
v -11.141982674598694 4.100457096868323 10.76072685670842
v -11.141982674598694 4.100457096868323 10.76072685670842
v 2.084866538643837 3.905073408675727 15.11812444484551
v 2.738473564386368 0.19727806340163645 0.1865384429592801
v -2.906361408531666 0.1972775972968646 -2.6743922703999865
v -2.5423314422369003 13.70028868882794 19.241850826278352
v -9.879390895366669 13.808670400860755 16.824757293224547
v -5.755565315485001 18.76191771790552 16.875785512746468
v 10.819312930107117 13.808670334593815 16.418013707161162
v 16.947530210018158 13.700287462524406 11.714853349462174
v 16.144336760044098 3.9050718529332253 5.569044981959654
v 5.09672574698925 4.100457632376123 14.047650324821365
v 5.09672574698925 4.100457632376123 14.047650324821365
v 16.144336760044098 3.9050718529332253 5.569044981959654
v 4.171678796410561 0.19727748279793475 -3.377181696249901
v -1.3706887140870094 0.19727798047314893 -0.3224729881722318
v 16.947530210018158 13.700287462524406 11.714853349462174
v 10.819312930107117 13.808670334593815 16.418013707161162
v 13.183079659938812 18.76191709273156 13.038495106519358
v 21.61453068256378 13.808667745615884 0.5269803427012908
v 21.807143092155457 13.700284381626572 -7.1955628661960125
v 16.5217325091362 3.90506924588228 -10.432919751044917
v 16.174498200416565 4.100455912130112 3.488855513453377
v 16.174498200416565 4.100455912130112 3.488855513453377
v 16.5217325091362 3.90506924588228 -10.432919751044917
v 2.0388372242450714 0.1972769346534931 -6.741668316080032
v 0.932090450078249 0.19727794979687485 -0.5107626174677001
v 21.807143092155457 13.700284381626572 -7.1955628661960125
v 21.61453068256378 13.808667745615884 0.5269803427012908
v 20.47112137079239 18.761914408778924 -3.435488866745337
v 3.4893445670604706 15.683563867687566 4.996782593801505
v 7.9716794192790985 15.68356299333361 -0.369963765703254
v 10.756023228168488 6.4402545314592095 -3.1575597139302465
v 1.262691430747509 6.4402563832918105 8.208907836466672
v 1.262691430747509 6.4402563832918105 8.208907836466672
v 10.756023228168488 6.4402545314592095 -3.1575597139302465
v 4.542969167232513 0.6531123577326869 -2.547985421728452
v 0.26632517110556364 0.6531129784855747 1.262168666113059
v 7.9716794192790985 15.68356299333361 -0.369963765703254
v 3.4893445670604706 15.683563867687566 4.996782593801505
v 5.246777459979057 19.083103845752852 1.8916741588172763
v 7.042934745550156 15.683561849572067 -7.3903221111745765
v 1.310985442250967 15.683561197114566 -11.395077727362626
v -1.666516251862049 6.440252793737105 -13.823622024268268
v 10.473431646823883 6.440254175604722 -5.341778999776003
v 10.473431646823883 6.440254175604722 -5.341778999776003
v -1.666516251862049 6.440252793737105 -13.823622024268268
v -0.3171415766701102 0.6531115854135724 -7.2884463837855655
v 3.5062164068222046 0.6531120737249223 -4.291212665151914
v 1.310985442250967 15.683561197114566 -11.395077727362626
v 7.042934745550156 15.683561849572067 -7.3903221111745765
v 3.828519955277443 19.083102099167096 -8.828792849833027
v -5.49946054816246 15.68356143380231 -9.942298702523225
v -9.085774421691895 15.68356241175588 -3.939662448689454
v -11.258143186569214 6.440254933291006 -0.6911337157938454
v -3.662533313035965 6.440252862040164 -13.404380834311603
v -3.662533313035965 6.440252862040164 -13.404380834311603
v -11.258143186569214 6.440254933291006 -0.6911337157938454
v -4.823197424411774 0.6531124167252154 -2.185891861330827
v -2.187012881040573 0.6531116155289172 -7.103599714350064
v -9.085774421691895 15.68356241175588 -3.939662448689454
v -5.49946054816246 15.68356143380231 -9.942298702523225
v -6.675679236650467 19.083102464247176 -6.587947288805499
v -7.714129984378815 15.683563377912854 1.990566827729232
v -1.847669668495655 15.68356399782451 5.79555747695256
v 1.3491366058588028 6.440256379894356 8.188054406433942
v -11.075697094202042 6.440255066956681 0.12930035439843196
v -11.075697094202042 6.440255066956681 0.12930035439843196
v 1.3491366058588028 6.440256379894356 8.188054406433942
v -0.3190591698512435 0.6531130182615406 1.5063118056840104
v -4.381042718887329 0.6531125890299647 -1.1282928420716125
v -1.847669668495655 15.68356399782451 5.79555747695256
v -7.714129984378815 15.683563377912854 1.990566827729232
v -4.379653558135033 19.083104080783777 3.3342836999354213
v 5.222417041659355 12.192494502844838 0.49500881425019727
v 5.851246044039726 12.192493656414465 -4.700343807126317
v 5.391684919595718 5.778617037353548 -6.8717891451726665
v 4.258064925670624 5.778618563252275 2.4941105294217354
v 4.258064925670624 5.778618563252275 2.4941105294217354
v 5.391684919595718 5.778617037353548 -6.8717891451726665
v 2.8112776577472687 0.9433216254990484 -4.6715592639705745
v 1.6776585951447487 0.9433222990418166 -0.5373831978252737
v 5.851246044039726 12.192493656414465 -4.700343807126317
v 5.222417041659355 12.192494502844838 0.49500881425019727
v 3.157982975244522 14.736796526053928 -2.390596622580501
v 2.4089261889457703 12.192492999854625 -8.730279405499731
v -2.8212416917085648 12.19249297049369 -8.910495539094244
v -4.945183545351028 5.778616810191278 -8.266101228893827
v 4.483477026224136 5.778616863121731 -7.941216426790785
v 4.483477026224136 5.778616863121731 -7.941216426790785
v -4.945183545351028 5.778616810191278 -8.266101228893827
v -2.1710772067308426 0.9433214630268625 -5.668806438352784
v 1.4503310434520245 0.9433215159571934 -5.343922381307801
v -2.8212416917085648 12.19249297049369 -8.910495539094244
v 2.4089261889457703 12.192492999854625 -8.730279405499731
v -0.2886751666665077 14.736795868668574 -6.425599174553367
v -6.505947560071945 12.192493570999225 -5.224618811990056
v -6.313177198171616 12.19249442302863 0.005100426933224316
v -5.519138649106026 5.778618495418734 2.0777512240399605
v -5.866653844714165 5.778616959426572 -7.350101518333982
v -5.866653844714165 5.778616959426572 -7.350101518333982
v -5.519138649106026 5.778618495418734 2.0777512240399605
v -2.9223980382084846 0.9433222840044004 -0.629682200979313
v -3.2699130475521088 0.9433216060063797 -4.791204412486276
v -6.313177198171616 12.19249442302863 0.005100426933224316
v -6.505947560071945 12.192493570999225 -5.224618811990056
v -4.014978185296059 14.736796475967413 -2.6980254594030106
v -3.036726638674736 12.192494938680717 3.1701503946530485
v 2.1965451538562775 12.192494938680777 3.1701507671820783
v 4.297037422657013 5.778618556554504 2.452999902068544
v -5.137219652533531 5.778618556554352 2.4529989707459694
v -5.137219652533531 5.778618556554352 2.4529989707459694
v 4.297037422657013 5.778618556554504 2.452999902068544
v 1.4095185324549675 0.94332236285907 -0.14567568667220154
v -2.2140398621559143 0.9433223628591458 -0.14567522101091424
v 2.1965451538562775 12.192494938680777 3.1701507671820783
v -3.036726638674736 12.192494938680717 3.1701503946530485
v -0.4200907424092293 14.736797041622482 0.7739406284151351
v 12.078750133514404 13.417973253647359 -23.575910131698862
v 12.447383254766464 2.882177981919804 -16.90116422641422
v -0.21313689649105072 2.688433070336495 -22.701922497061084
v 5.055071786046028 13.306360052136096 -26.791813157261796
v 12.447383254766464 2.882177981919804 -16.90116422641422
v 2.548930048942566 -1.2897983120508345 -3.956752805383478
v -2.743399515748024 -1.2897988773723368 -7.426671473653589
v -0.21313689649105072 2.688433070336495 -22.701922497061084
v 5.055071786046028 13.306360052136096 -26.791813157261796
v 7.9786889255046844 19.131418117469288 -24.093797939597124
v 12.078750133514404 13.417973253647359 -23.575910131698862
v -13.052468001842499 13.417973291752652 -23.34202150560023
v -6.897912919521332 2.8821773577280996 -20.7324256228223
v -17.68295466899872 2.6884348265793965 -11.92218034556229
v -19.03368979692459 13.30636141064128 -18.453367732228227
v -6.897912919521332 2.8821773577280996 -20.7324256228223
v 0.36204762291163206 -1.2897986683580283 -6.143750785262857
v -5.0844985991716385 -1.2897981433535215 -2.921296073468004
v -17.68295466899872 2.6884348265793965 -11.92218034556229
v -19.03368979692459 13.30636141064128 -18.453367732228227
v -15.323640406131744 19.13141880245758 -19.889369743643755
v -13.052468001842499 13.417973291752652 -23.34202150560023
v -24.0201473236084 13.41797677761388 -1.9459576786220225
v -18.739092350006104 2.8821797506726203 -6.0446367638125595
v -16.311782598495483 2.688438018285802 7.668374040815045
v -22.671696543693542 13.306365339266458 5.660361863909773
v -18.739092350006104 2.8821797506726203 -6.0446367638125595
v -2.462577261030674 -1.289798524802659 -5.262614203961168
v -2.3075954988598824 -1.2897974940792458 1.0639210470304148
v -16.311782598495483 2.688438018285802 7.668374040815045
v -22.671696543693542 13.306365339266458 5.660361863909773
v -22.114725410938263 19.13142232328183 1.721295577706343
v -24.0201473236084 13.41797677761388 -1.9459576786220225
v -10.349243134260178 13.41798006525214 18.233422239059195
v -11.456632614135742 2.882182632005207 11.64085669052456
v 1.7696058377623558 2.688439375719881 16.00024507352989
v -3.011959046125412 13.306367781338002 20.649690248309188
v -11.456632614135742 2.882182632005207 11.64085669052456
v -3.056424669921398 -1.2897980457862113 -2.322432188661371
v 2.5884103029966354 -1.289797579681449 0.5384984664902347
v 1.7696058377623558 2.688439375719881 16.00024507352989
v -3.011959046125412 13.306367781338002 20.649690248309188
v -6.217003986239433 19.131425023144814 18.292936546029097
v -10.349243134260178 13.41798006525214 18.233422239059195
v 11.719061434268951 13.417979961951982 17.59937037968038
v 5.647005513310432 2.8821831472083916 14.803151316760522
v 16.69592410326004 2.688437799615045 6.3261824936596645
v 17.846710979938507 13.306366518025893 12.895535744963697
v 5.647005513310432 2.8821831472083916 14.803151316760522
v -1.164277270436287 -1.289797667472577 -0.000359640084245511
v 4.378089681267738 -1.2897981651478085 -3.0550684541180475
v 16.69592410326004 2.688437799615045 6.3261824936596645
v 17.846710979938507 13.306366518025893 12.895535744963697
v 14.094585180282593 19.131424359196004 14.217647773446089
v 11.719061434268951 13.417979961951982 17.59937037968038
v 23.09887409210205 13.417977187430731 0.5694802410244791
v 17.107997834682465 2.882181311490608 3.5355958117232142
v 17.457304894924164 2.6884350768222443 -10.386200687197041
v 23.290647566318512 13.306363251698926 -7.153036378086992
v 17.107997834682465 2.882181311490608 3.5355958117232142
v 1.3123909011483192 -1.289797743803148 -0.4688733484312636
v 2.4191373959183693 -1.2897987589464692 -6.699778674514566
v 17.457304894924164 2.6884350768222443 -10.386200687197041
v 23.290647566318512 13.306363251698926 -7.153036378086992
v 21.961139142513275 19.131421488350444 -3.403476762352937
v 23.09887409210205 13.417977187430731 0.5694802410244791
v 4.664092883467674 15.80615737079385 5.977924945721444
v 2.3720758035779 5.983116108584836 9.167049595476467
v 11.865813285112381 5.984613686136543 -2.1991774876759744
v 9.146428108215332 15.806298057471201 0.6111783766460419
v 2.3720758035779 5.983116108584836 9.167049595476467
v 1.1417282745242119 -0.327008278355646 2.0563971784013964
v 5.41837178170681 -0.32700889910853376 -1.7537569094401144
v 11.865813285112381 5.984613686136543 -2.1991774876759744
v 9.146428108215332 15.806298057471201 0.6111783766460419
v 6.404873728752136 19.367884565261104 2.858919475119666
v 4.664092883467674 15.80615737079385 5.977924945721444
v 7.9197898507118225 15.80123313481594 -8.64536051096856
v 11.321598291397095 5.995579115646887 -6.542034678939075
v -0.8184087462723255 5.995061781093568 -15.023751043477132
v 2.187841944396496 15.800906146928414 -12.650115382045382
v 11.321598291397095 5.995579115646887 -6.542034678939075
v 4.200935363769531 -0.31730874412914395 -5.257345311801718
v 0.37757777608931065 -0.31730923244055453 -8.2545794029644
v -0.8184087462723255 5.995061781093568 -15.023751043477132
v 2.187841944396496 15.800906146928414 -12.650115382045382
v 4.691712930798531 19.37650576177903 -10.064332363777238
v 7.9197898507118225 15.80123313481594 -8.64536051096856
v -6.814044713973999 15.79696808322874 -10.727683793230826
v -4.926081001758575 5.987986106968201 -14.150519154506952
v -12.520621716976166 5.983957786759216 -1.4365718204548368
v -10.400357097387314 15.796687429235805 -4.725047166822142
v -4.926081001758575 5.987986106968201 -14.150519154506952
v -3.2242894172668457 -0.30578127872982486 -7.705549845945509
v -5.860473215579987 -0.30578047753358734 -2.7878423654553006
v -12.520621716976166 5.983957786759216 -1.4365718204548368
v -10.400357097387314 15.796687429235805 -4.725047166822142
v -7.96595886349678 19.39731269394298 -7.358788878902962
v -6.814044713973999 15.79696808322874 -10.727683793230826
v -8.547169715166092 15.801984605298173 3.275005925152384
v -11.8754543364048 5.995861290335208 1.3624242982972101
v 0.5494378041476011 5.995300456945985 9.42105031685336
v -2.680709771811962 15.802220663556692 7.079996574337354
v -11.8754543364048 5.995861290335208 1.3624242982972101
v -5.029749870300293 -0.3146838838365324 -0.12812796742735275
v -0.9677659720182419 -0.3146834546050761 2.506475946911743
v 0.5494378041476011 5.995300456945985 9.42105031685336
v -2.680709771811962 15.802220663556692 7.079996574337354
v -5.198635905981064 19.38728467019419 4.597034126976887
v -8.547169715166092 15.801984605298173 3.275005925152384
v 6.7258380353450775 12.446019163758187 0.6770085289690801
v 5.713645741343498 5.33539696819556 2.7004024634638455
v 6.846912205219269 5.3341772723847445 -6.665402029764966
v 7.354667782783508 12.446018317327821 -4.518344045841306
v 5.713645741343498 5.33539696819556 2.7004024634638455
v 3.0097726732492447 0.21321048972615828 -0.3136341341751924
v 4.14339192211628 0.21320981618329907 -4.447810759114038
v 6.846912205219269 5.3341772723847445 -6.665402029764966
v 7.354667782783508 12.446018317327821 -4.518344045841306
v 4.2676761746406555 15.78955464558502 -2.256283128766154
v 6.7258380353450775 12.446019163758187 0.6770085289690801
v 2.4611039087176323 12.446017384531064 -10.243809760772793
v 4.543912783265114 5.342424990123511 -9.41220534460249
v -4.884722083806992 5.341861673327243 -9.736922508550336
v -2.769063785672188 12.446017355170008 -10.424026639425366
v 4.543912783265114 5.342424990123511 -9.41220534460249
v 1.517582405358553 0.21602115956068077 -6.694557552961444
v -2.103826031088829 0.2160211066303499 -7.019441610006427
v -4.884722083806992 5.341861673327243 -9.736922508550336
v -2.769063785672188 12.446017355170008 -10.424026639425366
v -0.25015617720782757 15.789553784313679 -7.542728969959353
v 2.4611039087176323 12.446017384531064 -10.243809760772793
v -8.019330352544785 12.446018211351783 -5.168820337617009
v -7.336319237947464 5.338301067525528 -7.286683594672521
v -6.9882988929748535 5.3367092968614385 2.1411961563156687
v -7.826560735702515 12.446019063381163 0.06089875033015106
v -7.336319237947464 5.338301067525528 -7.286683594672521
v -4.620857909321785 0.2167713352793559 -4.722139274627876
v -4.273342341184616 0.21677201327744489 -0.5606166440257552
v -6.9882988929748535 5.3367092968614385 2.1411961563156687
v -7.826560735702515 12.446019063381163 0.06089875033015106
v -5.132046341896057 15.789554580324396 -2.6568499972501742
v -8.019330352544785 12.446018211351783 -5.168820337617009
v -3.03675290197134 12.446019816671951 4.684564678705127
v -5.137250199913979 5.342754616101362 3.9253319291087703
v 4.297042265534401 5.342098592449154 3.925143802055578
v 2.196519449353218 12.446019816671951 4.684564678705127
v -5.137250199913979 5.342754616101362 3.9253319291087703
v -2.2140752524137497 0.2164441264458786 1.206873322032798
v 1.409483328461647 0.2164441264458786 1.206873322032798
v 4.297042265534401 5.342098592449154 3.925143802055578
v 2.196519449353218 12.446019816671951 4.684564678705127
v -0.4200933501124382 15.789555321383743 1.8917398879846585
v -3.03675290197134 12.446019816671951 4.684564678705127
v 11.455447971820831 13.808664038344435 -22.22808973455408
v 12.037024646997452 4.100452726994479 -16.06136776256572
v 12.447383254766464 2.882177981919804 -16.90116422641422
v 12.078750133514404 13.417973253647359 -23.575910131698862
v -0.6243180949240923 3.9050673841358323 -21.860238055822062
v 4.432081803679466 13.700281408452058 -25.444778051838256
v 5.055071786046028 13.306360052136096 -26.791813157261796
v -0.21313689649105072 2.688433070336495 -22.701922497061084
v 2.3607829585671425 0.19727744265257804 -3.623592140628754
v -2.9315462335944176 0.1972768773309542 -7.093511553956924
v -2.743399515748024 -1.2897988773723368 -7.426671473653589
v 2.548930048942566 -1.2897983120508345 -3.956752805383478
v 12.037024646997452 4.100452726994479 -16.06136776256572
v 2.3607829585671425 0.19727744265257804 -3.623592140628754
v 2.548930048942566 -1.2897983120508345 -3.956752805383478
v 12.447383254766464 2.882177981919804 -16.90116422641422
v -2.9315462335944176 0.1972768773309542 -7.093511553956924
v -0.6243180949240923 3.9050673841358323 -21.860238055822062
v -0.21313689649105072 2.688433070336495 -22.701922497061084
v -2.743399515748024 -1.2897988773723368 -7.426671473653589
v 7.362779974937439 18.761911264225876 -22.73661799925457
v 11.455447971820831 13.808664038344435 -22.22808973455408
v 12.078750133514404 13.417973253647359 -23.575910131698862
v 7.9786889255046844 19.131418117469288 -24.093797939597124
v 4.432081803679466 13.700281408452058 -25.444778051838256
v 7.362779974937439 18.761911264225876 -22.73661799925457
v 7.9786889255046844 19.131418117469288 -24.093797939597124
v 5.055071786046028 13.306360052136096 -26.791813157261796
v -12.117091566324234 13.80866404476305 -22.188692554473665
v -6.324819475412369 4.1004520862710585 -19.994100106239426
v -6.897912919521332 2.8821773577280996 -20.7324256228223
v -13.052468001842499 13.417973291752652 -23.34202150560023
v -17.10849106311798 3.9050691238022273 -11.18224177801292
v -18.098896741867065 13.700282735295326 -17.300672080978728
v -19.03368979692459 13.30636141064128 -18.453367732228227
v -17.68295466899872 2.6884348265793965 -11.92218034556229
v 0.5782009568065405 0.19727708349622686 -5.828078123285232
v -4.868344962596893 0.1972776085007337 -2.6056234114903796
v -5.0844985991716385 -1.2897981433535215 -2.921296073468004
v 0.36204762291163206 -1.2897986683580283 -6.143750785262857
v -6.324819475412369 4.1004520862710585 -19.994100106239426
v 0.5782009568065405 0.19727708349622686 -5.828078123285232
v 0.36204762291163206 -1.2897986683580283 -6.143750785262857
v -6.897912919521332 2.8821773577280996 -20.7324256228223
v -4.868344962596893 0.1972776085007337 -2.6056234114903796
v -17.10849106311798 3.9050691238022273 -11.18224177801292
v -17.68295466899872 2.6884348265793965 -11.92218034556229
v -5.0844985991716385 -1.2897981433535215 -2.921296073468004
v -14.376600086688995 18.761911915585568 -18.738600688158378
v -12.117091566324234 13.80866404476305 -22.188692554473665
v -13.052468001842499 13.417973291752652 -23.34202150560023
v -15.323640406131744 19.13141880245758 -19.889369743643755
v -18.098896741867065 13.700282735295326 -17.300672080978728
v -14.376600086688995 18.761911915585568 -18.738600688158378
v -15.323640406131744 19.13141880245758 -19.889369743643755
v -19.03368979692459 13.30636141064128 -18.453367732228227
v -22.55699783563614 13.808667301399398 -2.1996010240314257
v -17.814956605434418 4.10045433613513 -6.184532788872826
v -18.739092350006104 2.8821797506726203 -6.0446367638125595
v -24.0201473236084 13.41797677761388 -1.9459576786220225
v -15.38558304309845 3.9050721720934027 7.528036196592642
v -21.20940089225769 13.700286434827115 5.406892302766466
v -22.671696543693542 13.306365339266458 5.660361863909773
v -16.311782598495483 2.688438018285802 7.668374040815045
v -2.08152886480093 0.19727716997795797 -5.297257038309036
v -1.9265472888946533 0.19727820070143193 1.0292785852115762
v -2.3075954988598824 -1.2897974940792458 1.0639210470304148
v -2.462577261030674 -1.289798524802659 -5.262614203961168
v -17.814956605434418 4.10045433613513 -6.184532788872826
v -2.08152886480093 0.19727716997795797 -5.297257038309036
v -2.462577261030674 -1.289798524802659 -5.262614203961168
v -18.739092350006104 2.8821797506726203 -6.0446367638125595
v -1.9265472888946533 0.19727820070143193 1.0292785852115762
v -15.38558304309845 3.9050721720934027 7.528036196592642
v -16.311782598495483 2.688438018285802 7.668374040815045
v -2.3075954988598824 -1.2897974940792458 1.0639210470304148
v -20.648127794265747 18.76191520573344 1.456183118642465
v -22.55699783563614 13.808667301399398 -2.1996010240314257
v -24.0201473236084 13.41797677761388 -1.9459576786220225
v -22.114725410938263 19.13142232328183 1.721295577706343
v -21.20940089225769 13.700286434827115 5.406892302766466
v -20.648127794265747 18.76191520573344 1.456183118642465
v -22.114725410938263 19.13142232328183 1.721295577706343
v -22.671696543693542 13.306365339266458 5.660361863909773
v -9.879390895366669 13.808670400860755 16.824757293224547
v -11.141982674598694 4.100457096868323 10.76072685670842
v -11.456632614135742 2.882182632005207 11.64085669052456
v -10.349243134260178 13.41798006525214 18.233422239059195
v 2.084866538643837 3.905073408675727 15.11812444484551
v -2.5423314422369003 13.70028868882794 19.241850826278352
v -3.011959046125412 13.306367781338002 20.649690248309188
v 1.7696058377623558 2.688439375719881 16.00024507352989
v -2.906361408531666 0.1972775972968646 -2.6743922703999865
v 2.738473564386368 0.19727806340163645 0.1865384429592801
v 2.5884103029966354 -1.289797579681449 0.5384984664902347
v -3.056424669921398 -1.2897980457862113 -2.322432188661371
v -11.141982674598694 4.100457096868323 10.76072685670842
v -2.906361408531666 0.1972775972968646 -2.6743922703999865
v -3.056424669921398 -1.2897980457862113 -2.322432188661371
v -11.456632614135742 2.882182632005207 11.64085669052456
v 2.738473564386368 0.19727806340163645 0.1865384429592801
v 2.084866538643837 3.905073408675727 15.11812444484551
v 1.7696058377623558 2.688439375719881 16.00024507352989
v 2.5884103029966354 -1.289797579681449 0.5384984664902347
v -5.755565315485001 18.76191771790552 16.875785512746468
v -9.879390895366669 13.808670400860755 16.824757293224547
v -10.349243134260178 13.41798006525214 18.233422239059195
v -6.217003986239433 19.131425023144814 18.292936546029097
v -2.5423314422369003 13.70028868882794 19.241850826278352
v -5.755565315485001 18.76191771790552 16.875785512746468
v -6.217003986239433 19.131425023144814 18.292936546029097
v -3.011959046125412 13.306367781338002 20.649690248309188
v 10.819312930107117 13.808670334593815 16.418013707161162
v 5.09672574698925 4.100457632376123 14.047650324821365
v 5.647005513310432 2.8821831472083916 14.803151316760522
v 11.719061434268951 13.417979961951982 17.59937037968038
v 16.144336760044098 3.9050718529332253 5.569044981959654
v 16.947530210018158 13.700287462524406 11.714853349462174
v 17.846710979938507 13.306366518025893 12.895535744963697
v 16.69592410326004 2.688437799615045 6.3261824936596645
v -1.3706887140870094 0.19727798047314893 -0.3224729881722318
v 4.171678796410561 0.19727748279793475 -3.377181696249901
v 4.378089681267738 -1.2897981651478085 -3.0550684541180475
v -1.164277270436287 -1.289797667472577 -0.000359640084245511
v 5.09672574698925 4.100457632376123 14.047650324821365
v -1.3706887140870094 0.19727798047314893 -0.3224729881722318
v -1.164277270436287 -1.289797667472577 -0.000359640084245511
v 5.647005513310432 2.8821831472083916 14.803151316760522
v 4.171678796410561 0.19727748279793475 -3.377181696249901
v 16.144336760044098 3.9050718529332253 5.569044981959654
v 16.69592410326004 2.688437799615045 6.3261824936596645
v 4.378089681267738 -1.2897981651478085 -3.0550684541180475
v 13.183079659938812 18.76191709273156 13.038495106519358
v 10.819312930107117 13.808670334593815 16.418013707161162
v 11.719061434268951 13.417979961951982 17.59937037968038
v 14.094585180282593 19.131424359196004 14.217647773446089
v 16.947530210018158 13.700287462524406 11.714853349462174
v 13.183079659938812 18.76191709273156 13.038495106519358
v 14.094585180282593 19.131424359196004 14.217647773446089
v 17.846710979938507 13.306366518025893 12.895535744963697
v 21.61453068256378 13.808667745615884 0.5269803427012908
v 16.174498200416565 4.100455912130112 3.488855513453377
v 17.107997834682465 2.882181311490608 3.5355958117232142
v 23.09887409210205 13.417977187430731 0.5694802410244791
v 16.5217325091362 3.90506924588228 -10.432919751044917
v 21.807143092155457 13.700284381626572 -7.1955628661960125
v 23.290647566318512 13.306363251698926 -7.153036378086992
v 17.457304894924164 2.6884350768222443 -10.386200687197041
v 0.932090450078249 0.19727794979687485 -0.5107626174677001
v 2.0388372242450714 0.1972769346534931 -6.741668316080032
v 2.4191373959183693 -1.2897987589464692 -6.699778674514566
v 1.3123909011483192 -1.289797743803148 -0.4688733484312636
v 16.174498200416565 4.100455912130112 3.488855513453377
v 0.932090450078249 0.19727794979687485 -0.5107626174677001
v 1.3123909011483192 -1.289797743803148 -0.4688733484312636
v 17.107997834682465 2.882181311490608 3.5355958117232142
v 2.0388372242450714 0.1972769346534931 -6.741668316080032
v 16.5217325091362 3.90506924588228 -10.432919751044917
v 17.457304894924164 2.6884350768222443 -10.386200687197041
v 2.4191373959183693 -1.2897987589464692 -6.699778674514566
v 20.47112137079239 18.761914408778924 -3.435488866745337
v 21.61453068256378 13.808667745615884 0.5269803427012908
v 23.09887409210205 13.417977187430731 0.5694802410244791
v 21.961139142513275 19.131421488350444 -3.403476762352937
v 21.807143092155457 13.700284381626572 -7.1955628661960125
v 20.47112137079239 18.761914408778924 -3.435488866745337
v 21.961139142513275 19.131421488350444 -3.403476762352937
v 23.290647566318512 13.306363251698926 -7.153036378086992
v 3.4893445670604706 15.683563867687566 4.996782593801505
v 1.262691430747509 6.4402563832918105 8.208907836466672
v 2.3720758035779 5.983116108584836 9.167049595476467
v 4.664092883467674 15.80615737079385 5.977924945721444
v 10.756023228168488 6.4402545314592095 -3.1575597139302465
v 7.9716794192790985 15.68356299333361 -0.369963765703254
v 9.146428108215332 15.806298057471201 0.6111783766460419
v 11.865813285112381 5.984613686136543 -2.1991774876759744
v 0.26632517110556364 0.6531129784855747 1.262168666113059
v 4.542969167232513 0.6531123577326869 -2.547985421728452
v 5.41837178170681 -0.32700889910853376 -1.7537569094401144
v 1.1417282745242119 -0.327008278355646 2.0563971784013964
v 1.262691430747509 6.4402563832918105 8.208907836466672
v 0.26632517110556364 0.6531129784855747 1.262168666113059
v 1.1417282745242119 -0.327008278355646 2.0563971784013964
v 2.3720758035779 5.983116108584836 9.167049595476467
v 4.542969167232513 0.6531123577326869 -2.547985421728452
v 10.756023228168488 6.4402545314592095 -3.1575597139302465
v 11.865813285112381 5.984613686136543 -2.1991774876759744
v 5.41837178170681 -0.32700889910853376 -1.7537569094401144
v 5.246777459979057 19.083103845752852 1.8916741588172763
v 3.4893445670604706 15.683563867687566 4.996782593801505
v 4.664092883467674 15.80615737079385 5.977924945721444
v 6.404873728752136 19.367884565261104 2.858919475119666
v 7.9716794192790985 15.68356299333361 -0.369963765703254
v 5.246777459979057 19.083103845752852 1.8916741588172763
v 6.404873728752136 19.367884565261104 2.858919475119666
v 9.146428108215332 15.806298057471201 0.6111783766460419
v 7.042934745550156 15.683561849572067 -7.3903221111745765
v 10.473431646823883 6.440254175604722 -5.341778999776003
v 11.321598291397095 5.995579115646887 -6.542034678939075
v 7.9197898507118225 15.80123313481594 -8.64536051096856
v -1.666516251862049 6.440252793737105 -13.823622024268268
v 1.310985442250967 15.683561197114566 -11.395077727362626
v 2.187841944396496 15.800906146928414 -12.650115382045382
v -0.8184087462723255 5.995061781093568 -15.023751043477132
v 3.5062164068222046 0.6531120737249223 -4.291212665151914
v -0.3171415766701102 0.6531115854135724 -7.2884463837855655
v 0.37757777608931065 -0.31730923244055453 -8.2545794029644
v 4.200935363769531 -0.31730874412914395 -5.257345311801718
v 10.473431646823883 6.440254175604722 -5.341778999776003
v 3.5062164068222046 0.6531120737249223 -4.291212665151914
v 4.200935363769531 -0.31730874412914395 -5.257345311801718
v 11.321598291397095 5.995579115646887 -6.542034678939075
v -0.3171415766701102 0.6531115854135724 -7.2884463837855655
v -1.666516251862049 6.440252793737105 -13.823622024268268
v -0.8184087462723255 5.995061781093568 -15.023751043477132
v 0.37757777608931065 -0.31730923244055453 -8.2545794029644
v 3.828519955277443 19.083102099167096 -8.828792849833027
v 7.042934745550156 15.683561849572067 -7.3903221111745765
v 7.9197898507118225 15.80123313481594 -8.64536051096856
v 4.691712930798531 19.37650576177903 -10.064332363777238
v 1.310985442250967 15.683561197114566 -11.395077727362626
v 3.828519955277443 19.083102099167096 -8.828792849833027
v 4.691712930798531 19.37650576177903 -10.064332363777238
v 2.187841944396496 15.800906146928414 -12.650115382045382
v -5.49946054816246 15.68356143380231 -9.942298702523225
v -3.662533313035965 6.440252862040164 -13.404380834311603
v -4.926081001758575 5.987986106968201 -14.150519154506952
v -6.814044713973999 15.79696808322874 -10.727683793230826
v -11.258143186569214 6.440254933291006 -0.6911337157938454
v -9.085774421691895 15.68356241175588 -3.939662448689454
v -10.400357097387314 15.796687429235805 -4.725047166822142
v -12.520621716976166 5.983957786759216 -1.4365718204548368
v -2.187012881040573 0.6531116155289172 -7.103599714350064
v -4.823197424411774 0.6531124167252154 -2.185891861330827
v -5.860473215579987 -0.30578047753358734 -2.7878423654553006
v -3.2242894172668457 -0.30578127872982486 -7.705549845945509
v -3.662533313035965 6.440252862040164 -13.404380834311603
v -2.187012881040573 0.6531116155289172 -7.103599714350064
v -3.2242894172668457 -0.30578127872982486 -7.705549845945509
v -4.926081001758575 5.987986106968201 -14.150519154506952
v -4.823197424411774 0.6531124167252154 -2.185891861330827
v -11.258143186569214 6.440254933291006 -0.6911337157938454
v -12.520621716976166 5.983957786759216 -1.4365718204548368
v -5.860473215579987 -0.30578047753358734 -2.7878423654553006
v -6.675679236650467 19.083102464247176 -6.587947288805499
v -5.49946054816246 15.68356143380231 -9.942298702523225
v -6.814044713973999 15.79696808322874 -10.727683793230826
v -7.96595886349678 19.39731269394298 -7.358788878902962
v -9.085774421691895 15.68356241175588 -3.939662448689454
v -6.675679236650467 19.083102464247176 -6.587947288805499
v -7.96595886349678 19.39731269394298 -7.358788878902962
v -10.400357097387314 15.796687429235805 -4.725047166822142
v -7.714129984378815 15.683563377912854 1.990566827729232
v -11.075697094202042 6.440255066956681 0.12930035439843196
v -11.8754543364048 5.995861290335208 1.3624242982972101
v -8.547169715166092 15.801984605298173 3.275005925152384
v 1.3491366058588028 6.440256379894356 8.188054406433942
v -1.847669668495655 15.68356399782451 5.79555747695256
v -2.680709771811962 15.802220663556692 7.079996574337354
v 0.5494378041476011 5.995300456945985 9.42105031685336
v -4.381042718887329 0.6531125890299647 -1.1282928420716125
v -0.3190591698512435 0.6531130182615406 1.5063118056840104
v -0.9677659720182419 -0.3146834546050761 2.506475946911743
v -5.029749870300293 -0.3146838838365324 -0.12812796742735275
v -11.075697094202042 6.440255066956681 0.12930035439843196
v -4.381042718887329 0.6531125890299647 -1.1282928420716125
v -5.029749870300293 -0.3146838838365324 -0.12812796742735275
v -11.8754543364048 5.995861290335208 1.3624242982972101
v -0.3190591698512435 0.6531130182615406 1.5063118056840104
v 1.3491366058588028 6.440256379894356 8.188054406433942
v 0.5494378041476011 5.995300456945985 9.42105031685336
v -0.9677659720182419 -0.3146834546050761 2.506475946911743
v -4.379653558135033 19.083104080783777 3.3342836999354213
v -7.714129984378815 15.683563377912854 1.990566827729232
v -8.547169715166092 15.801984605298173 3.275005925152384
v -5.198635905981064 19.38728467019419 4.597034126976887
v -1.847669668495655 15.68356399782451 5.79555747695256
v -4.379653558135033 19.083104080783777 3.3342836999354213
v -5.198635905981064 19.38728467019419 4.597034126976887
v -2.680709771811962 15.802220663556692 7.079996574337354
v 5.222417041659355 12.192494502844838 0.49500881425019727
v 4.258064925670624 5.778618563252275 2.4941105294217354
v 5.713645741343498 5.33539696819556 2.7004024634638455
v 6.7258380353450775 12.446019163758187 0.6770085289690801
v 5.391684919595718 5.778617037353548 -6.8717891451726665
v 5.851246044039726 12.192493656414465 -4.700343807126317
v 7.354667782783508 12.446018317327821 -4.518344045841306
v 6.846912205219269 5.3341772723847445 -6.665402029764966
v 1.6776585951447487 0.9433222990418166 -0.5373831978252737
v 2.8112776577472687 0.9433216254990484 -4.6715592639705745
v 4.14339192211628 0.21320981618329907 -4.447810759114038
v 3.0097726732492447 0.21321048972615828 -0.3136341341751924
v 4.258064925670624 5.778618563252275 2.4941105294217354
v 1.6776585951447487 0.9433222990418166 -0.5373831978252737
v 3.0097726732492447 0.21321048972615828 -0.3136341341751924
v 5.713645741343498 5.33539696819556 2.7004024634638455
v 2.8112776577472687 0.9433216254990484 -4.6715592639705745
v 5.391684919595718 5.778617037353548 -6.8717891451726665
v 6.846912205219269 5.3341772723847445 -6.665402029764966
v 4.14339192211628 0.21320981618329907 -4.447810759114038
v 3.157982975244522 14.736796526053928 -2.390596622580501
v 5.222417041659355 12.192494502844838 0.49500881425019727
v 6.7258380353450775 12.446019163758187 0.6770085289690801
v 4.2676761746406555 15.78955464558502 -2.256283128766154
v 5.851246044039726 12.192493656414465 -4.700343807126317
v 3.157982975244522 14.736796526053928 -2.390596622580501
v 4.2676761746406555 15.78955464558502 -2.256283128766154
v 7.354667782783508 12.446018317327821 -4.518344045841306
v 2.4089261889457703 12.192492999854625 -8.730279405499731
v 4.483477026224136 5.778616863121731 -7.941216426790785
v 4.543912783265114 5.342424990123511 -9.41220534460249
v 2.4611039087176323 12.446017384531064 -10.243809760772793
v -4.945183545351028 5.778616810191278 -8.266101228893827
v -2.8212416917085648 12.19249297049369 -8.910495539094244
v -2.769063785672188 12.446017355170008 -10.424026639425366
v -4.884722083806992 5.341861673327243 -9.736922508550336
v 1.4503310434520245 0.9433215159571934 -5.343922381307801
v -2.1710772067308426 0.9433214630268625 -5.668806438352784
v -2.103826031088829 0.2160211066303499 -7.019441610006427
v 1.517582405358553 0.21602115956068077 -6.694557552961444
v 4.483477026224136 5.778616863121731 -7.941216426790785
v 1.4503310434520245 0.9433215159571934 -5.343922381307801
v 1.517582405358553 0.21602115956068077 -6.694557552961444
v 4.543912783265114 5.342424990123511 -9.41220534460249
v -2.1710772067308426 0.9433214630268625 -5.668806438352784
v -4.945183545351028 5.778616810191278 -8.266101228893827
v -4.884722083806992 5.341861673327243 -9.736922508550336
v -2.103826031088829 0.2160211066303499 -7.019441610006427
v -0.2886751666665077 14.736795868668574 -6.425599174553367
v 2.4089261889457703 12.192492999854625 -8.730279405499731
v 2.4611039087176323 12.446017384531064 -10.243809760772793
v -0.25015617720782757 15.789553784313679 -7.542728969959353
v -2.8212416917085648 12.19249297049369 -8.910495539094244
v -0.2886751666665077 14.736795868668574 -6.425599174553367
v -0.25015617720782757 15.789553784313679 -7.542728969959353
v -2.769063785672188 12.446017355170008 -10.424026639425366
v -6.505947560071945 12.192493570999225 -5.224618811990056
v -5.866653844714165 5.778616959426572 -7.350101518333982
v -7.336319237947464 5.338301067525528 -7.286683594672521
v -8.019330352544785 12.446018211351783 -5.168820337617009
v -5.519138649106026 5.778618495418734 2.0777512240399605
v -6.313177198171616 12.19249442302863 0.005100426933224316
v -7.826560735702515 12.446019063381163 0.06089875033015106
v -6.9882988929748535 5.3367092968614385 2.1411961563156687
v -3.2699130475521088 0.9433216060063797 -4.791204412486276
v -2.9223980382084846 0.9433222840044004 -0.629682200979313
v -4.273342341184616 0.21677201327744489 -0.5606166440257552
v -4.620857909321785 0.2167713352793559 -4.722139274627876
v -5.866653844714165 5.778616959426572 -7.350101518333982
v -3.2699130475521088 0.9433216060063797 -4.791204412486276
v -4.620857909321785 0.2167713352793559 -4.722139274627876
v -7.336319237947464 5.338301067525528 -7.286683594672521
v -2.9223980382084846 0.9433222840044004 -0.629682200979313
v -5.519138649106026 5.778618495418734 2.0777512240399605
v -6.9882988929748535 5.3367092968614385 2.1411961563156687
v -4.273342341184616 0.21677201327744489 -0.5606166440257552
v -4.014978185296059 14.736796475967413 -2.6980254594030106
v -6.505947560071945 12.192493570999225 -5.224618811990056
v -8.019330352544785 12.446018211351783 -5.168820337617009
v -5.132046341896057 15.789554580324396 -2.6568499972501742
v -6.313177198171616 12.19249442302863 0.005100426933224316
v -4.014978185296059 14.736796475967413 -2.6980254594030106
v -5.132046341896057 15.789554580324396 -2.6568499972501742
v -7.826560735702515 12.446019063381163 0.06089875033015106
v -3.036726638674736 12.192494938680717 3.1701503946530485
v -5.137219652533531 5.778618556554352 2.4529989707459694
v -5.137250199913979 5.342754616101362 3.9253319291087703
v -3.03675290197134 12.446019816671951 4.684564678705127
v 4.297037422657013 5.778618556554504 2.452999902068544
v 2.1965451538562775 12.192494938680777 3.1701507671820783
v 2.196519449353218 12.446019816671951 4.684564678705127
v 4.297042265534401 5.342098592449154 3.925143802055578
v -2.2140398621559143 0.9433223628591458 -0.14567522101091424
v 1.4095185324549675 0.94332236285907 -0.14567568667220154
v 1.409483328461647 0.2164441264458786 1.206873322032798
v -2.2140752524137497 0.2164441264458786 1.206873322032798
v -5.137219652533531 5.778618556554352 2.4529989707459694
v -2.2140398621559143 0.9433223628591458 -0.14567522101091424
v -2.2140752524137497 0.2164441264458786 1.206873322032798
v -5.137250199913979 5.342754616101362 3.9253319291087703
v 1.4095185324549675 0.94332236285907 -0.14567568667220154
v 4.297037422657013 5.778618556554504 2.452999902068544
v 4.297042265534401 5.342098592449154 3.925143802055578
v 1.409483328461647 0.2164441264458786 1.206873322032798
v -0.4200907424092293 14.736797041622482 0.7739406284151351
v -3.036726638674736 12.192494938680717 3.1701503946530485
v -3.03675290197134 12.446019816671951 4.684564678705127
v -0.4200933501124382 15.789555321383743 1.8917398879846585
v 2.1965451538562775 12.192494938680777 3.1701507671820783
v -0.4200907424092293 14.736797041622482 0.7739406284151351
v -0.4200933501124382 15.789555321383743 1.8917398879846585
v 2.196519449353218 12.446019816671951 4.684564678705127
f 89 90 91
f 89 91 92
f 93 94 95
f 93 95 96
f 97 98 99
f 100 101 102
f 100 102 103
f 104 105 106
f 104 106 107
f 108 109 110
f 111 112 113
f 111 113 114
f 115 116 117
f 115 117 118
f 119 120 121
f 122 123 124
f 122 124 125
f 126 127 128
f 126 128 129
f 130 131 132
f 133 134 135
f 133 135 136
f 137 138 139
f 137 139 140
f 141 142 143
f 144 145 146
f 144 146 147
f 148 149 150
f 148 150 151
f 152 153 154
f 155 156 157
f 155 157 158
f 159 160 161
f 159 161 162
f 163 164 165
f 166 167 168
f 166 168 169
f 170 171 172
f 170 172 173
f 174 175 176
f 177 178 179
f 177 179 180
f 181 182 183
f 181 183 184
f 185 186 187
f 188 189 190
f 188 190 191
f 192 193 194
f 192 194 195
f 196 197 198
f 199 200 201
f 199 201 202
f 203 204 205
f 203 205 206
f 207 208 209
f 210 211 212
f 210 212 213
f 214 215 216
f 214 216 217
f 218 219 220
f 221 222 223
f 221 223 224
f 225 226 227
f 225 227 228
f 229 230 231
f 232 233 234
f 232 234 235
f 236 237 238
f 236 238 239
f 240 241 242
f 243 244 245
f 243 245 246
f 247 248 249
f 247 249 250
f 251 252 253
f 254 255 256
f 254 256 257
f 258 259 260
f 258 260 261
f 262 263 264
f 265 266 267
f 265 267 268
f 269 270 271
f 269 271 272
f 273 274 275
f 276 277 278
f 276 278 279
f 280 281 282
f 280 282 283
f 284 285 286
f 287 288 289
f 287 289 290
f 291 292 293
f 291 293 294
f 295 296 297
f 298 299 300
f 298 300 301
f 302 303 304
f 302 304 305
f 306 307 308
f 309 310 311
f 309 311 312
f 313 314 315
f 313 315 316
f 317 318 319
f 320 321 322
f 320 322 323
f 324 325 326
f 324 326 327
f 328 329 330
f 331 332 333
f 331 333 334
f 335 336 337
f 335 337 338
f 339 340 341
f 342 343 344
f 342 344 345
f 346 347 348
f 346 348 349
f 350 351 352
f 353 354 355
f 353 355 356
f 357 358 359
f 357 359 360
f 361 362 363
f 364 365 366
f 364 366 367
f 368 369 370
f 368 370 371
f 372 373 374
f 375 376 377
f 375 377 378
f 379 380 381
f 379 381 382
f 383 384 385
f 386 387 388
f 386 388 389
f 390 391 392
f 390 392 393
f 394 395 396
f 397 398 399
f 397 399 400
f 401 402 403
f 401 403 404
f 405 406 407
f 405 407 408
f 409 410 411
f 409 411 412
f 413 414 415
f 413 415 416
f 417 418 419
f 417 419 420
f 421 422 423
f 421 423 424
f 425 426 427
f 425 427 428
f 429 430 431
f 429 431 432
f 433 434 435
f 433 435 436
f 437 438 439
f 437 439 440
f 441 442 443
f 441 443 444
f 445 446 447
f 445 447 448
f 449 450 451
f 449 451 452
f 453 454 455
f 453 455 456
f 457 458 459
f 457 459 460
f 461 462 463
f 461 463 464
f 465 466 467
f 465 467 468
f 469 470 471
f 469 471 472
f 473 474 475
f 473 475 476
f 477 478 479
f 477 479 480
f 481 482 483
f 481 483 484
f 485 486 487
f 485 487 488
f 489 490 491
f 489 491 492
f 493 494 495
f 493 495 496
f 497 498 499
f 497 499 500
f 501 502 503
f 501 503 504
f 505 506 507
f 505 507 508
f 509 510 511
f 509 511 512
f 513 514 515
f 513 515 516
f 517 518 519
f 517 519 520
f 521 522 523
f 521 523 524
f 525 526 527
f 525 527 528
f 529 530 531
f 529 531 532
f 533 534 535
f 533 535 536
f 537 538 539
f 537 539 540
f 541 542 543
f 541 543 544
f 545 546 547
f 545 547 548
f 549 550 551
f 549 551 552
f 553 554 555
f 553 555 556
f 557 558 559
f 557 559 560
f 561 562 563
f 561 563 564
f 565 566 567
f 565 567 568
f 569 570 571
f 569 571 572
f 573 574 575
f 573 575 576
f 577 578 579
f 577 579 580
f 581 582 583
f 581 583 584
f 585 586 587
f 585 587 588
f 589 590 591
f 589 591 592
f 593 594 595
f 593 595 596
f 597 598 599
f 597 599 600
f 601 602 603
f 601 603 604
f 605 606 607
f 605 607 608
f 609 610 611
f 609 611 612
f 613 614 615
f 613 615 616
f 617 618 619
f 617 619 620
f 621 622 623
f 621 623 624
f 625 626 627
f 625 627 628
f 629 630 631
f 629 631 632
f 633 634 635
f 633 635 636
f 637 638 639
f 637 639 640
f 641 642 643
f 641 643 644
f 645 646 647
f 645 647 648
f 649 650 651
f 649 651 652
f 653 654 655
f 653 655 656
f 657 658 659
f 657 659 660
f 661 662 663
f 661 663 664
f 665 666 667
f 665 667 668
f 669 670 671
f 669 671 672
f 673 674 675
f 673 675 676
f 677 678 679
f 677 679 680
f 681 682 683
f 681 683 684
f 685 686 687
f 685 687 688
f 689 690 691
f 689 691 692
f 693 694 695
f 693 695 696
f 697 698 699
f 697 699 700
f 701 702 703
f 701 703 704
f 705 706 707
f 705 707 708
f 709 710 711
f 709 711 712
f 713 714 715
f 713 715 716
f 717 718 719
f 717 719 720
f 721 722 723
f 721 723 724
f 725 726 727
f 725 727 728
f 729 730 731
f 729 731 732
f 733 734 735
f 733 735 736
f 737 738 739
f 737 739 740
f 741 742 743
f 741 743 744
f 745 746 747
f 745 747 748
f 749 750 751
f 749 751 752
f 753 754 755
f 753 755 756
f 757 758 759
f 757 759 760
f 761 762 763
f 761 763 764
f 765 766 767
f 765 767 768
f 769 770 771
f 769 771 772
f 773 774 775
f 773 775 776
f 777 778 779
f 777 779 780
f 781 782 783
f 781 783 784
f 785 786 787
f 785 787 788
