o convex_0
v 1.131239 155.853787 25.579508
v -16.468151 139.841172 14.381406
v -14.867124 139.841172 12.782885
v 1.131239 243.836642 3.183303
v 9.130421 139.841172 1.581963
v 9.130421 243.836642 17.581266
v -16.468151 152.657372 25.579508
v 13.933501 243.836642 3.183303
v 10.731448 139.841172 9.583024
v -5.266916 139.841172 28.782188
v 4.330317 139.841172 -0.019377
v 13.933501 234.227037 12.782885
v -0.469787 239.031839 12.782885
v -8.465993 159.060382 28.782188
v -16.468151 152.657372 14.381406
v 10.731448 243.836642 1.581963
v 4.330317 243.836642 15.979926
v -14.867124 139.841172 27.180848
v 4.330317 167.051420 -0.019377
v -5.266916 159.060382 28.782188
v 10.731448 143.057946 3.183303
v 7.532370 139.841172 -0.019377
v 4.330317 243.836642 1.581963
v 1.131239 151.059164 25.579508
v -11.665071 152.657372 28.782188
v -0.469787 139.841172 25.579508
v 13.933501 243.836642 12.782885
v 13.933501 234.227037 4.781824
v -6.864966 202.232346 7.981684
v -2.064862 229.432414 6.383164
v 7.532370 243.836642 17.581266
v -16.468151 139.841172 25.579508
f 18 7 32 
f 2 3 5 
f 4 6 8 
f 2 5 9 
f 2 9 10 
f 5 3 11 
f 3 2 15 
f 2 7 15 
f 7 13 15 
f 4 8 16 
f 6 4 17 
f 4 13 17 
f 13 7 17 
f 2 10 18 
f 11 3 19 
f 1 6 20 
f 6 14 20 
f 14 10 20 
f 5 8 21 
f 9 5 21 
f 8 5 22 
f 5 11 22 
f 16 8 22 
f 11 19 22 
f 19 16 22 
f 4 16 23 
f 19 4 23 
f 16 19 23 
f 12 1 24 
f 9 12 24 
f 1 20 24 
f 20 10 24 
f 10 14 25 
f 17 7 25 
f 7 18 25 
f 18 10 25 
f 10 9 26 
f 9 24 26 
f 24 10 26 
f 6 1 27 
f 8 6 27 
f 1 12 27 
f 12 8 27 
f 8 12 28 
f 12 9 28 
f 21 8 28 
f 9 21 28 
f 3 15 29 
f 19 3 29 
f 4 19 29 
f 13 4 30 
f 15 13 30 
f 29 15 30 
f 4 29 30 
f 14 6 31 
f 6 17 31 
f 25 14 31 
f 17 25 31 
f 7 2 32 
f 2 18 32 
o convex_1
v -8.469282 16.634479 14.378900
v -6.868882 139.841172 28.782188
v -0.467281 139.841172 25.581074
v -11.663974 131.833219 9.582398
v -0.467281 -0.966478 -6.419725
v -21.268411 98.230141 12.780066
v -0.467281 2.244973 14.378900
v -18.067611 99.828975 25.581074
v -0.467281 139.841172 12.780066
v -10.071719 2.244973 -1.616331
v -18.067611 138.228555 25.581074
v -18.067611 55.047842 17.580013
v -13.266411 93.433639 27.179908
v -11.663974 56.660459 1.581337
v -18.067611 138.228555 14.378900
v -8.469282 -0.966478 9.582398
v -2.067682 8.640309 -6.419725
v -18.067611 55.047842 6.381284
v -21.268411 103.026643 22.376515
v -10.071719 114.232263 28.782188
v -8.469282 135.030887 9.582398
v -19.668011 104.639260 11.181232
v -10.071719 48.638723 20.777681
v -13.266411 21.444763 12.780066
v -0.467281 8.640309 -6.419725
v -11.663974 139.841172 28.782188
v -8.469282 -0.966478 -3.218611
v -6.868882 130.234385 28.782188
v -14.866811 139.841172 12.780066
v -3.668082 -0.966478 12.780066
v -0.467281 16.634479 15.977733
v -10.071719 93.433639 27.179908
f 39 63 64 
f 37 35 39 
f 34 35 41 
f 35 37 41 
f 40 44 45 
f 46 36 49 
f 44 38 50 
f 40 43 51 
f 38 44 51 
f 44 40 51 
f 47 38 51 
f 43 47 51 
f 49 36 53 
f 36 46 54 
f 47 36 54 
f 38 47 54 
f 50 38 54 
f 46 50 54 
f 39 45 55 
f 45 44 55 
f 42 48 56 
f 44 50 56 
f 50 42 56 
f 33 55 56 
f 55 44 56 
f 41 37 57 
f 37 49 57 
f 53 41 57 
f 49 53 57 
f 34 41 58 
f 43 40 58 
f 40 45 58 
f 52 34 58 
f 45 52 58 
f 37 48 59 
f 48 42 59 
f 49 37 59 
f 46 49 59 
f 42 50 59 
f 50 46 59 
f 35 34 60 
f 34 52 60 
f 36 47 61 
f 47 43 61 
f 41 53 61 
f 53 36 61 
f 58 41 61 
f 43 58 61 
f 37 39 62 
f 48 37 62 
f 55 33 62 
f 39 55 62 
f 33 56 62 
f 56 48 62 
f 39 35 63 
f 35 60 63 
f 63 60 64 
f 45 39 64 
f 52 45 64 
f 60 52 64 
o convex_2
v 4.334859 98.230141 -3.218298
v 4.334859 139.841172 15.981492
v 10.733327 139.841172 9.580832
v 9.132614 -0.966478 9.580832
v -0.467281 2.244973 14.380779
v -0.467281 -0.966478 -6.419725
v -0.467281 139.841172 11.179352
v 9.132614 -0.966478 -3.218298
v 7.532997 139.841172 -0.019064
v 2.733049 128.621768 -1.617584
v -0.467281 117.429931 15.981492
v 1.133432 34.235435 15.981492
v -0.467281 26.241265 -6.419725
v 9.132614 111.034595 -0.019064
v 2.733049 18.247095 -6.419725
v 10.733327 128.621768 6.379405
v 7.532997 90.235971 12.780066
v -0.467281 -0.966478 12.780066
v 5.931187 133.432053 -1.617584
v 4.334859 139.841172 -0.019064
v 1.133432 139.841172 15.981492
v 9.132614 139.841172 1.581650
v 2.733049 74.233849 15.981492
v 1.133432 2.244973 14.380779
v -0.467281 34.235435 15.981492
v 2.733049 -0.966478 -6.419725
v 1.133432 85.411903 -3.218298
v 7.532997 11.837977 11.179352
v 10.733327 138.228555 6.379405
v -0.467281 139.841172 14.380779
v 9.132614 0.646139 -3.218298
v 4.334859 133.432053 -1.617584
f 74 84 96 
f 66 67 71 
f 70 69 71 
f 68 70 72 
f 71 67 73 
f 71 69 75 
f 66 75 76 
f 70 71 77 
f 70 77 79 
f 77 65 79 
f 67 68 80 
f 68 72 80 
f 67 66 81 
f 68 67 81 
f 69 70 82 
f 70 68 82 
f 73 78 83 
f 79 65 83 
f 71 73 84 
f 74 71 84 
f 66 71 85 
f 75 66 85 
f 73 67 86 
f 78 73 86 
f 66 76 87 
f 81 66 87 
f 76 69 88 
f 82 68 88 
f 69 82 88 
f 75 69 89 
f 69 76 89 
f 76 75 89 
f 72 70 90 
f 79 72 90 
f 70 79 90 
f 71 74 91 
f 77 71 91 
f 74 77 91 
f 68 81 92 
f 87 76 92 
f 81 87 92 
f 88 68 92 
f 76 88 92 
f 67 80 93 
f 80 72 93 
f 86 67 93 
f 78 86 93 
f 71 75 94 
f 85 71 94 
f 75 85 94 
f 72 79 95 
f 83 78 95 
f 79 83 95 
f 93 72 95 
f 78 93 95 
f 65 77 96 
f 77 74 96 
f 73 83 96 
f 83 65 96 
f 84 73 96 
o convex_3
v 4.334076 243.854027 1.580710
v 12.332318 317.443617 20.781753
v 15.533588 317.443617 19.180413
v 9.132457 243.854027 17.580953
v 15.533588 245.460535 4.781510
v 4.334076 311.039197 9.581771
v 15.533588 317.443617 9.581771
v 1.132806 243.854027 12.780692
v 5.934006 317.443617 19.180413
v 15.533588 245.460535 12.780692
v 10.730978 258.254966 1.580710
v 9.132457 317.443617 7.982311
v 1.132806 247.059839 3.182050
v 4.334076 314.237805 17.580953
v 4.334076 243.854027 15.979613
v 9.132457 307.840590 20.781753
v 12.332318 243.854027 1.580710
v 15.533588 285.443132 17.580953
v 7.535346 259.854270 1.580710
v 10.730978 247.059839 17.580953
v 15.533588 263.060082 4.781510
v 12.332318 317.443617 7.982311
v 7.535346 314.237805 7.982311
v 5.934006 317.443617 9.581771
v 12.332318 311.039197 20.781753
v 7.535346 243.854027 17.580953
v 4.334076 296.638259 17.580953
v 13.932248 243.854027 12.780692
v 4.334076 248.659143 1.580710
v 1.132806 247.059839 12.780692
v 1.132806 243.854027 3.182050
v 4.334076 314.237805 11.181232
f 110 120 128 
f 98 99 103 
f 99 101 103 
f 97 100 104 
f 98 103 105 
f 101 99 106 
f 105 103 108 
f 104 100 111 
f 98 105 112 
f 105 111 112 
f 100 97 113 
f 97 107 113 
f 106 99 114 
f 107 97 115 
f 100 106 116 
f 106 114 116 
f 103 101 117 
f 107 103 117 
f 101 113 117 
f 113 107 117 
f 103 107 118 
f 108 103 118 
f 107 115 118 
f 115 108 118 
f 109 102 119 
f 108 115 119 
f 105 108 120 
f 110 105 120 
f 119 102 120 
f 108 119 120 
f 99 98 121 
f 98 112 121 
f 112 100 121 
f 114 99 121 
f 100 116 121 
f 116 114 121 
f 111 100 122 
f 100 112 122 
f 112 111 122 
f 105 110 123 
f 110 104 123 
f 104 111 123 
f 111 105 123 
f 106 100 124 
f 101 106 124 
f 100 113 124 
f 113 101 124 
f 97 109 125 
f 115 97 125 
f 109 119 125 
f 119 115 125 
f 109 104 126 
f 104 110 126 
f 110 109 126 
f 97 104 127 
f 109 97 127 
f 104 109 127 
f 102 109 128 
f 109 110 128 
f 120 102 128 
o convex_4
v 15.533588 331.851603 20.777994
v 9.132300 317.450821 7.977299
v 13.931308 319.054040 -28.820942
v -0.467281 336.651864 20.777994
v 15.533588 317.450821 19.179160
v -0.467281 322.252961 11.179979
v 15.533588 323.852422 -24.019428
v -0.467281 322.252961 1.576951
v 5.934006 317.450821 19.179160
v 7.533153 336.651864 22.381840
v 13.931308 322.252961 -28.820942
v -0.467281 330.250263 22.381840
v 13.931308 319.054040 22.381840
v 5.934006 319.054040 -6.417219
v 15.533588 330.250263 3.175785
v -0.467281 323.852422 1.576951
v 15.533588 319.054040 -28.820942
v 7.533153 336.651864 20.777994
v 5.934006 317.450821 9.576133
v 15.533588 328.650803 22.381840
v 1.134998 320.653501 -0.021883
v 15.533588 317.450821 9.576133
v 9.132300 317.450821 20.777994
v -0.467281 336.651864 22.381840
v 7.533153 319.054040 -12.817566
v 15.533588 320.653501 22.381840
v 15.533588 331.851603 17.580326
v 9.132300 320.653501 -19.217914
v 12.330595 319.054040 22.381840
v 1.134998 320.653501 11.179979
v 15.533588 322.252961 -28.820942
v 15.533588 325.451882 -17.619080
f 146 143 160 
f 129 133 135 
f 134 132 136 
f 130 133 137 
f 132 135 139 
f 132 134 140 
f 134 137 140 
f 138 140 141 
f 129 135 143 
f 136 132 144 
f 132 139 144 
f 130 131 145 
f 135 133 145 
f 131 139 145 
f 135 132 146 
f 132 138 146 
f 131 130 147 
f 130 137 147 
f 133 129 148 
f 129 138 148 
f 138 141 148 
f 136 131 149 
f 147 137 149 
f 142 147 149 
f 133 130 150 
f 130 145 150 
f 145 133 150 
f 137 133 151 
f 140 137 151 
f 133 141 151 
f 138 132 152 
f 132 140 152 
f 140 138 152 
f 131 147 153 
f 147 142 153 
f 149 131 153 
f 142 149 153 
f 141 133 154 
f 133 148 154 
f 148 141 154 
f 138 129 155 
f 129 143 155 
f 146 138 155 
f 143 146 155 
f 131 136 156 
f 139 131 156 
f 136 144 156 
f 144 139 156 
f 141 140 157 
f 140 151 157 
f 151 141 157 
f 134 136 158 
f 137 134 158 
f 136 149 158 
f 149 137 158 
f 139 135 159 
f 135 145 159 
f 145 139 159 
f 143 135 160 
f 135 146 160 
o convex_5
v 1.134998 339.852038 36.790141
v -0.467281 320.650995 43.176705
v -0.467281 325.453135 33.587461
v 15.533588 322.254214 23.983180
v 1.134998 335.049898 60.783926
v -0.467281 336.649358 22.381840
v 15.533588 328.652056 33.587461
v 7.533153 336.649358 22.381840
v 2.734145 320.650995 44.781804
v 9.132300 323.853675 22.381840
v -0.467281 331.850977 60.783926
v 15.533588 325.453135 33.587461
v 7.533153 333.450437 51.179646
v 15.533588 328.652056 22.381840
v 7.533153 330.251516 51.179646
v -0.467281 339.852038 27.185860
v -0.467281 331.850977 22.381840
v -0.467281 336.649358 57.581247
v 4.334859 336.649358 47.980725
v 2.734145 339.852038 31.986121
v 1.134998 331.850977 60.783926
v -0.467281 320.650995 46.375626
v 15.533588 322.254214 27.185860
v 1.134998 336.649358 57.581247
v 12.330595 322.254214 23.983180
v -0.467281 339.852038 36.790141
v 1.134998 338.248819 49.578306
v 2.734145 339.852038 27.185860
v 15.533588 323.853675 22.381840
v 2.734145 335.049898 59.182587
v 10.733014 331.850977 43.176705
v 7.533153 336.649358 23.983180
f 191 167 192 
f 163 162 166 
f 162 164 169 
f 162 163 170 
f 166 168 170 
f 166 162 171 
f 164 167 172 
f 172 167 173 
f 167 164 174 
f 168 167 174 
f 170 168 174 
f 169 172 175 
f 172 173 175 
f 168 166 176 
f 166 171 176 
f 163 166 177 
f 170 163 177 
f 166 170 177 
f 171 165 178 
f 176 171 178 
f 176 161 180 
f 165 171 181 
f 169 175 181 
f 162 169 182 
f 171 162 182 
f 181 171 182 
f 169 181 182 
f 169 164 183 
f 172 169 183 
f 164 172 183 
f 178 165 184 
f 164 162 185 
f 162 170 185 
f 170 164 185 
f 161 176 186 
f 176 178 186 
f 186 178 187 
f 180 161 187 
f 179 180 187 
f 178 184 187 
f 184 179 187 
f 161 186 187 
f 168 176 188 
f 180 168 188 
f 176 180 188 
f 164 170 189 
f 174 164 189 
f 170 174 189 
f 175 173 190 
f 173 179 190 
f 165 181 190 
f 181 175 190 
f 184 165 190 
f 179 184 190 
f 173 167 191 
f 179 173 191 
f 180 179 191 
f 180 191 192 
f 167 168 192 
f 168 180 192 
o convex_6
v 39.537084 315.850734 -4.814312
v 61.933446 306.252562 31.980952
v 52.333865 312.649464 33.582449
v 61.933446 314.247985 11.188906
v 58.733586 301.449952 -4.814312
v 36.337224 314.247985 33.582449
v 60.333516 301.449952 30.379456
v 61.933446 304.651222 -6.419725
v 34.737294 314.247985 -0.013738
v 44.336875 315.850734 33.582449
v 47.536736 315.850734 -3.212816
v 58.733586 315.850734 15.977733
v 37.937154 312.649464 28.781875
v 36.337224 315.850734 33.582449
v 61.933446 301.449952 -6.419725
v 52.333865 306.252562 33.582449
v 50.733934 312.649464 -6.419725
v 47.536736 309.449603 -6.419725
v 61.933446 301.449952 30.379456
v 34.737294 315.850734 -0.013738
v 60.333516 307.851083 -4.814312
v 36.337224 314.247985 -3.212816
v 57.133655 303.052701 31.980952
v 61.933446 314.247985 14.380153
v 57.133655 306.252562 33.582449
v 58.733586 315.850734 11.188906
v 53.933795 304.651222 -6.419725
v 52.333865 315.850734 25.578882
v 58.733586 301.449952 -1.615235
v 58.733586 311.048124 27.180378
v 61.933446 303.052701 31.980952
v 50.733934 314.247985 -3.212816
f 213 209 224 
f 196 194 200 
f 198 195 202 
f 193 202 203 
f 203 202 204 
f 198 201 205 
f 201 198 206 
f 202 193 206 
f 198 202 206 
f 199 197 207 
f 200 194 207 
f 195 198 208 
f 193 203 209 
f 200 207 209 
f 209 207 210 
f 193 209 210 
f 207 194 211 
f 199 207 211 
f 206 193 212 
f 201 206 212 
f 196 200 213 
f 200 209 213 
f 193 210 214 
f 212 193 214 
f 201 212 214 
f 198 205 215 
f 208 198 215 
f 199 211 215 
f 194 196 216 
f 194 195 217 
f 195 208 217 
f 208 215 217 
f 196 203 218 
f 203 204 218 
f 216 196 218 
f 204 216 218 
f 197 201 219 
f 207 197 219 
f 210 207 219 
f 201 214 219 
f 214 210 219 
f 202 195 220 
f 204 202 220 
f 195 204 220 
f 197 199 221 
f 201 197 221 
f 205 201 221 
f 199 215 221 
f 215 205 221 
f 195 194 222 
f 204 195 222 
f 194 216 222 
f 216 204 222 
f 211 194 223 
f 215 211 223 
f 194 217 223 
f 217 215 223 
f 203 196 224 
f 209 203 224 
f 196 213 224 
o convex_7
v 53.930349 317.452857 19.180727
v 15.533588 322.252335 -6.419725
v 15.533588 320.653657 11.188906
v 26.736233 333.448245 -3.212816
v 15.533588 327.050090 31.980952
v 55.535761 320.653657 -6.419725
v 26.736233 315.852457 -6.419725
v 31.536807 315.852457 33.582449
v 39.528627 325.449689 17.579230
v 55.535761 315.852457 11.188906
v 55.535761 323.852735 -6.419725
v 18.736581 330.249167 -6.419725
v 41.130123 317.452857 33.582449
v 15.533588 330.249167 20.778307
v 17.135084 320.653657 28.781875
v 42.731620 315.852457 -3.212816
v 15.533588 330.249167 -0.013738
v 25.138652 333.448245 -6.419725
v 20.338078 330.249167 19.180727
v 33.138303 331.849567 -3.212816
v 41.130123 315.852457 33.582449
v 15.533588 320.653657 22.379804
v 17.135084 327.050090 31.980952
v 55.535761 323.852735 -4.814312
v 53.930349 319.053257 15.977733
v 17.135084 331.849567 7.985913
v 37.931046 319.053257 33.582449
v 55.535761 315.852457 15.977733
v 28.337729 333.448245 -6.419725
v 47.532194 317.452857 27.180378
v 15.533588 325.449689 31.980952
v 15.533588 327.050090 -6.419725
f 226 241 256 
f 226 227 229 
f 227 226 231 
f 226 230 231 
f 232 231 234 
f 230 226 235 
f 234 230 235 
f 235 226 236 
f 226 229 238 
f 231 230 240 
f 230 234 240 
f 234 231 240 
f 226 238 241 
f 235 236 242 
f 236 241 242 
f 228 238 243 
f 243 233 244 
f 228 243 244 
f 232 234 245 
f 237 232 245 
f 229 227 246 
f 227 231 246 
f 231 232 246 
f 232 239 246 
f 238 229 247 
f 233 243 247 
f 243 238 247 
f 234 235 248 
f 244 233 248 
f 235 244 248 
f 248 233 249 
f 238 228 250 
f 241 238 250 
f 242 241 250 
f 228 242 250 
f 229 232 251 
f 232 237 251 
f 247 229 251 
f 233 247 251 
f 245 234 252 
f 234 248 252 
f 249 225 252 
f 248 249 252 
f 242 228 253 
f 235 242 253 
f 244 235 253 
f 228 244 253 
f 237 245 254 
f 225 249 254 
f 249 233 254 
f 251 237 254 
f 233 251 254 
f 252 225 254 
f 245 252 254 
f 232 229 255 
f 239 232 255 
f 229 246 255 
f 246 239 255 
f 236 226 256 
f 241 236 256 
o convex_8
v 76.336891 293.449517 -6.415966
v 63.537449 304.643861 31.978603
v 63.537449 306.248960 28.776550
v 90.737674 290.250596 11.184050
v 89.136334 275.853573 19.177908
v 61.936109 299.847359 -6.415966
v 63.537449 312.650560 9.583024
v 90.737674 274.248474 -3.213913
v 61.936109 301.444940 30.377576
v 87.532174 295.043339 7.985756
v 90.737674 280.650075 20.778934
v 63.537449 304.643861 -6.415966
v 89.136334 274.248474 -0.015618
v 90.737674 279.056253 -4.814939
v 73.137031 306.248960 14.378587
v 81.135272 291.855695 25.578255
v 61.936109 312.650560 14.378587
v 65.141608 298.249778 30.377576
v 81.135272 291.855695 -4.814939
v 71.538510 307.842781 9.583024
v 90.737674 277.451154 20.778934
v 81.135272 298.249778 15.979613
v 90.737674 285.454094 -0.015618
v 68.341469 303.050039 28.776550
v 66.737309 311.045461 14.378587
v 66.737309 304.643861 -3.213913
v 87.532174 277.451154 -4.814939
v 61.936109 304.643861 -6.415966
v 63.537449 298.249778 -3.213913
v 87.532174 293.449517 4.783703
v 73.137031 295.043339 28.776550
v 85.936473 288.656774 22.376202
f 278 272 288 
f 264 260 267 
f 257 262 268 
f 264 261 269 
f 260 264 270 
f 258 259 273 
f 265 258 273 
f 262 265 273 
f 258 265 274 
f 269 261 274 
f 257 268 275 
f 270 257 275 
f 271 266 276 
f 261 264 277 
f 264 267 277 
f 267 272 277 
f 274 261 277 
f 260 266 278 
f 266 271 278 
f 266 260 279 
f 260 270 279 
f 270 275 279 
f 259 258 280 
f 258 272 280 
f 278 271 280 
f 272 278 280 
f 273 259 281 
f 263 273 281 
f 276 263 281 
f 271 276 281 
f 259 280 281 
f 280 271 281 
f 268 263 282 
f 275 268 282 
f 263 276 282 
f 262 257 283 
f 264 269 283 
f 269 262 283 
f 257 270 283 
f 270 264 283 
f 268 262 284 
f 263 268 284 
f 262 273 284 
f 273 263 284 
f 265 262 285 
f 262 269 285 
f 274 265 285 
f 269 274 285 
f 276 266 286 
f 266 279 286 
f 279 275 286 
f 275 282 286 
f 282 276 286 
f 272 258 287 
f 258 274 287 
f 277 272 287 
f 274 277 287 
f 267 260 288 
f 272 267 288 
f 260 278 288 
o convex_9
v 108.336907 247.053731 1.582590
v 92.339640 279.042157 19.181666
v 90.739396 279.042157 19.181666
v 90.739396 277.443793 -3.219551
v 100.337412 279.042157 6.382537
v 105.136420 245.455367 4.781824
v 105.136420 261.451694 11.178099
v 90.739396 288.649256 6.382537
v 90.739396 274.242836 19.181666
v 92.339640 269.443515 -3.219551
v 106.736663 264.652651 3.181110
v 95.540127 274.242836 -3.219551
v 108.336907 248.652095 7.981058
v 92.339640 287.042435 12.781005
v 97.138648 272.644472 17.580953
v 106.736663 266.251015 6.382537
v 103.536176 259.853330 -1.618837
v 103.536176 250.254688 -0.018124
v 92.339640 288.649256 6.382537
v 100.337412 279.042157 7.981058
v 95.540127 277.443793 -1.618837
v 108.336907 259.853330 3.181110
v 90.739396 272.644472 -3.219551
v 97.138648 275.845429 15.980239
v 101.937656 255.054009 11.178099
v 101.937656 263.054287 14.379526
v 98.738891 280.644750 4.781824
v 98.738891 266.251015 -3.219551
v 93.939883 266.251015 -0.018124
v 108.336907 259.853330 6.382537
v 106.736663 250.254688 -0.018124
v 101.937656 275.845429 4.781824
f 309 315 320 
f 292 291 296 
f 290 291 297 
f 291 292 297 
f 298 292 300 
f 294 289 301 
f 291 290 302 
f 296 291 302 
f 290 297 303 
f 303 295 304 
f 300 299 305 
f 289 294 306 
f 294 298 306 
f 292 296 307 
f 296 302 307 
f 307 302 308 
f 293 307 308 
f 300 292 309 
f 299 300 309 
f 292 307 309 
f 301 289 310 
f 299 304 310 
f 305 299 310 
f 297 292 311 
f 292 298 311 
f 302 290 312 
f 290 303 312 
f 303 304 312 
f 308 302 312 
f 304 308 312 
f 297 294 313 
f 294 301 313 
f 301 295 314 
f 295 303 314 
f 303 297 314 
f 297 313 314 
f 313 301 314 
f 307 293 315 
f 309 307 315 
f 298 300 316 
f 300 305 316 
f 306 298 316 
f 294 297 317 
f 298 294 317 
f 297 311 317 
f 311 298 317 
f 295 301 318 
f 304 295 318 
f 301 310 318 
f 310 304 318 
f 289 306 319 
f 310 289 319 
f 305 310 319 
f 316 305 319 
f 306 316 319 
f 304 299 320 
f 293 308 320 
f 308 304 320 
f 299 309 320 
f 315 293 320 
o convex_10
v -6.868256 336.654057 70.386954
v -37.269281 343.050333 67.184274
v -32.467140 336.654057 76.787302
v -35.668567 343.050333 83.185143
v -37.269281 333.453100 92.785665
v -14.871823 333.453100 67.184274
v -29.268846 347.852473 67.184274
v -18.070117 338.253831 79.984970
v -5.267542 333.453100 67.184274
v -37.269281 347.852473 73.587128
v -34.067854 336.654057 92.785665
v -26.064287 333.453100 86.382811
v -34.067854 347.852473 73.587128
v -37.269281 333.453100 89.582985
v -11.670396 339.853604 68.785614
v -37.269281 347.852473 67.184274
v -37.269281 338.253831 91.184325
v -5.267542 336.654057 67.184274
v -19.670831 335.054283 67.184274
v -5.267542 333.453100 68.785614
v -21.268411 335.054283 83.185143
v -29.268846 347.852473 68.785614
v -34.067854 333.453100 92.785665
v -26.064287 344.650106 73.587128
v -32.467140 338.253831 89.582985
v -10.069682 336.654057 73.587128
v -21.268411 336.654057 83.185143
v -5.267542 336.654057 68.785614
v -16.472536 338.253831 78.388642
v -37.269281 336.654057 92.785665
v -10.069682 335.054283 73.587128
v -35.668567 338.253831 91.184325
f 331 345 352 
f 326 322 327 
f 325 326 329 
f 326 327 329 
f 322 325 330 
f 325 329 332 
f 330 324 333 
f 327 330 333 
f 322 323 334 
f 325 322 334 
f 326 325 334 
f 327 322 336 
f 322 330 336 
f 330 327 336 
f 324 330 337 
f 330 325 337 
f 329 327 338 
f 327 335 338 
f 323 322 339 
f 322 326 339 
f 334 323 339 
f 326 334 339 
f 332 329 340 
f 329 338 340 
f 332 340 341 
f 327 333 342 
f 335 327 342 
f 331 325 343 
f 325 332 343 
f 341 331 343 
f 332 341 343 
f 333 328 344 
f 342 333 344 
f 335 342 344 
f 331 328 345 
f 328 333 345 
f 333 324 345 
f 328 331 347 
f 331 341 347 
f 346 328 347 
f 338 335 348 
f 321 340 348 
f 340 338 348 
f 344 328 349 
f 335 344 349 
f 346 321 349 
f 328 346 349 
f 321 348 349 
f 348 335 349 
f 325 331 350 
f 337 325 350 
f 331 337 350 
f 340 321 351 
f 341 340 351 
f 321 346 351 
f 347 341 351 
f 346 347 351 
f 324 337 352 
f 337 331 352 
f 345 324 352 
o convex_11
v 50.738163 315.848698 -57.617808
v 77.934315 307.852335 -44.824630
v 73.134525 312.652596 -35.225988
v 52.338093 304.652162 -57.617808
v 74.734455 306.252249 -72.019530
v 53.938023 325.449220 -33.624961
v 63.537605 319.048872 -57.617808
v 63.537605 311.052509 -33.624961
v 76.334385 304.652162 -44.824630
v 50.738163 304.652162 -68.817477
v 50.738163 323.849133 -33.624961
v 50.738163 325.449220 -44.824630
v 68.334734 314.252683 -65.619182
v 76.334385 304.652162 -68.817477
v 68.334734 317.448785 -33.624961
v 65.134873 304.652162 -44.824630
v 76.334385 309.452422 -54.419514
v 55.537954 325.449220 -44.824630
v 50.738163 306.252249 -68.817477
v 71.534594 309.452422 -35.225988
v 60.337745 319.048872 -57.617808
v 50.738163 304.652162 -60.819861
v 69.934664 309.452422 -70.418503
v 68.334734 315.848698 -57.617808
v 60.337745 312.652596 -65.619182
v 77.934315 306.252249 -60.819861
v 77.934315 304.652162 -46.425656
v 58.737814 309.452422 -41.626335
v 71.534594 311.052509 -68.817477
v 71.534594 304.652162 -72.019530
v 71.534594 311.052509 -33.624961
v 68.334734 317.448785 -36.827014
f 376 370 384 
f 361 356 362 
f 360 358 363 
f 353 362 363 
f 353 363 364 
f 363 358 364 
f 361 362 366 
f 358 360 367 
f 360 356 368 
f 356 361 368 
f 355 354 369 
f 359 364 370 
f 364 358 370 
f 358 367 370 
f 362 353 371 
f 360 368 372 
f 368 361 372 
f 353 364 373 
f 364 359 373 
f 359 365 373 
f 362 356 374 
f 356 363 374 
f 363 362 374 
f 357 371 375 
f 365 359 376 
f 359 370 376 
f 371 353 377 
f 353 373 377 
f 373 365 377 
f 365 375 377 
f 375 371 377 
f 366 357 378 
f 369 354 378 
f 361 366 379 
f 378 354 379 
f 366 378 379 
f 356 360 380 
f 363 356 380 
f 360 363 380 
f 357 375 381 
f 375 365 381 
f 365 376 381 
f 376 369 381 
f 378 357 381 
f 369 378 381 
f 357 366 382 
f 366 362 382 
f 362 371 382 
f 371 357 382 
f 354 355 383 
f 355 367 383 
f 367 360 383 
f 372 361 383 
f 360 372 383 
f 379 354 383 
f 361 379 383 
f 367 355 384 
f 355 369 384 
f 370 367 384 
f 369 376 384 
o convex_12
v -62.876937 312.646070 36.787635
v -54.873369 299.854094 79.984970
v -59.675510 299.854094 79.984970
v -86.871976 290.250126 57.583753
v -70.871106 309.446314 68.784361
v -86.865711 295.052110 76.783543
v -58.074796 295.052110 76.783543
v -54.873369 314.248298 65.582934
v -58.074796 312.646070 35.182536
v -75.663849 306.246558 47.983858
v -64.477650 314.250647 38.388348
v -70.871106 293.452232 79.984970
v -62.873804 314.248298 63.982221
v -85.268130 290.250126 57.583753
v -54.873369 296.651988 76.783543
v -86.871976 293.454581 57.583753
v -61.276223 293.452232 79.984970
v -77.267695 304.646680 71.981402
v -86.865711 293.452232 76.783543
v -54.873369 314.248298 60.780794
v -80.465989 301.456321 51.180899
v -74.066268 307.846436 65.582934
v -58.074796 314.250647 35.182536
v -74.066268 306.246558 71.981402
v -64.477650 314.250647 57.583753
v -59.675510 314.248298 65.582934
v -67.675944 309.443965 39.984676
v -86.871976 290.250126 59.180081
v -69.276658 311.046192 41.589775
v -86.865711 295.052110 67.183648
v -54.873369 312.648420 60.780794
v -59.678642 312.646070 35.182536
f 388 411 416 
f 386 387 396 
f 387 390 396 
f 393 391 398 
f 392 386 399 
f 391 393 399 
f 386 396 401 
f 398 391 401 
f 399 386 401 
f 391 399 401 
f 396 390 403 
f 392 399 404 
f 388 400 405 
f 390 402 405 
f 405 402 406 
f 402 389 406 
f 394 405 406 
f 392 404 407 
f 404 393 407 
f 390 387 408 
f 389 402 408 
f 402 390 408 
f 389 397 409 
f 406 389 409 
f 392 407 409 
f 407 395 409 
f 387 386 410 
f 386 392 410 
f 397 389 410 
f 408 387 410 
f 389 408 410 
f 409 397 410 
f 392 409 410 
f 395 385 411 
f 388 405 411 
f 388 398 412 
f 400 388 412 
f 390 400 412 
f 401 396 412 
f 398 401 412 
f 403 390 412 
f 396 403 412 
f 405 394 413 
f 394 406 413 
f 409 395 413 
f 406 409 413 
f 395 411 413 
f 411 405 413 
f 400 390 414 
f 405 400 414 
f 390 405 414 
f 399 393 415 
f 393 404 415 
f 404 399 415 
f 385 395 416 
f 398 388 416 
f 393 398 416 
f 407 393 416 
f 395 407 416 
f 411 385 416 
o convex_13
v -93.266371 264.654517 70.381942
v -22.868498 319.050908 39.984049
v -22.868498 319.050908 22.381840
v -91.666911 272.652535 71.980776
v -85.269069 267.855917 73.584622
v -30.880210 315.844026 25.589532
v -26.074624 314.243326 23.985686
v -27.674084 319.050908 39.984049
v -27.681289 312.648108 43.181717
v -96.472497 267.855917 71.980776
v -85.269069 271.051835 73.584622
v -91.666911 263.048335 71.980776
v -53.272656 299.842508 54.373555
v -35.671387 309.446708 28.787200
v -27.674084 315.844026 43.181717
v -93.266371 271.051835 73.584622
v -26.074624 319.050908 22.381840
v -22.868498 317.444726 39.984049
v -91.666911 272.652535 70.381942
v -94.865832 263.048335 73.584622
v -42.076433 301.443208 43.186729
v -38.877512 311.047408 46.384397
v -83.669609 271.051835 63.981594
v -45.275354 299.847990 52.774721
v -38.877512 311.047408 44.780551
v -22.868498 317.444726 22.381840
v -96.472497 266.255217 71.980776
v -34.079131 307.851490 30.391046
v -85.269069 267.855917 70.381942
v -27.674084 314.243326 23.985686
v -93.266371 271.051835 70.381942
v -61.269958 290.249272 60.783926
f 429 432 448 
f 418 419 424 
f 426 422 430 
f 418 424 431 
f 420 426 432 
f 421 427 432 
f 424 419 433 
f 422 424 433 
f 430 422 433 
f 419 418 434 
f 425 423 434 
f 418 431 434 
f 431 425 434 
f 426 420 435 
f 417 428 436 
f 428 421 436 
f 432 426 436 
f 421 432 436 
f 425 421 437 
f 431 424 438 
f 429 431 438 
f 420 432 438 
f 432 429 438 
f 428 417 439 
f 423 428 439 
f 417 430 439 
f 421 425 440 
f 427 421 440 
f 425 431 440 
f 431 427 440 
f 424 422 441 
f 435 420 441 
f 422 435 441 
f 438 424 441 
f 420 438 441 
f 433 419 442 
f 419 434 442 
f 434 423 442 
f 430 417 443 
f 426 430 443 
f 417 436 443 
f 436 426 443 
f 423 425 444 
f 428 423 444 
f 425 437 444 
f 444 437 445 
f 421 428 445 
f 437 421 445 
f 428 444 445 
f 430 433 446 
f 423 439 446 
f 439 430 446 
f 433 442 446 
f 442 423 446 
f 422 426 447 
f 435 422 447 
f 426 435 447 
f 427 431 448 
f 431 429 448 
f 432 427 448 
o convex_14
v -13.272362 328.650746 46.382518
v -27.667036 327.048595 15.981492
v -27.667036 328.650746 15.981492
v -62.870672 314.252057 44.778672
v -19.671144 319.051620 20.786765
v -35.673266 328.650746 47.983231
v -21.273423 319.051620 46.382518
v -10.067803 331.851603 19.186052
v -62.870672 315.854208 36.778237
v -10.067803 323.849460 46.382518
v -54.864442 314.252057 47.983231
v -43.669159 325.448166 25.585773
v -24.467646 331.851603 41.577245
v -58.063833 314.252057 33.579943
v -10.067803 327.048595 15.981492
v -10.067803 331.851603 38.378950
v -50.067940 322.250754 47.983231
v -22.870535 331.851603 28.784067
v -43.669159 320.653771 23.985060
v -45.266270 323.847738 23.985060
v -16.471753 323.849460 15.981492
v -24.467646 319.051620 20.786765
v -61.268392 315.854208 47.983231
v -19.671144 319.051620 38.378950
v -54.864442 314.252057 33.579943
v -19.671144 330.247729 15.981492
v -32.473875 325.448166 47.983231
v -26.069925 325.449889 15.981492
v -14.874642 331.851603 41.577245
v -11.670083 325.449889 15.981492
v -10.067803 327.048595 46.382518
v -24.467646 330.247729 19.186052
f 456 474 480 
f 455 458 459 
f 460 454 461 
f 452 457 462 
f 459 452 462 
f 450 451 463 
f 456 458 463 
f 458 456 464 
f 456 461 464 
f 459 454 465 
f 454 460 465 
f 460 457 465 
f 461 456 466 
f 460 461 466 
f 467 462 468 
f 451 450 468 
f 460 451 468 
f 457 460 468 
f 462 457 468 
f 450 467 468 
f 450 463 469 
f 453 462 470 
f 462 467 470 
f 469 453 470 
f 457 452 471 
f 452 459 471 
f 465 457 471 
f 459 465 471 
f 458 455 472 
f 453 458 472 
f 459 453 472 
f 455 459 472 
f 453 459 473 
f 462 453 473 
f 459 462 473 
f 463 451 474 
f 456 463 474 
f 454 459 475 
f 459 458 475 
f 467 450 476 
f 450 469 476 
f 470 467 476 
f 469 470 476 
f 454 449 477 
f 461 454 477 
f 449 464 477 
f 464 461 477 
f 458 453 478 
f 463 458 478 
f 469 463 478 
f 453 469 478 
f 449 454 479 
f 464 449 479 
f 458 464 479 
f 454 475 479 
f 475 458 479 
f 451 460 480 
f 466 456 480 
f 460 466 480 
f 474 451 480 
o convex_15
v -32.473405 309.448507 71.982655
v -54.870237 312.648367 60.783926
v -54.870237 311.047654 62.384483
v -21.274989 312.648367 63.985040
v -51.666931 298.249778 75.183769
v -50.065278 314.250647 67.186154
v -54.870237 301.452771 78.384883
v -26.073371 314.250647 68.784988
v -54.870237 314.250647 60.783926
v -43.665243 307.847793 75.183769
v -26.073371 312.648367 62.384483
v -50.065278 299.852058 78.384883
v -26.073371 314.250647 62.384483
v -54.870237 314.250647 65.587320
v -54.870237 298.249778 75.183769
v -24.471718 311.047654 67.186154
v -50.065278 312.648367 60.783926
v -40.465226 307.847793 75.183769
v -51.666931 304.652632 76.782603
v -43.665243 311.047654 71.982655
v -21.274989 314.250647 65.587320
v -54.870237 298.249778 78.384883
v -42.066879 303.051918 75.183769
v -22.873354 312.648367 67.186154
v -40.465226 304.652632 75.183769
v -32.473405 314.250647 68.784988
v -51.666931 298.249778 76.782603
v -50.065278 299.852058 73.581489
v -50.065278 301.452771 78.384883
v -50.065278 314.250647 60.783926
v -21.274989 314.250647 63.985040
v -26.073371 311.047654 68.784988
f 505 503 512 
f 482 483 487 
f 482 487 489 
f 486 488 489 
f 484 485 491 
f 489 488 493 
f 484 491 493 
f 489 487 494 
f 486 489 494 
f 483 485 495 
f 487 483 495 
f 485 484 496 
f 483 482 497 
f 485 483 497 
f 482 489 497 
f 493 491 497 
f 481 488 498 
f 490 487 498 
f 488 490 498 
f 487 490 499 
f 486 494 499 
f 494 487 499 
f 499 490 500 
f 486 499 500 
f 493 488 501 
f 492 487 502 
f 495 485 502 
f 487 495 502 
f 488 481 504 
f 496 484 504 
f 484 501 504 
f 501 488 504 
f 481 498 505 
f 498 492 505 
f 492 503 505 
f 488 486 506 
f 490 488 506 
f 486 500 506 
f 500 490 506 
f 485 496 507 
f 502 485 507 
f 492 502 507 
f 503 492 507 
f 496 503 507 
f 491 485 508 
f 485 497 508 
f 497 491 508 
f 487 492 509 
f 498 487 509 
f 492 498 509 
f 489 493 510 
f 497 489 510 
f 493 497 510 
f 484 493 511 
f 501 484 511 
f 493 501 511 
f 503 496 512 
f 496 504 512 
f 504 481 512 
f 481 505 512 
o convex_16
v -32.472622 339.852195 31.982362
v -30.873945 347.852473 67.184274
v -37.271160 347.852473 67.184274
v -53.267958 336.651864 67.184274
v -53.267958 343.051429 60.782047
v -30.873945 343.051429 60.782047
v -34.073805 343.051429 33.584641
v -56.470324 336.651864 65.578549
v -30.873945 339.852195 38.384589
v -56.470324 341.452908 67.184274
v -46.868236 344.652142 54.379820
v -30.873945 344.652142 41.589148
v -30.873945 344.652142 67.184274
v -32.472622 347.852473 60.782047
v -45.267053 343.051429 47.987930
v -51.666774 336.651864 65.578549
v -30.873945 343.051429 33.584641
v -34.073805 344.652142 41.589148
v -48.466914 339.852195 52.777540
v -43.670881 346.251759 67.184274
v -54.866635 341.452908 62.380881
v -30.873945 339.852195 31.982362
v -34.073805 339.852195 33.584641
v -37.271160 347.852473 65.578549
v -48.466914 344.652142 59.179767
v -30.873945 347.852473 60.782047
v -51.666774 336.651864 63.983161
v -56.470324 336.651864 67.184274
v -40.471021 341.452908 41.589148
v -51.666774 343.051429 57.577488
v -56.470324 341.452908 65.578549
v -54.866635 336.651864 63.983161
f 539 520 544 
f 514 515 516 
f 514 518 521 
f 516 515 522 
f 514 521 524 
f 514 516 525 
f 518 514 525 
f 515 514 526 
f 523 519 527 
f 516 520 528 
f 521 518 528 
f 525 516 528 
f 518 525 528 
f 513 519 529 
f 519 524 529 
f 524 521 529 
f 519 523 530 
f 524 519 530 
f 526 524 530 
f 522 515 532 
f 517 522 532 
f 531 520 533 
f 521 528 534 
f 513 529 534 
f 529 521 534 
f 519 513 535 
f 513 520 535 
f 520 531 535 
f 515 526 536 
f 530 523 536 
f 526 530 536 
f 532 515 536 
f 532 536 537 
f 523 517 537 
f 517 532 537 
f 536 523 537 
f 514 524 538 
f 526 514 538 
f 524 526 538 
f 528 520 539 
f 513 534 539 
f 534 528 539 
f 520 516 540 
f 516 522 540 
f 522 520 540 
f 527 519 541 
f 531 527 541 
f 519 535 541 
f 535 531 541 
f 517 523 542 
f 523 527 542 
f 527 531 542 
f 531 533 542 
f 542 533 543 
f 522 517 543 
f 520 522 543 
f 533 520 543 
f 517 542 543 
f 520 513 544 
f 513 539 544 
o convex_17
v -27.663904 341.450246 28.787200
v -0.467281 335.054283 63.976582
v -0.467281 333.453726 63.976582
v -0.467281 331.853170 15.981492
v -6.868412 344.649793 38.390227
v -30.868933 347.852473 67.184274
v -19.667698 331.853170 38.390227
v -27.663904 339.852821 67.184274
v -30.868933 338.253831 31.984868
v -0.467281 339.852821 25.584520
v -13.269543 333.453726 67.184274
v -21.262773 347.852473 57.581247
v -10.073441 331.853170 15.981492
v -0.467281 331.853170 60.778914
v -30.868933 344.649793 39.989061
v -3.672311 336.653274 67.184274
v -10.073441 335.054283 15.981492
v -3.672311 343.050802 41.582883
v -30.868933 343.050802 67.184274
v -19.667698 335.054283 67.184274
v -22.866776 339.852821 23.985686
v -0.467281 336.653274 62.382760
v -13.269543 346.250350 51.180899
v -22.866776 347.852473 54.378567
v -27.663904 347.852473 67.184274
v -0.467281 341.450246 36.791394
v -10.073441 339.852821 23.985686
v -11.668516 346.250350 44.775539
v -30.868933 343.050802 33.583702
v -30.868933 347.852473 60.778914
v -10.073441 343.050802 57.581247
v -21.262773 336.653274 22.386852
f 565 561 576 
f 546 547 548 
f 551 552 553 
f 546 548 554 
f 550 552 555 
f 548 551 557 
f 551 553 557 
f 548 547 558 
f 551 548 558 
f 547 555 558 
f 555 551 558 
f 553 550 559 
f 547 546 560 
f 555 547 560 
f 550 555 560 
f 554 548 561 
f 548 557 561 
f 552 550 563 
f 550 553 563 
f 553 552 563 
f 552 551 564 
f 551 555 564 
f 555 552 564 
f 553 545 565 
f 546 554 566 
f 560 546 566 
f 566 562 567 
f 550 556 568 
f 556 550 569 
f 550 560 569 
f 554 549 570 
f 549 562 570 
f 566 554 570 
f 562 566 570 
f 549 554 571 
f 554 561 571 
f 561 565 571 
f 562 549 572 
f 567 562 572 
f 556 567 572 
f 568 556 572 
f 559 568 572 
f 545 553 573 
f 553 559 573 
f 565 545 573 
f 549 571 573 
f 571 565 573 
f 572 549 573 
f 559 572 573 
f 559 550 574 
f 550 568 574 
f 568 559 574 
f 560 566 575 
f 566 567 575 
f 567 556 575 
f 556 569 575 
f 569 560 575 
f 557 553 576 
f 561 557 576 
f 553 565 576 
o convex_18
v -69.270810 333.450242 84.787820
v -37.269281 335.047705 94.385453
v -38.876170 335.047705 95.984224
v -82.064844 315.853083 118.387056
v -72.465795 333.443977 108.779398
v -40.478361 341.450089 67.186310
v -50.072712 346.251877 86.386590
v -56.472078 335.053970 68.790092
v -38.876170 331.852778 92.786683
v -59.667063 341.450089 70.388863
v -37.269281 347.849340 68.790092
v -82.064844 325.456659 105.581858
v -80.462654 315.853083 115.179492
v -64.468936 327.057255 111.981951
v -85.269226 317.459944 113.580721
v -82.064844 323.859195 116.783274
v -37.269281 338.245765 92.786683
v -50.072712 344.651281 67.186310
v -66.066429 338.252029 84.787820
v -37.269281 347.849340 75.190186
v -37.269281 343.047553 67.186310
v -59.676460 323.859195 107.185640
v -58.069570 335.053970 68.790092
v -46.877727 346.251877 86.386590
v -75.665478 331.849646 110.383181
v -77.262970 330.252182 97.588006
v -70.868303 331.849646 110.383181
v -58.069570 339.849493 67.186310
v -74.067986 320.658004 116.783274
v -37.269281 333.450242 89.589142
v -85.269226 315.853083 115.179492
v -83.662337 320.658004 108.779398
f 607 591 608 
f 584 585 589 
f 588 591 592 
f 579 578 593 
f 578 587 593 
f 590 579 593 
f 586 583 594 
f 583 587 594 
f 583 586 595 
f 587 583 596 
f 593 587 596 
f 587 578 597 
f 582 594 597 
f 594 587 597 
f 578 579 598 
f 585 578 598 
f 580 589 598 
f 589 585 598 
f 584 589 599 
f 583 581 600 
f 596 583 600 
f 593 596 600 
f 581 583 601 
f 588 592 601 
f 583 595 601 
f 601 595 602 
f 577 588 602 
f 595 586 602 
f 588 601 602 
f 592 590 603 
f 590 593 603 
f 600 581 603 
f 593 600 603 
f 581 601 603 
f 601 592 603 
f 582 584 604 
f 594 582 604 
f 586 594 604 
f 584 599 604 
f 577 602 604 
f 602 586 604 
f 579 590 605 
f 592 580 605 
f 590 592 605 
f 598 579 605 
f 580 598 605 
f 584 582 606 
f 578 585 606 
f 585 584 606 
f 597 578 606 
f 582 597 606 
f 589 580 607 
f 580 592 607 
f 592 591 607 
f 599 589 607 
f 599 607 608 
f 588 577 608 
f 591 588 608 
f 604 599 608 
f 577 604 608 
o convex_19
v 66.737309 282.255904 -64.017190
v 84.337326 275.849344 -76.813383
v 71.535377 287.051310 -59.221985
v 37.938251 307.848316 -16.024730
v 36.340670 314.250647 -22.429561
v 79.533933 271.049710 -75.217227
v 41.138738 314.250647 -20.826670
v 29.934370 312.647950 -11.229525
v 81.136839 275.849344 -78.423010
v 77.936352 277.456270 -67.222973
v 77.936352 271.049710 -78.416275
v 34.737764 314.250647 -11.229525
v 42.741644 312.647950 -25.628610
v 31.542602 311.045253 -11.229525
v 77.936352 274.255104 -78.416275
v 84.337326 271.049710 -76.813383
v 84.337326 275.849344 -78.423010
v 77.936352 271.049710 -75.217227
v 39.535832 314.250647 -17.627622
v 57.135848 293.449413 -40.020960
v 60.336335 295.047881 -51.220997
v 36.340670 312.647950 -22.429561
v 77.936352 280.648978 -67.222973
v 29.934370 314.250647 -9.619898
v 34.737764 311.045253 -11.229525
v 41.138738 309.446784 -19.230513
v 76.333445 279.050510 -73.614335
v 84.337326 271.049710 -78.423010
v 53.930036 303.044453 -36.821912
v 76.333445 272.656636 -76.813383
v 66.737309 283.850144 -64.017190
v 82.734420 274.250875 -73.621070
f 631 618 640 
f 615 613 620 
f 613 615 621 
f 616 619 622 
f 617 619 623 
f 614 619 624 
f 610 624 625 
f 614 612 626 
f 619 614 626 
f 612 622 626 
f 622 619 626 
f 615 620 627 
f 612 614 628 
f 614 624 628 
f 624 618 628 
f 613 621 629 
f 625 617 629 
f 621 625 629 
f 616 613 630 
f 609 616 630 
f 610 611 631 
f 611 627 631 
f 628 618 631 
f 613 616 632 
f 620 613 632 
f 616 622 632 
f 632 622 633 
f 622 612 633 
f 612 628 633 
f 620 632 633 
f 633 628 634 
f 627 620 634 
f 631 627 634 
f 628 631 634 
f 620 633 634 
f 623 613 635 
f 617 623 635 
f 613 629 635 
f 629 617 635 
f 619 617 636 
f 624 619 636 
f 625 624 636 
f 617 625 636 
f 611 610 637 
f 621 615 637 
f 610 625 637 
f 625 621 637 
f 627 611 637 
f 615 627 637 
f 616 609 638 
f 619 616 638 
f 623 619 638 
f 623 638 639 
f 613 623 639 
f 609 630 639 
f 630 613 639 
f 638 609 639 
f 624 610 640 
f 618 624 640 
f 610 631 640 
o convex_20
v -11.671649 320.653188 59.180237
v -32.471526 323.848819 46.383144
v -61.270585 314.250647 47.983544
v -59.666739 315.853397 63.983474
v -38.866862 327.050090 51.184345
v -13.270483 315.853397 57.581873
v -10.067803 322.248889 46.383144
v -22.868498 314.252057 67.184274
v -10.067803 327.048680 46.383144
v -26.071178 315.853397 67.184274
v -59.666739 317.451917 47.983544
v -32.471526 328.651430 46.383144
v -21.269664 319.053257 46.383144
v -59.666739 314.250647 63.983474
v -56.469071 319.054667 60.780637
v -22.868498 328.651430 47.983544
v -54.865225 314.250647 47.983544
v -10.067803 317.453327 59.180237
v -18.071997 314.252057 62.383074
v -19.670831 320.653188 60.778601
v -10.067803 317.453327 54.387181
v -50.063711 322.250299 47.983544
v -61.270585 315.853397 62.383074
v -26.071178 317.453327 47.983544
v -10.067803 327.048680 47.983544
v -50.063711 315.853397 65.583874
v -14.874329 319.053257 62.383074
v -37.268028 319.054667 62.383074
v -30.872692 319.053257 46.383144
v -27.665000 320.653188 60.778601
v -19.670831 314.252057 60.778601
v -18.071997 325.448750 52.788817
f 660 667 672 
f 647 642 649 
f 642 643 652 
f 649 642 652 
f 643 651 652 
f 642 647 653 
f 652 645 656 
f 649 652 656 
f 643 653 657 
f 654 643 657 
f 647 649 658 
f 648 654 659 
f 654 657 659 
f 646 658 659 
f 658 648 659 
f 656 645 660 
f 653 647 661 
f 658 646 661 
f 647 658 661 
f 645 652 662 
f 652 651 662 
f 655 645 662 
f 651 655 662 
f 651 643 663 
f 643 654 663 
f 654 644 663 
f 644 655 663 
f 655 651 663 
f 646 657 664 
f 657 653 664 
f 661 646 664 
f 653 661 664 
f 649 656 665 
f 641 658 665 
f 658 649 665 
f 648 650 666 
f 644 654 666 
f 654 648 666 
f 655 644 666 
f 650 648 667 
f 658 641 667 
f 648 658 667 
f 660 650 667 
f 645 655 668 
f 666 650 668 
f 655 666 668 
f 643 642 669 
f 653 643 669 
f 642 653 669 
f 650 660 670 
f 660 645 670 
f 645 668 670 
f 668 650 670 
f 657 646 671 
f 646 659 671 
f 659 657 671 
f 656 660 672 
f 641 665 672 
f 665 656 672 
f 667 641 672 
o convex_21
v 93.937847 261.454357 -92.820381
v 76.338771 304.650126 -67.225847
v 76.338771 304.650126 -73.628004
v 71.536630 282.239198 -83.224193
v 79.538005 269.457611 -78.426099
v 87.537186 288.648160 -67.225847
v 87.537186 283.842574 -89.620712
v 85.936473 263.057733 -94.421625
v 71.536630 285.441408 -86.421043
v 71.536630 303.046750 -68.827091
v 90.736421 272.650736 -94.421625
v 73.137344 298.245706 -80.021705
v 92.337134 258.247605 -92.820381
v 85.936473 293.449204 -72.026760
v 90.736421 280.649448 -83.224193
v 82.737239 288.648160 -67.225847
v 87.537186 269.457611 -80.027343
v 93.937847 264.652025 -88.019468
v 73.137344 279.046072 -88.019468
v 81.136525 296.646872 -81.622949
v 89.133514 258.247605 -94.421625
v 71.536630 304.650126 -73.628004
v 85.936473 271.051902 -94.421625
v 92.337134 258.247605 -96.020051
v 71.536630 293.449204 -73.628004
v 84.335760 283.842574 -89.620712
v 73.137344 303.046750 -67.225847
v 92.337134 269.457611 -94.421625
v 87.537186 290.246994 -67.225847
v 84.335760 267.854235 -80.027343
v 90.736421 280.649448 -76.824854
v 93.937847 266.255401 -91.219137
f 703 690 704 
f 681 676 682 
f 675 674 686 
f 679 686 687 
f 678 674 688 
f 677 678 688 
f 689 685 690 
f 685 673 690 
f 678 689 690 
f 677 676 691 
f 676 681 691 
f 675 686 692 
f 686 679 692 
f 685 677 693 
f 677 691 693 
f 691 680 693 
f 674 675 694 
f 682 674 694 
f 681 682 694 
f 684 681 694 
f 675 692 694 
f 692 684 694 
f 680 691 695 
f 691 681 695 
f 673 685 696 
f 693 680 696 
f 685 693 696 
f 695 683 696 
f 680 695 696 
f 676 677 697 
f 682 676 697 
f 679 683 698 
f 681 684 698 
f 684 692 698 
f 692 679 698 
f 695 681 698 
f 683 695 698 
f 674 682 699 
f 688 674 699 
f 677 688 699 
f 697 677 699 
f 682 697 699 
f 683 679 700 
f 679 687 700 
f 673 696 700 
f 696 683 700 
f 674 678 701 
f 686 674 701 
f 687 686 701 
f 678 677 702 
f 677 685 702 
f 689 678 702 
f 685 689 702 
f 678 690 703 
f 701 678 703 
f 687 701 703 
f 690 673 704 
f 700 687 704 
f 673 700 704 
f 687 703 704 
o convex_22
v -106.064920 259.857246 76.787302
v -86.871931 293.449517 76.787302
v -86.871931 293.449517 73.584622
v -62.873021 291.844105 79.984970
v -93.269594 271.055975 86.385317
v -91.673467 263.048492 73.584622
v -101.263384 256.654253 84.783977
v -101.267769 275.848718 83.182637
v -102.868281 272.653556 73.584622
v -82.070395 283.844453 84.785230
v -106.064920 264.653904 84.783977
v -62.873021 293.445601 78.384883
v -64.477918 293.445601 81.583804
v -90.072955 291.840189 78.388642
v -107.669817 253.447344 81.582551
v -90.072955 269.454478 86.385317
v -82.070395 291.844105 73.584622
v -64.477918 290.246524 81.583804
v -91.673467 290.242608 73.584622
v -107.669817 261.450911 78.387389
v -96.475003 261.450911 73.584622
v -88.472443 266.247569 73.584622
v -91.673467 263.048492 76.787302
v -104.464408 253.447344 81.582551
v -77.273244 283.844453 84.785230
v -107.669817 253.447344 83.182637
v -67.678942 293.445601 81.583804
v -99.667257 279.051711 81.585057
v -102.863896 266.247569 73.584622
v -88.472443 290.242608 79.984970
v -106.064920 266.247569 83.182637
v -62.873021 291.844105 78.384883
f 726 721 736 
f 707 710 713 
f 712 709 714 
f 711 709 715 
f 709 712 715 
f 707 706 716 
f 716 706 717 
f 708 716 717 
f 706 707 718 
f 709 711 720 
f 710 707 721 
f 707 716 721 
f 708 717 722 
f 720 711 722 
f 707 713 723 
f 718 707 723 
f 705 719 724 
f 713 710 725 
f 719 705 725 
f 710 721 726 
f 708 722 727 
f 722 711 727 
f 726 708 727 
f 710 726 727 
f 725 710 728 
f 719 725 728 
f 710 727 728 
f 727 711 728 
f 714 709 729 
f 717 714 729 
f 709 720 729 
f 722 717 729 
f 720 722 729 
f 711 715 730 
f 715 724 730 
f 724 719 730 
f 728 711 730 
f 719 728 730 
f 717 706 731 
f 714 717 731 
f 706 718 731 
f 713 712 732 
f 712 718 732 
f 723 713 732 
f 718 723 732 
f 705 724 733 
f 724 713 733 
f 725 705 733 
f 713 725 733 
f 712 714 734 
f 718 712 734 
f 714 731 734 
f 731 718 734 
f 712 713 735 
f 715 712 735 
f 713 724 735 
f 724 715 735 
f 716 708 736 
f 721 716 736 
f 708 726 736 
o convex_23
v 25.136615 315.854492 -44.825570
v 50.735500 327.044765 -35.221289
v 47.534073 328.649080 -35.221289
v 50.735500 306.256790 -68.823115
v 37.932925 314.254875 -35.221289
v 50.735500 304.654824 -62.415875
v 18.733762 320.648646 -36.823099
v 49.134787 325.445148 -44.828859
v 33.130785 315.854492 -52.821462
v 23.535902 315.854492 -35.221289
v 45.933360 304.654824 -65.616206
v 50.735500 323.845531 -35.221289
v 21.935189 315.854492 -40.023430
v 18.733762 320.648646 -35.221289
v 39.533639 327.044765 -36.829677
v 50.735500 327.044765 -41.628528
v 20.337608 320.648646 -38.424909
v 50.735500 306.256790 -59.215545
v 49.134787 306.256790 -68.823115
v 33.130785 314.254875 -35.221289
v 45.933360 304.654824 -64.020974
v 49.134787 320.646297 -51.222942
v 21.935189 315.854492 -36.823099
v 45.933360 328.649080 -36.829677
v 50.735500 304.654824 -68.823115
v 34.734631 317.451760 -51.222942
v 50.735500 320.646297 -51.222942
v 18.733762 319.049029 -35.221289
v 28.334910 323.847880 -35.221289
v 49.134787 304.654824 -62.415875
v 25.136615 317.451760 -44.825570
v 29.935623 312.655258 -49.621132
f 747 749 768 
f 738 739 741 
f 740 738 742 
f 741 739 746 
f 738 741 748 
f 742 738 748 
f 743 737 749 
f 746 739 750 
f 739 738 752 
f 738 740 752 
f 751 744 753 
f 743 751 753 
f 741 742 754 
f 748 741 754 
f 742 748 754 
f 737 745 755 
f 747 737 755 
f 742 741 756 
f 741 746 756 
f 747 742 757 
f 749 747 757 
f 756 746 757 
f 740 755 758 
f 755 745 758 
f 757 746 759 
f 749 757 759 
f 744 751 760 
f 739 752 760 
f 752 744 760 
f 740 742 761 
f 742 747 761 
f 755 740 761 
f 747 755 761 
f 745 753 762 
f 753 744 762 
f 744 758 762 
f 758 745 762 
f 752 740 763 
f 744 752 763 
f 758 744 763 
f 740 758 763 
f 743 749 764 
f 750 743 764 
f 746 750 764 
f 759 746 764 
f 749 759 764 
f 750 739 765 
f 743 750 765 
f 751 743 765 
f 739 760 765 
f 760 751 765 
f 742 756 766 
f 757 742 766 
f 756 757 766 
f 737 743 767 
f 745 737 767 
f 743 753 767 
f 753 745 767 
f 737 747 768 
f 749 737 768 
o convex_24
v 77.937135 304.650126 -48.021985
v 82.735986 290.250283 -67.223028
v 85.937413 290.250283 -67.223028
v 74.736804 304.650126 -67.223028
v 79.537848 304.650126 -60.819548
v 76.337518 301.449064 -51.222785
v 85.937413 293.451344 -67.223028
v 74.736804 301.449064 -67.223028
v 84.336699 291.851518 -62.422767
v 77.937135 304.650126 -67.223028
v 79.537848 293.451344 -64.022227
v 79.536752 304.650126 -51.222785
v 76.337518 303.048890 -48.021985
v 82.735986 290.250283 -65.621688
v 74.736804 304.650126 -59.221967
v 82.735986 298.248003 -57.622506
v 77.937135 298.248003 -54.423585
v 77.937135 303.048890 -48.021985
v 77.937135 296.649587 -59.221967
v 85.937413 290.250283 -65.621688
v 79.537848 303.048890 -67.223028
v 79.537848 293.451344 -67.223028
v 74.736804 303.048890 -59.221967
v 76.337518 304.650126 -48.021985
v 85.937413 293.451344 -65.621688
v 74.736804 301.449064 -65.621688
v 81.137465 298.248003 -54.423585
v 82.735986 291.851518 -62.422767
v 81.137465 291.851518 -64.022227
v 82.735986 296.649587 -57.622506
v 79.537848 304.650126 -59.221967
v 81.137465 299.849238 -54.423585
f 795 784 800 
f 771 770 772 
f 772 769 773 
f 771 772 775 
f 772 770 776 
f 772 773 778 
f 775 772 778 
f 773 769 780 
f 770 771 782 
f 779 770 782 
f 769 772 783 
f 772 776 783 
f 781 774 785 
f 769 781 786 
f 781 777 786 
f 785 774 787 
f 771 775 788 
f 777 782 788 
f 782 771 788 
f 773 775 789 
f 778 773 789 
f 775 778 789 
f 776 770 790 
f 770 779 790 
f 779 776 790 
f 774 781 791 
f 783 776 791 
f 781 783 791 
f 781 769 792 
f 769 783 792 
f 783 781 792 
f 780 784 793 
f 788 775 793 
f 784 788 793 
f 776 779 794 
f 787 774 794 
f 779 787 794 
f 774 791 794 
f 791 776 794 
f 769 786 795 
f 786 777 795 
f 777 788 795 
f 777 781 796 
f 782 777 796 
f 781 785 796 
f 785 782 796 
f 779 782 797 
f 782 785 797 
f 787 779 797 
f 785 787 797 
f 788 784 798 
f 784 795 798 
f 795 788 798 
f 775 773 799 
f 773 780 799 
f 793 775 799 
f 780 793 799 
f 780 769 800 
f 784 780 800 
f 769 795 800 
o convex_25
v 50.731271 327.048210 -12.822265
v 17.139000 319.052787 -35.221289
v 15.533588 319.052787 -32.018609
v 25.134736 333.451690 -8.021064
v 28.337729 314.250647 -6.419725
v 55.535761 323.851169 -33.617130
v 44.333116 330.249010 -32.018609
v 37.931046 314.250647 -35.221289
v 55.535761 320.652248 -6.425363
v 15.533588 320.652248 -6.419725
v 15.533588 327.050090 -16.024945
v 29.931394 333.451690 -6.419725
v 20.338078 322.251708 -35.221289
v 47.532194 328.647671 -35.221289
v 39.528627 314.250647 -19.221986
v 55.535761 320.652248 -27.217409
v 36.329549 331.848471 -25.616069
v 55.535761 323.851169 -6.425363
v 25.134736 315.853867 -35.221289
v 15.533588 327.050090 -6.419725
v 41.134039 331.848471 -20.820507
v 18.736581 323.851169 -30.420089
v 15.533588 319.052787 -14.420786
v 18.736581 317.453327 -35.221289
v 26.740148 333.451690 -11.220925
v 42.735536 328.647671 -35.221289
v 55.535761 322.253588 -33.617130
v 53.934265 325.450629 -33.617130
v 34.735884 314.250647 -11.220925
v 15.533588 322.251708 -30.420089
v 50.731271 323.853048 -35.221289
v 34.735884 314.250647 -35.221289
f 819 808 832 
f 803 810 811 
f 805 809 812 
f 810 805 812 
f 808 802 813 
f 808 813 814 
f 805 808 815 
f 809 815 816 
f 806 809 816 
f 815 808 816 
f 809 806 818 
f 801 812 818 
f 812 809 818 
f 802 808 819 
f 804 811 820 
f 811 810 820 
f 812 804 820 
f 810 812 820 
f 812 801 821 
f 807 817 821 
f 817 813 822 
f 805 810 823 
f 810 803 823 
f 803 802 824 
f 802 819 824 
f 819 805 824 
f 823 803 824 
f 805 823 824 
f 811 804 825 
f 804 812 825 
f 812 821 825 
f 821 817 825 
f 822 811 825 
f 817 822 825 
f 807 814 826 
f 814 813 826 
f 817 807 826 
f 813 817 826 
f 806 816 827 
f 816 808 827 
f 806 814 828 
f 814 807 828 
f 801 818 828 
f 818 806 828 
f 821 801 828 
f 807 821 828 
f 809 805 829 
f 805 815 829 
f 815 809 829 
f 802 803 830 
f 803 811 830 
f 813 802 830 
f 811 822 830 
f 822 813 830 
f 814 806 831 
f 808 814 831 
f 806 827 831 
f 827 808 831 
f 808 805 832 
f 805 819 832 
o convex_26
v 55.535761 320.650995 -27.218819
v 71.536630 314.250647 -32.018609
v 69.935917 315.853240 -28.818749
v 55.535761 319.050908 -8.022317
v 65.135343 311.050473 -33.618540
v 57.136475 323.851169 -9.622248
v 65.135343 319.050908 -33.618540
v 58.738754 315.853240 -32.018609
v 69.935917 311.050473 -32.018609
v 58.738754 320.650995 -8.022317
v 55.535761 322.249829 -27.218819
v 60.336335 319.050908 -33.618540
v 58.738754 322.249829 -27.218819
v 68.333637 317.450821 -25.618888
v 55.535761 323.851169 -9.622248
v 71.536630 314.250647 -33.618540
v 68.333637 314.250647 -25.618888
v 57.136475 319.050908 -8.022317
v 58.738754 322.249829 -8.022317
v 57.136475 323.851169 -14.422039
v 65.135343 311.050473 -32.018609
v 68.333637 317.450821 -33.618540
v 55.535761 322.249829 -6.425049
v 55.535761 319.050908 -17.621899
v 65.135343 319.050908 -19.221829
v 69.935917 311.050473 -33.618540
v 71.536630 312.653066 -32.018609
v 60.336335 315.853240 -33.618540
v 57.136475 320.650995 -6.425049
v 57.136475 317.450821 -17.621899
v 55.535761 323.851169 -14.422039
v 65.135343 317.450821 -19.221829
f 859 857 864 
f 833 836 843 
f 840 833 843 
f 840 843 844 
f 839 837 844 
f 843 839 844 
f 839 843 845 
f 843 836 847 
f 835 834 848 
f 837 839 848 
f 841 849 850 
f 849 842 850 
f 839 845 852 
f 838 846 852 
f 847 838 852 
f 840 837 853 
f 837 841 853 
f 850 836 853 
f 841 850 853 
f 846 835 854 
f 835 848 854 
f 848 839 854 
f 839 852 854 
f 852 846 854 
f 838 847 855 
f 847 836 855 
f 851 838 855 
f 836 833 856 
f 833 840 856 
f 834 835 857 
f 835 846 857 
f 846 838 857 
f 851 842 857 
f 838 851 857 
f 841 837 858 
f 837 848 858 
f 858 848 859 
f 848 834 859 
f 849 841 859 
f 834 857 859 
f 841 858 859 
f 837 840 860 
f 840 844 860 
f 844 837 860 
f 836 850 861 
f 850 842 861 
f 842 851 861 
f 855 836 861 
f 851 855 861 
f 853 836 862 
f 840 853 862 
f 836 856 862 
f 856 840 862 
f 845 843 863 
f 843 847 863 
f 852 845 863 
f 847 852 863 
f 842 849 864 
f 857 842 864 
f 849 859 864 
o convex_27
v -8.466463 327.048784 47.977279
v -10.067803 317.452231 54.378880
v -8.466463 317.452231 54.378880
v -10.067803 328.650090 15.981492
v -0.467281 328.650090 15.981492
v -0.467281 331.849881 33.585894
v -0.467281 320.653431 49.577679
v -10.067803 331.849881 38.383023
v -8.466463 331.851290 15.981492
v -2.067682 323.853222 51.178080
v -10.067803 320.653431 57.583753
v -0.467281 331.851290 15.981492
v -0.467281 320.653431 44.780551
v -8.466463 319.053536 57.583753
v -10.067803 331.851290 19.186365
v -0.467281 323.853222 49.577679
v -2.067682 331.849881 35.186295
v -3.668082 319.053536 52.778480
v -8.466463 320.653431 57.583753
v -8.466463 331.849881 38.383023
v -10.067803 327.048784 47.977279
v -3.668082 319.053536 49.577679
v -6.867003 323.853222 52.778480
v -8.466463 317.452231 55.979280
v -10.067803 319.053536 57.583753
v -10.067803 330.249985 15.981492
v -10.067803 317.452231 55.979280
v -0.467281 331.851290 31.985494
v -10.067803 331.851290 31.985494
v -10.067803 323.853222 52.778480
f 887 885 894 
f 867 866 868 
f 867 868 869 
f 869 870 871 
f 868 866 872 
f 869 868 873 
f 872 866 875 
f 870 869 876 
f 869 873 876 
f 869 871 877 
f 868 872 879 
f 876 873 879 
f 871 870 880 
f 870 874 880 
f 878 871 880 
f 874 870 881 
f 871 878 882 
f 875 878 883 
f 880 874 883 
f 878 880 883 
f 872 865 884 
f 865 874 884 
f 874 881 884 
f 865 872 885 
f 872 875 885 
f 867 869 886 
f 869 877 886 
f 877 871 886 
f 882 867 886 
f 871 882 886 
f 874 865 887 
f 883 874 887 
f 875 883 887 
f 865 885 887 
f 866 867 888 
f 867 882 888 
f 882 878 888 
f 875 866 889 
f 878 875 889 
f 888 878 889 
f 873 868 890 
f 868 879 890 
f 879 873 890 
f 866 888 891 
f 889 866 891 
f 888 889 891 
f 870 876 892 
f 876 879 892 
f 881 870 892 
f 872 884 892 
f 884 881 892 
f 879 872 893 
f 872 892 893 
f 892 879 893 
f 885 875 894 
f 875 887 894 
o convex_28
v -11.667263 325.451882 15.981492
v -3.668082 323.851482 3.180797
v -3.668082 325.451882 3.180797
v -0.467281 331.851603 15.981492
v -19.668325 328.650803 14.380153
v -0.467281 322.252022 11.178726
v -0.467281 322.252022 3.180797
v -19.668325 327.051343 15.981492
v -13.266724 330.250263 12.780066
v -0.467281 327.051343 15.981492
v -0.467281 331.851603 14.380153
v -3.668082 322.252022 11.178726
v -16.467524 330.250263 15.981492
v -0.467281 325.451882 3.180797
v -2.068621 322.252022 3.180797
v -19.668325 327.051343 14.380153
v -5.269422 331.851603 14.380153
v -14.866184 325.451882 15.981492
v -16.467524 330.250263 14.380153
v -3.668082 322.252022 9.579892
v -5.269422 331.851603 15.981492
v -19.668325 328.650803 15.981492
v -14.866184 325.451882 14.380153
v -10.067803 328.650803 9.579892
f 913 903 918 
f 897 896 899 
f 898 900 901 
f 896 897 901 
f 895 898 902 
f 898 895 904 
f 895 900 904 
f 900 898 904 
f 898 901 905 
f 900 895 906 
f 901 900 906 
f 902 898 907 
f 901 897 908 
f 905 901 908 
f 897 905 908 
f 896 901 909 
f 901 906 909 
f 899 896 910 
f 902 899 910 
f 896 909 910 
f 898 905 911 
f 905 897 911 
f 895 902 912 
f 906 895 912 
f 902 910 912 
f 899 907 913 
f 911 903 913 
f 909 906 914 
f 907 898 915 
f 898 911 915 
f 913 907 915 
f 911 913 915 
f 899 902 916 
f 902 907 916 
f 907 899 916 
f 910 909 917 
f 906 912 917 
f 912 910 917 
f 914 906 917 
f 909 914 917 
f 897 899 918 
f 911 897 918 
f 903 911 918 
f 899 913 918 
o convex_29
v -88.473216 293.449517 73.584622
v -101.271818 269.449153 71.983282
v -99.671347 269.449153 71.983282
v -86.872744 293.449517 59.183840
v -83.671802 291.844951 73.584622
v -83.671802 291.844951 59.183840
v -94.871656 285.447830 63.985040
v -90.073687 279.050708 73.584622
v -101.270095 274.248756 73.584622
v -88.473216 288.645216 59.183840
v -91.672436 290.247432 73.584622
v -90.073687 279.050708 70.380532
v -83.671802 293.449517 73.584622
v -86.872744 287.047697 60.786589
v -101.270095 272.651238 70.383352
v -99.671347 269.449153 73.584622
v -83.671802 293.449517 59.183840
v -99.671347 277.448491 68.783421
v -91.672436 290.247432 70.380532
v -94.871656 285.447830 73.584622
v -93.271184 287.047697 62.386519
v -99.671347 274.248756 68.783421
v -86.872744 288.645216 59.183840
v -88.473216 291.844951 59.183840
v -88.473216 293.449517 70.380532
v -94.871656 282.248094 63.985040
v -91.672436 277.448491 70.383352
v -101.271818 269.449153 73.584622
v -99.671347 277.448491 71.983282
v -101.270095 274.248756 70.383352
v -93.271184 285.447830 62.386519
v -91.672436 277.448491 73.584622
f 934 945 950 
f 923 919 926 
f 924 923 926 
f 926 919 927 
f 921 920 928 
f 922 924 928 
f 927 919 929 
f 924 926 930 
f 922 919 931 
f 919 923 931 
f 923 924 931 
f 924 930 932 
f 920 921 934 
f 926 927 934 
f 924 922 935 
f 922 931 935 
f 931 924 935 
f 929 919 937 
f 925 929 937 
f 929 925 938 
f 927 929 938 
f 925 936 938 
f 925 937 939 
f 928 920 940 
f 920 933 940 
f 936 925 940 
f 933 936 940 
f 921 928 941 
f 928 924 941 
f 932 921 941 
f 924 932 941 
f 922 928 942 
f 937 922 942 
f 928 939 942 
f 939 937 942 
f 919 922 943 
f 937 919 943 
f 922 937 943 
f 925 939 944 
f 928 940 944 
f 940 925 944 
f 930 926 945 
f 921 932 945 
f 932 930 945 
f 934 921 945 
f 927 920 946 
f 920 934 946 
f 934 927 946 
f 936 927 947 
f 927 938 947 
f 938 936 947 
f 920 927 948 
f 933 920 948 
f 927 936 948 
f 936 933 948 
f 939 928 949 
f 928 944 949 
f 944 939 949 
f 926 934 950 
f 945 926 950 
o convex_30
v 68.333257 285.451131 -84.817250
v 71.536630 304.648090 -68.823513
v 66.732667 304.650126 -49.622072
v 49.137136 304.650126 -68.816623
v 49.137136 303.047834 -64.017123
v 71.536630 283.850875 -83.218565
v 71.536630 299.849359 -76.820382
v 63.533679 303.047834 -49.622072
v 66.732667 293.450372 -81.616435
v 69.933847 283.850875 -83.218565
v 66.734859 304.648090 -72.024328
v 66.732667 303.047834 -49.622072
v 71.536630 298.247067 -70.422198
v 57.137895 295.048592 -72.017437
v 71.536630 287.051386 -84.817250
v 49.137136 304.650126 -64.017123
v 49.137136 303.047834 -68.816623
v 66.734859 290.247825 -83.218565
v 71.536630 304.648090 -72.024328
v 63.533679 304.650126 -49.622072
v 57.137895 295.048592 -75.221697
v 71.536630 293.450372 -81.616435
v 63.533679 298.251139 -59.227961
v 69.933847 299.849359 -76.820382
v 71.536630 301.447578 -68.823513
v 71.536630 283.850875 -84.817250
v 68.333257 287.051386 -84.817250
v 71.536630 285.451131 -81.619881
v 69.933847 283.850875 -84.817250
v 58.731908 304.650126 -64.017123
v 66.732667 304.650126 -54.428462
v 52.340509 304.650126 -68.816623
f 980 969 982 
f 952 956 957 
f 956 958 960 
f 952 953 962 
f 953 958 962 
f 958 956 962 
f 956 952 963 
f 958 955 964 
f 957 956 965 
f 953 954 966 
f 954 955 966 
f 955 958 966 
f 955 954 967 
f 964 955 967 
f 954 959 968 
f 953 952 969 
f 952 957 969 
f 961 954 969 
f 957 961 969 
f 958 953 970 
f 953 966 970 
f 966 958 970 
f 960 964 971 
f 967 951 971 
f 964 967 971 
f 959 957 972 
f 957 965 972 
f 968 959 972 
f 965 968 972 
f 960 958 973 
f 958 964 973 
f 964 960 973 
f 959 954 974 
f 957 959 974 
f 954 961 974 
f 961 957 974 
f 952 962 975 
f 963 952 975 
f 962 963 975 
f 956 960 976 
f 951 965 976 
f 965 956 976 
f 965 951 977 
f 951 967 977 
f 967 954 977 
f 954 968 977 
f 968 965 977 
f 962 956 978 
f 956 963 978 
f 963 962 978 
f 971 951 979 
f 960 971 979 
f 951 976 979 
f 976 960 979 
f 954 953 980 
f 969 980 981 
f 953 969 981 
f 980 953 981 
f 969 954 982 
f 954 980 982 
