o convex_0
v -5.702427 24.897127 -14.787743
v 7.383736 96.867183 24.472029
v 0.840655 96.867183 24.472029
v 3.019689 -3.466618 11.381382
v -20.970614 96.867183 11.381382
v 9.565760 92.496731 -1.701152
v 9.565760 -3.466618 -6.057940
v -10.063485 -3.466618 7.016481
v -18.785602 61.962491 -10.422841
v -14.424543 96.867183 -6.057940
v -5.702427 48.870777 -16.970193
v -10.063485 -3.466618 -6.057940
v 9.565760 3.084150 9.202988
v -1.341369 66.323123 22.289578
v -18.785602 51.060914 0.481298
v 9.565760 96.867183 20.103071
v 5.201713 96.867183 -3.879546
v -16.606567 37.979020 -12.601236
v -20.970614 90.316415 -3.879546
v 0.840655 -3.466618 -10.422841
v -1.341369 48.870777 -14.787743
v 7.383736 88.136100 24.472029
v -1.341369 5.264465 13.559776
v -18.785602 94.677046 13.559776
v -10.063485 51.060914 -16.970193
v -20.970614 83.765647 9.202988
v -7.878473 70.683754 -12.601236
v -18.785602 51.060914 -10.422841
v 0.840655 81.595153 24.472029
v -3.523393 -1.276481 -10.422841
v -5.702427 40.159336 -16.970193
v -20.970614 96.867183 -1.701152
f 10 19 32 
f 3 2 5 
f 7 4 8 
f 5 2 10 
f 7 8 12 
f 4 7 13 
f 7 6 13 
f 12 8 15 
f 10 2 16 
f 13 6 16 
f 10 16 17 
f 16 6 17 
f 10 9 19 
f 7 12 20 
f 6 7 21 
f 11 17 21 
f 17 6 21 
f 2 3 22 
f 4 13 22 
f 16 2 22 
f 13 16 22 
f 8 4 23 
f 14 8 23 
f 4 22 23 
f 3 5 24 
f 8 14 24 
f 9 10 25 
f 18 9 25 
f 1 18 25 
f 15 8 26 
f 5 19 26 
f 24 5 26 
f 8 24 26 
f 10 17 27 
f 17 11 27 
f 25 10 27 
f 11 25 27 
f 12 15 28 
f 9 18 28 
f 18 12 28 
f 19 9 28 
f 15 26 28 
f 26 19 28 
f 22 3 29 
f 14 23 29 
f 23 22 29 
f 3 24 29 
f 24 14 29 
f 18 1 30 
f 12 18 30 
f 1 20 30 
f 20 12 30 
f 20 1 31 
f 7 20 31 
f 21 7 31 
f 11 21 31 
f 1 25 31 
f 25 11 31 
f 5 10 32 
f 19 5 32 
o convex_1
v 7.383736 125.218758 31.008278
v -16.606567 96.867183 -3.883176
v 5.201713 96.867183 -3.883176
v 3.019689 133.943437 -1.700298
v -18.785602 131.762267 31.008278
v 0.840655 96.867183 24.471175
v -20.970614 96.867183 13.568316
v -18.785602 131.762267 17.922542
v 9.565760 133.943437 28.833087
v 9.565760 96.867183 0.486423
v 9.565760 133.943437 0.486423
v 9.565760 96.867183 20.109263
v -12.242520 129.581097 35.377877
v -20.970614 105.595491 2.665457
v -16.606567 133.943437 33.194999
v 7.383736 101.233151 26.646366
v -5.702427 133.943437 35.377877
v 0.840655 99.051982 26.646366
v -16.606567 133.943437 17.922542
v -20.970614 96.867183 0.486423
v -16.606567 99.051982 -3.883176
v -20.970614 107.776660 15.747351
v -7.878473 129.581097 35.377877
v 5.201713 101.233151 -3.883176
v -18.785602 129.581097 31.008278
v 7.383736 133.943437 31.008278
v 5.201713 133.943437 -1.700298
v 7.383736 96.867183 24.471175
v 9.565760 129.581097 28.833087
v -12.242520 120.856419 31.008278
v -14.424543 101.233151 -3.883176
v 7.383736 112.138999 28.833087
f 48 61 64 
f 34 35 38 
f 34 38 39 
f 38 35 42 
f 41 42 43 
f 36 41 43 
f 42 35 43 
f 38 42 44 
f 42 41 44 
f 40 36 46 
f 40 37 47 
f 41 36 47 
f 41 47 49 
f 47 45 49 
f 39 38 50 
f 36 40 51 
f 47 36 51 
f 40 47 51 
f 34 39 52 
f 39 46 52 
f 52 46 53 
f 35 34 53 
f 46 36 53 
f 34 52 53 
f 37 40 54 
f 46 39 54 
f 40 46 54 
f 49 45 55 
f 33 49 55 
f 45 50 55 
f 50 48 55 
f 43 35 56 
f 35 53 56 
f 39 45 57 
f 47 37 57 
f 45 47 57 
f 37 54 57 
f 54 39 57 
f 33 41 58 
f 49 33 58 
f 41 49 58 
f 36 43 59 
f 43 56 59 
f 56 36 59 
f 38 44 60 
f 44 48 60 
f 50 38 60 
f 48 50 60 
f 41 33 61 
f 44 41 61 
f 48 44 61 
f 45 39 62 
f 39 50 62 
f 50 45 62 
f 53 36 63 
f 36 56 63 
f 56 53 63 
f 33 55 64 
f 55 48 64 
f 61 33 64 
o convex_2
v -5.699011 179.743942 57.189573
v 3.022251 133.956887 -1.702006
v 3.022251 136.136989 -1.702006
v -16.608275 138.317091 20.111398
v 5.200005 184.113967 2.661828
v 9.565760 133.956887 28.833301
v 9.565760 184.113967 39.740003
v -12.242520 133.956887 37.549439
v -12.242520 179.743942 39.740003
v 9.565760 138.317091 0.482793
v 5.200005 184.113967 55.004774
v -10.062204 184.113967 55.004774
v 9.565760 184.113967 2.661828
v -16.608275 144.857398 39.740003
v -5.699011 144.857398 44.098072
v -3.521258 181.924044 15.747564
v 3.022251 168.838521 0.482793
v -16.608275 133.956887 20.111398
v 7.382882 136.136989 33.191370
v -16.608275 149.222512 26.654266
v -1.343504 173.203636 55.004774
v -10.062204 184.113967 41.913272
v -10.062204 144.857398 44.098072
v -12.242520 179.743942 50.640940
v 9.565760 133.956887 0.482793
v -16.608275 133.956887 33.191370
v 5.200005 181.924044 55.004774
v -5.699011 133.956887 37.549439
v -16.608275 151.402614 39.740003
v 7.382882 166.658419 0.482793
v 9.565760 177.563840 39.740003
v -12.242520 171.018623 50.640940
f 88 78 96 
f 67 66 68 
f 66 70 72 
f 71 70 74 
f 71 69 75 
f 75 69 76 
f 65 75 76 
f 69 71 77 
f 71 74 77 
f 69 68 80 
f 67 68 81 
f 68 69 81 
f 69 77 81 
f 68 66 82 
f 66 72 82 
f 78 68 82 
f 68 78 84 
f 80 68 84 
f 73 80 84 
f 79 83 85 
f 73 76 86 
f 76 69 86 
f 69 80 86 
f 80 73 86 
f 78 72 87 
f 72 79 87 
f 85 65 87 
f 79 85 87 
f 76 73 88 
f 66 67 89 
f 70 66 89 
f 67 74 89 
f 74 70 89 
f 72 78 90 
f 82 72 90 
f 78 82 90 
f 71 75 91 
f 75 65 91 
f 83 70 91 
f 65 85 91 
f 85 83 91 
f 72 70 92 
f 79 72 92 
f 70 83 92 
f 83 79 92 
f 84 78 93 
f 73 84 93 
f 88 73 93 
f 78 88 93 
f 74 67 94 
f 77 74 94 
f 67 81 94 
f 81 77 94 
f 70 71 95 
f 91 70 95 
f 71 91 95 
f 65 76 96 
f 78 87 96 
f 87 65 96 
f 76 88 96 
o convex_3
v -5.701573 186.313925 39.743419
v 3.022251 212.487533 65.914251
v 0.841936 212.487533 65.914251
v 3.022251 284.447768 37.559046
v 9.565760 184.113967 37.559046
v 16.109269 282.257631 50.651402
v -10.064766 188.484419 57.187865
v 0.841936 271.346232 55.006268
v 7.382882 188.484419 57.187865
v 16.109269 284.447768 39.743419
v 16.109269 264.805285 55.006268
v -10.064766 184.113967 41.922240
v 9.565760 266.995422 59.366686
v -1.338380 184.113967 59.366686
v 9.565760 205.926944 61.551058
v -5.701573 208.117081 63.729879
v 7.382882 284.447768 52.821896
v -10.064766 192.845050 46.285433
v 13.926391 284.447768 37.559046
v 0.841936 190.664735 37.559046
v 3.022251 201.566313 65.914251
v 5.202567 264.805285 59.366686
v 16.109269 264.805285 46.285433
v -5.701573 221.198974 61.551058
v 7.382882 216.838343 63.729879
v -1.338380 201.566313 65.914251
v 3.022251 284.447768 50.651402
v -10.064766 192.845050 57.187865
v -7.881889 184.113967 57.187865
v 9.565760 184.113967 39.743419
v 13.926391 266.995422 57.187865
v 11.746076 284.447768 52.821896
f 109 127 128 
f 106 102 107 
f 100 97 108 
f 97 101 108 
f 99 98 109 
f 108 101 110 
f 106 100 113 
f 104 100 114 
f 100 108 114 
f 108 103 114 
f 101 100 115 
f 100 106 115 
f 106 101 115 
f 97 100 116 
f 101 97 116 
f 100 101 116 
f 98 99 117 
f 110 105 117 
f 105 111 117 
f 99 109 118 
f 112 99 118 
f 113 104 118 
f 109 113 118 
f 101 106 119 
f 106 107 119 
f 107 101 119 
f 112 118 120 
f 118 104 120 
f 109 98 121 
f 98 117 121 
f 117 111 121 
f 99 112 122 
f 112 103 122 
f 117 99 122 
f 110 117 122 
f 100 104 123 
f 113 100 123 
f 104 113 123 
f 103 112 124 
f 104 114 124 
f 114 103 124 
f 112 120 124 
f 120 104 124 
f 103 108 125 
f 108 110 125 
f 122 103 125 
f 110 122 125 
f 101 107 126 
f 105 110 126 
f 110 101 126 
f 111 105 126 
f 107 111 126 
f 107 102 127 
f 111 107 127 
f 109 121 127 
f 121 111 127 
f 102 106 128 
f 106 113 128 
f 113 109 128 
f 127 102 128 
o convex_4
v -1.340088 184.113967 15.750767
v 11.746930 284.447768 37.559046
v 11.746930 284.447768 9.205550
v 11.746930 192.845050 24.472029
v 3.025667 284.447768 37.559046
v 0.844071 184.113967 37.559046
v 7.385017 184.113967 2.660333
v 7.385017 284.447768 9.205550
v 9.562771 184.113967 37.559046
v -1.340088 225.569426 20.109690
v 5.203421 236.451362 4.843211
v 11.746930 219.028480 7.026088
v 0.844071 266.995422 24.472029
v 0.844071 238.641498 37.559046
v 9.564052 184.113967 4.843211
v 5.203421 203.746628 2.660333
v 11.746930 247.362761 37.559046
v 3.025667 284.447768 26.651490
v -1.340088 219.028480 17.933644
v 9.564052 232.110373 4.843211
v -1.340088 205.926944 22.289151
v 5.203421 184.113967 2.660333
v 9.564052 271.346232 7.026088
v -1.340088 197.205681 15.750767
v 0.844071 266.995422 26.651490
v 5.203421 251.723392 7.026088
v -1.340088 225.569426 22.289151
v -1.340088 184.113967 20.109690
v 11.746930 249.533255 7.026088
v 7.385017 203.746628 2.660333
v 11.746930 192.845050 22.289151
v 7.385017 271.346232 7.026088
f 139 154 160 
f 131 130 132 
f 130 131 133 
f 130 133 134 
f 134 129 135 
f 133 131 136 
f 130 134 137 
f 134 135 137 
f 131 132 140 
f 134 133 142 
f 132 137 143 
f 137 135 143 
f 135 140 143 
f 132 130 145 
f 130 137 145 
f 137 132 145 
f 133 136 146 
f 141 133 146 
f 136 141 146 
f 129 138 147 
f 141 136 147 
f 138 141 147 
f 138 129 149 
f 134 142 149 
f 135 129 150 
f 129 144 150 
f 144 135 150 
f 144 129 152 
f 139 144 152 
f 129 147 152 
f 147 139 152 
f 133 141 153 
f 141 138 153 
f 142 133 153 
f 147 136 154 
f 139 147 154 
f 138 149 155 
f 149 142 155 
f 153 138 155 
f 142 153 155 
f 129 134 156 
f 149 129 156 
f 134 149 156 
f 131 140 157 
f 140 135 157 
f 151 131 157 
f 148 151 157 
f 135 144 158 
f 144 151 158 
f 151 148 158 
f 157 135 158 
f 148 157 158 
f 140 132 159 
f 132 143 159 
f 143 140 159 
f 136 131 160 
f 144 139 160 
f 131 151 160 
f 151 144 160 
f 154 136 160 
o convex_5
v 16.105853 380.417308 52.827234
v 18.287022 360.790625 -30.056357
v 18.287022 373.873800 -40.963059
v 3.022251 360.790625 -19.149655
v 3.022251 380.417308 11.376258
v 3.022251 360.790625 31.013830
v 20.471608 360.790625 20.097947
v 20.471608 380.417308 -19.149655
v 3.022251 369.514663 52.827234
v 13.924683 367.334134 52.827234
v 9.565760 376.054329 -27.871344
v 20.471608 380.417308 28.828817
v 3.022251 380.417308 33.189662
v 20.471608 360.790625 -30.056357
v 18.287022 376.054329 52.827234
v 18.287022 360.790625 33.189662
v 20.471608 376.054329 -40.963059
v 3.022251 373.873800 52.827234
v 5.203421 373.873800 -16.964642
v 16.105853 378.234858 -30.056357
v 18.287022 362.973075 39.735519
v 16.105853 376.054329 -38.778046
v 9.565760 367.334134 52.827234
v 3.022251 362.973075 -19.149655
v 7.384590 360.790625 -23.510500
v 18.287022 380.417308 52.827234
v 16.105853 380.417308 -16.964642
v 16.105853 367.334134 50.642221
v 11.746930 376.054329 -32.232189
v 13.924683 360.790625 -27.871344
v 20.471608 373.873800 -40.963059
v 20.471608 378.234858 28.828817
f 172 175 192 
f 164 162 166 
f 165 164 166 
f 166 162 167 
f 165 161 168 
f 165 166 169 
f 161 169 170 
f 168 161 172 
f 167 168 172 
f 161 165 173 
f 165 169 173 
f 162 163 174 
f 167 162 174 
f 168 167 174 
f 161 170 175 
f 166 167 176 
f 168 174 177 
f 169 161 178 
f 161 173 178 
f 173 169 178 
f 165 171 179 
f 171 165 180 
f 168 177 180 
f 167 175 181 
f 176 167 181 
f 170 176 181 
f 163 164 182 
f 177 163 182 
f 180 177 182 
f 169 166 183 
f 170 169 183 
f 166 176 183 
f 176 170 183 
f 164 165 184 
f 165 179 184 
f 179 171 184 
f 182 164 184 
f 164 163 185 
f 162 164 185 
f 172 161 186 
f 161 175 186 
f 175 172 186 
f 165 168 187 
f 180 165 187 
f 168 180 187 
f 175 170 188 
f 170 181 188 
f 181 175 188 
f 171 180 189 
f 180 182 189 
f 184 171 189 
f 182 184 189 
f 163 162 190 
f 185 163 190 
f 162 185 190 
f 174 163 191 
f 163 177 191 
f 177 174 191 
f 167 172 192 
f 175 167 192 
o convex_6
v -51.506989 367.334134 -45.323476
v -16.608275 369.511461 7.022672
v -16.608275 360.791693 7.022672
v -51.506989 367.334134 -6.065199
v -25.336370 376.056891 -16.975317
v -16.608275 360.791693 -30.052514
v -51.506989 360.791693 -38.779541
v -49.324111 376.056891 -27.869423
v -34.057632 371.693271 7.022672
v -16.608275 365.152324 -30.052514
v -47.141233 360.791693 -47.506568
v -16.608275 373.873586 -3.887446
v -42.778894 376.056891 -30.052514
v -51.506989 371.693271 -6.065199
v -40.596016 367.334134 4.839581
v -42.778894 365.152324 -45.323476
v -29.698709 376.056891 -12.614473
v -18.791153 360.791693 7.022672
v -51.506989 373.873586 -36.596450
v -16.608275 373.873586 -12.614473
v -42.778894 376.056891 -19.158409
v -51.506989 365.152324 -14.792226
v -42.778894 371.693271 2.656490
v -27.519247 367.334134 -34.418696
v -25.336370 371.693271 7.022672
v -51.506989 360.791693 -47.506568
v -36.237093 367.334134 7.022672
v -49.324111 373.873586 -36.596450
v -23.153492 365.152324 -34.418696
v -16.608275 371.693271 4.839581
v -20.974030 373.873586 -1.704355
v -36.237093 376.056891 -25.691669
f 216 205 224 
f 194 195 198 
f 198 195 199 
f 196 193 199 
f 195 194 201 
f 194 198 202 
f 198 199 203 
f 194 202 204 
f 200 197 205 
f 193 196 206 
f 206 196 207 
f 203 193 208 
f 197 200 209 
f 204 197 209 
f 199 195 210 
f 195 201 210 
f 207 196 210 
f 200 205 211 
f 193 206 211 
f 206 200 211 
f 202 197 212 
f 197 204 212 
f 204 202 212 
f 200 206 213 
f 209 200 213 
f 201 209 213 
f 196 199 214 
f 199 210 214 
f 210 196 214 
f 206 207 215 
f 213 206 215 
f 201 213 215 
f 201 194 217 
f 199 193 218 
f 203 199 218 
f 193 203 218 
f 210 201 219 
f 207 210 219 
f 201 215 219 
f 215 207 219 
f 208 193 220 
f 211 205 220 
f 193 211 220 
f 205 216 220 
f 216 208 220 
f 202 198 221 
f 198 203 221 
f 203 208 221 
f 216 202 221 
f 208 216 221 
f 194 204 222 
f 217 194 222 
f 217 222 223 
f 204 209 223 
f 209 201 223 
f 201 217 223 
f 222 204 223 
f 197 202 224 
f 205 197 224 
f 202 216 224 
o convex_7
v -73.318684 345.523505 137.887510
v -42.782310 360.784861 126.992550
v -47.146357 360.784861 131.344855
v -64.593579 360.784861 107.360530
v -64.593579 360.784861 135.705273
v -66.772614 341.158177 144.430165
v -42.782310 358.604118 122.628076
v -62.408566 358.604118 107.360530
v -68.951648 343.342763 148.794639
v -68.951648 358.604118 120.449895
v -68.951648 354.242633 142.247928
v -60.229532 349.884990 144.430165
v -58.050497 347.704248 142.247928
v -71.136661 341.158177 142.247928
v -73.318684 347.704248 142.247928
v -68.951648 354.242633 118.267658
v -42.782310 360.784861 122.628076
v -60.229532 360.784861 135.705273
v -68.951648 341.158177 142.247928
v -71.136661 341.158177 148.794639
v -66.772614 360.784861 111.725004
v -68.951648 352.061890 144.430165
v -42.782310 358.604118 126.992550
v -71.136661 354.242633 131.344855
v -64.593579 358.604118 107.360530
v -71.136661 354.242633 126.992550
v -73.318684 343.342763 140.069747
v -64.593579 343.342763 146.612402
v -71.136661 347.704248 146.612402
v -66.772614 358.604118 137.887510
v -60.229532 345.523505 142.247928
v -71.136661 345.523505 133.527092
f 238 251 256 
f 227 226 228 
f 227 228 229 
f 226 227 236 
f 228 226 241 
f 226 231 241 
f 231 232 241 
f 232 228 241 
f 227 229 242 
f 236 227 242 
f 231 230 243 
f 232 231 243 
f 230 238 243 
f 238 232 243 
f 238 230 244 
f 229 228 245 
f 234 229 245 
f 233 236 246 
f 236 242 246 
f 231 226 247 
f 226 236 247 
f 236 237 247 
f 239 235 248 
f 228 232 249 
f 232 238 249 
f 245 228 249 
f 240 245 249 
f 225 239 250 
f 240 225 250 
f 234 245 250 
f 245 240 250 
f 248 234 250 
f 239 248 250 
f 239 225 251 
f 225 240 251 
f 238 244 251 
f 244 239 251 
f 236 233 252 
f 237 236 252 
f 244 230 252 
f 233 244 252 
f 235 239 253 
f 244 233 253 
f 239 244 253 
f 246 235 253 
f 233 246 253 
f 229 234 254 
f 242 229 254 
f 235 246 254 
f 246 242 254 
f 234 248 254 
f 248 235 254 
f 230 231 255 
f 231 247 255 
f 247 237 255 
f 252 230 255 
f 237 252 255 
f 249 238 256 
f 240 249 256 
f 251 240 256 
o convex_8
v 16.109269 286.631927 37.555417
v 9.565760 291.000244 50.646064
v 7.385444 291.000244 50.646064
v 13.925110 352.064025 11.386292
v 7.385444 284.447768 9.203842
v 5.203848 352.064025 26.651277
v 16.109269 347.695708 28.837784
v 3.022251 284.447768 48.459557
v 11.746076 284.447768 9.203842
v 5.203848 352.064025 17.929588
v 16.109269 349.879867 11.386292
v 3.022251 284.447768 26.663447
v 16.109269 284.447768 48.459557
v 11.744795 352.064025 28.837784
v 3.022251 306.269499 41.920318
v 7.385444 304.091959 9.203842
v 13.927672 286.631927 50.646064
v 3.022251 308.453657 28.841841
v 7.385444 352.064025 28.837784
v 9.565760 338.972311 11.386292
v 3.022251 291.000244 48.459557
v 16.109269 352.064025 26.651277
v 5.203848 284.447768 50.646064
v 16.109269 288.816085 48.459557
v 11.746076 297.546101 9.203842
v 7.385444 325.880596 11.386292
v 9.567041 352.064025 13.572800
v 11.746076 308.453657 44.098712
v 16.109269 352.064025 11.386292
v 16.109269 284.447768 39.729754
v 3.022251 301.907800 26.663447
v 5.203848 347.695708 28.837784
f 277 275 288 
f 264 261 265 
f 262 260 266 
f 263 257 267 
f 257 265 267 
f 261 264 268 
f 266 261 268 
f 257 263 269 
f 264 265 269 
f 259 258 270 
f 260 262 270 
f 268 264 271 
f 265 261 272 
f 261 266 272 
f 258 259 273 
f 262 266 274 
f 271 262 274 
f 268 271 274 
f 259 270 275 
f 270 262 275 
f 260 272 276 
f 271 264 277 
f 259 275 277 
f 263 267 278 
f 260 270 278 
f 270 263 278 
f 264 269 279 
f 273 259 279 
f 269 273 279 
f 259 277 279 
f 277 264 279 
f 269 263 280 
f 263 273 280 
f 273 269 280 
f 267 265 281 
f 265 272 281 
f 272 266 282 
f 266 276 282 
f 276 272 282 
f 266 260 283 
f 260 276 283 
f 276 266 283 
f 270 258 284 
f 263 270 284 
f 258 273 284 
f 273 263 284 
f 272 260 285 
f 260 278 285 
f 278 267 285 
f 267 281 285 
f 281 272 285 
f 265 257 286 
f 257 269 286 
f 269 265 286 
f 266 268 287 
f 274 266 287 
f 268 274 287 
f 262 271 288 
f 275 262 288 
f 271 277 288 
o convex_9
v 64.099483 393.499672 -43.144655
v 109.895078 367.334475 -64.947811
v 109.895078 365.156978 -64.947811
v 66.278518 389.138272 -19.151363
v 64.099483 378.244379 -49.680692
v 101.169972 380.412270 -62.772406
v 64.099483 384.783277 -19.151363
v 105.528041 362.973075 -69.318264
v 72.820105 395.683574 -38.784024
v 90.265832 376.057275 -64.947811
v 74.999140 389.138272 -27.887357
v 105.528041 362.973075 -64.947811
v 101.169972 376.057275 -54.046233
v 66.278518 384.783277 -51.865918
v 64.099483 395.683574 -32.243078
v 64.099483 378.244379 -45.320060
v 107.716043 369.515175 -69.318264
v 66.278518 384.783277 -19.151363
v 92.453834 382.599375 -60.587180
v 94.628385 369.515175 -67.133037
v 101.169972 380.412270 -60.587180
v 72.820105 395.683574 -40.964340
v 70.641071 376.057275 -54.046233
v 107.716043 362.973075 -64.947811
v 103.353490 378.237975 -64.947811
v 101.169972 369.515175 -69.318264
v 77.182658 380.421877 -58.411775
v 66.278518 395.683574 -40.964340
v 98.990938 373.879777 -51.865918
v 109.895078 362.973075 -69.318264
v 64.099483 389.138272 -47.505287
v 64.099483 389.138272 -19.151363
f 303 295 320 
f 289 293 295 
f 297 292 299 
f 293 296 300 
f 291 290 301 
f 299 292 301 
f 289 295 303 
f 292 297 303 
f 295 293 304 
f 300 295 304 
f 293 300 304 
f 292 295 306 
f 295 300 306 
f 294 297 309 
f 297 299 309 
f 301 290 309 
f 299 301 309 
f 297 294 310 
f 303 297 310 
f 294 307 310 
f 296 293 311 
f 293 302 311 
f 308 296 311 
f 300 296 312 
f 291 306 312 
f 306 300 312 
f 290 305 313 
f 307 294 313 
f 298 307 313 
f 309 290 313 
f 294 309 313 
f 305 296 314 
f 296 308 314 
f 308 298 314 
f 313 305 314 
f 298 313 314 
f 307 298 315 
f 302 307 315 
f 298 308 315 
f 311 302 315 
f 308 311 315 
f 289 303 316 
f 307 289 316 
f 303 310 316 
f 310 307 316 
f 291 301 317 
f 301 292 317 
f 292 306 317 
f 306 291 317 
f 290 291 318 
f 305 290 318 
f 296 305 318 
f 291 312 318 
f 312 296 318 
f 293 289 319 
f 302 293 319 
f 289 307 319 
f 307 302 319 
f 295 292 320 
f 292 303 320 
o convex_10
v -84.227095 362.968592 -54.049231
v -51.506989 371.690709 -8.260245
v -53.691147 371.690709 -8.260245
v -97.308561 343.342336 -56.226610
v -51.506989 360.789558 -47.495749
v -53.691147 373.875721 -38.775563
v -51.506989 365.150616 -14.797717
v -73.320393 367.326661 -27.877997
v -75.499854 356.428500 -58.409325
v -99.488022 347.703394 -54.049231
v -92.944941 345.527349 -62.774755
v -62.413691 373.875721 -40.952941
v -53.691147 358.610523 -45.318371
v -53.691147 367.329650 -8.260245
v -97.308561 352.070430 -60.586703
v -51.506989 367.329650 -45.318371
v -88.581320 360.783580 -49.683801
v -68.956772 365.150616 -51.861179
v -68.956772 371.690709 -40.952941
v -58.054767 373.875721 -25.700619
v -95.124402 343.342336 -58.409325
v -58.054767 358.610523 -51.861179
v -86.397162 360.783580 -40.958278
v -99.488022 343.342336 -56.226610
v -51.506989 373.875721 -25.700619
v -53.691147 362.971581 -49.678464
v -64.593152 371.690709 -25.700619
v -88.581320 360.783580 -56.226610
v -73.320393 369.511674 -47.501086
v -77.684013 367.326661 -43.140993
v -99.488022 343.342336 -60.586703
v -53.691147 358.610523 -47.495749
f 342 325 352 
f 325 322 327 
f 325 327 333 
f 322 323 334 
f 327 322 334 
f 324 327 334 
f 323 328 334 
f 328 330 334 
f 329 331 335 
f 322 325 336 
f 332 326 336 
f 335 330 337 
f 332 336 338 
f 323 322 340 
f 326 332 340 
f 332 339 340 
f 327 324 341 
f 333 327 341 
f 331 329 342 
f 330 328 343 
f 337 330 343 
f 324 334 344 
f 334 330 344 
f 341 324 344 
f 322 336 345 
f 336 326 345 
f 340 322 345 
f 326 340 345 
f 336 325 346 
f 329 338 346 
f 338 336 346 
f 342 329 346 
f 325 342 346 
f 328 323 347 
f 339 328 347 
f 323 340 347 
f 340 339 347 
f 329 335 348 
f 335 337 348 
f 321 338 348 
f 338 329 348 
f 338 321 349 
f 332 338 349 
f 339 332 349 
f 321 348 349 
f 349 348 350 
f 328 339 350 
f 343 328 350 
f 337 343 350 
f 348 337 350 
f 339 349 350 
f 330 335 351 
f 335 331 351 
f 331 341 351 
f 344 330 351 
f 341 344 351 
f 325 333 352 
f 341 331 352 
f 333 341 352 
f 331 342 352 
o convex_11
v 48.826813 360.785264 4.842784
v 85.906696 352.066042 46.277747
v 85.906696 347.702588 46.277747
v 85.906696 345.525664 -14.789024
v 48.826813 347.704509 17.928520
v 48.826813 358.604498 48.461905
v 85.906696 358.602576 13.566608
v 48.826813 349.885275 -12.598460
v 77.177534 343.341055 -12.604865
v 68.452001 362.967952 13.566608
v 66.281507 352.066042 -14.789024
v 48.826813 354.246808 48.461905
v 68.448372 356.423731 50.646064
v 48.826813 362.967952 26.652344
v 79.355287 347.702588 46.277747
v 85.906696 343.341055 -6.058794
v 66.281507 362.967952 20.106274
v 53.193208 352.066042 -14.789024
v 85.906696 358.602576 17.928520
v 83.721683 347.706430 -14.789024
v 61.922370 352.066042 50.646064
v 57.555975 347.704509 -14.789024
v 66.281507 358.602576 0.487277
v 48.826813 362.967952 11.382449
v 55.378221 360.787186 37.553922
v 77.177534 343.341055 -10.420706
v 55.381851 347.704509 -12.598460
v 83.725313 349.885275 48.461905
v 85.906696 343.341055 -14.789024
v 48.826813 354.244887 -10.420706
v 83.725313 354.246808 41.915834
v 61.915111 362.967952 11.382449
f 376 362 384 
f 354 355 356 
f 353 357 358 
f 354 356 359 
f 357 353 360 
f 358 357 364 
f 353 358 366 
f 356 355 368 
f 355 367 368 
f 362 366 369 
f 363 356 370 
f 354 359 371 
f 359 362 371 
f 362 369 371 
f 369 365 371 
f 359 356 372 
f 356 363 372 
f 364 357 373 
f 358 364 373 
f 365 358 373 
f 357 367 373 
f 367 355 373 
f 360 370 374 
f 370 356 374 
f 362 359 375 
f 363 353 375 
f 359 372 375 
f 372 363 375 
f 366 362 376 
f 353 366 376 
f 358 365 377 
f 366 358 377 
f 365 369 377 
f 369 366 377 
f 357 361 378 
f 367 357 378 
f 361 368 378 
f 368 367 378 
f 357 360 379 
f 361 357 379 
f 360 374 379 
f 374 361 379 
f 355 354 380 
f 354 365 380 
f 365 373 380 
f 373 355 380 
f 356 368 381 
f 368 361 381 
f 361 374 381 
f 374 356 381 
f 360 353 382 
f 353 363 382 
f 370 360 382 
f 363 370 382 
f 365 354 383 
f 354 371 383 
f 371 365 383 
f 375 353 384 
f 362 375 384 
f 353 376 384 
o convex_12
v -121.299719 312.806816 33.195853
v -68.960188 347.701686 44.102555
v -68.960188 345.512830 44.102555
v -75.508394 347.701686 17.928520
v -97.308846 347.701686 33.190729
v -123.478611 299.715955 41.919678
v -116.941934 319.345200 44.102555
v -119.120826 325.888282 35.378731
v -84.229728 347.701686 17.928520
v -84.229728 347.701686 44.102555
v -75.508394 345.512830 17.928520
v -121.299719 323.708821 39.739362
v -125.663268 301.904811 44.102555
v -123.478611 299.715955 39.739362
v -127.847924 306.268431 39.739362
v -71.144845 343.338066 41.919678
v -84.229728 343.338066 17.928520
v -125.663268 301.904811 37.556484
v -101.666631 343.338066 31.015538
v -116.941934 319.345200 31.015538
v -99.481974 345.512830 35.376169
v -125.663268 308.447893 44.102555
v -125.663268 314.986277 37.556484
v -116.941934 328.063047 39.739362
v -119.120826 306.268431 35.378731
v -121.299719 310.627354 33.195853
v -127.847924 299.715955 41.919678
v -123.478611 301.904811 44.102555
v -116.941934 325.888282 33.195853
v -90.766405 338.969749 20.111398
v -110.399493 325.888282 44.102555
v -97.308846 347.701686 31.015538
f 393 403 416 
f 386 388 389 
f 387 386 391 
f 389 388 393 
f 386 389 394 
f 391 386 394 
f 386 387 395 
f 388 386 395 
f 393 388 395 
f 389 392 396 
f 387 391 397 
f 387 390 400 
f 395 387 400 
f 390 398 400 
f 398 395 400 
f 393 395 401 
f 394 389 405 
f 391 396 406 
f 397 391 406 
f 399 406 407 
f 396 392 407 
f 385 399 407 
f 404 385 407 
f 406 396 407 
f 389 396 408 
f 405 389 408 
f 394 405 408 
f 395 398 409 
f 401 395 409 
f 398 402 409 
f 409 402 410 
f 399 385 410 
f 402 399 410 
f 385 404 410 
f 401 409 410 
f 398 390 411 
f 402 398 411 
f 399 402 411 
f 397 406 411 
f 406 399 411 
f 390 387 412 
f 387 397 412 
f 411 390 412 
f 397 411 412 
f 392 403 413 
f 403 393 413 
f 393 404 413 
f 407 392 413 
f 404 407 413 
f 393 401 414 
f 404 393 414 
f 410 404 414 
f 401 410 414 
f 391 394 415 
f 396 391 415 
f 394 408 415 
f 408 396 415 
f 392 389 416 
f 389 393 416 
f 403 392 416 
o convex_13
v 16.110977 376.056891 52.838782
v 42.283304 384.781569 153.153854
v 35.737233 384.781569 153.153854
v 16.110977 382.599546 35.377877
v 40.098291 378.238914 146.601611
v 31.376175 382.599546 146.601611
v 11.749919 382.599546 39.746039
v 24.833093 376.056891 70.287945
v 42.283304 384.781569 140.061111
v 35.737233 378.238914 148.785692
v 42.283304 380.419230 142.245191
v 31.376175 384.781569 146.601611
v 33.558198 384.781569 122.623690
v 11.749919 380.419230 39.746039
v 20.475024 376.056891 52.838782
v 40.098291 378.238914 153.153854
v 16.110977 376.056891 55.022863
v 16.110977 380.419230 35.377877
v 22.654059 376.056891 76.828445
v 37.919257 380.419230 155.337935
v 11.749919 380.419230 35.377877
v 37.919257 384.781569 122.623690
v 42.283304 380.419230 153.153854
v 33.558198 380.419230 148.785692
v 40.098291 380.419230 131.348272
v 11.749919 382.599546 35.377877
v 40.098291 382.599546 155.337935
v 37.919257 378.238914 153.153854
v 33.558198 382.599546 150.969773
v 33.558198 378.238914 105.151043
v 20.475024 376.056891 72.472026
v 24.833093 376.056891 76.828445
f 432 435 448 
f 419 418 425 
f 425 418 427 
f 423 422 428 
f 419 425 428 
f 428 425 429 
f 422 423 430 
f 424 417 431 
f 424 421 432 
f 421 427 432 
f 417 424 433 
f 430 417 433 
f 422 430 433 
f 431 417 434 
f 433 424 435 
f 417 430 437 
f 430 423 437 
f 420 434 437 
f 434 417 437 
f 425 420 438 
f 429 425 438 
f 420 429 438 
f 427 418 439 
f 432 427 439 
f 436 432 439 
f 422 433 440 
f 433 426 440 
f 425 427 441 
f 423 428 442 
f 428 429 442 
f 429 420 442 
f 420 437 442 
f 437 423 442 
f 418 419 443 
f 419 436 443 
f 439 418 443 
f 436 439 443 
f 435 432 444 
f 432 436 444 
f 440 426 444 
f 436 440 444 
f 419 428 445 
f 428 422 445 
f 436 419 445 
f 422 440 445 
f 440 436 445 
f 421 424 446 
f 420 425 446 
f 427 421 446 
f 424 431 446 
f 434 420 446 
f 431 434 446 
f 441 427 446 
f 425 441 446 
f 426 433 447 
f 433 435 447 
f 435 444 447 
f 444 426 447 
f 424 432 448 
f 435 424 448 
o convex_14
v -82.033115 349.887126 44.102555
v -42.795121 358.613512 7.022672
v -42.795121 360.788704 7.022672
v -16.608275 367.327088 44.102555
v -58.059892 369.509966 26.647861
v -16.608275 360.788704 7.022672
v -16.608275 373.873159 17.936847
v -82.033115 347.709372 17.933217
v -64.600838 347.701686 44.102555
v -27.514977 371.692844 44.102555
v -88.574061 356.428073 33.192010
v -34.055924 369.509966 7.022672
v -16.608275 360.788704 37.558406
v -71.126413 347.709372 15.751834
v -86.391184 356.430635 26.647861
v -95.130380 347.701686 33.192010
v -40.604557 373.873159 22.292354
v -16.608275 369.509966 7.022672
v -64.600838 367.327088 24.477367
v -66.768344 356.430635 13.566821
v -16.608275 371.692844 44.102555
v -36.238801 369.509966 44.102555
v -71.126413 365.146773 28.832874
v -92.939817 352.067441 28.832874
v -77.675046 349.889688 15.751834
v -82.033115 347.701686 44.102555
v -18.791153 360.788704 39.739789
v -16.608275 373.873159 24.477367
v -86.391184 354.247757 37.554776
v -40.604557 373.873159 24.477367
v -66.768344 360.788704 17.933217
v -62.410274 356.430635 11.389068
f 473 468 480 
f 450 451 454 
f 452 454 455 
f 452 449 457 
f 449 452 458 
f 454 451 460 
f 454 452 461 
f 457 454 461 
f 450 454 462 
f 454 457 462 
f 456 462 464 
f 462 457 464 
f 455 460 465 
f 455 454 466 
f 454 460 466 
f 460 455 466 
f 453 465 467 
f 465 460 467 
f 452 455 469 
f 458 452 469 
f 449 458 470 
f 458 453 470 
f 459 470 471 
f 463 459 471 
f 453 467 471 
f 467 463 471 
f 470 453 471 
f 459 463 472 
f 464 459 472 
f 456 464 472 
f 450 462 473 
f 462 456 473 
f 463 468 473 
f 456 472 473 
f 472 463 473 
f 457 449 474 
f 449 464 474 
f 464 457 474 
f 452 457 475 
f 461 452 475 
f 457 461 475 
f 455 465 476 
f 469 455 476 
f 458 469 476 
f 464 449 477 
f 459 464 477 
f 449 470 477 
f 470 459 477 
f 453 458 478 
f 465 453 478 
f 458 476 478 
f 476 465 478 
f 463 467 479 
f 467 460 479 
f 460 468 479 
f 468 463 479 
f 451 450 480 
f 460 451 480 
f 468 460 480 
f 450 473 480 
o convex_15
v -36.238801 380.416028 81.182438
v -36.238801 365.151043 44.102555
v -42.772062 365.151043 57.194483
v -16.608275 373.876575 81.178809
v -16.608275 380.417736 52.828088
v -55.869328 369.516371 78.997426
v -16.608275 367.333707 44.102555
v -49.324538 365.154459 81.182438
v -44.962626 371.695619 55.009471
v -31.880732 382.598692 74.634659
v -16.608275 378.236779 81.178809
v -29.705541 371.695619 44.102555
v -16.608275 367.333707 52.831717
v -23.160751 365.151043 46.287568
v -47.137817 376.050700 81.182438
v -47.137817 373.874867 63.731373
v -27.514977 382.598692 78.997426
v -53.678764 367.335415 72.449647
v -18.791153 380.417736 52.828088
v -16.608275 376.055823 46.287568
v -53.678764 365.154459 81.182438
v -36.238801 369.514663 44.102555
v -16.608275 380.417736 68.094140
v -49.324538 371.697327 61.560879
v -44.962626 367.333707 55.009471
v -53.678764 365.154459 76.812413
v -40.593027 371.695619 50.653964
v -18.791153 378.236779 48.472581
v -42.779748 378.235072 78.997426
v -55.869328 367.335415 81.182438
v -51.495886 371.697327 68.097769
v -20.977873 371.695619 44.102555
f 492 500 512 
f 485 484 487 
f 484 481 488 
f 481 484 491 
f 484 485 491 
f 487 482 492 
f 487 484 493 
f 484 488 493 
f 493 488 494 
f 483 482 494 
f 482 487 494 
f 488 483 494 
f 487 493 494 
f 488 481 495 
f 490 481 497 
f 485 490 497 
f 481 491 497 
f 490 485 499 
f 496 490 499 
f 489 496 499 
f 485 487 500 
f 483 488 501 
f 488 495 501 
f 482 489 502 
f 492 482 502 
f 491 485 503 
f 485 497 503 
f 497 491 503 
f 496 489 504 
f 498 486 504 
f 498 504 505 
f 489 482 505 
f 504 489 505 
f 482 483 506 
f 483 501 506 
f 498 505 506 
f 505 482 506 
f 489 499 507 
f 502 489 507 
f 502 507 508 
f 499 485 508 
f 485 500 508 
f 500 492 508 
f 492 502 508 
f 507 499 508 
f 481 490 509 
f 495 481 509 
f 490 496 509 
f 496 495 509 
f 495 486 510 
f 486 498 510 
f 501 495 510 
f 498 506 510 
f 506 501 510 
f 486 495 511 
f 495 496 511 
f 504 486 511 
f 496 504 511 
f 487 492 512 
f 500 487 512 
o convex_16
v 149.151594 317.157839 26.649355
v 114.264694 332.422824 -8.245515
v 114.264694 334.609331 -8.245515
v 114.269818 336.791782 39.740216
v 122.995385 312.805108 17.926812
v 162.242508 295.353616 17.926812
v 140.436274 332.422824 13.567889
v 142.608699 319.336233 0.486423
v 155.699613 299.722574 9.199572
v 160.054711 308.452376 15.747351
v 109.904472 334.609331 26.654053
v 133.903626 336.795838 17.926812
v 153.516940 301.900968 24.469894
v 125.178058 334.609331 37.551360
v 116.447367 336.795838 -6.056659
v 122.995385 312.805108 13.567889
v 114.269818 334.609331 39.740216
v 153.516940 319.344346 15.747351
v 157.877162 306.269926 24.469894
v 157.872038 295.353616 17.926812
v 114.264694 330.244430 -6.056659
v 160.054711 304.079362 11.388427
v 109.904472 336.791782 17.926812
v 118.635163 334.609331 -8.245515
v 138.248477 321.522740 33.192437
v 142.608699 314.987558 0.486423
v 153.516940 319.344346 13.567889
v 120.812712 314.987558 17.926812
v 153.516940 297.544180 13.567889
v 136.070928 332.426880 24.469894
v 136.076052 330.244430 4.840649
v 109.904472 334.609331 17.926812
f 533 540 544 
f 524 516 526 
f 516 524 527 
f 524 519 527 
f 516 523 529 
f 517 525 529 
f 526 516 529 
f 518 522 531 
f 525 518 531 
f 530 513 531 
f 522 530 531 
f 521 518 532 
f 525 517 532 
f 518 525 532 
f 517 528 532 
f 514 521 533 
f 518 521 534 
f 522 518 534 
f 515 514 535 
f 523 516 535 
f 527 515 535 
f 516 527 535 
f 514 515 536 
f 527 519 536 
f 515 527 536 
f 513 526 537 
f 529 525 537 
f 526 529 537 
f 525 531 537 
f 531 513 537 
f 521 514 538 
f 520 534 538 
f 534 521 538 
f 514 536 538 
f 536 520 538 
f 519 530 539 
f 530 522 539 
f 534 520 539 
f 522 534 539 
f 528 517 540 
f 529 523 540 
f 517 529 540 
f 533 528 540 
f 521 532 541 
f 532 528 541 
f 533 521 541 
f 528 533 541 
f 519 524 542 
f 524 526 542 
f 526 513 542 
f 530 519 542 
f 513 530 542 
f 536 519 543 
f 520 536 543 
f 519 539 543 
f 539 520 543 
f 514 533 544 
f 535 514 544 
f 523 535 544 
f 540 523 544 
o convex_17
v -44.960064 378.234644 87.731071
v -16.608275 371.692417 98.635211
v -25.335516 373.873159 103.000966
v -64.594006 360.788704 129.164753
v -55.871463 365.152110 81.182438
v -38.421679 360.792546 120.438367
v -16.608275 369.515517 85.548194
v -55.871463 371.692417 120.443491
v -27.519674 380.415387 81.182438
v -64.594006 360.788704 103.006090
v -40.601141 365.154032 124.804122
v -58.046227 369.513595 85.548194
v -47.139525 378.234644 103.000966
v -16.608275 378.234644 81.182438
v -60.230386 362.971368 133.530508
v -38.421679 380.415387 81.182438
v -40.601141 378.234644 103.000966
v -51.503145 365.152110 81.182438
v -64.594006 362.971368 129.164753
v -29.703833 369.515517 113.894858
v -42.775905 360.792546 126.976751
v -16.608275 369.515517 98.635211
v -38.421679 360.792546 118.260613
v -38.421679 380.415387 94.279704
v -16.608275 373.873159 81.182438
v -60.230386 360.788704 100.823213
v -16.608275 378.234644 83.375564
v -53.687304 371.692417 120.443491
v -64.594006 362.971368 103.006090
v -47.139525 376.053902 81.182438
v -55.871463 371.692417 87.725947
v -62.409847 360.788704 133.530508
f 570 550 576 
f 549 554 556 
f 546 551 558 
f 549 553 558 
f 553 549 560 
f 545 557 560 
f 549 558 562 
f 554 548 563 
f 559 552 563 
f 546 547 564 
f 547 561 564 
f 555 559 565 
f 564 555 565 
f 564 565 566 
f 551 546 566 
f 550 551 566 
f 546 564 566 
f 565 550 566 
f 551 550 567 
f 562 551 567 
f 553 560 568 
f 560 557 568 
f 557 561 568 
f 558 551 569 
f 551 562 569 
f 562 558 569 
f 554 549 570 
f 548 554 570 
f 549 562 570 
f 567 550 570 
f 562 567 570 
f 547 546 571 
f 546 558 571 
f 558 553 571 
f 561 547 571 
f 553 568 571 
f 568 561 571 
f 557 552 572 
f 552 559 572 
f 559 555 572 
f 561 557 572 
f 555 564 572 
f 564 561 572 
f 556 554 573 
f 554 563 573 
f 563 552 573 
f 549 556 574 
f 560 549 574 
f 545 560 574 
f 552 557 575 
f 557 545 575 
f 573 552 575 
f 556 573 575 
f 545 574 575 
f 574 556 575 
f 563 548 576 
f 559 563 576 
f 550 565 576 
f 565 559 576 
f 548 570 576 
o convex_18
v -12.235688 397.868160 41.921386
v 5.199151 380.419230 11.385011
v -12.244228 380.419230 22.295129
v 27.015117 380.419230 35.375315
v 27.015117 397.866452 28.832233
v 27.015117 391.321395 11.385011
v 3.025667 397.868160 22.295129
v 24.828823 380.419230 11.385011
v -16.608275 393.505927 39.739362
v -16.608275 397.868160 35.372326
v 27.015117 397.866452 33.193291
v 11.749492 380.419230 35.375315
v -14.421981 382.603762 28.832233
v 3.021397 384.784878 13.570024
v -12.244228 386.965995 24.477153
v 27.015117 386.964287 35.375315
v -16.608275 395.687043 41.921386
v 27.015117 380.419230 15.752048
v 9.563198 397.868160 22.295129
v 24.828823 391.321395 11.385011
v -12.244228 380.419230 26.653198
v -5.698157 393.505927 24.477153
v 5.199151 382.603762 11.385011
v -12.244228 382.603762 22.295129
v -14.421981 382.603762 26.653198
v 27.015117 382.602054 11.385011
v -16.608275 397.868160 41.921386
v -12.235688 395.687043 41.921386
v 22.646799 397.866452 26.653198
v -14.421981 386.965995 26.653198
v -16.608275 393.505927 35.372326
v -14.421981 391.321395 28.832233
f 591 606 608 
f 579 578 580 
f 581 580 582 
f 580 578 584 
f 578 582 584 
f 577 583 586 
f 580 581 587 
f 579 580 588 
f 588 585 589 
f 577 580 592 
f 587 577 592 
f 580 587 592 
f 586 585 593 
f 585 588 593 
f 582 580 594 
f 580 584 594 
f 582 583 595 
f 583 577 595 
f 577 587 595 
f 587 581 595 
f 582 578 596 
f 583 582 596 
f 579 588 597 
f 588 589 597 
f 589 579 597 
f 586 583 598 
f 583 590 598 
f 590 591 598 
f 590 583 599 
f 596 578 599 
f 583 596 599 
f 578 579 600 
f 591 590 600 
f 599 578 600 
f 590 599 600 
f 589 585 601 
f 579 589 601 
f 600 579 601 
f 584 582 602 
f 582 594 602 
f 594 584 602 
f 577 586 603 
f 593 577 603 
f 586 593 603 
f 580 577 604 
f 588 580 604 
f 577 593 604 
f 593 588 604 
f 581 582 605 
f 595 581 605 
f 582 595 605 
f 591 600 606 
f 600 601 606 
f 606 601 607 
f 585 586 607 
f 601 585 607 
f 586 606 607 
f 586 598 608 
f 598 591 608 
f 606 586 608 
o convex_19
v -3.517841 441.490270 102.982391
v 22.652778 426.224645 68.106309
v 22.652778 424.042622 68.106309
v -12.245936 424.042622 70.283422
v 5.203421 439.310382 126.987000
v 3.023959 437.128358 70.283422
v 9.565760 443.672294 105.173596
v 3.023959 426.224645 55.008403
v -10.063058 424.042622 81.183079
v -3.517841 441.490270 118.257411
v 9.565760 443.672294 120.441569
v 0.844498 445.854318 102.982391
v 22.652778 426.224645 61.553833
v 20.469900 424.042622 74.644694
v -7.880181 430.586558 70.283422
v 18.287022 434.948470 81.183079
v -12.245936 428.406669 76.821807
v 5.203421 424.042622 55.008403
v 3.023959 445.854318 122.618682
v 0.844498 439.310382 126.987000
v 5.203421 445.854318 105.173596
v -12.245936 424.042622 79.013011
v 9.565760 439.310382 120.441569
v 0.844498 437.128358 70.283422
v 18.287022 432.768581 72.467581
v -10.063058 432.768581 92.075689
v -7.880181 432.768581 100.812324
v 22.652778 424.042622 61.553833
v 3.023959 443.672294 126.987000
v -7.880181 424.042622 81.183079
v -12.245936 426.224645 70.283422
v 18.287022 426.224645 59.376720
f 636 626 640 
f 612 611 617 
f 611 610 619 
f 609 618 620 
f 610 611 621 
f 617 611 622 
f 615 619 624 
f 619 610 624 
f 610 621 624 
f 609 620 625 
f 620 623 625 
f 611 612 626 
f 612 616 626 
f 620 618 627 
f 617 613 628 
f 619 615 629 
f 614 620 629 
f 615 624 629 
f 627 619 629 
f 620 627 629 
f 612 617 630 
f 625 612 630 
f 617 628 630 
f 611 619 631 
f 619 613 631 
f 622 611 631 
f 613 622 631 
f 614 616 632 
f 620 614 632 
f 616 623 632 
f 623 620 632 
f 621 614 633 
f 624 621 633 
f 614 629 633 
f 629 624 633 
f 618 609 634 
f 609 625 634 
f 625 630 634 
f 634 630 635 
f 628 618 635 
f 630 628 635 
f 618 634 635 
f 621 611 636 
f 611 626 636 
f 613 619 637 
f 627 618 637 
f 619 627 637 
f 628 613 637 
f 618 628 637 
f 613 617 638 
f 617 622 638 
f 622 613 638 
f 616 612 639 
f 623 616 639 
f 612 625 639 
f 625 623 639 
f 616 614 640 
f 614 621 640 
f 626 616 640 
f 621 636 640 
o convex_20
v 85.900077 413.133785 22.287870
v 48.826813 391.325078 -8.245515
v 48.826813 395.691047 -8.245515
v 48.826813 393.509237 31.015538
v 88.082528 402.234128 -1.700725
v 51.013320 406.590703 11.385011
v 83.721683 415.317943 9.202134
v 90.269035 406.593052 28.832660
v 57.556615 402.234128 31.015538
v 90.269035 408.772513 -1.700725
v 88.082528 402.234128 9.202134
v 59.739066 400.049970 -8.245515
v 64.095854 410.951975 15.743080
v 90.269035 415.317943 17.922115
v 51.013320 391.325078 -3.879760
v 51.013320 393.509237 31.015538
v 48.826813 404.411241 15.743080
v 90.269035 404.411241 22.287870
v 64.095854 404.408893 31.015538
v 88.082528 404.411241 -3.879760
v 66.282361 410.951975 9.202134
v 48.826813 397.870508 31.015538
v 90.269035 408.772513 28.832660
v 72.813486 404.408893 -6.062637
v 57.560672 393.506888 -8.245515
v 85.896020 415.317943 17.922115
v 90.269035 415.317943 9.202134
v 90.269035 404.411241 -1.700725
v 83.721683 413.133785 4.844065
v 85.900077 410.949626 26.649782
v 66.274248 400.052318 31.015538
v 88.082528 404.411241 26.649782
f 656 658 672 
f 643 642 644 
f 642 643 652 
f 643 646 652 
f 648 650 654 
f 644 642 655 
f 645 651 655 
f 655 651 656 
f 649 644 656 
f 644 655 656 
f 643 644 657 
f 646 643 657 
f 653 646 657 
f 649 653 657 
f 650 648 658 
f 656 651 658 
f 653 649 659 
f 649 656 659 
f 652 646 661 
f 653 647 661 
f 646 653 661 
f 644 649 662 
f 657 644 662 
f 649 657 662 
f 648 654 663 
f 650 660 664 
f 660 652 664 
f 642 652 665 
f 655 642 665 
f 645 655 665 
f 660 645 665 
f 652 660 665 
f 647 653 666 
f 641 654 666 
f 654 647 666 
f 659 641 666 
f 653 659 666 
f 647 654 667 
f 654 650 667 
f 651 645 668 
f 650 658 668 
f 658 651 668 
f 645 660 668 
f 660 650 668 
f 652 661 669 
f 661 647 669 
f 650 664 669 
f 664 652 669 
f 647 667 669 
f 667 650 669 
f 654 641 670 
f 641 659 670 
f 663 654 670 
f 659 663 670 
f 656 648 671 
f 659 656 671 
f 648 663 671 
f 663 659 671 
f 648 656 672 
f 658 648 672 
o convex_21
v -10.061564 380.417308 20.098801
v 3.022251 373.873800 52.819334
v 3.022251 369.514663 52.819334
v 3.022251 360.790625 -19.138980
v -16.608275 360.790625 37.549225
v -16.608275 365.153605 -27.868142
v -16.608275 380.417308 52.819334
v 3.022251 380.417308 13.557854
v 3.022251 360.790625 31.008278
v -16.608275 360.790625 -27.868142
v -16.608275 373.873800 -8.245301
v -16.608275 367.334134 50.639018
v 3.022251 380.417308 35.368910
v 3.022251 362.973075 -19.138980
v -7.882529 365.153605 48.458703
v -14.425397 365.153605 -27.868142
v -12.242520 380.417308 52.819334
v -14.425397 371.693271 -14.778348
v -12.242520 380.417308 22.287016
v 3.022251 376.054329 50.639018
v -3.524460 360.790625 35.368910
v 3.022251 365.153605 44.090172
v -16.608275 376.054329 52.819334
v -3.524460 380.417308 15.738170
v -14.425397 360.790625 -27.868142
v -3.524460 380.417308 44.090172
v -16.608275 380.417308 50.639018
v -10.061564 360.790625 37.549225
v 0.839374 376.054329 52.819334
v -1.343504 365.153605 46.270487
v -5.703495 371.693271 52.819334
v 0.839374 380.417308 13.557854
f 683 696 704 
f 674 675 676 
f 678 677 679 
f 675 674 679 
f 674 676 680 
f 673 679 680 
f 676 675 681 
f 677 676 681 
f 676 677 682 
f 677 678 682 
f 678 679 683 
f 679 677 684 
f 674 680 685 
f 680 679 685 
f 680 676 686 
f 675 684 687 
f 684 677 687 
f 682 678 688 
f 686 676 688 
f 680 686 688 
f 679 674 689 
f 685 679 689 
f 678 683 690 
f 683 680 690 
f 688 678 690 
f 680 688 690 
f 679 673 691 
f 673 683 691 
f 674 685 692 
f 677 681 693 
f 681 675 694 
f 693 681 694 
f 675 679 695 
f 679 684 695 
f 673 680 696 
f 683 673 696 
f 676 682 697 
f 688 676 697 
f 682 688 697 
f 685 689 698 
f 692 685 698 
f 689 692 698 
f 683 679 699 
f 679 691 699 
f 691 683 699 
f 687 677 700 
f 677 693 700 
f 693 687 700 
f 689 674 701 
f 674 692 701 
f 692 689 701 
f 675 687 702 
f 687 693 702 
f 693 694 702 
f 694 675 702 
f 684 675 703 
f 675 695 703 
f 695 684 703 
f 680 683 704 
f 696 680 704 
o convex_22
v 13.928099 400.047814 76.820099
v 44.464473 386.967158 146.611450
v 40.097437 393.509620 146.611450
v 44.464473 395.686883 83.373313
v 29.196286 406.590276 102.995592
v 13.928099 391.325953 111.723247
v 29.196286 391.325953 76.820099
v 29.199275 384.783491 144.429537
v 13.928099 395.686883 113.905161
v 44.464473 391.325953 79.002013
v 24.835228 404.408744 76.820099
v 35.733390 402.227211 126.989171
v 42.282450 384.783491 133.527440
v 44.464473 395.686883 120.443430
v 33.551366 397.866281 137.891268
v 13.928099 395.686883 76.820099
v 27.017252 406.590276 102.995592
v 20.474170 391.325953 87.729668
v 37.915414 384.783491 153.157192
v 40.094448 400.047814 92.093495
v 29.199275 384.783491 137.891268
v 31.369343 402.227211 126.989171
v 18.295135 402.229346 100.813678
v 27.020241 389.146555 140.065709
v 37.918403 397.868416 76.820099
v 44.464473 384.783491 146.611450
v 37.915414 386.967158 153.157192
v 13.928099 391.325953 105.177506
v 40.097437 400.045679 120.443430
v 33.557344 404.408744 96.449851
v 42.282450 391.325953 76.820099
v 37.915414 397.866281 140.065709
f 718 733 736 
f 705 710 713 
f 710 712 713 
f 708 706 714 
f 711 705 715 
f 707 706 718 
f 706 708 718 
f 710 705 720 
f 705 711 720 
f 715 705 721 
f 709 715 721 
f 716 709 721 
f 720 711 722 
f 712 717 723 
f 712 710 725 
f 717 712 725 
f 711 717 725 
f 722 711 725 
f 713 719 726 
f 716 721 726 
f 726 721 727 
f 705 713 727 
f 721 705 727 
f 713 726 727 
f 713 712 728 
f 719 713 728 
f 708 714 729 
f 711 715 729 
f 724 708 729 
f 714 706 730 
f 717 714 730 
f 706 723 730 
f 723 717 730 
f 706 707 731 
f 707 719 731 
f 723 706 731 
f 712 723 731 
f 728 712 731 
f 719 728 731 
f 710 720 732 
f 720 722 732 
f 725 710 732 
f 722 725 732 
f 709 716 733 
f 718 708 733 
f 708 724 733 
f 733 724 734 
f 715 709 734 
f 729 715 734 
f 724 729 734 
f 709 733 734 
f 717 711 735 
f 714 717 735 
f 729 714 735 
f 711 729 735 
f 707 718 736 
f 719 707 736 
f 726 719 736 
f 716 726 736 
f 733 716 736 
o convex_23
v 16.109696 382.603233 -8.245515
v 48.826813 397.865423 31.014257
v 46.641800 397.865423 31.014257
v 35.738514 380.419230 33.196707
v 48.826813 382.603233 -8.245515
v 48.826813 404.410387 11.388427
v 11.746930 382.603233 7.019470
v 27.016611 391.325156 -8.245515
v 27.016611 384.787236 33.196707
v 33.557131 397.865423 13.566821
v 48.826813 393.504462 -8.245515
v 16.109696 380.419230 -8.245515
v 48.826813 393.506810 31.014257
v 40.101280 380.419230 -1.698163
v 27.016611 380.419230 33.196707
v 20.472462 389.145849 -3.876557
v 46.641800 404.410387 11.388427
v 11.746930 380.419230 7.019470
v 48.826813 382.603233 -3.876557
v 44.464046 395.686117 -6.059008
v 27.016611 393.502114 13.566821
v 42.282663 397.865423 26.649355
v 46.641800 404.410387 13.566821
v 11.746930 382.603233 2.662682
v 24.835228 391.325156 -6.059008
v 33.549872 397.865423 9.201920
v 13.931942 384.784888 4.841076
v 40.101280 395.683768 28.831806
v 18.298338 386.964194 11.388427
v 31.372118 380.419230 -6.059008
v 44.464046 402.228733 7.019470
v 48.826813 395.686117 -6.059008
f 767 742 768 
f 738 741 742 
f 741 737 744 
f 738 739 745 
f 740 738 745 
f 742 741 747 
f 741 744 747 
f 737 741 748 
f 738 740 749 
f 741 738 749 
f 740 748 750 
f 740 745 751 
f 745 743 751 
f 748 740 751 
f 751 743 754 
f 748 751 754 
f 749 740 755 
f 741 749 755 
f 740 750 755 
f 750 741 755 
f 747 744 756 
f 739 738 759 
f 738 742 759 
f 742 753 759 
f 758 739 759 
f 746 758 759 
f 737 748 760 
f 752 737 760 
f 754 743 760 
f 748 754 760 
f 744 737 761 
f 737 752 761 
f 753 744 761 
f 753 761 762 
f 746 759 762 
f 759 753 762 
f 761 752 762 
f 743 757 763 
f 757 746 763 
f 752 760 763 
f 760 743 763 
f 746 762 763 
f 762 752 763 
f 745 739 764 
f 757 745 764 
f 746 757 764 
f 739 758 764 
f 758 746 764 
f 743 745 765 
f 757 743 765 
f 745 757 765 
f 748 741 766 
f 741 750 766 
f 750 748 766 
f 753 742 767 
f 744 753 767 
f 756 744 767 
f 756 767 768 
f 742 747 768 
f 747 756 768 
o convex_24
v 27.019173 345.520517 -64.955924
v 48.826813 358.604972 48.464894
v 40.100426 358.604972 48.464894
v 20.471608 365.147200 -23.500038
v 20.471608 354.245408 37.540258
v 46.642440 345.520517 -34.402470
v 48.826813 365.147200 15.724292
v 48.826813 345.524359 17.922542
v 20.471608 365.147200 17.911440
v 31.376815 352.068508 -58.405583
v 22.653205 345.520517 -54.042390
v 31.379591 365.147200 -23.500038
v 20.471608 349.887766 7.020110
v 40.100426 354.245408 48.464894
v 44.463619 345.524359 17.922542
v 42.282023 347.705102 -45.316004
v 22.653205 347.703180 -62.768777
v 48.826813 354.245408 -10.421560
v 24.834801 358.604972 39.727406
v 33.561188 345.520517 -64.955924
v 48.826813 354.245408 48.464894
v 24.837577 360.787636 -38.776765
v 24.834801 354.245408 41.903451
v 20.471608 360.785715 -30.039276
v 46.642440 360.785715 39.727406
v 48.826813 362.966457 9.185053
v 33.561188 347.703180 -64.955924
v 22.653205 352.068508 -56.218436
v 46.642440 347.705102 -34.402470
v 48.826813 349.885844 -12.597606
v 48.826813 365.147200 17.911440
v 22.653205 345.520517 -62.768777
f 792 785 800 
f 775 770 776 
f 772 773 777 
f 775 772 777 
f 769 774 779 
f 772 775 780 
f 773 772 781 
f 770 771 782 
f 776 782 783 
f 774 776 783 
f 779 774 783 
f 773 781 783 
f 781 779 783 
f 775 776 786 
f 771 777 787 
f 777 773 787 
f 774 769 788 
f 784 774 788 
f 776 770 789 
f 770 782 789 
f 782 776 789 
f 772 780 790 
f 780 778 790 
f 782 771 791 
f 783 782 791 
f 773 783 791 
f 771 787 791 
f 787 773 791 
f 781 772 792 
f 772 785 792 
f 771 770 793 
f 777 771 793 
f 780 775 794 
f 778 780 794 
f 775 786 794 
f 769 785 795 
f 785 778 795 
f 788 769 795 
f 784 788 795 
f 778 794 795 
f 794 784 795 
f 778 785 796 
f 785 772 796 
f 772 790 796 
f 790 778 796 
f 774 784 797 
f 784 794 797 
f 794 786 797 
f 776 774 798 
f 786 776 798 
f 774 797 798 
f 797 786 798 
f 770 775 799 
f 775 777 799 
f 793 770 799 
f 777 793 799 
f 769 779 800 
f 779 781 800 
f 785 769 800 
f 781 792 800 
o convex_25
v 35.739795 365.151043 9.203842
v 68.457339 369.515090 -49.680905
v 68.457339 367.333920 -49.680905
v 35.739795 376.055183 -43.140812
v 64.092224 382.600400 -43.140812
v 35.739795 380.419230 -21.326554
v 51.009690 369.515090 -6.070324
v 61.908066 367.333920 -51.868907
v 48.828734 380.415814 -49.680905
v 35.739795 369.516798 -23.508578
v 37.923954 378.236352 -12.616394
v 35.739795 380.419230 -43.140812
v 48.828734 365.151043 -3.888300
v 35.739795 365.151043 -1.712254
v 64.092224 380.417522 -49.680905
v 42.285866 369.516798 2.645815
v 61.908066 371.697968 -30.054649
v 51.012893 382.596983 -43.140812
v 55.374805 371.697968 -51.868907
v 37.923954 367.333920 9.203842
v 59.727109 367.333920 -25.702558
v 68.457339 369.515090 -51.868907
v 64.092224 382.600400 -47.498881
v 35.739795 367.333920 9.203842
v 48.828734 365.151043 -8.258325
v 64.092224 373.875721 -51.868907
v 44.463619 365.151043 2.645815
v 40.104910 380.419230 -21.326554
v 35.739795 378.236352 -12.616394
v 53.187444 367.333920 -10.428393
v 42.285866 371.697968 -1.712254
v 51.012893 382.596983 -40.958789
f 806 828 832 
f 804 801 806 
f 801 804 810 
f 804 808 810 
f 804 806 812 
f 809 804 812 
f 801 810 814 
f 810 808 814 
f 813 801 814 
f 807 805 816 
f 803 802 817 
f 802 805 817 
f 805 807 817 
f 812 806 818 
f 809 812 818 
f 808 804 819 
f 804 809 819 
f 807 816 820 
f 813 803 821 
f 803 817 821 
f 802 803 822 
f 805 802 822 
f 803 808 822 
f 808 819 822 
f 815 809 823 
f 818 805 823 
f 809 818 823 
f 805 822 823 
f 822 815 823 
f 806 801 824 
f 801 820 824 
f 820 811 824 
f 808 803 825 
f 803 813 825 
f 814 808 825 
f 813 814 825 
f 809 815 826 
f 819 809 826 
f 815 822 826 
f 822 819 826 
f 801 813 827 
f 813 807 827 
f 820 801 827 
f 807 820 827 
f 806 811 828 
f 811 805 828 
f 811 806 829 
f 806 824 829 
f 824 811 829 
f 807 813 830 
f 817 807 830 
f 813 821 830 
f 821 817 830 
f 805 811 831 
f 816 805 831 
f 811 820 831 
f 820 816 831 
f 805 818 832 
f 818 806 832 
f 828 805 832 
o convex_26
v 112.082866 317.169297 15.747351
v 64.101832 347.698484 17.928520
v 64.101832 347.698484 15.747351
v 51.018017 343.336714 17.928520
v 120.805409 319.350182 17.928520
v 120.805409 321.527865 13.566181
v 81.546919 330.254607 13.566181
v 75.008534 341.155829 13.566181
v 48.826813 347.698484 15.747351
v 118.621250 314.985210 17.928520
v 120.805409 314.985210 13.566181
v 79.362760 341.155829 17.928520
v 79.362760 341.155829 13.566181
v 55.379289 341.155829 15.747351
v 120.805409 321.527865 15.747351
v 48.826813 347.698484 17.928520
v 112.082866 317.169297 13.566181
v 70.647262 334.613174 17.928520
v 48.826813 345.514396 15.747351
v 114.252933 323.708749 17.928520
v 85.901145 328.076924 13.566181
v 75.008534 336.794059 13.566181
v 120.805409 314.985210 17.928520
v 118.621250 314.985210 13.566181
v 51.018017 343.336714 15.747351
v 48.826813 345.514396 17.928520
v 55.379289 341.155829 17.928520
v 85.901145 328.076924 15.747351
v 109.898707 325.892837 17.928520
v 79.362760 332.432289 13.566181
v 105.530390 328.076924 17.928520
v 70.647262 334.613174 15.747351
f 853 850 864 
f 834 836 837 
f 838 839 840 
f 834 835 841 
f 835 840 841 
f 837 836 842 
f 838 837 843 
f 839 838 843 
f 835 834 844 
f 834 837 844 
f 844 838 845 
f 840 835 845 
f 838 840 845 
f 835 844 845 
f 837 838 847 
f 838 844 847 
f 836 834 848 
f 834 841 848 
f 842 833 849 
f 839 843 849 
f 833 842 850 
f 842 836 850 
f 841 840 851 
f 848 841 851 
f 844 837 852 
f 837 847 852 
f 849 833 853 
f 839 849 853 
f 840 839 854 
f 851 840 854 
f 837 842 855 
f 843 837 855 
f 842 843 855 
f 843 842 856 
f 842 849 856 
f 849 843 856 
f 846 836 857 
f 851 839 857 
f 839 853 857 
f 853 846 857 
f 836 848 858 
f 848 851 858 
f 857 836 858 
f 851 857 858 
f 836 846 859 
f 846 850 859 
f 850 836 859 
f 833 850 860 
f 853 833 860 
f 850 853 860 
f 844 852 861 
f 852 847 861 
f 839 851 862 
f 854 839 862 
f 851 854 862 
f 847 844 863 
f 844 861 863 
f 861 847 863 
f 850 846 864 
f 846 853 864 
o convex_27
v 22.653632 380.419230 31.004435
v 33.557771 365.151043 -30.046963
v 35.739795 365.151043 -30.046963
v 35.739795 380.419230 -38.763101
v 20.471608 378.237206 -43.136542
v 20.471608 365.151043 15.739664
v 35.739795 378.235712 35.370191
v 35.739795 365.151043 9.198718
v 20.471608 365.151043 -8.241245
v 20.471608 380.419230 28.829244
v 20.471608 373.876148 -43.136542
v 35.739795 380.419230 35.370191
v 35.739795 376.055183 -43.136542
v 20.471608 380.419230 -21.315452
v 31.377242 378.235712 35.370191
v 22.653632 378.235712 31.004435
v 29.195219 373.876148 -43.136542
v 22.653632 365.151043 15.739664
v 31.377242 365.151043 -27.864085
v 35.739795 378.237206 -43.136542
v 33.557771 380.419230 -38.763101
v 20.471608 378.235712 28.829244
v 22.653632 365.151043 -12.607000
v 31.377242 380.419230 35.370191
v 20.471608 369.515090 20.105420
f 880 886 889 
f 866 867 870 
f 867 868 871 
f 870 867 872 
f 867 871 872 
f 866 870 873 
f 870 869 873 
f 865 868 874 
f 869 870 874 
f 867 866 875 
f 873 869 875 
f 868 865 876 
f 871 868 876 
f 868 867 877 
f 875 869 877 
f 874 868 878 
f 869 874 878 
f 870 871 879 
f 871 876 879 
f 865 874 880 
f 879 865 880 
f 870 879 880 
f 867 875 881 
f 877 867 881 
f 875 877 881 
f 871 870 882 
f 870 872 882 
f 872 871 882 
f 866 873 883 
f 875 866 883 
f 869 868 884 
f 868 877 884 
f 877 869 884 
f 868 869 885 
f 878 868 885 
f 869 878 885 
f 874 870 886 
f 880 874 886 
f 873 875 887 
f 883 873 887 
f 875 883 887 
f 876 865 888 
f 865 879 888 
f 879 876 888 
f 870 880 889 
f 886 870 889 
o convex_28
v 129.530088 413.135920 15.742440
v 90.269035 404.413804 -1.702006
v 90.269035 404.413804 20.105633
v 142.617105 400.049756 15.742440
v 90.269035 415.317943 9.214304
v 103.356052 408.776356 26.653198
v 122.986579 408.771873 4.842784
v 92.451912 415.317943 17.926812
v 90.269035 406.595827 26.653198
v 138.251350 402.231780 20.105633
v 109.904685 415.317943 9.205977
v 96.812544 408.774862 -1.702006
v 136.068472 402.231780 9.205977
v 140.429103 406.595827 11.390349
v 127.347210 408.771873 22.287230
v 109.904685 415.317943 17.926812
v 142.617105 404.413804 17.926812
v 122.986579 413.135920 9.205977
v 109.904685 413.135920 22.287230
v 138.251350 400.049756 13.563619
v 96.812544 404.413804 -1.702006
v 90.269035 408.776356 26.653198
v 120.803701 415.317943 15.742440
v 90.269035 408.774862 -1.702006
v 127.347210 413.135920 17.926812
v 103.356052 406.595827 26.653198
v 142.617105 400.049756 13.563619
v 107.721808 408.774862 0.482366
v 138.251350 400.049756 15.742440
v 122.986579 404.413804 4.842784
v 127.347210 413.135920 11.390349
v 138.251350 408.771873 15.742440
f 914 906 921 
f 891 892 894 
f 894 892 898 
f 894 897 900 
f 902 896 903 
f 900 897 905 
f 899 893 906 
f 904 899 906 
f 903 896 907 
f 895 904 908 
f 905 897 908 
f 892 891 909 
f 891 901 910 
f 909 891 910 
f 897 894 911 
f 898 895 911 
f 894 898 911 
f 895 908 911 
f 908 897 911 
f 900 905 912 
f 905 908 912 
f 891 894 913 
f 894 900 913 
f 901 891 913 
f 900 901 913 
f 904 906 914 
f 908 904 914 
f 890 912 914 
f 912 908 914 
f 895 898 915 
f 898 899 915 
f 904 895 915 
f 899 904 915 
f 902 903 916 
f 906 893 916 
f 903 906 916 
f 893 909 916 
f 910 902 916 
f 909 910 916 
f 901 900 917 
f 900 907 917 
f 907 896 917 
f 910 901 917 
f 898 892 918 
f 893 899 918 
f 899 898 918 
f 892 909 918 
f 909 893 918 
f 896 902 919 
f 902 910 919 
f 917 896 919 
f 910 917 919 
f 890 903 920 
f 907 900 920 
f 903 907 920 
f 900 912 920 
f 912 890 920 
f 903 890 921 
f 906 903 921 
f 890 914 921 
o convex_29
v 11.753346 334.612321 -71.490893
v 48.824891 343.334651 -36.605844
v 48.824891 341.153482 -36.605844
v 37.921257 323.715865 -95.492299
v 33.560614 345.513473 -69.311431
v 44.460192 321.537044 -69.311431
v 7.384590 343.332303 -51.882571
v 18.292281 321.537044 -80.215571
v 44.460192 343.334651 -25.694872
v 7.384590 345.513473 -60.593585
v 48.820835 330.257026 -67.138802
v 46.642542 345.520517 -25.694872
v 18.292281 323.715865 -86.760788
v 22.652924 341.153482 -73.670354
v 37.921257 321.537044 -95.492299
v 35.738907 341.151134 -75.849816
v 48.824891 343.334651 -43.151061
v 48.820835 325.897035 -62.779879
v 46.638485 321.537044 -78.036110
v 11.753346 338.972312 -71.490893
v 33.560614 325.897035 -93.292341
v 7.384590 345.513473 -51.882571
v 18.292281 323.715865 -75.849816
v 44.460192 345.520517 -47.509984
v 46.642542 343.334651 -25.694872
v 7.384590 341.151134 -60.593585
v 18.292281 321.537044 -86.760788
v 33.560614 334.609973 -84.581327
v 37.921257 321.537044 -71.504557
v 37.921257 338.969965 -75.849816
v 29.195916 345.513473 -69.311431
v 48.820835 334.609973 -60.593585
f 951 938 953 
f 924 923 933 
f 927 929 936 
f 934 925 936 
f 923 924 938 
f 933 923 938 
f 938 924 939 
f 932 938 939 
f 925 932 940 
f 927 936 940 
f 936 925 940 
f 939 927 940 
f 932 939 940 
f 934 922 941 
f 931 935 941 
f 925 934 942 
f 934 941 942 
f 928 930 943 
f 931 928 943 
f 930 933 943 
f 928 929 944 
f 930 928 944 
f 937 926 945 
f 933 938 945 
f 938 937 945 
f 931 943 945 
f 943 933 945 
f 930 927 946 
f 924 933 946 
f 933 930 946 
f 939 924 946 
f 927 939 946 
f 929 928 947 
f 928 931 947 
f 941 922 947 
f 931 941 947 
f 922 934 948 
f 936 929 948 
f 934 936 948 
f 929 947 948 
f 947 922 948 
f 937 925 949 
f 941 935 949 
f 942 941 949 
f 925 942 949 
f 929 927 950 
f 927 930 950 
f 944 929 950 
f 930 944 950 
f 932 925 951 
f 925 937 951 
f 937 938 951 
f 935 931 952 
f 926 937 952 
f 945 926 952 
f 931 945 952 
f 937 949 952 
f 949 935 952 
f 938 932 953 
f 932 951 953 
o convex_30
v 31.378310 288.821055 -106.394517
v 46.645643 321.523503 -71.503063
v 29.195432 332.425813 -75.869031
v 27.015117 306.268338 -73.687862
v 37.921819 317.157199 -99.851009
v 20.471608 319.335868 -91.119072
v 40.102134 288.816572 -104.209719
v 20.471608 332.425813 -73.687862
v 46.645643 321.523503 -80.227741
v 37.921819 299.718882 -108.579316
v 29.195432 332.425813 -82.412540
v 35.738941 286.633420 -102.024920
v 46.645643 317.157199 -73.687862
v 44.462765 306.259372 -95.485040
v 20.471608 317.157199 -84.597339
v 33.558625 310.616710 -104.209719
v 29.195432 297.540213 -106.394517
v 29.195432 310.616710 -71.503063
v 20.471608 332.425813 -80.227741
v 24.834801 308.451489 -73.687862
v 29.195432 304.089669 -75.869031
v 37.921819 321.523503 -95.485040
v 37.921819 286.633420 -108.579316
v 27.015117 301.906517 -80.227741
v 29.195432 293.182876 -106.394517
v 44.462765 301.902034 -91.126330
v 33.558625 321.523503 -95.485040
v 46.645643 317.157199 -84.593709
v 42.282450 295.357062 -102.028549
v 33.558625 286.633420 -102.024920
v 20.471608 325.880841 -86.778508
v 40.102134 290.999724 -99.851009
f 979 966 985 
f 955 956 961 
f 956 955 962 
f 961 956 964 
f 956 962 964 
f 962 955 966 
f 963 958 967 
f 961 959 968 
f 958 963 969 
f 959 969 970 
f 969 963 970 
f 955 961 971 
f 966 955 971 
f 959 961 972 
f 961 964 972 
f 961 968 973 
f 971 961 973 
f 957 971 973 
f 971 957 974 
f 966 971 974 
f 962 958 975 
f 964 962 975 
f 960 965 976 
f 970 963 976 
f 957 973 977 
f 973 968 977 
f 974 957 977 
f 968 959 978 
f 959 970 978 
f 976 954 978 
f 970 976 978 
f 954 977 978 
f 977 968 978 
f 958 969 980 
f 972 964 980 
f 975 958 980 
f 964 975 980 
f 958 962 981 
f 962 966 981 
f 967 958 981 
f 966 979 981 
f 979 967 981 
f 963 967 982 
f 960 976 982 
f 976 963 982 
f 979 960 982 
f 967 979 982 
f 965 974 983 
f 954 976 983 
f 976 965 983 
f 977 954 983 
f 974 977 983 
f 969 959 984 
f 959 972 984 
f 980 969 984 
f 972 980 984 
f 965 960 985 
f 974 965 985 
f 966 974 985 
f 960 979 985 
o convex_31
v 11.753121 395.684855 46.284579
v 42.283304 393.507102 76.820099
v 40.099145 395.684855 76.820099
v 13.930875 395.684855 76.820099
v 35.737233 380.419230 33.196707
v 27.019814 402.230926 70.269758
v 9.565760 384.785412 37.565025
v 40.099145 389.145189 74.633805
v 40.099145 389.145189 46.280309
v 18.292787 391.325078 35.383001
v 18.295989 402.230926 76.820099
v 27.010206 380.419230 37.560754
v 40.099145 382.603389 46.280309
v 20.476946 400.048902 57.190427
v 9.565760 395.684855 52.830650
v 9.565760 391.325078 35.383001
v 37.914987 384.785412 35.383001
v 42.283304 393.507102 65.909981
v 29.194365 393.502831 46.280309
v 9.565760 386.965301 46.284579
v 31.372118 391.325078 76.820099
v 18.295989 402.230926 68.092005
v 13.930875 400.048902 76.820099
v 27.010206 380.419230 33.196707
v 42.283304 386.963166 55.008403
v 37.914987 380.419230 39.747048
v 42.283304 389.145189 74.633805
v 27.019814 402.230926 76.820099
v 18.292787 395.684855 44.102555
v 33.553074 384.785412 33.196707
v 40.099145 395.684855 68.092005
v 9.565760 384.785412 35.383001
f 1001 1009 1017 
f 987 988 989 
f 989 988 996 
f 1000 986 1001 
f 992 1000 1001 
f 988 987 1003 
f 991 994 1004 
f 999 991 1004 
f 994 1002 1004 
f 1002 995 1004 
f 992 997 1005 
f 1000 992 1005 
f 989 1000 1005 
f 987 989 1006 
f 997 993 1006 
f 989 1005 1006 
f 1005 997 1006 
f 996 991 1007 
f 991 999 1007 
f 999 986 1007 
f 986 1000 1007 
f 1007 1000 1008 
f 989 996 1008 
f 1000 989 1008 
f 996 1007 1008 
f 990 997 1009 
f 1002 994 1010 
f 998 1002 1010 
f 1003 987 1010 
f 994 1003 1010 
f 997 990 1011 
f 993 997 1011 
f 990 1002 1011 
f 1002 998 1011 
f 987 1006 1012 
f 1006 993 1012 
f 1010 987 1012 
f 998 1010 1012 
f 993 1011 1012 
f 1011 998 1012 
f 988 991 1013 
f 996 988 1013 
f 991 996 1013 
f 986 999 1014 
f 995 1001 1014 
f 1001 986 1014 
f 999 1004 1014 
f 1004 995 1014 
f 1001 995 1015 
f 995 1002 1015 
f 1002 990 1015 
f 990 1009 1015 
f 1009 1001 1015 
f 991 988 1016 
f 994 991 1016 
f 988 1003 1016 
f 1003 994 1016 
f 997 992 1017 
f 992 1001 1017 
f 1009 997 1017 
o convex_32
v 16.110123 352.064025 -10.427752
v 27.014263 306.259464 -73.680603
v 29.196286 306.259464 -73.680603
v 16.110123 345.517954 7.022672
v 22.651710 352.064025 -30.058492
v 22.651710 317.168087 -73.680603
v 29.196286 323.705191 -58.410494
v 13.928099 343.334436 2.654141
v 18.292146 343.334436 2.654141
v 29.196286 317.168087 -73.680603
v 18.292146 352.064025 -27.878176
v 24.833734 308.447466 -67.123857
v 22.651710 352.064025 -23.517545
v 16.110123 349.876024 -19.156914
v 18.292146 328.076711 -38.779754
v 27.014263 314.993536 -54.049863
v 13.928099 345.513471 -3.886805
v 29.196286 319.351606 -58.410494
v 18.292146 347.696989 2.654141
v 13.928099 347.696989 7.022672
v 22.651710 349.876024 -21.337230
v 22.651710 314.993536 -73.680603
v 18.292146 352.064025 -10.427752
v 20.471181 352.064025 -30.058492
v 27.014263 319.351606 -71.492387
v 29.196286 306.259464 -71.492387
v 27.014263 332.425813 -45.320701
v 20.472675 321.535124 -40.960070
v 16.110123 352.064025 -16.976599
v 29.196286 323.705191 -60.590810
v 13.928099 343.334436 -3.886805
v 16.110123 347.696989 7.022672
f 1040 1037 1049 
f 1020 1019 1023 
f 1020 1023 1027 
f 1024 1020 1027 
f 1018 1022 1028 
f 1022 1018 1030 
f 1024 1022 1030 
f 1028 1023 1031 
f 1031 1023 1034 
f 1020 1024 1035 
f 1026 1033 1035 
f 1021 1026 1036 
f 1025 1021 1037 
f 1034 1025 1037 
f 1030 1036 1038 
f 1023 1019 1039 
f 1019 1029 1039 
f 1029 1032 1039 
f 1034 1023 1039 
f 1030 1018 1040 
f 1036 1030 1040 
f 1018 1037 1040 
f 1028 1022 1041 
f 1023 1028 1041 
f 1027 1023 1042 
f 1022 1027 1042 
f 1023 1041 1042 
f 1041 1022 1042 
f 1019 1020 1043 
f 1021 1025 1043 
f 1026 1021 1043 
f 1029 1019 1043 
f 1025 1029 1043 
f 1033 1026 1043 
f 1020 1035 1043 
f 1035 1033 1043 
f 1024 1030 1044 
f 1035 1024 1044 
f 1026 1035 1044 
f 1036 1026 1044 
f 1030 1038 1044 
f 1038 1036 1044 
f 1029 1025 1045 
f 1032 1029 1045 
f 1025 1032 1045 
f 1018 1028 1046 
f 1028 1031 1046 
f 1031 1034 1046 
f 1037 1018 1046 
f 1034 1037 1046 
f 1022 1024 1047 
f 1027 1022 1047 
f 1024 1027 1047 
f 1032 1025 1048 
f 1025 1034 1048 
f 1039 1032 1048 
f 1034 1039 1048 
f 1021 1036 1049 
f 1037 1021 1049 
f 1036 1040 1049 
o convex_33
v -7.883597 386.962739 50.652042
v 13.925964 395.685709 109.537643
v 13.925964 393.502831 109.537643
v 9.564479 380.420938 26.653198
v 13.925964 397.866879 57.199394
v -7.883597 380.419230 50.652042
v -1.338167 393.502831 79.007674
v 5.200859 384.783277 26.653198
v 13.925964 391.321662 107.355192
v 7.382669 397.866879 74.642773
v -7.883597 380.419230 37.565452
v 13.925964 391.321662 52.834493
v 9.564479 380.420938 33.200550
v 7.382669 393.504539 46.287141
v 0.845778 389.145616 83.348235
v 11.744154 397.866879 100.799727
v 9.564479 386.962739 28.843762
v 11.744154 395.685709 109.537643
v -1.338167 391.321662 52.834493
v -7.883597 382.602108 37.565452
v 11.744154 391.321662 107.355192
v -5.699652 386.964447 65.921083
v 5.200859 389.143908 35.383001
v -1.338167 380.419230 46.287141
v 11.744154 397.866879 57.199394
v 3.021184 380.420938 26.653198
v -5.699652 389.145616 52.834493
v 5.198724 395.685709 94.260489
v 13.925964 397.866879 100.799727
v -7.879327 386.964447 57.199394
v 7.382669 389.143908 33.200550
v -1.338167 393.502831 72.460322
f 1068 1076 1081 
f 1051 1052 1054 
f 1054 1052 1058 
f 1055 1050 1060 
f 1058 1053 1061 
f 1054 1058 1061 
f 1053 1058 1062 
f 1054 1059 1065 
f 1053 1057 1066 
f 1061 1053 1066 
f 1054 1061 1066 
f 1052 1051 1067 
f 1056 1064 1067 
f 1051 1065 1067 
f 1060 1050 1069 
f 1058 1052 1070 
f 1055 1058 1070 
f 1064 1055 1070 
f 1052 1067 1070 
f 1067 1064 1070 
f 1064 1056 1071 
f 1055 1064 1071 
f 1068 1063 1072 
f 1057 1069 1072 
f 1058 1055 1073 
f 1055 1060 1073 
f 1060 1053 1073 
f 1053 1062 1073 
f 1062 1058 1073 
f 1059 1054 1074 
f 1068 1059 1074 
f 1063 1068 1074 
f 1057 1053 1075 
f 1053 1060 1075 
f 1060 1069 1075 
f 1069 1057 1075 
f 1050 1056 1076 
f 1069 1050 1076 
f 1068 1072 1076 
f 1072 1069 1076 
f 1059 1056 1077 
f 1065 1059 1077 
f 1056 1067 1077 
f 1067 1065 1077 
f 1051 1054 1078 
f 1065 1051 1078 
f 1054 1065 1078 
f 1050 1055 1079 
f 1056 1050 1079 
f 1055 1071 1079 
f 1071 1056 1079 
f 1066 1057 1080 
f 1054 1066 1080 
f 1057 1072 1080 
f 1072 1063 1080 
f 1074 1054 1080 
f 1063 1074 1080 
f 1056 1059 1081 
f 1059 1068 1081 
f 1076 1056 1081 
o convex_34
v -14.426679 373.875721 57.191281
v 11.746930 371.695406 57.191281
v 11.746930 367.332212 57.191281
v -14.426679 369.513809 96.450625
v -14.426679 380.419230 61.555328
v -10.060710 376.056037 85.536237
v -16.608275 380.419230 52.827234
v 7.380961 367.332212 52.827234
v -16.608275 369.513809 85.536237
v -16.608275 378.237633 81.180730
v -1.342650 373.875721 78.998707
v 7.380961 373.875721 52.827234
v -16.608275 376.056037 52.827234
v -12.242306 373.875721 94.268602
v 5.202140 373.875721 63.737352
v -16.608275 371.695406 96.450625
v -12.242306 380.419230 52.827234
v 11.746930 371.695406 52.827234
v -14.426679 378.237633 81.180730
v -5.697517 371.695406 85.536237
v -16.608275 369.513809 96.450625
v 0.838947 376.056037 57.191281
v -12.242306 373.875721 52.827234
v 11.746930 367.332212 52.827234
v -16.608275 373.875721 94.268602
v 9.565333 369.513809 61.555328
v 7.380961 367.332212 59.373304
v 7.380961 373.875721 57.191281
v -16.608275 380.419230 61.555328
v -3.515920 369.513809 81.180730
v -7.879113 376.056037 81.180730
v -12.242306 380.419230 55.009257
f 1103 1109 1113 
f 1088 1090 1091 
f 1089 1088 1093 
f 1088 1089 1094 
f 1082 1090 1094 
f 1090 1088 1094 
f 1092 1087 1095 
f 1092 1083 1096 
f 1091 1090 1097 
f 1085 1095 1097 
f 1088 1086 1098 
f 1093 1088 1098 
f 1083 1084 1099 
f 1093 1083 1099 
f 1089 1093 1099 
f 1086 1091 1100 
f 1095 1087 1100 
f 1091 1095 1100 
f 1095 1085 1101 
f 1092 1095 1101 
f 1090 1089 1102 
f 1085 1097 1102 
f 1097 1090 1102 
f 1086 1100 1103 
f 1100 1096 1103 
f 1090 1082 1104 
f 1089 1090 1104 
f 1082 1094 1104 
f 1094 1089 1104 
f 1084 1089 1105 
f 1099 1084 1105 
f 1089 1099 1105 
f 1095 1091 1106 
f 1091 1097 1106 
f 1097 1095 1106 
f 1084 1083 1107 
f 1083 1092 1107 
f 1092 1101 1107 
f 1084 1085 1108 
f 1089 1084 1108 
f 1085 1102 1108 
f 1102 1089 1108 
f 1083 1093 1109 
f 1096 1083 1109 
f 1093 1098 1109 
f 1103 1096 1109 
f 1086 1088 1110 
f 1091 1086 1110 
f 1088 1091 1110 
f 1085 1084 1111 
f 1101 1085 1111 
f 1084 1107 1111 
f 1107 1101 1111 
f 1087 1092 1112 
f 1092 1096 1112 
f 1100 1087 1112 
f 1096 1100 1112 
f 1098 1086 1113 
f 1086 1103 1113 
f 1109 1098 1113 
o convex_35
v 37.923527 358.607961 -40.966902
v 77.177534 360.786996 -84.582181
v 77.177534 358.606467 -84.582181
v 57.548288 362.967525 -91.118644
v 72.814981 349.882856 -106.398147
v 33.565458 365.149548 -21.332533
v 74.998499 362.969019 -97.663433
v 72.814981 349.882856 -93.300240
v 33.565458 360.786996 -21.332533
v 72.814981 362.969019 -69.319331
v 31.381940 365.149548 -27.877322
v 72.814981 360.786996 -69.319331
v 77.177534 349.882856 -106.398147
v 31.381940 360.786996 -30.067246
v 70.631463 349.882856 -104.208223
v 42.286079 365.149548 -45.330095
v 57.548288 360.786996 -91.118644
v 70.631463 356.427432 -104.208223
v 77.177534 352.064879 -93.300240
v 68.456912 349.882856 -93.300240
v 61.910841 362.969019 -95.481837
v 31.381940 360.786996 -21.332533
v 77.177534 352.064879 -106.398147
v 74.998499 362.969019 -75.864121
v 42.286079 365.149548 -36.612035
v 35.744492 365.149548 -23.522456
v 31.381940 362.967525 -30.067246
v 40.107045 365.149548 -45.330095
v 70.631463 362.969019 -97.663433
v 77.177534 356.427432 -99.845030
v 68.456912 349.882856 -97.663433
v 77.177534 349.882856 -99.845030
f 1126 1132 1145 
f 1115 1116 1126 
f 1121 1118 1126 
f 1118 1121 1128 
f 1114 1127 1128 
f 1124 1119 1129 
f 1117 1118 1130 
f 1127 1117 1130 
f 1118 1128 1130 
f 1128 1127 1130 
f 1122 1121 1132 
f 1116 1125 1132 
f 1125 1122 1132 
f 1126 1116 1132 
f 1121 1122 1133 
f 1128 1121 1133 
f 1118 1117 1134 
f 1131 1118 1134 
f 1122 1119 1135 
f 1119 1124 1135 
f 1127 1114 1135 
f 1124 1127 1135 
f 1114 1133 1135 
f 1133 1122 1135 
f 1115 1126 1136 
f 1126 1118 1136 
f 1118 1131 1136 
f 1131 1120 1136 
f 1116 1115 1137 
f 1115 1120 1137 
f 1125 1116 1137 
f 1123 1125 1137 
f 1120 1129 1137 
f 1137 1129 1138 
f 1129 1119 1138 
f 1123 1137 1138 
f 1123 1138 1139 
f 1119 1122 1139 
f 1122 1125 1139 
f 1125 1123 1139 
f 1138 1119 1139 
f 1124 1117 1140 
f 1117 1127 1140 
f 1127 1124 1140 
f 1117 1124 1141 
f 1129 1120 1141 
f 1124 1129 1141 
f 1134 1117 1141 
f 1134 1141 1142 
f 1120 1131 1142 
f 1131 1134 1142 
f 1141 1120 1142 
f 1120 1115 1143 
f 1115 1136 1143 
f 1136 1120 1143 
f 1114 1128 1144 
f 1133 1114 1144 
f 1128 1133 1144 
f 1121 1126 1145 
f 1132 1121 1145 
o convex_36
v -7.874203 397.869441 31.022797
v 27.015117 413.135653 46.285006
v 24.828930 421.858837 59.371810
v 0.840655 424.036431 50.640726
v -12.242306 421.858837 74.638929
v 27.015117 397.869441 35.383428
v -16.606140 397.869441 44.099780
v 9.564052 400.052158 24.476940
v 20.465096 421.858837 70.268477
v -16.606140 413.135653 52.816131
v 27.015117 404.415031 33.203112
v -12.242306 424.041554 68.088162
v 20.465096 424.041554 57.186584
v 0.840655 406.592625 31.022797
v 5.204488 419.673558 44.109601
v -14.419953 400.052158 35.388339
v 20.465096 424.041554 70.268477
v -10.060390 417.495964 70.273388
v 3.022572 397.869441 24.472029
v 27.015117 397.869441 31.022797
v -14.419953 397.869441 44.099780
v 24.828930 421.858837 55.001357
v 27.015117 406.597748 46.285006
v -12.242306 424.041554 74.638929
v -14.424223 419.673558 70.273388
v -3.523179 419.673558 48.465321
v 11.745969 408.777904 33.203112
v -16.606140 397.869441 37.573565
v 3.022572 400.052158 24.472029
v 7.386405 424.041554 50.640726
v -14.424223 421.858837 65.917667
v 22.647013 424.041554 68.093072
f 1154 1168 1177 
f 1146 1151 1152 
f 1147 1151 1156 
f 1159 1149 1160 
f 1150 1154 1162 
f 1158 1157 1162 
f 1150 1152 1163 
f 1154 1150 1163 
f 1151 1146 1164 
f 1156 1151 1165 
f 1153 1156 1165 
f 1151 1164 1165 
f 1164 1153 1165 
f 1152 1151 1166 
f 1151 1154 1166 
f 1163 1152 1166 
f 1154 1163 1166 
f 1148 1147 1167 
f 1147 1156 1167 
f 1147 1148 1168 
f 1151 1147 1168 
f 1154 1151 1168 
f 1150 1162 1169 
f 1162 1157 1169 
f 1152 1150 1170 
f 1155 1152 1170 
f 1150 1169 1170 
f 1155 1149 1171 
f 1149 1159 1171 
f 1161 1155 1171 
f 1159 1161 1171 
f 1156 1153 1172 
f 1160 1156 1172 
f 1146 1152 1173 
f 1152 1155 1173 
f 1161 1146 1173 
f 1155 1161 1173 
f 1159 1160 1174 
f 1146 1161 1174 
f 1161 1159 1174 
f 1164 1146 1174 
f 1153 1164 1174 
f 1172 1153 1174 
f 1160 1172 1174 
f 1149 1157 1175 
f 1157 1158 1175 
f 1156 1160 1175 
f 1160 1149 1175 
f 1167 1156 1175 
f 1158 1167 1175 
f 1149 1155 1176 
f 1157 1149 1176 
f 1169 1157 1176 
f 1155 1170 1176 
f 1170 1169 1176 
f 1162 1154 1177 
f 1158 1162 1177 
f 1148 1167 1177 
f 1167 1158 1177 
f 1168 1148 1177 
o convex_37
v 85.906696 347.700250 -10.424977
v 129.530088 338.980753 17.923396
v 127.348064 338.980753 22.275487
v 94.634790 356.424443 17.923396
v 88.088719 345.520963 46.283725
v 109.896145 332.433499 -8.236975
v 116.437946 336.799118 39.737654
v 88.088719 352.061172 44.101701
v 116.437946 343.341676 2.661187
v 85.906696 341.162389 -12.607000
v 112.078169 332.433499 17.923396
v 85.906696 356.424443 26.651490
v 109.891875 338.980753 -10.424977
v 116.437946 347.700250 17.923396
v 114.260192 341.162389 39.737654
v 129.530088 336.799118 13.571305
v 92.452767 356.424443 11.395260
v 85.906696 347.700250 46.283725
v 92.452767 345.520963 -12.607000
v 118.619969 332.433499 17.923396
v 114.260192 332.433499 -8.236975
v 92.452767 349.879537 46.283725
v 109.891875 336.799118 39.737654
v 125.166040 343.341676 13.571305
v 85.906696 356.424443 11.395260
v 85.906696 341.162389 -8.242953
v 112.078169 349.879537 13.571305
v 88.088719 343.341676 -14.789024
v 125.166040 338.980753 7.025234
v 90.270743 349.879537 -6.060929
v 114.260192 343.341676 35.367629
v 129.530088 336.799118 17.923396
f 1197 1193 1209 
f 1185 1181 1189 
f 1178 1187 1189 
f 1184 1180 1192 
f 1189 1181 1194 
f 1185 1189 1195 
f 1189 1187 1195 
f 1186 1190 1196 
f 1188 1183 1197 
f 1184 1188 1197 
f 1193 1197 1198 
f 1197 1183 1198 
f 1182 1184 1199 
f 1181 1185 1199 
f 1191 1181 1199 
f 1184 1192 1199 
f 1195 1182 1199 
f 1185 1195 1199 
f 1184 1182 1200 
f 1188 1184 1200 
f 1182 1188 1200 
f 1179 1193 1201 
f 1178 1189 1202 
f 1189 1194 1202 
f 1187 1183 1203 
f 1183 1188 1203 
f 1188 1182 1203 
f 1182 1195 1203 
f 1195 1187 1203 
f 1181 1191 1204 
f 1194 1181 1204 
f 1201 1186 1204 
f 1191 1201 1204 
f 1187 1178 1205 
f 1183 1187 1205 
f 1178 1196 1205 
f 1196 1190 1205 
f 1198 1183 1205 
f 1190 1198 1205 
f 1190 1186 1206 
f 1193 1198 1206 
f 1198 1190 1206 
f 1186 1201 1206 
f 1201 1193 1206 
f 1196 1178 1207 
f 1186 1196 1207 
f 1178 1202 1207 
f 1202 1194 1207 
f 1204 1186 1207 
f 1194 1204 1207 
f 1180 1179 1208 
f 1192 1180 1208 
f 1191 1199 1208 
f 1199 1192 1208 
f 1179 1201 1208 
f 1201 1191 1208 
f 1179 1180 1209 
f 1180 1184 1209 
f 1193 1179 1209 
f 1184 1197 1209 
o convex_38
v 27.020241 376.053742 -54.058617
v 72.819678 365.155393 -67.145634
v 72.819678 362.970941 -67.145634
v 61.910414 362.970941 -93.299173
v 57.549783 380.419230 -62.779879
v 20.471608 373.872706 -43.149353
v 48.823397 380.419230 -43.149353
v 68.453923 367.334721 -51.880863
v 72.819678 367.334721 -93.299173
v 37.919257 376.053742 -67.135386
v 53.189152 362.970941 -84.572786
v 66.265921 362.970941 -62.785003
v 20.471608 378.236486 -45.332230
v 61.910414 376.055450 -51.875739
v 72.819678 362.970941 -95.492299
v 51.006274 380.419230 -62.779879
v 48.823397 376.053742 -43.149353
v 57.549783 365.155393 -91.116295
v 33.568874 380.419230 -43.149353
v 64.088168 365.155393 -54.063741
v 68.453923 367.334721 -93.299173
v 53.189152 362.970941 -80.212155
v 68.453923 369.512341 -51.880863
v 35.736379 369.515757 -64.957632
v 57.549783 380.419230 -56.241494
v 57.549783 378.234778 -69.318264
v 33.568874 378.236486 -58.414124
v 33.568874 380.419230 -47.509984
v 20.471608 373.872706 -45.332230
v 29.203118 373.872706 -43.149353
v 46.645643 371.696793 -78.039526
v 55.372029 362.970941 -88.938542
f 1240 1227 1241 
f 1212 1211 1217 
f 1211 1212 1218 
f 1213 1212 1220 
f 1220 1212 1221 
f 1219 1210 1222 
f 1212 1213 1224 
f 1218 1212 1224 
f 1216 1214 1225 
f 1216 1215 1226 
f 1217 1216 1226 
f 1215 1216 1228 
f 1222 1215 1228 
f 1216 1225 1228 
f 1212 1217 1229 
f 1221 1212 1229 
f 1215 1221 1229 
f 1224 1213 1230 
f 1218 1224 1230 
f 1213 1227 1230 
f 1215 1220 1231 
f 1221 1215 1231 
f 1220 1221 1231 
f 1216 1217 1232 
f 1217 1211 1232 
f 1211 1218 1232 
f 1223 1216 1232 
f 1218 1223 1232 
f 1214 1216 1234 
f 1218 1214 1234 
f 1216 1223 1234 
f 1223 1218 1234 
f 1214 1218 1235 
f 1225 1214 1235 
f 1219 1225 1235 
f 1218 1230 1235 
f 1230 1219 1235 
f 1219 1222 1236 
f 1225 1219 1236 
f 1225 1236 1237 
f 1222 1228 1237 
f 1228 1225 1237 
f 1236 1222 1237 
f 1220 1215 1238 
f 1222 1210 1238 
f 1215 1222 1238 
f 1210 1233 1238 
f 1226 1215 1239 
f 1217 1226 1239 
f 1229 1217 1239 
f 1215 1229 1239 
f 1210 1219 1240 
f 1219 1230 1240 
f 1230 1227 1240 
f 1233 1210 1240 
f 1233 1240 1241 
f 1213 1220 1241 
f 1227 1213 1241 
f 1220 1238 1241 
f 1238 1233 1241 
o convex_39
v 31.384288 393.505393 -8.246369
v 61.910841 382.602748 -49.687737
v 61.910841 384.784772 -49.687737
v 64.095000 389.142841 -16.974463
v 16.109269 380.419230 -8.246369
v 48.824678 395.685923 -30.053795
v 51.008836 384.781783 -6.064345
v 22.657048 382.601254 -23.516264
v 64.095000 395.685923 -30.053795
v 44.456360 380.419230 -45.323690
v 64.095000 382.602748 -40.959643
v 27.020668 380.419230 -12.614686
v 44.456360 382.601254 -45.323690
v 64.095000 393.502404 -40.959643
v 64.095000 384.784772 -19.156487
v 53.188298 389.142841 -8.246369
v 46.640519 395.687417 -16.974463
v 29.204827 389.141346 -21.334241
v 20.477586 386.965301 -10.432663
v 44.456360 380.419230 -34.417842
v 40.102134 395.687417 -19.156487
v 22.657048 380.419230 -23.516264
v 61.910841 393.502404 -40.959643
v 33.554355 393.505393 -16.974463
v 64.095000 382.602748 -49.687737
v 57.547221 395.685923 -23.516264
v 44.456360 389.141346 -36.599866
v 16.109269 382.601254 -8.246369
v 64.095000 395.685923 -36.591325
v 48.824678 386.965301 -6.064345
v 24.836509 384.783277 -23.516264
v 48.824678 380.419230 -45.323690
f 1266 1252 1273 
f 1244 1243 1251 
f 1250 1245 1252 
f 1248 1246 1253 
f 1246 1251 1253 
f 1244 1251 1254 
f 1251 1249 1254 
f 1250 1252 1255 
f 1245 1248 1256 
f 1252 1245 1256 
f 1248 1253 1256 
f 1248 1245 1257 
f 1242 1257 1258 
f 1253 1251 1261 
f 1252 1256 1261 
f 1256 1253 1261 
f 1242 1258 1262 
f 1246 1249 1263 
f 1251 1246 1263 
f 1249 1251 1263 
f 1244 1254 1264 
f 1255 1244 1264 
f 1247 1259 1265 
f 1260 1242 1265 
f 1259 1260 1265 
f 1262 1247 1265 
f 1242 1262 1265 
f 1243 1244 1266 
f 1251 1243 1266 
f 1244 1255 1266 
f 1255 1252 1266 
f 1245 1250 1267 
f 1257 1245 1267 
f 1250 1258 1267 
f 1258 1257 1267 
f 1259 1247 1268 
f 1247 1264 1268 
f 1264 1254 1268 
f 1249 1246 1269 
f 1242 1260 1269 
f 1260 1249 1269 
f 1250 1255 1270 
f 1258 1250 1270 
f 1247 1262 1270 
f 1262 1258 1270 
f 1264 1247 1270 
f 1255 1264 1270 
f 1246 1248 1271 
f 1248 1257 1271 
f 1257 1242 1271 
f 1242 1269 1271 
f 1269 1246 1271 
f 1254 1249 1272 
f 1249 1260 1272 
f 1260 1259 1272 
f 1268 1254 1272 
f 1259 1268 1272 
f 1261 1251 1273 
f 1252 1261 1273 
f 1251 1266 1273 
o convex_40
v -12.245936 358.605897 11.378179
v 22.652778 360.788704 -14.789024
v 22.652778 356.425653 -14.789024
v 20.469900 356.425653 37.559046
v 13.924683 347.702113 2.660333
v -1.334964 356.425653 -25.686332
v 22.652778 352.065164 -27.865793
v -10.059642 360.788704 22.289151
v -1.334964 360.788704 -25.686332
v 20.469900 352.065164 37.559046
v 20.469900 360.788704 26.648074
v 5.203421 352.065164 26.648074
v 22.652778 360.788704 -32.238380
v -10.063058 358.604616 -19.141115
v 16.107561 352.065164 -27.865793
v 16.104145 347.702113 11.378179
v -10.063058 360.788704 -19.141115
v 13.921267 356.425653 -32.238380
v -7.880181 358.605897 24.468613
v 20.466484 349.883639 9.191885
v 18.287022 352.065164 37.559046
v -7.880181 360.788704 24.468613
v -12.245936 358.605897 17.923396
v 13.924683 347.702113 11.378179
v 13.921267 360.788704 -32.238380
v -12.245936 360.788704 17.923396
v 22.652778 352.065164 -16.961653
v 18.287022 358.605897 33.193291
v 18.287022 356.425653 37.559046
v 13.921267 352.065164 -25.686332
v 20.463068 356.425653 -32.238380
v 16.104145 347.702113 2.660333
f 1293 1289 1305 
f 1276 1275 1277 
f 1275 1276 1280 
f 1281 1275 1282 
f 1276 1277 1283 
f 1277 1275 1284 
f 1275 1281 1284 
f 1275 1280 1286 
f 1282 1275 1286 
f 1278 1274 1287 
f 1279 1278 1287 
f 1282 1279 1287 
f 1280 1278 1288 
f 1281 1282 1290 
f 1287 1274 1290 
f 1282 1287 1290 
f 1279 1282 1291 
f 1288 1279 1291 
f 1280 1288 1291 
f 1283 1289 1293 
f 1283 1277 1294 
f 1289 1283 1294 
f 1292 1285 1294 
f 1292 1294 1295 
f 1284 1281 1295 
f 1281 1292 1295 
f 1274 1278 1296 
f 1292 1281 1296 
f 1285 1292 1296 
f 1278 1289 1297 
f 1289 1294 1297 
f 1294 1285 1297 
f 1296 1278 1297 
f 1285 1296 1297 
f 1282 1286 1298 
f 1291 1282 1298 
f 1286 1291 1298 
f 1290 1274 1299 
f 1281 1290 1299 
f 1274 1296 1299 
f 1296 1281 1299 
f 1280 1276 1300 
f 1276 1283 1300 
f 1293 1280 1300 
f 1283 1293 1300 
f 1277 1284 1301 
f 1284 1295 1301 
f 1301 1295 1302 
f 1294 1277 1302 
f 1295 1294 1302 
f 1277 1301 1302 
f 1278 1279 1303 
f 1288 1278 1303 
f 1279 1288 1303 
f 1286 1280 1304 
f 1280 1291 1304 
f 1291 1286 1304 
f 1278 1280 1305 
f 1289 1278 1305 
f 1280 1293 1305 
o convex_41
v 3.023532 347.702540 -49.682827
v 22.652778 360.788704 -32.239021
v 13.927886 360.788704 -25.694872
v 20.470967 345.520517 -51.864210
v 20.470967 352.066587 -56.226976
v -1.340088 358.606680 -34.424034
v -1.340088 354.242633 -27.879884
v 13.927886 356.424656 -25.694872
v 7.384804 347.702540 -58.411989
v 22.652778 345.520517 -62.774755
v 5.205342 345.520517 -47.501443
v 18.289157 360.788704 -36.605417
v 0.844071 360.788704 -25.694872
v 22.652778 356.424656 -32.239021
v 5.205342 345.520517 -56.226976
v 22.652778 347.702540 -62.774755
v 22.652778 360.788704 -36.605417
v 22.652778 345.520517 -54.045593
v -1.340088 356.424656 -25.694872
v 9.566614 349.884564 -56.226976
v 3.023532 358.606680 -36.605417
v 7.384804 345.520517 -47.501443
v -1.340088 354.242633 -34.424034
v 7.384804 360.788704 -32.242651
v 3.023532 354.242633 -27.879884
v 5.205342 347.702540 -56.226976
v 20.470967 347.702540 -62.774755
v 7.384804 345.520517 -58.411989
v 22.652778 352.066587 -56.226976
v 5.205342 349.884564 -54.045593
v -1.340088 358.606680 -25.694872
v 20.470967 354.242633 -34.424034
f 1309 1319 1337 
f 1307 1308 1313 
f 1312 1306 1316 
f 1315 1309 1316 
f 1308 1307 1317 
f 1313 1308 1318 
f 1308 1317 1318 
f 1307 1313 1319 
f 1315 1307 1319 
f 1315 1316 1320 
f 1316 1306 1320 
f 1307 1315 1321 
f 1317 1307 1322 
f 1310 1317 1322 
f 1307 1321 1322 
f 1309 1315 1323 
f 1319 1309 1323 
f 1315 1319 1323 
f 1311 1312 1324 
f 1312 1313 1324 
f 1313 1318 1324 
f 1317 1310 1326 
f 1310 1325 1326 
f 1325 1311 1326 
f 1309 1313 1327 
f 1312 1316 1327 
f 1316 1309 1327 
f 1311 1306 1328 
f 1312 1311 1328 
f 1306 1312 1328 
f 1311 1318 1329 
f 1318 1317 1329 
f 1317 1326 1329 
f 1326 1311 1329 
f 1313 1312 1330 
f 1327 1313 1330 
f 1312 1327 1330 
f 1306 1311 1331 
f 1320 1306 1331 
f 1314 1320 1331 
f 1310 1321 1332 
f 1321 1315 1332 
f 1325 1310 1332 
f 1314 1325 1332 
f 1320 1314 1333 
f 1315 1320 1333 
f 1314 1332 1333 
f 1332 1315 1333 
f 1321 1310 1334 
f 1310 1322 1334 
f 1322 1321 1334 
f 1311 1325 1335 
f 1325 1314 1335 
f 1331 1311 1335 
f 1314 1331 1335 
f 1318 1311 1336 
f 1311 1324 1336 
f 1324 1318 1336 
f 1313 1309 1337 
f 1319 1313 1337 
