v 0.5826279520988464 17.78461116971126 4.781760358115376
v 0.582629069685936 -1.9229691135731102 4.78176245130063
v 4.816956073045731 -1.9229654222726822 3.1329083060131633e-07
v 4.816954955458641 17.784614861011505 -2.897481513289903e-06
v 0.5826279520988464 17.78461116971126 4.781760358115376
v 4.816954955458641 17.784614861011505 -2.897481513289903e-06
v 6.9689348340034485 39.979499879737126 1.8491214198958057
v 2.7346083894371986 39.97949768514963 6.671374483217405
v 2.7346083894371986 39.97949768514963 6.671374483217405
v 6.9689348340034485 39.979499879737126 1.8491214198958057
v 18.124811351299286 59.52704142508804 11.644890146937644
v 13.890483975410461 59.52704221073272 16.467142837729728
v 8.50910171866417 16.325413113513992 11.741850100567879
v 1.761818304657936 -0.672675466511304 5.817186942020876
v 5.99614754319191 -0.6726732719235009 0.9949357413444262
v 12.743432819843292 16.325415308102038 6.919600390007547
v 18.04535686969757 25.90038508073703 20.115456235709868
v 22.279687225818634 25.900390255557557 15.293208015265169
v 34.40951108932495 25.748257991565787 31.444214559845555
v 29.544782638549805 26.027917704761148 35.62031858303942
v 29.544782638549805 26.027917704761148 35.62031858303942
v 34.40951108932495 25.748257991565787 31.444214559845555
v 47.66538143157959 13.045594422880002 47.73658301483245
v 42.80065298080444 13.325251155844096 51.91269299849127
v 18.04535686969757 25.90038508073703 20.115456235709868
v 8.50910171866417 16.325413113513992 11.741850100567879
v 12.743432819843292 16.325415308102038 6.919600390007547
v 22.279687225818634 25.900390255557557 15.293208015265169
v -0.9667994454503059 19.640389642206706 3.4212367275855713
v -0.9667985141277313 -0.06719026854863155 3.421238820770765
v 3.2675281167030334 -0.0671865838449822 -1.4010140562865623
v 3.2675273716449738 19.640393326910356 -1.401016149471756
v -0.9667994454503059 19.640389642206706 3.4212367275855713
v 3.2675273716449738 19.640393326910356 -1.401016149471756
v 7.029446959495544 51.36619241235042 1.9022558017337945
v 2.7951186522841454 51.36619319799501 6.724507933732333
v 7.511314749717712 71.65349339406605 13.107255348297487
v 11.745642870664597 71.65349260842173 8.285004892679583
v 20.749279856681824 88.59836126897395 16.190931667637667
v 16.51495099067688 88.59836205461815 21.013181378197512
v 2.7951186522841454 51.36619319799501 6.724507933732333
v 7.029446959495544 51.36619241235042 1.9022558017337945
v 11.745642870664597 71.65349260842173 8.285004892679583
v 7.511314749717712 71.65349339406605 13.107255348297487
v 2.036779187619686 17.98727760078793 6.05862406399132
v 1.6831843182444572 -1.2309702061587728 5.74814026741276
v 5.917513370513916 -1.2309709918031784 0.9258892530013102
v 6.271108984947205 17.987279795375976 1.2363743534309894
v 7.371436059474945 32.21179123903148 10.742885586841762
v 11.605765670537949 32.2117964138517 5.9206355037519165
v 27.96337902545929 42.42385882239257 15.73771441224355
v 24.479088187217712 42.47801052013727 21.126632922441342
v 24.479088187217712 42.47801052013727 21.126632922441342
v 27.96337902545929 42.42385882239257 15.73771441224355
v 48.55113625526428 41.33819517083427 29.059969604494192
v 45.06685733795166 41.392355809276175 34.448891094922764
v 7.371436059474945 32.21179123903148 10.742885586841762
v 2.036779187619686 17.98727760078793 6.05862406399132
v 6.271108984947205 17.987279795375976 1.2363743534309894
v 11.605765670537949 32.2117964138517 5.9206355037519165
v 16.51495099067688 88.59836205461815 21.013181378197512
v 20.749279856681824 88.59836126897395 16.190931667637667
v 22.075480222702026 91.88904494093369 20.12460969892687
v 13.890483975410461 59.52704221073272 16.467142837729728
v 18.124811351299286 59.52704142508804 11.644890146937644
v 17.975394427776337 61.085375739903654 15.815541626928146
v 45.06685733795166 41.392355809276175 34.448891094922764
v 48.55113625526428 41.33819517083427 29.059969604494192
v 49.866169691085815 43.07032493605212 34.62495698174893
v 42.80065298080444 13.325251155844096 51.91269299849127
v 47.66538143157959 13.045594422880002 47.73658301483245
v 46.936970949172974 12.265215715913415 54.27485504596415
v -0.5826279520988464 17.78461116971126 4.781760358115376
v -4.816954955458641 17.784614861011505 -2.897481513289903e-06
v -4.816956073045731 -1.9229654222726822 3.1329083060131633e-07
v -0.582629069685936 -1.9229691135731102 4.78176245130063
v -0.5826279520988464 17.78461116971126 4.781760358115376
v -2.7346083894371986 39.97949768514963 6.671374483217405
v -6.9689348340034485 39.979499879737126 1.8491214198958057
v -4.816954955458641 17.784614861011505 -2.897481513289903e-06
v -2.7346083894371986 39.97949768514963 6.671374483217405
v -13.890483975410461 59.52704221073272 16.467142837729728
v -18.124811351299286 59.52704142508804 11.644890146937644
v -6.9689348340034485 39.979499879737126 1.8491214198958057
v -8.50910171866417 16.325413113513992 11.741850100567879
v -12.743432819843292 16.325415308102038 6.919600390007547
v -5.99614754319191 -0.6726732719235009 0.9949357413444262
v -1.761818304657936 -0.672675466511304 5.817186942020876
v -18.04535686969757 25.90038508073703 20.115456235709868
v -35.627856850624084 26.324784162320956 32.94288981229207
v -38.84382247924805 26.264367989652655 27.389733684668535
v -22.279687225818634 25.900390255557557 15.293208015265169
v -35.627856850624084 26.324784162320956 32.94288981229207
v -54.21105623245239 14.552406657398423 43.8329404725504
v -57.42701292037964 14.491993464961878 38.27978136469414
v -38.84382247924805 26.264367989652655 27.389733684668535
v -18.04535686969757 25.90038508073703 20.115456235709868
v -22.279687225818634 25.900390255557557 15.293208015265169
v -12.743432819843292 16.325415308102038 6.919600390007547
v -8.50910171866417 16.325413113513992 11.741850100567879
v 0.9667994454503059 19.640389642206706 3.4212367275855713
v -3.2675273716449738 19.640393326910356 -1.401016149471756
v -3.2675281167030334 -0.0671865838449822 -1.4010140562865623
v 0.9667985141277313 -0.06719026854863155 3.421238820770765
v 0.9667994454503059 19.640389642206706 3.4212367275855713
v -2.7951186522841454 51.36619319799501 6.724507933732333
v -7.029446959495544 51.36619241235042 1.9022558017337945
v -3.2675273716449738 19.640393326910356 -1.401016149471756
v -9.62955728173256 71.61022632026045 12.725700692165274
v -15.456542372703552 84.3506603746692 17.871231999377862
v -19.690871238708496 84.35065958902501 13.048982288818019
v -13.863885402679443 71.610225534616 7.90344949148931
v -2.7951186522841454 51.36619319799501 6.724507933732333
v -9.62955728173256 71.61022632026045 12.725700692165274
v -13.863885402679443 71.610225534616 7.90344949148931
v -7.029446959495544 51.36619241235042 1.9022558017337945
v -2.036779187619686 17.98727760078793 6.05862406399132
v -6.271108984947205 17.987279795375976 1.2363743534309894
v -5.917513370513916 -1.2309709918031784 0.9258892530013102
v -1.6831843182444572 -1.2309702061587728 5.74814026741276
v -7.371436059474945 32.21179123903148 10.742885586841762
v -19.804129004478455 42.59246708703699 25.71641108868487
v -24.571600556373596 42.382768306961886 21.425620266964472
v -11.605765670537949 32.2117964138517 5.9206355037519165
v -19.804129004478455 42.59246708703699 25.71641108868487
v -28.088876605033875 42.8492520939639 39.445607833730136
v -32.63692259788513 41.505789518402416 35.12194374501356
v -24.571600556373596 42.382768306961886 21.425620266964472
v -7.371436059474945 32.21179123903148 10.742885586841762
v -11.605765670537949 32.2117964138517 5.9206355037519165
v -6.271108984947205 17.987279795375976 1.2363743534309894
v -2.036779187619686 17.98727760078793 6.05862406399132
v -15.456542372703552 84.3506603746692 17.871231999377862
v -18.898828327655792 87.68461033479035 17.364214976239438
v -19.690871238708496 84.35065958902501 13.048982288818019
v -13.890483975410461 59.52704221073272 16.467142837729728
v -17.975394427776337 61.085375739903654 15.815541626928146
v -18.124811351299286 59.52704142508804 11.644890146937644
v -28.088876605033875 42.8492520939639 39.445607833730136
v -32.78127908706665 41.77208914227014 41.08909582031087
v -32.63692259788513 41.505789518402416 35.12194374501356
v -54.21105623245239 14.552406657398423 43.8329404725504
v -58.94805192947388 13.747212120212218 44.684497262478075
v -57.42701292037964 14.491993464961878 38.27978136469414
v 0.5826279520988464 17.784609611615036 -4.781766153076946
v 4.816954955458641 17.784614861011505 -2.897481513289903e-06
v 4.816956073045731 -1.9229654222726822 3.1329083060131633e-07
v 0.582629069685936 -1.9229706716689705 -4.781761824717512
v 0.5826279520988464 17.784609611615036 -4.781766153076946
v 2.7346083894371986 39.979495511337795 -6.671387510190798
v 6.9689348340034485 39.97949927721478 -1.8491344468701703
v 4.816954955458641 17.784614861011505 -2.897481513289903e-06
v 2.7346083894371986 39.979495511337795 -6.671387510190798
v 13.890483975410461 59.52703684505341 -16.46716223410102
v 18.124811351299286 59.52703763069809 -11.644909543308938
v 6.9689348340034485 39.97949927721478 -1.8491344468701703
v 8.50910171866417 16.32540928753276 -11.741855420062004
v 12.743432819843292 16.325413053409193 -6.919605709502646
v 5.99614754319191 -0.6726735961146766 -0.9949355221596021
v 1.761818304657936 -0.672677361991351 -5.817186722835081
v 18.04535686969757 25.900378526288115 -20.1154646751254
v 34.85837280750275 26.33073953772951 -34.87866353817492
v 39.09270167350769 26.330740323373945 -30.056412337498955
v 22.279687225818634 25.900385272396544 -15.293216454682646
v 34.85837280750275 26.33073953772951 -34.87866353817492
v 41.96222126483917 21.66330444751503 -40.979043198438205
v 46.258798241615295 21.613748432313 -36.212426965121765
v 39.09270167350769 26.330740323373945 -30.056412337498955
v 18.04535686969757 25.900378526288115 -20.1154646751254
v 22.279687225818634 25.900385272396544 -15.293216454682646
v 12.743432819843292 16.325413053409193 -6.919605709502646
v 8.50910171866417 16.32540928753276 -11.741855420062004
v -0.9667994454503059 19.64038852742525 -3.4212431272365875
v 3.2675273716449738 19.640393783418318 1.4010097498192826
v 3.2675281167030334 -0.06718612733665842 1.4010140781786553
v -0.9667985141277313 -0.06719138332972538 -3.421238798877215
v -0.9667994454503059 19.64038852742525 -3.4212431272365875
v 2.7951186522841454 51.36619100686949 -6.724524670962033
v 7.029446959495544 51.36619179251408 -1.902272538963494
v 3.2675273716449738 19.640393783418318 1.4010097498192826
v 9.62955728173256 71.61022217369707 -12.725724025737863
v 13.565987348556519 79.64789589097937 -17.08214090502349
v 17.800316214561462 79.64789667662356 -12.259891194463643
v 13.863885402679443 71.61022295934151 -7.903472825061899
v 2.7951186522841454 51.36619100686949 -6.724524670962033
v 9.62955728173256 71.61022217369707 -12.725724025737863
v 13.863885402679443 71.61022295934151 -7.903472825061899
v 7.029446959495544 51.36619179251408 -1.902272538963494
v 2.036779187619686 17.98727562663669 -6.058629924989927
v 6.271108984947205 17.987279392513123 -1.2363802144305676
v 5.917513370513916 -1.2309712934961228 -0.9258888519000036
v 1.6831843182444572 -1.2309720791405283 -5.748139866311453
v 7.371436059474945 32.21178773855336 -10.742896082774937
v 22.28146642446518 42.560668876776646 -23.835122068729703
v 26.515796780586243 42.56066966242108 -19.01287086805374
v 11.605765670537949 32.21179448466209 -5.920645999687033
v 22.28146642446518 42.560668876776646 -23.835122068729703
v 30.3074449300766 42.30677292577293 -30.131966807810066
v 34.54176485538483 42.30676775095386 -25.309709646668654
v 26.515796780586243 42.56066966242108 -19.01287086805374
v 7.371436059474945 32.21178773855336 -10.742896082774937
v 11.605765670537949 32.21179448466209 -5.920645999687033
v 6.271108984947205 17.987279392513123 -1.2363802144305676
v 2.036779187619686 17.98727562663669 -6.058629924989927
v 13.565987348556519 79.64789589097937 -17.08214090502349
v 17.00827330350876 82.98184601630744 -16.575124968223864
v 17.800316214561462 79.64789667662356 -12.259891194463643
v 13.890483975410461 59.52703684505341 -16.46716223410102
v 17.975394427776337 61.08537058654288 -15.815561531068985
v 18.124811351299286 59.52703763069809 -11.644909543308938
v 30.3074449300766 42.30677292577293 -30.131966807810066
v 35.01531779766083 44.020939780976086 -31.01374628096149
v 34.54176485538483 42.30676775095386 -25.309709646668654
v 41.96222126483917 21.66330444751503 -40.979043198438205
v 46.13489210605621 19.677453261884445 -42.54677914294554
v 46.258798241615295 21.613748432313 -36.212426965121765
v -0.5826279520988464 17.784609611615036 -4.781766153076946
v -0.582629069685936 -1.9229706716689705 -4.781761824717512
v -4.816956073045731 -1.9229654222726822 3.1329083060131633e-07
v -4.816954955458641 17.784614861011505 -2.897481513289903e-06
v -0.5826279520988464 17.784609611615036 -4.781766153076946
v -4.816954955458641 17.784614861011505 -2.897481513289903e-06
v -6.9689348340034485 39.97949927721478 -1.8491344468701703
v -2.7346083894371986 39.979495511337795 -6.671387510190798
v -2.7346083894371986 39.979495511337795 -6.671387510190798
v -6.9689348340034485 39.97949927721478 -1.8491344468701703
v -13.643446564674377 54.59403263444736 -8.114880277210352
v -9.409119188785553 54.594031848802686 -12.937132968002436
v -8.50910171866417 16.32540928753276 -11.741855420062004
v -1.761818304657936 -0.672677361991351 -5.817186722835081
v -5.99614754319191 -0.6726735961146766 -0.9949355221596021
v -12.743432819843292 16.325413053409193 -6.919605709502646
v -18.04535686969757 25.900378526288115 -20.1154646751254
v -22.279687225818634 25.900385272396544 -15.293216454682646
v -29.43812608718872 27.48713725796284 -22.31744975639136
v -24.110956490039825 27.791624024685248 -25.882868526244007
v -24.110956490039825 27.791624024685248 -25.882868526244007
v -29.43812608718872 27.48713725796284 -22.31744975639136
v -36.73326075077057 19.480985523455562 -35.84609647086102
v -31.40609562397003 19.785467819828643 -39.41152120117742
v -18.04535686969757 25.900378526288115 -20.1154646751254
v -8.50910171866417 16.32540928753276 -11.741855420062004
v -12.743432819843292 16.325413053409193 -6.919605709502646
v -22.279687225818634 25.900385272396544 -15.293216454682646
v 0.9667994454503059 19.64038852742525 -3.4212431272365875
v 0.9667985141277313 -0.06719138332972538 -3.421238798877215
v -3.2675281167030334 -0.06718612733665842 1.4010140781786553
v -3.2675273716449738 19.640393783418318 1.4010097498192826
v 0.9667994454503059 19.64038852742525 -3.4212431272365875
v -3.2675273716449738 19.640393783418318 1.4010097498192826
v -7.029446959495544 51.36619179251408 -1.902272538963494
v -2.7951186522841454 51.36619100686949 -6.724524670962033
v -9.62955728173256 71.61022217369707 -12.725724025737863
v -13.863885402679443 71.61022295934151 -7.903472825061899
v -22.86752313375473 88.5550890438148 -15.809405866416606
v -18.633194267749786 88.55508825817061 -20.631655576976453
v -2.7951186522841454 51.36619100686949 -6.724524670962033
v -7.029446959495544 51.36619179251408 -1.902272538963494
v -13.863885402679443 71.61022295934151 -7.903472825061899
v -9.62955728173256 71.61022217369707 -12.725724025737863
v -2.036779187619686 17.98727562663669 -6.058629924989927
v -1.6831843182444572 -1.2309720791405283 -5.748139866311453
v -5.917513370513916 -1.2309712934961228 -0.9258888519000036
v -6.271108984947205 17.987279392513123 -1.2363802144305676
v -7.371436059474945 32.21178773855336 -10.742896082774937
v -11.605765670537949 32.21179448466209 -5.920645999687033
v -25.469940900802612 42.39757682709684 -16.717628591516814
v -21.824459731578827 42.44973599131808 -21.99885940731914
v -21.824459731578827 42.44973599131808 -21.99885940731914
v -25.469940900802612 42.39757682709684 -16.717628591516814
v -45.64911127090454 41.387451660893696 -30.656696148313788
v -42.00363755226135 41.439619765810676 -35.93793292458205
v -7.371436059474945 32.21178773855336 -10.742896082774937
v -2.036779187619686 17.98727562663669 -6.058629924989927
v -6.271108984947205 17.987279392513123 -1.2363802144305676
v -11.605765670537949 32.21179448466209 -5.920645999687033
v -18.633194267749786 88.55508825817061 -20.631655576976453
v -22.86752313375473 88.5550890438148 -15.809405866416606
v -22.075480222702026 91.88903838349869 -20.124639640176827
v -9.409119188785553 54.594031848802686 -12.937132968002436
v -13.643446564674377 54.59403263444736 -8.114880277210352
v -13.494029641151428 56.152365590292156 -12.2855322649704
v -42.00363755226135 41.439619765810676 -35.93793292458205
v -45.64911127090454 41.387451660893696 -30.656696148313788
v -46.79088592529297 43.13105052106607 -36.25623690441289
v -31.40609562397003 19.785467819828643 -39.41152120117742
v -36.73326075077057 19.480985523455562 -35.84609647086102
v -35.252806544303894 18.884842660732772 -42.27583418005739
v -0.16519762575626373 17.848395482540717 4.120943022608371
v 3.8205865770578384 17.869670689105988 -2.911338866481262e-06
v 3.8169562816619873 -1.9229654222726822 3.1329083060131633e-07
v -0.16602049581706524 -1.9229692215770127 4.118839219579706
v -0.16519762575626373 17.848395482540717 4.120943022608371
v 2.0399460569024086 40.35841623330479 6.059966739184108
v 6.274303048849106 40.3585078348644 1.2377440369638748
v 3.8205865770578384 17.869670689105988 -2.911338866481262e-06
v 2.0399460569024086 40.35841623330479 6.059966739184108
v 13.354182243347168 60.22744439383995 15.996242188036222
v 17.58808195590973 60.22685948261177 11.173592381393487
v 6.274303048849106 40.3585078348644 1.2377440369638748
v 7.936909794807434 16.97359566219732 11.239423817702264
v 12.171241641044617 16.973597856785364 6.417174107141934
v 5.331728979945183 -0.20558757521834997 0.4115438423719462
v 1.0973998345434666 -0.2055897698061227 5.233795229312911
v 17.799896001815796 26.84551205596449 19.89990333447953
v 29.758942127227783 26.986980311238778 35.8055845639114
v 34.62367057800293 26.707320598043417 31.629480540717537
v 22.03422635793686 26.845517230785017 15.077655114034833
v 29.758942127227783 26.986980311238778 35.8055845639114
v 43.08537840843201 14.24501941406672 52.18274361272588
v 47.97133803367615 13.950486856074486 48.03236197640793
v 34.62367057800293 26.707320598043417 31.629480540717537
v 17.799896001815796 26.84551205596449 19.89990333447953
v 22.03422635793686 26.845517230785017 15.077655114034833
v 12.171241641044617 16.973597856785364 6.417174107141934
v 7.936909794807434 16.97359566219732 11.239423817702264
v -1.715906709432602 19.718547615620977 2.763471333813815
v 2.518419921398163 19.718551300324627 -2.058781543243512
v 2.5161013007164 -0.06718669134170625 -2.0608242491695767
v -1.7182253301143646 -0.0671903760453556 2.7614286278877502
v -1.715906709432602 19.718547615620977 2.763471333813815
v 2.074942924082279 51.65153841090144 6.092133898615294
v 6.309270858764648 51.65153762525685 1.2698817666167546
v 2.518419921398163 19.718551300324627 -2.058781543243512
v 6.858798116445541 72.14938606385779 12.534301149254501
v 15.8978670835495 89.16893338891536 20.47132440028327
v 20.1325923204422 89.16969554278401 15.649441258164492
v 11.093126982450485 72.14938527821347 7.712050693636598
v 2.074942924082279 51.65153841090144 6.092133898615294
v 6.858798116445541 72.14938606385779 12.534301149254501
v 11.093126982450485 72.14938527821347 7.712050693636598
v 6.309270858764648 51.65153762525685 1.2698817666167546
v 1.3075699098408222 18.228557098519158 5.418315167717772
v 5.541899800300598 18.228559293107203 0.5960654571574417
v 5.166330933570862 -1.206495290078398 0.2662927015292969
v 0.9320016950368881 -1.2064945044339928 5.088543715940746
v 6.835409253835678 32.912557010506674 10.272198768752151
v 24.303296208381653 43.45465048606143 21.003173662603228
v 27.78759002685547 43.40049878831673 15.614255152405434
v 11.069738864898682 32.912562185326834 5.449948313133275
v 24.303296208381653 43.45465048606143 21.003173662603228
v 44.96150612831116 42.38369130776306 34.37081182899019
v 48.466306924819946 42.33246322000233 28.995137470385174
v 27.78759002685547 43.40049878831673 15.614255152405434
v 6.835409253835678 32.912557010506674 10.272198768752151
v 11.069738864898682 32.912562185326834 5.449948313133275
v 5.541899800300598 18.228559293107203 0.5960654571574417
v 1.3075699098408222 18.228557098519158 5.418315167717772
v 15.8978670835495 89.16893338891536 20.47132440028327
v 21.452811360359192 92.44878611047989 19.57787110236998
v 20.1325923204422 89.16969554278401 15.649441258164492
v 13.354182243347168 60.22744439383995 15.996242188036222
v 17.593394219875336 61.946483988325305 15.480111877813929
v 17.58808195590973 60.22685948261177 11.173592381393487
v 44.96150612831116 42.38369130776306 34.37081182899019
v 49.55071806907654 43.99497771617334 34.411700352794234
v 48.466306924819946 42.33246322000233 28.995137470385174
v 43.08537840843201 14.24501941406672 52.18274361272588
v 47.109514474868774 13.24082158346856 54.410526979455526
v 47.97133803367615 13.950486856074486 48.03236197640793
v 0.16519762575626373 17.848395482540717 4.120943022608371
v 0.16602049581706524 -1.9229692215770127 4.118839219579706
v -3.8169562816619873 -1.9229654222726822 3.1329083060131633e-07
v -3.8205865770578384 17.869670689105988 -2.911338866481262e-06
v 0.16519762575626373 17.848395482540717 4.120943022608371
v -3.8205865770578384 17.869670689105988 -2.911338866481262e-06
v -6.274303048849106 40.3585078348644 1.2377440369638748
v -2.0399460569024086 40.35841623330479 6.059966739184108
v -2.0399460569024086 40.35841623330479 6.059966739184108
v -6.274303048849106 40.3585078348644 1.2377440369638748
v -17.58808195590973 60.22685948261177 11.173592381393487
v -13.354182243347168 60.22744439383995 15.996242188036222
v -7.936909794807434 16.97359566219732 11.239423817702264
v -1.0973998345434666 -0.2055897698061227 5.233795229312911
v -5.331728979945183 -0.20558757521834997 0.4115438423719462
v -12.171241641044617 16.973597856785364 6.417174107141934
v -17.799896001815796 26.84551205596449 19.89990333447953
v -22.03422635793686 26.845517230785017 15.077655114034833
v -39.05375301837921 27.235753844341303 27.50075313776834
v -35.83778440952301 27.296170017009604 33.05390926539187
v -35.83778440952301 27.296170017009604 33.05390926539187
v -39.05375301837921 27.235753844341303 27.50075313776834
v -57.76299834251404 15.41557342628042 38.46428441189385
v -54.51769828796387 15.489384249955947 44.00031612289115
v -17.799896001815796 26.84551205596449 19.89990333447953
v -7.936909794807434 16.97359566219732 11.239423817702264
v -12.171241641044617 16.973597856785364 6.417174107141934
v -22.03422635793686 26.845517230785017 15.077655114034833
v 1.715906709432602 19.718547615620977 2.763471333813815
v 1.7182253301143646 -0.0671903760453556 2.7614286278877502
v -2.5161013007164 -0.06718669134170625 -2.0608242491695767
v -2.518419921398163 19.718551300324627 -2.058781543243512
v 1.715906709432602 19.718547615620977 2.763471333813815
v -2.518419921398163 19.718551300324627 -2.058781543243512
v -6.309270858764648 51.65153762525685 1.2698817666167546
v -2.074942924082279 51.65153841090144 6.092133898615294
v -8.977040648460388 72.1061189900522 12.152746493122288
v -13.211369514465332 72.10611820440775 7.330495292446324
v -19.074183702468872 84.92199386283507 12.507491879344846
v -14.839458465576172 84.92123170896642 17.32937502146362
v -2.074942924082279 51.65153841090144 6.092133898615294
v -6.309270858764648 51.65153762525685 1.2698817666167546
v -13.211369514465332 72.10611820440775 7.330495292446324
v -8.977040648460388 72.1061189900522 12.152746493122288
v -1.3075699098408222 18.228557098519158 5.418315167717772
v -0.9320016950368881 -1.2064945044339928 5.088543715940746
v -5.166330933570862 -1.206495290078398 0.2662927015292969
v -5.541899800300598 18.228559293107203 0.5960654571574417
v -6.835409253835678 32.912557010506674 10.272198768752151
v -11.069738864898682 32.912562185326834 5.449948313133275
v -24.451518058776855 43.35885394029709 21.24450990467379
v -19.684043526649475 43.56855570060418 25.535299236277584
v -19.684043526649475 43.56855570060418 25.535299236277584
v -24.451518058776855 43.35885394029709 21.24450990467379
v -33.05293321609497 42.40104534843981 35.281380063467566
v -28.49075496196747 43.75389565265327 39.58724322349252
v -6.835409253835678 32.912557010506674 10.272198768752151
v -1.3075699098408222 18.228557098519158 5.418315167717772
v -5.541899800300598 18.228559293107203 0.5960654571574417
v -11.069738864898682 32.912562185326834 5.449948313133275
v -14.839458465576172 84.92123170896642 17.32937502146362
v -19.074183702468872 84.92199386283507 12.507491879344846
v -18.276159465312958 88.24435150433655 16.817476379682546
v -13.354182243347168 60.22744439383995 15.996242188036222
v -17.58808195590973 60.22685948261177 11.173592381393487
v -17.593394219875336 61.946483988325305 15.480111877813929
v -28.49075496196747 43.75389565265327 39.58724322349252
v -33.05293321609497 42.40104534843981 35.281380063467566
v -33.02104473114014 42.74166596990803 41.04002613853541
v -54.51769828796387 15.489384249955947 44.00031612289115
v -57.76299834251404 15.41557342628042 38.46428441189385
v -59.10143852233887 14.732275745399836 44.76261196920123
v -0.16519762575626373 17.848394139766107 -4.120948838353543
v -0.16602049581706524 -1.922970563665068 -4.118838592996588
v 3.8169562816619873 -1.9229654222726822 3.1329083060131633e-07
v 3.8205865770578384 17.869670689105988 -2.911338866481262e-06
v -0.16519762575626373 17.848394139766107 -4.120948838353543
v 3.8205865770578384 17.869670689105988 -2.911338866481262e-06
v 6.274303048849106 40.35850743155406 -1.2377571874347382
v 2.0399460569024086 40.358414258714866 -6.059979889624867
v 2.0399460569024086 40.358414258714866 -6.059979889624867
v 6.274303048849106 40.35850743155406 -1.2377571874347382
v 17.58808195590973 60.22685584179008 -11.173612005794471
v 13.354182243347168 60.2274391815995 -15.996261812627536
v 7.936909794807434 16.973591999927315 -11.2394293484011
v 1.0973998345434666 -0.2055914751930476 -5.233795162322984
v 5.331728979945183 -0.2055877093163428 -0.41154377538299003
v 12.171241641044617 16.973595765803747 -6.417179637841739
v 17.799896001815796 26.845505571751573 -19.89991208185653
v 22.03422635793686 26.845512317860003 -15.077663861413775
v 39.2723023891449 27.301747644785053 -30.21413234623629
v 35.037973523139954 27.301746859140618 -35.036383546912255
v 35.037973523139954 27.301746859140618 -35.036383546912255
v 39.2723023891449 27.301747644785053 -30.21413234623629
v 46.72088325023651 22.400948399455125 -36.62073977171002
v 42.40277111530304 22.472513432940186 -41.367716278158696
v 17.799896001815796 26.845505571751573 -19.89991208185653
v 7.936909794807434 16.973591999927315 -11.2394293484011
v 12.171241641044617 16.973595765803747 -6.417179637841739
v 22.03422635793686 26.845512317860003 -15.077663861413775
v -1.715906709432602 19.71854671516668 -2.763477758931966
v -1.7182253301143646 -0.06719127583300133 -2.7614286059942
v 2.5161013007164 -0.06718601983993437 2.06082427106167
v 2.518419921398163 19.718551971159748 2.0587751181239042
v -1.715906709432602 19.71854671516668 -2.763477758931966
v 2.518419921398163 19.718551971159748 2.0587751181239042
v 6.309270858764648 51.65153721147411 -1.269898596823759
v 2.074942924082279 51.65153642582952 -6.092150728822298
v 8.977040648460388 72.10611503018096 -12.152769988277248
v 13.211369514465332 72.1061158158254 -7.330518787601283
v 17.18362867832184 80.21923112687355 -11.718400971154834
v 12.948903441429138 80.21846740183597 -16.540284113025013
v 2.074942924082279 51.65153642582952 -6.092150728822298
v 6.309270858764648 51.65153721147411 -1.269898596823759
v 13.211369514465332 72.1061158158254 -7.330518787601283
v 8.977040648460388 72.10611503018096 -12.152769988277248
v 1.3075699098408222 18.228555333007026 -5.418321107335252
v 0.9320016950368881 -1.2064961624919144 -5.088543322814671
v 5.166330933570862 -1.206495376847509 -0.2662923084032211
v 5.541899800300598 18.22855909888346 -0.5960713967758926
v 6.835409253835678 32.912553663397745 -10.27220949302382
v 11.069738864898682 32.91256040950654 -5.449959037406886
v 26.351729035377502 43.53652885108114 -18.868822991896568
v 22.11739867925644 43.5365280654367 -23.691074192572533
v 22.11739867925644 43.5365280654367 -23.691074192572533
v 26.351729035377502 43.53652885108114 -18.868822991896568
v 34.45896804332733 43.30066329349787 -25.237015983826723
v 30.206307768821716 43.29764651545215 -30.04315902876077
v 6.835409253835678 32.912553663397745 -10.27220949302382
v 1.3075699098408222 18.228555333007026 -5.418321107335252
v 5.541899800300598 18.22855909888346 -0.5960713967758926
v 11.069738864898682 32.91256040950654 -5.449959037406886
v 12.948903441429138 80.21846740183597 -16.540284113025013
v 17.18362867832184 80.21923112687355 -11.718400971154834
v 16.385604441165924 83.54158736400366 -16.028386554053828
v 13.354182243347168 60.2274391815995 -15.996261812627536
v 17.58808195590973 60.22685584179008 -11.173612005794471
v 17.593394219875336 61.946478944261365 -15.480132062539464
v 30.206307768821716 43.29764651545215 -30.04315902876077
v 34.45896804332733 43.30066329349787 -25.237015983826723
v 34.726643562316895 44.944185967522714 -30.760259798076596
v 42.40277111530304 22.472513432940186 -41.367716278158696
v 46.72088325023651 22.400948399455125 -36.62073977171002
v 46.45856320858002 20.580494876666037 -42.829150334228636
v 0.16519762575626373 17.848394139766107 -4.120948838353543
v -3.8205865770578384 17.869670689105988 -2.911338866481262e-06
v -3.8169562816619873 -1.9229654222726822 3.1329083060131633e-07
v 0.16602049581706524 -1.922970563665068 -4.118838592996588
v 0.16519762575626373 17.848394139766107 -4.120948838353543
v -2.0399460569024086 40.358414258714866 -6.059979889624867
v -6.274303048849106 40.35850743155406 -1.2377571874347382
v -3.8205865770578384 17.869670689105988 -2.911338866481262e-06
v -2.0399460569024086 40.358414258714866 -6.059979889624867
v -8.87281745672226 55.29443418534878 -12.46623254652895
v -13.10671716928482 55.29385084553923 -7.643583484753944
v -6.274303048849106 40.35850743155406 -1.2377571874347382
v -7.936909794807434 16.973591999927315 -11.2394293484011
v -12.171241641044617 16.973595765803747 -6.417179637841739
v -5.331728979945183 -0.2055877093163428 -0.41154377538299003
v -1.0973998345434666 -0.2055914751930476 -5.233795162322984
v -17.799896001815796 26.845505571751573 -19.89991208185653
v -24.285201728343964 28.7601607303236 -26.06051734755948
v -29.61236834526062 28.455676943832945 -22.495101557939556
v -22.03422635793686 26.845512317860003 -15.077663861413775
v -24.285201728343964 28.7601607303236 -26.06051734755948
v -31.64108097553253 20.718800516877707 -39.68288937997002
v -36.98655664920807 20.400682163250963 -36.14597652926034
v -29.61236834526062 28.455676943832945 -22.495101557939556
v -17.799896001815796 26.845505571751573 -19.89991208185653
v -22.03422635793686 26.845512317860003 -15.077663861413775
v -12.171241641044617 16.973595765803747 -6.417179637841739
v -7.936909794807434 16.973591999927315 -11.2394293484011
v 1.715906709432602 19.71854671516668 -2.763477758931966
v -2.518419921398163 19.718551971159748 2.0587751181239042
v -2.5161013007164 -0.06718601983993437 2.06082427106167
v 1.7182253301143646 -0.06719127583300133 -2.7614286059942
v 1.715906709432602 19.71854671516668 -2.763477758931966
v -2.074942924082279 51.65153642582952 -6.092150728822298
v -6.309270858764648 51.65153721147411 -1.269898596823759
v -2.518419921398163 19.718551971159748 2.0587751181239042
v -8.977040648460388 72.10611503018096 -12.152769988277248
v -18.016110360622406 89.12565976902721 -20.089798784977976
v -22.250835597515106 89.1264234940648 -15.267915643107797
v -13.211369514465332 72.1061158158254 -7.330518787601283
v -2.074942924082279 51.65153642582952 -6.092150728822298
v -8.977040648460388 72.10611503018096 -12.152769988277248
v -13.211369514465332 72.1061158158254 -7.330518787601283
v -6.309270858764648 51.65153721147411 -1.269898596823759
v -1.3075699098408222 18.228555333007026 -5.418321107335252
v -5.541899800300598 18.22855909888346 -0.5960713967758926
v -5.166330933570862 -1.206495376847509 -0.2662923084032211
v -0.9320016950368881 -1.2064961624919144 -5.088543322814671
v -6.835409253835678 32.912553663397745 -10.27220949302382
v -21.64982706308365 43.42571438700628 -21.868691962833463
v -25.295305252075195 43.3735522425528 -16.58746114703065
v -11.069738864898682 32.91256040950654 -5.449959037406886
v -21.64982706308365 43.42571438700628 -21.868691962833463
v -41.898006200790405 42.43054997890853 -35.85522568093474
v -45.563578605651855 42.3813889260627 -30.587846985066665
v -25.295305252075195 43.3735522425528 -16.58746114703065
v -6.835409253835678 32.912553663397745 -10.27220949302382
v -11.069738864898682 32.91256040950654 -5.449959037406886
v -5.541899800300598 18.22855909888346 -0.5960713967758926
v -1.3075699098408222 18.228555333007026 -5.418321107335252
v -18.016110360622406 89.12565976902721 -20.089798784977976
v -21.452811360359192 92.44877973119492 -19.57790122600679
v -22.250835597515106 89.1264234940648 -15.267915643107797
v -8.87281745672226 55.29443418534878 -12.46623254652895
v -13.112029433250427 57.01347394801064 -11.950102796440879
v -13.10671716928482 55.29385084553923 -7.643583484753944
v -41.898006200790405 42.43054997890853 -35.85522568093474
v -46.47950530052185 44.05452916093357 -36.032174254459235
v -45.563578605651855 42.3813889260627 -30.587846985066665
v -31.64108097553253 20.718800516877707 -39.68288937997002
v -35.39129197597504 19.867531008061267 -42.398828524651655
v -36.98655664920807 20.400682163250963 -36.14597652926034
v 0.582629069685936 -1.9229691135731102 4.78176245130063
v 0.5826279520988464 17.78461116971126 4.781760358115376
v -0.16519762575626373 17.848395482540717 4.120943022608371
v -0.16602049581706524 -1.9229692215770127 4.118839219579706
v 4.816956073045731 -1.9229654222726822 3.1329083060131633e-07
v 0.582629069685936 -1.9229691135731102 4.78176245130063
v -0.16602049581706524 -1.9229692215770127 4.118839219579706
v 3.8169562816619873 -1.9229654222726822 3.1329083060131633e-07
v 0.5826279520988464 17.78461116971126 4.781760358115376
v 2.7346083894371986 39.97949768514963 6.671374483217405
v 2.0399460569024086 40.35841623330479 6.059966739184108
v -0.16519762575626373 17.848395482540717 4.120943022608371
v 6.9689348340034485 39.979499879737126 1.8491214198958057
v 4.816954955458641 17.784614861011505 -2.897481513289903e-06
v 3.8205865770578384 17.869670689105988 -2.911338866481262e-06
v 6.274303048849106 40.3585078348644 1.2377440369638748
v 2.7346083894371986 39.97949768514963 6.671374483217405
v 13.890483975410461 59.52704221073272 16.467142837729728
v 13.354182243347168 60.22744439383995 15.996242188036222
v 2.0399460569024086 40.35841623330479 6.059966739184108
v 18.124811351299286 59.52704142508804 11.644890146937644
v 6.9689348340034485 39.979499879737126 1.8491214198958057
v 6.274303048849106 40.3585078348644 1.2377440369638748
v 17.58808195590973 60.22685948261177 11.173592381393487
v 1.761818304657936 -0.672675466511304 5.817186942020876
v 8.50910171866417 16.325413113513992 11.741850100567879
v 7.936909794807434 16.97359566219732 11.239423817702264
v 1.0973998345434666 -0.2055897698061227 5.233795229312911
v 5.99614754319191 -0.6726732719235009 0.9949357413444262
v 1.761818304657936 -0.672675466511304 5.817186942020876
v 1.0973998345434666 -0.2055897698061227 5.233795229312911
v 5.331728979945183 -0.20558757521834997 0.4115438423719462
v 22.279687225818634 25.900390255557557 15.293208015265169
v 12.743432819843292 16.325415308102038 6.919600390007547
v 12.171241641044617 16.973597856785364 6.417174107141934
v 22.03422635793686 26.845517230785017 15.077655114034833
v 18.04535686969757 25.90038508073703 20.115456235709868
v 29.544782638549805 26.027917704761148 35.62031858303942
v 29.758942127227783 26.986980311238778 35.8055845639114
v 17.799896001815796 26.84551205596449 19.89990333447953
v 34.40951108932495 25.748257991565787 31.444214559845555
v 22.279687225818634 25.900390255557557 15.293208015265169
v 22.03422635793686 26.845517230785017 15.077655114034833
v 34.62367057800293 26.707320598043417 31.629480540717537
v 29.544782638549805 26.027917704761148 35.62031858303942
v 42.80065298080444 13.325251155844096 51.91269299849127
v 43.08537840843201 14.24501941406672 52.18274361272588
v 29.758942127227783 26.986980311238778 35.8055845639114
v 47.66538143157959 13.045594422880002 47.73658301483245
v 34.40951108932495 25.748257991565787 31.444214559845555
v 34.62367057800293 26.707320598043417 31.629480540717537
v 47.97133803367615 13.950486856074486 48.03236197640793
v 8.50910171866417 16.325413113513992 11.741850100567879
v 18.04535686969757 25.90038508073703 20.115456235709868
v 17.799896001815796 26.84551205596449 19.89990333447953
v 7.936909794807434 16.97359566219732 11.239423817702264
v 12.743432819843292 16.325415308102038 6.919600390007547
v 5.99614754319191 -0.6726732719235009 0.9949357413444262
v 5.331728979945183 -0.20558757521834997 0.4115438423719462
v 12.171241641044617 16.973597856785364 6.417174107141934
v -0.9667985141277313 -0.06719026854863155 3.421238820770765
v -0.9667994454503059 19.640389642206706 3.4212367275855713
v -1.715906709432602 19.718547615620977 2.763471333813815
v -1.7182253301143646 -0.0671903760453556 2.7614286278877502
v 3.2675281167030334 -0.0671865838449822 -1.4010140562865623
v -0.9667985141277313 -0.06719026854863155 3.421238820770765
v -1.7182253301143646 -0.0671903760453556 2.7614286278877502
v 2.5161013007164 -0.06718669134170625 -2.0608242491695767
v 3.2675273716449738 19.640393326910356 -1.401016149471756
v 3.2675281167030334 -0.0671865838449822 -1.4010140562865623
v 2.5161013007164 -0.06718669134170625 -2.0608242491695767
v 2.518419921398163 19.718551300324627 -2.058781543243512
v -0.9667994454503059 19.640389642206706 3.4212367275855713
v 2.7951186522841454 51.36619319799501 6.724507933732333
v 2.074942924082279 51.65153841090144 6.092133898615294
v -1.715906709432602 19.718547615620977 2.763471333813815
v 7.029446959495544 51.36619241235042 1.9022558017337945
v 3.2675273716449738 19.640393326910356 -1.401016149471756
v 2.518419921398163 19.718551300324627 -2.058781543243512
v 6.309270858764648 51.65153762525685 1.2698817666167546
v 2.7951186522841454 51.36619319799501 6.724507933732333
v 7.511314749717712 71.65349339406605 13.107255348297487
v 6.858798116445541 72.14938606385779 12.534301149254501
v 2.074942924082279 51.65153841090144 6.092133898615294
v 20.749279856681824 88.59836126897395 16.190931667637667
v 11.745642870664597 71.65349260842173 8.285004892679583
v 11.093126982450485 72.14938527821347 7.712050693636598
v 20.1325923204422 89.16969554278401 15.649441258164492
v 7.511314749717712 71.65349339406605 13.107255348297487
v 16.51495099067688 88.59836205461815 21.013181378197512
v 15.8978670835495 89.16893338891536 20.47132440028327
v 6.858798116445541 72.14938606385779 12.534301149254501
v 11.745642870664597 71.65349260842173 8.285004892679583
v 7.029446959495544 51.36619241235042 1.9022558017337945
v 6.309270858764648 51.65153762525685 1.2698817666167546
v 11.093126982450485 72.14938527821347 7.712050693636598
v 1.6831843182444572 -1.2309702061587728 5.74814026741276
v 2.036779187619686 17.98727760078793 6.05862406399132
v 1.3075699098408222 18.228557098519158 5.418315167717772
v 0.9320016950368881 -1.2064945044339928 5.088543715940746
v 5.917513370513916 -1.2309709918031784 0.9258892530013102
v 1.6831843182444572 -1.2309702061587728 5.74814026741276
v 0.9320016950368881 -1.2064945044339928 5.088543715940746
v 5.166330933570862 -1.206495290078398 0.2662927015292969
v 11.605765670537949 32.2117964138517 5.9206355037519165
v 6.271108984947205 17.987279795375976 1.2363743534309894
v 5.541899800300598 18.228559293107203 0.5960654571574417
v 11.069738864898682 32.912562185326834 5.449948313133275
v 7.371436059474945 32.21179123903148 10.742885586841762
v 24.479088187217712 42.47801052013727 21.126632922441342
v 24.303296208381653 43.45465048606143 21.003173662603228
v 6.835409253835678 32.912557010506674 10.272198768752151
v 27.96337902545929 42.42385882239257 15.73771441224355
v 11.605765670537949 32.2117964138517 5.9206355037519165
v 11.069738864898682 32.912562185326834 5.449948313133275
v 27.78759002685547 43.40049878831673 15.614255152405434
v 24.479088187217712 42.47801052013727 21.126632922441342
v 45.06685733795166 41.392355809276175 34.448891094922764
v 44.96150612831116 42.38369130776306 34.37081182899019
v 24.303296208381653 43.45465048606143 21.003173662603228
v 48.55113625526428 41.33819517083427 29.059969604494192
v 27.96337902545929 42.42385882239257 15.73771441224355
v 27.78759002685547 43.40049878831673 15.614255152405434
v 48.466306924819946 42.33246322000233 28.995137470385174
v 2.036779187619686 17.98727760078793 6.05862406399132
v 7.371436059474945 32.21179123903148 10.742885586841762
v 6.835409253835678 32.912557010506674 10.272198768752151
v 1.3075699098408222 18.228557098519158 5.418315167717772
v 6.271108984947205 17.987279795375976 1.2363743534309894
v 5.917513370513916 -1.2309709918031784 0.9258892530013102
v 5.166330933570862 -1.206495290078398 0.2662927015292969
v 5.541899800300598 18.228559293107203 0.5960654571574417
v 13.890483975410461 59.52704221073272 16.467142837729728
v 17.975394427776337 61.085375739903654 15.815541626928146
v 17.593394219875336 61.946483988325305 15.480111877813929
v 13.354182243347168 60.22744439383995 15.996242188036222
v 16.51495099067688 88.59836205461815 21.013181378197512
v 22.075480222702026 91.88904494093369 20.12460969892687
v 21.452811360359192 92.44878611047989 19.57787110236998
v 15.8978670835495 89.16893338891536 20.47132440028327
v 45.06685733795166 41.392355809276175 34.448891094922764
v 49.866169691085815 43.07032493605212 34.62495698174893
v 49.55071806907654 43.99497771617334 34.411700352794234
v 44.96150612831116 42.38369130776306 34.37081182899019
v 22.075480222702026 91.88904494093369 20.12460969892687
v 20.749279856681824 88.59836126897395 16.190931667637667
v 20.1325923204422 89.16969554278401 15.649441258164492
v 21.452811360359192 92.44878611047989 19.57787110236998
v 42.80065298080444 13.325251155844096 51.91269299849127
v 46.936970949172974 12.265215715913415 54.27485504596415
v 47.109514474868774 13.24082158346856 54.410526979455526
v 43.08537840843201 14.24501941406672 52.18274361272588
v 17.975394427776337 61.085375739903654 15.815541626928146
v 18.124811351299286 59.52704142508804 11.644890146937644
v 17.58808195590973 60.22685948261177 11.173592381393487
v 17.593394219875336 61.946483988325305 15.480111877813929
v 49.866169691085815 43.07032493605212 34.62495698174893
v 48.55113625526428 41.33819517083427 29.059969604494192
v 48.466306924819946 42.33246322000233 28.995137470385174
v 49.55071806907654 43.99497771617334 34.411700352794234
v 46.936970949172974 12.265215715913415 54.27485504596415
v 47.66538143157959 13.045594422880002 47.73658301483245
v 47.97133803367615 13.950486856074486 48.03236197640793
v 47.109514474868774 13.24082158346856 54.410526979455526
v -0.5826279520988464 17.78461116971126 4.781760358115376
v -0.582629069685936 -1.9229691135731102 4.78176245130063
v 0.16602049581706524 -1.9229692215770127 4.118839219579706
v 0.16519762575626373 17.848395482540717 4.120943022608371
v -0.582629069685936 -1.9229691135731102 4.78176245130063
v -4.816956073045731 -1.9229654222726822 3.1329083060131633e-07
v -3.8169562816619873 -1.9229654222726822 3.1329083060131633e-07
v 0.16602049581706524 -1.9229692215770127 4.118839219579706
v -2.7346083894371986 39.97949768514963 6.671374483217405
v -0.5826279520988464 17.78461116971126 4.781760358115376
v 0.16519762575626373 17.848395482540717 4.120943022608371
v -2.0399460569024086 40.35841623330479 6.059966739184108
v -4.816954955458641 17.784614861011505 -2.897481513289903e-06
v -6.9689348340034485 39.979499879737126 1.8491214198958057
v -6.274303048849106 40.3585078348644 1.2377440369638748
v -3.8205865770578384 17.869670689105988 -2.911338866481262e-06
v -13.890483975410461 59.52704221073272 16.467142837729728
v -2.7346083894371986 39.97949768514963 6.671374483217405
v -2.0399460569024086 40.35841623330479 6.059966739184108
v -13.354182243347168 60.22744439383995 15.996242188036222
v -6.9689348340034485 39.979499879737126 1.8491214198958057
v -18.124811351299286 59.52704142508804 11.644890146937644
v -17.58808195590973 60.22685948261177 11.173592381393487
v -6.274303048849106 40.3585078348644 1.2377440369638748
v -8.50910171866417 16.325413113513992 11.741850100567879
v -1.761818304657936 -0.672675466511304 5.817186942020876
v -1.0973998345434666 -0.2055897698061227 5.233795229312911
v -7.936909794807434 16.97359566219732 11.239423817702264
v -1.761818304657936 -0.672675466511304 5.817186942020876
v -5.99614754319191 -0.6726732719235009 0.9949357413444262
v -5.331728979945183 -0.20558757521834997 0.4115438423719462
v -1.0973998345434666 -0.2055897698061227 5.233795229312911
v -12.743432819843292 16.325415308102038 6.919600390007547
v -22.279687225818634 25.900390255557557 15.293208015265169
v -22.03422635793686 26.845517230785017 15.077655114034833
v -12.171241641044617 16.973597856785364 6.417174107141934
v -35.627856850624084 26.324784162320956 32.94288981229207
v -18.04535686969757 25.90038508073703 20.115456235709868
v -17.799896001815796 26.84551205596449 19.89990333447953
v -35.83778440952301 27.296170017009604 33.05390926539187
v -22.279687225818634 25.900390255557557 15.293208015265169
v -38.84382247924805 26.264367989652655 27.389733684668535
v -39.05375301837921 27.235753844341303 27.50075313776834
v -22.03422635793686 26.845517230785017 15.077655114034833
v -54.21105623245239 14.552406657398423 43.8329404725504
v -35.627856850624084 26.324784162320956 32.94288981229207
v -35.83778440952301 27.296170017009604 33.05390926539187
v -54.51769828796387 15.489384249955947 44.00031612289115
v -38.84382247924805 26.264367989652655 27.389733684668535
v -57.42701292037964 14.491993464961878 38.27978136469414
v -57.76299834251404 15.41557342628042 38.46428441189385
v -39.05375301837921 27.235753844341303 27.50075313776834
v -18.04535686969757 25.90038508073703 20.115456235709868
v -8.50910171866417 16.325413113513992 11.741850100567879
v -7.936909794807434 16.97359566219732 11.239423817702264
v -17.799896001815796 26.84551205596449 19.89990333447953
v -5.99614754319191 -0.6726732719235009 0.9949357413444262
v -12.743432819843292 16.325415308102038 6.919600390007547
v -12.171241641044617 16.973597856785364 6.417174107141934
v -5.331728979945183 -0.20558757521834997 0.4115438423719462
v 0.9667994454503059 19.640389642206706 3.4212367275855713
v 0.9667985141277313 -0.06719026854863155 3.421238820770765
v 1.7182253301143646 -0.0671903760453556 2.7614286278877502
v 1.715906709432602 19.718547615620977 2.763471333813815
v 0.9667985141277313 -0.06719026854863155 3.421238820770765
v -3.2675281167030334 -0.0671865838449822 -1.4010140562865623
v -2.5161013007164 -0.06718669134170625 -2.0608242491695767
v 1.7182253301143646 -0.0671903760453556 2.7614286278877502
v -3.2675281167030334 -0.0671865838449822 -1.4010140562865623
v -3.2675273716449738 19.640393326910356 -1.401016149471756
v -2.518419921398163 19.718551300324627 -2.058781543243512
v -2.5161013007164 -0.06718669134170625 -2.0608242491695767
v -2.7951186522841454 51.36619319799501 6.724507933732333
v 0.9667994454503059 19.640389642206706 3.4212367275855713
v 1.715906709432602 19.718547615620977 2.763471333813815
v -2.074942924082279 51.65153841090144 6.092133898615294
v -3.2675273716449738 19.640393326910356 -1.401016149471756
v -7.029446959495544 51.36619241235042 1.9022558017337945
v -6.309270858764648 51.65153762525685 1.2698817666167546
v -2.518419921398163 19.718551300324627 -2.058781543243512
v -9.62955728173256 71.61022632026045 12.725700692165274
v -2.7951186522841454 51.36619319799501 6.724507933732333
v -2.074942924082279 51.65153841090144 6.092133898615294
v -8.977040648460388 72.1061189900522 12.152746493122288
v -13.863885402679443 71.610225534616 7.90344949148931
v -19.690871238708496 84.35065958902501 13.048982288818019
v -19.074183702468872 84.92199386283507 12.507491879344846
v -13.211369514465332 72.10611820440775 7.330495292446324
v -15.456542372703552 84.3506603746692 17.871231999377862
v -9.62955728173256 71.61022632026045 12.725700692165274
v -8.977040648460388 72.1061189900522 12.152746493122288
v -14.839458465576172 84.92123170896642 17.32937502146362
v -7.029446959495544 51.36619241235042 1.9022558017337945
v -13.863885402679443 71.610225534616 7.90344949148931
v -13.211369514465332 72.10611820440775 7.330495292446324
v -6.309270858764648 51.65153762525685 1.2698817666167546
v -2.036779187619686 17.98727760078793 6.05862406399132
v -1.6831843182444572 -1.2309702061587728 5.74814026741276
v -0.9320016950368881 -1.2064945044339928 5.088543715940746
v -1.3075699098408222 18.228557098519158 5.418315167717772
v -1.6831843182444572 -1.2309702061587728 5.74814026741276
v -5.917513370513916 -1.2309709918031784 0.9258892530013102
v -5.166330933570862 -1.206495290078398 0.2662927015292969
v -0.9320016950368881 -1.2064945044339928 5.088543715940746
v -6.271108984947205 17.987279795375976 1.2363743534309894
v -11.605765670537949 32.2117964138517 5.9206355037519165
v -11.069738864898682 32.912562185326834 5.449948313133275
v -5.541899800300598 18.228559293107203 0.5960654571574417
v -19.804129004478455 42.59246708703699 25.71641108868487
v -7.371436059474945 32.21179123903148 10.742885586841762
v -6.835409253835678 32.912557010506674 10.272198768752151
v -19.684043526649475 43.56855570060418 25.535299236277584
v -11.605765670537949 32.2117964138517 5.9206355037519165
v -24.571600556373596 42.382768306961886 21.425620266964472
v -24.451518058776855 43.35885394029709 21.24450990467379
v -11.069738864898682 32.912562185326834 5.449948313133275
v -28.088876605033875 42.8492520939639 39.445607833730136
v -19.804129004478455 42.59246708703699 25.71641108868487
v -19.684043526649475 43.56855570060418 25.535299236277584
v -28.49075496196747 43.75389565265327 39.58724322349252
v -24.571600556373596 42.382768306961886 21.425620266964472
v -32.63692259788513 41.505789518402416 35.12194374501356
v -33.05293321609497 42.40104534843981 35.281380063467566
v -24.451518058776855 43.35885394029709 21.24450990467379
v -7.371436059474945 32.21179123903148 10.742885586841762
v -2.036779187619686 17.98727760078793 6.05862406399132
v -1.3075699098408222 18.228557098519158 5.418315167717772
v -6.835409253835678 32.912557010506674 10.272198768752151
v -5.917513370513916 -1.2309709918031784 0.9258892530013102
v -6.271108984947205 17.987279795375976 1.2363743534309894
v -5.541899800300598 18.228559293107203 0.5960654571574417
v -5.166330933570862 -1.206495290078398 0.2662927015292969
v -17.975394427776337 61.085375739903654 15.815541626928146
v -13.890483975410461 59.52704221073272 16.467142837729728
v -13.354182243347168 60.22744439383995 15.996242188036222
v -17.593394219875336 61.946483988325305 15.480111877813929
v -18.898828327655792 87.68461033479035 17.364214976239438
v -15.456542372703552 84.3506603746692 17.871231999377862
v -14.839458465576172 84.92123170896642 17.32937502146362
v -18.276159465312958 88.24435150433655 16.817476379682546
v -32.78127908706665 41.77208914227014 41.08909582031087
v -28.088876605033875 42.8492520939639 39.445607833730136
v -28.49075496196747 43.75389565265327 39.58724322349252
v -33.02104473114014 42.74166596990803 41.04002613853541
v -19.690871238708496 84.35065958902501 13.048982288818019
v -18.898828327655792 87.68461033479035 17.364214976239438
v -18.276159465312958 88.24435150433655 16.817476379682546
v -19.074183702468872 84.92199386283507 12.507491879344846
v -58.94805192947388 13.747212120212218 44.684497262478075
v -54.21105623245239 14.552406657398423 43.8329404725504
v -54.51769828796387 15.489384249955947 44.00031612289115
v -59.10143852233887 14.732275745399836 44.76261196920123
v -18.124811351299286 59.52704142508804 11.644890146937644
v -17.975394427776337 61.085375739903654 15.815541626928146
v -17.593394219875336 61.946483988325305 15.480111877813929
v -17.58808195590973 60.22685948261177 11.173592381393487
v -32.63692259788513 41.505789518402416 35.12194374501356
v -32.78127908706665 41.77208914227014 41.08909582031087
v -33.02104473114014 42.74166596990803 41.04002613853541
v -33.05293321609497 42.40104534843981 35.281380063467566
v -57.42701292037964 14.491993464961878 38.27978136469414
v -58.94805192947388 13.747212120212218 44.684497262478075
v -59.10143852233887 14.732275745399836 44.76261196920123
v -57.76299834251404 15.41557342628042 38.46428441189385
v 0.5826279520988464 17.784609611615036 -4.781766153076946
v 0.582629069685936 -1.9229706716689705 -4.781761824717512
v -0.16602049581706524 -1.922970563665068 -4.118838592996588
v -0.16519762575626373 17.848394139766107 -4.120948838353543
v 0.582629069685936 -1.9229706716689705 -4.781761824717512
v 4.816956073045731 -1.9229654222726822 3.1329083060131633e-07
v 3.8169562816619873 -1.9229654222726822 3.1329083060131633e-07
v -0.16602049581706524 -1.922970563665068 -4.118838592996588
v 2.7346083894371986 39.979495511337795 -6.671387510190798
v 0.5826279520988464 17.784609611615036 -4.781766153076946
v -0.16519762575626373 17.848394139766107 -4.120948838353543
v 2.0399460569024086 40.358414258714866 -6.059979889624867
v 4.816954955458641 17.784614861011505 -2.897481513289903e-06
v 6.9689348340034485 39.97949927721478 -1.8491344468701703
v 6.274303048849106 40.35850743155406 -1.2377571874347382
v 3.8205865770578384 17.869670689105988 -2.911338866481262e-06
v 13.890483975410461 59.52703684505341 -16.46716223410102
v 2.7346083894371986 39.979495511337795 -6.671387510190798
v 2.0399460569024086 40.358414258714866 -6.059979889624867
v 13.354182243347168 60.2274391815995 -15.996261812627536
v 6.9689348340034485 39.97949927721478 -1.8491344468701703
v 18.124811351299286 59.52703763069809 -11.644909543308938
v 17.58808195590973 60.22685584179008 -11.173612005794471
v 6.274303048849106 40.35850743155406 -1.2377571874347382
v 8.50910171866417 16.32540928753276 -11.741855420062004
v 1.761818304657936 -0.672677361991351 -5.817186722835081
v 1.0973998345434666 -0.2055914751930476 -5.233795162322984
v 7.936909794807434 16.973591999927315 -11.2394293484011
v 1.761818304657936 -0.672677361991351 -5.817186722835081
v 5.99614754319191 -0.6726735961146766 -0.9949355221596021
v 5.331728979945183 -0.2055877093163428 -0.41154377538299003
v 1.0973998345434666 -0.2055914751930476 -5.233795162322984
v 12.743432819843292 16.325413053409193 -6.919605709502646
v 22.279687225818634 25.900385272396544 -15.293216454682646
v 22.03422635793686 26.845512317860003 -15.077663861413775
v 12.171241641044617 16.973595765803747 -6.417179637841739
v 34.85837280750275 26.33073953772951 -34.87866353817492
v 18.04535686969757 25.900378526288115 -20.1154646751254
v 17.799896001815796 26.845505571751573 -19.89991208185653
v 35.037973523139954 27.301746859140618 -35.036383546912255
v 22.279687225818634 25.900385272396544 -15.293216454682646
v 39.09270167350769 26.330740323373945 -30.056412337498955
v 39.2723023891449 27.301747644785053 -30.21413234623629
v 22.03422635793686 26.845512317860003 -15.077663861413775
v 41.96222126483917 21.66330444751503 -40.979043198438205
v 34.85837280750275 26.33073953772951 -34.87866353817492
v 35.037973523139954 27.301746859140618 -35.036383546912255
v 42.40277111530304 22.472513432940186 -41.367716278158696
v 39.09270167350769 26.330740323373945 -30.056412337498955
v 46.258798241615295 21.613748432313 -36.212426965121765
v 46.72088325023651 22.400948399455125 -36.62073977171002
v 39.2723023891449 27.301747644785053 -30.21413234623629
v 18.04535686969757 25.900378526288115 -20.1154646751254
v 8.50910171866417 16.32540928753276 -11.741855420062004
v 7.936909794807434 16.973591999927315 -11.2394293484011
v 17.799896001815796 26.845505571751573 -19.89991208185653
v 5.99614754319191 -0.6726735961146766 -0.9949355221596021
v 12.743432819843292 16.325413053409193 -6.919605709502646
v 12.171241641044617 16.973595765803747 -6.417179637841739
v 5.331728979945183 -0.2055877093163428 -0.41154377538299003
v -0.9667994454503059 19.64038852742525 -3.4212431272365875
v -0.9667985141277313 -0.06719138332972538 -3.421238798877215
v -1.7182253301143646 -0.06719127583300133 -2.7614286059942
v -1.715906709432602 19.71854671516668 -2.763477758931966
v -0.9667985141277313 -0.06719138332972538 -3.421238798877215
v 3.2675281167030334 -0.06718612733665842 1.4010140781786553
v 2.5161013007164 -0.06718601983993437 2.06082427106167
v -1.7182253301143646 -0.06719127583300133 -2.7614286059942
v 3.2675281167030334 -0.06718612733665842 1.4010140781786553
v 3.2675273716449738 19.640393783418318 1.4010097498192826
v 2.518419921398163 19.718551971159748 2.0587751181239042
v 2.5161013007164 -0.06718601983993437 2.06082427106167
v 2.7951186522841454 51.36619100686949 -6.724524670962033
v -0.9667994454503059 19.64038852742525 -3.4212431272365875
v -1.715906709432602 19.71854671516668 -2.763477758931966
v 2.074942924082279 51.65153642582952 -6.092150728822298
v 3.2675273716449738 19.640393783418318 1.4010097498192826
v 7.029446959495544 51.36619179251408 -1.902272538963494
v 6.309270858764648 51.65153721147411 -1.269898596823759
v 2.518419921398163 19.718551971159748 2.0587751181239042
v 9.62955728173256 71.61022217369707 -12.725724025737863
v 2.7951186522841454 51.36619100686949 -6.724524670962033
v 2.074942924082279 51.65153642582952 -6.092150728822298
v 8.977040648460388 72.10611503018096 -12.152769988277248
v 13.863885402679443 71.61022295934151 -7.903472825061899
v 17.800316214561462 79.64789667662356 -12.259891194463643
v 17.18362867832184 80.21923112687355 -11.718400971154834
v 13.211369514465332 72.1061158158254 -7.330518787601283
v 13.565987348556519 79.64789589097937 -17.08214090502349
v 9.62955728173256 71.61022217369707 -12.725724025737863
v 8.977040648460388 72.10611503018096 -12.152769988277248
v 12.948903441429138 80.21846740183597 -16.540284113025013
v 7.029446959495544 51.36619179251408 -1.902272538963494
v 13.863885402679443 71.61022295934151 -7.903472825061899
v 13.211369514465332 72.1061158158254 -7.330518787601283
v 6.309270858764648 51.65153721147411 -1.269898596823759
v 2.036779187619686 17.98727562663669 -6.058629924989927
v 1.6831843182444572 -1.2309720791405283 -5.748139866311453
v 0.9320016950368881 -1.2064961624919144 -5.088543322814671
v 1.3075699098408222 18.228555333007026 -5.418321107335252
v 1.6831843182444572 -1.2309720791405283 -5.748139866311453
v 5.917513370513916 -1.2309712934961228 -0.9258888519000036
v 5.166330933570862 -1.206495376847509 -0.2662923084032211
v 0.9320016950368881 -1.2064961624919144 -5.088543322814671
v 6.271108984947205 17.987279392513123 -1.2363802144305676
v 11.605765670537949 32.21179448466209 -5.920645999687033
v 11.069738864898682 32.91256040950654 -5.449959037406886
v 5.541899800300598 18.22855909888346 -0.5960713967758926
v 22.28146642446518 42.560668876776646 -23.835122068729703
v 7.371436059474945 32.21178773855336 -10.742896082774937
v 6.835409253835678 32.912553663397745 -10.27220949302382
v 22.11739867925644 43.5365280654367 -23.691074192572533
v 11.605765670537949 32.21179448466209 -5.920645999687033
v 26.515796780586243 42.56066966242108 -19.01287086805374
v 26.351729035377502 43.53652885108114 -18.868822991896568
v 11.069738864898682 32.91256040950654 -5.449959037406886
v 30.3074449300766 42.30677292577293 -30.131966807810066
v 22.28146642446518 42.560668876776646 -23.835122068729703
v 22.11739867925644 43.5365280654367 -23.691074192572533
v 30.206307768821716 43.29764651545215 -30.04315902876077
v 26.515796780586243 42.56066966242108 -19.01287086805374
v 34.54176485538483 42.30676775095386 -25.309709646668654
v 34.45896804332733 43.30066329349787 -25.237015983826723
v 26.351729035377502 43.53652885108114 -18.868822991896568
v 7.371436059474945 32.21178773855336 -10.742896082774937
v 2.036779187619686 17.98727562663669 -6.058629924989927
v 1.3075699098408222 18.228555333007026 -5.418321107335252
v 6.835409253835678 32.912553663397745 -10.27220949302382
v 5.917513370513916 -1.2309712934961228 -0.9258888519000036
v 6.271108984947205 17.987279392513123 -1.2363802144305676
v 5.541899800300598 18.22855909888346 -0.5960713967758926
v 5.166330933570862 -1.206495376847509 -0.2662923084032211
v 17.975394427776337 61.08537058654288 -15.815561531068985
v 13.890483975410461 59.52703684505341 -16.46716223410102
v 13.354182243347168 60.2274391815995 -15.996261812627536
v 17.593394219875336 61.946478944261365 -15.480132062539464
v 17.00827330350876 82.98184601630744 -16.575124968223864
v 13.565987348556519 79.64789589097937 -17.08214090502349
v 12.948903441429138 80.21846740183597 -16.540284113025013
v 16.385604441165924 83.54158736400366 -16.028386554053828
v 35.01531779766083 44.020939780976086 -31.01374628096149
v 30.3074449300766 42.30677292577293 -30.131966807810066
v 30.206307768821716 43.29764651545215 -30.04315902876077
v 34.726643562316895 44.944185967522714 -30.760259798076596
v 17.800316214561462 79.64789667662356 -12.259891194463643
v 17.00827330350876 82.98184601630744 -16.575124968223864
v 16.385604441165924 83.54158736400366 -16.028386554053828
v 17.18362867832184 80.21923112687355 -11.718400971154834
v 46.13489210605621 19.677453261884445 -42.54677914294554
v 41.96222126483917 21.66330444751503 -40.979043198438205
v 42.40277111530304 22.472513432940186 -41.367716278158696
v 46.45856320858002 20.580494876666037 -42.829150334228636
v 18.124811351299286 59.52703763069809 -11.644909543308938
v 17.975394427776337 61.08537058654288 -15.815561531068985
v 17.593394219875336 61.946478944261365 -15.480132062539464
v 17.58808195590973 60.22685584179008 -11.173612005794471
v 34.54176485538483 42.30676775095386 -25.309709646668654
v 35.01531779766083 44.020939780976086 -31.01374628096149
v 34.726643562316895 44.944185967522714 -30.760259798076596
v 34.45896804332733 43.30066329349787 -25.237015983826723
v 46.258798241615295 21.613748432313 -36.212426965121765
v 46.13489210605621 19.677453261884445 -42.54677914294554
v 46.45856320858002 20.580494876666037 -42.829150334228636
v 46.72088325023651 22.400948399455125 -36.62073977171002
v -0.582629069685936 -1.9229706716689705 -4.781761824717512
v -0.5826279520988464 17.784609611615036 -4.781766153076946
v 0.16519762575626373 17.848394139766107 -4.120948838353543
v 0.16602049581706524 -1.922970563665068 -4.118838592996588
v -4.816956073045731 -1.9229654222726822 3.1329083060131633e-07
v -0.582629069685936 -1.9229706716689705 -4.781761824717512
v 0.16602049581706524 -1.922970563665068 -4.118838592996588
v -3.8169562816619873 -1.9229654222726822 3.1329083060131633e-07
v -0.5826279520988464 17.784609611615036 -4.781766153076946
v -2.7346083894371986 39.979495511337795 -6.671387510190798
v -2.0399460569024086 40.358414258714866 -6.059979889624867
v 0.16519762575626373 17.848394139766107 -4.120948838353543
v -6.9689348340034485 39.97949927721478 -1.8491344468701703
v -4.816954955458641 17.784614861011505 -2.897481513289903e-06
v -3.8205865770578384 17.869670689105988 -2.911338866481262e-06
v -6.274303048849106 40.35850743155406 -1.2377571874347382
v -2.7346083894371986 39.979495511337795 -6.671387510190798
v -9.409119188785553 54.594031848802686 -12.937132968002436
v -8.87281745672226 55.29443418534878 -12.46623254652895
v -2.0399460569024086 40.358414258714866 -6.059979889624867
v -13.643446564674377 54.59403263444736 -8.114880277210352
v -6.9689348340034485 39.97949927721478 -1.8491344468701703
v -6.274303048849106 40.35850743155406 -1.2377571874347382
v -13.10671716928482 55.29385084553923 -7.643583484753944
v -1.761818304657936 -0.672677361991351 -5.817186722835081
v -8.50910171866417 16.32540928753276 -11.741855420062004
v -7.936909794807434 16.973591999927315 -11.2394293484011
v -1.0973998345434666 -0.2055914751930476 -5.233795162322984
v -5.99614754319191 -0.6726735961146766 -0.9949355221596021
v -1.761818304657936 -0.672677361991351 -5.817186722835081
v -1.0973998345434666 -0.2055914751930476 -5.233795162322984
v -5.331728979945183 -0.2055877093163428 -0.41154377538299003
v -22.279687225818634 25.900385272396544 -15.293216454682646
v -12.743432819843292 16.325413053409193 -6.919605709502646
v -12.171241641044617 16.973595765803747 -6.417179637841739
v -22.03422635793686 26.845512317860003 -15.077663861413775
v -18.04535686969757 25.900378526288115 -20.1154646751254
v -24.110956490039825 27.791624024685248 -25.882868526244007
v -24.285201728343964 28.7601607303236 -26.06051734755948
v -17.799896001815796 26.845505571751573 -19.89991208185653
v -29.43812608718872 27.48713725796284 -22.31744975639136
v -22.279687225818634 25.900385272396544 -15.293216454682646
v -22.03422635793686 26.845512317860003 -15.077663861413775
v -29.61236834526062 28.455676943832945 -22.495101557939556
v -24.110956490039825 27.791624024685248 -25.882868526244007
v -31.40609562397003 19.785467819828643 -39.41152120117742
v -31.64108097553253 20.718800516877707 -39.68288937997002
v -24.285201728343964 28.7601607303236 -26.06051734755948
v -36.73326075077057 19.480985523455562 -35.84609647086102
v -29.43812608718872 27.48713725796284 -22.31744975639136
v -29.61236834526062 28.455676943832945 -22.495101557939556
v -36.98655664920807 20.400682163250963 -36.14597652926034
v -8.50910171866417 16.32540928753276 -11.741855420062004
v -18.04535686969757 25.900378526288115 -20.1154646751254
v -17.799896001815796 26.845505571751573 -19.89991208185653
v -7.936909794807434 16.973591999927315 -11.2394293484011
v -12.743432819843292 16.325413053409193 -6.919605709502646
v -5.99614754319191 -0.6726735961146766 -0.9949355221596021
v -5.331728979945183 -0.2055877093163428 -0.41154377538299003
v -12.171241641044617 16.973595765803747 -6.417179637841739
v 0.9667985141277313 -0.06719138332972538 -3.421238798877215
v 0.9667994454503059 19.64038852742525 -3.4212431272365875
v 1.715906709432602 19.71854671516668 -2.763477758931966
v 1.7182253301143646 -0.06719127583300133 -2.7614286059942
v -3.2675281167030334 -0.06718612733665842 1.4010140781786553
v 0.9667985141277313 -0.06719138332972538 -3.421238798877215
v 1.7182253301143646 -0.06719127583300133 -2.7614286059942
v -2.5161013007164 -0.06718601983993437 2.06082427106167
v -3.2675273716449738 19.640393783418318 1.4010097498192826
v -3.2675281167030334 -0.06718612733665842 1.4010140781786553
v -2.5161013007164 -0.06718601983993437 2.06082427106167
v -2.518419921398163 19.718551971159748 2.0587751181239042
v 0.9667994454503059 19.64038852742525 -3.4212431272365875
v -2.7951186522841454 51.36619100686949 -6.724524670962033
v -2.074942924082279 51.65153642582952 -6.092150728822298
v 1.715906709432602 19.71854671516668 -2.763477758931966
v -7.029446959495544 51.36619179251408 -1.902272538963494
v -3.2675273716449738 19.640393783418318 1.4010097498192826
v -2.518419921398163 19.718551971159748 2.0587751181239042
v -6.309270858764648 51.65153721147411 -1.269898596823759
v -2.7951186522841454 51.36619100686949 -6.724524670962033
v -9.62955728173256 71.61022217369707 -12.725724025737863
v -8.977040648460388 72.10611503018096 -12.152769988277248
v -2.074942924082279 51.65153642582952 -6.092150728822298
v -22.86752313375473 88.5550890438148 -15.809405866416606
v -13.863885402679443 71.61022295934151 -7.903472825061899
v -13.211369514465332 72.1061158158254 -7.330518787601283
v -22.250835597515106 89.1264234940648 -15.267915643107797
v -9.62955728173256 71.61022217369707 -12.725724025737863
v -18.633194267749786 88.55508825817061 -20.631655576976453
v -18.016110360622406 89.12565976902721 -20.089798784977976
v -8.977040648460388 72.10611503018096 -12.152769988277248
v -13.863885402679443 71.61022295934151 -7.903472825061899
v -7.029446959495544 51.36619179251408 -1.902272538963494
v -6.309270858764648 51.65153721147411 -1.269898596823759
v -13.211369514465332 72.1061158158254 -7.330518787601283
v -1.6831843182444572 -1.2309720791405283 -5.748139866311453
v -2.036779187619686 17.98727562663669 -6.058629924989927
v -1.3075699098408222 18.228555333007026 -5.418321107335252
v -0.9320016950368881 -1.2064961624919144 -5.088543322814671
v -5.917513370513916 -1.2309712934961228 -0.9258888519000036
v -1.6831843182444572 -1.2309720791405283 -5.748139866311453
v -0.9320016950368881 -1.2064961624919144 -5.088543322814671
v -5.166330933570862 -1.206495376847509 -0.2662923084032211
v -11.605765670537949 32.21179448466209 -5.920645999687033
v -6.271108984947205 17.987279392513123 -1.2363802144305676
v -5.541899800300598 18.22855909888346 -0.5960713967758926
v -11.069738864898682 32.91256040950654 -5.449959037406886
v -7.371436059474945 32.21178773855336 -10.742896082774937
v -21.824459731578827 42.44973599131808 -21.99885940731914
v -21.64982706308365 43.42571438700628 -21.868691962833463
v -6.835409253835678 32.912553663397745 -10.27220949302382
v -25.469940900802612 42.39757682709684 -16.717628591516814
v -11.605765670537949 32.21179448466209 -5.920645999687033
v -11.069738864898682 32.91256040950654 -5.449959037406886
v -25.295305252075195 43.3735522425528 -16.58746114703065
v -21.824459731578827 42.44973599131808 -21.99885940731914
v -42.00363755226135 41.439619765810676 -35.93793292458205
v -41.898006200790405 42.43054997890853 -35.85522568093474
v -21.64982706308365 43.42571438700628 -21.868691962833463
v -45.64911127090454 41.387451660893696 -30.656696148313788
v -25.469940900802612 42.39757682709684 -16.717628591516814
v -25.295305252075195 43.3735522425528 -16.58746114703065
v -45.563578605651855 42.3813889260627 -30.587846985066665
v -2.036779187619686 17.98727562663669 -6.058629924989927
v -7.371436059474945 32.21178773855336 -10.742896082774937
v -6.835409253835678 32.912553663397745 -10.27220949302382
v -1.3075699098408222 18.228555333007026 -5.418321107335252
v -6.271108984947205 17.987279392513123 -1.2363802144305676
v -5.917513370513916 -1.2309712934961228 -0.9258888519000036
v -5.166330933570862 -1.206495376847509 -0.2662923084032211
v -5.541899800300598 18.22855909888346 -0.5960713967758926
v -9.409119188785553 54.594031848802686 -12.937132968002436
v -13.494029641151428 56.152365590292156 -12.2855322649704
v -13.112029433250427 57.01347394801064 -11.950102796440879
v -8.87281745672226 55.29443418534878 -12.46623254652895
v -18.633194267749786 88.55508825817061 -20.631655576976453
v -22.075480222702026 91.88903838349869 -20.124639640176827
v -21.452811360359192 92.44877973119492 -19.57790122600679
v -18.016110360622406 89.12565976902721 -20.089798784977976
v -42.00363755226135 41.439619765810676 -35.93793292458205
v -46.79088592529297 43.13105052106607 -36.25623690441289
v -46.47950530052185 44.05452916093357 -36.032174254459235
v -41.898006200790405 42.43054997890853 -35.85522568093474
v -22.075480222702026 91.88903838349869 -20.124639640176827
v -22.86752313375473 88.5550890438148 -15.809405866416606
v -22.250835597515106 89.1264234940648 -15.267915643107797
v -21.452811360359192 92.44877973119492 -19.57790122600679
v -31.40609562397003 19.785467819828643 -39.41152120117742
v -35.252806544303894 18.884842660732772 -42.27583418005739
v -35.39129197597504 19.867531008061267 -42.398828524651655
v -31.64108097553253 20.718800516877707 -39.68288937997002
v -13.494029641151428 56.152365590292156 -12.2855322649704
v -13.643446564674377 54.59403263444736 -8.114880277210352
v -13.10671716928482 55.29385084553923 -7.643583484753944
v -13.112029433250427 57.01347394801064 -11.950102796440879
v -46.79088592529297 43.13105052106607 -36.25623690441289
v -45.64911127090454 41.387451660893696 -30.656696148313788
v -45.563578605651855 42.3813889260627 -30.587846985066665
v -46.47950530052185 44.05452916093357 -36.032174254459235
v -35.252806544303894 18.884842660732772 -42.27583418005739
v -36.73326075077057 19.480985523455562 -35.84609647086102
v -36.98655664920807 20.400682163250963 -36.14597652926034
v -35.39129197597504 19.867531008061267 -42.398828524651655
f 1 2 3
f 1 3 4
f 5 6 7
f 5 7 8
f 9 10 11
f 9 11 12
f 13 14 15
f 13 15 16
f 17 18 19
f 17 19 20
f 21 22 23
f 21 23 24
f 25 26 27
f 25 27 28
f 29 30 31
f 29 31 32
f 33 34 35
f 33 35 36
f 37 38 39
f 37 39 40
f 41 42 43
f 41 43 44
f 45 46 47
f 45 47 48
f 49 50 51
f 49 51 52
f 53 54 55
f 53 55 56
f 57 58 59
f 57 59 60
f 61 62 63
f 64 65 66
f 67 68 69
f 70 71 72
f 73 74 75
f 73 75 76
f 77 78 79
f 77 79 80
f 81 82 83
f 81 83 84
f 85 86 87
f 85 87 88
f 89 90 91
f 89 91 92
f 93 94 95
f 93 95 96
f 97 98 99
f 97 99 100
f 101 102 103
f 101 103 104
f 105 106 107
f 105 107 108
f 109 110 111
f 109 111 112
f 113 114 115
f 113 115 116
f 117 118 119
f 117 119 120
f 121 122 123
f 121 123 124
f 125 126 127
f 125 127 128
f 129 130 131
f 129 131 132
f 133 134 135
f 136 137 138
f 139 140 141
f 142 143 144
f 145 146 147
f 145 147 148
f 149 150 151
f 149 151 152
f 153 154 155
f 153 155 156
f 157 158 159
f 157 159 160
f 161 162 163
f 161 163 164
f 165 166 167
f 165 167 168
f 169 170 171
f 169 171 172
f 173 174 175
f 173 175 176
f 177 178 179
f 177 179 180
f 181 182 183
f 181 183 184
f 185 186 187
f 185 187 188
f 189 190 191
f 189 191 192
f 193 194 195
f 193 195 196
f 197 198 199
f 197 199 200
f 201 202 203
f 201 203 204
f 205 206 207
f 208 209 210
f 211 212 213
f 214 215 216
f 217 218 219
f 217 219 220
f 221 222 223
f 221 223 224
f 225 226 227
f 225 227 228
f 229 230 231
f 229 231 232
f 233 234 235
f 233 235 236
f 237 238 239
f 237 239 240
f 241 242 243
f 241 243 244
f 245 246 247
f 245 247 248
f 249 250 251
f 249 251 252
f 253 254 255
f 253 255 256
f 257 258 259
f 257 259 260
f 261 262 263
f 261 263 264
f 265 266 267
f 265 267 268
f 269 270 271
f 269 271 272
f 273 274 275
f 273 275 276
f 277 278 279
f 280 281 282
f 283 284 285
f 286 287 288
f 289 290 291
f 289 291 292
f 293 294 295
f 293 295 296
f 297 298 299
f 297 299 300
f 301 302 303
f 301 303 304
f 305 306 307
f 305 307 308
f 309 310 311
f 309 311 312
f 313 314 315
f 313 315 316
f 317 318 319
f 317 319 320
f 321 322 323
f 321 323 324
f 325 326 327
f 325 327 328
f 329 330 331
f 329 331 332
f 333 334 335
f 333 335 336
f 337 338 339
f 337 339 340
f 341 342 343
f 341 343 344
f 345 346 347
f 345 347 348
f 349 350 351
f 352 353 354
f 355 356 357
f 358 359 360
f 361 362 363
f 361 363 364
f 365 366 367
f 365 367 368
f 369 370 371
f 369 371 372
f 373 374 375
f 373 375 376
f 377 378 379
f 377 379 380
f 381 382 383
f 381 383 384
f 385 386 387
f 385 387 388
f 389 390 391
f 389 391 392
f 393 394 395
f 393 395 396
f 397 398 399
f 397 399 400
f 401 402 403
f 401 403 404
f 405 406 407
f 405 407 408
f 409 410 411
f 409 411 412
f 413 414 415
f 413 415 416
f 417 418 419
f 417 419 420
f 421 422 423
f 424 425 426
f 427 428 429
f 430 431 432
f 433 434 435
f 433 435 436
f 437 438 439
f 437 439 440
f 441 442 443
f 441 443 444
f 445 446 447
f 445 447 448
f 449 450 451
f 449 451 452
f 453 454 455
f 453 455 456
f 457 458 459
f 457 459 460
f 461 462 463
f 461 463 464
f 465 466 467
f 465 467 468
f 469 470 471
f 469 471 472
f 473 474 475
f 473 475 476
f 477 478 479
f 477 479 480
f 481 482 483
f 481 483 484
f 485 486 487
f 485 487 488
f 489 490 491
f 489 491 492
f 493 494 495
f 496 497 498
f 499 500 501
f 502 503 504
f 505 506 507
f 505 507 508
f 509 510 511
f 509 511 512
f 513 514 515
f 513 515 516
f 517 518 519
f 517 519 520
f 521 522 523
f 521 523 524
f 525 526 527
f 525 527 528
f 529 530 531
f 529 531 532
f 533 534 535
f 533 535 536
f 537 538 539
f 537 539 540
f 541 542 543
f 541 543 544
f 545 546 547
f 545 547 548
f 549 550 551
f 549 551 552
f 553 554 555
f 553 555 556
f 557 558 559
f 557 559 560
f 561 562 563
f 561 563 564
f 565 566 567
f 568 569 570
f 571 572 573
f 574 575 576
f 577 578 579
f 577 579 580
f 581 582 583
f 581 583 584
f 585 586 587
f 585 587 588
f 589 590 591
f 589 591 592
f 593 594 595
f 593 595 596
f 597 598 599
f 597 599 600
f 601 602 603
f 601 603 604
f 605 606 607
f 605 607 608
f 609 610 611
f 609 611 612
f 613 614 615
f 613 615 616
f 617 618 619
f 617 619 620
f 621 622 623
f 621 623 624
f 625 626 627
f 625 627 628
f 629 630 631
f 629 631 632
f 633 634 635
f 633 635 636
f 637 638 639
f 637 639 640
f 641 642 643
f 641 643 644
f 645 646 647
f 645 647 648
f 649 650 651
f 649 651 652
f 653 654 655
f 653 655 656
f 657 658 659
f 657 659 660
f 661 662 663
f 661 663 664
f 665 666 667
f 665 667 668
f 669 670 671
f 669 671 672
f 673 674 675
f 673 675 676
f 677 678 679
f 677 679 680
f 681 682 683
f 681 683 684
f 685 686 687
f 685 687 688
f 689 690 691
f 689 691 692
f 693 694 695
f 693 695 696
f 697 698 699
f 697 699 700
f 701 702 703
f 701 703 704
f 705 706 707
f 705 707 708
f 709 710 711
f 709 711 712
f 713 714 715
f 713 715 716
f 717 718 719
f 717 719 720
f 721 722 723
f 721 723 724
f 725 726 727
f 725 727 728
f 729 730 731
f 729 731 732
f 733 734 735
f 733 735 736
f 737 738 739
f 737 739 740
f 741 742 743
f 741 743 744
f 745 746 747
f 745 747 748
f 749 750 751
f 749 751 752
f 753 754 755
f 753 755 756
f 757 758 759
f 757 759 760
f 761 762 763
f 761 763 764
f 765 766 767
f 765 767 768
f 769 770 771
f 769 771 772
f 773 774 775
f 773 775 776
f 777 778 779
f 777 779 780
f 781 782 783
f 781 783 784
f 785 786 787
f 785 787 788
f 789 790 791
f 789 791 792
f 793 794 795
f 793 795 796
f 797 798 799
f 797 799 800
f 801 802 803
f 801 803 804
f 805 806 807
f 805 807 808
f 809 810 811
f 809 811 812
f 813 814 815
f 813 815 816
f 817 818 819
f 817 819 820
f 821 822 823
f 821 823 824
f 825 826 827
f 825 827 828
f 829 830 831
f 829 831 832
f 833 834 835
f 833 835 836
f 837 838 839
f 837 839 840
f 841 842 843
f 841 843 844
f 845 846 847
f 845 847 848
f 849 850 851
f 849 851 852
f 853 854 855
f 853 855 856
f 857 858 859
f 857 859 860
f 861 862 863
f 861 863 864
f 865 866 867
f 865 867 868
f 869 870 871
f 869 871 872
f 873 874 875
f 873 875 876
f 877 878 879
f 877 879 880
f 881 882 883
f 881 883 884
f 885 886 887
f 885 887 888
f 889 890 891
f 889 891 892
f 893 894 895
f 893 895 896
f 897 898 899
f 897 899 900
f 901 902 903
f 901 903 904
f 905 906 907
f 905 907 908
f 909 910 911
f 909 911 912
f 913 914 915
f 913 915 916
f 917 918 919
f 917 919 920
f 921 922 923
f 921 923 924
f 925 926 927
f 925 927 928
f 929 930 931
f 929 931 932
f 933 934 935
f 933 935 936
f 937 938 939
f 937 939 940
f 941 942 943
f 941 943 944
f 945 946 947
f 945 947 948
f 949 950 951
f 949 951 952
f 953 954 955
f 953 955 956
f 957 958 959
f 957 959 960
f 961 962 963
f 961 963 964
f 965 966 967
f 965 967 968
f 969 970 971
f 969 971 972
f 973 974 975
f 973 975 976
f 977 978 979
f 977 979 980
f 981 982 983
f 981 983 984
f 985 986 987
f 985 987 988
f 989 990 991
f 989 991 992
f 993 994 995
f 993 995 996
f 997 998 999
f 997 999 1000
f 1001 1002 1003
f 1001 1003 1004
f 1005 1006 1007
f 1005 1007 1008
f 1009 1010 1011
f 1009 1011 1012
f 1013 1014 1015
f 1013 1015 1016
f 1017 1018 1019
f 1017 1019 1020
f 1021 1022 1023
f 1021 1023 1024
f 1025 1026 1027
f 1025 1027 1028
f 1029 1030 1031
f 1029 1031 1032
f 1033 1034 1035
f 1033 1035 1036
f 1037 1038 1039
f 1037 1039 1040
f 1041 1042 1043
f 1041 1043 1044
f 1045 1046 1047
f 1045 1047 1048
f 1049 1050 1051
f 1049 1051 1052
f 1053 1054 1055
f 1053 1055 1056
f 1057 1058 1059
f 1057 1059 1060
f 1061 1062 1063
f 1061 1063 1064
f 1065 1066 1067
f 1065 1067 1068
f 1069 1070 1071
f 1069 1071 1072
f 1073 1074 1075
f 1073 1075 1076
f 1077 1078 1079
f 1077 1079 1080
f 1081 1082 1083
f 1081 1083 1084
f 1085 1086 1087
f 1085 1087 1088
f 1089 1090 1091
f 1089 1091 1092
f 1093 1094 1095
f 1093 1095 1096
f 1097 1098 1099
f 1097 1099 1100
f 1101 1102 1103
f 1101 1103 1104
f 1105 1106 1107
f 1105 1107 1108
f 1109 1110 1111
f 1109 1111 1112
f 1113 1114 1115
f 1113 1115 1116
f 1117 1118 1119
f 1117 1119 1120
f 1121 1122 1123
f 1121 1123 1124
f 1125 1126 1127
f 1125 1127 1128
f 1129 1130 1131
f 1129 1131 1132
f 1133 1134 1135
f 1133 1135 1136
f 1137 1138 1139
f 1137 1139 1140
f 1141 1142 1143
f 1141 1143 1144
f 1145 1146 1147
f 1145 1147 1148
f 1149 1150 1151
f 1149 1151 1152
f 1153 1154 1155
f 1153 1155 1156
f 1157 1158 1159
f 1157 1159 1160
f 1161 1162 1163
f 1161 1163 1164
f 1165 1166 1167
f 1165 1167 1168
f 1169 1170 1171
f 1169 1171 1172
f 1173 1174 1175
f 1173 1175 1176
f 1177 1178 1179
f 1177 1179 1180
f 1181 1182 1183
f 1181 1183 1184
f 1185 1186 1187
f 1185 1187 1188
f 1189 1190 1191
f 1189 1191 1192
f 1193 1194 1195
f 1193 1195 1196
f 1197 1198 1199
f 1197 1199 1200
f 1201 1202 1203
f 1201 1203 1204
f 1205 1206 1207
f 1205 1207 1208
f 1209 1210 1211
f 1209 1211 1212
f 1213 1214 1215
f 1213 1215 1216
f 1217 1218 1219
f 1217 1219 1220
f 1221 1222 1223
f 1221 1223 1224
f 1225 1226 1227
f 1225 1227 1228
f 1229 1230 1231
f 1229 1231 1232
