o convex_0
v -48.161330 66.167906 -88.035775
v 20.408255 60.149474 -110.889752
v 2.358730 60.149474 -108.481932
v 16.798350 75.790354 -84.428108
v 32.438169 70.976833 -83.220135
v -40.941520 60.149474 -95.253818
v -52.971435 63.761146 -98.858777
v 27.628064 63.761146 -109.684488
v 26.427864 60.149474 -106.076820
v -33.721711 72.180214 -83.220135
v -44.551425 64.962995 -85.630663
v 37.257579 75.790354 -83.220135
v -57.790844 60.149474 -98.858777
v 36.048074 66.167906 -94.051262
v 20.408255 63.761146 -109.684488
v 37.257579 73.382063 -90.443595
v -21.682492 67.371286 -83.220135
v -54.180940 64.962995 -96.456374
v 2.358730 60.149474 -101.263889
v -56.581340 60.149474 -94.051262
v -43.351225 69.771922 -88.035775
v 27.628064 60.149474 -110.889752
v -40.941520 68.568542 -83.220135
v -38.531816 61.354385 -102.466444
v 26.427864 75.790354 -85.630663
v 36.048074 69.771922 -96.456374
v -57.790844 63.761146 -96.456374
v 37.257579 70.976833 -84.428108
v -18.081891 73.382063 -84.428108
v 20.408255 66.167906 -104.874264
v -39.741320 70.976833 -83.220135
v -30.111806 62.556234 -91.646151
f 6 19 32 
f 3 2 6 
f 6 2 9 
f 10 5 12 
f 4 10 12 
f 3 6 13 
f 2 3 15 
f 8 2 15 
f 5 10 17 
f 15 7 18 
f 6 9 19 
f 14 5 19 
f 9 14 19 
f 6 11 20 
f 11 1 20 
f 13 6 20 
f 2 8 22 
f 9 2 22 
f 14 9 22 
f 1 11 23 
f 17 10 23 
f 11 17 23 
f 3 13 24 
f 13 7 24 
f 15 3 24 
f 7 15 24 
f 4 12 25 
f 12 16 25 
f 8 16 26 
f 16 14 26 
f 22 8 26 
f 14 22 26 
f 7 13 27 
f 18 7 27 
f 20 1 27 
f 13 20 27 
f 21 18 27 
f 12 5 28 
f 5 14 28 
f 16 12 28 
f 14 16 28 
f 10 4 29 
f 21 10 29 
f 18 21 29 
f 8 15 30 
f 16 8 30 
f 15 18 30 
f 4 25 30 
f 25 16 30 
f 29 4 30 
f 18 29 30 
f 10 21 31 
f 1 23 31 
f 23 10 31 
f 27 1 31 
f 21 27 31 
f 11 6 32 
f 5 17 32 
f 17 11 32 
f 19 5 32 
o convex_1
v -22.898945 16.839566 -103.674653
v 11.989893 40.899161 -109.687432
v 11.989893 40.899161 -112.093250
v -43.351460 40.899161 -101.268835
v -13.276850 14.429980 -101.268835
v -46.957361 30.068975 -103.674653
v 11.989893 28.866773 -112.093250
v -37.335266 40.899161 -106.079293
v 16.804120 33.675582 -108.485111
v -14.485176 15.634773 -106.079293
v -46.957361 30.068975 -100.065337
v -38.537233 40.899161 -101.268835
v 3.563406 39.694367 -112.093250
v 16.804120 30.068975 -112.093250
v -4.856722 40.899161 -106.079293
v -13.276850 16.839566 -101.268835
v 16.804120 30.068975 -108.485111
v -43.351460 37.284781 -100.065337
v -33.723006 22.855760 -100.065337
v -44.553427 37.284781 -104.878151
v -1.244462 20.446174 -108.485111
v -48.165688 30.068975 -101.268835
v -22.898945 30.068975 -107.281614
v 10.787926 40.899161 -108.485111
v -18.078358 14.429980 -104.878151
v -44.553427 39.694367 -104.878151
v -16.876391 14.429980 -101.268835
v -48.165688 32.475971 -100.065337
v -13.276850 14.429980 -104.878151
v -31.319072 25.260165 -100.065337
v -25.302878 18.044360 -104.878151
v -3.654755 37.284781 -110.890930
f 55 52 64 
f 34 35 36 
f 36 35 40 
f 35 34 41 
f 34 36 44 
f 35 39 45 
f 40 35 45 
f 39 35 46 
f 35 41 46 
f 34 44 47 
f 47 44 48 
f 37 41 48 
f 41 37 49 
f 46 41 49 
f 44 36 50 
f 48 44 50 
f 50 43 51 
f 40 45 52 
f 42 39 53 
f 39 46 53 
f 49 37 53 
f 46 49 53 
f 33 51 54 
f 51 43 54 
f 39 42 55 
f 38 52 55 
f 41 34 56 
f 34 47 56 
f 47 48 56 
f 48 41 56 
f 36 40 58 
f 52 38 58 
f 40 52 58 
f 38 54 58 
f 51 33 59 
f 37 51 59 
f 33 57 59 
f 57 37 59 
f 43 50 60 
f 50 36 60 
f 54 43 60 
f 36 58 60 
f 58 54 60 
f 53 37 61 
f 42 53 61 
f 37 57 61 
f 57 42 61 
f 37 48 62 
f 48 50 62 
f 50 51 62 
f 51 37 62 
f 33 54 63 
f 54 38 63 
f 38 55 63 
f 55 42 63 
f 57 33 63 
f 42 57 63 
f 45 39 64 
f 52 45 64 
f 39 55 64 
o convex_2
v -57.789902 60.147590 -95.251581
v 21.605628 45.713152 -114.501894
v 21.605628 46.917121 -114.501894
v 27.631715 60.147590 -107.283027
v -60.196663 42.105014 -97.661639
v -43.349341 54.131514 -104.876738
v 31.241856 42.105014 -110.891518
v 16.792108 60.147590 -110.891518
v -38.535820 40.899161 -106.077056
v -58.993282 60.147590 -98.861957
v -62.603423 43.307098 -101.270130
v 4.758306 50.523375 -113.297807
v -56.586522 55.333598 -95.251581
v 31.241856 43.307098 -114.501894
v 2.351546 40.899161 -112.093721
v 28.835095 57.739652 -112.093721
v -36.129060 48.119206 -107.283027
v 2.351546 40.899161 -107.283027
v 27.631715 57.739652 -107.283027
v -42.145960 60.147590 -102.470448
v -52.967196 60.147590 -95.251581
v -58.993282 45.713152 -102.470448
v -62.603423 44.511067 -97.661639
v -39.730014 40.899161 -101.270130
v 13.191154 56.537567 -112.093721
v -36.129060 50.523375 -107.283027
v 31.241856 46.917121 -114.501894
v 4.758306 48.119206 -113.297807
v 11.987773 40.899161 -112.093721
v 30.038475 46.917121 -109.689316
v -9.682255 51.725460 -110.891518
v 28.835095 58.943621 -108.483345
f 91 80 96 
f 65 68 72 
f 65 72 74 
f 73 69 75 
f 67 66 76 
f 69 71 77 
f 66 67 78 
f 66 78 79 
f 72 68 80 
f 79 73 81 
f 71 69 82 
f 73 79 82 
f 70 74 84 
f 74 72 84 
f 68 65 85 
f 65 77 85 
f 83 68 85 
f 77 83 85 
f 74 70 86 
f 73 75 86 
f 75 74 86 
f 81 73 86 
f 65 74 87 
f 75 69 87 
f 74 75 87 
f 77 65 87 
f 69 77 87 
f 69 73 88 
f 82 69 88 
f 73 82 88 
f 67 76 89 
f 72 80 89 
f 80 67 89 
f 84 72 89 
f 76 81 90 
f 86 70 90 
f 81 86 90 
f 78 67 91 
f 71 78 91 
f 67 80 91 
f 76 66 92 
f 66 79 92 
f 81 76 92 
f 79 81 92 
f 78 71 93 
f 79 78 93 
f 71 82 93 
f 82 79 93 
f 77 71 94 
f 71 83 94 
f 83 77 94 
f 70 84 95 
f 89 76 95 
f 84 89 95 
f 90 70 95 
f 76 90 95 
f 80 68 96 
f 68 83 96 
f 83 71 96 
f 71 91 96 
o convex_3
v 28.835566 55.334894 -27.875366
v 56.507892 55.333834 20.243116
v 51.689072 56.540040 19.036203
v 43.275775 55.334894 -49.527964
v 52.894454 45.711739 -53.134336
v 43.270357 52.929900 16.636744
v 28.835566 52.929900 -37.487568
v 55.302510 50.524906 -47.121322
v 56.507892 50.524906 2.196889
v 28.835566 56.538980 -37.487568
v 38.462372 56.540040 8.209904
v 56.507892 55.333834 0.982792
v 38.462372 51.726873 -7.429681
v 56.507892 48.120973 -33.888380
v 40.870428 51.726873 -49.527964
v 52.894454 45.711739 -49.527964
v 36.059734 56.538980 -41.108307
v 56.507892 52.929900 20.243116
v 38.462372 54.131867 8.209904
v 55.302510 49.322939 -53.134336
v 56.507892 51.726873 -33.888380
v 44.475739 56.540040 17.836474
v 44.475739 55.334894 -47.121322
v 40.870428 55.334894 -49.527964
v 28.835566 54.132927 -27.875366
v 54.097128 45.711739 -49.527964
v 51.689072 56.540040 15.429831
v 28.835566 56.538980 -29.075095
v 44.475739 52.929900 17.836474
v 55.302510 46.916886 -53.134336
v 55.299801 49.322939 -9.836323
v 56.507892 48.120973 -23.054897
f 127 122 128 
f 103 97 106 
f 99 98 108 
f 98 105 108 
f 108 105 110 
f 101 103 111 
f 103 106 111 
f 103 101 112 
f 102 109 112 
f 109 103 112 
f 106 107 113 
f 105 98 114 
f 102 107 115 
f 109 102 115 
f 110 116 117 
f 108 110 117 
f 116 104 117 
f 98 99 118 
f 107 102 118 
f 99 107 118 
f 114 98 118 
f 100 113 119 
f 116 100 119 
f 104 116 119 
f 117 104 119 
f 108 117 119 
f 101 111 120 
f 111 106 120 
f 113 100 120 
f 106 113 120 
f 100 116 120 
f 116 101 120 
f 97 103 121 
f 107 97 121 
f 103 109 121 
f 115 107 121 
f 109 115 121 
f 112 101 122 
f 107 99 123 
f 99 108 123 
f 113 107 123 
f 108 119 123 
f 119 113 123 
f 106 97 124 
f 97 107 124 
f 107 106 124 
f 102 112 125 
f 105 114 125 
f 118 102 125 
f 114 118 125 
f 101 116 126 
f 116 110 126 
f 110 122 126 
f 122 101 126 
f 112 122 127 
f 125 112 127 
f 105 125 127 
f 110 105 128 
f 122 110 128 
f 105 127 128 
o convex_4
v 72.148418 39.694132 -42.313572
v 60.117326 44.505768 -43.518365
v 60.117326 44.505768 -41.110074
v 66.133520 30.070859 -54.344665
v 66.133520 44.505768 -51.936373
v 69.740127 32.480210 -41.110074
v 69.740127 30.070859 -53.141167
v 64.930022 46.911586 -41.110074
v 73.351916 32.480210 -41.110074
v 67.335722 30.070859 -48.327175
v 69.740127 44.505768 -41.110074
v 60.117326 48.116262 -42.313572
v 63.727819 44.505768 -50.734171
v 68.539220 34.886028 -54.344665
v 73.351916 34.886028 -43.518365
v 68.539220 43.302859 -49.531968
v 64.930022 38.494756 -53.141167
v 66.133520 30.070859 -50.734171
v 64.930022 32.480210 -53.141167
v 67.335722 44.505768 -50.734171
v 66.133520 36.088937 -54.344665
v 73.351916 36.088937 -41.110074
v 61.320824 48.116262 -41.110074
v 70.944921 31.277301 -43.518365
v 69.740127 32.480210 -53.141167
v 73.351916 32.480210 -43.518365
v 69.740127 44.505768 -42.313572
v 64.930022 44.505768 -51.936373
v 68.539220 39.694132 -51.936373
v 66.133520 45.708677 -47.127564
v 68.539220 30.070859 -54.344665
v 61.320824 48.116262 -42.313572
f 136 158 160 
f 131 134 136 
f 136 134 137 
f 134 131 138 
f 132 135 138 
f 136 137 139 
f 130 131 140 
f 130 140 141 
f 129 143 144 
f 130 141 145 
f 138 131 146 
f 132 138 146 
f 131 130 147 
f 130 145 147 
f 145 132 147 
f 146 131 147 
f 132 146 147 
f 142 133 148 
f 133 142 149 
f 142 132 149 
f 132 145 149 
f 129 139 150 
f 139 137 150 
f 143 129 150 
f 137 143 150 
f 131 136 151 
f 140 131 151 
f 137 134 152 
f 135 137 152 
f 134 138 152 
f 138 135 152 
f 135 142 153 
f 143 135 153 
f 137 135 154 
f 135 143 154 
f 143 137 154 
f 139 129 155 
f 136 139 155 
f 129 144 155 
f 144 148 155 
f 140 133 156 
f 141 140 156 
f 145 141 156 
f 133 149 156 
f 149 145 156 
f 144 143 157 
f 142 148 157 
f 148 144 157 
f 153 142 157 
f 143 153 157 
f 148 133 158 
f 136 155 158 
f 155 148 158 
f 135 132 159 
f 132 142 159 
f 142 135 159 
f 133 140 160 
f 151 136 160 
f 140 151 160 
f 158 133 160 
o convex_5
v 37.257579 79.397550 -78.404259
v -38.532051 67.370579 -83.218015
v -38.532051 70.979660 -83.218015
v -57.788489 75.788470 -61.563532
v 33.645789 75.788470 -63.973590
v -58.985981 79.397550 -65.175439
v 37.257579 72.182216 -83.218015
v 32.438641 80.602932 -61.563532
v -61.400278 66.166610 -79.608228
v -61.400278 70.979660 -82.014046
v 27.629360 76.992439 -83.218015
v 18.001141 75.788470 -61.563532
v 7.175431 69.777104 -82.014046
v -57.788489 79.397550 -61.563532
v -58.985981 74.585914 -62.769621
v 5.968282 80.602932 -62.769621
v -25.301701 73.384771 -83.218015
v -58.985981 66.166610 -79.608228
v -61.400278 66.166610 -82.014046
v 37.257579 75.788470 -73.592623
v 27.629360 78.194994 -80.810077
v -54.176700 78.194994 -68.785226
v 37.257579 76.992439 -83.218015
v -61.400278 73.384771 -74.796592
v 30.034000 80.602932 -66.379408
v -30.110981 67.370579 -82.014046
v 37.257579 72.182216 -82.014046
v 32.438641 79.397550 -78.404259
v 32.438641 76.992439 -61.563532
v -30.110981 67.370579 -83.218015
v 33.645789 80.602932 -63.973590
v -33.713113 73.384771 -82.014046
f 170 182 192 
f 162 163 167 
f 163 162 170 
f 167 163 171 
f 168 164 172 
f 164 168 174 
f 172 164 175 
f 164 174 175 
f 174 166 175 
f 166 174 176 
f 174 168 176 
f 163 170 177 
f 171 163 177 
f 165 172 178 
f 175 169 178 
f 172 175 178 
f 170 162 179 
f 169 170 179 
f 178 169 179 
f 167 161 180 
f 171 177 181 
f 170 166 182 
f 166 181 182 
f 161 167 183 
f 171 161 183 
f 167 171 183 
f 166 170 184 
f 170 169 184 
f 175 166 184 
f 169 175 184 
f 166 176 185 
f 176 168 185 
f 173 165 186 
f 165 178 186 
f 173 167 187 
f 165 173 187 
f 167 180 187 
f 180 165 187 
f 161 171 188 
f 181 166 188 
f 171 181 188 
f 185 161 188 
f 166 185 188 
f 165 168 189 
f 172 165 189 
f 168 172 189 
f 162 167 190 
f 167 173 190 
f 179 162 190 
f 178 179 190 
f 173 186 190 
f 186 178 190 
f 168 165 191 
f 180 161 191 
f 165 180 191 
f 161 185 191 
f 185 168 191 
f 177 170 192 
f 181 177 192 
f 182 181 192 
o convex_6
v 37.251690 44.508948 94.845265
v -43.344865 52.929547 68.376084
v -43.344865 56.540040 68.376084
v 43.265058 56.540040 68.376084
v -38.534171 46.915944 93.640472
v 22.819608 43.305450 90.028682
v 43.265058 51.727344 69.580877
v -38.534171 43.305450 91.233476
v 36.049016 48.118146 91.233476
v -18.080007 51.727344 68.376084
v -37.331498 55.336543 73.192667
v -44.556254 48.118146 78.001476
v 44.476446 48.118146 78.001476
v -37.331498 43.305450 94.845265
v 43.265058 56.540040 69.580877
v 38.454363 43.305450 93.640472
v 38.454363 46.915944 93.640472
v -44.556254 51.727344 80.411063
v 44.476446 51.727344 80.411063
v -22.899416 43.305450 90.028682
v 37.251690 55.336543 73.192667
v -25.304763 45.713741 94.845265
v -34.926151 48.118146 91.233476
v 43.265058 52.929547 68.376084
v -43.344865 56.540040 69.580877
v 38.454363 43.305450 91.233476
v -43.344865 51.727344 69.580877
v 37.251690 43.305450 94.845265
v -44.556254 48.118146 80.411063
v -6.053271 51.727344 68.376084
v 25.224955 45.713741 94.845265
v 43.265058 50.522551 71.987873
f 222 199 224 
f 194 195 196 
f 194 196 202 
f 195 194 204 
f 200 198 206 
f 196 195 207 
f 206 198 208 
f 201 197 209 
f 207 201 209 
f 193 208 209 
f 195 204 210 
f 205 196 211 
f 196 207 211 
f 208 205 211 
f 207 209 211 
f 209 208 211 
f 198 200 212 
f 202 198 212 
f 200 204 212 
f 204 202 212 
f 203 201 213 
f 201 207 213 
f 207 203 213 
f 206 193 214 
f 197 206 214 
f 209 197 214 
f 197 201 215 
f 201 203 215 
f 202 196 216 
f 196 205 216 
f 205 199 216 
f 207 195 217 
f 203 207 217 
f 195 210 217 
f 210 197 217 
f 197 215 217 
f 215 203 217 
f 198 205 218 
f 205 208 218 
f 208 198 218 
f 194 202 219 
f 204 194 219 
f 202 204 219 
f 193 206 220 
f 208 193 220 
f 206 208 220 
f 204 200 221 
f 206 197 221 
f 200 206 221 
f 197 210 221 
f 210 204 221 
f 198 202 222 
f 205 198 222 
f 202 216 222 
f 216 199 222 
f 193 209 223 
f 214 193 223 
f 209 214 223 
f 199 205 224 
f 205 222 224 
o convex_7
v -22.906246 80.602932 -48.331650
v -56.583578 75.790825 -61.563532
v -56.583578 75.790825 -59.154888
v -14.477639 75.790825 -59.154888
v -45.756219 76.993852 -44.721157
v -56.583578 79.399434 -61.563532
v -14.477639 79.399434 -61.563532
v -45.756219 80.602932 -44.721157
v -27.716115 76.993852 -44.721157
v -19.295752 80.602932 -59.154888
v -50.566089 75.790825 -51.940495
v -50.566089 80.602932 -54.342545
v -14.477639 75.790825 -61.563532
v -27.716115 80.602932 -44.721157
v -16.888756 80.602932 -55.546043
v -19.295752 76.993852 -51.940495
v -16.888756 75.790825 -56.749541
v -55.380080 79.399434 -57.951390
v -14.477639 79.399434 -59.154888
v -22.906246 76.993852 -48.331650
v -50.566089 80.602932 -51.940495
v -19.295752 80.602932 -51.940495
v -31.326609 75.790825 -54.342545
v -16.888756 80.602932 -59.154888
v -56.583578 76.993852 -59.154888
v -36.128236 80.602932 -56.749541
v -48.159093 75.790825 -51.940495
v -56.583578 79.399434 -60.358386
v -52.973084 75.790825 -54.342545
v -22.906246 75.790825 -55.546043
v -21.702748 76.993852 -49.533499
v -21.702748 80.602932 -49.533499
f 225 255 256 
f 227 226 228 
f 226 227 230 
f 226 230 231 
f 227 229 232 
f 232 229 233 
f 231 230 234 
f 232 225 234 
f 227 228 235 
f 232 234 236 
f 228 226 237 
f 226 231 237 
f 231 228 237 
f 225 232 238 
f 233 225 238 
f 232 233 238 
f 234 225 239 
f 235 228 241 
f 228 231 243 
f 240 228 243 
f 225 233 244 
f 241 228 244 
f 233 241 244 
f 236 230 245 
f 232 236 245 
f 242 232 245 
f 239 225 246 
f 243 239 246 
f 240 243 246 
f 235 241 247 
f 231 234 248 
f 234 239 248 
f 243 231 248 
f 239 243 248 
f 230 227 249 
f 227 232 249 
f 232 242 249 
f 234 230 250 
f 230 236 250 
f 236 234 250 
f 233 229 251 
f 229 235 251 
f 247 233 251 
f 235 247 251 
f 245 230 252 
f 242 245 252 
f 230 249 252 
f 249 242 252 
f 229 227 253 
f 227 235 253 
f 235 229 253 
f 241 233 254 
f 233 247 254 
f 247 241 254 
f 228 240 255 
f 225 244 255 
f 244 228 255 
f 246 225 256 
f 240 246 256 
f 255 240 256 
o convex_8
v -91.469000 58.946330 20.249594
v -75.830005 67.368224 -24.266050
v -75.830005 69.773924 -24.266050
v -45.759398 67.368224 16.638040
v -60.201373 70.977422 21.453445
v -92.681567 58.946330 -12.232013
v -51.775593 69.773924 -19.450645
v -95.085971 62.556823 -8.624934
v -46.966783 72.180920 -9.824310
v -83.053583 58.946330 21.453445
v -71.031559 68.569131 21.453445
v -74.632984 70.977422 -18.246794
v -49.371188 72.180920 21.453445
v -45.759398 67.368224 9.419408
v -86.665372 61.354621 -20.654496
v -63.813163 72.180920 -21.858347
v -98.697761 60.149827 -12.232013
v -54.185179 68.569131 -20.654496
v -89.064595 61.354621 21.453445
v -89.064595 64.962524 -20.654496
v -49.371188 68.569131 21.453445
v -91.469000 58.946330 -11.028162
v -52.988159 72.180920 -20.654496
v -98.697761 58.946330 -12.232013
v -97.490376 60.149827 -0.206927
v -86.665372 58.946330 3.404627
v -45.759398 69.773924 16.638040
v -56.589584 72.180920 8.215557
v -46.966783 69.773924 -9.824310
v -71.031559 67.368224 -24.266050
v -74.632984 70.977422 -24.266050
v -83.053583 58.946330 17.841891
f 282 270 288 
f 257 262 266 
f 266 261 267 
f 267 261 268 
f 264 267 268 
f 261 266 269 
f 260 266 270 
f 269 265 272 
f 257 266 275 
f 267 264 275 
f 266 267 275 
f 259 258 276 
f 258 271 276 
f 273 264 276 
f 266 260 277 
f 260 269 277 
f 269 266 277 
f 266 262 278 
f 262 271 278 
f 274 270 278 
f 271 274 278 
f 265 263 279 
f 272 265 279 
f 263 274 279 
f 262 257 280 
f 271 262 280 
f 276 271 280 
f 273 276 280 
f 264 273 281 
f 257 275 281 
f 275 264 281 
f 280 257 281 
f 273 280 281 
f 266 278 282 
f 278 270 282 
f 269 260 283 
f 265 269 283 
f 260 270 283 
f 270 265 283 
f 268 261 284 
f 261 269 284 
f 272 268 284 
f 269 272 284 
f 263 265 285 
f 265 270 285 
f 270 274 285 
f 274 263 285 
f 258 259 286 
f 271 258 286 
f 274 271 286 
f 279 274 286 
f 279 286 287 
f 264 268 287 
f 268 272 287 
f 259 276 287 
f 276 264 287 
f 272 279 287 
f 286 259 287 
f 270 266 288 
f 266 282 288 
o convex_9
v -12.073823 48.117880 7.013943
v -27.712230 62.553522 4.610009
v -26.508967 60.146521 3.406983
v -12.073823 32.477149 4.608949
v -9.667298 42.108329 -0.203158
v -22.899180 64.960522 10.625143
v -24.102442 64.960522 3.406983
v -12.073823 32.477149 -0.203158
v -7.258771 33.682238 5.811976
v -26.508967 62.553522 10.625143
v -14.478346 45.710880 -0.203158
v -7.258771 38.496239 2.203956
v -24.102442 58.941432 10.625143
v -8.464036 33.682238 -0.203158
v -21.695918 63.755432 8.216970
v -10.870561 32.477149 5.811976
v -27.712230 63.755432 9.421057
v -9.667298 43.310239 7.013943
v -26.508967 64.960522 3.406983
v -9.667298 38.496239 7.013943
v -7.258771 39.698149 3.408042
v -27.712230 64.960522 9.421057
v -8.464036 32.477149 1.000929
v -7.258771 39.698149 5.811976
v -14.478346 40.903239 -0.203158
v -12.073823 45.710880 -0.203158
v -18.086131 52.931880 9.421057
v -27.712230 62.553522 5.813036
v -18.086131 57.739521 9.421057
v -22.899180 58.941432 2.203956
v -8.464036 39.698149 -0.203158
v -8.464036 42.108329 4.608949
f 312 309 320 
f 292 291 296 
f 293 296 299 
f 294 298 301 
f 298 292 301 
f 296 293 302 
f 300 297 302 
f 295 294 303 
f 292 296 304 
f 301 292 304 
f 292 298 305 
f 291 290 307 
f 294 295 307 
f 304 297 308 
f 301 304 308 
f 297 306 308 
f 297 300 309 
f 298 294 310 
f 290 305 310 
f 305 298 310 
f 307 290 310 
f 294 307 310 
f 296 302 311 
f 302 297 311 
f 304 296 311 
f 297 304 311 
f 306 297 312 
f 297 309 312 
f 296 291 313 
f 299 296 313 
f 293 299 314 
f 303 293 314 
f 295 303 314 
f 294 301 315 
f 301 308 315 
f 308 306 315 
f 290 291 316 
f 291 292 316 
f 305 290 316 
f 292 305 316 
f 289 303 317 
f 303 294 317 
f 312 289 317 
f 306 312 317 
f 294 315 317 
f 315 306 317 
f 291 307 318 
f 307 295 318 
f 313 291 318 
f 299 313 318 
f 295 314 318 
f 314 299 318 
f 302 293 319 
f 300 302 319 
f 293 309 319 
f 309 300 319 
f 303 289 320 
f 293 303 320 
f 309 293 320 
f 289 312 320 
o convex_10
v -26.513089 68.571486 11.826875
v -26.513089 64.962053 3.406276
v -30.121110 64.962053 4.609774
v -43.349105 69.774631 8.220268
v -42.149258 66.165197 15.437369
v -24.102796 64.962053 10.623377
v -43.349105 69.774631 16.640866
v -26.513089 68.571486 4.609774
v -43.349105 66.165197 8.220268
v -45.759398 67.368342 16.640866
v -36.130944 69.774631 10.623377
v -45.759398 69.774631 9.423765
v -26.513089 64.962053 11.826875
v -32.525043 64.962053 10.623377
v -24.102796 67.368342 8.220268
v -25.309002 66.165197 3.406276
v -45.759398 69.774631 16.640866
v -45.759398 67.368342 9.423765
v -38.539118 69.774631 7.016770
v -43.349105 67.368342 16.640866
v -36.130944 69.774631 14.232575
v -25.309002 68.571486 10.623377
v -24.102796 64.962053 5.814567
v -30.121110 68.571486 4.609774
v -32.525043 64.962053 5.814567
v -43.349105 66.165197 13.030373
v -24.102796 67.368342 10.623377
v -39.743204 66.165197 15.437369
v -31.323077 64.962053 11.826875
v -25.309002 68.571486 8.220268
v -24.102796 66.165197 5.814567
v -26.513089 66.165197 3.406276
f 344 336 352 
f 323 322 326 
f 322 323 329 
f 324 322 329 
f 324 327 331 
f 327 324 332 
f 324 329 332 
f 323 326 333 
f 326 321 333 
f 321 327 333 
f 323 333 334 
f 330 327 337 
f 327 332 337 
f 332 330 337 
f 329 330 338 
f 332 329 338 
f 330 332 338 
f 324 331 339 
f 331 328 339 
f 327 330 340 
f 330 325 340 
f 333 327 340 
f 327 321 341 
f 331 327 341 
f 331 341 342 
f 341 321 342 
f 326 322 343 
f 335 326 343 
f 322 336 343 
f 328 336 344 
f 324 339 344 
f 339 328 344 
f 329 323 345 
f 323 334 345 
f 334 329 345 
f 325 330 346 
f 330 329 346 
f 329 334 346 
f 334 325 346 
f 321 326 347 
f 326 335 347 
f 342 321 347 
f 335 342 347 
f 325 333 348 
f 340 325 348 
f 333 340 348 
f 333 325 349 
f 325 334 349 
f 334 333 349 
f 328 331 350 
f 335 328 350 
f 331 342 350 
f 342 335 350 
f 328 335 351 
f 336 328 351 
f 335 343 351 
f 343 336 351 
f 322 324 352 
f 336 322 352 
f 324 344 352 
o convex_11
v -104.711288 48.115202 3.412753
v -75.840722 57.743185 63.554673
v -75.840722 55.333598 63.554673
v -97.489967 38.494991 41.904901
v -98.694011 31.274004 28.682911
v -86.671232 56.538392 22.662124
v -89.076377 57.743185 41.904901
v -102.303200 43.306392 -0.201038
v -81.857999 50.522198 67.168464
v -102.300256 31.274004 29.883111
v -101.102100 52.929193 3.412753
v -91.475634 45.710797 53.926690
v -81.857999 54.126214 67.168464
v -87.872333 42.104190 55.133486
v -93.880778 57.743185 21.468518
v -75.840722 56.538392 58.747276
v -105.915333 43.306392 -0.201038
v -103.510188 36.093177 25.069120
v -86.671232 57.743185 22.662124
v -96.291811 52.929193 5.819749
v -90.274533 43.306392 56.340281
v -101.102100 38.494991 9.426945
v -78.248810 51.726991 65.961669
v -79.452855 57.743185 64.754874
v -101.102100 52.929193 8.220150
v -105.915333 45.708206 3.412753
v -101.099156 31.274004 26.275915
v -84.266088 55.333598 59.940882
v -104.711288 42.104190 -0.201038
v -75.840722 55.333598 61.147678
v -98.694011 32.478797 26.275915
v -102.300256 34.890975 31.083312
f 378 370 384 
f 362 357 366 
f 359 354 367 
f 354 355 368 
f 353 363 369 
f 363 360 369 
f 369 362 370 
f 367 354 371 
f 363 367 371 
f 354 368 371 
f 368 358 371 
f 358 360 372 
f 360 363 372 
f 371 358 372 
f 363 371 372 
f 356 362 373 
f 364 356 373 
f 361 365 373 
f 365 364 373 
f 366 361 373 
f 362 366 373 
f 360 358 374 
f 355 354 375 
f 365 361 375 
f 354 365 375 
f 366 357 375 
f 361 366 375 
f 354 359 376 
f 365 354 376 
f 363 353 377 
f 364 359 377 
f 359 367 377 
f 367 363 377 
f 353 369 378 
f 369 370 378 
f 377 353 378 
f 364 377 378 
f 357 362 379 
f 374 357 379 
f 359 364 380 
f 364 365 380 
f 376 359 380 
f 365 376 380 
f 369 360 381 
f 362 369 381 
f 360 374 381 
f 379 362 381 
f 374 379 381 
f 368 355 382 
f 355 375 382 
f 375 357 382 
f 358 368 383 
f 357 374 383 
f 374 358 383 
f 368 382 383 
f 382 357 383 
f 362 356 384 
f 356 364 384 
f 370 362 384 
f 364 378 384 
o convex_12
v -63.814694 66.163902 62.354237
v -92.682038 57.744598 21.453445
v -92.682038 57.744598 22.657532
v -74.626743 57.744598 58.746216
v -45.759398 68.570427 22.657532
v -65.018074 69.772982 21.453445
v -45.759398 70.975538 56.342283
v -78.236883 61.355092 59.946063
v -56.589820 63.760203 62.354237
v -85.457164 57.744598 21.453445
v -46.967372 72.179507 21.453445
v -51.776299 70.975538 59.946063
v -77.038096 66.163902 22.657532
v -78.236883 57.744598 63.562563
v -45.759398 68.570427 56.342283
v -87.868517 61.355092 26.274032
v -68.623621 67.366458 43.110048
v -51.776299 72.179507 25.065705
v -86.665137 58.948567 44.309895
v -65.018074 64.962759 64.766650
v -62.606720 61.355092 63.562563
v -45.759398 72.179507 41.910200
v -69.817815 68.570427 26.274032
v -83.054997 57.744598 27.473879
v -92.682038 58.948567 21.453445
v -52.984272 70.975538 57.542130
v -46.967372 68.570427 21.453445
v -49.369539 70.975538 59.946063
v -81.851616 57.744598 57.542130
v -72.224575 64.962759 51.525936
v -58.996580 70.975538 26.274032
v -63.814694 61.355092 64.766650
f 412 404 416 
f 387 386 388 
f 388 386 394 
f 386 390 394 
f 394 390 395 
f 387 388 398 
f 389 391 399 
f 393 389 399 
f 397 400 401 
f 395 390 402 
f 392 400 403 
f 385 392 404 
f 396 385 404 
f 392 398 404 
f 388 389 405 
f 389 393 405 
f 398 388 405 
f 391 389 406 
f 389 395 406 
f 395 402 406 
f 390 397 407 
f 397 401 407 
f 389 388 408 
f 388 394 408 
f 394 389 408 
f 386 387 409 
f 390 386 409 
f 397 390 409 
f 400 397 409 
f 387 403 409 
f 403 400 409 
f 392 385 410 
f 385 396 410 
f 396 406 410 
f 406 402 410 
f 407 401 410 
f 389 394 411 
f 394 395 411 
f 395 389 411 
f 399 391 412 
f 393 399 412 
f 396 404 412 
f 391 406 412 
f 406 396 412 
f 387 398 413 
f 398 392 413 
f 403 387 413 
f 392 403 413 
f 400 392 414 
f 401 400 414 
f 392 410 414 
f 410 401 414 
f 402 390 415 
f 390 407 415 
f 410 402 415 
f 407 410 415 
f 404 398 416 
f 398 405 416 
f 405 393 416 
f 393 412 416 
o convex_13
v -44.555783 72.180567 22.656589
v -33.727953 70.977304 45.516219
v -34.931568 72.180567 46.715006
v -45.759398 68.571486 55.141493
v -42.149729 68.571486 23.861736
v -44.555783 72.180567 50.327266
v -36.136362 68.571486 47.916973
v -34.931568 70.977304 31.083077
v -45.759398 68.571486 22.656589
v -45.759398 70.977304 55.141493
v -34.931568 69.775102 31.083077
v -34.931568 72.180567 32.281864
v -45.759398 72.180567 22.656589
v -43.350989 69.775102 55.141493
v -42.149729 72.180567 52.731200
v -33.727953 69.775102 43.105926
v -42.149729 72.180567 23.861736
v -36.136362 68.571486 43.105926
v -45.759398 72.180567 45.516219
v -43.350989 68.571486 55.141493
v -39.743675 68.571486 29.881110
v -38.541238 72.180567 50.327266
v -36.136362 72.180567 29.881110
v -33.727953 69.775102 45.516219
v -44.555783 68.571486 22.656589
v -33.727953 70.977304 43.105926
v -44.555783 70.977304 55.141493
v -43.350989 72.180567 52.731200
v -37.337622 68.571486 38.298058
v -40.946113 68.571486 26.268850
v -37.337622 72.180567 28.672783
v -37.337622 69.775102 28.672783
f 447 427 448 
f 419 417 422 
f 420 421 423 
f 421 420 425 
f 425 420 426 
f 417 419 428 
f 419 418 428 
f 422 417 429 
f 417 425 429 
f 425 426 429 
f 426 420 430 
f 419 422 431 
f 427 424 432 
f 421 417 433 
f 417 428 433 
f 423 421 434 
f 432 423 434 
f 427 432 434 
f 426 422 435 
f 422 429 435 
f 429 426 435 
f 420 423 436 
f 418 430 436 
f 430 420 436 
f 434 421 437 
f 418 419 438 
f 430 418 438 
f 419 431 438 
f 428 424 439 
f 433 428 439 
f 432 418 440 
f 423 432 440 
f 418 436 440 
f 436 423 440 
f 417 421 441 
f 425 417 441 
f 421 425 441 
f 428 418 442 
f 424 428 442 
f 418 432 442 
f 432 424 442 
f 426 430 443 
f 431 426 443 
f 430 438 443 
f 438 431 443 
f 422 426 444 
f 426 431 444 
f 431 422 444 
f 427 434 445 
f 437 427 445 
f 434 437 445 
f 421 427 446 
f 437 421 446 
f 427 437 446 
f 424 427 447 
f 421 433 447 
f 439 424 447 
f 433 439 447 
f 427 421 448 
f 421 447 448 
o convex_14
v -18.084246 16.838271 93.643063
v 25.223306 30.068857 97.251554
v 26.427393 28.865713 97.251554
v -28.915374 21.646845 97.251554
v -25.303114 30.068857 94.844323
v 5.974877 12.025692 91.235831
v 1.158530 9.619403 94.844323
v 26.427393 27.662568 93.643063
v 28.835566 21.646845 97.251554
v -21.696507 20.443701 92.440036
v -25.303114 30.068857 97.251554
v 28.835566 21.646845 93.643063
v -3.646511 10.822548 91.235831
v -26.507201 27.662568 93.643063
v 7.178964 14.431981 91.235831
v 25.223306 30.068857 94.844323
v -28.915374 21.646845 93.643063
v -1.238338 9.619403 94.844323
v 28.835566 25.256279 93.643063
v -28.915374 25.256279 93.643063
v -7.258771 14.431981 91.235831
v 21.616699 20.443701 92.440036
v 1.158530 9.619403 92.440036
v 28.835566 25.256279 97.251554
v -28.915374 24.053134 97.251554
v 26.427393 20.443701 96.047350
v -20.492420 18.041415 92.440036
v 20.412612 18.041415 92.440036
v -26.507201 20.443701 96.047350
v -1.238338 9.619403 92.440036
v -26.507201 28.865713 97.251554
v 3.566703 10.822548 91.235831
f 476 471 480 
f 451 450 452 
f 451 452 457 
f 452 455 457 
f 452 450 459 
f 450 453 459 
f 453 456 462 
f 454 461 463 
f 462 456 463 
f 450 451 464 
f 453 450 464 
f 456 453 464 
f 455 452 466 
f 457 460 467 
f 464 451 467 
f 456 464 467 
f 453 462 468 
f 462 458 468 
f 465 452 468 
f 458 465 468 
f 458 462 469 
f 463 461 469 
f 462 463 469 
f 454 463 470 
f 463 456 470 
f 467 460 470 
f 456 467 470 
f 455 466 471 
f 451 457 472 
f 467 451 472 
f 457 467 472 
f 452 459 473 
f 468 452 473 
f 457 455 474 
f 460 457 474 
f 471 460 474 
f 455 471 474 
f 461 449 475 
f 449 465 475 
f 465 458 475 
f 458 469 475 
f 469 461 475 
f 454 470 476 
f 470 460 476 
f 460 471 476 
f 465 449 477 
f 452 465 477 
f 466 452 477 
f 466 477 478 
f 449 461 478 
f 461 471 478 
f 471 466 478 
f 477 449 478 
f 459 453 479 
f 453 468 479 
f 473 459 479 
f 468 473 479 
f 461 454 480 
f 471 461 480 
f 454 476 480 
o convex_15
v -28.910192 34.883555 98.453286
v 39.654682 43.305450 94.845265
v 39.654682 43.305450 91.237244
v 42.070157 31.275653 97.250848
v -42.149965 31.275653 93.642827
v -38.539118 43.305450 91.237244
v 42.070157 31.275653 93.642827
v -30.113808 43.305450 96.047703
v 22.804062 38.492754 98.453286
v -42.149965 31.275653 97.250848
v -39.742733 39.694956 91.237244
v 25.211293 30.070859 97.250848
v 22.804062 31.275653 98.453286
v 39.654682 39.694956 91.237244
v -39.742733 43.305450 94.845265
v -24.095730 30.070859 94.845265
v -22.892114 38.492754 98.453286
v 31.229372 43.305450 96.047703
v -22.892114 31.275653 98.453286
v 40.866541 34.883555 92.439682
v -24.095730 30.070859 97.250848
v 42.070157 33.681353 97.250848
v -40.946349 34.883555 97.250848
v 24.007678 30.070859 94.845265
v -40.946349 34.883555 92.439682
v 28.822140 36.088349 98.453286
v -42.149965 34.883555 94.845265
v -39.742733 42.101952 91.237244
v 42.070157 34.883555 94.845265
v 38.459310 36.088349 97.250848
v -27.706577 40.897159 97.250848
v -42.149965 33.681353 97.250848
f 495 507 512 
f 482 483 486 
f 482 486 488 
f 486 483 491 
f 487 484 492 
f 489 481 493 
f 492 484 493 
f 491 483 494 
f 488 486 495 
f 485 487 496 
f 490 485 496 
f 481 489 497 
f 482 488 498 
f 497 489 498 
f 488 497 498 
f 481 490 499 
f 492 493 499 
f 493 481 499 
f 483 487 500 
f 487 485 500 
f 494 483 500 
f 490 496 501 
f 496 492 501 
f 499 490 501 
f 492 499 501 
f 484 487 502 
f 481 497 503 
f 487 492 504 
f 496 487 504 
f 492 496 504 
f 491 494 505 
f 500 485 505 
f 494 500 505 
f 493 484 506 
f 489 493 506 
f 498 489 506 
f 484 502 506 
f 485 490 507 
f 507 495 508 
f 486 491 508 
f 495 486 508 
f 505 485 508 
f 491 505 508 
f 485 507 508 
f 483 482 509 
f 487 483 509 
f 482 502 509 
f 502 487 509 
f 482 498 510 
f 502 482 510 
f 498 506 510 
f 506 502 510 
f 488 495 511 
f 497 488 511 
f 495 503 511 
f 503 497 511 
f 490 481 512 
f 481 503 512 
f 503 495 512 
f 507 490 512 
o convex_16
v -12.069701 74.588623 -60.357464
v -0.039904 72.181391 -27.881233
v -2.448195 72.181391 -26.672339
v -1.243402 79.399788 -60.357464
v -8.459207 75.789765 -32.692906
v -13.274494 79.399788 -60.357464
v -1.243402 75.790589 -61.559528
v -8.459207 70.978600 -33.891556
v -1.244697 70.978600 -33.891556
v -1.244697 75.789765 -33.891556
v -8.459207 70.978600 -27.881233
v -4.853896 74.588623 -61.559528
v -13.274494 75.790589 -61.559528
v -8.459207 74.587798 -29.079883
v -0.039904 70.978600 -27.881233
v -1.243402 79.399788 -61.559528
v -1.244697 74.587798 -29.079883
v -10.866203 79.399788 -59.151984
v -2.448195 75.789765 -32.692906
v -13.274494 79.399788 -61.559528
v -0.039904 73.384182 -29.079883
v -10.866203 74.588623 -61.559528
v -7.255709 70.978600 -26.672339
v -2.446900 72.182216 -43.521731
v -0.039904 70.978600 -30.285362
v -8.459207 73.384182 -27.881233
v -13.274494 75.790589 -60.357464
v -9.664001 76.992556 -41.110772
v -7.255709 72.181391 -26.672339
v -7.258300 72.182216 -43.521731
v -2.448195 70.978600 -26.672339
v -9.664001 75.789765 -36.299100
f 538 526 544 
f 520 521 523 
f 513 520 525 
f 519 524 525 
f 514 515 527 
f 523 521 527 
f 518 516 528 
f 519 525 528 
f 515 514 529 
f 517 526 529 
f 516 518 530 
f 522 516 531 
f 529 522 531 
f 517 529 531 
f 516 530 531 
f 525 518 532 
f 518 528 532 
f 528 525 532 
f 516 522 533 
f 514 527 533 
f 528 516 533 
f 529 514 533 
f 522 529 533 
f 520 513 534 
f 513 525 534 
f 525 524 534 
f 523 527 535 
f 519 521 536 
f 521 520 536 
f 524 519 536 
f 521 519 537 
f 527 521 537 
f 519 528 537 
f 533 527 537 
f 528 533 537 
f 518 523 538 
f 523 535 538 
f 523 518 539 
f 520 523 539 
f 518 525 539 
f 525 520 539 
f 518 517 540 
f 530 518 540 
f 517 531 540 
f 531 530 540 
f 515 529 541 
f 529 526 541 
f 535 515 541 
f 526 538 541 
f 538 535 541 
f 520 534 542 
f 534 524 542 
f 536 520 542 
f 524 536 542 
f 527 515 543 
f 515 535 543 
f 535 527 543 
f 517 518 544 
f 526 517 544 
f 518 538 544 
o convex_17
v 24.022988 80.602932 -53.143404
v -1.243048 75.790825 -61.563532
v -1.243048 75.790825 -59.155359
v 32.445000 76.993852 -61.563532
v -1.243048 80.602932 -61.563532
v 13.197042 76.993852 -50.735231
v 32.445000 80.602932 -61.563532
v 13.197042 80.602932 -50.735231
v 30.037769 76.993852 -55.548398
v 3.571414 80.602932 -55.548398
v 10.789811 75.790825 -60.358385
v 16.801294 76.993852 -50.735231
v 30.037769 80.602932 -55.548398
v -1.243048 80.602932 -59.155359
v 3.571414 76.993852 -55.548398
v 31.241384 76.993852 -56.750365
v 16.801294 80.602932 -50.735231
v 27.630537 76.993852 -54.346431
v 10.789811 75.790825 -61.563532
v 32.445000 80.602932 -60.358385
v -0.039433 79.399434 -57.952332
v 32.445000 76.993852 -60.358385
v 2.367799 75.790825 -59.155359
v 27.630537 80.602932 -54.346431
v -0.039433 76.993852 -57.952332
v 31.241384 78.196879 -56.750365
v 31.241384 80.602932 -57.952332
v 24.022988 76.993852 -53.143404
f 562 545 572 
f 546 547 549 
f 548 546 549 
f 549 545 551 
f 548 549 551 
f 545 549 552 
f 552 549 554 
f 547 546 555 
f 550 547 556 
f 552 550 556 
f 551 545 557 
f 549 547 558 
f 554 549 558 
f 547 550 559 
f 550 552 559 
f 552 554 559 
f 553 555 560 
f 557 553 560 
f 545 552 561 
f 556 545 561 
f 552 556 561 
f 555 553 562 
f 553 557 562 
f 546 548 563 
f 555 546 563 
f 548 555 563 
f 548 551 564 
f 551 557 564 
f 558 547 565 
f 554 558 565 
f 559 554 565 
f 555 548 566 
f 560 555 566 
f 548 564 566 
f 564 560 566 
f 547 555 567 
f 555 556 567 
f 556 547 567 
f 557 545 568 
f 545 562 568 
f 562 557 568 
f 547 559 569 
f 565 547 569 
f 559 565 569 
f 557 560 570 
f 560 564 570 
f 570 564 571 
f 564 557 571 
f 557 570 571 
f 556 555 572 
f 545 556 572 
f 555 562 572 
o convex_18
v -99.897137 54.135484 9.421174
v -85.463170 58.944328 21.453445
v -85.463170 57.741705 21.453445
v -95.088327 58.944328 -12.232131
v -101.103108 50.524317 -13.437748
v -99.897137 58.944328 -6.217703
v -91.481720 52.931212 21.453445
v -92.683922 58.944328 21.453445
v -104.711599 50.524317 -13.437748
v -96.288645 52.931212 21.453445
v -104.709715 54.135484 -13.437748
v -90.277633 57.741705 2.204545
v -98.694934 57.741705 8.215557
v -85.463170 57.741705 19.038794
v -101.101223 57.741705 -13.437748
v -95.088327 57.741705 20.247827
v -104.709715 54.135484 -11.029928
v -95.088327 57.741705 -12.232131
v -103.509397 50.524317 -9.827726
v -104.711599 50.524317 -12.232131
v -85.463170 58.944328 19.038794
v -98.694934 54.135484 14.233400
v -91.481720 52.931212 20.247827
v -97.490847 55.337283 -13.437748
v -99.897137 58.944328 -12.232131
v -96.288645 58.944328 10.623377
v -98.694934 52.931212 14.233400
v -104.711599 51.727765 -11.029928
v -101.103108 50.524317 -9.827726
v -96.288645 54.135484 21.453445
v -99.897137 55.337283 8.215557
v -90.277633 58.944328 2.204545
f 593 586 604 
f 574 576 578 
f 575 574 579 
f 574 578 580 
f 579 574 580 
f 579 580 582 
f 577 581 583 
f 574 575 586 
f 575 579 586 
f 577 584 586 
f 577 583 587 
f 585 578 589 
f 578 587 589 
f 587 583 589 
f 576 584 590 
f 584 577 590 
f 581 577 591 
f 579 582 591 
f 591 582 592 
f 581 591 592 
f 576 574 593 
f 574 586 593 
f 588 585 594 
f 586 579 595 
f 577 586 595 
f 587 576 596 
f 577 587 596 
f 576 590 596 
f 590 577 596 
f 578 576 597 
f 576 587 597 
f 587 578 597 
f 580 578 598 
f 578 585 598 
f 588 580 598 
f 585 588 598 
f 592 582 599 
f 594 573 599 
f 582 594 599 
f 583 581 600 
f 573 589 600 
f 589 583 600 
f 581 592 600 
f 599 573 600 
f 592 599 600 
f 591 577 601 
f 579 591 601 
f 577 595 601 
f 595 579 601 
f 582 580 602 
f 580 588 602 
f 594 582 602 
f 588 594 602 
f 589 573 603 
f 585 589 603 
f 573 594 603 
f 594 585 603 
f 584 576 604 
f 586 584 604 
f 576 593 604 
o convex_19
v 79.366697 28.867715 -20.649079
v 73.353330 9.617401 -21.856816
v 75.760090 9.617401 -21.856816
v 80.570784 20.444760 2.203131
v 70.946569 28.867715 -35.088345
v 73.353330 22.851050 -39.906929
v 84.180218 20.444760 -0.204100
v 80.570784 28.867715 -0.204100
v 72.150656 12.023690 -20.649079
v 69.742483 20.444760 -39.906929
v 84.180218 27.663628 -0.204100
v 73.353330 28.867715 -38.703314
v 75.760090 10.821488 -24.259926
v 69.742483 24.053252 -36.291960
v 84.180218 20.444760 2.203131
v 73.353330 10.821488 -17.054719
v 79.366697 21.646963 -0.204100
v 73.353330 28.867715 -25.467663
v 82.976131 28.867715 -7.429916
v 73.353330 16.838153 -35.088345
v 69.742483 18.040356 -36.291960
v 74.556003 26.461426 -37.499698
v 78.162610 12.023690 -14.643366
v 70.946569 28.867715 -38.703314
v 76.961350 19.242558 -25.467663
v 84.180218 24.053252 2.203131
v 79.366697 28.867715 -3.819069
v 84.180218 26.461426 -2.615453
v 72.150656 10.821488 -24.259926
v 80.570784 24.053252 2.203131
v 74.556003 28.867715 -37.499698
v 73.353330 20.444760 -38.703314
f 610 629 636 
f 605 609 612 
f 609 605 616 
f 607 606 617 
f 611 615 619 
f 606 607 620 
f 620 608 621 
f 613 620 621 
f 612 609 622 
f 609 618 622 
f 618 613 622 
f 605 612 623 
f 612 615 623 
f 613 618 625 
f 618 614 625 
f 614 624 625 
f 607 617 627 
f 617 611 627 
f 619 608 627 
f 611 619 627 
f 620 607 627 
f 608 620 627 
f 610 614 628 
f 609 616 628 
f 616 610 628 
f 618 609 628 
f 614 618 628 
f 611 617 629 
f 610 626 629 
f 626 611 629 
f 615 612 630 
f 608 619 630 
f 619 615 630 
f 621 612 631 
f 613 621 631 
f 612 622 631 
f 622 613 631 
f 615 611 632 
f 605 623 632 
f 623 615 632 
f 611 626 632 
f 626 605 632 
f 617 606 633 
f 606 620 633 
f 620 613 633 
f 624 617 633 
f 613 625 633 
f 625 624 633 
f 621 608 634 
f 612 621 634 
f 608 630 634 
f 630 612 634 
f 616 605 635 
f 610 616 635 
f 626 610 635 
f 605 626 635 
f 614 610 636 
f 624 614 636 
f 617 624 636 
f 629 617 636 
o convex_20
v 70.946569 42.102305 -41.110074
v 86.586507 32.479151 13.031433
v 86.586507 30.072390 13.031433
v 79.365755 42.102305 7.010999
v 70.946569 28.869010 -35.089640
v 82.976131 36.085405 -9.831377
v 74.555061 28.869010 -38.698721
v 67.336193 42.102305 -37.495694
v 84.176449 42.102305 7.010999
v 82.976131 30.072390 10.620079
v 74.555061 36.085405 -39.901748
v 82.976131 28.869010 -7.425323
v 80.567957 39.694250 10.620079
v 69.744367 33.681235 -41.110074
v 69.744367 40.897630 -27.866180
v 86.586507 32.479151 7.010999
v 78.161668 42.102305 -17.044238
v 80.567957 28.869010 -1.410189
v 84.176449 42.102305 10.620079
v 67.336193 39.694250 -41.110074
v 75.761032 33.681235 -36.292667
v 82.976131 30.072390 -8.628350
v 73.354743 39.694250 -38.698721
v 73.354743 33.681235 -41.110074
v 70.946569 28.869010 -38.698721
v 84.176449 30.072390 13.031433
v 81.772044 39.694250 11.823106
v 67.336193 40.897630 -37.495694
v 86.586507 30.072390 8.214026
v 86.586507 33.681235 8.214026
v 82.976131 42.102305 0.995865
v 84.176449 38.490870 -0.207162
f 667 645 668 
f 640 637 644 
f 637 640 645 
f 641 643 648 
f 640 644 651 
f 641 646 651 
f 649 640 651 
f 646 649 651 
f 638 639 652 
f 637 645 653 
f 646 641 654 
f 648 639 654 
f 641 648 654 
f 645 640 655 
f 644 637 656 
f 637 650 656 
f 647 642 657 
f 643 647 657 
f 648 643 658 
f 642 652 658 
f 657 642 658 
f 643 657 658 
f 647 637 659 
f 642 647 659 
f 637 653 659 
f 653 642 659 
f 637 647 660 
f 647 643 660 
f 643 650 660 
f 650 637 660 
f 643 641 661 
f 650 643 661 
f 641 656 661 
f 656 650 661 
f 639 638 662 
f 649 646 662 
f 654 639 662 
f 646 654 662 
f 640 649 663 
f 638 655 663 
f 655 640 663 
f 662 638 663 
f 649 662 663 
f 651 644 664 
f 641 651 664 
f 644 656 664 
f 656 641 664 
f 639 648 665 
f 652 639 665 
f 648 658 665 
f 658 652 665 
f 638 652 666 
f 652 642 666 
f 655 638 666 
f 645 655 666 
f 653 645 667 
f 642 653 667 
f 666 642 668 
f 645 666 668 
f 642 667 668 
o convex_21
v 3.569530 56.537803 35.886587
v -3.649338 33.681824 9.424472
v -3.649338 34.885595 8.218854
v -3.649338 56.537803 43.110048
v -3.649338 55.334032 26.265552
v 3.569530 33.681824 11.832292
v 3.569530 39.698439 8.218854
v 3.569530 52.928729 41.904430
v -3.649338 52.928729 41.904430
v 3.569530 55.334032 26.265552
v -3.649338 39.698439 8.218854
v -3.649338 33.681824 11.832292
v 3.569530 56.537803 43.110048
v 3.569530 34.885595 8.218854
v -3.649338 56.537803 35.886587
v 3.569530 54.130262 43.110048
v -3.649338 40.902210 9.424472
v -3.649338 54.130262 43.110048
v 3.569530 33.681824 9.424472
v 3.569530 40.902210 9.424472
f 675 685 688 
f 671 670 672 
f 671 672 673 
f 669 674 675 
f 674 669 676 
f 674 676 677 
f 672 670 677 
f 673 669 678 
f 669 675 678 
f 671 673 679 
f 675 671 679 
f 670 674 680 
f 674 677 680 
f 677 670 680 
f 669 672 681 
f 676 669 681 
f 670 671 682 
f 675 674 682 
f 671 675 682 
f 672 669 683 
f 669 673 683 
f 673 672 683 
f 681 672 684 
f 676 681 684 
f 673 678 685 
f 679 673 685 
f 675 679 685 
f 677 676 686 
f 672 677 686 
f 676 684 686 
f 684 672 686 
f 674 670 687 
f 670 682 687 
f 682 674 687 
f 678 675 688 
f 685 678 688 
o convex_22
v 43.273301 57.742243 67.169171
v -25.300287 56.540394 43.110048
v -32.516328 56.540394 44.314488
v 43.273301 52.931313 68.376084
v -43.353109 52.931313 68.376084
v -40.944936 58.945505 59.952423
v 24.007913 60.149474 43.110048
v 3.555397 54.134576 43.110048
v 34.836215 56.540394 45.516454
v -24.096201 60.149474 43.110048
v -43.353109 56.540394 68.376084
v 40.856648 58.945505 59.952423
v -43.353109 52.931313 65.969677
v 43.273301 52.931313 65.969677
v -43.353109 57.742243 67.169171
v -3.643685 54.134576 43.110048
v -37.332675 58.945505 50.331742
v 43.273301 56.540394 68.376084
v 34.836215 58.945505 45.516454
v 43.273301 56.540394 61.154390
v 25.212000 56.540394 43.110048
v -43.353109 55.337838 62.356357
v 24.007913 60.149474 44.314488
v -37.332675 55.337838 51.533708
v 5.963571 52.931313 64.762764
v -32.516328 58.945505 44.314488
v 37.244388 55.337838 51.533708
v -24.096201 60.149474 44.314488
v -43.353109 57.742243 62.356357
v -36.128589 56.540394 47.922861
v 40.856648 58.945505 57.546016
v 32.436521 56.540394 44.314488
f 697 715 720 
f 690 695 696 
f 695 690 698 
f 693 692 699 
f 694 689 700 
f 692 693 701 
f 693 699 701 
f 689 692 702 
f 692 701 702 
f 689 694 703 
f 699 689 703 
f 701 699 703 
f 691 690 704 
f 690 696 704 
f 694 698 705 
f 692 689 706 
f 689 699 706 
f 699 692 706 
f 689 702 708 
f 697 707 708 
f 696 695 709 
f 701 703 710 
f 695 698 711 
f 694 700 711 
f 700 695 711 
f 691 704 712 
f 704 701 712 
f 701 710 712 
f 696 702 713 
f 702 701 713 
f 704 696 713 
f 701 704 713 
f 690 691 714 
f 698 690 714 
f 705 698 714 
f 702 696 715 
f 708 702 715 
f 697 708 715 
f 698 694 716 
f 694 711 716 
f 711 698 716 
f 703 694 717 
f 694 705 717 
f 710 703 717 
f 710 717 718 
f 691 712 718 
f 712 710 718 
f 714 691 718 
f 705 714 718 
f 717 705 718 
f 700 689 719 
f 695 700 719 
f 707 695 719 
f 708 707 719 
f 689 708 719 
f 695 707 720 
f 707 697 720 
f 709 695 720 
f 696 709 720 
f 715 696 720 
o convex_23
v 1.162770 24.062791 -17.047182
v -6.055627 2.405128 -12.236017
v -6.055627 2.405128 -11.031577
v -6.055627 52.927309 -11.031577
v 2.366385 -1.208898 -9.829610
v 2.366385 52.927309 -9.829610
v -4.851187 -1.208898 -8.625170
v -6.055627 27.666219 -15.842742
v 1.162770 52.927309 -14.640775
v 2.366385 -1.208898 -13.436335
v -2.443955 52.927309 -8.625170
v -3.649220 18.037647 -17.047182
v -2.443955 52.927309 -14.640775
v 2.366385 52.927309 -13.436335
v -4.851187 52.927309 -8.625170
v -1.245286 -1.208898 -8.625170
v -6.055627 52.927309 -13.436335
v -6.055627 8.419674 -14.640775
v -4.851187 -1.208898 -12.236017
v 1.162770 15.631829 -17.047182
v -2.443955 -0.000690 -13.436335
v -3.649220 20.454063 -17.047182
v -6.055627 14.428920 -15.842742
v -0.040022 15.631829 -17.047182
v -0.040022 -1.208898 -13.436335
v -0.040022 24.062791 -17.047182
v -6.055627 3.608037 -13.436335
v -1.245286 4.810946 -14.640775
v -1.245286 1.202219 -8.625170
v -1.245286 22.859882 -17.047182
v -3.649220 1.202219 -13.436335
f 739 747 751 
f 722 723 724 
f 723 722 727 
f 724 723 727 
f 722 724 728 
f 724 726 729 
f 726 725 730 
f 725 727 730 
f 726 724 731 
f 724 729 733 
f 721 729 734 
f 729 726 734 
f 730 721 734 
f 726 730 734 
f 724 727 735 
f 731 724 735 
f 727 731 735 
f 725 726 736 
f 727 725 736 
f 731 727 736 
f 728 724 737 
f 724 733 737 
f 733 728 737 
f 722 728 738 
f 727 722 739 
f 730 727 739 
f 721 730 740 
f 732 721 740 
f 732 728 742 
f 721 732 742 
f 728 733 742 
f 728 732 743 
f 738 728 743 
f 732 738 743 
f 740 730 744 
f 732 740 744 
f 730 739 745 
f 739 741 745 
f 744 730 745 
f 729 721 746 
f 733 729 746 
f 721 742 746 
f 722 738 747 
f 739 722 747 
f 738 732 748 
f 741 738 748 
f 732 744 748 
f 745 741 748 
f 744 745 748 
f 726 731 749 
f 736 726 749 
f 731 736 749 
f 742 733 750 
f 733 746 750 
f 746 742 750 
f 738 741 751 
f 741 739 751 
f 747 738 751 
o convex_24
v 9.585253 8.418496 -6.218881
v 9.585253 34.879905 0.999987
v 13.194687 14.430686 -0.203393
v 7.179199 -1.207367 0.999987
v 5.975819 34.879905 -5.015501
v 9.585253 34.879905 -5.015501
v 5.975819 -1.207367 -5.015501
v 11.991306 12.025104 -6.218881
v 9.585253 -1.207367 0.999987
v 7.179199 34.879905 0.999987
v 5.975819 -1.207367 -1.406774
v 9.585253 -0.002809 -5.015501
v 10.787926 1.201748 -1.406774
v 5.975819 34.879905 -2.609447
v 10.786513 32.470790 -1.406774
v 11.991306 15.638776 -6.218881
v 9.585253 22.844927 -6.218881
v 13.194687 12.025104 -1.406774
v 11.991306 22.844927 -2.609447
v 9.585253 -1.207367 -3.812121
v 13.194687 12.025104 -0.203393
v 10.786513 32.470790 -0.203393
v 13.194687 14.430686 -1.406774
v 10.787220 22.844927 -6.218881
v 10.787926 1.201748 -0.203393
v 8.382579 -1.207367 -5.015501
v 10.787220 8.418496 -6.218881
v 10.787220 3.607331 -3.812121
v 11.990600 24.053017 -0.203393
v 5.975819 1.201748 -1.406774
v 11.990600 24.053017 -1.406774
v 10.787220 31.269764 -2.609447
f 782 770 783 
f 756 753 757 
f 756 752 758 
f 754 753 760 
f 753 755 760 
f 755 758 760 
f 755 753 761 
f 753 756 761 
f 758 755 762 
f 756 758 762 
f 755 761 762 
f 761 756 765 
f 756 762 765 
f 757 753 766 
f 759 752 767 
f 752 756 768 
f 756 757 768 
f 767 752 768 
f 759 767 769 
f 767 757 770 
f 760 758 771 
f 764 760 771 
f 763 764 771 
f 754 760 772 
f 769 754 772 
f 764 769 772 
f 766 753 773 
f 754 769 774 
f 769 767 774 
f 767 770 774 
f 757 767 775 
f 768 757 775 
f 767 768 775 
f 760 764 776 
f 772 760 776 
f 764 772 776 
f 771 758 777 
f 763 771 777 
f 758 752 778 
f 752 759 778 
f 759 763 778 
f 777 758 778 
f 763 777 778 
f 763 759 779 
f 764 763 779 
f 769 764 779 
f 759 769 779 
f 753 754 780 
f 773 753 780 
f 754 774 780 
f 762 761 781 
f 761 765 781 
f 765 762 781 
f 766 773 782 
f 774 770 782 
f 773 780 782 
f 780 774 782 
f 757 766 783 
f 770 757 783 
f 766 782 783 
o convex_25
v -7.256769 67.365516 -21.856463
v -1.244815 52.932373 -15.846629
v -1.244815 56.542867 -19.456769
v 2.366385 55.339958 -11.034521
v -0.041788 70.977776 -30.278711
v -7.256769 69.771334 -31.484917
v -6.053743 52.932373 -11.034521
v -2.446782 70.977776 -25.466603
v 1.161239 58.948685 -21.856463
v -7.256769 60.151594 -21.856463
v -8.461916 70.977776 -27.874777
v -6.053743 55.339958 -11.034521
v 2.366385 52.932373 -13.438455
v -1.244815 69.771334 -31.484917
v -0.041788 70.977776 -26.670690
v -6.053743 52.932373 -14.644662
v -4.851776 61.354503 -15.846629
v 1.161239 52.932373 -9.828315
v -8.461916 70.977776 -30.278711
v -4.851776 54.137049 -9.828315
v -7.256769 70.977776 -25.466603
v 1.161239 52.932373 -15.846629
v -8.461916 68.568425 -29.074624
v -1.244815 70.977776 -31.484917
v -0.041788 68.568425 -30.278711
v 1.161239 54.137049 -9.828315
v -7.256769 64.959697 -19.456769
v 1.161239 63.756788 -21.856463
v -7.256769 70.977776 -31.484917
v -4.851776 52.932373 -9.828315
v -8.461916 68.568425 -27.874777
v -6.053743 61.354503 -15.846629
f 810 795 815 
f 786 785 789 
f 786 789 792 
f 789 785 793 
f 791 788 794 
f 794 790 795 
f 790 785 796 
f 792 789 797 
f 791 787 798 
f 788 791 798 
f 785 790 799 
f 793 785 799 
f 790 793 799 
f 787 791 800 
f 796 787 801 
f 790 796 801 
f 794 788 802 
f 795 790 803 
f 794 784 804 
f 791 794 804 
f 800 791 804 
f 785 786 805 
f 786 792 805 
f 796 785 805 
f 792 796 805 
f 789 793 806 
f 802 789 806 
f 794 802 806 
f 788 797 807 
f 797 789 807 
f 802 788 807 
f 788 796 808 
f 796 792 808 
f 797 788 808 
f 792 797 808 
f 787 800 809 
f 801 787 809 
f 800 803 809 
f 803 801 809 
f 784 794 810 
f 794 795 810 
f 787 796 811 
f 796 788 811 
f 798 787 811 
f 788 798 811 
f 789 802 812 
f 807 789 812 
f 802 807 812 
f 790 801 813 
f 803 790 813 
f 801 803 813 
f 793 790 814 
f 790 794 814 
f 806 793 814 
f 794 806 814 
f 795 803 815 
f 803 800 815 
f 804 784 815 
f 800 804 815 
f 784 810 815 
o convex_26
v -3.649338 2.399123 8.218854
v 3.569530 15.633595 15.437722
v 3.569530 31.272473 13.030962
v 3.569530 -1.210900 8.218854
v -3.649338 33.680293 9.422941
v -3.649338 13.229190 15.437722
v 3.569530 33.680293 9.422941
v -3.649338 -1.210900 11.828288
v 3.569530 -1.210900 11.828288
v -3.649338 31.272473 13.030962
v -3.649338 -1.210900 8.218854
v -3.649338 33.680293 11.828288
v 3.569530 13.229190 15.437722
v 3.569530 33.680293 11.828288
v -3.649338 15.633595 15.437722
v 3.569530 2.399123 8.218854
f 816 822 831 
f 818 817 819 
f 820 816 821 
f 818 819 822 
f 816 820 822 
f 821 816 823 
f 821 823 824 
f 819 817 824 
f 823 819 824 
f 817 818 825 
f 820 821 825 
f 816 819 826 
f 819 823 826 
f 823 816 826 
f 822 820 827 
f 825 818 827 
f 820 825 827 
f 817 821 828 
f 821 824 828 
f 824 817 828 
f 818 822 829 
f 827 818 829 
f 822 827 829 
f 821 817 830 
f 817 825 830 
f 825 821 830 
f 819 816 831 
f 822 819 831 
o convex_27
v -9.665178 31.273533 7.015710
v -15.680784 13.232488 1.000222
v -14.476344 8.414728 -0.203158
v -10.869618 -1.210900 5.811623
v -8.463212 32.477149 1.000222
v -7.258771 -1.210900 2.203602
v -13.274377 31.273533 -0.203158
v -13.274377 21.644607 7.015710
v -8.463212 -1.210900 -0.203158
v -7.258771 -1.210900 5.811623
v -13.274377 9.621641 7.015710
v -12.069937 -1.210900 -0.203158
v -8.463212 32.477149 5.811623
v -12.069937 32.477149 4.608949
v -9.665178 32.477149 -0.203158
v -9.665178 3.606860 7.015710
v -15.680784 13.232488 2.203602
v -13.274377 28.863004 3.406276
v -7.258771 3.606860 5.811623
v -14.476344 16.830145 5.811623
v -12.069937 28.863004 7.015710
v -13.274377 3.606860 2.203602
v -14.476344 12.028872 5.811623
v -15.680784 14.436104 2.203602
v -14.476344 22.851521 -0.203158
v -8.463212 3.606860 -0.203158
v -7.258771 1.196331 2.203602
v -12.069937 32.477149 -0.203158
v -12.069937 4.810476 7.015710
v -13.274377 31.273533 1.000222
v -10.869618 31.273533 7.015710
v -12.069937 -1.210900 1.000222
f 853 843 863 
f 837 835 840 
f 834 838 840 
f 835 837 841 
f 832 839 842 
f 833 834 843 
f 834 840 843 
f 840 835 843 
f 844 836 845 
f 840 838 846 
f 845 836 846 
f 841 832 847 
f 835 841 847 
f 832 842 847 
f 833 843 848 
f 832 841 850 
f 841 837 850 
f 844 832 850 
f 836 844 850 
f 842 839 851 
f 839 849 851 
f 839 832 852 
f 845 849 852 
f 849 839 852 
f 848 843 853 
f 848 853 854 
f 842 851 854 
f 851 848 854 
f 853 835 854 
f 833 848 855 
f 848 851 855 
f 851 849 855 
f 834 833 856 
f 838 834 856 
f 833 855 856 
f 855 838 856 
f 837 840 857 
f 846 836 857 
f 840 846 857 
f 836 850 858 
f 850 837 858 
f 857 836 858 
f 837 857 858 
f 838 845 859 
f 846 838 859 
f 845 846 859 
f 835 847 860 
f 847 842 860 
f 854 835 860 
f 842 854 860 
f 845 838 861 
f 849 845 861 
f 838 855 861 
f 855 849 861 
f 832 844 862 
f 844 845 862 
f 852 832 862 
f 845 852 862 
f 843 835 863 
f 835 853 863 
o convex_28
v 16.803060 49.318405 -6.217468
v 38.460723 54.130689 -7.422968
v 38.460723 54.130689 -13.437748
v 9.588079 34.883438 -1.406774
v 20.415321 51.724547 -2.610860
v 5.975819 34.883438 -5.016207
v 8.386112 38.495477 0.999987
v 20.415321 52.930445 -8.624228
v 38.460723 51.726432 -13.437748
v 36.050430 50.524303 -6.218881
v 34.845283 54.130689 -13.437748
v 9.588079 34.885322 0.999987
v 27.633482 52.928560 -3.814947
v 5.975819 37.291464 -5.016207
v 9.588079 34.883438 -5.016207
v 18.005027 50.522418 -8.624228
v 7.180966 38.495477 -0.204100
v 31.236203 54.130689 -6.218881
v 34.845283 51.726432 -13.437748
v 13.200340 42.103748 -7.420141
v 38.460723 51.726432 -7.422968
v 7.180966 34.885322 0.999987
v 14.399127 43.305877 -0.204100
v 21.617288 52.928560 -3.814947
v 5.975819 37.291464 -1.406774
v 30.037415 54.130689 -11.029575
v 36.050430 54.130689 -6.218881
v 22.819255 51.726432 -2.610860
v 14.399127 39.695722 -0.204100
v 9.588079 40.899735 -0.204100
v 13.200340 44.508006 -7.420141
v 5.975819 34.883438 -1.406774
f 885 888 895 
f 864 868 871 
f 866 865 872 
f 865 866 874 
f 866 872 874 
f 867 869 878 
f 872 867 878 
f 864 871 879 
f 871 874 879 
f 877 864 879 
f 865 874 881 
f 874 872 882 
f 878 869 882 
f 872 878 882 
f 874 882 883 
f 882 869 883 
f 872 865 884 
f 867 872 884 
f 865 873 884 
f 875 867 884 
f 873 875 884 
f 867 875 885 
f 875 870 885 
f 870 880 885 
f 868 870 886 
f 870 875 886 
f 871 868 887 
f 881 871 887 
f 876 881 887 
f 864 877 888 
f 877 869 888 
f 880 864 888 
f 885 880 888 
f 874 871 889 
f 871 881 889 
f 881 874 889 
f 873 865 890 
f 876 873 890 
f 865 881 890 
f 881 876 890 
f 868 886 891 
f 886 876 891 
f 887 868 891 
f 876 887 891 
f 875 873 892 
f 873 876 892 
f 886 875 892 
f 876 886 892 
f 868 864 893 
f 870 868 893 
f 864 880 893 
f 880 870 893 
f 869 877 894 
f 879 874 894 
f 877 879 894 
f 883 869 894 
f 874 883 894 
f 869 867 895 
f 867 885 895 
f 888 869 895 
o convex_29
v 62.523968 43.305803 -36.293020
v 84.180218 43.305803 10.622199
v 84.180218 42.102305 10.622199
v 56.507892 55.336896 20.250300
v 62.523968 48.119795 -41.110074
v 57.713274 51.726402 19.043034
v 62.523968 55.336896 19.043034
v 56.507892 50.524200 -35.091760
v 70.945392 42.102305 -41.110074
v 78.164141 42.102305 9.420939
v 80.566780 45.712799 4.603885
v 56.507892 46.915001 -27.872186
v 70.945392 46.915001 19.043034
v 70.945392 44.510597 -38.701547
v 66.137406 42.102305 -31.481973
v 58.915948 45.712799 -41.110074
v 57.713274 54.133398 -7.426736
v 74.550703 49.319406 17.841773
v 56.507892 49.319406 -3.816949
v 58.915948 51.726402 -25.463659
v 73.348030 42.102305 -5.024216
v 56.507892 55.336896 4.603885
v 80.566780 43.305803 -6.219470
v 64.932024 42.102305 -41.110074
v 66.137406 52.928605 20.250300
v 56.507892 52.928605 20.250300
v 82.974835 44.510597 5.811152
v 57.713274 45.712799 -38.701547
v 72.148065 45.712799 17.841773
v 63.732059 52.928605 2.201365
v 57.713274 51.726402 -29.073446
v 64.932024 49.319406 20.250300
f 924 908 927 
f 904 898 905 
f 899 903 907 
f 904 900 909 
f 900 906 909 
f 904 905 910 
f 907 896 910 
f 903 900 911 
f 900 904 911 
f 898 897 913 
f 906 902 913 
f 908 898 913 
f 899 907 914 
f 907 910 914 
f 906 900 915 
f 912 902 915 
f 905 901 916 
f 910 905 916 
f 901 914 916 
f 914 910 916 
f 899 902 917 
f 903 899 917 
f 902 912 917 
f 897 898 918 
f 898 904 918 
f 904 909 918 
f 910 896 919 
f 904 910 919 
f 911 904 919 
f 902 899 920 
f 913 902 920 
f 908 913 920 
f 899 914 921 
f 914 901 921 
f 920 899 921 
f 909 906 922 
f 913 897 922 
f 906 913 922 
f 897 918 922 
f 918 909 922 
f 896 907 923 
f 907 903 923 
f 903 911 923 
f 919 896 923 
f 911 919 923 
f 901 905 924 
f 905 898 924 
f 898 908 924 
f 902 906 925 
f 915 902 925 
f 906 915 925 
f 900 903 926 
f 915 900 926 
f 912 915 926 
f 903 917 926 
f 917 912 926 
f 908 920 927 
f 921 901 927 
f 920 921 927 
f 901 924 927 
