v 6.484121084213257 49.30264942397461 -110.20949690113738
v -37.78552711009979 49.30265047921157 -103.73249857197479
v -47.08414077758789 31.574060064808723 -100.35129107851819
v -14.961425960063934 14.985669880359449 -102.25985294349238
v 16.361646354198456 31.574058552479148 -109.63390387911633
v 37.17502951622009 78.2302550213035 -78.20883475727591
v 4.446038603782654 79.86523780784638 -56.48970116973548
v 14.800873398780823 80.47948830356044 -51.64411783093617
v 29.44619059562683 80.21695289316462 -56.50549049743814
v 6.217272579669952 49.76054092462107 -112.1810994156178
v -38.094693422317505 49.760541980867956 -105.69790220339856
v -37.202224135398865 61.97942645447021 -100.54209050010712
v 6.839266419410706 61.97942540467131 -106.9857102281955
v 6.217272579669952 49.76054092462107 -112.1810994156178
v 6.839266419410706 61.97942540467131 -106.9857102281955
v 26.926851272583008 62.5344694065181 -109.50697487169379
v 30.417269468307495 44.13444630324578 -113.9003229519831
v 26.926851272583008 62.5344694065181 -109.50697487169379
v 6.839266419410706 61.97942540467131 -106.9857102281955
v 8.023295551538467 72.62350707896474 -85.99639526044692
v -12.5727578997612 78.80909577046089 -64.93642422040087
v -7.4976846575737 74.20063718076467 -30.24879710773983
v -1.4823535457253456 74.20063703737942 -31.12888949017086
v -6.55742809176445 78.80909562707662 -65.81651064236742
v 37.17502951622009 78.2302550213035 -78.20883475727591
v -6.55742809176445 78.80909562707662 -65.81651064236742
v 4.446038603782654 79.86523780784638 -56.48970116973548
v -7.4976846575737 74.20063718076467 -30.24879710773983
v -4.4709462672472 52.24005424174538 -9.561341571249903
v 1.544384565204382 52.24005409836038 -10.441432463564814
v -1.4823535457253456 74.20063703737942 -31.12888949017086
v -4.4709462672472 52.24005424174538 -9.561341571249903
v -5.046839267015457 19.515540486962966 -13.497507771427282
v 0.9684914723038673 19.515540343578202 -14.377597173626073
v 1.544384565204382 52.24005409836038 -10.441432463564814
v -32.32353627681732 72.62350804069611 -80.09333005582656
v 8.023295551538467 72.62350707896474 -85.99639526044692
v 6.839266419410706 61.97942540467131 -106.9857102281955
v -37.202224135398865 61.97942645447021 -100.54209050010712
v -5.046839267015457 19.515540486962966 -13.497507771427282
v -4.449812322854996 -1.534205885344366e-06 -9.416888654232025
v 1.5655172988772392 -1.6775908903290753e-06 -10.296979546546936
v 0.9684914723038673 19.515540343578202 -14.377597173626073
v -58.02237391471863 78.23025729048538 -64.2806955475286
v -44.399839639663696 80.21695465340194 -45.70123072036905
v -28.975674510002136 80.47948934704438 -45.239259003345225
v -20.443040132522583 79.86523840111785 -52.84822692275672
v -38.094693422317505 49.760541980867956 -105.69790220339856
v -61.77288293838501 44.13444850074427 -100.41217330903876
v -57.170140743255615 62.534471411104164 -97.20291322046393
v -37.202224135398865 61.97942645447021 -100.54209050010712
v -57.170140743255615 62.534471411104164 -97.20291322046393
v -32.32353627681732 72.62350804069611 -80.09333005582656
v -37.202224135398865 61.97942645447021 -100.54209050010712
v -58.02237391471863 78.23025729048538 -64.2806955475286
v -20.443040132522583 79.86523840111785 -52.84822692275672
v -12.5727578997612 78.80909577046089 -64.93642422040087
v -32.32353627681732 72.62350804069611 -80.09333005582656
v -61.37815713882446 69.39953425655315 -81.75974426827601
v -58.02237391471863 78.23025729048538 -64.2806955475286
v -12.5727578997612 78.80909577046089 -64.93642422040087
v -6.55742809176445 78.80909562707662 -65.81651064236742
v 37.17502951622009 78.2302550213035 -78.20883475727591
v 35.3827029466629 69.399531950105 -95.91662226281336
v 8.023295551538467 72.62350707896474 -85.99639526044692
v 37.244272232055664 75.8445791912715 -77.73557944954784
v 29.46971356868744 77.76968157231174 -56.344718490374376
v 14.824394881725311 78.03222294317204 -51.48334582387337
v 4.469560831785202 77.41797244745798 -56.32892916267268
v 6.484121084213257 49.30264942397461 -110.20949690113738
v 7.01059103012085 60.245335785176806 -105.56241063308485
v -36.958616971969604 60.24533683325203 -99.1293707294441
v -37.78552711009979 49.30265047921157 -103.73249857197479
v 6.484121084213257 49.30264942397461 -110.20949690113738
v 30.531978607177734 43.278228869928526 -112.00584878294652
v 27.05860137939453 61.14183695452958 -107.84441036715619
v 7.01059103012085 60.245335785176806 -105.56241063308485
v 27.05860137939453 61.14183695452958 -107.84441036715619
v 8.12925398349762 70.32339971396277 -85.2960939537813
v 7.01059103012085 60.245335785176806 -105.56241063308485
v -12.526026368141174 76.38527890317152 -64.61702041555309
v -6.510697305202484 76.38527875978725 -65.49710683751964
v -1.5994714573025703 71.94990591559994 -31.929376522581496
v -7.614802569150925 71.94990605898519 -31.049284140150466
v 37.244272232055664 75.8445791912715 -77.73557944954784
v 4.469560831785202 77.41797244745798 -56.32892916267268
v -6.510697305202484 76.38527875978725 -65.49710683751964
v -7.614802569150925 71.94990605898519 -31.049284140150466
v -1.5994714573025703 71.94990591559994 -31.929376522581496
v 1.2695293873548508 51.386080165205954 -12.320039597536658
v -4.745801538228989 51.38608030859096 -11.439948705221747
v -4.745801538228989 51.38608030859096 -11.439948705221747
v 1.2695293873548508 51.386080165205954 -12.320039597536658
v 0.6757240742444992 19.38740940281065 -16.378632366221407
v -5.33960647881031 19.387409546195414 -15.498542964022613
v -32.2244256734848 70.3234006758573 -79.3920273911287
v -36.958616971969604 60.24533683325203 -99.1293707294441
v 7.01059103012085 60.245335785176806 -105.56241063308485
v 8.12925398349762 70.32339971396277 -85.2960939537813
v -5.33960647881031 19.387409546195414 -15.498542964022613
v 0.6757240742444992 19.38740940281065 -16.378632366221407
v 1.2815270572900772 -0.609327797643516 -12.23802407589531
v -4.733802750706673 -0.609327654258511 -11.3579331835804
v -57.95313119888306 75.84458146045338 -63.80744023980053
v -20.419517159461975 77.41797304072945 -52.68745491569392
v -28.95215153694153 78.03222398665501 -45.078492956746906
v -44.37631666660309 77.76968333254906 -45.540458713305284
v -37.78552711009979 49.30265047921157 -103.73249857197479
v -36.958616971969604 60.24533683325203 -99.1293707294441
v -56.82007670402527 61.141838953911616 -95.57229084506146
v -61.340051889419556 43.2782310598448 -98.5642384466428
v -56.82007670402527 61.141838953911616 -95.57229084506146
v -36.958616971969604 60.24533683325203 -99.1293707294441
v -32.2244256734848 70.3234006758573 -79.3920273911287
v -57.95313119888306 75.84458146045338 -63.80744023980053
v -12.526026368141174 76.38527890317152 -64.61702041555309
v -20.419517159461975 77.41797304072945 -52.68745491569392
v -32.2244256734848 70.3234006758573 -79.3920273911287
v 8.12925398349762 70.32339971396277 -85.2960939537813
v 35.47631502151489 67.07290050832732 -95.27678390348659
v 37.244272232055664 75.8445791912715 -77.73557944954784
v -6.510697305202484 76.38527875978725 -65.49710683751964
v -12.526026368141174 76.38527890317152 -64.61702041555309
v -57.95313119888306 75.84458146045338 -63.80744023980053
v -61.28454804420471 67.07290281477549 -81.11990590894924
v 29.44619059562683 80.21695289316462 -56.50549049743814
v 14.800873398780823 80.47948830356044 -51.64411783093617
v 14.824394881725311 78.03222294317204 -51.48334582387337
v 29.46971356868744 77.76968157231174 -56.344718490374376
v 37.17502951622009 78.2302550213035 -78.20883475727591
v 29.44619059562683 80.21695289316462 -56.50549049743814
v 29.46971356868744 77.76968157231174 -56.344718490374376
v 37.244272232055664 75.8445791912715 -77.73557944954784
v 35.3827029466629 69.399531950105 -95.91662226281336
v 37.17502951622009 78.2302550213035 -78.20883475727591
v 37.244272232055664 75.8445791912715 -77.73557944954784
v 35.47631502151489 67.07290050832732 -95.27678390348659
v 8.023295551538467 72.62350707896474 -85.99639526044692
v 35.3827029466629 69.399531950105 -95.91662226281336
v 35.47631502151489 67.07290050832732 -95.27678390348659
v 8.12925398349762 70.32339971396277 -85.2960939537813
v 4.446038603782654 79.86523780784638 -56.48970116973548
v -6.55742809176445 78.80909562707662 -65.81651064236742
v -6.510697305202484 76.38527875978725 -65.49710683751964
v 4.469560831785202 77.41797244745798 -56.32892916267268
v 14.800873398780823 80.47948830356044 -51.64411783093617
v 4.446038603782654 79.86523780784638 -56.48970116973548
v 4.469560831785202 77.41797244745798 -56.32892916267268
v 14.824394881725311 78.03222294317204 -51.48334582387337
v -15.25198370218277 14.659127000524302 -104.24578428677621
v 15.995220839977264 31.247815188025214 -111.60730632611718
v 16.361646354198456 31.574058552479148 -109.63390387911633
v -14.961425960063934 14.985669880359449 -102.25985294349238
v 26.926851272583008 62.5344694065181 -109.50697487169379
v 8.023295551538467 72.62350707896474 -85.99639526044692
v 8.12925398349762 70.32339971396277 -85.2960939537813
v 27.05860137939453 61.14183695452958 -107.84441036715619
v 15.995220839977264 31.247815188025214 -111.60730632611718
v 6.217272579669952 49.76054092462107 -112.1810994156178
v 6.484121084213257 49.30264942397461 -110.20949690113738
v 16.361646354198456 31.574058552479148 -109.63390387911633
v -6.55742809176445 78.80909562707662 -65.81651064236742
v -1.4823535457253456 74.20063703737942 -31.12888949017086
v -1.5994714573025703 71.94990591559994 -31.929376522581496
v -6.510697305202484 76.38527875978725 -65.49710683751964
v 0.9684914723038673 19.515540343578202 -14.377597173626073
v 1.5655172988772392 -1.6775908903290753e-06 -10.296979546546936
v 1.2815270572900772 -0.609327797643516 -12.23802407589531
v 0.6757240742444992 19.38740940281065 -16.378632366221407
v 1.544384565204382 52.24005409836038 -10.441432463564814
v 0.9684914723038673 19.515540343578202 -14.377597173626073
v 0.6757240742444992 19.38740940281065 -16.378632366221407
v 1.2695293873548508 51.386080165205954 -12.320039597536658
v -1.4823535457253456 74.20063703737942 -31.12888949017086
v 1.544384565204382 52.24005409836038 -10.441432463564814
v 1.2695293873548508 51.386080165205954 -12.320039597536658
v -1.5994714573025703 71.94990591559994 -31.929376522581496
v 30.417269468307495 44.13444630324578 -113.9003229519831
v 26.926851272583008 62.5344694065181 -109.50697487169379
v 27.05860137939453 61.14183695452958 -107.84441036715619
v 30.531978607177734 43.278228869928526 -112.00584878294652
v 6.217272579669952 49.76054092462107 -112.1810994156178
v 30.417269468307495 44.13444630324578 -113.9003229519831
v 30.531978607177734 43.278228869928526 -112.00584878294652
v 6.484121084213257 49.30264942397461 -110.20949690113738
v -28.975674510002136 80.47948934704438 -45.239259003345225
v -44.399839639663696 80.21695465340194 -45.70123072036905
v -44.37631666660309 77.76968333254906 -45.540458713305284
v -28.95215153694153 78.03222398665501 -45.078492956746906
v -44.399839639663696 80.21695465340194 -45.70123072036905
v -58.02237391471863 78.23025729048538 -64.2806955475286
v -57.95313119888306 75.84458146045338 -63.80744023980053
v -44.37631666660309 77.76968333254906 -45.540458713305284
v -58.02237391471863 78.23025729048538 -64.2806955475286
v -61.37815713882446 69.39953425655315 -81.75974426827601
v -61.28454804420471 67.07290281477549 -81.11990590894924
v -57.95313119888306 75.84458146045338 -63.80744023980053
v -61.37815713882446 69.39953425655315 -81.75974426827601
v -32.32353627681732 72.62350804069611 -80.09333005582656
v -32.2244256734848 70.3234006758573 -79.3920273911287
v -61.28454804420471 67.07290281477549 -81.11990590894924
v -12.5727578997612 78.80909577046089 -64.93642422040087
v -20.443040132522583 79.86523840111785 -52.84822692275672
v -20.419517159461975 77.41797304072945 -52.68745491569392
v -12.526026368141174 76.38527890317152 -64.61702041555309
v -20.443040132522583 79.86523840111785 -52.84822692275672
v -28.975674510002136 80.47948934704438 -45.239259003345225
v -28.95215153694153 78.03222398665501 -45.078492956746906
v -20.419517159461975 77.41797304072945 -52.68745491569392
v -47.29841947555542 31.247816696730705 -102.34693797894921
v -15.25198370218277 14.659127000524302 -104.24578428677621
v -14.961425960063934 14.985669880359449 -102.25985294349238
v -47.08414077758789 31.574060064808723 -100.35129107851819
v -32.32353627681732 72.62350804069611 -80.09333005582656
v -57.170140743255615 62.534471411104164 -97.20291322046393
v -56.82007670402527 61.141838953911616 -95.57229084506146
v -32.2244256734848 70.3234006758573 -79.3920273911287
v -38.094693422317505 49.760541980867956 -105.69790220339856
v -47.29841947555542 31.247816696730705 -102.34693797894921
v -47.08414077758789 31.574060064808723 -100.35129107851819
v -37.78552711009979 49.30265047921157 -103.73249857197479
v 1.5655172988772392 -1.6775908903290753e-06 -10.296979546546936
v -4.449812322854996 -1.534205885344366e-06 -9.416888654232025
v -4.733802750706673 -0.609327654258511 -11.3579331835804
v 1.2815270572900772 -0.609327797643516 -12.23802407589531
v -7.4976846575737 74.20063718076467 -30.24879710773983
v -12.5727578997612 78.80909577046089 -64.93642422040087
v -12.526026368141174 76.38527890317152 -64.61702041555309
v -7.614802569150925 71.94990605898519 -31.049284140150466
v -4.449812322854996 -1.534205885344366e-06 -9.416888654232025
v -5.046839267015457 19.515540486962966 -13.497507771427282
v -5.33960647881031 19.387409546195414 -15.498542964022613
v -4.733802750706673 -0.609327654258511 -11.3579331835804
v -5.046839267015457 19.515540486962966 -13.497507771427282
v -4.4709462672472 52.24005424174538 -9.561341571249903
v -4.745801538228989 51.38608030859096 -11.439948705221747
v -5.33960647881031 19.387409546195414 -15.498542964022613
v -4.4709462672472 52.24005424174538 -9.561341571249903
v -7.4976846575737 74.20063718076467 -30.24879710773983
v -7.614802569150925 71.94990605898519 -31.049284140150466
v -4.745801538228989 51.38608030859096 -11.439948705221747
v -57.170140743255615 62.534471411104164 -97.20291322046393
v -61.77288293838501 44.13444850074427 -100.41217330903876
v -61.340051889419556 43.2782310598448 -98.5642384466428
v -56.82007670402527 61.141838953911616 -95.57229084506146
v -61.77288293838501 44.13444850074427 -100.41217330903876
v -38.094693422317505 49.760541980867956 -105.69790220339856
v -37.78552711009979 49.30265047921157 -103.73249857197479
v -61.340051889419556 43.2782310598448 -98.5642384466428
v -15.25198370218277 14.659127000524302 -104.24578428677621
v -47.29841947555542 31.247816696730705 -102.34693797894921
v -38.094693422317505 49.760541980867956 -105.69790220339856
v 6.217272579669952 49.76054092462107 -112.1810994156178
v 15.995220839977264 31.247815188025214 -111.60730632611718
v 81.30004405975342 34.36187420351938 -5.23998552103144
v 72.54428267478943 34.36186901709833 -37.07401120205027
v 70.33020853996277 21.255166492529664 -38.64805746662268
v 73.53441715240479 10.444385988551824 -20.225213679565663
v 81.77374601364136 22.005795275719958 2.046028664728486
v 60.645848512649536 54.52319115647508 20.136952457949494
v 41.77341163158417 55.66270321045181 -1.8637829807967936
v 39.163216948509216 56.09080891813037 6.1587946375541005
v 44.05082166194916 55.90783029476607 16.443748604299845
v 82.71976709365845 34.68100635139133 -5.614107537002489
v 73.95563125610352 34.681001160013146 -37.478559899063036
v 70.26063799858093 43.19704476723598 -36.357669119411234
v 78.97128462791443 43.19704992692676 -4.687712673717266
v 82.71976709365845 34.68100635139133 -5.614107537002489
v 78.97128462791443 43.19704992692676 -4.687712673717266
v 82.63833522796631 43.5838983519815 9.795000753982073
v 86.17216944694519 30.759858052248916 11.95303967132455
v 82.63833522796631 43.5838983519815 9.795000753982073
v 78.97128462791443 43.19704992692676 -4.687712673717266
v 63.706982135772705 50.61552493314447 -1.918254843367317
v 46.416932344436646 54.926607534000915 -15.093120940562871
v 21.47328108549118 51.71471104011727 -8.232515535038038
v 22.66300916671753 51.71471174484465 -3.906929722707793
v 47.606658935546875 54.92660823872817 -10.767535873290685
v 60.645848512649536 54.52319115647508 20.136952457949494
v 47.606658935546875 54.92660823872817 -10.767535873290685
v 41.77341163158417 55.66270321045181 -1.8637829807967936
v 21.47328108549118 51.71471104011727 -8.232515535038038
v 6.597064435482025 36.40910915621953 -4.140897066535786
v 7.786791771650314 36.40910986094703 0.1846894908525201
v 22.66300916671753 51.71471174484465 -3.906929722707793
v 6.597064435482025 36.40910915621953 -4.140897066535786
v 9.427540004253387 13.601506445022844 -4.9193989293428295
v 10.617267340421677 13.601507149750264 -0.5938128376158109
v 7.786791771650314 36.40910986094703 0.1846894908525201
v 55.72707653045654 50.615520206302605 -30.931403538597802
v 63.706982135772705 50.61552493314447 -1.918254843367317
v 78.97128462791443 43.19704992692676 -4.687712673717266
v 70.26063799858093 43.19704476723598 -36.357669119411234
v 9.427540004253387 13.601506445022844 -4.9193989293428295
v 6.49319589138031 -6.699823912902677e-07 -4.112322628498077
v 7.6829224824905396 3.474504322101957e-08 0.21326355636119843
v 10.617267340421677 13.601507149750264 -0.5938128376158109
v 41.81745946407318 54.52318000360091 -48.318901600316195
v 29.445365071296692 55.90782164331774 -36.6584630498864
v 30.50498366355896 56.0908037894785 -25.320646364457197
v 36.85078322887421 55.66270029456597 -19.761362799760796
v 73.95563125610352 34.681001160013146 -37.478559899063036
v 67.9385781288147 30.759847251690793 -54.340313916064446
v 66.00542068481445 43.58388849957854 -50.67861790241479
v 70.26063799858093 43.19704476723598 -36.357669119411234
v 66.00542068481445 43.58388849957854 -50.67861790241479
v 55.72707653045654 50.615520206302605 -30.931403538597802
v 70.26063799858093 43.19704476723598 -36.357669119411234
v 41.81745946407318 54.52318000360091 -48.318901600316195
v 36.85078322887421 55.66270029456597 -19.761362799760796
v 46.416932344436646 54.926607534000915 -15.093120940562871
v 55.72707653045654 50.615520206302605 -30.931403538597802
v 54.31416630744934 48.368540816282824 -52.36070944121098
v 41.81745946407318 54.52318000360091 -48.318901600316195
v 46.416932344436646 54.926607534000915 -15.093120940562871
v 47.606658935546875 54.92660823872817 -10.767535873290685
v 60.645848512649536 54.52319115647508 20.136952457949494
v 73.45176935195923 48.368552152324106 17.21941636750484
v 63.706982135772705 50.61552493314447 -1.918254843367317
v 60.30552387237549 52.86047788246313 20.230549902530665
v 43.93520951271057 54.20218974551846 16.475546470055512
v 39.04761075973511 54.38516240841828 6.190592503310739
v 41.65780246257782 53.95705670073972 -1.8319851150401552
v 81.30004405975342 34.36187420351938 -5.23998552103144
v 77.94445157051086 41.988461487435195 -4.433246092163935
v 69.24810409545898 41.98845633621238 -36.0512265425557
v 72.54428267478943 34.36186901709833 -37.07401120205027
v 81.30004405975342 34.36187420351938 -5.23998552103144
v 84.79514718055725 30.163111291580055 12.208754125446205
v 81.43269419670105 42.613287416031916 10.04217392341762
v 77.94445157051086 41.988461487435195 -4.433246092163935
v 81.43269419670105 42.613287416031916 10.04217392341762
v 63.203710317611694 49.01244313373237 -1.777184544111924
v 77.94445157051086 41.988461487435195 -4.433246092163935
v 46.187251806259155 53.23731654392673 -15.029948682577238
v 47.376978397369385 53.23731724865398 -10.704363615305052
v 23.238633573055267 50.14604263831643 -4.065251697120585
v 22.048906981945038 50.146041933588876 -8.39083862703792
v 60.30552387237549 52.86047788246313 20.230549902530665
v 41.65780246257782 53.95705670073972 -1.8319851150401552
v 47.376978397369385 53.23731724865398 -10.704363615305052
v 22.048906981945038 50.146041933588876 -8.39083862703792
v 23.238633573055267 50.14604263831643 -4.065251697120585
v 9.137686342000961 35.81392762000826 -0.18686611680345624
v 7.947959005832672 35.81392691528072 -4.512452953588534
v 7.947959005832672 35.81392691528072 -4.512452953588534
v 9.137686342000961 35.81392762000826 -0.18686611680345624
v 12.056199461221695 13.512205916352583 -0.9895825421012373
v 10.866472125053406 13.512205211625119 -5.315168913225028
v 55.22245764732361 49.01243840608779 -30.795260308291155
v 69.24810409545898 41.98845633621238 -36.0512265425557
v 77.94445157051086 41.988461487435195 -4.433246092163935
v 63.203710317611694 49.01244313373237 -1.777184544111924
v 10.866472125053406 13.512205211625119 -5.315168913225028
v 12.056199461221695 13.512205916352583 -0.9895825421012373
v 9.078715741634369 -0.42467436739343783 -0.1706411370166598
v 7.88898840546608 -0.4246750721207813 -4.496226763082391
v 41.47714376449585 52.86046672958945 -48.22530117550278
v 36.7351770401001 53.95705378485412 -19.72956344388804
v 30.389374494552612 54.38515727976665 -25.28884700858444
v 29.329755902290344 54.202181094069395 -36.626669654479095
v 72.54428267478943 34.36186901709833 -37.07401120205027
v 69.24810409545898 41.98845633621238 -36.0512265425557
v 64.84295725822449 42.613277589206554 -50.274450568989224
v 66.62445664405823 30.163100528290396 -53.85584726610767
v 64.84295725822449 42.613277589206554 -50.274450568989224
v 69.24810409545898 41.98845633621238 -36.0512265425557
v 55.22245764732361 49.01243840608779 -30.795260308291155
v 41.47714376449585 52.86046672958945 -48.22530117550278
v 46.187251806259155 53.23731654392673 -15.029948682577238
v 36.7351770401001 53.95705378485412 -19.72956344388804
v 55.22245764732361 49.01243840608779 -30.795260308291155
v 63.203710317611694 49.01244313373237 -1.777184544111924
v 72.99166917800903 46.74698695020123 17.345964743130097
v 60.30552387237549 52.86047788246313 20.230549902530665
v 47.376978397369385 53.23731724865398 -10.704363615305052
v 46.187251806259155 53.23731654392673 -15.029948682577238
v 41.47714376449585 52.86046672958945 -48.22530117550278
v 53.85406017303467 46.74697561415971 -52.23416255570184
v 44.05082166194916 55.90783029476607 16.443748604299845
v 39.163216948509216 56.09080891813037 6.1587946375541005
v 39.04761075973511 54.38516240841828 6.190592503310739
v 43.93520951271057 54.20218974551846 16.475546470055512
v 60.645848512649536 54.52319115647508 20.136952457949494
v 44.05082166194916 55.90783029476607 16.443748604299845
v 43.93520951271057 54.20218974551846 16.475546470055512
v 60.30552387237549 52.86047788246313 20.230549902530665
v 73.45176935195923 48.368552152324106 17.21941636750484
v 60.645848512649536 54.52319115647508 20.136952457949494
v 60.30552387237549 52.86047788246313 20.230549902530665
v 72.99166917800903 46.74698695020123 17.345964743130097
v 63.706982135772705 50.61552493314447 -1.918254843367317
v 73.45176935195923 48.368552152324106 17.21941636750484
v 72.99166917800903 46.74698695020123 17.345964743130097
v 63.203710317611694 49.01244313373237 -1.777184544111924
v 41.77341163158417 55.66270321045181 -1.8637829807967936
v 47.606658935546875 54.92660823872817 -10.767535873290685
v 47.376978397369385 53.23731724865398 -10.704363615305052
v 41.65780246257782 53.95705670073972 -1.8319851150401552
v 39.163216948509216 56.09080891813037 6.1587946375541005
v 41.77341163158417 55.66270321045181 -1.8637829807967936
v 41.65780246257782 53.95705670073972 -1.8319851150401552
v 39.04761075973511 54.38516240841828 6.190592503310739
v 74.96247887611389 10.216800489645767 -20.61799633062816
v 83.18575620651245 21.778418384203658 1.5988210124875932
v 81.77374601364136 22.005795275719958 2.046028664728486
v 73.53441715240479 10.444385988551824 -20.225213679565663
v 82.63833522796631 43.5838983519815 9.795000753982073
v 63.706982135772705 50.61552493314447 -1.918254843367317
v 63.203710317611694 49.01244313373237 -1.777184544111924
v 81.43269419670105 42.613287416031916 10.04217392341762
v 83.18575620651245 21.778418384203658 1.5988210124875932
v 82.71976709365845 34.68100635139133 -5.614107537002489
v 81.30004405975342 34.36187420351938 -5.23998552103144
v 81.77374601364136 22.005795275719958 2.046028664728486
v 47.606658935546875 54.92660823872817 -10.767535873290685
v 22.66300916671753 51.71471174484465 -3.906929722707793
v 23.238633573055267 50.14604263831643 -4.065251697120585
v 47.376978397369385 53.23731724865398 -10.704363615305052
v 10.617267340421677 13.601507149750264 -0.5938128376158109
v 7.6829224824905396 3.474504322101957e-08 0.21326355636119843
v 9.078715741634369 -0.42467436739343783 -0.1706411370166598
v 12.056199461221695 13.512205916352583 -0.9895825421012373
v 7.786791771650314 36.40910986094703 0.1846894908525201
v 10.617267340421677 13.601507149750264 -0.5938128376158109
v 12.056199461221695 13.512205916352583 -0.9895825421012373
v 9.137686342000961 35.81392762000826 -0.18686611680345624
v 22.66300916671753 51.71471174484465 -3.906929722707793
v 7.786791771650314 36.40910986094703 0.1846894908525201
v 9.137686342000961 35.81392762000826 -0.18686611680345624
v 23.238633573055267 50.14604263831643 -4.065251697120585
v 86.17216944694519 30.759858052248916 11.95303967132455
v 82.63833522796631 43.5838983519815 9.795000753982073
v 81.43269419670105 42.613287416031916 10.04217392341762
v 84.79514718055725 30.163111291580055 12.208754125446205
v 82.71976709365845 34.68100635139133 -5.614107537002489
v 86.17216944694519 30.759858052248916 11.95303967132455
v 84.79514718055725 30.163111291580055 12.208754125446205
v 81.30004405975342 34.36187420351938 -5.23998552103144
v 30.50498366355896 56.0908037894785 -25.320646364457197
v 29.445365071296692 55.90782164331774 -36.6584630498864
v 29.329755902290344 54.202181094069395 -36.626669654479095
v 30.389374494552612 54.38515727976665 -25.28884700858444
v 29.445365071296692 55.90782164331774 -36.6584630498864
v 41.81745946407318 54.52318000360091 -48.318901600316195
v 41.47714376449585 52.86046672958945 -48.22530117550278
v 29.329755902290344 54.202181094069395 -36.626669654479095
v 41.81745946407318 54.52318000360091 -48.318901600316195
v 54.31416630744934 48.368540816282824 -52.36070944121098
v 53.85406017303467 46.74697561415971 -52.23416255570184
v 41.47714376449585 52.86046672958945 -48.22530117550278
v 54.31416630744934 48.368540816282824 -52.36070944121098
v 55.72707653045654 50.615520206302605 -30.931403538597802
v 55.22245764732361 49.01243840608779 -30.795260308291155
v 53.85406017303467 46.74697561415971 -52.23416255570184
v 46.416932344436646 54.926607534000915 -15.093120940562871
v 36.85078322887421 55.66270029456597 -19.761362799760796
v 36.7351770401001 53.95705378485412 -19.72956344388804
v 46.187251806259155 53.23731654392673 -15.029948682577238
v 36.85078322887421 55.66270029456597 -19.761362799760796
v 30.50498366355896 56.0908037894785 -25.320646364457197
v 30.389374494552612 54.38515727976665 -25.28884700858444
v 36.7351770401001 53.95705378485412 -19.72956344388804
v 71.77230715751648 21.02778812872196 -38.98585781314586
v 74.96247887611389 10.216800489645767 -20.61799633062816
v 73.53441715240479 10.444385988551824 -20.225213679565663
v 70.33020853996277 21.255166492529664 -38.64805746662268
v 55.72707653045654 50.615520206302605 -30.931403538597802
v 66.00542068481445 43.58388849957854 -50.67861790241479
v 64.84295725822449 42.613277589206554 -50.274450568989224
v 55.22245764732361 49.01243840608779 -30.795260308291155
v 73.95563125610352 34.681001160013146 -37.478559899063036
v 71.77230715751648 21.02778812872196 -38.98585781314586
v 70.33020853996277 21.255166492529664 -38.64805746662268
v 72.54428267478943 34.36186901709833 -37.07401120205027
v 7.6829224824905396 3.474504322101957e-08 0.21326355636119843
v 6.49319589138031 -6.699823912902677e-07 -4.112322628498077
v 7.88898840546608 -0.4246750721207813 -4.496226763082391
v 9.078715741634369 -0.42467436739343783 -0.1706411370166598
v 21.47328108549118 51.71471104011727 -8.232515535038038
v 46.416932344436646 54.926607534000915 -15.093120940562871
v 46.187251806259155 53.23731654392673 -15.029948682577238
v 22.048906981945038 50.146041933588876 -8.39083862703792
v 6.49319589138031 -6.699823912902677e-07 -4.112322628498077
v 9.427540004253387 13.601506445022844 -4.9193989293428295
v 10.866472125053406 13.512205211625119 -5.315168913225028
v 7.88898840546608 -0.4246750721207813 -4.496226763082391
v 9.427540004253387 13.601506445022844 -4.9193989293428295
v 6.597064435482025 36.40910915621953 -4.140897066535786
v 7.947959005832672 35.81392691528072 -4.512452953588534
v 10.866472125053406 13.512205211625119 -5.315168913225028
v 6.597064435482025 36.40910915621953 -4.140897066535786
v 21.47328108549118 51.71471104011727 -8.232515535038038
v 22.048906981945038 50.146041933588876 -8.39083862703792
v 7.947959005832672 35.81392691528072 -4.512452953588534
v 66.00542068481445 43.58388849957854 -50.67861790241479
v 67.9385781288147 30.759847251690793 -54.340313916064446
v 66.62445664405823 30.163100528290396 -53.85584726610767
v 64.84295725822449 42.613277589206554 -50.274450568989224
v 67.9385781288147 30.759847251690793 -54.340313916064446
v 73.95563125610352 34.681001160013146 -37.478559899063036
v 72.54428267478943 34.36186901709833 -37.07401120205027
v 66.62445664405823 30.163100528290396 -53.85584726610767
v 74.96247887611389 10.216800489645767 -20.61799633062816
v 71.77230715751648 21.02778812872196 -38.98585781314586
v 73.95563125610352 34.681001160013146 -37.478559899063036
v 82.71976709365845 34.68100635139133 -5.614107537002489
v 83.18575620651245 21.778418384203658 1.5988210124875932
v -96.18120193481445 55.51896207132189 6.865682348427049
v -85.23244261741638 55.51896829936714 45.093151822504275
v -88.06961178779602 43.57272386335185 54.864357763545755
v -100.14454126358032 31.973038816419276 28.68248895444478
v -103.76101732254028 43.57271493752501 0.0780228316953201
v -73.29296469688416 70.27856325004068 -23.48192138053783
v -50.28520226478577 71.47713944817768 2.774672486041522
v -47.243478894233704 71.92743307855774 -6.920257753326967
v -53.26026678085327 71.73496767267386 -19.24468553526225
v -97.4532425403595 56.74480913330115 7.210237228648204
v -86.49399876594543 56.744809406834904 45.474245840089836
v -81.50449991226196 60.109735730041315 43.918838244601986
v -92.39683747291565 60.109729534094235 5.888385963365337
v -97.4532425403595 56.74480913330115 7.210237228648204
v -92.39683747291565 60.109729534094235 5.888385963365337
v -96.94783091545105 60.463849813272354 -11.521076576065779
v -104.1823148727417 52.40095638262327 -13.22995681944152
v -96.94783091545105 60.463849813272354 -11.521076576065779
v -92.39683747291565 60.109729534094235 5.888385963365337
v -79.25804853439331 66.1683671230386 -4.540028772453434
v -55.709636211395264 70.70290155972916 18.76604895257056
v -25.756385922431946 67.32452677756676 10.187109767088009
v -27.244096994400024 67.324525931304 4.992785884627414
v -57.19735026359558 70.70290071346656 13.571726187697056
v -73.29296469688416 70.27856325004068 -23.48192138053783
v -57.19735026359558 70.70290071346656 13.571726187697056
v -50.28520226478577 71.47713944817768 2.774672486041522
v -25.756385922431946 67.32452677756676 10.187109767088009
v -7.8924760222435 38.29620265126411 5.070695747308114
v -9.380187839269638 38.296201805001346 -0.12362813515248022
v -27.244096994400024 67.324525931304 4.992785884627414
v -7.8924760222435 38.29620265126411 5.070695747308114
v -11.291415989398956 14.306476206835072 6.044192516524707
v -12.779128551483154 14.306475360572424 0.849869379122173
v -9.380187839269638 38.296201805001346 -0.12362813515248022
v -66.7644739151001 66.16837526750481 45.45034880270564
v -79.25804853439331 66.1683671230386 -4.540028772453434
v -92.39683747291565 60.109729534094235 5.888385963365337
v -81.50449991226196 60.109735730041315 43.918838244601986
v -11.291415989398956 14.306476206835072 6.044192516524707
v -7.767747342586517 8.20301899368144e-07 5.034977197647095
v -9.255457669496536 -2.5960657521878337e-08 -0.159345380961895
v -12.779128551483154 14.306475360572424 0.849869379122173
v -49.748748540878296 70.27857664282173 58.72238325498692
v -34.99667048454285 71.73497806165246 44.522410864998676
v -36.41666769981384 71.92743923723174 30.8814140198683
v -44.12963390350342 71.47714294968054 24.266743935798143
v -86.49399876594543 56.744809406834904 45.474245840089836
v -81.38184547424316 52.40097531279638 66.37754778680446
v -76.14898085594177 60.46386164440108 61.0978743273499
v -81.50449991226196 60.109735730041315 43.918838244601986
v -76.14898085594177 60.46386164440108 61.0978743273499
v -66.7644739151001 66.16837526750481 45.45034880270564
v -81.50449991226196 60.109735730041315 43.918838244601986
v -49.748748540878296 70.27857664282173 58.72238325498692
v -44.12963390350342 71.47714294968054 24.266743935798143
v -55.709636211395264 70.70290155972916 18.76604895257056
v -66.7644739151001 66.16837526750481 45.45034880270564
v -64.74757790565491 63.804940834502766 63.74862346639921
v -49.748748540878296 70.27857664282173 58.72238325498692
v -55.709636211395264 70.70290155972916 18.76604895257056
v -57.19735026359558 70.70290071346656 13.571726187697056
v -73.29296469688416 70.27856325004068 -23.48192138053783
v -88.67847323417664 63.8049272217673 -19.805751705262164
v -79.25804853439331 66.1683671230386 -4.540028772453434
v -72.88429737091064 68.52967950675912 -23.59896524643782
v -53.12143564224243 69.94092150263705 -19.284446011388575
v -47.10465371608734 70.13338690852092 -6.9600182294532935
v -50.14637112617493 69.68308731767615 2.734910519800047
v -96.18120193481445 55.51896207132189 6.865682348427049
v -91.33780598640442 58.67961736668958 5.618836111292425
v -80.4633378982544 58.67962355246747 43.586870408520284
v -85.23244261741638 55.51896829936714 45.093151822504275
v -96.18120193481445 55.51896207132189 6.865682348427049
v -103.09677124023438 50.97452779974061 -13.392246623725127
v -95.64296007156372 59.25437019861238 -11.792810974315314
v -91.33780598640442 58.67961736668958 5.618836111292425
v -95.64296007156372 59.25437019861238 -11.792810974315314
v -78.65374684333801 64.48219937733933 -4.716306254432825
v -91.33780598640442 58.67961736668958 5.618836111292425
v -55.433833599090576 68.92605728378261 18.687055206334406
v -56.921547651290894 68.92605643752002 13.492732441460902
v -27.935326099395752 65.67455614735057 5.190762608534045
v -26.44762098789215 65.67455699361328 10.38508611846561
v -72.88429737091064 68.52967950675912 -23.59896524643782
v -50.14637112617493 69.68308731767615 2.734910519800047
v -56.921547651290894 68.92605643752002 13.492732441460902
v -26.44762098789215 65.67455699361328 10.38508611846561
v -27.935326099395752 65.67455614735057 5.190762608534045
v -11.002392321825027 37.67016833615667 0.3409890552784098
v -9.51468050479889 37.67016918241938 5.535312565209974
v -9.51468050479889 37.67016918241938 5.535312565209974
v -11.002392321825027 37.67016833615667 0.3409890552784098
v -14.507047832012177 14.21254597161576 1.3447651767469173
v -13.019338250160217 14.212546817878424 6.539088407281709
v -66.15846753120422 64.48220752276838 45.27998112125573
v -80.4633378982544 58.67962355246747 43.586870408520284
v -91.33780598640442 58.67961736668958 5.618836111292425
v -78.65374684333801 64.48219937733933 -4.716306254432825
v -13.019338250160217 14.212546817878424 6.539088407281709
v -14.507047832012177 14.21254597161576 1.3447651767469173
v -10.931576788425446 -0.4466852116361411 0.32071385359463583
v -9.443867206573486 -0.44668436537358425 5.515036432203625
v -49.340081214904785 68.52969289953994 58.60533789897081
v -43.99080574512482 69.68309081917901 24.226981969556668
v -36.27784252166748 70.13339306719467 30.841652053625854
v -34.857842326164246 69.94093189161588 44.48265187898847
v -85.23244261741638 55.51896829936714 45.093151822504275
v -80.4633378982544 58.67962355246747 43.586870408520284
v -74.89808201789856 59.254381999026236 60.63761341790804
v -80.37498593330383 50.97454072469567 65.94056252649384
v -74.89808201789856 59.254381999026236 60.63761341790804
v -80.4633378982544 58.67962355246747 43.586870408520284
v -66.15846753120422 64.48220752276838 45.27998112125573
v -49.340081214904785 68.52969289953994 58.60533789897081
v -55.433833599090576 68.92605728378261 18.687055206334406
v -43.99080574512482 69.68309081917901 24.226981969556668
v -66.15846753120422 64.48220752276838 45.27998112125573
v -78.65374684333801 64.48219937733933 -4.716306254432825
v -88.1259560585022 62.09932240434478 -19.96399579879806
v -72.88429737091064 68.52967950675912 -23.59896524643782
v -56.921547651290894 68.92605643752002 13.492732441460902
v -55.433833599090576 68.92605728378261 18.687055206334406
v -49.340081214904785 68.52969289953994 58.60533789897081
v -64.19507265090942 62.09933601708122 63.590385333327795
v -53.26026678085327 71.73496767267386 -19.24468553526225
v -47.243478894233704 71.92743307855774 -6.920257753326967
v -47.10465371608734 70.13338690852092 -6.9600182294532935
v -53.12143564224243 69.94092150263705 -19.284446011388575
v -73.29296469688416 70.27856325004068 -23.48192138053783
v -53.26026678085327 71.73496767267386 -19.24468553526225
v -53.12143564224243 69.94092150263705 -19.284446011388575
v -72.88429737091064 68.52967950675912 -23.59896524643782
v -88.67847323417664 63.8049272217673 -19.805751705262164
v -73.29296469688416 70.27856325004068 -23.48192138053783
v -72.88429737091064 68.52967950675912 -23.59896524643782
v -88.1259560585022 62.09932240434478 -19.96399579879806
v -79.25804853439331 66.1683671230386 -4.540028772453434
v -88.67847323417664 63.8049272217673 -19.805751705262164
v -88.1259560585022 62.09932240434478 -19.96399579879806
v -78.65374684333801 64.48219937733933 -4.716306254432825
v -50.28520226478577 71.47713944817768 2.774672486041522
v -57.19735026359558 70.70290071346656 13.571726187697056
v -56.921547651290894 68.92605643752002 13.492732441460902
v -50.14637112617493 69.68308731767615 2.734910519800047
v -47.243478894233704 71.92743307855774 -6.920257753326967
v -50.28520226478577 71.47713944817768 2.774672486041522
v -50.14637112617493 69.68308731767615 2.734910519800047
v -47.10465371608734 70.13338690852092 -6.9600182294532935
v -101.71850919723511 32.72050199697329 29.13329068203282
v -105.31505346298218 44.31969831133893 0.5941959535189401
v -103.76101732254028 43.57271493752501 0.0780228316953201
v -100.14454126358032 31.973038816419276 28.68248895444478
v -96.94783091545105 60.463849813272354 -11.521076576065779
v -79.25804853439331 66.1683671230386 -4.540028772453434
v -78.65374684333801 64.48219937733933 -4.716306254432825
v -95.64296007156372 59.25437019861238 -11.792810974315314
v -105.31505346298218 44.31969831133893 0.5941959535189401
v -97.4532425403595 56.74480913330115 7.210237228648204
v -96.18120193481445 55.51896207132189 6.865682348427049
v -103.76101732254028 43.57271493752501 0.0780228316953201
v -57.19735026359558 70.70290071346656 13.571726187697056
v -27.244096994400024 67.324525931304 4.992785884627414
v -27.935326099395752 65.67455614735057 5.190762608534045
v -56.921547651290894 68.92605643752002 13.492732441460902
v -12.779128551483154 14.306475360572424 0.849869379122173
v -9.255457669496536 -2.5960657521878337e-08 -0.159345380961895
v -10.931576788425446 -0.4466852116361411 0.32071385359463583
v -14.507047832012177 14.21254597161576 1.3447651767469173
v -9.380187839269638 38.296201805001346 -0.12362813515248022
v -12.779128551483154 14.306475360572424 0.849869379122173
v -14.507047832012177 14.21254597161576 1.3447651767469173
v -11.002392321825027 37.67016833615667 0.3409890552784098
v -27.244096994400024 67.324525931304 4.992785884627414
v -9.380187839269638 38.296201805001346 -0.12362813515248022
v -11.002392321825027 37.67016833615667 0.3409890552784098
v -27.935326099395752 65.67455614735057 5.190762608534045
v -104.1823148727417 52.40095638262327 -13.22995681944152
v -96.94783091545105 60.463849813272354 -11.521076576065779
v -95.64296007156372 59.25437019861238 -11.792810974315314
v -103.09677124023438 50.97452779974061 -13.392246623725127
v -97.4532425403595 56.74480913330115 7.210237228648204
v -104.1823148727417 52.40095638262327 -13.22995681944152
v -103.09677124023438 50.97452779974061 -13.392246623725127
v -96.18120193481445 55.51896207132189 6.865682348427049
v -36.41666769981384 71.92743923723174 30.8814140198683
v -34.99667048454285 71.73497806165246 44.522410864998676
v -34.857842326164246 69.94093189161588 44.48265187898847
v -36.27784252166748 70.13339306719467 30.841652053625854
v -34.99667048454285 71.73497806165246 44.522410864998676
v -49.748748540878296 70.27857664282173 58.72238325498692
v -49.340081214904785 68.52969289953994 58.60533789897081
v -34.857842326164246 69.94093189161588 44.48265187898847
v -49.748748540878296 70.27857664282173 58.72238325498692
v -64.74757790565491 63.804940834502766 63.74862346639921
v -64.19507265090942 62.09933601708122 63.590385333327795
v -49.340081214904785 68.52969289953994 58.60533789897081
v -64.74757790565491 63.804940834502766 63.74862346639921
v -66.7644739151001 66.16837526750481 45.45034880270564
v -66.15846753120422 64.48220752276838 45.27998112125573
v -64.19507265090942 62.09933601708122 63.590385333327795
v -55.709636211395264 70.70290155972916 18.76604895257056
v -44.12963390350342 71.47714294968054 24.266743935798143
v -43.99080574512482 69.68309081917901 24.226981969556668
v -55.433833599090576 68.92605728378261 18.687055206334406
v -44.12963390350342 71.47714294968054 24.266743935798143
v -36.41666769981384 71.92743923723174 30.8814140198683
v -36.27784252166748 70.13339306719467 30.841652053625854
v -43.99080574512482 69.68309081917901 24.226981969556668
v -89.66126441955566 44.31970721576067 55.24914734712322
v -101.71850919723511 32.72050199697329 29.13329068203282
v -100.14454126358032 31.973038816419276 28.68248895444478
v -88.06961178779602 43.57272386335185 54.864357763545755
v -66.7644739151001 66.16837526750481 45.45034880270564
v -76.14898085594177 60.46386164440108 61.0978743273499
v -74.89808201789856 59.254381999026236 60.63761341790804
v -66.15846753120422 64.48220752276838 45.27998112125573
v -86.49399876594543 56.744809406834904 45.474245840089836
v -89.66126441955566 44.31970721576067 55.24914734712322
v -88.06961178779602 43.57272386335185 54.864357763545755
v -85.23244261741638 55.51896829936714 45.093151822504275
v -9.255457669496536 -2.5960657521878337e-08 -0.159345380961895
v -7.767747342586517 8.20301899368144e-07 5.034977197647095
v -9.443867206573486 -0.44668436537358425 5.515036432203625
v -10.931576788425446 -0.4466852116361411 0.32071385359463583
v -25.756385922431946 67.32452677756676 10.187109767088009
v -55.709636211395264 70.70290155972916 18.76604895257056
v -55.433833599090576 68.92605728378261 18.687055206334406
v -26.44762098789215 65.67455699361328 10.38508611846561
v -7.767747342586517 8.20301899368144e-07 5.034977197647095
v -11.291415989398956 14.306476206835072 6.044192516524707
v -13.019338250160217 14.212546817878424 6.539088407281709
v -9.443867206573486 -0.44668436537358425 5.515036432203625
v -11.291415989398956 14.306476206835072 6.044192516524707
v -7.8924760222435 38.29620265126411 5.070695747308114
v -9.51468050479889 37.67016918241938 5.535312565209974
v -13.019338250160217 14.212546817878424 6.539088407281709
v -7.8924760222435 38.29620265126411 5.070695747308114
v -25.756385922431946 67.32452677756676 10.187109767088009
v -26.44762098789215 65.67455699361328 10.38508611846561
v -9.51468050479889 37.67016918241938 5.535312565209974
v -76.14898085594177 60.46386164440108 61.0978743273499
v -81.38184547424316 52.40097531279638 66.37754778680446
v -80.37498593330383 50.97454072469567 65.94056252649384
v -74.89808201789856 59.254381999026236 60.63761341790804
v -81.38184547424316 52.40097531279638 66.37754778680446
v -86.49399876594543 56.744809406834904 45.474245840089836
v -85.23244261741638 55.51896829936714 45.093151822504275
v -80.37498593330383 50.97454072469567 65.94056252649384
v -101.71850919723511 32.72050199697329 29.13329068203282
v -89.66126441955566 44.31970721576067 55.24914734712322
v -86.49399876594543 56.744809406834904 45.474245840089836
v -97.4532425403595 56.74480913330115 7.210237228648204
v -105.31505346298218 44.31969831133893 0.5941959535189401
v -19.882245361804962 36.14287153687219 96.08495838694152
v 19.8822483420372 36.14287153687219 96.08495838694152
v 28.49457561969757 23.146374987183478 94.3078837831481
v 1.4901161193847656e-06 10.985739592766247 91.85325324369134
v -28.494572639465332 23.146374987183478 94.3078837831481
v -42.75476336479187 57.3491439175352 63.994440033700215
v -11.17810606956482 58.54771937267655 49.10548865606168
v -19.660785794258118 58.99801367125669 43.511941357700806
v -33.165496587753296 58.80555066278802 45.902743295642765
v -19.901253283023834 36.478544322692294 97.853124159051
v 19.901254773139954 36.478544322692294 97.853124159051
v 19.77977752685547 45.435980246084114 93.2042226676559
v -19.77977454662323 45.435980246084114 93.2042226676559
v -19.901253283023834 36.478544322692294 97.853124159051
v -19.77977454662323 45.435980246084114 93.2042226676559
v -37.76938021183014 45.84287129379645 92.83688513607866
v -41.404154896736145 32.35416192347801 96.25135133055564
v -37.76938021183014 45.84287129379645 92.83688513607866
v -19.77977454662323 45.435980246084114 93.2042226676559
v -18.12044084072113 53.238946431342235 74.59367838377185
v 2.7015872299671173 57.773480445847845 58.723333006177604
v 2.7015872299671173 54.39510198515516 27.565735657147535
v -2.7015861123800278 54.39510198515564 27.565738637379773
v -2.701585739850998 57.77348044584687 58.72332704571313
v -42.75476336479187 57.3491439175352 63.994440033700215
v -2.701585739850998 57.77348044584687 58.72332704571313
v -11.17810606956482 58.54771937267655 49.10548865606168
v 2.7015872299671173 54.39510198515516 27.565735657147535
v 2.7015868574380875 38.296203288752125 8.98356931345878
v -2.7015866711735725 38.296203288752125 8.98356931345878
v -2.7015861123800278 54.39510198515564 27.565738637379773
v 2.7015868574380875 38.296203288752125 8.98356931345878
v 2.7015864849090576 14.306477261743442 12.519173973519719
v -2.7015861123800278 14.306477261743684 12.519175463635838
v -2.7015866711735725 38.296203288752125 8.98356931345878
v 18.12044382095337 53.23894643134418 74.5936903047008
v -18.12044084072113 53.238946431342235 74.59367838377185
v -19.77977454662323 45.435980246084114 93.2042226676559
v 19.77977752685547 45.435980246084114 93.2042226676559
v 2.7015864849090576 14.306477261743442 12.519173973519719
v 2.7015862986445427 1.4424721736604722e-06 8.853831142187119
v -2.7015864849090576 1.4424721736604722e-06 8.853831142187119
v -2.7015861123800278 14.306477261743684 12.519175463635838
v 42.75476336479187 57.3491439175352 63.994440033700215
v 33.165499567985535 58.80555066278802 45.902743295642765
v 19.660788774490356 58.9980136712562 43.51193837746857
v 11.17810606956482 58.54771937267704 49.10549163629392
v 19.901254773139954 36.478544322692294 97.853124159051
v 41.404157876968384 32.35416192347898 96.25135729102011
v 37.76938319206238 45.84287129379645 92.83688513607866
v 19.77977752685547 45.435980246084114 93.2042226676559
v 37.76938319206238 45.84287129379645 92.83688513607866
v 18.12044382095337 53.23894643134418 74.5936903047008
v 19.77977752685547 45.435980246084114 93.2042226676559
v 42.75476336479187 57.3491439175352 63.994440033700215
v 11.17810606956482 58.54771937267704 49.10549163629392
v 2.7015872299671173 57.773480445847845 58.723333006177604
v 18.12044382095337 53.23894643134418 74.5936903047008
v 43.45694184303284 50.87551582543843 79.79744439954574
v 42.75476336479187 57.3491439175352 63.994440033700215
v 2.7015872299671173 57.773480445847845 58.723333006177604
v -2.701585739850998 57.77348044584687 58.72332704571313
v -42.75476336479187 57.3491439175352 63.994440033700215
v -43.45693588256836 50.87551582543843 79.79744439954574
v -18.12044084072113 53.238946431342235 74.59367838377185
v -42.75475740432739 55.60025416360045 63.569339992092424
v -33.165499567985535 57.01150447570166 45.75833345456817
v -19.660785794258118 57.20396152370586 43.367531516627174
v -11.17810532450676 56.75366722512621 48.96108179522029
v -19.882245361804962 36.14287153687219 96.08495838694152
v -19.747312366962433 44.16475005619633 91.93052526009575
v 19.747313857078552 44.16475005619536 91.93051929963127
v 19.8822483420372 36.14287153687219 96.08495838694152
v -19.882245361804962 36.14287153687219 96.08495838694152
v -41.261276602745056 31.726483016907107 94.57056601526071
v -37.67132759094238 44.82195673665456 91.35785564695017
v -19.747312366962433 44.16475005619633 91.93052526009575
v -37.67132759094238 44.82195673665456 91.35785564695017
v -18.12351793050766 51.55277861180619 73.96419400501053
v -19.747312366962433 44.16475005619633 91.93052526009575
v 2.7015872299671173 55.99662421510097 58.43643825896683
v -2.701585739850998 55.9966242151 58.43643229850235
v -2.701585739850998 52.745126325626956 28.284761657049437
v 2.7015872299671173 52.745126325626956 28.284761657049437
v -42.75475740432739 55.60025416360045 63.569339992092424
v -11.17810532450676 56.75366722512621 48.96108179522029
v -2.701585739850998 55.9966242151 58.43643229850235
v 2.7015872299671173 52.745126325626956 28.284761657049437
v -2.701585739850998 52.745126325626956 28.284761657049437
v -2.7015866711735725 37.67017001912882 10.670998515727629
v 2.7015868574380875 37.67017001912882 10.670998515727629
v 2.7015868574380875 37.67017001912882 10.670998515727629
v -2.7015866711735725 37.67017001912882 10.670998515727629
v -2.7015864849090576 14.212548084991475 14.316572913650347
v 2.7015868574380875 14.212548084991475 14.316572913650347
v 18.12351942062378 51.55277861180619 73.96419400501053
v 19.747313857078552 44.16475005619536 91.93051929963127
v -19.747312366962433 44.16475005619633 91.93052526009575
v -18.12351793050766 51.55277861180619 73.96419400501053
v 2.7015868574380875 14.212548084991475 14.316572913650347
v -2.7015864849090576 14.212548084991475 14.316572913650347
v -2.7015861123800278 -0.4466835373607403 10.59734307056365
v 2.7015861123800278 -0.44668353736086164 10.59734232550559
v 42.75476336479187 55.60025416359947 63.569334031627946
v 11.17810606956482 56.75366722512621 48.96108179522029
v 19.660788774490356 57.203961523705374 43.367528536394936
v 33.165499567985535 57.01150447570166 45.75833345456817
v 19.8822483420372 36.14287153687219 96.08495838694152
v 19.747313857078552 44.16475005619536 91.93051929963127
v 37.67133355140686 44.82195673665554 91.35786160741465
v 41.261282563209534 31.726483016908077 94.57057197572519
v 37.67133355140686 44.82195673665554 91.35786160741465
v 19.747313857078552 44.16475005619536 91.93051929963127
v 18.12351942062378 51.55277861180619 73.96419400501053
v 42.75476336479187 55.60025416359947 63.569334031627946
v 2.7015872299671173 55.99662421510097 58.43643825896683
v 11.17810606956482 56.75366722512621 48.96108179522029
v 18.12351942062378 51.55277861180619 73.96419400501053
v -18.12351793050766 51.55277861180619 73.96419400501053
v -43.4569388628006 49.169904979697016 79.22271285064278
v -42.75475740432739 55.60025416360045 63.569339992092424
v -2.701585739850998 55.9966242151 58.43643229850235
v 2.7015872299671173 55.99662421510097 58.43643825896683
v 42.75476336479187 55.60025416359947 63.569334031627946
v 43.45694184303284 49.16990497969799 79.22271881110726
v -33.165496587753296 58.80555066278802 45.902743295642765
v -19.660785794258118 58.99801367125669 43.511941357700806
v -19.660785794258118 57.20396152370586 43.367531516627174
v -33.165499567985535 57.01150447570166 45.75833345456817
v -42.75476336479187 57.3491439175352 63.994440033700215
v -33.165496587753296 58.80555066278802 45.902743295642765
v -33.165499567985535 57.01150447570166 45.75833345456817
v -42.75475740432739 55.60025416360045 63.569339992092424
v -43.45693588256836 50.87551582543843 79.79744439954574
v -42.75476336479187 57.3491439175352 63.994440033700215
v -42.75475740432739 55.60025416360045 63.569339992092424
v -43.4569388628006 49.169904979697016 79.22271285064278
v -18.12044084072113 53.238946431342235 74.59367838377185
v -43.45693588256836 50.87551582543843 79.79744439954574
v -43.4569388628006 49.169904979697016 79.22271285064278
v -18.12351793050766 51.55277861180619 73.96419400501053
v -11.17810606956482 58.54771937267655 49.10548865606168
v -2.701585739850998 57.77348044584687 58.72332704571313
v -2.701585739850998 55.9966242151 58.43643229850235
v -11.17810532450676 56.75366722512621 48.96108179522029
v -19.660785794258118 58.99801367125669 43.511941357700806
v -11.17810606956482 58.54771937267655 49.10548865606168
v -11.17810532450676 56.75366722512621 48.96108179522029
v -19.660785794258118 57.20396152370586 43.367531516627174
v 1.4901161193847656e-06 10.746357944215312 93.63707724967158
v -28.426241874694824 22.907214620671372 96.09045013108754
v -28.494572639465332 23.146374987183478 94.3078837831481
v 1.4901161193847656e-06 10.985739592766247 91.85325324369134
v -37.76938021183014 45.84287129379645 92.83688513607866
v -18.12044084072113 53.238946431342235 74.59367838377185
v -18.12351793050766 51.55277861180619 73.96419400501053
v -37.67132759094238 44.82195673665456 91.35785564695017
v -28.426241874694824 22.907214620671372 96.09045013108754
v -19.901253283023834 36.478544322692294 97.853124159051
v -19.882245361804962 36.14287153687219 96.08495838694152
v -28.494572639465332 23.146374987183478 94.3078837831481
v -2.701585739850998 57.77348044584687 58.72332704571313
v -2.7015861123800278 54.39510198515564 27.565738637379773
v -2.701585739850998 52.745126325626956 28.284761657049437
v -2.701585739850998 55.9966242151 58.43643229850235
v -2.7015861123800278 14.306477261743684 12.519175463635838
v -2.7015864849090576 1.4424721736604722e-06 8.853831142187119
v -2.7015861123800278 -0.4466835373607403 10.59734307056365
v -2.7015864849090576 14.212548084991475 14.316572913650347
v -2.7015866711735725 38.296203288752125 8.98356931345878
v -2.7015861123800278 14.306477261743684 12.519175463635838
v -2.7015864849090576 14.212548084991475 14.316572913650347
v -2.7015866711735725 37.67017001912882 10.670998515727629
v -2.7015861123800278 54.39510198515564 27.565738637379773
v -2.7015866711735725 38.296203288752125 8.98356931345878
v -2.7015866711735725 37.67017001912882 10.670998515727629
v -2.701585739850998 52.745126325626956 28.284761657049437
v -41.404154896736145 32.35416192347801 96.25135133055564
v -37.76938021183014 45.84287129379645 92.83688513607866
v -37.67132759094238 44.82195673665456 91.35785564695017
v -41.261276602745056 31.726483016907107 94.57056601526071
v -19.901253283023834 36.478544322692294 97.853124159051
v -41.404154896736145 32.35416192347801 96.25135133055564
v -41.261276602745056 31.726483016907107 94.57056601526071
v -19.882245361804962 36.14287153687219 96.08495838694152
v 19.660788774490356 58.9980136712562 43.51193837746857
v 33.165499567985535 58.80555066278802 45.902743295642765
v 33.165499567985535 57.01150447570166 45.75833345456817
v 19.660788774490356 57.203961523705374 43.367528536394936
v 33.165499567985535 58.80555066278802 45.902743295642765
v 42.75476336479187 57.3491439175352 63.994440033700215
v 42.75476336479187 55.60025416359947 63.569334031627946
v 33.165499567985535 57.01150447570166 45.75833345456817
v 42.75476336479187 57.3491439175352 63.994440033700215
v 43.45694184303284 50.87551582543843 79.79744439954574
v 43.45694184303284 49.16990497969799 79.22271881110726
v 42.75476336479187 55.60025416359947 63.569334031627946
v 43.45694184303284 50.87551582543843 79.79744439954574
v 18.12044382095337 53.23894643134418 74.5936903047008
v 18.12351942062378 51.55277861180619 73.96419400501053
v 43.45694184303284 49.16990497969799 79.22271881110726
v 2.7015872299671173 57.773480445847845 58.723333006177604
v 11.17810606956482 58.54771937267704 49.10549163629392
v 11.17810606956482 56.75366722512621 48.96108179522029
v 2.7015872299671173 55.99662421510097 58.43643825896683
v 11.17810606956482 58.54771937267704 49.10549163629392
v 19.660788774490356 58.9980136712562 43.51193837746857
v 19.660788774490356 57.203961523705374 43.367528536394936
v 11.17810606956482 56.75366722512621 48.96108179522029
v 28.426241874694824 22.907214620671372 96.09045013108754
v 1.4901161193847656e-06 10.746357944215312 93.63707724967158
v 1.4901161193847656e-06 10.985739592766247 91.85325324369134
v 28.49457561969757 23.146374987183478 94.3078837831481
v 18.12044382095337 53.23894643134418 74.5936903047008
v 37.76938319206238 45.84287129379645 92.83688513607866
v 37.67133355140686 44.82195673665554 91.35786160741465
v 18.12351942062378 51.55277861180619 73.96419400501053
v 19.901254773139954 36.478544322692294 97.853124159051
v 28.426241874694824 22.907214620671372 96.09045013108754
v 28.49457561969757 23.146374987183478 94.3078837831481
v 19.8822483420372 36.14287153687219 96.08495838694152
v -2.7015864849090576 1.4424721736604722e-06 8.853831142187119
v 2.7015862986445427 1.4424721736604722e-06 8.853831142187119
v 2.7015861123800278 -0.44668353736086164 10.59734232550559
v -2.7015861123800278 -0.4466835373607403 10.59734307056365
v 2.7015872299671173 54.39510198515516 27.565735657147535
v 2.7015872299671173 57.773480445847845 58.723333006177604
v 2.7015872299671173 55.99662421510097 58.43643825896683
v 2.7015872299671173 52.745126325626956 28.284761657049437
v 2.7015862986445427 1.4424721736604722e-06 8.853831142187119
v 2.7015864849090576 14.306477261743442 12.519173973519719
v 2.7015868574380875 14.212548084991475 14.316572913650347
v 2.7015861123800278 -0.44668353736086164 10.59734232550559
v 2.7015864849090576 14.306477261743442 12.519173973519719
v 2.7015868574380875 38.296203288752125 8.98356931345878
v 2.7015868574380875 37.67017001912882 10.670998515727629
v 2.7015868574380875 14.212548084991475 14.316572913650347
v 2.7015868574380875 38.296203288752125 8.98356931345878
v 2.7015872299671173 54.39510198515516 27.565735657147535
v 2.7015872299671173 52.745126325626956 28.284761657049437
v 2.7015868574380875 37.67017001912882 10.670998515727629
v 37.76938319206238 45.84287129379645 92.83688513607866
v 41.404157876968384 32.35416192347898 96.25135729102011
v 41.261282563209534 31.726483016908077 94.57057197572519
v 37.67133355140686 44.82195673665554 91.35786160741465
v 41.404157876968384 32.35416192347898 96.25135729102011
v 19.901254773139954 36.478544322692294 97.853124159051
v 19.8822483420372 36.14287153687219 96.08495838694152
v 41.261282563209534 31.726483016908077 94.57057197572519
v 1.4901161193847656e-06 10.746357944215312 93.63707724967158
v 28.426241874694824 22.907214620671372 96.09045013108754
v 19.901254773139954 36.478544322692294 97.853124159051
v -19.901253283023834 36.478544322692294 97.853124159051
v -28.426241874694824 22.907214620671372 96.09045013108754
f 5 1 2
f 5 2 3
f 3 4 5
f 6 7 8
f 6 8 9
f 10 11 12
f 10 12 13
f 14 15 16
f 14 16 17
f 18 19 20
f 21 22 23
f 21 23 24
f 25 26 27
f 28 29 30
f 28 30 31
f 32 33 34
f 32 34 35
f 36 37 38
f 36 38 39
f 40 41 42
f 40 42 43
f 44 45 46
f 44 46 47
f 48 49 50
f 48 50 51
f 52 53 54
f 55 56 57
f 58 59 60
f 58 60 61
f 58 61 62
f 58 62 63
f 63 64 65
f 58 63 65
f 66 67 68
f 66 68 69
f 70 71 72
f 70 72 73
f 74 75 76
f 74 76 77
f 78 79 80
f 81 82 83
f 81 83 84
f 85 86 87
f 88 89 90
f 88 90 91
f 92 93 94
f 92 94 95
f 96 97 98
f 96 98 99
f 100 101 102
f 100 102 103
f 104 105 106
f 104 106 107
f 108 109 110
f 108 110 111
f 112 113 114
f 115 116 117
f 119 120 121
f 119 121 122
f 119 122 123
f 119 123 124
f 124 125 118
f 118 119 124
f 126 127 128
f 126 128 129
f 130 131 132
f 130 132 133
f 134 135 136
f 134 136 137
f 138 139 140
f 138 140 141
f 142 143 144
f 142 144 145
f 146 147 148
f 146 148 149
f 150 151 152
f 150 152 153
f 154 155 156
f 154 156 157
f 158 159 160
f 158 160 161
f 162 163 164
f 162 164 165
f 166 167 168
f 166 168 169
f 170 171 172
f 170 172 173
f 174 175 176
f 174 176 177
f 178 179 180
f 178 180 181
f 182 183 184
f 182 184 185
f 186 187 188
f 186 188 189
f 190 191 192
f 190 192 193
f 194 195 196
f 194 196 197
f 198 199 200
f 198 200 201
f 202 203 204
f 202 204 205
f 206 207 208
f 206 208 209
f 210 211 212
f 210 212 213
f 214 215 216
f 214 216 217
f 218 219 220
f 218 220 221
f 222 223 224
f 222 224 225
f 226 227 228
f 226 228 229
f 230 231 232
f 230 232 233
f 234 235 236
f 234 236 237
f 238 239 240
f 238 240 241
f 242 243 244
f 242 244 245
f 246 247 248
f 246 248 249
f 254 250 251
f 254 251 252
f 252 253 254
f 259 255 256
f 259 256 257
f 257 258 259
f 260 261 262
f 260 262 263
f 264 265 266
f 264 266 267
f 268 269 270
f 268 270 271
f 272 273 274
f 275 276 277
f 275 277 278
f 279 280 281
f 282 283 284
f 282 284 285
f 286 287 288
f 286 288 289
f 290 291 292
f 290 292 293
f 294 295 296
f 294 296 297
f 298 299 300
f 298 300 301
f 302 303 304
f 302 304 305
f 306 307 308
f 309 310 311
f 312 313 314
f 312 314 315
f 312 315 316
f 312 316 317
f 317 318 319
f 312 317 319
f 320 321 322
f 320 322 323
f 324 325 326
f 324 326 327
f 328 329 330
f 328 330 331
f 332 333 334
f 335 336 337
f 335 337 338
f 339 340 341
f 342 343 344
f 342 344 345
f 346 347 348
f 346 348 349
f 350 351 352
f 350 352 353
f 354 355 356
f 354 356 357
f 358 359 360
f 358 360 361
f 362 363 364
f 362 364 365
f 366 367 368
f 369 370 371
f 373 374 375
f 373 375 376
f 373 376 377
f 373 377 378
f 378 379 372
f 372 373 378
f 380 381 382
f 380 382 383
f 384 385 386
f 384 386 387
f 388 389 390
f 388 390 391
f 392 393 394
f 392 394 395
f 396 397 398
f 396 398 399
f 400 401 402
f 400 402 403
f 404 405 406
f 404 406 407
f 408 409 410
f 408 410 411
f 412 413 414
f 412 414 415
f 416 417 418
f 416 418 419
f 420 421 422
f 420 422 423
f 424 425 426
f 424 426 427
f 428 429 430
f 428 430 431
f 432 433 434
f 432 434 435
f 436 437 438
f 436 438 439
f 440 441 442
f 440 442 443
f 444 445 446
f 444 446 447
f 448 449 450
f 448 450 451
f 452 453 454
f 452 454 455
f 456 457 458
f 456 458 459
f 460 461 462
f 460 462 463
f 464 465 466
f 464 466 467
f 468 469 470
f 468 470 471
f 472 473 474
f 472 474 475
f 476 477 478
f 476 478 479
f 480 481 482
f 480 482 483
f 484 485 486
f 484 486 487
f 488 489 490
f 488 490 491
f 492 493 494
f 492 494 495
f 496 497 498
f 496 498 499
f 500 501 502
f 500 502 503
f 508 504 505
f 508 505 506
f 506 507 508
f 513 509 510
f 513 510 511
f 511 512 513
f 514 515 516
f 514 516 517
f 518 519 520
f 518 520 521
f 522 523 524
f 522 524 525
f 526 527 528
f 529 530 531
f 529 531 532
f 533 534 535
f 536 537 538
f 536 538 539
f 540 541 542
f 540 542 543
f 544 545 546
f 544 546 547
f 548 549 550
f 548 550 551
f 552 553 554
f 552 554 555
f 556 557 558
f 556 558 559
f 560 561 562
f 563 564 565
f 566 567 568
f 566 568 569
f 566 569 570
f 566 570 571
f 571 572 573
f 566 571 573
f 574 575 576
f 574 576 577
f 578 579 580
f 578 580 581
f 582 583 584
f 582 584 585
f 586 587 588
f 589 590 591
f 589 591 592
f 593 594 595
f 596 597 598
f 596 598 599
f 600 601 602
f 600 602 603
f 604 605 606
f 604 606 607
f 608 609 610
f 608 610 611
f 612 613 614
f 612 614 615
f 616 617 618
f 616 618 619
f 620 621 622
f 623 624 625
f 627 628 629
f 627 629 630
f 627 630 631
f 627 631 632
f 632 633 626
f 626 627 632
f 634 635 636
f 634 636 637
f 638 639 640
f 638 640 641
f 642 643 644
f 642 644 645
f 646 647 648
f 646 648 649
f 650 651 652
f 650 652 653
f 654 655 656
f 654 656 657
f 658 659 660
f 658 660 661
f 662 663 664
f 662 664 665
f 666 667 668
f 666 668 669
f 670 671 672
f 670 672 673
f 674 675 676
f 674 676 677
f 678 679 680
f 678 680 681
f 682 683 684
f 682 684 685
f 686 687 688
f 686 688 689
f 690 691 692
f 690 692 693
f 694 695 696
f 694 696 697
f 698 699 700
f 698 700 701
f 702 703 704
f 702 704 705
f 706 707 708
f 706 708 709
f 710 711 712
f 710 712 713
f 714 715 716
f 714 716 717
f 718 719 720
f 718 720 721
f 722 723 724
f 722 724 725
f 726 727 728
f 726 728 729
f 730 731 732
f 730 732 733
f 734 735 736
f 734 736 737
f 738 739 740
f 738 740 741
f 742 743 744
f 742 744 745
f 746 747 748
f 746 748 749
f 750 751 752
f 750 752 753
f 754 755 756
f 754 756 757
f 762 758 759
f 762 759 760
f 760 761 762
f 767 763 764
f 767 764 765
f 765 766 767
f 768 769 770
f 768 770 771
f 772 773 774
f 772 774 775
f 776 777 778
f 776 778 779
f 780 781 782
f 783 784 785
f 783 785 786
f 787 788 789
f 790 791 792
f 790 792 793
f 794 795 796
f 794 796 797
f 798 799 800
f 798 800 801
f 802 803 804
f 802 804 805
f 806 807 808
f 806 808 809
f 810 811 812
f 810 812 813
f 814 815 816
f 817 818 819
f 820 821 822
f 820 822 823
f 820 823 824
f 820 824 825
f 825 826 827
f 820 825 827
f 828 829 830
f 828 830 831
f 832 833 834
f 832 834 835
f 836 837 838
f 836 838 839
f 840 841 842
f 843 844 845
f 843 845 846
f 847 848 849
f 850 851 852
f 850 852 853
f 854 855 856
f 854 856 857
f 858 859 860
f 858 860 861
f 862 863 864
f 862 864 865
f 866 867 868
f 866 868 869
f 870 871 872
f 870 872 873
f 874 875 876
f 877 878 879
f 881 882 883
f 881 883 884
f 881 884 885
f 881 885 886
f 886 887 880
f 880 881 886
f 888 889 890
f 888 890 891
f 892 893 894
f 892 894 895
f 896 897 898
f 896 898 899
f 900 901 902
f 900 902 903
f 904 905 906
f 904 906 907
f 908 909 910
f 908 910 911
f 912 913 914
f 912 914 915
f 916 917 918
f 916 918 919
f 920 921 922
f 920 922 923
f 924 925 926
f 924 926 927
f 928 929 930
f 928 930 931
f 932 933 934
f 932 934 935
f 936 937 938
f 936 938 939
f 940 941 942
f 940 942 943
f 944 945 946
f 944 946 947
f 948 949 950
f 948 950 951
f 952 953 954
f 952 954 955
f 956 957 958
f 956 958 959
f 960 961 962
f 960 962 963
f 964 965 966
f 964 966 967
f 968 969 970
f 968 970 971
f 972 973 974
f 972 974 975
f 976 977 978
f 976 978 979
f 980 981 982
f 980 982 983
f 984 985 986
f 984 986 987
f 988 989 990
f 988 990 991
f 992 993 994
f 992 994 995
f 996 997 998
f 996 998 999
f 1000 1001 1002
f 1000 1002 1003
f 1004 1005 1006
f 1004 1006 1007
f 1008 1009 1010
f 1008 1010 1011
f 1016 1012 1013
f 1016 1013 1014
f 1014 1015 1016
