o convex_0
v -45.432687 -7.669805 -23.111605
v 28.449716 -0.029644 -11.659096
v 27.169539 1.250782 13.815755
v -36.515592 30.543717 -28.219344
v -40.334051 15.254917 41.828513
v 18.252443 30.543717 21.461402
v 2.971249 -12.770312 46.936253
v 25.896719 -1.301591 -29.496279
v 18.252443 30.543717 -16.750873
v -37.788412 -8.945992 39.290605
v -37.788412 30.543717 31.652939
v 22.078260 1.250782 48.213188
v 4.244069 -12.770312 -23.111605
v -46.712864 3.794676 -29.496279
v 0.418252 17.803050 46.936253
v 20.798083 -8.945992 43.105448
v -3.407564 -1.301591 52.036011
v 23.351080 -8.945992 -23.111605
v -36.515592 -10.222178 -23.111605
v -40.334051 -2.577778 43.105448
v 4.244069 30.543717 32.921893
v -44.159868 19.074997 -23.111605
v 19.525263 13.978730 -26.942410
v -7.226023 -12.770312 45.651337
v -42.887048 -2.577778 -29.496279
v 25.896719 -1.301591 43.105448
v 6.789708 30.543717 -21.850632
v -8.498843 -12.770312 -23.111605
v 28.449716 1.250782 -25.673456
v -40.334051 20.346944 39.290605
v 19.525263 -10.222178 -5.290383
v -0.854567 2.518489 52.036011
f 17 12 32 
f 3 2 6 
f 4 6 9 
f 6 4 11 
f 4 8 14 
f 12 7 16 
f 7 12 17 
f 13 8 18 
f 10 1 19 
f 1 10 20 
f 14 1 20 
f 5 14 20 
f 17 5 20 
f 6 11 21 
f 12 6 21 
f 11 15 21 
f 15 12 21 
f 11 4 22 
f 4 14 22 
f 8 4 23 
f 13 7 24 
f 7 17 24 
f 10 19 24 
f 20 10 24 
f 17 20 24 
f 8 13 25 
f 1 14 25 
f 14 8 25 
f 19 1 25 
f 2 3 26 
f 3 6 26 
f 6 12 26 
f 12 16 26 
f 18 2 26 
f 16 18 26 
f 4 9 27 
f 23 4 27 
f 9 23 27 
f 13 24 28 
f 24 19 28 
f 25 13 28 
f 19 25 28 
f 6 2 29 
f 9 6 29 
f 2 18 29 
f 18 8 29 
f 8 23 29 
f 23 9 29 
f 14 5 30 
f 5 15 30 
f 15 11 30 
f 11 22 30 
f 22 14 30 
f 7 13 31 
f 16 7 31 
f 13 18 31 
f 18 16 31 
f 15 5 32 
f 12 15 32 
f 5 17 32 
o convex_1
v -32.692768 47.102346 6.169609
v 18.258180 31.820528 21.460779
v 16.976631 33.094844 22.732601
v -36.521328 30.546211 30.375256
v -35.239779 30.546211 -28.222337
v 6.783224 54.745748 22.732601
v 18.258180 30.546211 -16.752494
v -25.051735 53.471432 -16.752494
v -26.322559 56.022558 26.553928
v 4.241575 30.546211 31.652939
v 9.330235 47.102346 -9.109840
v 6.783224 54.745748 27.825750
v -23.780910 38.189614 -26.944654
v -31.421944 48.376662 -21.851505
v -32.692768 47.102346 29.103433
v 6.783224 45.828030 -12.931167
v 18.258180 33.094844 -15.480672
v 4.241575 31.820528 -21.851505
v -36.521328 34.369160 24.004423
v -7.228019 56.022558 27.825750
v -27.593384 54.745748 1.082320
v 11.887971 30.546211 27.825750
v -23.780910 31.820528 31.652939
v -32.692768 48.376662 27.825750
v -28.869570 40.738246 -26.944654
v -23.780910 56.022558 15.089946
v 2.965388 33.094844 31.652939
v -8.498843 54.745748 7.447292
v -17.405339 52.197116 -15.480672
v -35.239779 31.820528 -28.222337
v 18.258180 30.546211 21.460779
v -31.421944 30.546211 -28.222337
f 62 57 64 
f 36 37 39 
f 36 39 42 
f 35 34 44 
f 34 39 49 
f 43 38 49 
f 44 34 49 
f 38 44 49 
f 48 43 49 
f 45 48 50 
f 48 49 50 
f 49 39 50 
f 37 36 51 
f 33 46 51 
f 44 38 52 
f 41 47 52 
f 40 46 53 
f 34 35 54 
f 42 39 54 
f 35 44 54 
f 44 42 54 
f 36 42 55 
f 47 36 55 
f 46 33 56 
f 36 47 56 
f 47 41 56 
f 51 36 56 
f 33 51 56 
f 53 46 56 
f 41 53 56 
f 46 40 57 
f 48 45 57 
f 41 52 58 
f 40 53 58 
f 53 41 58 
f 42 44 59 
f 44 52 59 
f 52 47 59 
f 55 42 59 
f 47 55 59 
f 38 40 60 
f 52 38 60 
f 40 58 60 
f 58 52 60 
f 40 38 61 
f 38 43 61 
f 43 48 61 
f 57 40 61 
f 48 57 61 
f 37 51 62 
f 51 46 62 
f 46 57 62 
f 39 34 63 
f 34 54 63 
f 54 39 63 
f 39 37 64 
f 50 39 64 
f 45 50 64 
f 57 45 64 
f 37 62 64 
