v 30.360499024391174 1.7555795746305818 29.809063386999984
v 28.70274782180786 1.7964811759591393 -4.7180107927574895
v 33.286482095718384 8.983648422365604 -5.469437662095215
v 34.053489565849304 8.836204304624493 21.306709995718162
v 24.797777831554413 18.582019211389063 27.448174310252043
v 30.360499024391174 1.7555795746305818 29.809063386999984
v 34.053489565849304 8.836204304624493 21.306709995718162
v 28.66930067539215 18.36116384447046 22.620572138573145
v 24.797777831554413 18.582019211389063 27.448174310252043
v 28.66930067539215 18.36116384447046 22.620572138573145
v 23.04048389196396 44.20891505065906 6.194049367983683
v 19.490918517112732 46.65619002255745 10.150699911836101
v 19.490918517112732 46.65619002255745 10.150699911836101
v 20.212653279304504 48.49791471697884 -3.381810042979655
v 12.567247450351715 56.987887269892234 -2.1546385895103697
v 12.64427900314331 53.48972380061809 18.286420631026168
v 24.797777831554413 18.582019211389063 27.448174310252043
v 19.490918517112732 46.65619002255745 10.150699911836101
v 12.64427900314331 53.48972380061809 18.286420631026168
v 12.76499629020691 28.509576731497937 28.13132238824408
v -27.573183178901672 56.50050088629886 2.735686037781929
v -17.59991943836212 55.08054883697109 23.866778579073824
v -10.607831925153732 58.95398881957526 1.6417817090628495
v 15.279990434646606 1.3280981348943173 39.522236369243466
v 28.711551427841187 1.703837091696163 32.850172838140864
v 28.711551427841187 8.894892009631976 36.417608004040424
v 15.279988944530487 8.519153611623675 43.089671535142934
v -32.26554095745087 0.495366028893665 5.278607749700006
v -19.404420256614685 -6.324288477577079 3.170235740335555
v -11.881162226200104 -0.1943201010566397 39.044567974279126
v -17.347702383995056 0.6286434976343623 34.96043969879803
v 28.711551427841187 1.703837091696163 32.850172838140864
v 30.360499024391174 1.7555795746305818 29.809063386999984
v 24.797777831554413 18.582019211389063 27.448174310252043
v -17.347702383995056 0.6286434976343623 34.96043969879803
v -18.747752904891968 27.82625730035662 28.97524678355229
v -31.615138053894043 31.065429094250934 5.139075001307945
v -32.26554095745087 0.495366028893665 5.278607749700006
v 12.76499629020691 28.509576731497937 28.13132238824408
v 12.64427900314331 53.48972380061809 18.286420631026168
v -17.59991943836212 55.08054883697109 23.866778579073824
v -18.747752904891968 27.82625730035662 28.97524678355229
v -17.347702383995056 0.6286434976343623 34.96043969879803
v -11.881162226200104 -0.1943201010566397 39.044567974279126
v -11.881162971258163 6.996735422238361 42.61200015994635
v -17.347703874111176 7.819699067495492 38.52787188446524
v 28.70274782180786 1.7964811759591393 -4.7180107927574895
v 30.360499024391174 1.7555795746305818 29.809063386999984
v 28.711551427841187 1.703837091696163 32.850172838140864
v 15.279990434646606 1.3280981348943173 39.522236369243466
v 10.615937411785126 -5.510501476501728 -1.7522733994032007
v -18.747752904891968 27.82625730035662 28.97524678355229
v -17.347702383995056 0.6286434976343623 34.96043969879803
v -17.347703874111176 7.819699067495492 38.52787188446524
v -13.084658980369568 27.129212362393968 38.675446858777875
v 12.64427900314331 53.48972380061809 18.286420631026168
v 12.567247450351715 56.987887269892234 -2.1546385895103697
v -10.607831925153732 58.95398881957526 1.6417817090628495
v -17.59991943836212 55.08054883697109 23.866778579073824
v 28.88171672821045 23.666783390482273 -4.768014084680825
v 28.66930067539215 18.36116384447046 22.620572138573145
v 34.053489565849304 8.836204304624493 21.306709995718162
v 33.286482095718384 8.983648422365604 -5.469437662095215
v 28.88171672821045 23.666783390482273 -4.768014084680825
v 24.635928869247437 43.54616932829354 -4.0999658570980575
v 23.04048389196396 44.20891505065906 6.194049367983683
v 28.66930067539215 18.36116384447046 22.620572138573145
v -27.573183178901672 56.50050088629886 2.735686037781929
v -24.328354001045227 55.02277830596098 -23.20986243467444
v -29.02156710624695 30.47760477329539 -33.49575598872547
v -31.615138053894043 31.065429094250934 5.139075001307945
v 20.212653279304504 48.49791471697884 -3.381810042979655
v 19.490918517112732 46.65619002255745 10.150699911836101
v 23.04048389196396 44.20891505065906 6.194049367983683
v 24.635928869247437 43.54616932829354 -4.0999658570980575
v 19.249694049358368 1.6601785112748195 -44.0000536762403
v 25.464126467704773 8.76245340904682 -37.121586439068075
v 33.286482095718384 8.983648422365604 -5.469437662095215
v 28.70274782180786 1.7964811759591393 -4.7180107927574895
v 14.727610349655151 18.495551683312314 -40.01306000679338
v 19.937975704669952 18.28619389282408 -36.67368590728541
v 25.464126467704773 8.76245340904682 -37.121586439068075
v 19.249694049358368 1.6601785112748195 -44.0000536762403
v 19.937975704669952 18.28619389282408 -36.67368590728541
v 14.727610349655151 18.495551683312314 -40.01306000679338
v 16.46428108215332 39.52576798039682 -19.399971248983164
v 21.04247510433197 36.942482296484584 -16.43976425987131
v 16.46428108215332 39.52576798039682 -19.399971248983164
v 6.115251034498215 53.433664121087745 -27.57383263428253
v 12.567247450351715 56.987887269892234 -2.1546385895103697
v 20.212653279304504 48.49791471697884 -3.381810042979655
v 14.727610349655151 18.495551683312314 -40.01306000679338
v 1.1108874343335629 31.149076409526163 -42.759492107720106
v 6.115251034498215 53.433664121087745 -27.57383263428253
v 16.46428108215332 39.52576798039682 -19.399971248983164
v -27.573183178901672 56.50050088629886 2.735686037781929
v -10.607831925153732 58.95398881957526 1.6417817090628495
v -24.328354001045227 55.02277830596098 -23.20986243467444
v 1.1108874343335629 31.149076409526163 -42.759492107720106
v 1.857432909309864 1.2128478243514214 -48.38859458656107
v -23.728850483894348 -0.2960482312929345 -39.259555887628345
v -29.02156710624695 30.47760477329539 -33.49575598872547
v -32.26554095745087 0.495366028893665 5.278607749700006
v -27.60562300682068 0.5405656193691493 -33.64607104525405
v -23.728850483894348 -0.2960482312929345 -39.259555887628345
v -19.404420256614685 -6.324288477577079 3.170235740335555
v 16.716092824935913 1.600840213559443 -46.35534312580144
v 14.727610349655151 18.495551683312314 -40.01306000679338
v 19.249694049358368 1.6601785112748195 -44.0000536762403
v -27.60562300682068 0.5405656193691493 -33.64607104525405
v -32.26554095745087 0.495366028893665 5.278607749700006
v -31.615138053894043 31.065429094250934 5.139075001307945
v -29.02156710624695 30.47760477329539 -33.49575598872547
v 1.1108874343335629 31.149076409526163 -42.759492107720106
v -29.02156710624695 30.47760477329539 -33.49575598872547
v -24.328354001045227 55.02277830596098 -23.20986243467444
v 6.115251034498215 53.433664121087745 -27.57383263428253
v -29.02156710624695 30.47760477329539 -33.49575598872547
v -23.728850483894348 -0.2960482312929345 -39.259555887628345
v -27.60562300682068 0.5405656193691493 -33.64607104525405
v 28.70274782180786 1.7964811759591393 -4.7180107927574895
v 10.615937411785126 -5.510501476501728 -1.7522733994032007
v 1.857432909309864 1.2128478243514214 -48.38859458656107
v 16.716092824935913 1.600840213559443 -46.35534312580144
v 19.249694049358368 1.6601785112748195 -44.0000536762403
v 14.727610349655151 18.495551683312314 -40.01306000679338
v 16.716092824935913 1.600840213559443 -46.35534312580144
v 1.857432909309864 1.2128478243514214 -48.38859458656107
v 1.1108874343335629 31.149076409526163 -42.759492107720106
v 6.115251034498215 53.433664121087745 -27.57383263428253
v -24.328354001045227 55.02277830596098 -23.20986243467444
v -10.607831925153732 58.95398881957526 1.6417817090628495
v 12.567247450351715 56.987887269892234 -2.1546385895103697
v 28.88171672821045 23.666783390482273 -4.768014084680825
v 33.286482095718384 8.983648422365604 -5.469437662095215
v 25.464126467704773 8.76245340904682 -37.121586439068075
v 19.937975704669952 18.28619389282408 -36.67368590728541
v 28.88171672821045 23.666783390482273 -4.768014084680825
v 19.937975704669952 18.28619389282408 -36.67368590728541
v 21.04247510433197 36.942482296484584 -16.43976425987131
v 24.635928869247437 43.54616932829354 -4.0999658570980575
v 20.212653279304504 48.49791471697884 -3.381810042979655
v 24.635928869247437 43.54616932829354 -4.0999658570980575
v 21.04247510433197 36.942482296484584 -16.43976425987131
v 16.46428108215332 39.52576798039682 -19.399971248983164
v 13.163191080093384 28.30347456184821 38.88064459780229
v -13.084658980369568 27.129212362393968 38.675446858777875
v -11.881162971258163 6.996735422238361 42.61200015994635
v 15.279988944530487 8.519153611623675 43.089671535142934
v -13.084658980369568 27.129212362393968 38.675446858777875
v -17.347703874111176 7.819699067495492 38.52787188446524
v -11.881162971258163 6.996735422238361 42.61200015994635
v 22.25322276353836 16.618240671789227 32.301172886875655
v 13.163191080093384 28.30347456184821 38.88064459780229
v 15.279988944530487 8.519153611623675 43.089671535142934
v 28.711551427841187 8.894892009631976 36.417608004040424
v 28.711551427841187 1.703837091696163 32.850172838140864
v 24.797777831554413 18.582019211389063 27.448174310252043
v 22.25322276353836 16.618240671789227 32.301172886875655
v 28.711551427841187 8.894892009631976 36.417608004040424
v 24.797777831554413 18.582019211389063 27.448174310252043
v 12.76499629020691 28.509576731497937 28.13132238824408
v 13.163191080093384 28.30347456184821 38.88064459780229
v 22.25322276353836 16.618240671789227 32.301172886875655
v 12.76499629020691 28.509576731497937 28.13132238824408
v -18.747752904891968 27.82625730035662 28.97524678355229
v -13.084658980369568 27.129212362393968 38.675446858777875
v 13.163191080093384 28.30347456184821 38.88064459780229
v -11.881162226200104 -0.1943201010566397 39.044567974279126
v 15.279990434646606 1.3280981348943173 39.522236369243466
v 15.279988944530487 8.519153611623675 43.089671535142934
v -11.881162971258163 6.996735422238361 42.61200015994635
v -18.747752904891968 27.82625730035662 28.97524678355229
v -17.59991943836212 55.08054883697109 23.866778579073824
v -27.573183178901672 56.50050088629886 2.735686037781929
v -31.615138053894043 31.065429094250934 5.139075001307945
v -19.404420256614685 -6.324288477577079 3.170235740335555
v -23.728850483894348 -0.2960482312929345 -39.259555887628345
v 1.857432909309864 1.2128478243514214 -48.38859458656107
v 10.615937411785126 -5.510501476501728 -1.7522733994032007
v -11.881162226200104 -0.1943201010566397 39.044567974279126
v -19.404420256614685 -6.324288477577079 3.170235740335555
v 10.615937411785126 -5.510501476501728 -1.7522733994032007
v 15.279990434646606 1.3280981348943173 39.522236369243466
f 1 2 3
f 1 3 4
f 5 6 7
f 5 7 8
f 9 10 11
f 9 11 12
f 13 14 15
f 13 15 16
f 17 18 19
f 17 19 20
f 21 22 23
f 24 25 26
f 24 26 27
f 28 29 30
f 28 30 31
f 32 33 34
f 35 36 37
f 35 37 38
f 39 40 41
f 39 41 42
f 43 44 45
f 43 45 46
f 51 47 48
f 51 48 49
f 49 50 51
f 52 53 54
f 52 54 55
f 56 57 58
f 56 58 59
f 60 61 62
f 60 62 63
f 64 65 66
f 64 66 67
f 68 69 70
f 68 70 71
f 72 73 74
f 72 74 75
f 76 77 78
f 76 78 79
f 80 81 82
f 80 82 83
f 84 85 86
f 84 86 87
f 88 89 90
f 88 90 91
f 92 93 94
f 92 94 95
f 96 97 98
f 99 100 101
f 99 101 102
f 103 104 105
f 103 105 106
f 107 108 109
f 110 111 112
f 110 112 113
f 114 115 116
f 114 116 117
f 118 119 120
f 125 121 122
f 125 122 123
f 123 124 125
f 126 127 128
f 126 128 129
f 130 131 132
f 130 132 133
f 134 135 136
f 134 136 137
f 138 139 140
f 138 140 141
f 142 143 144
f 142 144 145
f 146 147 148
f 146 148 149
f 150 151 152
f 153 154 155
f 153 155 156
f 157 158 159
f 157 159 160
f 161 162 163
f 161 163 164
f 165 166 167
f 165 167 168
f 169 170 171
f 169 171 172
f 173 174 175
f 173 175 176
f 177 178 179
f 177 179 180
f 181 182 183
f 181 183 184
