v 29.007726907730103 61.23775442629729 -24.378491484198456
v 34.69476103782654 64.24316749067454 -0.9090672604387804
v 34.451401233673096 67.26167185589999 -1.0069949239525169
v 28.824931383132935 64.288266526487 -24.226482255619274
v -33.06593298912048 0.6964484605311898 27.097719794295482
v -31.40014410018921 0.6964503210495298 45.37720072843873
v -22.229228913784027 18.729709223368836 46.557298231427
v -24.96960312128067 23.812799143049972 27.361079151104025
v -39.97585475444794 65.34910563048776 22.159386955361285
v -48.99703860282898 0.6410584254099984 20.82485248135142
v -33.06593298912048 0.6964484605311898 27.097719794295482
v -30.77164888381958 55.15658628392052 22.649066104737322
v 11.9123674929142 21.93872344970961 46.49231970511033
v 4.70825731754303 24.087922486110998 47.0267167186241
v 3.099394775927067 0.705052000428485 47.56605017619511
v 10.830502957105637 0.6806311242880688 46.33078564045512
v -24.96960312128067 23.812799143049972 27.361079151104025
v -24.410149455070496 52.55113078409399 26.417702815478698
v -30.77164888381958 55.15658628392052 22.649066104737322
v -33.06593298912048 0.6964484605311898 27.097719794295482
v 33.05336534976959 66.46320209623622 -0.8706595066221506
v 32.36548602581024 61.27764206785601 13.515651673461896
v 34.69476103782654 64.24316749067454 -0.9090672604387804
v -41.499724984169006 68.14650909692809 1.0116127122265872
v -52.846354246139526 0.5910341102287819 1.3923091782328092
v -48.99703860282898 0.6410584254099984 20.82485248135142
v -39.97585475444794 65.34910563048776 22.159386955361285
v -39.97585475444794 65.34910563048776 22.159386955361285
v -41.18314981460571 70.03960029697801 1.0009795871007574
v -41.499724984169006 68.14650909692809 1.0116127122265872
v 32.36548602581024 61.27764206785601 13.515651673461896
v 19.99066472053528 64.63988138689031 19.112849135174702
v 7.040449231863022 52.877578759122436 22.096938220667482
v 20.660986006259918 49.33028209314633 17.56728232877341
v 19.99066472053528 64.63988138689031 19.112849135174702
v -39.97585475444794 65.34910563048776 22.159386955361285
v -30.77164888381958 55.15658628392052 22.649066104737322
v 7.040449231863022 52.877578759122436 22.096938220667482
v -25.742316246032715 0.7106608844757016 28.664073232264755
v -25.742313265800476 0.7106626518617841 46.94355416640802
v -31.40014410018921 0.6964503210495298 45.37720072843873
v -33.06593298912048 0.6964484605311898 27.097719794295482
v 33.524054288864136 0.6150098398495905 9.359021384654266
v 34.58159267902374 0.5868183979260905 -0.8177569160749677
v 38.356682658195496 58.069759445526856 -0.9930584192449717
v 36.22854948043823 57.79295179534182 13.005265118558912
v 33.524054288864136 0.6150098398495905 9.359021384654266
v 36.22854948043823 57.79295179534182 13.005265118558912
v 24.75757598876953 45.77224254807383 18.30475627709636
v 18.037015199661255 40.36923776287589 26.232632378133378
v 17.719565331935883 18.756332788026032 26.177564187782288
v 17.281101644039154 0.667832294532727 26.101490746413983
v 34.69476103782654 64.24316749067454 -0.9090672604387804
v 32.36548602581024 61.27764206785601 13.515651673461896
v 32.14693069458008 64.32773686978537 13.264109144773393
v 34.451401233673096 67.26167185589999 -1.0069949239525169
v 11.91236898303032 26.393114156469196 28.212844005718903
v 17.719565331935883 18.756332788026032 26.177564187782288
v 18.037015199661255 40.36923776287589 26.232632378133378
v 12.69565224647522 45.00925704451945 28.329797206742555
v -33.06593298912048 0.6964484605311898 27.097719794295482
v -48.99703860282898 0.6410584254099984 20.82485248135142
v -52.846354246139526 0.5910341102287819 1.3923091782328092
v 34.58159267902374 0.5868183979260905 -0.8177569160749677
v 33.524054288864136 0.6150098398495905 9.359021384654266
v 17.281101644039154 0.667832294532727 26.101490746413983
v 10.830505192279816 0.6806292637702144 28.05130768654411
v 3.0993955209851265 0.705050093344502 29.28657222228411
v -25.742316246032715 0.7106608844757016 28.664073232264755
v 13.302353024482727 44.91688082608691 -50.609774754871225
v 11.382867395877838 0.5868168902616785 -50.65829763436327
v -3.5322215408086777 0.5868169054606974 -53.7090362074377
v -0.5743991583585739 48.58412797026311 -51.53785543428134
v -41.04609489440918 65.29027942259191 -29.058368710371926
v -32.54818618297577 55.05893580626032 -51.675775676707204
v -35.06048619747162 0.5868110758505029 -58.33645472550328
v -49.98379945755005 0.5868172886857238 -25.918760991334423
v -34.44194793701172 0.5868104409840736 -65.66308746361678
v -30.403289198875427 52.433224126062726 -63.38753362409263
v -31.843608617782593 0.5868108424019791 -66.6290522577758
v -35.06048619747162 0.5868110758505029 -58.33645472550328
v -32.54818618297577 55.05893580626032 -51.675775676707204
v -30.403289198875427 52.433224126062726 -63.38753362409263
v -34.44194793701172 0.5868104409840736 -65.66308746361678
v 33.05336534976959 66.46320209623622 -0.8706595066221506
v 34.69476103782654 64.24316749067454 -0.9090672604387804
v 29.007726907730103 61.23775442629729 -24.378491484198456
v -41.499724984169006 68.14650909692809 1.0116127122265872
v -41.04609489440918 65.29027942259191 -29.058368710371926
v -49.98379945755005 0.5868172886857238 -25.918760991334423
v -52.846354246139526 0.5910341102287819 1.3923091782328092
v -41.04609489440918 65.29027942259191 -29.058368710371926
v -41.499724984169006 68.14650909692809 1.0116127122265872
v -41.18314981460571 70.03960029697801 1.0009795871007574
v -0.5743991583585739 48.58412797026311 -51.53785543428134
v -3.5322215408086777 0.5868169054606974 -53.7090362074377
v -31.843608617782593 0.5868108424019791 -66.6290522577758
v -30.403289198875427 52.433224126062726 -63.38753362409263
v 32.452014088630676 0.5868218262768771 -18.36050609374051
v 32.85686373710632 57.75421448703375 -25.11225985662971
v 38.356682658195496 58.069759445526856 -0.9930584192449717
v 34.58159267902374 0.5868183979260905 -0.8177569160749677
v 32.452014088630676 0.5868218262768771 -18.36050609374051
v 18.41277927160263 0.5868168054660684 -45.46235213303561
v 19.157877564430237 40.2886763492434 -45.56109667559216
v 26.81220769882202 45.719678072488236 -31.290267405995323
v 32.85686373710632 57.75421448703375 -25.11225985662971
v 11.382867395877838 0.5868168902616785 -50.65829763436327
v 13.302353024482727 44.91688082608691 -50.609774754871225
v 19.157877564430237 40.2886763492434 -45.56109667559216
v 18.41277927160263 0.5868168054660684 -45.46235213303561
v -35.06048619747162 0.5868110758505029 -58.33645472550328
v -34.44194793701172 0.5868104409840736 -65.66308746361678
v -31.843608617782593 0.5868108424019791 -66.6290522577758
v -3.5322215408086777 0.5868169054606974 -53.7090362074377
v 11.382867395877838 0.5868168902616785 -50.65829763436327
v 18.41277927160263 0.5868168054660684 -45.46235213303561
v 32.452014088630676 0.5868218262768771 -18.36050609374051
v 34.58159267902374 0.5868183979260905 -0.8177569160749677
v -52.846354246139526 0.5910341102287819 1.3923091782328092
v -49.98379945755005 0.5868172886857238 -25.918760991334423
v 17.281101644039154 0.667832294532727 26.101490746413983
v 15.282714366912842 0.6678340153526807 44.38097168055725
v 10.830502957105637 0.6806311242880688 46.33078564045512
v 10.830505192279816 0.6806292637702144 28.05130768654411
v 5.873093754053116 48.696817607230265 28.35675280656236
v -24.410149455070496 52.55113078409399 26.417702815478698
v -24.96960312128067 23.812799143049972 27.361079151104025
v 4.708258807659149 28.542311702753977 28.747238039000674
v 12.69565224647522 45.00925704451945 28.329797206742555
v 5.873093754053116 48.696817607230265 28.35675280656236
v 4.708258807659149 28.542311702753977 28.747238039000674
v 11.91236898303032 26.393114156469196 28.212844005718903
v 17.719565331935883 18.756332788026032 26.177564187782288
v 15.72117805480957 14.301937610918575 44.457042867406685
v 15.282714366912842 0.6678340153526807 44.38097168055725
v 17.281101644039154 0.667832294532727 26.101490746413983
v 4.70825731754303 24.087922486110998 47.0267167186241
v -22.229228913784027 18.729709223368836 46.557298231427
v -25.742313265800476 0.7106626518617841 46.94355416640802
v 3.099394775927067 0.705052000428485 47.56605017619511
v 10.830502957105637 0.6806311242880688 46.33078564045512
v 15.282714366912842 0.6678340153526807 44.38097168055725
v 15.72117805480957 14.301937610918575 44.457042867406685
v 11.9123674929142 21.93872344970961 46.49231970511033
v -31.40014410018921 0.6964503210495298 45.37720072843873
v -25.742313265800476 0.7106626518617841 46.94355416640802
v -22.229228913784027 18.729709223368836 46.557298231427
v 3.0993955209851265 0.705050093344502 29.28657222228411
v 3.099394775927067 0.705052000428485 47.56605017619511
v -25.742313265800476 0.7106626518617841 46.94355416640802
v -25.742316246032715 0.7106608844757016 28.664073232264755
v 10.830505192279816 0.6806292637702144 28.05130768654411
v 10.830502957105637 0.6806311242880688 46.33078564045512
v 3.099394775927067 0.705052000428485 47.56605017619511
v 3.0993955209851265 0.705050093344502 29.28657222228411
v 32.36548602581024 61.27764206785601 13.515651673461896
v 33.05336534976959 66.46320209623622 -0.8706595066221506
v 32.82748460769653 69.45806725927704 -0.968996575688373
v 32.14693069458008 64.32773686978537 13.264109144773393
v 33.05336534976959 66.46320209623622 -0.8706595066221506
v 29.007726907730103 61.23775442629729 -24.378491484198456
v 28.824931383132935 64.288266526487 -24.226482255619274
v 32.82748460769653 69.45806725927704 -0.968996575688373
f 1 2 3
f 1 3 4
f 5 6 7
f 5 7 8
f 9 10 11
f 9 11 12
f 13 14 15
f 13 15 16
f 17 18 19
f 17 19 20
f 21 22 23
f 24 25 26
f 24 26 27
f 28 29 30
f 31 32 33
f 31 33 34
f 35 36 37
f 35 37 38
f 39 40 41
f 39 41 42
f 43 44 45
f 43 45 46
f 52 47 48
f 52 48 49
f 49 50 51
f 49 51 52
f 53 54 55
f 53 55 56
f 57 58 59
f 57 59 60
f 69 61 62
f 69 62 63
f 69 63 64
f 69 64 65
f 69 65 66
f 69 66 67
f 67 68 69
f 70 71 72
f 70 72 73
f 74 75 76
f 74 76 77
f 78 79 80
f 81 82 83
f 81 83 84
f 85 86 87
f 88 89 90
f 88 90 91
f 92 93 94
f 95 96 97
f 95 97 98
f 99 100 101
f 99 101 102
f 107 103 104
f 104 105 106
f 104 106 107
f 108 109 110
f 108 110 111
f 112 113 114
f 112 114 115
f 112 115 116
f 112 116 117
f 112 117 118
f 112 118 119
f 112 119 120
f 112 120 121
f 122 123 124
f 122 124 125
f 126 127 128
f 126 128 129
f 130 131 132
f 130 132 133
f 134 135 136
f 134 136 137
f 138 139 140
f 138 140 141
f 142 143 144
f 142 144 145
f 146 147 148
f 149 150 151
f 149 151 152
f 153 154 155
f 153 155 156
f 157 158 159
f 157 159 160
f 161 162 163
f 161 163 164
v 17.719565331935883 18.756332788026032 26.177564187782288
v 11.91236898303032 26.393114156469196 28.212844005718903
v 10.912450402975082 29.059590718494025 29.398210082639675
v 15.947338938713074 22.438438268451105 27.633603731857878
v 4.70825731754303 24.087922486110998 47.0267167186241
v 11.9123674929142 21.93872344970961 46.49231970511033
v 10.912449657917023 25.197593788816768 45.246668525102194
v 4.666424170136452 27.06097215066462 45.70999896721636
v 32.85686373710632 57.75421448703375 -25.11225985662971
v 26.81220769882202 45.719678072488236 -31.290267405995323
v 26.652792096138 48.935453003006344 -31.064652428507742
v 32.63307511806488 60.841830479869245 -24.952436465165466
v -0.5743991583585739 48.58412797026311 -51.53785543428134
v -30.403289198875427 52.433224126062726 -63.38753362409263
v -29.95339035987854 55.577500360630175 -62.82009791809852
v -0.4421621561050415 51.769397278715076 -51.0966146888843
v -22.229228913784027 18.729709223368836 46.557298231427
v 4.70825731754303 24.087922486110998 47.0267167186241
v 4.666424170136452 27.06097215066462 45.70999896721636
v -18.688607215881348 22.415354778124687 45.30300728862816
v 24.75757598876953 45.77224254807383 18.30475627709636
v 36.22854948043823 57.79295179534182 13.005265118558912
v 35.968852043151855 60.88015644999373 12.75915703731184
v 24.620041251182556 48.98745710888315 18.002213007204368
v 11.9123674929142 21.93872344970961 46.49231970511033
v 15.72117805480957 14.301937610918575 44.457042867406685
v 14.214721322059631 18.576438358542582 43.48206813478536
v 10.912449657917023 25.197593788816768 45.246668525102194
v 15.72117805480957 14.301937610918575 44.457042867406685
v 17.719565331935883 18.756332788026032 26.177564187782288
v 15.947338938713074 22.438438268451105 27.633603731857878
v 14.214721322059631 18.576438358542582 43.48206813478536
v 19.99066472053528 64.63988138689031 19.112849135174702
v 32.36548602581024 61.27764206785601 13.515651673461896
v 32.14693069458008 64.32773686978537 13.264109144773393
v 19.903895258903503 67.6541716689918 18.801698987311863
v 5.873093754053116 48.696817607230265 28.35675280656236
v 12.69565224647522 45.00925704451945 28.329797206742555
v 12.68656998872757 48.23259868124962 27.920488605688693
v 5.936668813228607 51.880888723703556 27.947158109611554
v 7.040449231863022 52.877578759122436 22.096938220667482
v -30.77164888381958 55.15658628392052 22.649066104737322
v -30.317825078964233 58.27185874906516 22.300257725853307
v 7.091592252254486 56.01712223657735 21.754008345920187
v -39.97585475444794 65.34910563048776 22.159386955361285
v 19.99066472053528 64.63988138689031 19.112849135174702
v 19.903895258903503 67.6541716689918 18.801698987311863
v -39.4240140914917 68.35583803834587 21.815792510462412
v -32.54818618297577 55.05893580626032 -51.675775676707204
v -41.04609489440918 65.29027942259191 -29.058368710371926
v -40.48285484313965 68.29763776808396 -28.856521051033162
v -32.07544684410095 58.17525744210821 -51.233062685351214
v 20.660986006259918 49.33028209314633 17.56728232877341
v 7.040449231863022 52.877578759122436 22.096938220667482
v 7.091592252254486 56.01712223657735 21.754008345920187
v 20.56707739830017 52.50760598255134 17.27259197700375
v -30.403289198875427 52.433224126062726 -63.38753362409263
v -32.54818618297577 55.05893580626032 -51.675775676707204
v -32.07544684410095 58.17525744210821 -51.233062685351214
v -29.95339035987854 55.577500360630175 -62.82009791809852
v 19.157877564430237 40.2886763492434 -45.56109667559216
v 13.302353024482727 44.91688082608691 -50.609774754871225
v 13.286809623241425 48.14120607641789 -50.17841646594097
v 19.07997727394104 43.562288671579985 -45.183501784279194
v 12.69565224647522 45.00925704451945 28.329797206742555
v 18.037015199661255 40.36923776287589 26.232632378133378
v 17.97105073928833 43.641991653763505 25.845657629426576
v 12.68656998872757 48.23259868124962 27.920488605688693
v 32.14693069458008 64.32773686978537 13.264109144773393
v 35.968852043151855 60.88015644999373 12.75915703731184
v 38.074320554733276 61.15400773408514 -1.090092489459409
v 34.451401233673096 67.26167185589999 -1.0069949239525169
v 7.091592252254486 56.01712223657735 21.754008345920187
v -30.317825078964233 58.27185874906516 22.300257725853307
v -24.024073779582977 55.69415516530702 26.02875815439769
v 5.936668813228607 51.880888723703556 27.947158109611554
v 19.903895258903503 67.6541716689918 18.801698987311863
v 19.566233456134796 74.31126226480525 -0.6405116986686499
v -40.618449449539185 72.99637808876003 0.8827105447623491
v -39.4240140914917 68.35583803834587 21.815792510462412
v 20.56707739830017 52.50760598255134 17.27259197700375
v 7.091592252254486 56.01712223657735 21.754008345920187
v 5.936668813228607 51.880888723703556 27.947158109611554
v 12.68656998872757 48.23259868124962 27.920488605688693
v 32.14693069458008 64.32773686978537 13.264109144773393
v 32.82748460769653 69.45806725927704 -0.968996575688373
v 19.566233456134796 74.31126226480525 -0.6405116986686499
v 19.903895258903503 67.6541716689918 18.801698987311863
v 12.68656998872757 48.23259868124962 27.920488605688693
v 17.97105073928833 43.641991653763505 25.845657629426576
v 24.620041251182556 48.98745710888315 18.002213007204368
v 20.56707739830017 52.50760598255134 17.27259197700375
v 20.56707739830017 52.50760598255134 17.27259197700375
v 24.620041251182556 48.98745710888315 18.002213007204368
v 35.968852043151855 60.88015644999373 12.75915703731184
v 32.14693069458008 64.32773686978537 13.264109144773393
v 28.824931383132935 64.288266526487 -24.226482255619274
v 34.451401233673096 67.26167185589999 -1.0069949239525169
v 38.074320554733276 61.15400773408514 -1.090092489459409
v 32.63307511806488 60.841830479869245 -24.952436465165466
v 1.1455491185188293 55.92246573490049 -41.38247089719728
v -0.4421621561050415 51.769397278715076 -51.0966146888843
v -29.95339035987854 55.577500360630175 -62.82009791809852
v -32.07544684410095 58.17525744210821 -51.233062685351214
v 14.480644464492798 67.60016823989687 -27.73255913110362
v -40.48285484313965 68.29763776808396 -28.856521051033162
v -40.618449449539185 72.99637808876003 0.8827105447623491
v 19.566233456134796 74.31126226480525 -0.6405116986686499
v 22.342778742313385 52.45241011214899 -31.400203309720325
v 13.286809623241425 48.14120607641789 -50.17841646594097
v -0.4421621561050415 51.769397278715076 -51.0966146888843
v 1.1455491185188293 55.92246573490049 -41.38247089719728
v 28.824931383132935 64.288266526487 -24.226482255619274
v 14.480644464492798 67.60016823989687 -27.73255913110362
v 19.566233456134796 74.31126226480525 -0.6405116986686499
v 32.82748460769653 69.45806725927704 -0.968996575688373
v 28.824931383132935 64.288266526487 -24.226482255619274
v 22.342778742313385 52.45241011214899 -31.400203309720325
v 1.1455491185188293 55.92246573490049 -41.38247089719728
v 14.480644464492798 67.60016823989687 -27.73255913110362
v 14.480644464492798 67.60016823989687 -27.73255913110362
v 1.1455491185188293 55.92246573490049 -41.38247089719728
v -32.07544684410095 58.17525744210821 -51.233062685351214
v -40.48285484313965 68.29763776808396 -28.856521051033162
v 13.286809623241425 48.14120607641789 -50.17841646594097
v 22.342778742313385 52.45241011214899 -31.400203309720325
v 26.652792096138 48.935453003006344 -31.064652428507742
v 19.07997727394104 43.562288671579985 -45.183501784279194
v 22.342778742313385 52.45241011214899 -31.400203309720325
v 28.824931383132935 64.288266526487 -24.226482255619274
v 32.63307511806488 60.841830479869245 -24.952436465165466
v 26.652792096138 48.935453003006344 -31.064652428507742
v 10.912450402975082 29.059590718494025 29.398210082639675
v 10.912449657917023 25.197593788816768 45.246668525102194
v 14.214721322059631 18.576438358542582 43.48206813478536
v 15.947338938713074 22.438438268451105 27.633603731857878
v -21.06453627347946 26.822437544895102 28.659720819280032
v -18.688607215881348 22.415354778124687 45.30300728862816
v 4.666424170136452 27.06097215066462 45.70999896721636
v 4.666425287723541 30.922963119875945 29.861531584058095
v 4.666425287723541 30.922963119875945 29.861531584058095
v 4.666424170136452 27.06097215066462 45.70999896721636
v 10.912449657917023 25.197593788816768 45.246668525102194
v 10.912450402975082 29.059590718494025 29.398210082639675
v 4.708258807659149 28.542311702753977 28.747238039000674
v -24.96960312128067 23.812799143049972 27.361079151104025
v -21.06453627347946 26.822437544895102 28.659720819280032
v 4.666425287723541 30.922963119875945 29.861531584058095
v 36.22854948043823 57.79295179534182 13.005265118558912
v 38.356682658195496 58.069759445526856 -0.9930584192449717
v 38.074320554733276 61.15400773408514 -1.090092489459409
v 35.968852043151855 60.88015644999373 12.75915703731184
v 11.91236898303032 26.393114156469196 28.212844005718903
v 4.708258807659149 28.542311702753977 28.747238039000674
v 4.666425287723541 30.922963119875945 29.861531584058095
v 10.912450402975082 29.059590718494025 29.398210082639675
v -41.18314981460571 70.03960029697801 1.0009795871007574
v -39.97585475444794 65.34910563048776 22.159386955361285
v -39.4240140914917 68.35583803834587 21.815792510462412
v -40.618449449539185 72.99637808876003 0.8827105447623491
v 13.302353024482727 44.91688082608691 -50.609774754871225
v -0.5743991583585739 48.58412797026311 -51.53785543428134
v -0.4421621561050415 51.769397278715076 -51.0966146888843
v 13.286809623241425 48.14120607641789 -50.17841646594097
v 38.356682658195496 58.069759445526856 -0.9930584192449717
v 32.85686373710632 57.75421448703375 -25.11225985662971
v 32.63307511806488 60.841830479869245 -24.952436465165466
v 38.074320554733276 61.15400773408514 -1.090092489459409
v -24.96960312128067 23.812799143049972 27.361079151104025
v -22.229228913784027 18.729709223368836 46.557298231427
v -18.688607215881348 22.415354778124687 45.30300728862816
v -21.06453627347946 26.822437544895102 28.659720819280032
v 18.037015199661255 40.36923776287589 26.232632378133378
v 24.75757598876953 45.77224254807383 18.30475627709636
v 24.620041251182556 48.98745710888315 18.002213007204368
v 17.97105073928833 43.641991653763505 25.845657629426576
v 26.81220769882202 45.719678072488236 -31.290267405995323
v 19.157877564430237 40.2886763492434 -45.56109667559216
v 19.07997727394104 43.562288671579985 -45.183501784279194
v 26.652792096138 48.935453003006344 -31.064652428507742
v 32.36548602581024 61.27764206785601 13.515651673461896
v 20.660986006259918 49.33028209314633 17.56728232877341
v 20.56707739830017 52.50760598255134 17.27259197700375
v 32.14693069458008 64.32773686978537 13.264109144773393
v -41.04609489440918 65.29027942259191 -29.058368710371926
v -41.18314981460571 70.03960029697801 1.0009795871007574
v -40.618449449539185 72.99637808876003 0.8827105447623491
v -40.48285484313965 68.29763776808396 -28.856521051033162
v -24.410149455070496 52.55113078409399 26.417702815478698
v 5.873093754053116 48.696817607230265 28.35675280656236
v 5.936668813228607 51.880888723703556 27.947158109611554
v -24.024073779582977 55.69415516530702 26.02875815439769
v -30.77164888381958 55.15658628392052 22.649066104737322
v -24.410149455070496 52.55113078409399 26.417702815478698
v -24.024073779582977 55.69415516530702 26.02875815439769
v -30.317825078964233 58.27185874906516 22.300257725853307
f 165 166 167
f 165 167 168
f 169 170 171
f 169 171 172
f 173 174 175
f 173 175 176
f 177 178 179
f 177 179 180
f 181 182 183
f 181 183 184
f 185 186 187
f 185 187 188
f 189 190 191
f 189 191 192
f 193 194 195
f 193 195 196
f 197 198 199
f 197 199 200
f 201 202 203
f 201 203 204
f 205 206 207
f 205 207 208
f 209 210 211
f 209 211 212
f 213 214 215
f 213 215 216
f 217 218 219
f 217 219 220
f 221 222 223
f 221 223 224
f 225 226 227
f 225 227 228
f 229 230 231
f 229 231 232
f 233 234 235
f 233 235 236
f 237 238 239
f 237 239 240
f 241 242 243
f 241 243 244
f 245 246 247
f 245 247 248
f 249 250 251
f 249 251 252
f 253 254 255
f 253 255 256
f 257 258 259
f 257 259 260
f 261 262 263
f 261 263 264
f 265 266 267
f 265 267 268
f 269 270 271
f 269 271 272
f 273 274 275
f 273 275 276
f 277 278 279
f 277 279 280
f 281 282 283
f 281 283 284
f 285 286 287
f 285 287 288
f 289 290 291
f 289 291 292
f 293 294 295
f 293 295 296
f 297 298 299
f 297 299 300
f 301 302 303
f 301 303 304
f 305 306 307
f 305 307 308
f 309 310 311
f 309 311 312
f 313 314 315
f 313 315 316
f 317 318 319
f 317 319 320
f 321 322 323
f 321 323 324
f 325 326 327
f 325 327 328
f 329 330 331
f 329 331 332
f 333 334 335
f 333 335 336
f 337 338 339
f 337 339 340
f 341 342 343
f 341 343 344
f 345 346 347
f 345 347 348
f 349 350 351
f 349 351 352
f 353 354 355
f 353 355 356
f 357 358 359
f 357 359 360
