o convex_0
v -22.462251 2.181891 -41.187331
v 35.036327 10.017129 22.821491
v 29.801322 10.017129 37.196007
v -15.923484 59.670748 0.610457
v -18.537661 -0.440728 35.888408
v 20.655031 0.864057 -45.110130
v 7.590800 54.438557 -28.120415
v 11.508739 54.438557 20.215372
v -30.298129 30.919795 -34.658413
v -18.537661 54.432033 25.436690
v -32.918957 -0.440728 7.148456
v 4.976624 -6.977705 0.610457
v 25.883384 43.980700 -5.909380
v -28.994367 57.054652 1.918057
v 14.122916 29.601962 39.811207
v 31.111737 0.864057 31.974689
v -0.245077 32.224581 -43.802531
v -25.069776 55.749867 -24.206696
v -13.315960 6.096248 43.734006
v 27.193798 10.017129 -35.966013
v -25.069776 -1.745514 -38.572132
v -32.918957 32.224581 5.840856
v -19.848075 -6.977705 7.148456
v 12.819153 58.359438 -3.294181
v 33.725913 8.705819 -9.832180
v 16.743744 0.864057 41.118807
v -0.245077 0.870581 -49.032929
v -14.619722 26.992390 39.811207
v 24.572970 43.980700 8.456055
v -18.537661 8.705819 39.811207
v 29.801322 0.864057 -7.216980
v -28.994367 -0.440728 -33.350813
f 21 23 32 
f 8 4 10 
f 10 4 14 
f 3 8 15 
f 8 10 15 
f 2 3 16 
f 7 6 17 
f 17 9 18 
f 4 7 18 
f 14 4 18 
f 9 14 18 
f 7 17 18 
f 6 7 20 
f 7 13 20 
f 9 1 21 
f 6 12 21 
f 9 11 22 
f 14 9 22 
f 10 14 22 
f 5 11 23 
f 21 12 23 
f 7 4 24 
f 4 8 24 
f 13 7 24 
f 13 2 25 
f 2 16 25 
f 6 20 25 
f 20 13 25 
f 3 15 26 
f 16 3 26 
f 12 16 26 
f 19 5 26 
f 15 19 26 
f 5 23 26 
f 23 12 26 
f 1 9 27 
f 17 6 27 
f 9 17 27 
f 21 1 27 
f 6 21 27 
f 15 10 28 
f 19 15 28 
f 3 2 29 
f 8 3 29 
f 2 13 29 
f 24 8 29 
f 13 24 29 
f 11 5 30 
f 5 19 30 
f 22 11 30 
f 10 22 30 
f 28 10 30 
f 19 28 30 
f 12 6 31 
f 16 12 31 
f 25 16 31 
f 6 25 31 
f 11 9 32 
f 9 21 32 
f 23 11 32 
