v 1.0393811389803886 -20.97838609818405 -42.03647331348858
v 8.351913839578629 -10.269885609664122 -55.488072152660926
v 18.501050770282745 -14.845813201606912 -41.99197944528669
v 22.404414415359497 -21.713181417109944 -21.83471266330289
v 18.501050770282745 -14.845813201606912 -41.99197944528669
v 15.025457739830017 12.716955254807358 -25.54653792142688
v 16.368675231933594 24.619483818661195 -19.084904628622994
v 18.74254196882248 25.236762507685196 -12.53692620879691
v 2.1894680336117744 30.585260065190404 -31.26931092741489
v 6.2497541308403015 15.492959962662464 -41.79005279229787
v -30.81968128681183 16.28629549968077 -46.66866031385986
v -35.2813184261322 21.00774393006902 -33.80919739136967
v -30.81968128681183 16.28629549968077 -46.66866031385986
v 6.2497541308403015 15.492959962662464 -41.79005279229787
v 7.999218255281448 12.307630368819645 -50.98281703240578
v -23.79940152168274 10.645587122336766 -54.109956568372084
v 15.025457739830017 12.716955254807358 -25.54653792142688
v 18.501050770282745 -14.845813201606912 -41.99197944528669
v 8.351913839578629 -10.269885609664122 -55.488072152660926
v 6.2497541308403015 15.492959962662464 -41.79005279229787
v -39.71843421459198 45.364439527237096 -18.04837578518058
v -35.2813184261322 21.00774393006902 -33.80919739136967
v -43.94867718219757 23.495813687550264 -21.4638107551586
v -29.62947189807892 -27.051140659598683 -47.5212470328593
v -30.278462171554565 -20.568895733787112 -57.2948601113512
v 8.351913839578629 -10.269885609664122 -55.488072152660926
v 1.0393811389803886 -20.97838609818405 -42.03647331348858
v 7.999218255281448 12.307630368819645 -50.98281703240578
v 8.351913839578629 -10.269885609664122 -55.488072152660926
v -26.392686367034912 -15.675663703988562 -62.525776454977255
v -23.79940152168274 10.645587122336766 -54.109956568372084
v 8.351913839578629 -10.269885609664122 -55.488072152660926
v -30.278462171554565 -20.568895733787112 -57.2948601113512
v -26.392686367034912 -15.675663703988562 -62.525776454977255
v -30.278462171554565 -20.568895733787112 -57.2948601113512
v -30.81968128681183 16.28629549968077 -46.66866031385986
v -23.79940152168274 10.645587122336766 -54.109956568372084
v -26.392686367034912 -15.675663703988562 -62.525776454977255
v 6.2497541308403015 15.492959962662464 -41.79005279229787
v 8.351913839578629 -10.269885609664122 -55.488072152660926
v 7.999218255281448 12.307630368819645 -50.98281703240578
v 1.0393811389803886 -20.97838609818405 -42.03647331348858
v 18.501050770282745 -14.845813201606912 -41.99197944528669
v 22.404414415359497 -25.851137023093678 -21.834711989144356
v 0.5196899175643921 -25.077782747390856 -28.51953991970537
v -29.62947189807892 -27.051140659598683 -47.5212470328593
v -35.2813184261322 21.00774393006902 -33.80919739136967
v -30.81968128681183 16.28629549968077 -46.66866031385986
v -30.278462171554565 -20.568895733787112 -57.2948601113512
v -42.86038875579834 -23.174643730617007 -28.752791086165608
v -29.62947189807892 -27.051140659598683 -47.5212470328593
v -42.86038875579834 -27.31259933660074 -28.752790412007077
v 18.501050770282745 -14.845813201606912 -41.99197944528669
v 22.404414415359497 -21.713181417109944 -21.83471266330289
v 22.404414415359497 -25.851137023093678 -21.834711989144356
v 16.368675231933594 24.619483818661195 -19.084904628622994
v 15.025457739830017 12.716955254807358 -25.54653792142688
v 6.2497541308403015 15.492959962662464 -41.79005279229787
v 2.1894680336117744 30.585260065190404 -31.26931092741489
v 17.293907701969147 43.81011580145127 -8.85873033098107
v 16.368675231933594 24.619483818661195 -19.084904628622994
v 2.1894680336117744 30.585260065190404 -31.26931092741489
v -1.1557282879948616 51.05112510619866 -17.213387163929735
v -1.1557282879948616 51.05112510619866 -17.213387163929735
v 2.1894680336117744 30.585260065190404 -31.26931092741489
v -35.2813184261322 21.00774393006902 -33.80919739136967
v -39.71843421459198 45.364439527237096 -18.04837578518058
v -42.86038875579834 -27.31259933660074 -28.752790412007077
v -29.62947189807892 -27.051140659598683 -47.5212470328593
v 1.0393811389803886 -20.97838609818405 -42.03647331348858
v 0.5196899175643921 -25.077782747390856 -28.51953991970537
v -42.86038875579834 -23.174643730617007 -28.752791086165608
v -42.86038875579834 -27.31259933660074 -28.752790412007077
v -42.86038875579834 -27.31259167194397 2.576298813254912e-06
v -42.86038875579834 -23.174637556076355 1.9021405226611306e-06
v 17.293907701969147 43.81011580145127 -8.85873033098107
v -1.1557282879948616 51.05112510619866 -17.213387163929735
v -0.7040383294224739 45.212587714195244 -7.3968400939794705e-06
v 17.473503947257996 40.556484460830816 -5.8436989645785494e-06
v -1.1557282879948616 51.05112510619866 -17.213387163929735
v -39.71843421459198 45.364439527237096 -18.04837578518058
v -39.327046275138855 39.885210990905485 -8.217165643108638e-06
v -0.7040383294224739 45.212587714195244 -7.3968400939794705e-06
v 17.489363253116608 21.653327958830268 12.908721912727636
v 21.2060809135437 -21.0279292221277 23.563588111210738
v 28.871193528175354 -20.783188887717596 18.607888031473756
v 27.09176540374756 17.426729034600715 8.117114893588994
v 0.5196899175643921 -25.077782747390856 -28.51953991970537
v 22.404414415359497 -25.851137023093678 -21.834711989144356
v 22.40441143512726 -25.851130485534508 5.191011705392174e-06
v 0.5196877289563417 -25.077775120735165 4.1084044850281626e-06
v -39.71843421459198 45.364439527237096 -18.04837578518058
v -43.94867718219757 23.495813687550264 -21.4638107551586
v -43.35503578186035 25.603219866752298 -6.176884303245582e-06
v -39.327046275138855 39.885210990905485 -8.217165643108638e-06
v 22.404414415359497 -21.713181417109944 -21.83471266330289
v 18.74254196882248 25.236762507685196 -12.53692620879691
v 25.620037317276 21.011206234876546 -10.820743884509742
v 30.408284068107605 -20.78319133086788 -14.680596780309566
v -42.86038875579834 -27.31259933660074 -28.752790412007077
v 0.5196899175643921 -25.077782747390856 -28.51953991970537
v 0.5196877289563417 -25.077775120735165 4.1084044850281626e-06
v -42.86038875579834 -27.31259167194397 2.576298813254912e-06
v 1.0393774136900902 -20.978372400961458 42.03648014911213
v 18.501047790050507 -14.84579951888259 41.99198428266436
v 8.35190936923027 -10.26986752935489 55.48807549901144
v 21.2060809135437 -21.0279292221277 23.563588111210738
v 17.489363253116608 21.653327958830268 12.908721912727636
v 16.368672251701355 24.619490037311095 19.08489660657598
v 15.263842046260834 20.42433221860279 30.470698724571147
v 18.501047790050507 -14.84579951888259 41.99198428266436
v 2.1894654259085655 30.585270254023463 31.26930096147061
v -35.79842448234558 28.00750064600137 32.17952987227207
v -32.269805669784546 27.871622212921732 46.147154201088625
v 5.08297011256218 27.6997876859077 44.32669128696056
v -32.269805669784546 27.871622212921732 46.147154201088625
v -25.712573528289795 25.294154978234744 55.465640477067794
v 6.165029481053352 27.699789286705354 54.15231730262371
v 5.08297011256218 27.6997876859077 44.32669128696056
v 15.263842046260834 20.42433221860279 30.470698724571147
v 5.08297011256218 27.6997876859077 44.32669128696056
v 8.35190936923027 -10.26986752935489 55.48807549901144
v 18.501047790050507 -14.84579951888259 41.99198428266436
v -39.327046275138855 39.885210977770754 18.21190661070055
v -43.23807954788208 27.690595707376904 20.250320393548577
v -35.79842448234558 28.00750064600137 32.17952987227207
v -29.629477858543396 -27.051125175209666 47.521255847237136
v 1.0393774136900902 -20.978372400961458 42.03648014911213
v 8.35190936923027 -10.26986752935489 55.48807549901144
v -30.278468132019043 -20.568877064751096 57.29486681354504
v 6.165029481053352 27.699789286705354 54.15231730262371
v -25.712573528289795 25.294154978234744 55.465640477067794
v -26.39269232749939 -15.67564333050393 62.52578156275346
v 8.35190936923027 -10.26986752935489 55.48807549901144
v 8.35190936923027 -10.26986752935489 55.48807549901144
v -26.39269232749939 -15.67564333050393 62.52578156275346
v -30.278468132019043 -20.568877064751096 57.29486681354504
v -30.278468132019043 -20.568877064751096 57.29486681354504
v -26.39269232749939 -15.67564333050393 62.52578156275346
v -25.712573528289795 25.294154978234744 55.465640477067794
v -32.269805669784546 27.871622212921732 46.147154201088625
v 5.08297011256218 27.6997876859077 44.32669128696056
v 6.165029481053352 27.699789286705354 54.15231730262371
v 8.35190936923027 -10.26986752935489 55.48807549901144
v 1.0393774136900902 -20.978372400961458 42.03648014911213
v 0.5196874029934406 -25.07777345454396 28.519548091082594
v 21.2060809135437 -25.165887808343673 23.563588785369756
v 18.501047790050507 -14.84579951888259 41.99198428266436
v -29.629477858543396 -27.051125175209666 47.521255847237136
v -30.278468132019043 -20.568877064751096 57.29486681354504
v -32.269805669784546 27.871622212921732 46.147154201088625
v -35.79842448234558 28.00750064600137 32.17952987227207
v -42.86038875579834 -23.174634361768305 28.75279267695695
v -42.86038875579834 -27.31258996775204 28.752793351115482
v -29.629477858543396 -27.051125175209666 47.521255847237136
v 18.501047790050507 -14.84579951888259 41.99198428266436
v 21.2060809135437 -25.165887808343673 23.563588785369756
v 21.2060809135437 -21.0279292221277 23.563588111210738
v 16.368672251701355 24.619490037311095 19.08489660657598
v 2.1894654259085655 30.585270254023463 31.26930096147061
v 5.08297011256218 27.6997876859077 44.32669128696056
v 15.263842046260834 20.42433221860279 30.470698724571147
v 17.473505437374115 40.556482734941156 7.699094065709235
v -0.7040381897240877 45.21258770106049 18.21190723287684
v 2.1894654259085655 30.585270254023463 31.26930096147061
v 16.368672251701355 24.619490037311095 19.08489660657598
v -0.7040381897240877 45.21258770106049 18.21190723287684
v -39.327046275138855 39.885210977770754 18.21190661070055
v -35.79842448234558 28.00750064600137 32.17952987227207
v 2.1894654259085655 30.585270254023463 31.26930096147061
v -42.86038875579834 -27.31258996775204 28.752793351115482
v 0.5196874029934406 -25.07777345454396 28.519548091082594
v 1.0393774136900902 -20.978372400961458 42.03648014911213
v -29.629477858543396 -27.051125175209666 47.521255847237136
v -42.86038875579834 -23.174634361768305 28.75279267695695
v -42.86038875579834 -23.174637556076355 1.9021405226611306e-06
v -42.86038875579834 -27.31259167194397 2.576298813254912e-06
v -42.86038875579834 -27.31258996775204 28.752793351115482
v 17.473505437374115 40.556482734941156 7.699094065709235
v 17.473503947257996 40.556484460830816 -5.8436989645785494e-06
v -0.7040383294224739 45.212587714195244 -7.3968400939794705e-06
v -0.7040381897240877 45.21258770106049 18.21190723287684
v -0.7040381897240877 45.21258770106049 18.21190723287684
v -0.7040383294224739 45.212587714195244 -7.3968400939794705e-06
v -39.327046275138855 39.885210990905485 -8.217165643108638e-06
v -39.327046275138855 39.885210977770754 18.21190661070055
v 22.40441143512726 -25.851130485534508 5.191011705392174e-06
v 22.404414415359497 -25.851137023093678 -21.834711989144356
v 30.408284068107605 -24.921146936851613 -14.680596106151032
v 29.633629322052002 -25.851130485534416 5.754456551727589e-06
v 0.5196874029934406 -25.07777345454396 28.519548091082594
v 0.5196877289563417 -25.077775120735165 4.1084044850281626e-06
v 22.40441143512726 -25.851130485534508 5.191011705392174e-06
v 21.2060809135437 -25.165887808343673 23.563588785369756
v -39.327046275138855 39.885210977770754 18.21190661070055
v -39.327046275138855 39.885210990905485 -8.217165643108638e-06
v -43.35503578186035 25.603219866752298 -6.176884303245582e-06
v -43.23807954788208 27.690595707376904 20.250320393548577
v 18.687810003757477 25.221708416938913 -3.2922678003981308e-06
v 17.489363253116608 21.653327958830268 12.908721912727636
v 27.09176540374756 17.426729034600715 8.117114893588994
v 27.048933506011963 21.493965268337483 -0.7304625213531568
v -42.86038875579834 -27.31258996775204 28.752793351115482
v -42.86038875579834 -27.31259167194397 2.576298813254912e-06
v 0.5196877289563417 -25.077775120735165 4.1084044850281626e-06
v 0.5196874029934406 -25.07777345454396 28.519548091082594
v 16.368672251701355 24.619490037311095 19.08489660657598
v 17.489363253116608 21.653327958830268 12.908721912727636
v 17.473505437374115 40.556482734941156 7.699094065709235
v 18.74254196882248 25.236762507685196 -12.53692620879691
v 16.368675231933594 24.619483818661195 -19.084904628622994
v 17.293907701969147 43.81011580145127 -8.85873033098107
v 18.687810003757477 25.221708416938913 -3.2922678003981308e-06
v 18.74254196882248 25.236762507685196 -12.53692620879691
v 17.293907701969147 43.81011580145127 -8.85873033098107
v 17.473503947257996 40.556484460830816 -5.8436989645785494e-06
v 17.489363253116608 21.653327958830268 12.908721912727636
v 18.687810003757477 25.221708416938913 -3.2922678003981308e-06
v 17.473503947257996 40.556484460830816 -5.8436989645785494e-06
v 17.473505437374115 40.556482734941156 7.699094065709235
v -43.23807954788208 27.690595707376904 20.250320393548577
v -43.35503578186035 25.603219866752298 -6.176884303245582e-06
v -42.86038875579834 -23.174637556076355 1.9021405226611306e-06
v -42.86038875579834 -23.174634361768305 28.75279267695695
v -43.35503578186035 25.603219866752298 -6.176884303245582e-06
v -43.94867718219757 23.495813687550264 -21.4638107551586
v -42.86038875579834 -23.174643730617007 -28.752791086165608
v -42.86038875579834 -23.174637556076355 1.9021405226611306e-06
v -35.79842448234558 28.00750064600137 32.17952987227207
v -43.23807954788208 27.690595707376904 20.250320393548577
v -42.86038875579834 -23.174634361768305 28.75279267695695
v -29.629477858543396 -27.051125175209666 47.521255847237136
v -43.94867718219757 23.495813687550264 -21.4638107551586
v -35.2813184261322 21.00774393006902 -33.80919739136967
v -29.62947189807892 -27.051140659598683 -47.5212470328593
v -42.86038875579834 -23.174643730617007 -28.752791086165608
v 30.408284068107605 -24.921146936851613 -14.680596106151032
v 30.408284068107605 -20.78319133086788 -14.680596780309566
v 29.633629322052002 -21.71317785978292 5.080298503904536e-06
v 29.633629322052002 -25.851130485534416 5.754456551727589e-06
v 30.408284068107605 -20.78319133086788 -14.680596780309566
v 25.620037317276 21.011206234876546 -10.820743884509742
v 27.048933506011963 21.493965268337483 -0.7304625213531568
v 29.633629322052002 -21.71317785978292 5.080298503904536e-06
v 28.871193528175354 -24.92114300358521 18.607888705632046
v 29.633629322052002 -25.851130485534416 5.754456551727589e-06
v 29.633629322052002 -21.71317785978292 5.080298503904536e-06
v 28.871193528175354 -20.783188887717596 18.607888031473756
v 28.871193528175354 -20.783188887717596 18.607888031473756
v 29.633629322052002 -21.71317785978292 5.080298503904536e-06
v 27.048933506011963 21.493965268337483 -0.7304625213531568
v 27.09176540374756 17.426729034600715 8.117114893588994
v 22.404414415359497 -25.851137023093678 -21.834711989144356
v 22.404414415359497 -21.713181417109944 -21.83471266330289
v 30.408284068107605 -20.78319133086788 -14.680596780309566
v 30.408284068107605 -24.921146936851613 -14.680596106151032
v 18.74254196882248 25.236762507685196 -12.53692620879691
v 18.687810003757477 25.221708416938913 -3.2922678003981308e-06
v 27.048933506011963 21.493965268337483 -0.7304625213531568
v 25.620037317276 21.011206234876546 -10.820743884509742
v 21.2060809135437 -21.0279292221277 23.563588111210738
v 21.2060809135437 -25.165887808343673 23.563588785369756
v 28.871193528175354 -24.92114300358521 18.607888705632046
v 28.871193528175354 -20.783188887717596 18.607888031473756
v 21.2060809135437 -25.165887808343673 23.563588785369756
v 22.40441143512726 -25.851130485534508 5.191011705392174e-06
v 29.633629322052002 -25.851130485534416 5.754456551727589e-06
v 28.871193528175354 -24.92114300358521 18.607888705632046
f 1 2 3
f 8 4 5
f 8 5 6
f 6 7 8
f 9 10 11
f 9 11 12
f 13 14 15
f 13 15 16
f 17 18 19
f 17 19 20
f 21 22 23
f 24 25 26
f 24 26 27
f 28 29 30
f 28 30 31
f 32 33 34
f 35 36 37
f 35 37 38
f 39 40 41
f 42 43 44
f 42 44 45
f 46 47 48
f 46 48 49
f 50 51 52
f 53 54 55
f 56 57 58
f 56 58 59
f 60 61 62
f 60 62 63
f 64 65 66
f 64 66 67
f 68 69 70
f 68 70 71
f 72 73 74
f 72 74 75
f 76 77 78
f 76 78 79
f 80 81 82
f 80 82 83
f 84 85 86
f 84 86 87
f 88 89 90
f 88 90 91
f 92 93 94
f 92 94 95
f 96 97 98
f 96 98 99
f 100 101 102
f 100 102 103
f 104 105 106
f 111 107 108
f 111 108 109
f 109 110 111
f 112 113 114
f 112 114 115
f 116 117 118
f 116 118 119
f 120 121 122
f 120 122 123
f 124 125 126
f 127 128 129
f 127 129 130
f 131 132 133
f 131 133 134
f 135 136 137
f 138 139 140
f 138 140 141
f 142 143 144
f 145 146 147
f 145 147 148
f 149 150 151
f 149 151 152
f 153 154 155
f 156 157 158
f 159 160 161
f 159 161 162
f 163 164 165
f 163 165 166
f 167 168 169
f 167 169 170
f 171 172 173
f 171 173 174
f 175 176 177
f 175 177 178
f 179 180 181
f 179 181 182
f 183 184 185
f 183 185 186
f 187 188 189
f 187 189 190
f 191 192 193
f 191 193 194
f 195 196 197
f 195 197 198
f 199 200 201
f 199 201 202
f 203 204 205
f 203 205 206
f 207 208 209
f 210 211 212
f 213 214 215
f 213 215 216
f 217 218 219
f 217 219 220
f 221 222 223
f 221 223 224
f 225 226 227
f 225 227 228
f 229 230 231
f 229 231 232
f 233 234 235
f 233 235 236
f 237 238 239
f 237 239 240
f 241 242 243
f 241 243 244
f 245 246 247
f 245 247 248
f 249 250 251
f 249 251 252
f 253 254 255
f 253 255 256
f 257 258 259
f 257 259 260
f 261 262 263
f 261 263 264
f 265 266 267
f 265 267 268
