v 16.716507077217102 37.09481591290013 -4.005719059307424
v 12.25794032216072 45.413697579976066 4.996758006109379
v 23.74676764011383 23.72516766933227 13.764984020631957
v -26.443886756896973 -0.204483178279548 8.055442604954766
v -23.526521027088165 14.728486095521136 6.430758371461376
v -24.52777326107025 14.728482581542414 -15.13788940061237
v -24.52777326107025 -0.20448695695252989 -15.137886967722846
v 27.29955017566681 11.760343091888599 15.104774704862198
v 23.74676764011383 23.72516766933227 13.764984020631957
v -3.8577422499656677 30.47070484319247 17.1314979620422
v -10.98005697131157 7.699103449026067 21.6110395762696
v -20.731082558631897 18.21191550790928 5.5791996550777405
v -13.784182071685791 44.32669734962201 9.512563278638503
v -19.675828516483307 46.14715723681107 -9.23849053004896
v -21.732333302497864 18.211911993930556 -15.989448116996005
v 23.648448288440704 -13.709747474835899 -7.203882189177919
v -23.648448288440704 -13.709745127512429 7.203886656380248
v -21.732333302497864 -7.264811170389436 -15.989443966310992
v 15.379229187965393 -7.2648141616299755 -34.34954763309337
v -19.675828516483307 46.14715723681107 -9.23849053004896
v -13.784182071685791 44.32669734962201 9.512563278638503
v -13.468866050243378 54.152323533924026 10.54765966430058
v -15.299421548843384 55.46564399244451 -3.7169263724875212
v 30.852332711219788 -7.264805886218693 16.44456504924916
v -13.55896145105362 -7.264804234870833 26.580466023522842
v -23.648448288440704 -13.709745127512429 7.203886656380248
v 23.648448288440704 -13.709747474835899 -7.203882189177919
v -21.732333302497864 18.211911993930556 -15.989448116996005
v -19.675828516483307 46.14715723681107 -9.23849053004896
v 16.010406613349915 47.22048048519757 -18.02768731536649
v 14.294084906578064 37.56130787073175 -27.296212474609383
v 14.836657047271729 18.67840979994088 -30.822879138871798
v 14.294084906578064 37.56130787073175 -27.296212474609383
v 16.010406613349915 47.22048048519757 -18.02768731536649
v 12.25794032216072 45.413697579976066 4.996758006109379
v 16.716507077217102 37.09481591290013 -4.005719059307424
v 12.25794032216072 45.413697579976066 4.996758006109379
v 16.010406613349915 47.22048048519757 -18.02768731536649
v 12.461867928504944 52.45139984975443 -12.884649239082524
v 16.010406613349915 47.22048048519757 -18.02768731536649
v -19.675828516483307 46.14715723681107 -9.23849053004896
v -15.299421548843384 55.46564399244451 -3.7169263724875212
v 12.461867928504944 52.45139984975443 -12.884649239082524
v -13.784182071685791 44.32669734962201 9.512563278638503
v 12.25794032216072 45.413697579976066 4.996758006109379
v -13.468866050243378 54.152323533924026 10.54765966430058
v -16.354401409626007 -0.20448002143416955 27.432021531994867
v -14.378194510936737 5.519778171095006 24.474879200011216
v -23.526521027088165 14.728486095521136 6.430758371461376
v -26.443886756896973 -0.204483178279548 8.055442604954766
v 30.852332711219788 -7.264805886218693 16.44456504924916
v 34.81070399284363 -0.20448200797023372 15.238750014241266
v 31.737810373306274 -0.20448133794123047 19.351358745034265
v 18.79502981901169 18.67840960348838 -32.028696003839144
v 19.666817784309387 35.50732903171325 -26.06755477512845
v 20.674878358840942 33.47610150307671 -5.211533099537217
v 24.140848219394684 18.445164345751532 -6.81061672670798
v 24.140848219394684 18.445164345751532 -6.81061672670798
v 20.674878358840942 33.47610150307671 -5.211533099537217
v 27.14892029762268 22.35584113474318 9.35819082817703
v 31.25792145729065 11.760342895436583 13.89896082012709
v 30.852332711219788 -7.264805886218693 16.44456504924916
v 23.648448288440704 -13.709747474835899 -7.203882189177919
v 27.606818079948425 -0.2044858607915868 -8.409699019257499
v 34.81070399284363 -0.20448200797023372 15.238750014241266
v 14.836657047271729 18.67840979994088 -30.822879138871798
v 14.294084906578064 37.56130787073175 -27.296212474609383
v 19.666817784309387 35.50732903171325 -26.06755477512845
v 18.79502981901169 18.67840960348838 -32.028696003839144
v 23.648448288440704 -13.709747474835899 -7.203882189177919
v 15.379229187965393 -7.2648141616299755 -34.34954763309337
v 19.337598979473114 -0.20449028338151654 -35.55536266810126
v 27.606818079948425 -0.2044858607915868 -8.409699019257499
v 15.379229187965393 -7.2648141616299755 -34.34954763309337
v 14.836657047271729 18.67840979994088 -30.822879138871798
v 18.79502981901169 18.67840960348838 -32.028696003839144
v 19.337598979473114 -0.20449028338151654 -35.55536266810126
v 27.606818079948425 -0.2044858607915868 -8.409699019257499
v 24.140848219394684 18.445164345751532 -6.81061672670798
v 31.25792145729065 11.760342895436583 13.89896082012709
v 34.81070399284363 -0.20448200797023372 15.238750014241266
v 19.337598979473114 -0.20449028338151654 -35.55536266810126
v 18.79502981901169 18.67840960348838 -32.028696003839144
v 24.140848219394684 18.445164345751532 -6.81061672670798
v 27.606818079948425 -0.2044858607915868 -8.409699019257499
v 23.74676764011383 23.72516766933227 13.764984020631957
v 27.29955017566681 11.760343091888599 15.104774704862198
v 31.25792145729065 11.760342895436583 13.89896082012709
v 27.14892029762268 22.35584113474318 9.35819082817703
v 31.25792145729065 11.760342895436583 13.89896082012709
v 27.29955017566681 11.760343091888599 15.104774704862198
v 28.185030817985535 11.760343565465586 18.01156955092009
v -21.732333302497864 -7.264811170389436 -15.989443966310992
v -21.732333302497864 18.211911993930556 -15.989448116996005
v 14.836657047271729 18.67840979994088 -30.822879138871798
v 15.379229187965393 -7.2648141616299755 -34.34954763309337
v -13.55896145105362 -7.264804234870833 26.580466023522842
v -12.673482298851013 -0.20447968659361312 29.487258229191827
v -16.354401409626007 -0.20448002143416955 27.432021531994867
v 31.737810373306274 -0.20448133794123047 19.351358745034265
v 28.185030817985535 11.760343565465586 18.01156955092009
v -10.697276890277863 5.519778505935562 26.530115897208177
v -12.673482298851013 -0.20447968659361312 29.487258229191827
v -21.732333302497864 -7.264811170389436 -15.989443966310992
v -23.648448288440704 -13.709745127512429 7.203886656380248
v -26.443886756896973 -0.204483178279548 8.055442604954766
v -24.52777326107025 -0.20448695695252989 -15.137886967722846
v -13.55896145105362 -7.264804234870833 26.580466023522842
v 30.852332711219788 -7.264805886218693 16.44456504924916
v 31.737810373306274 -0.20448133794123047 19.351358745034265
v -12.673482298851013 -0.20447968659361312 29.487258229191827
v 27.29955017566681 11.760343091888599 15.104774704862198
v -10.98005697131157 7.699103449026067 21.6110395762696
v -10.697276890277863 5.519778505935562 26.530115897208177
v 28.185030817985535 11.760343565465586 18.01156955092009
v -10.98005697131157 7.699103449026067 21.6110395762696
v -3.8577422499656677 30.47070484319247 17.1314979620422
v -13.784182071685791 44.32669734962201 9.512563278638503
v -20.731082558631897 18.21191550790928 5.5791996550777405
v -10.697276890277863 5.519778505935562 26.530115897208177
v -10.98005697131157 7.699103449026067 21.6110395762696
v -14.378194510936737 5.519778171095006 24.474879200011216
v -21.732333302497864 18.211911993930556 -15.989448116996005
v -21.732333302497864 -7.264811170389436 -15.989443966310992
v -24.52777326107025 -0.20448695695252989 -15.137886967722846
v -24.52777326107025 14.728482581542414 -15.13788940061237
v -23.648448288440704 -13.709745127512429 7.203886656380248
v -13.55896145105362 -7.264804234870833 26.580466023522842
v -16.354401409626007 -0.20448002143416955 27.432021531994867
v -26.443886756896973 -0.204483178279548 8.055442604954766
v -14.378194510936737 5.519778171095006 24.474879200011216
v -16.354401409626007 -0.20448002143416955 27.432021531994867
v -12.673482298851013 -0.20447968659361312 29.487258229191827
v -10.697276890277863 5.519778505935562 26.530115897208177
v 34.81070399284363 -0.20448200797023372 15.238750014241266
v 31.25792145729065 11.760342895436583 13.89896082012709
v 28.185030817985535 11.760343565465586 18.01156955092009
v 31.737810373306274 -0.20448133794123047 19.351358745034265
f 1 2 3
f 4 5 6
f 4 6 7
f 8 9 10
f 8 10 11
f 12 13 14
f 12 14 15
f 16 17 18
f 16 18 19
f 20 21 22
f 20 22 23
f 24 25 26
f 24 26 27
f 32 28 29
f 29 30 31
f 29 31 32
f 33 34 35
f 33 35 36
f 37 38 39
f 40 41 42
f 40 42 43
f 44 45 46
f 47 48 49
f 47 49 50
f 51 52 53
f 54 55 56
f 54 56 57
f 58 59 60
f 58 60 61
f 62 63 64
f 62 64 65
f 66 67 68
f 66 68 69
f 70 71 72
f 70 72 73
f 74 75 76
f 74 76 77
f 78 79 80
f 78 80 81
f 82 83 84
f 82 84 85
f 86 87 88
f 86 88 89
f 90 91 92
f 93 94 95
f 93 95 96
f 97 98 99
f 100 101 102
f 100 102 103
f 104 105 106
f 104 106 107
f 108 109 110
f 108 110 111
f 112 113 114
f 112 114 115
f 116 117 118
f 116 118 119
f 120 121 122
f 123 124 125
f 123 125 126
f 127 128 129
f 127 129 130
f 131 132 133
f 131 133 134
f 135 136 137
f 135 137 138
v -3.8577422499656677 30.47070484319247 17.1314979620422
v 23.74676764011383 23.72516766933227 13.764984020631957
v 12.25794032216072 45.413697579976066 4.996758006109379
v -13.784182071685791 44.32669734962201 9.512563278638503
v -13.468866050243378 54.152323533924026 10.54765966430058
v 12.25794032216072 45.413697579976066 4.996758006109379
v 12.461867928504944 52.45139984975443 -12.884649239082524
v -15.299421548843384 55.46564399244451 -3.7169263724875212
v 14.294084906578064 37.56130787073175 -27.296212474609383
v 16.716507077217102 37.09481591290013 -4.005719059307424
v 20.674878358840942 33.47610150307671 -5.211533099537217
v 19.666817784309387 35.50732903171325 -26.06755477512845
v -20.731082558631897 18.21191550790928 5.5791996550777405
v -21.732333302497864 18.211911993930556 -15.989448116996005
v -24.52777326107025 14.728482581542414 -15.13788940061237
v -23.526521027088165 14.728486095521136 6.430758371461376
v 16.716507077217102 37.09481591290013 -4.005719059307424
v 23.74676764011383 23.72516766933227 13.764984020631957
v 27.14892029762268 22.35584113474318 9.35819082817703
v 20.674878358840942 33.47610150307671 -5.211533099537217
v -10.98005697131157 7.699103449026067 21.6110395762696
v -20.731082558631897 18.21191550790928 5.5791996550777405
v -23.526521027088165 14.728486095521136 6.430758371461376
v -14.378194510936737 5.519778171095006 24.474879200011216
f 139 140 141
f 139 141 142
f 143 144 145
f 143 145 146
f 147 148 149
f 147 149 150
f 151 152 153
f 151 153 154
f 155 156 157
f 155 157 158
f 159 160 161
f 159 161 162
