o convex_0
v -28.889619 -1.409932 -22.192571
v 28.497351 0.643053 -20.142195
v 26.447014 0.643053 8.534990
v -25.811305 18.060922 -28.338083
v -3.268831 18.060922 22.882009
v -2.240854 -9.608328 24.932385
v 22.346340 18.060922 -23.214951
v 2.870946 -9.608328 -25.265327
v -21.710631 16.010645 19.809253
v -22.738608 -5.507776 15.708499
v 22.346340 -5.507776 20.837250
v 17.217688 18.060922 14.686120
v 25.419037 -1.407223 -29.366080
v -28.889619 -5.507776 -25.265327
v 22.346340 1.666837 23.915623
v -28.889619 -1.409932 -29.366080
v -2.240854 1.666837 28.010759
v 25.419037 -5.507776 -25.265327
v -22.738608 18.060922 15.708499
v 26.447014 11.910093 -20.142195
v 2.870946 -9.608328 24.932385
v -20.688271 -0.383439 20.837250
v 21.323980 14.984153 -26.293324
v -0.196134 16.010645 24.932385
v 25.419037 0.643053 20.837250
v -3.268831 -9.608328 -25.265327
v 24.396677 2.690621 -29.366080
v -26.833665 14.984153 -23.214951
v 28.497351 -1.407223 -25.265327
v 15.167351 -1.409932 25.966000
v 14.144991 18.060922 17.758876
v -27.856025 6.785756 -29.366080
f 28 4 32 
f 4 5 7 
f 7 5 12 
f 6 10 14 
f 10 1 14 
f 13 8 16 
f 14 1 16 
f 8 13 18 
f 5 4 19 
f 9 5 19 
f 10 9 19 
f 1 10 19 
f 3 2 20 
f 7 12 20 
f 6 8 21 
f 17 6 21 
f 18 11 21 
f 8 18 21 
f 10 6 22 
f 9 10 22 
f 17 9 22 
f 6 17 22 
f 4 7 23 
f 5 9 24 
f 9 17 24 
f 15 11 25 
f 12 15 25 
f 3 20 25 
f 20 12 25 
f 8 6 26 
f 6 14 26 
f 16 8 26 
f 14 16 26 
f 13 16 27 
f 4 23 27 
f 23 7 27 
f 16 1 28 
f 1 19 28 
f 19 4 28 
f 2 3 29 
f 11 18 29 
f 18 13 29 
f 20 2 29 
f 7 20 29 
f 3 25 29 
f 25 11 29 
f 13 27 29 
f 27 7 29 
f 11 15 30 
f 21 11 30 
f 17 21 30 
f 15 24 30 
f 24 17 30 
f 12 5 31 
f 15 12 31 
f 5 24 31 
f 24 15 31 
f 4 27 32 
f 27 16 32 
f 16 28 32 
o convex_1
v -21.713101 22.165888 16.741010
v 21.324946 19.089019 -13.994275
v 21.324946 18.060922 -13.994275
v -25.815258 18.060922 -28.346911
v -6.338085 55.978042 8.537398
v 14.149631 18.060922 17.768305
v -11.464628 50.848690 -19.120919
v 6.974316 54.949945 16.741010
v 20.295945 20.113405 -24.242647
v -15.562172 46.754858 16.741010
v -4.293928 18.060922 21.867654
v 15.174016 38.552349 -15.021570
v -22.737487 38.552349 -21.170593
v -18.639943 36.511001 -27.319616
v -6.338085 52.901173 -16.048865
v 16.193788 31.385360 9.564692
v -22.737487 18.060922 15.713716
v 19.271560 32.409746 -13.994275
v -8.386857 55.978042 14.691336
v 19.271560 18.060922 -25.269942
v 9.023087 46.754858 -9.899841
v 17.222788 20.113405 13.664041
v 0.828001 22.165888 21.867654
v -25.815258 19.089019 -18.098539
v 17.222788 23.186562 -24.247562
v -9.415857 54.949945 -1.710974
v -11.464628 47.779244 -21.170593
v -13.513400 43.677990 17.768305
v 6.974316 54.949945 14.691336
v -11.464628 52.901173 14.691336
v -20.684101 19.089019 17.768305
v 19.271560 31.385360 -18.093624
f 57 47 64 
f 36 35 38 
f 34 35 41 
f 36 38 43 
f 33 42 45 
f 36 45 46 
f 45 39 46 
f 36 43 49 
f 33 45 49 
f 48 34 50 
f 40 48 50 
f 40 37 51 
f 42 40 51 
f 35 36 52 
f 41 35 52 
f 36 46 52 
f 44 47 53 
f 35 34 54 
f 38 35 54 
f 40 38 54 
f 34 48 54 
f 48 40 54 
f 38 40 55 
f 43 38 55 
f 45 36 56 
f 36 49 56 
f 49 45 56 
f 41 52 57 
f 52 46 57 
f 39 45 58 
f 37 47 58 
f 47 39 58 
f 51 37 58 
f 46 39 59 
f 39 47 59 
f 57 46 59 
f 47 57 59 
f 40 42 60 
f 55 40 60 
f 43 55 60 
f 37 40 61 
f 47 37 61 
f 40 50 61 
f 50 44 61 
f 44 53 61 
f 53 47 61 
f 45 42 62 
f 42 51 62 
f 58 45 62 
f 51 58 62 
f 42 33 63 
f 33 49 63 
f 49 43 63 
f 60 42 63 
f 43 60 63 
f 34 41 64 
f 47 44 64 
f 50 34 64 
f 44 50 64 
f 41 57 64 
