o convex_0
v 28.178878 0.743444 -24.750175
v -35.648628 -0.520467 -29.175286
v -35.648628 -0.520467 30.860486
v -35.648628 0.743444 -29.175286
v 26.910575 -0.520467 -27.277131
v 25.648520 0.743444 30.860486
v 25.648520 -0.520467 30.860486
v -35.648628 0.111489 30.860486
v 25.017492 0.743444 -29.175286
v 25.017492 -0.520467 -29.175286
v 28.178878 -0.520467 -19.690386
v 23.749189 0.743444 30.860486
v -35.648628 0.743444 -28.540609
v 26.279547 0.111489 20.746786
v 28.178878 -0.520467 -25.378975
v 28.178878 0.111489 -19.690386
v 26.279547 -0.520467 20.746786
v 28.178878 0.743444 -22.852019
v 26.279547 0.743444 -27.905931
v 28.178878 0.111489 -25.378975
v 26.910575 0.743444 4.315696
v 26.910575 0.111489 -27.277131
v 27.541602 0.743444 -26.013653
f 20 19 23 
f 2 3 4 
f 3 2 5 
f 1 4 6 
f 3 5 7 
f 6 3 7 
f 4 3 8 
f 3 6 8 
f 2 4 9 
f 4 1 9 
f 9 5 10 
f 5 2 10 
f 2 9 10 
f 7 5 11 
f 6 4 12 
f 8 6 12 
f 8 12 13 
f 4 8 13 
f 12 4 13 
f 6 7 14 
f 1 11 15 
f 11 5 15 
f 11 1 16 
f 14 11 16 
f 7 11 17 
f 14 7 17 
f 11 14 17 
f 1 6 18 
f 16 1 18 
f 9 1 19 
f 1 15 20 
f 15 5 20 
f 6 14 21 
f 14 16 21 
f 18 6 21 
f 16 18 21 
f 5 9 22 
f 9 19 22 
f 20 5 22 
f 19 20 22 
f 19 1 23 
f 1 20 23 
o convex_1
v -39.440361 11.485932 39.075908
v -35.648628 0.746115 44.131552
v -36.281078 0.746115 44.131552
v -35.648628 18.435341 40.972269
v -35.648628 -0.518673 41.603730
v -39.440361 0.112732 43.499102
v -39.440361 18.435341 40.339819
v -35.648628 18.435341 39.708358
v -39.440361 -0.518673 41.603730
v -39.440361 19.702109 39.075908
v -39.440361 15.907743 40.972269
v -38.807910 11.485932 39.075908
v -35.648628 -0.518673 44.131552
v -36.912786 18.435341 40.972269
v -39.440361 -0.518673 43.499102
v -38.807910 19.702109 39.075908
v -35.648628 17.803937 39.708358
v -39.440361 19.702109 39.708358
v -39.440361 8.328909 42.235191
v -38.807910 19.702109 39.708358
v -36.281078 -0.518673 44.131552
f 38 36 44 
f 26 25 27 
f 27 25 28 
f 24 29 30 
f 27 28 31 
f 24 28 32 
f 29 24 32 
f 24 30 33 
f 30 29 34 
f 28 24 35 
f 24 33 35 
f 25 26 36 
f 28 25 36 
f 32 28 36 
f 26 27 37 
f 34 26 37 
f 30 34 37 
f 26 29 38 
f 29 32 38 
f 32 36 38 
f 27 31 39 
f 31 35 39 
f 35 33 39 
f 31 28 40 
f 28 35 40 
f 35 31 40 
f 33 30 41 
f 37 27 41 
f 30 37 41 
f 39 33 41 
f 29 26 42 
f 26 34 42 
f 34 29 42 
f 27 39 43 
f 41 27 43 
f 39 41 43 
f 36 26 44 
f 26 38 44 
o convex_2
v 15.539768 0.111489 40.339819
v -35.648628 -0.520467 30.860486
v -35.648628 0.111489 30.860486
v 15.539768 -0.520467 30.860486
v -35.648628 -0.520467 40.339819
v -35.648628 0.111489 40.339819
v 15.539768 0.111489 30.860486
v 15.539768 -0.520467 40.339819
f 49 48 52 
f 46 47 48 
f 47 46 49 
f 46 48 49 
f 45 47 50 
f 49 45 50 
f 47 49 50 
f 47 45 51 
f 48 47 51 
f 45 48 51 
f 48 45 52 
f 45 49 52 
o convex_3
v -26.169295 40.554126 -24.752154
v -40.072316 22.862753 -27.279110
v -35.646648 22.862753 -27.279110
v -29.963503 22.864670 -24.751845
v -27.434938 37.395911 -27.279110
v -29.962142 42.452507 -24.119642
v -40.072316 22.862753 -25.384048
v -26.170656 22.864670 -25.384048
v -29.962142 38.659581 -27.279110
v -33.752266 31.079481 -24.119642
v -26.169295 39.290457 -24.119642
v -40.072316 24.128340 -27.279110
v -26.170656 32.341233 -26.646907
v -26.170656 22.864670 -24.751845
v -29.962142 42.452507 -24.752154
v -40.072316 24.128340 -25.384048
v -26.169295 38.028705 -26.646907
v -26.802117 25.392009 -26.015323
v -28.067760 34.866655 -27.279110
v -33.752266 32.974027 -24.119642
v -29.329320 42.452507 -24.752154
v -26.802117 41.186920 -24.119642
v -32.489345 31.710357 -24.119642
v -29.329320 38.659581 -27.279110
v -28.066399 23.497464 -26.015323
v -26.802117 41.186920 -24.752154
v -33.120806 26.655679 -27.279110
v -26.170656 26.655679 -26.015323
v -28.699220 22.864670 -26.015323
v -26.802117 31.077563 -26.646907
v -27.434938 36.132242 -27.279110
v -29.329320 42.452507 -24.119642
f 74 73 84 
f 55 54 57 
f 54 55 59 
f 57 54 61 
f 59 56 62 
f 58 62 63 
f 54 59 64 
f 61 54 64 
f 59 55 66 
f 56 59 66 
f 55 60 66 
f 62 56 66 
f 64 58 67 
f 61 64 67 
f 64 59 68 
f 58 64 68 
f 53 63 69 
f 66 60 69 
f 63 66 69 
f 55 57 71 
f 62 58 72 
f 59 62 72 
f 58 68 72 
f 68 59 72 
f 67 58 73 
f 61 67 73 
f 63 53 74 
f 58 63 74 
f 63 62 75 
f 62 66 75 
f 66 63 75 
f 57 61 76 
f 69 57 76 
f 61 73 76 
f 73 69 76 
f 55 70 77 
f 70 60 77 
f 53 69 78 
f 69 73 78 
f 74 53 78 
f 73 74 78 
f 70 55 79 
f 55 71 79 
f 65 69 80 
f 69 60 80 
f 60 70 80 
f 70 65 80 
f 60 55 81 
f 55 77 81 
f 77 60 81 
f 65 70 82 
f 70 79 82 
f 79 71 82 
f 57 69 83 
f 69 65 83 
f 71 57 83 
f 65 82 83 
f 82 71 83 
f 73 58 84 
f 58 74 84 
o convex_4
v -33.753380 29.811974 1.158578
v -40.072316 22.862753 -25.383553
v -40.072316 24.127035 -25.383553
v -33.753380 30.444115 -25.383553
v -37.543752 22.862753 1.158578
v -34.385521 31.708398 -19.693727
v -38.807416 23.494894 1.158578
v -38.807416 22.862753 -24.118281
v -33.753380 27.916417 -0.738031
v -35.017662 29.180699 -0.106694
v -34.385521 31.708398 -25.383553
v -40.072316 23.494894 -15.903107
v -33.753380 29.811974 -22.853009
v -36.912848 23.494894 -0.738031
v -39.439557 22.862753 -5.793922
v -33.753380 31.708398 -19.693727
v -36.912848 28.548558 -23.486944
v -38.807416 24.127035 -2.634640
v -33.753380 27.916417 1.158578
v -34.385521 29.811974 1.158578
v -37.543752 24.759176 -25.383553
v -34.385521 30.444115 -4.531248
v -38.807416 22.862753 1.158578
v -33.753380 31.708398 -25.383553
v -35.017662 31.076257 -25.383553
v -35.017662 26.022592 0.524643
v -40.072316 22.862753 -15.903107
v -40.072316 24.127035 -23.486944
v -37.543752 22.862753 -3.265977
v -36.281325 27.286008 1.158578
v -34.385521 29.180699 -25.383553
v -35.017662 30.444115 -14.635237
f 94 106 116 
f 86 87 88 
f 89 85 91 
f 89 86 92 
f 88 85 93 
f 88 87 95 
f 87 86 96 
f 88 93 97 
f 86 89 99 
f 91 96 99 
f 85 88 100 
f 95 90 100 
f 96 91 102 
f 85 89 103 
f 93 85 103 
f 91 85 104 
f 86 88 105 
f 92 86 105 
f 85 100 106 
f 100 90 106 
f 104 85 106 
f 94 104 106 
f 89 91 107 
f 99 89 107 
f 91 99 107 
f 88 95 108 
f 100 88 108 
f 95 100 108 
f 95 87 109 
f 90 95 109 
f 101 90 109 
f 87 101 109 
f 92 97 110 
f 97 93 110 
f 89 98 110 
f 98 92 110 
f 103 89 110 
f 93 103 110 
f 96 86 111 
f 86 99 111 
f 99 96 111 
f 87 96 112 
f 101 87 112 
f 96 101 112 
f 89 92 113 
f 98 89 113 
f 92 98 113 
f 102 91 114 
f 94 102 114 
f 91 104 114 
f 104 94 114 
f 88 97 115 
f 97 92 115 
f 105 88 115 
f 92 105 115 
f 90 101 116 
f 101 96 116 
f 96 102 116 
f 102 94 116 
f 106 90 116 
o convex_5
v -39.440237 2.639311 41.603730
v -40.704024 -0.520158 30.860486
v -38.176697 -0.520158 30.860486
v -40.071883 2.639311 30.860486
v -38.176697 -0.520158 41.603730
v -38.808591 2.639311 37.811626
v -40.071883 -0.520158 39.074609
v -40.071883 2.639311 38.442592
v -39.440237 2.639311 30.860486
v -40.704024 1.375028 31.493555
v -39.440237 -0.520158 41.603730
v -38.176697 0.111983 30.860486
v -38.808591 2.639311 41.603730
v -38.176697 0.111983 41.603730
v -40.704024 -0.520158 32.756539
v -40.704024 0.743815 32.756539
v -40.704024 1.375028 30.860486
v -40.071883 0.111983 39.074609
f 124 132 134 
f 119 118 120 
f 118 119 121 
f 120 117 122 
f 118 121 123 
f 117 120 124 
f 119 120 125 
f 120 122 125 
f 124 120 126 
f 121 117 127 
f 117 123 127 
f 123 121 127 
f 121 119 128 
f 119 125 128 
f 125 122 128 
f 117 121 129 
f 122 117 129 
f 128 122 129 
f 128 129 130 
f 121 128 130 
f 129 121 130 
f 118 123 131 
f 126 118 131 
f 126 131 132 
f 124 126 132 
f 131 123 132 
f 120 118 133 
f 118 126 133 
f 126 120 133 
f 123 117 134 
f 117 124 134 
f 132 123 134 
o convex_6
v -45.756809 0.111489 -15.256181
v -35.649432 0.111489 -26.008780
v -35.649432 -0.520467 -26.008780
v -35.650483 -0.520467 41.603730
v -40.073841 0.743444 30.851131
v -46.389768 -0.520467 -21.581646
v -35.649432 0.743444 -29.174977
v -46.389768 0.743444 -26.008780
v -41.333451 -0.520467 27.061394
v -35.650483 0.111489 41.603730
v -43.863187 -0.520467 -29.174977
v -40.705749 0.743444 30.851131
v -38.177065 -0.520467 41.603730
v -35.649432 -0.520467 -29.174977
v -43.863187 0.743444 -29.174977
v -46.389768 0.743444 -21.581646
v -38.177065 0.111489 41.603730
v -46.389768 -0.520467 -26.008780
v -41.965359 0.743444 20.735928
v -40.705749 -0.520467 30.851131
v -43.861084 0.111489 3.055108
v -35.649432 0.743444 -28.537580
v -41.333451 0.111489 27.061394
v -43.861084 -0.520467 3.055108
v -41.333451 0.743444 26.430926
v -45.756809 -0.520467 -15.256181
f 140 158 160 
f 137 136 138 
f 137 138 140 
f 136 137 141 
f 139 141 142 
f 140 138 143 
f 138 136 144 
f 137 140 145 
f 139 142 146 
f 144 139 146 
f 143 138 147 
f 138 144 147 
f 141 137 148 
f 137 145 148 
f 145 141 148 
f 142 141 149 
f 141 145 149 
f 145 142 149 
f 140 135 150 
f 142 140 150 
f 146 142 150 
f 144 146 151 
f 147 144 151 
f 146 147 151 
f 140 142 152 
f 145 140 152 
f 142 145 152 
f 146 150 153 
f 146 143 154 
f 147 146 154 
f 143 147 154 
f 150 135 155 
f 153 150 155 
f 136 141 156 
f 141 139 156 
f 144 136 156 
f 139 144 156 
f 143 146 157 
f 155 143 157 
f 153 155 157 
f 140 143 158 
f 155 135 158 
f 143 155 158 
f 146 153 159 
f 157 146 159 
f 153 157 159 
f 135 140 160 
f 158 135 160 
o convex_7
v -40.072192 2.640795 30.862095
v -38.808529 11.486193 40.971774
v -38.808405 17.804758 39.074725
v -40.072192 17.804758 38.442375
v -39.440299 17.804758 30.862095
v -38.808529 2.639311 40.971774
v -40.072192 2.640795 38.442375
v -39.440299 2.640795 30.862095
v -40.072192 17.804758 30.862095
v -38.808405 2.640795 37.811015
v -39.440299 11.486193 40.971774
v -39.440299 2.639311 40.971774
v -38.808405 17.804758 37.811015
v -39.440299 17.804758 39.074725
v -38.808529 2.639311 39.075715
v -38.808405 2.640795 39.074725
v -39.440299 2.639311 39.075715
f 175 172 177 
f 164 163 165 
f 163 162 166 
f 164 161 167 
f 161 165 168 
f 161 164 169 
f 165 161 169 
f 164 165 169 
f 168 165 170 
f 162 163 171 
f 166 162 171 
f 164 167 171 
f 171 167 172 
f 167 161 172 
f 166 171 172 
f 165 163 173 
f 163 170 173 
f 170 165 173 
f 163 164 174 
f 171 163 174 
f 164 171 174 
f 161 168 175 
f 170 166 175 
f 168 170 175 
f 166 172 175 
f 163 166 176 
f 170 163 176 
f 166 170 176 
f 172 161 177 
f 161 175 177 
o convex_8
v -29.961214 40.555836 -7.061606
v -33.752328 29.181442 -5.164688
v -33.120187 29.181442 -5.164688
v -33.120187 31.078659 -24.119147
v -29.329506 36.763629 -24.119147
v -31.856338 39.922317 -3.900777
v -29.961647 39.292138 -24.119147
v -33.752761 32.343470 -24.119147
v -32.488479 30.447366 -2.634763
v -33.120620 34.869752 -2.634763
v -30.593788 39.291025 -2.634763
v -31.225496 40.555836 -9.585222
v -33.752328 31.077545 -2.634763
v -30.593355 34.238460 -23.486140
v -29.329506 38.027327 -19.694407
v -29.329506 39.292138 -24.119147
v -30.593355 39.292138 -20.958318
v -31.225496 40.555836 -2.634763
v -29.961214 39.922317 -7.061606
v -33.752761 30.446253 -20.327414
v -33.120187 30.446253 -20.327414
v -31.856771 31.711064 -5.797695
v -29.961214 40.555836 -13.374852
v -33.752328 29.181442 -2.634763
v -33.752328 32.341243 -16.533578
v -29.329506 36.763629 -22.853133
v -30.593788 38.658619 -3.269873
v -30.593788 40.555836 -2.634763
v -29.329506 39.292138 -19.694407
v -30.593788 40.555836 -13.374852
v -33.752761 31.078659 -24.119147
v -31.856338 39.922317 -2.634763
f 187 195 209 
f 182 181 184 
f 184 181 185 
f 187 186 188 
f 185 183 189 
f 186 187 190 
f 181 182 191 
f 182 180 191 
f 182 184 193 
f 192 182 193 
f 184 185 194 
f 185 189 194 
f 187 188 195 
f 178 189 195 
f 189 183 195 
f 178 188 196 
f 192 178 196 
f 180 179 197 
f 190 185 197 
f 191 180 198 
f 181 191 198 
f 180 197 198 
f 197 181 198 
f 189 178 200 
f 193 184 200 
f 178 193 200 
f 179 180 201 
f 180 186 201 
f 186 190 201 
f 197 179 201 
f 190 197 201 
f 187 185 202 
f 185 190 202 
f 190 187 202 
f 180 182 203 
f 186 180 203 
f 182 192 203 
f 192 196 203 
f 199 186 203 
f 196 199 203 
f 188 186 204 
f 196 188 204 
f 186 199 204 
f 199 196 204 
f 188 178 205 
f 178 195 205 
f 195 188 205 
f 178 192 206 
f 193 178 206 
f 192 193 206 
f 184 194 207 
f 194 189 207 
f 189 200 207 
f 200 184 207 
f 185 181 208 
f 181 197 208 
f 197 185 208 
f 183 185 209 
f 185 187 209 
f 195 183 209 
o convex_9
v 25.651056 0.111489 34.020883
v 15.539768 -0.520467 30.860486
v 15.539768 -0.520467 40.339819
v 23.754694 0.743444 30.860486
v 25.651056 -0.520467 30.860486
v 25.018605 0.743444 40.339819
v 25.018605 -0.520467 40.339819
v 15.539768 0.111489 40.339819
v 15.539768 0.111489 30.860486
v 25.018605 0.743444 30.860486
v 23.754694 0.743444 40.339819
v 25.651056 0.111489 30.860486
v 25.651056 -0.520467 34.020883
f 216 214 222 
f 212 211 214 
f 211 213 214 
f 212 214 216 
f 215 212 216 
f 210 215 216 
f 211 212 217 
f 212 215 217 
f 213 211 218 
f 211 217 218 
f 217 213 218 
f 214 213 219 
f 213 215 219 
f 215 210 219 
f 215 213 220 
f 213 217 220 
f 217 215 220 
f 210 214 221 
f 219 210 221 
f 214 219 221 
f 214 210 222 
f 210 216 222 
o convex_10
v -46.391624 -0.519230 -29.174544
v -43.864544 12.118643 -24.751597
v -43.864544 12.118643 -27.911092
v -43.864544 -0.519230 -26.015915
v -45.759792 5.799088 -24.751597
v -43.864544 -0.519230 -29.174544
v -45.127713 9.589831 -28.543251
v -46.391624 -0.519230 -26.015915
v -46.391624 2.008345 -29.174544
v -44.496376 12.118643 -24.751597
v -43.864544 11.485203 -28.543251
v -44.496376 5.169359 -24.751597
v -43.864544 3.271513 -29.174544
v -44.496376 12.118643 -27.911092
v -46.391624 2.008345 -26.015915
v -45.759792 4.535919 -24.751597
v -45.759545 3.903716 -29.174544
v -45.127713 9.589831 -24.751597
v -43.864544 8.957628 -24.751597
v -44.496376 11.485203 -28.543251
v -45.127713 4.535919 -24.751597
v -44.496623 3.903716 -29.174544
v -45.759792 5.799088 -28.543251
f 229 231 245 
f 225 224 226 
f 225 226 228 
f 226 223 228 
f 223 226 230 
f 228 223 231 
f 223 230 231 
f 224 225 232 
f 227 224 232 
f 225 228 233 
f 224 227 234 
f 228 231 235 
f 233 228 235 
f 232 225 236 
f 229 232 236 
f 225 233 236 
f 230 227 237 
f 227 231 237 
f 231 230 237 
f 230 226 238 
f 227 230 238 
f 234 227 238 
f 235 231 239 
f 229 227 240 
f 227 232 240 
f 232 229 240 
f 226 224 241 
f 224 234 241 
f 234 226 241 
f 231 229 242 
f 229 236 242 
f 236 233 242 
f 239 231 242 
f 233 239 242 
f 226 234 243 
f 238 226 243 
f 234 238 243 
f 233 235 244 
f 239 233 244 
f 235 239 244 
f 227 229 245 
f 231 227 245 
o convex_11
v 17.436624 19.702745 22.009831
v 20.593927 19.071453 -17.168131
v 21.227367 19.071453 -17.168131
v 18.067590 32.340291 -14.007550
v 14.907812 24.759582 22.009831
v 16.172218 31.073809 18.217912
v 19.330140 30.441217 -12.737082
v 19.962961 19.071453 -16.532897
v 18.699174 19.702745 13.794657
v 16.172837 19.071453 20.111923
v 14.907812 31.073809 21.378494
v 17.436005 31.073809 -10.211734
v 21.227367 20.966630 -16.532897
v 14.907812 31.073809 16.951341
v 18.698556 32.340291 -9.580397
v 16.804421 19.071453 22.645065
v 16.172218 26.654760 22.645065
v 18.699174 19.071453 13.794657
v 17.436005 29.811223 -8.945163
v 20.593927 22.863106 -17.168131
v 17.436005 32.340291 -10.211734
v 18.698556 32.340291 -14.007550
v 18.067590 29.811223 -14.007550
v 19.962961 22.863106 -17.168131
v 21.227367 19.071453 -14.634990
v 16.172218 29.178632 20.743260
v 14.907812 24.759582 22.645065
v 15.540634 30.443815 9.994944
v 15.540634 31.073809 21.378494
v 16.172837 19.071453 22.645065
v 14.907812 28.547339 22.645065
v 16.172837 20.966630 16.320005
f 253 255 277 
f 247 248 253 
f 253 248 255 
f 252 254 258 
f 250 256 259 
f 251 254 260 
f 254 252 260 
f 255 248 261 
f 261 246 262 
f 254 246 263 
f 246 261 263 
f 261 248 263 
f 253 250 264 
f 250 257 264 
f 248 247 265 
f 258 248 265 
f 249 257 266 
f 259 256 266 
f 260 249 266 
f 256 260 266 
f 252 258 267 
f 249 260 267 
f 260 252 267 
f 265 249 267 
f 258 265 267 
f 257 249 268 
f 253 264 268 
f 264 257 268 
f 247 253 269 
f 265 247 269 
f 249 265 269 
f 268 249 269 
f 253 268 269 
f 248 258 270 
f 258 254 270 
f 254 263 270 
f 263 248 270 
f 246 254 271 
f 254 251 271 
f 262 246 271 
f 250 255 272 
f 256 250 272 
f 261 262 272 
f 257 250 273 
f 250 259 273 
f 266 257 273 
f 259 266 273 
f 251 260 274 
f 260 256 274 
f 271 251 274 
f 262 271 274 
f 255 261 275 
f 272 255 275 
f 261 272 275 
f 256 272 276 
f 272 262 276 
f 274 256 276 
f 262 274 276 
f 250 253 277 
f 255 250 277 
o convex_12
v -46.391191 0.743815 -26.015508
v -39.440361 4.535177 30.860486
v -40.073120 4.535177 30.860486
v -40.705199 0.743815 30.860486
v -39.440361 0.743815 30.225809
v -44.494953 4.535177 -23.482367
v -45.759111 4.535177 -21.589469
v -45.127032 0.743815 -24.740587
v -40.073120 3.902789 18.851724
v -45.759111 1.375833 -16.534320
v -40.705199 4.535177 27.063557
v -40.705199 2.007850 30.860486
v -45.759111 4.535177 -26.015508
v -39.440361 4.535177 26.434447
v -45.127032 1.375833 -26.015508
v -46.391191 0.743815 -22.853257
v -44.494953 3.902789 -23.482367
v -41.337279 0.743815 25.799770
v -40.705199 0.743815 17.587936
v -46.391191 2.007850 -24.111477
v -45.127032 4.535177 -26.015508
v -40.073120 4.535177 18.851724
v -39.440361 2.639496 27.063557
v -41.337279 1.375833 25.799770
v -39.440361 0.743815 30.860486
v -40.073120 1.375833 22.643085
v -45.127032 3.270771 -13.366501
v -46.391191 2.007850 -26.015508
v -43.231475 3.902789 -11.473604
v -46.391191 1.375833 -22.853257
v -45.759111 0.743815 -16.534320
v -43.863554 4.535177 -3.256203
f 304 288 309 
f 279 280 281 
f 281 278 282 
f 280 279 283 
f 280 283 284 
f 282 278 285 
f 280 284 288 
f 281 280 289 
f 280 288 289 
f 284 283 290 
f 279 282 291 
f 283 279 291 
f 285 278 292 
f 278 290 292 
f 278 281 293 
f 292 283 294 
f 281 289 295 
f 293 281 295 
f 282 285 296 
f 285 292 296 
f 284 290 297 
f 278 293 297 
f 290 283 298 
f 283 292 298 
f 292 290 298 
f 283 291 299 
f 291 286 299 
f 291 282 300 
f 286 291 300 
f 288 287 301 
f 289 288 301 
f 295 289 301 
f 287 295 301 
f 279 281 302 
f 281 282 302 
f 282 279 302 
f 292 286 303 
f 282 296 303 
f 296 292 303 
f 300 282 303 
f 286 300 303 
f 284 287 304 
f 287 288 304 
f 290 278 305 
f 297 290 305 
f 278 297 305 
f 286 292 306 
f 294 283 306 
f 292 294 306 
f 283 299 306 
f 299 286 306 
f 287 284 307 
f 293 287 307 
f 284 297 307 
f 297 293 307 
f 287 293 308 
f 295 287 308 
f 293 295 308 
f 288 284 309 
f 284 304 309 
o convex_13
v 24.385784 8.326168 -12.109518
v 23.122801 0.743444 30.855909
v 22.489732 1.375894 30.855909
v 25.649819 0.744558 -17.162564
v 16.804730 7.693717 39.072196
v 25.018853 1.375894 38.438385
v 18.700783 12.118643 27.064671
v 21.227800 11.485079 -16.528753
v 27.545871 1.375894 -19.063998
v 23.121749 11.485079 -15.900756
v 17.435696 12.118643 30.855909
v 24.386836 0.743444 40.339819
v 18.068765 8.326168 40.339819
v 21.860869 10.222405 -19.063998
v 17.436748 6.431044 40.339819
v 22.490783 12.118643 -19.063998
v 24.385784 1.375894 -8.312465
v 17.435696 12.118643 25.797048
v 27.545871 0.744558 -15.266945
v 27.545871 1.375894 -15.266945
v 23.122801 0.743444 40.339819
v 18.069817 12.118643 30.855909
v 18.700783 8.326168 17.586575
v 24.386836 2.008345 39.706008
v 25.017801 2.639682 -19.063998
v 23.754818 8.326168 1.171445
v 21.227800 12.118643 -16.528753
v 25.017801 0.744558 -10.841896
v 18.700783 5.800820 27.698482
v 24.385784 8.958618 -19.063998
v 17.435696 10.853742 26.430859
v 16.804730 8.326168 40.339819
f 320 327 341 
f 321 322 324 
f 316 319 325 
f 320 316 325 
f 318 323 325 
f 320 325 327 
f 311 313 328 
f 313 318 328 
f 321 311 328 
f 315 321 328 
f 310 315 329 
f 328 318 329 
f 315 328 329 
f 312 311 330 
f 311 321 330 
f 324 312 330 
f 321 324 330 
f 316 320 331 
f 320 322 331 
f 314 317 332 
f 317 323 332 
f 315 316 333 
f 321 315 333 
f 322 321 333 
f 316 331 333 
f 331 322 333 
f 318 313 334 
f 323 318 334 
f 313 326 334 
f 332 323 334 
f 326 332 334 
f 315 310 335 
f 316 315 335 
f 310 319 335 
f 319 316 335 
f 323 317 336 
f 325 323 336 
f 317 327 336 
f 327 325 336 
f 311 312 337 
f 313 311 337 
f 312 324 337 
f 326 313 337 
f 326 337 338 
f 324 314 338 
f 314 332 338 
f 332 326 338 
f 337 324 338 
f 319 310 339 
f 318 325 339 
f 325 319 339 
f 310 329 339 
f 329 318 339 
f 317 314 340 
f 314 327 340 
f 327 317 340 
f 322 320 341 
f 314 324 341 
f 324 322 341 
f 327 314 341 
o convex_14
v -35.016858 36.762681 22.641292
v -34.384964 28.549486 1.158578
v -34.384964 29.814139 1.158578
v -36.912539 28.549486 26.432530
v -33.753070 31.709944 28.328149
v -33.753070 40.556641 28.328149
v -33.752761 28.549486 8.110150
v -36.280336 28.549486 30.860486
v -36.912539 30.445291 28.331056
v -33.753070 34.238075 8.743962
v -34.384964 40.556641 26.432530
v -34.384964 34.238075 8.743962
v -36.912539 29.814139 30.860486
v -33.752761 29.814139 1.158578
v -35.648442 28.549486 27.700152
v -34.384964 40.556641 28.328149
v -36.280336 32.974597 26.432530
v -35.016858 29.182988 6.214531
v -33.753070 39.923139 24.539818
v -34.384964 35.501553 11.904296
v -33.752761 28.549486 1.158578
v -34.384964 30.445291 1.792389
v -36.912539 29.814139 27.066341
v -36.912539 28.549486 30.860486
v -36.912539 30.445291 30.226675
v -34.384964 28.549486 15.067537
v -36.280336 29.814139 30.860486
v -35.016858 28.549486 6.214531
v -34.384964 33.606924 7.482154
v -33.752761 30.445291 1.792389
v -33.753070 35.501553 11.904296
v -36.280336 29.182988 19.483865
f 359 369 373 
f 347 346 348 
f 345 343 348 
f 345 348 349 
f 350 345 354 
f 343 344 355 
f 349 348 356 
f 346 349 356 
f 347 352 357 
f 354 347 357 
f 352 342 358 
f 357 352 358 
f 344 343 359 
f 352 347 360 
f 342 352 361 
f 351 353 361 
f 358 342 361 
f 353 358 361 
f 352 360 361 
f 348 343 362 
f 343 355 362 
f 355 348 362 
f 355 344 363 
f 344 359 363 
f 363 359 364 
f 345 350 364 
f 350 358 364 
f 345 349 365 
f 354 345 365 
f 349 354 365 
f 350 354 366 
f 354 357 366 
f 358 350 366 
f 357 358 366 
f 348 346 367 
f 346 356 367 
f 356 348 367 
f 346 347 368 
f 349 346 368 
f 354 349 368 
f 347 354 368 
f 343 345 369 
f 359 343 369 
f 353 351 370 
f 358 353 370 
f 363 364 370 
f 364 358 370 
f 347 348 371 
f 348 355 371 
f 360 347 371 
f 355 363 371 
f 370 351 371 
f 363 370 371 
f 351 361 372 
f 361 360 372 
f 360 371 372 
f 371 351 372 
f 364 359 373 
f 345 364 373 
f 369 345 373 
o convex_15
v -26.168244 27.918025 -26.015230
v -17.955729 36.132952 -24.120013
v -15.427103 28.550476 -22.856411
v -16.058997 31.708769 -24.751257
v -25.536350 36.132952 -25.383244
v -24.272563 36.132952 -26.647217
v -24.271511 26.021664 -24.120384
v -15.427103 26.021664 -24.120384
v -19.851410 36.132952 -24.120013
v -17.955729 36.132952 -25.383244
v -26.168244 26.021664 -24.751257
v -16.690891 26.021664 -22.856411
v -26.167192 36.132952 -26.647217
v -23.007724 26.021664 -25.382873
v -15.427103 32.341219 -23.488398
v -24.904456 34.236591 -26.647217
v -26.168244 29.181936 -24.751257
v -16.690891 27.286565 -22.856411
v -17.955729 34.236591 -25.383244
v -24.271511 26.654114 -24.120384
v -15.427103 32.341219 -24.120384
v -15.427103 26.021664 -22.856411
v -26.167192 34.868051 -25.383244
v -26.168244 26.021664 -25.382873
v -24.904456 28.550476 -26.015230
v -26.167192 33.605130 -26.647217
v -20.482252 27.286565 -23.488398
v -16.058997 28.550476 -22.856411
v -25.536350 27.918025 -26.015230
v -26.167192 36.132952 -26.014859
v -24.272563 35.500502 -26.647217
v -16.058997 32.341219 -24.751257
f 383 394 405 
f 378 375 379 
f 376 375 382 
f 375 378 382 
f 379 375 383 
f 381 380 384 
f 380 381 385 
f 378 379 386 
f 381 384 387 
f 375 376 388 
f 376 381 388 
f 383 375 388 
f 386 379 389 
f 382 378 390 
f 374 384 390 
f 384 380 390 
f 386 374 390 
f 385 376 391 
f 377 381 392 
f 383 377 392 
f 379 383 392 
f 381 389 392 
f 382 390 393 
f 390 380 393 
f 381 377 394 
f 388 381 394 
f 383 388 394 
f 381 376 395 
f 376 385 395 
f 385 381 395 
f 390 378 396 
f 384 374 397 
f 374 387 397 
f 387 384 397 
f 381 387 398 
f 389 381 398 
f 374 386 399 
f 386 389 399 
f 380 385 400 
f 391 382 400 
f 385 391 400 
f 382 393 400 
f 393 380 400 
f 376 382 401 
f 391 376 401 
f 382 391 401 
f 387 374 402 
f 398 387 402 
f 389 398 402 
f 374 399 402 
f 399 389 402 
f 378 386 403 
f 386 390 403 
f 396 378 403 
f 390 396 403 
f 389 379 404 
f 379 392 404 
f 392 389 404 
f 377 383 405 
f 394 377 405 
o convex_16
v -38.176450 20.968271 30.860486
v -38.808075 20.333700 39.075104
v -38.176450 20.966044 38.443086
v -36.912827 29.179833 31.493308
v -40.072069 19.071239 30.862095
v -37.544824 20.333700 30.862095
v -40.072069 18.438896 38.443086
v -38.808075 17.807665 39.075104
v -36.280831 26.652685 30.860486
v -39.439701 17.807665 30.862095
v -37.544824 27.916259 32.757343
v -36.280831 28.548603 32.125325
v -38.176450 19.702470 38.443086
v -37.544824 27.916259 30.860486
v -39.439701 20.333700 39.075104
v -37.544824 20.333700 33.389360
v -40.072069 17.807665 38.443086
v -40.072069 19.071239 35.915017
v -38.176450 19.071239 30.862095
v -40.072069 17.807665 30.862095
v -36.280831 26.652685 31.493308
v -36.280831 29.179833 30.860486
v -37.544824 23.494306 36.547034
v -38.808075 17.807665 35.283000
v -36.280831 27.283915 32.125325
v -39.439701 17.807665 39.075104
v -37.544824 22.231845 36.547034
v -38.176450 19.071239 37.179052
v -36.912827 29.179833 30.860486
v -38.176450 23.494306 36.547034
v -36.280831 29.179833 31.493308
v -36.912827 27.916259 32.757343
f 428 417 437 
f 408 407 413 
f 411 406 414 
f 409 416 417 
f 408 413 418 
f 406 410 419 
f 414 406 419 
f 416 409 419 
f 410 416 419 
f 413 407 420 
f 413 411 421 
f 411 414 421 
f 412 410 422 
f 415 413 422 
f 420 412 422 
f 410 412 423 
f 416 410 423 
f 412 420 423 
f 420 416 423 
f 406 411 424 
f 415 406 424 
f 410 406 425 
f 406 415 425 
f 422 410 425 
f 415 422 425 
f 414 417 426 
f 421 414 426 
f 417 414 427 
f 414 419 427 
f 407 408 428 
f 408 418 428 
f 420 407 428 
f 411 413 429 
f 413 415 429 
f 424 411 429 
f 415 424 429 
f 426 417 430 
f 417 428 430 
f 413 420 431 
f 422 413 431 
f 420 422 431 
f 418 421 432 
f 421 426 432 
f 428 418 432 
f 426 430 432 
f 430 428 432 
f 418 413 433 
f 413 421 433 
f 421 418 433 
f 419 409 434 
f 409 427 434 
f 427 419 434 
f 416 420 435 
f 428 416 435 
f 420 428 435 
f 409 417 436 
f 417 427 436 
f 427 409 436 
f 417 416 437 
f 416 428 437 
o convex_17
v -28.697303 50.034921 -17.798377
v -29.960626 39.292730 -24.118096
v -30.592783 41.821603 -24.118096
v -31.224939 40.557692 -2.633155
v -31.224939 46.244240 -12.744705
v -28.697303 41.191751 -23.485072
v -29.961121 40.557692 -6.427089
v -30.592783 46.244240 -2.633155
v -30.592783 48.138003 -20.326264
v -28.697303 50.034921 -13.377728
v -31.224939 46.244240 -2.633155
v -28.697303 43.086566 -24.118096
v -29.960626 49.402966 -13.377728
v -30.592783 39.292730 -21.590208
v -29.960626 39.294833 -13.377728
v -31.224939 40.557692 -7.691033
v -30.592783 40.557692 -2.633155
v -29.329707 39.292730 -20.326264
v -28.697303 49.402966 -19.695344
v -30.592783 44.348373 -23.485072
v -28.697303 48.139055 -14.008649
v -29.329707 50.034921 -17.798377
v -30.592783 39.294833 -13.377728
v -29.329707 50.034921 -13.377728
v -29.329707 39.292730 -24.118096
v -29.960626 48.768907 -20.326264
v -30.592783 48.139055 -13.377728
v -29.329707 44.348373 -23.485072
v -31.224939 45.611233 -12.744705
v -30.592783 43.086566 -24.118096
v -30.592783 46.242137 -22.221128
v -28.697303 48.769959 -13.377728
f 458 447 469 
f 443 438 447 
f 442 441 448 
f 441 445 448 
f 445 447 448 
f 439 440 449 
f 438 443 449 
f 440 439 451 
f 441 442 453 
f 451 441 453 
f 445 441 454 
f 447 445 454 
f 441 452 454 
f 452 444 454 
f 443 444 455 
f 451 439 455 
f 444 452 455 
f 438 449 456 
f 444 443 458 
f 443 447 458 
f 447 438 459 
f 446 450 459 
f 438 456 459 
f 441 451 460 
f 452 441 460 
f 451 455 460 
f 455 452 460 
f 448 447 461 
f 450 448 461 
f 447 459 461 
f 459 450 461 
f 439 449 462 
f 449 443 462 
f 455 439 462 
f 443 455 462 
f 446 459 463 
f 459 456 463 
f 446 442 464 
f 442 448 464 
f 450 446 464 
f 448 450 464 
f 456 449 465 
f 449 457 465 
f 463 456 465 
f 442 440 466 
f 440 451 466 
f 453 442 466 
f 451 453 466 
f 440 442 467 
f 449 440 467 
f 457 449 467 
f 442 457 467 
f 442 446 468 
f 457 442 468 
f 446 463 468 
f 465 457 468 
f 463 465 468 
f 447 454 469 
f 454 444 469 
f 444 458 469 
o convex_18
v 13.643097 30.447803 24.540437
v 3.532613 29.181448 29.596081
v 3.532613 29.181448 30.228531
v 3.532613 43.714377 28.332170
v 14.273135 30.447803 20.117243
v 16.803679 19.074731 25.171897
v 6.061858 43.079993 28.332170
v 16.169744 19.074731 22.646055
v 14.907070 32.338893 20.750683
v 4.797885 31.077362 30.228531
v 3.532613 41.186491 27.700709
v 5.429222 43.714377 26.436798
v 3.532613 30.447803 28.963630
v 16.803679 20.336261 25.171897
v 13.643097 20.338673 25.804348
v 9.853777 39.288165 25.171897
v 16.803679 22.232175 22.646055
v 14.907070 31.706921 22.013604
v 4.165249 28.551889 28.963630
v 3.532613 38.658606 29.596081
v 7.957168 39.922549 27.700709
v 11.115151 23.498530 27.700709
v 14.907070 31.706921 20.117243
v 7.324532 42.450434 25.804348
v 12.377825 24.762473 27.068259
v 16.803679 19.074731 22.646055
v 4.165249 34.232394 30.228531
v 6.061858 43.714377 27.700709
v 4.797885 29.181448 30.228531
v 14.273135 31.706921 20.117243
v 13.010461 20.968233 25.172887
v 4.797885 41.816051 28.963630
f 496 476 501 
f 471 472 473 
f 471 473 480 
f 480 473 481 
f 471 480 482 
f 480 474 482 
f 477 475 484 
f 483 475 486 
f 483 486 487 
f 470 483 487 
f 478 485 487 
f 486 478 487 
f 472 471 488 
f 474 477 488 
f 471 482 488 
f 482 474 488 
f 484 472 488 
f 473 472 489 
f 483 470 490 
f 485 476 490 
f 470 487 490 
f 487 485 490 
f 475 483 491 
f 472 484 491 
f 484 475 491 
f 478 486 492 
f 485 478 493 
f 492 481 493 
f 478 492 493 
f 490 476 494 
f 483 490 494 
f 479 491 494 
f 491 483 494 
f 477 474 495 
f 475 477 495 
f 486 475 495 
f 474 492 495 
f 492 486 495 
f 472 479 496 
f 489 472 496 
f 494 476 496 
f 479 494 496 
f 473 476 497 
f 481 473 497 
f 476 485 497 
f 493 481 497 
f 485 493 497 
f 479 472 498 
f 472 491 498 
f 491 479 498 
f 474 480 499 
f 480 481 499 
f 492 474 499 
f 481 492 499 
f 477 484 500 
f 488 477 500 
f 484 488 500 
f 476 473 501 
f 473 489 501 
f 489 496 501 
o convex_19
v 17.431637 32.973979 -15.271646
v -23.636409 52.563795 -15.271646
v -23.636409 52.563795 -15.903849
v 7.952097 46.243510 -10.216621
v 15.536583 34.239570 -13.377636
v 6.057043 34.239570 -19.063998
v -24.904047 46.245427 -18.430063
v -24.268094 51.298204 -14.640309
v 3.530304 32.973979 -18.430063
v 7.952097 45.612632 -11.481027
v -21.741355 47.507183 -19.062266
v 4.157721 45.612632 -10.216621
v -25.531463 46.874388 -19.062266
v -11.630130 43.085285 -19.063998
v 16.799952 34.239570 -15.271646
v 3.530304 32.973979 -19.063998
v 6.684460 32.973979 -17.167389
v 13.009844 40.556020 -11.481027
v 9.211199 43.085285 -10.216621
v -11.630130 50.032613 -12.744567
v 18.063322 32.973979 -14.009839
v -25.531463 51.298204 -17.167389
v -25.531463 50.032613 -15.903849
v 13.009844 40.556020 -12.746299
v -0.887221 39.925142 -17.799592
v -2.159127 48.136144 -12.744567
v 16.168267 32.973979 -14.009839
v -24.904047 48.768939 -19.062266
v -25.531463 52.563795 -15.271646
v 6.684460 32.973979 -19.063998
v 18.063322 33.606774 -14.640309
v 9.211199 45.612632 -10.216621
f 519 525 533 
f 504 503 505 
f 512 511 515 
f 502 507 516 
f 507 511 516 
f 502 510 517 
f 510 508 517 
f 508 514 517 
f 514 515 517 
f 515 507 517 
f 510 502 518 
f 508 510 518 
f 509 506 520 
f 505 513 520 
f 513 509 520 
f 505 503 521 
f 513 505 521 
f 509 513 521 
f 518 502 522 
f 520 506 522 
f 519 520 522 
f 523 514 524 
f 514 508 524 
f 508 518 524 
f 516 511 525 
f 511 507 526 
f 507 515 526 
f 515 511 526 
f 504 505 527 
f 505 511 527 
f 511 512 527 
f 512 504 527 
f 506 509 528 
f 518 522 528 
f 522 506 528 
f 509 524 528 
f 524 518 528 
f 504 512 529 
f 512 515 529 
f 515 514 529 
f 523 504 529 
f 514 523 529 
f 503 504 530 
f 521 503 530 
f 509 521 530 
f 504 523 530 
f 523 524 530 
f 524 509 530 
f 507 502 531 
f 502 517 531 
f 517 507 531 
f 502 516 532 
f 522 502 532 
f 519 522 532 
f 516 525 532 
f 525 519 532 
f 511 505 533 
f 505 520 533 
f 520 519 533 
f 525 511 533 
o convex_20
v 4.161974 34.237086 -19.064555
v -17.953874 32.341219 -24.751288
v -17.953874 32.341219 -24.118872
v -17.953874 36.132952 -24.751288
v -3.418386 36.132952 -19.064555
v -1.526234 32.341219 -22.223294
v 2.897405 32.341219 -19.064555
v 0.370619 36.132952 -19.696971
v -17.953874 36.132952 -23.487013
v -14.792452 35.500502 -24.751288
v 6.058827 32.973669 -19.696971
v -16.689305 32.341219 -23.487013
v -3.418386 35.500502 -19.064555
v -15.424736 32.341219 -24.751288
v 1.632837 33.605377 -20.960689
v 6.058827 32.341219 -19.064555
v -11.633381 36.132952 -23.487013
v -7.839675 34.237086 -23.487013
v -16.057021 35.500502 -22.855710
v -11.001097 33.605377 -24.118872
v 0.370619 36.132952 -19.064555
v -1.526234 32.973669 -22.223294
v -7.839675 35.500502 -20.328830
v 6.058827 32.341219 -19.696971
v 4.161974 34.237086 -19.696971
v -3.418386 36.132952 -20.960689
v -16.057021 36.132952 -24.751288
v -17.953874 35.500502 -23.487013
v -7.839675 36.132952 -20.328830
v 6.058827 32.973669 -19.064555
v -14.792452 33.605377 -24.751288
v 3.529690 33.605377 -20.328830
f 559 558 565 
f 535 536 537 
f 536 535 539 
f 534 538 540 
f 536 539 540 
f 537 538 541 
f 537 536 542 
f 538 537 542 
f 535 537 543 
f 536 540 545 
f 540 538 546 
f 545 540 546 
f 539 535 547 
f 535 543 547 
f 534 540 549 
f 540 539 549 
f 537 541 550 
f 539 547 553 
f 551 539 553 
f 543 551 553 
f 538 534 554 
f 534 541 554 
f 541 538 554 
f 544 539 555 
f 548 544 555 
f 551 548 555 
f 539 551 555 
f 545 546 556 
f 546 538 556 
f 552 545 556 
f 539 544 557 
f 549 539 557 
f 544 549 557 
f 541 534 558 
f 534 544 558 
f 550 541 559 
f 548 551 559 
f 551 550 559 
f 541 558 559 
f 543 537 560 
f 537 550 560 
f 550 551 560 
f 551 543 560 
f 542 536 561 
f 536 545 561 
f 552 542 561 
f 545 552 561 
f 538 542 562 
f 542 552 562 
f 556 538 562 
f 552 556 562 
f 544 534 563 
f 534 549 563 
f 549 544 563 
f 547 543 564 
f 553 547 564 
f 543 553 564 
f 544 548 565 
f 558 544 565 
f 548 559 565 
o convex_21
v 16.803926 13.383049 34.018223
v 18.067095 8.327962 30.858198
v 18.699298 12.119014 12.533777
v 18.699298 19.070154 15.066053
v 16.171723 18.437085 21.383443
v 18.699298 8.959979 33.387814
v 16.803926 8.327962 37.808657
v 16.803926 19.070154 25.804286
v 18.067095 8.959979 39.707863
v 19.331501 12.119014 12.533777
v 17.436129 19.070154 13.169506
v 19.331501 15.909015 12.533777
v 16.171723 14.015066 30.225129
v 16.171723 19.070154 25.804286
v 16.803926 8.959979 39.707863
v 19.331501 12.751032 19.489556
v 17.435820 8.327962 31.491267
v 18.699298 8.327962 30.858198
v 17.436129 19.070154 23.274670
v 18.067095 14.647084 12.533777
v 18.699298 19.070154 12.533777
v 18.067095 8.327962 39.707863
v 16.171723 16.542084 29.592060
v 18.067095 12.119014 17.593009
v 17.435820 14.646032 32.124336
v 18.067095 19.070154 19.489556
v 19.331501 12.119014 19.489556
v 16.171723 19.070154 21.383443
v 16.803926 10.222962 38.441726
v 17.436129 18.437085 13.169506
v 16.171723 14.014015 31.491267
v 16.803926 8.327962 39.707863
f 580 596 597 
f 571 569 574 
f 567 568 575 
f 573 569 576 
f 575 568 577 
f 573 576 579 
f 570 578 579 
f 569 571 581 
f 577 569 581 
f 575 577 581 
f 568 567 582 
f 567 572 582 
f 572 578 582 
f 572 567 583 
f 567 575 583 
f 569 573 584 
f 577 568 585 
f 578 570 585 
f 576 569 586 
f 569 577 586 
f 585 576 586 
f 577 585 586 
f 571 574 587 
f 574 580 587 
f 572 583 587 
f 583 571 587 
f 573 579 588 
f 579 578 588 
f 568 582 589 
f 582 578 589 
f 585 568 589 
f 578 585 589 
f 584 573 590 
f 588 566 590 
f 573 588 590 
f 574 569 591 
f 569 584 591 
f 590 574 591 
f 584 590 591 
f 581 571 592 
f 575 581 592 
f 571 583 592 
f 583 575 592 
f 576 570 593 
f 570 579 593 
f 579 576 593 
f 580 574 594 
f 566 588 594 
f 588 580 594 
f 590 566 594 
f 574 590 594 
f 570 576 595 
f 585 570 595 
f 576 585 595 
f 578 572 596 
f 588 578 596 
f 580 588 596 
f 572 587 597 
f 587 580 597 
f 596 572 597 
o convex_22
v 2.268702 0.111489 51.715018
v -35.642689 -0.520467 40.339819
v -35.642689 -0.520467 44.132294
v -35.642689 0.743444 44.132294
v 25.013162 0.743444 40.339819
v 25.013162 -0.520467 40.339819
v 21.853879 -0.520467 47.922543
v 1.003802 0.743444 51.715018
v -1.526000 -0.520467 51.715018
v 20.594917 0.743444 47.922543
v -35.642689 0.111489 40.339819
v -35.642689 0.743444 42.868507
v 24.383681 0.743444 45.397195
v -1.526000 0.743444 51.715018
v 25.013162 -0.520467 44.765858
v -33.748307 0.111489 44.765858
v 2.268702 -0.520467 51.715018
v -7.844565 -0.520467 50.450117
v 21.853879 0.111489 47.922543
v -33.748307 -0.520467 44.765858
v 12.376031 0.111489 49.816553
v 25.013162 0.743444 43.499844
v 23.754200 0.743444 40.339819
v -7.844565 0.111489 50.450117
v -16.057512 0.743444 48.554993
v -33.118826 0.743444 44.765858
v 12.376031 -0.520467 49.816553
v -28.059223 0.111489 46.027418
v 25.013162 0.111489 44.765858
v 21.853879 0.743444 47.288979
v 17.429696 0.743444 48.554993
v -28.059223 -0.520467 46.027418
f 615 625 629 
f 599 600 601 
f 599 602 603 
f 600 599 603 
f 600 603 604 
f 602 601 605 
f 600 604 606 
f 598 605 606 
f 602 605 607 
f 599 601 608 
f 602 599 608 
f 601 602 609 
f 608 601 609 
f 602 607 610 
f 605 601 611 
f 606 605 611 
f 603 602 612 
f 604 603 612 
f 610 604 612 
f 601 600 613 
f 606 604 614 
f 598 606 614 
f 600 606 615 
f 606 611 615 
f 604 610 616 
f 613 600 617 
f 600 615 617 
f 605 598 618 
f 604 616 618 
f 616 607 618 
f 602 610 619 
f 612 602 619 
f 602 608 620 
f 609 602 620 
f 608 609 620 
f 615 611 621 
f 611 601 622 
f 621 611 622 
f 601 613 623 
f 622 601 623 
f 613 622 623 
f 598 614 624 
f 614 604 624 
f 618 598 624 
f 604 618 624 
f 613 617 625 
f 615 621 625 
f 622 613 625 
f 621 622 625 
f 610 612 626 
f 619 610 626 
f 612 619 626 
f 610 607 627 
f 607 616 627 
f 616 610 627 
f 607 605 628 
f 605 618 628 
f 618 607 628 
f 617 615 629 
f 625 617 629 
o convex_23
v -0.259120 0.743877 50.449994
v -35.648628 2.007602 42.235685
v -35.648628 5.166700 42.235685
v -35.014693 0.743877 44.133160
v -1.523526 4.534620 50.449994
v -1.523526 5.166700 48.554251
v -3.421866 0.743877 51.083062
v -33.750287 5.166700 43.500091
v -27.428257 0.743877 44.133160
v -28.062192 4.534620 42.868754
v -1.523526 4.534620 48.554251
v -3.421866 1.375956 51.083062
v -1.523526 0.743877 49.818657
v -0.259120 5.166700 49.818657
v -35.014693 1.375956 44.133160
v -32.485881 5.166700 42.235685
v -33.750287 0.743877 42.868754
v -0.259120 2.639682 51.083062
v -3.421866 5.166700 49.818657
v -25.536845 3.902974 43.500091
v -21.743627 5.166700 44.133160
v -35.648628 3.270895 43.500091
v -0.259120 3.902974 49.185588
v -17.953874 1.375956 47.922914
v -35.648628 0.743877 42.868754
v -0.259120 0.743877 51.083062
v -35.014693 2.007602 42.235685
v -9.106497 1.375956 47.922914
v -21.743627 4.534620 44.133160
v -1.523526 2.639682 51.083062
v -35.648628 5.166700 42.868754
v -29.326598 1.375956 43.500091
f 649 657 661 
f 633 630 636 
f 635 632 637 
f 630 633 638 
f 630 638 642 
f 635 637 643 
f 631 632 645 
f 632 635 645 
f 638 633 646 
f 641 636 647 
f 630 643 647 
f 643 634 647 
f 637 634 648 
f 634 643 648 
f 643 637 648 
f 645 635 650 
f 639 645 650 
f 632 631 651 
f 633 644 651 
f 644 637 651 
f 640 635 652 
f 630 642 652 
f 642 640 652 
f 643 630 652 
f 635 643 652 
f 633 636 653 
f 636 641 653 
f 641 637 653 
f 644 633 653 
f 637 644 653 
f 631 646 654 
f 646 633 654 
f 651 631 654 
f 633 651 654 
f 636 630 655 
f 630 647 655 
f 647 636 655 
f 631 645 656 
f 645 639 656 
f 646 631 656 
f 639 649 656 
f 642 638 657 
f 640 642 657 
f 649 640 657 
f 635 640 658 
f 640 649 658 
f 649 639 658 
f 650 635 658 
f 639 650 658 
f 634 637 659 
f 637 641 659 
f 647 634 659 
f 641 647 659 
f 637 632 660 
f 632 651 660 
f 651 637 660 
f 638 646 661 
f 646 656 661 
f 656 649 661 
f 657 638 661 
o convex_24
v -28.697117 48.140601 -19.063998
v -26.169790 53.195132 -13.376398
v -26.169790 53.195132 -14.641299
v -25.537649 46.876196 -18.431548
v -28.697117 49.404389 -13.376398
v -28.697117 50.666939 -18.431548
v -25.537649 48.772804 -19.063998
v -25.537649 52.562929 -16.535310
v -26.801622 50.668176 -13.376398
v -27.432835 52.562929 -13.376398
v -25.537649 51.299760 -15.272636
v -28.064667 47.509017 -18.431548
v -28.697117 50.668176 -13.376398
v -28.064667 50.035973 -19.063998
v -27.432835 52.562929 -15.903973
v -26.169790 46.876196 -19.063998
v -28.064667 49.404389 -13.376398
v -26.169790 51.931345 -13.376398
v -26.169790 46.876196 -18.431548
v -26.801622 52.562929 -16.535310
v -26.801622 53.195132 -14.641299
v -25.537649 52.562929 -15.272636
v -28.697117 50.035973 -19.063998
v -25.537649 46.876196 -19.063998
v -28.697117 48.140601 -18.431548
v -26.801622 53.195132 -13.376398
v -28.064667 47.509017 -19.063998
v -25.537649 49.404389 -16.535310
v -28.697117 50.668176 -17.167760
v -26.169790 51.931345 -17.167760
v -27.432835 50.035973 -13.376398
v -28.064667 51.299760 -17.799654
f 681 691 693 
f 662 666 667 
f 665 668 669 
f 664 663 669 
f 663 666 670 
f 666 663 671 
f 665 669 672 
f 667 666 674 
f 666 671 674 
f 668 662 675 
f 674 671 676 
f 662 668 677 
f 666 665 678 
f 670 666 678 
f 663 670 679 
f 670 665 679 
f 672 663 679 
f 665 666 680 
f 666 673 680 
f 677 665 680 
f 673 677 680 
f 664 669 681 
f 681 676 682 
f 663 664 682 
f 676 671 682 
f 664 681 682 
f 669 663 683 
f 672 669 683 
f 663 672 683 
f 662 667 684 
f 675 662 684 
f 668 665 685 
f 677 668 685 
f 665 677 685 
f 666 662 686 
f 662 673 686 
f 673 666 686 
f 671 663 687 
f 663 682 687 
f 682 671 687 
f 673 662 688 
f 662 677 688 
f 677 673 688 
f 665 672 689 
f 679 665 689 
f 672 679 689 
f 667 674 690 
f 676 667 690 
f 674 676 690 
f 669 668 691 
f 668 675 691 
f 681 669 691 
f 665 670 692 
f 678 665 692 
f 670 678 692 
f 667 676 693 
f 676 681 693 
f 684 667 693 
f 675 684 693 
f 691 675 693 
o convex_25
v -35.648628 6.431105 41.603792
v -3.418897 18.438198 44.763507
v -3.418897 17.805562 44.763507
v -25.534247 5.799769 44.763507
v -35.648628 18.438198 40.972455
v -31.222403 17.805562 40.339819
v -8.476088 13.382307 44.130872
v -9.107053 18.438198 44.763507
v -21.108022 5.167133 44.130872
v -35.648628 5.167133 42.866899
v -26.799333 5.167133 42.866899
v -3.418897 18.438198 44.130872
v -35.014507 14.012344 40.339819
v -32.487489 18.438198 41.603792
v -35.648628 7.695078 42.866899
v -21.108022 5.167133 44.763507
v -9.107053 16.541589 43.499535
v -35.648628 18.438198 40.339819
v -14.164244 18.438198 44.130872
v -31.222403 18.438198 40.339819
v -31.856524 5.167133 42.236428
v -8.476088 13.382307 44.763507
v -27.427144 16.541589 40.972455
v -3.418897 17.805562 44.130872
v -33.118455 5.167133 43.499535
v -19.846090 5.799769 44.130872
v -5.314949 15.910252 44.130872
v -33.118455 7.695078 41.603792
v -35.648628 14.012344 40.339819
v -25.534247 5.167133 44.763507
v -35.648628 5.167133 42.236428
v -35.648628 15.276317 41.603792
f 708 707 725 
f 696 695 697 
f 697 695 701 
f 695 698 701 
f 698 694 703 
f 702 703 704 
f 695 696 705 
f 698 695 705 
f 701 698 707 
f 698 703 708 
f 697 707 708 
f 696 697 709 
f 703 702 709 
f 694 698 711 
f 698 705 711 
f 699 706 711 
f 697 701 712 
f 707 697 712 
f 701 707 712 
f 705 699 713 
f 711 705 713 
f 699 711 713 
f 704 703 714 
f 696 709 715 
f 706 699 716 
f 704 706 716 
f 710 704 716 
f 710 716 717 
f 705 696 717 
f 699 705 717 
f 716 699 717 
f 708 703 718 
f 697 708 718 
f 703 709 718 
f 702 704 719 
f 704 700 719 
f 709 702 719 
f 700 715 719 
f 715 709 719 
f 700 704 720 
f 704 710 720 
f 696 715 720 
f 715 700 720 
f 710 717 720 
f 717 696 720 
f 694 706 721 
f 706 704 721 
f 714 694 721 
f 704 714 721 
f 706 694 722 
f 694 711 722 
f 711 706 722 
f 709 697 723 
f 697 718 723 
f 718 709 723 
f 703 694 724 
f 694 714 724 
f 714 703 724 
f 707 698 725 
f 698 708 725 
o convex_26
v -22.377562 5.167133 44.763507
v -0.891075 18.438198 45.395958
v -0.891075 17.805562 46.027913
v -0.891075 5.167133 48.554746
v -1.524144 6.431105 49.819151
v -0.891075 16.541589 44.763507
v -21.744493 6.431105 45.395958
v -17.952389 5.167133 44.763507
v -4.683179 18.438198 45.395958
v -4.683179 18.438198 44.763507
v -2.155110 5.167133 49.819151
v -8.475283 5.799769 48.554746
v -22.377562 5.167133 45.395958
v -3.419145 5.167133 47.922295
v -0.891075 6.431105 49.819151
v -21.744493 6.431105 44.763507
v -0.891075 18.438198 44.763507
v -19.849493 5.799769 46.027913
v -1.524144 17.805562 46.027913
v -0.891075 5.167133 49.819151
v -8.475283 5.167133 48.554746
v -1.524144 6.431105 47.922295
v -22.377562 5.799769 45.395958
v -19.849493 5.167133 46.027913
v -2.155110 5.799769 49.819151
v -22.377562 5.799769 44.763507
v -14.160285 7.695078 44.763507
f 739 733 752 
f 727 728 729 
f 727 729 731 
f 729 726 733 
f 726 731 733 
f 728 727 734 
f 732 734 735 
f 731 726 735 
f 734 727 735 
f 726 729 736 
f 730 734 737 
f 726 736 738 
f 729 733 739 
f 729 728 740 
f 728 730 740 
f 730 736 740 
f 732 735 741 
f 735 726 741 
f 727 731 742 
f 735 727 742 
f 731 735 742 
f 734 732 743 
f 737 734 743 
f 730 728 744 
f 728 734 744 
f 734 730 744 
f 736 729 745 
f 729 740 745 
f 740 736 745 
f 736 737 746 
f 738 736 746 
f 737 743 746 
f 731 729 747 
f 729 739 747 
f 739 731 747 
f 726 738 748 
f 732 741 748 
f 743 732 748 
f 738 743 748 
f 743 738 749 
f 738 746 749 
f 746 743 749 
f 736 730 750 
f 730 737 750 
f 737 736 750 
f 741 726 751 
f 726 748 751 
f 748 741 751 
f 733 731 752 
f 731 739 752 
o convex_27
v 18.697813 5.167133 40.339819
v 0.374568 18.438198 45.395467
v 0.374568 18.438198 44.764555
v -0.891075 5.167133 49.185579
v 18.697813 5.799769 43.499947
v 1.007389 5.799769 49.818347
v -0.891075 16.541589 44.764555
v 18.064992 8.326415 40.339819
v 15.539830 7.695078 40.339819
v 0.374568 15.910252 46.658219
v 1.007389 5.167133 47.921899
v 18.697813 5.167133 43.499947
v -0.891075 17.805562 46.026379
v 1.007389 17.805562 44.132715
v 1.638170 17.805562 45.395467
v 18.697813 7.063741 42.236267
v -0.891075 6.431105 49.818347
v 19.963456 5.799769 40.339819
v 1.007389 5.167133 49.818347
v 9.219780 5.167133 44.132715
v 15.539830 8.959051 40.339819
v -0.891075 5.799769 48.553739
v 7.956178 12.115736 42.237195
v 18.064992 8.326415 40.972587
v 19.963456 5.167133 42.236267
v 1.638170 17.805562 44.132715
v -0.891075 18.438198 44.764555
v 2.901771 15.910252 43.500875
v 19.963456 5.799769 42.236267
v 16.803431 8.959051 40.339819
v 1.638170 7.063741 49.185579
v 0.374568 6.431105 49.818347
f 765 769 784 
f 760 753 761 
f 753 756 763 
f 756 753 764 
f 757 758 764 
f 759 756 765 
f 762 754 765 
f 755 754 767 
f 754 762 767 
f 762 757 767 
f 767 757 768 
f 765 756 769 
f 753 760 770 
f 756 764 771 
f 764 758 771 
f 769 756 771 
f 758 769 771 
f 761 753 772 
f 753 763 772 
f 760 761 773 
f 756 759 774 
f 763 756 774 
f 772 763 774 
f 772 774 775 
f 761 772 775 
f 774 759 775 
f 760 767 776 
f 767 768 776 
f 770 760 776 
f 764 753 777 
f 757 764 777 
f 753 770 777 
f 766 755 778 
f 755 767 778 
f 767 760 778 
f 773 766 778 
f 754 755 779 
f 765 754 779 
f 759 765 779 
f 755 766 779 
f 779 766 780 
f 773 761 780 
f 766 773 780 
f 775 759 780 
f 761 775 780 
f 759 779 780 
f 768 757 781 
f 776 768 781 
f 770 776 781 
f 757 777 781 
f 777 770 781 
f 760 773 782 
f 778 760 782 
f 773 778 782 
f 758 757 783 
f 757 762 783 
f 762 758 783 
f 758 762 784 
f 762 765 784 
f 769 758 784 
o convex_28
v 16.803555 17.173235 -24.751597
v 9.852168 0.743444 -29.175286
v 9.852168 0.743444 -27.910880
v 21.227367 0.743444 -29.175286
v 9.852168 15.907221 -26.016003
v 21.227367 12.748866 -24.751597
v 9.852168 15.277555 -24.751597
v 21.227367 14.013211 -26.016003
v 21.227367 0.743444 -27.910880
v 21.227367 1.376451 -29.175286
v 13.645757 17.806243 -25.383800
v 9.852168 5.800820 -26.648206
v 9.852168 17.806243 -24.751597
v 9.852168 1.376451 -29.175286
v 12.380856 15.907221 -26.016003
v 19.962467 15.907221 -25.383800
v 21.227367 14.646218 -24.751597
v 9.852168 17.806243 -25.383800
v 11.748406 14.646218 -24.751597
v 18.698679 14.646218 -26.016003
v 20.594917 12.748866 -24.751597
v 16.803555 17.173235 -25.383800
v 13.645757 17.806243 -24.751597
v 18.698679 16.541899 -24.751597
v 18.698679 12.117530 -26.648206
v 18.698679 16.541899 -25.383800
v 21.227367 14.646218 -25.383800
v 19.962467 15.907221 -24.751597
v 9.852168 3.272132 -27.278677
v 21.227367 11.486193 -26.648206
f 809 804 814 
f 787 786 788 
f 786 787 789 
f 789 787 791 
f 790 785 791 
f 790 788 792 
f 787 788 793 
f 790 787 793 
f 788 790 793 
f 788 786 794 
f 792 788 794 
f 791 787 796 
f 791 785 797 
f 789 791 797 
f 786 789 798 
f 794 786 798 
f 789 794 798 
f 794 789 799 
f 789 795 799 
f 785 790 801 
f 790 792 801 
f 795 789 802 
f 789 797 802 
f 797 795 802 
f 790 791 803 
f 791 796 803 
f 799 795 804 
f 787 790 805 
f 790 803 805 
f 803 796 805 
f 795 785 806 
f 792 804 806 
f 804 795 806 
f 785 795 807 
f 797 785 807 
f 795 797 807 
f 785 801 808 
f 806 785 808 
f 794 799 809 
f 799 804 809 
f 800 792 810 
f 792 806 810 
f 808 800 810 
f 806 808 810 
f 792 800 811 
f 801 792 811 
f 800 801 811 
f 801 800 812 
f 808 801 812 
f 800 808 812 
f 796 787 813 
f 787 805 813 
f 805 796 813 
f 792 794 814 
f 804 792 814 
f 794 809 814 
o convex_29
v -35.640463 0.743444 -29.175286
v 9.842457 5.799088 -27.279419
v 9.842457 5.799088 -27.911499
v -35.640463 5.799088 -28.543207
v -35.009559 3.903222 -27.279419
v 9.842457 0.743444 -27.911499
v 9.842457 1.375894 -29.175286
v -42.596179 0.743939 -27.911499
v -35.640463 5.799088 -27.279419
v -43.863245 2.639805 -29.175100
v 9.842457 3.271266 -27.279419
v -43.863245 4.535177 -27.911499
v 4.784710 4.535177 -28.543207
v 9.842457 0.743444 -29.175286
v -43.863245 0.743939 -29.175100
v -43.863245 4.535177 -28.543207
v -43.863245 2.007850 -27.911499
v 4.159063 3.271266 -27.279419
v 9.842457 3.903222 -28.543207
v -35.009559 5.799088 -28.543207
v -43.863245 0.743939 -28.543207
v -42.596179 2.639805 -29.175100
v -35.640463 4.535177 -27.279419
v -35.640463 0.743444 -27.911499
v -35.640463 1.375894 -29.175286
f 815 824 839 
f 816 817 818 
f 817 816 820 
f 817 820 821 
f 816 818 823 
f 819 816 823 
f 816 819 825 
f 820 816 825 
f 823 818 826 
f 820 815 828 
f 821 820 828 
f 815 821 828 
f 824 815 829 
f 826 824 829 
f 818 824 830 
f 826 818 830 
f 824 826 830 
f 822 819 831 
f 823 826 831 
f 826 829 831 
f 819 822 832 
f 825 819 832 
f 820 825 832 
f 817 821 833 
f 827 817 833 
f 821 827 833 
f 818 817 834 
f 824 818 834 
f 817 827 834 
f 827 821 834 
f 829 815 835 
f 822 831 835 
f 831 829 835 
f 821 824 836 
f 824 834 836 
f 834 821 836 
f 819 823 837 
f 831 819 837 
f 823 831 837 
f 815 820 838 
f 832 822 838 
f 820 832 838 
f 835 815 838 
f 822 835 838 
f 821 815 839 
f 824 821 839 
o convex_30
v -41.336371 22.228352 -24.751907
v -44.495077 12.118643 -27.911375
v -44.495077 12.118643 -24.751907
v -38.808405 17.805486 -26.647093
v -42.600076 20.333439 -27.911375
v -38.808405 22.861392 -27.278925
v -42.600076 12.118643 -27.911375
v -39.441371 22.228352 -24.751907
v -43.231929 19.069462 -24.751907
v -43.231929 12.751683 -24.751907
v -40.704519 17.805486 -27.911375
v -43.863781 16.542561 -27.911375
v -40.704519 22.861392 -27.278925
v -38.808405 17.805486 -27.278925
v -44.495077 13.383671 -24.751907
v -39.441371 22.861392 -24.751907
v -40.704519 21.596364 -27.911375
v -42.600076 12.118643 -27.278925
v -44.495077 13.383671 -27.911375
v -43.231929 19.069462 -27.911375
v -38.808405 22.861392 -26.647093
v -40.704519 22.861392 -24.751907
v -43.863781 16.542561 -24.751907
v -42.600076 20.333439 -24.751907
v -43.863781 12.118643 -24.751907
v -41.336371 22.228352 -27.278925
v -41.336371 21.596364 -27.911375
f 852 856 866 
f 842 841 846 
f 841 844 846 
f 840 842 847 
f 842 840 848 
f 847 842 849 
f 843 847 849 
f 846 844 850 
f 844 841 851 
f 845 843 853 
f 843 846 853 
f 850 845 853 
f 846 850 853 
f 841 842 854 
f 842 848 854 
f 840 847 855 
f 847 843 855 
f 845 852 855 
f 850 844 856 
f 845 850 856 
f 852 845 856 
f 842 846 857 
f 846 843 857 
f 843 849 857 
f 851 841 858 
f 841 854 858 
f 854 851 858 
f 848 844 859 
f 844 851 859 
f 851 848 859 
f 843 845 860 
f 855 843 860 
f 845 855 860 
f 852 840 861 
f 840 855 861 
f 855 852 861 
f 848 851 862 
f 854 848 862 
f 851 854 862 
f 840 844 863 
f 848 840 863 
f 844 848 863 
f 849 842 864 
f 842 857 864 
f 857 849 864 
f 844 840 865 
f 840 852 865 
f 852 844 865 
f 844 852 866 
f 856 844 866 
o convex_31
v -35.648628 17.806243 -26.647464
v -43.863925 4.536476 -28.543330
v -42.598982 4.535177 -28.543330
v -40.071507 17.806243 -27.911251
v -35.648628 6.431786 -28.543330
v -35.648628 5.167813 -27.279543
v -43.863925 10.222405 -27.279543
v -41.334842 17.806243 -26.647464
v -43.863925 11.485079 -28.543330
v -35.648628 14.643063 -27.911251
v -43.863925 4.536476 -27.911251
v -42.598982 17.806243 -27.911251
v -36.281502 13.379090 -26.647464
v -35.648628 4.535177 -28.543330
v -35.648628 17.806243 -27.279543
v -43.863925 12.117715 -27.279543
v -37.545641 5.799150 -27.279543
v -42.598982 17.806243 -27.279543
v -35.648628 4.535177 -27.911251
v -41.966912 10.857639 -28.543330
v -36.913571 15.909634 -27.911251
v -40.702773 16.539672 -26.647464
v -35.648628 13.379090 -26.647464
v -41.334842 8.327096 -27.279543
v -43.863925 12.117715 -27.911251
v -36.281502 5.167813 -27.279543
v -38.809780 17.173607 -27.911251
v -41.334842 17.173607 -26.647464
v -43.231856 11.485079 -28.543330
v -42.598982 4.535177 -27.911251
v -36.281502 15.278297 -27.911251
f 887 881 897 
f 869 868 871 
f 871 867 872 
f 867 870 874 
f 871 868 875 
f 868 873 875 
f 867 871 876 
f 868 869 877 
f 873 868 877 
f 874 870 878 
f 870 875 878 
f 867 874 879 
f 869 871 880 
f 871 872 880 
f 870 867 881 
f 867 876 881 
f 873 874 882 
f 875 873 882 
f 874 878 884 
f 882 874 884 
f 878 882 884 
f 869 880 885 
f 880 872 885 
f 871 875 886 
f 871 886 887 
f 879 874 888 
f 872 867 889 
f 867 879 889 
f 879 872 889 
f 873 877 890 
f 877 883 890 
f 883 879 890 
f 888 873 890 
f 879 888 890 
f 878 875 891 
f 875 882 891 
f 882 878 891 
f 872 879 892 
f 883 877 892 
f 879 883 892 
f 885 872 892 
f 870 881 893 
f 886 870 893 
f 881 887 893 
f 887 886 893 
f 874 873 894 
f 873 888 894 
f 888 874 894 
f 875 870 895 
f 870 886 895 
f 886 875 895 
f 877 869 896 
f 869 885 896 
f 892 877 896 
f 885 892 896 
f 876 871 897 
f 881 876 897 
f 871 887 897 
o convex_32
v -41.967675 17.806243 -19.063998
v -42.599829 4.535177 -0.107746
v -41.967675 4.535177 -0.107746
v -40.072762 17.806243 30.860486
v -39.440608 4.535177 26.432963
v -42.599829 17.806243 -7.052018
v -42.599829 4.535177 7.471823
v -39.440608 17.806243 26.432963
v -40.072762 4.535177 30.860486
v -40.704606 17.806243 27.063372
v -42.599829 17.173607 -19.063998
v -39.440608 4.535177 30.860486
v -40.704606 4.535177 27.063372
v -40.072762 6.431786 15.061166
v -41.967675 15.909634 -17.793406
v -39.440608 17.806243 30.860486
v -42.599829 5.799150 6.841414
v -41.967675 5.167813 -1.368564
v -40.072762 4.535177 18.218098
v -42.599829 12.117715 -12.109951
v -41.336450 12.750351 -7.052018
v -42.599829 17.806243 -19.063998
v -40.072762 5.167813 16.957280
v -41.967675 17.173607 -19.063998
v -41.967675 12.117715 -12.109951
v -42.599829 15.909634 -17.793406
v -42.599829 5.167813 -1.368564
v -40.704915 7.695759 6.841414
v -42.599829 5.167813 7.471823
v -40.704606 4.535177 11.899347
v -41.336450 13.379090 -7.687314
v -41.967675 14.643063 -15.902179
f 917 923 929 
f 899 900 902 
f 901 898 903 
f 899 902 904 
f 903 899 904 
f 898 901 905 
f 902 898 905 
f 904 902 906 
f 901 903 907 
f 906 901 907 
f 899 903 908 
f 902 905 909 
f 901 906 909 
f 906 902 909 
f 904 906 910 
f 907 904 910 
f 906 907 910 
f 905 901 913 
f 901 909 913 
f 909 905 913 
f 903 904 914 
f 907 903 914 
f 900 899 915 
f 902 900 916 
f 899 908 917 
f 903 898 919 
f 898 908 919 
f 908 903 919 
f 911 902 920 
f 902 916 920 
f 898 902 921 
f 908 898 921 
f 902 911 921 
f 912 908 921 
f 915 917 922 
f 918 915 922 
f 908 912 923 
f 917 908 923 
f 915 899 924 
f 899 917 924 
f 917 915 924 
f 918 911 925 
f 915 918 925 
f 911 920 925 
f 920 915 925 
f 904 907 926 
f 914 904 926 
f 907 914 926 
f 900 915 927 
f 916 900 927 
f 915 920 927 
f 920 916 927 
f 911 918 928 
f 918 912 928 
f 921 911 928 
f 912 921 928 
f 912 918 929 
f 922 917 929 
f 918 922 929 
f 923 912 929 
o convex_33
v -40.072316 20.964721 -22.220311
v -36.913157 22.861392 29.592122
v -37.545360 22.861392 30.860486
v -39.440113 17.806243 30.860486
v -43.232094 19.070525 -18.426104
v -40.703282 22.861392 -24.751597
v -42.599272 17.806243 -24.751597
v -36.913157 22.228508 14.426179
v -40.703900 18.439621 27.066279
v -38.176945 22.861392 30.860486
v -39.441350 22.861392 -24.751597
v -38.808529 18.439621 27.697740
v -43.232094 17.806243 -18.426104
v -41.967069 17.806243 -19.057565
v -41.335485 22.228508 -21.577963
v -37.545360 20.333817 30.860486
v -43.232094 19.070525 -24.751597
v -40.703900 19.070525 25.171897
v -40.072316 17.806243 30.860486
v -38.809147 22.228508 -16.531722
v -36.913157 22.861392 14.426179
v -42.599272 19.702913 -12.742958
v -36.913157 21.597110 21.377690
v -40.703900 17.806243 27.066279
v -40.072316 19.070525 30.860486
v -39.440113 17.806243 24.540437
v -39.441350 22.228508 -24.751597
v -42.599272 20.333817 -20.325929
v -40.703282 22.861392 -19.057565
v -41.335485 19.070525 15.057640
v -36.913157 21.597110 28.960661
v -37.545360 22.228508 3.675018
f 952 943 961 
f 932 931 935 
f 933 932 939 
f 932 935 939 
f 935 931 940 
f 936 935 940 
f 936 933 942 
f 938 934 942 
f 933 936 943 
f 931 932 945 
f 932 933 945 
f 933 941 945 
f 935 936 946 
f 936 942 946 
f 942 934 946 
f 944 935 946 
f 933 939 948 
f 942 933 948 
f 943 930 949 
f 931 937 950 
f 940 931 950 
f 949 940 950 
f 937 931 952 
f 945 941 952 
f 938 942 953 
f 948 938 953 
f 942 948 953 
f 947 938 954 
f 939 947 954 
f 948 939 954 
f 938 948 954 
f 941 933 955 
f 933 943 955 
f 952 941 955 
f 943 952 955 
f 936 940 956 
f 930 943 956 
f 943 936 956 
f 949 930 956 
f 940 949 956 
f 939 944 957 
f 946 934 957 
f 944 946 957 
f 934 951 957 
f 951 939 957 
f 939 935 958 
f 935 944 958 
f 944 939 958 
f 934 938 959 
f 938 947 959 
f 947 939 959 
f 951 934 959 
f 939 951 959 
f 931 945 960 
f 952 931 960 
f 945 952 960 
f 943 949 961 
f 950 937 961 
f 949 950 961 
f 937 952 961 
o convex_34
v 6.692391 54.458610 27.700585
v 3.532613 43.717470 27.700585
v 4.797019 43.717470 26.436798
v 3.532613 54.458610 27.068877
v 5.427985 43.717470 28.332664
v 3.532613 53.826654 28.332664
v 6.692391 51.930788 26.436798
v 6.059879 43.717470 27.068877
v 6.059879 54.458610 28.332664
v 6.059879 54.458610 26.436798
v 3.532613 43.717470 28.332664
v 6.059879 43.717470 27.700585
v 6.059879 48.773114 28.332664
v 6.059879 46.245292 26.436798
v 5.427985 53.194699 26.436798
v 6.692391 52.562743 27.700585
v 6.692391 54.458610 26.436798
v 4.165126 54.458610 28.332664
v 4.797019 47.509203 26.436798
v 3.532613 53.194699 27.068877
v 5.427985 43.717470 26.436798
v 6.692391 51.930788 27.068877
v 3.532613 54.458610 27.700585
f 967 979 984 
f 963 964 966 
f 965 963 967 
f 966 964 969 
f 962 965 970 
f 967 966 970 
f 965 962 971 
f 968 964 971 
f 963 966 972 
f 967 963 972 
f 966 967 972 
f 966 969 973 
f 969 968 973 
f 962 970 974 
f 970 966 974 
f 966 973 974 
f 964 968 975 
f 968 969 975 
f 971 964 976 
f 965 971 976 
f 968 962 977 
f 962 974 977 
f 974 973 977 
f 962 968 978 
f 971 962 978 
f 968 971 978 
f 970 965 979 
f 967 970 979 
f 964 965 980 
f 976 964 980 
f 965 976 980 
f 964 963 981 
f 965 964 981 
f 963 965 981 
f 969 964 982 
f 964 975 982 
f 975 969 982 
f 973 968 983 
f 968 977 983 
f 977 973 983 
f 965 967 984 
f 979 965 984 
o convex_35
v -35.017043 28.549486 20.117676
v -38.807910 22.862443 1.158578
v -37.543628 22.862443 1.158578
v -38.175522 22.863000 30.860486
v -36.912229 28.549486 30.860486
v -33.753256 28.548929 1.158578
v -36.280831 22.863000 24.539818
v -35.648937 27.917036 1.158578
v -36.280831 26.652135 30.860486
v -38.807910 23.494337 1.158578
v -33.753256 27.917036 6.848343
v -34.385150 26.652692 3.688008
v -37.543628 27.284585 30.860486
v -36.912229 28.549486 25.170722
v -36.280336 22.863000 16.957342
v -36.912229 22.863000 30.860486
v -38.175522 24.127344 30.860486
v -35.017043 28.548929 1.158578
v -35.649432 27.916479 27.066341
v -36.280831 24.126787 2.426201
v -37.543628 25.389461 1.158578
v -33.753256 27.917036 1.158578
v -36.280831 28.549486 30.860486
v -38.807910 23.494337 4.318912
v -33.753256 28.548929 6.848343
v -36.911240 22.862443 6.848343
v -34.385644 27.917036 13.799915
v -35.649432 28.549486 27.066341
v -36.911240 23.494337 1.158578
v -36.280831 23.495450 25.804533
v -38.807910 22.862443 4.318912
v -35.018033 26.020241 1.158578
f 1004 1013 1016 
f 987 986 990 
f 990 986 992 
f 989 988 993 
f 992 986 994 
f 988 989 997 
f 994 997 998 
f 989 985 998 
f 997 989 998 
f 995 991 999 
f 996 995 999 
f 993 988 1000 
f 988 997 1001 
f 985 990 1002 
f 990 992 1002 
f 998 985 1002 
f 992 998 1002 
f 993 1000 1003 
f 992 994 1005 
f 994 998 1005 
f 998 992 1005 
f 987 990 1006 
f 990 995 1006 
f 995 996 1006 
f 985 989 1007 
f 989 993 1007 
f 993 1003 1007 
f 994 986 1008 
f 997 994 1008 
f 988 1001 1008 
f 1001 997 1008 
f 990 985 1009 
f 995 990 1009 
f 986 987 1010 
f 999 991 1010 
f 996 999 1010 
f 1000 988 1010 
f 991 1000 1010 
f 1004 996 1010 
f 995 1009 1011 
f 1011 1009 1012 
f 985 1007 1012 
f 1007 1003 1012 
f 1009 985 1012 
f 1003 1011 1012 
f 987 1006 1013 
f 1010 987 1013 
f 1004 1010 1013 
f 991 995 1014 
f 1000 991 1014 
f 1003 1000 1014 
f 995 1011 1014 
f 1011 1003 1014 
f 1008 986 1015 
f 988 1008 1015 
f 986 1010 1015 
f 1010 988 1015 
f 996 1004 1016 
f 1006 996 1016 
f 1013 1006 1016 
o convex_36
v 2.899792 29.813397 30.228284
v 3.532613 46.876196 28.332912
v 1.636190 33.606429 30.860486
v -17.321918 42.450156 27.700709
v -17.321918 40.556146 29.596390
v -16.689097 31.077741 28.964806
v 3.532613 41.189153 27.700709
v -17.321918 46.876196 27.700709
v -12.896250 31.077741 30.228284
v 3.532613 29.813397 29.596390
v -17.321918 46.876196 28.332912
v 3.532613 46.876196 27.700709
v 3.532613 30.446404 30.860486
v -2.787437 33.606429 30.860486
v -17.321918 31.710748 29.596390
v -12.263429 31.077741 28.964806
v -3.420258 31.077741 30.860486
v 3.532613 36.133447 30.228284
v -0.893055 41.189153 27.700709
v -11.632648 35.502110 30.228284
v -16.689097 31.077741 29.596390
v -17.321918 31.710748 28.964806
v -12.896250 32.342085 30.228284
v 2.899792 32.973422 30.860486
v -14.792673 40.556146 29.596390
v 2.266970 30.446404 30.860486
v -11.001868 36.764784 30.228284
v -9.738267 41.820490 27.700709
v -3.420258 32.342085 30.860486
v 3.532613 31.710748 30.860486
v 2.899792 29.813397 29.596390
v 3.532613 29.813397 30.228284
f 1026 1029 1048 
f 1020 1021 1024 
f 1023 1020 1024 
f 1023 1018 1026 
f 1021 1018 1027 
f 1024 1021 1027 
f 1018 1024 1027 
f 1018 1023 1028 
f 1024 1018 1028 
f 1023 1024 1028 
f 1026 1018 1029 
f 1019 1021 1030 
f 1029 1019 1030 
f 1021 1020 1031 
f 1025 1021 1031 
f 1022 1023 1032 
f 1026 1022 1032 
f 1023 1026 1032 
f 1029 1030 1033 
f 1029 1018 1034 
f 1020 1023 1035 
f 1023 1022 1035 
f 1022 1017 1037 
f 1017 1025 1037 
f 1031 1022 1037 
f 1025 1031 1037 
f 1020 1022 1038 
f 1031 1020 1038 
f 1022 1031 1038 
f 1021 1025 1039 
f 1025 1033 1039 
f 1036 1021 1039 
f 1018 1019 1040 
f 1019 1029 1040 
f 1034 1018 1040 
f 1019 1018 1041 
f 1021 1019 1041 
f 1018 1021 1041 
f 1025 1017 1042 
f 1017 1029 1042 
f 1033 1025 1042 
f 1029 1033 1042 
f 1030 1021 1043 
f 1021 1036 1043 
f 1022 1020 1044 
f 1020 1035 1044 
f 1035 1022 1044 
f 1033 1030 1045 
f 1039 1033 1045 
f 1036 1039 1045 
f 1030 1043 1045 
f 1043 1036 1045 
f 1029 1034 1046 
f 1040 1029 1046 
f 1034 1040 1046 
f 1017 1022 1047 
f 1026 1017 1047 
f 1022 1026 1047 
f 1017 1026 1048 
f 1029 1017 1048 
o convex_37
v -35.644174 14.015128 -27.911375
v 9.843261 17.173730 -24.751907
v 9.843261 17.173730 -25.384048
v 9.847714 5.799645 -26.647402
v -35.644174 5.799645 -27.279234
v 9.847714 6.432033 -27.911375
v -28.056255 17.173730 -26.015880
v -4.054564 16.540228 -24.751907
v -26.800508 17.173730 -27.278925
v -35.644174 5.799645 -27.911375
v 8.578608 16.540228 -26.015880
v -26.796055 7.064422 -26.647402
v -35.644174 17.173730 -26.647402
v 7.946282 15.277678 -24.751907
v 9.210935 7.064422 -27.911375
v -34.375068 12.119076 -26.647402
v 9.847714 5.799645 -27.911375
v -35.644174 17.173730 -27.278925
v -4.054564 17.173730 -24.751907
v 3.528902 17.173730 -26.015880
v 9.843261 15.277678 -24.751907
v -35.644174 13.382740 -26.647402
v -34.375068 14.015128 -27.911375
v -27.428382 15.908953 -26.015880
v 9.843261 15.908953 -26.015880
v -29.957688 8.958247 -26.647402
v 8.583061 5.799645 -26.647402
v 9.210935 10.221911 -27.279234
v -28.060708 7.695697 -26.647402
v -15.423083 15.908953 -25.384048
v -28.056255 16.540228 -26.015880
v -20.477242 10.854299 -26.015570
f 1078 1074 1080 
f 1051 1050 1054 
f 1050 1052 1054 
f 1050 1051 1055 
f 1055 1051 1057 
f 1053 1049 1058 
f 1052 1053 1058 
f 1049 1054 1058 
f 1049 1053 1061 
f 1055 1057 1061 
f 1050 1056 1062 
f 1056 1060 1062 
f 1054 1049 1063 
f 1054 1052 1065 
f 1052 1058 1065 
f 1058 1054 1065 
f 1057 1049 1066 
f 1049 1061 1066 
f 1061 1057 1066 
f 1050 1055 1067 
f 1055 1056 1067 
f 1056 1050 1067 
f 1057 1051 1068 
f 1051 1059 1068 
f 1059 1057 1068 
f 1052 1050 1069 
f 1050 1062 1069 
f 1062 1052 1069 
f 1061 1053 1070 
f 1055 1061 1070 
f 1053 1064 1070 
f 1049 1057 1071 
f 1063 1049 1071 
f 1057 1063 1071 
f 1070 1064 1072 
f 1051 1054 1073 
f 1059 1051 1073 
f 1054 1063 1073 
f 1064 1053 1074 
f 1053 1052 1075 
f 1060 1053 1075 
f 1052 1062 1075 
f 1062 1060 1075 
f 1057 1059 1076 
f 1063 1057 1076 
f 1059 1073 1076 
f 1073 1063 1076 
f 1053 1060 1077 
f 1060 1056 1077 
f 1074 1053 1077 
f 1056 1072 1078 
f 1072 1064 1078 
f 1064 1074 1078 
f 1056 1055 1079 
f 1055 1070 1079 
f 1072 1056 1079 
f 1070 1072 1079 
f 1077 1056 1080 
f 1074 1077 1080 
f 1056 1078 1080 
o convex_38
v 24.387145 0.745176 -29.175286
v 21.860189 18.437394 -19.063998
v 21.860189 18.437394 -22.855731
v 27.546922 2.009524 -24.751103
v 21.227367 0.746908 -27.910385
v 26.282516 0.743444 -19.063998
v 21.227367 13.383464 -19.063998
v 23.123976 11.483478 -26.646474
v 27.546922 1.377350 -19.063998
v 21.227367 11.483478 -26.646474
v 22.491773 8.959977 -19.063998
v 21.227367 1.379082 -29.175286
v 27.546922 0.745176 -25.383553
v 25.018729 1.377350 -29.175286
v 21.227367 18.437394 -22.855731
v 25.649076 1.377350 -19.063998
v 27.546922 2.009524 -20.960359
v 21.227367 18.437394 -19.063998
v 27.546922 1.377350 -25.383553
v 21.227367 14.644349 -25.383553
v 27.546922 0.743444 -19.063998
v 22.491773 13.378268 -26.015014
v 21.860189 10.854767 -19.063998
v 23.756798 5.799106 -19.063998
v 21.227367 0.746908 -29.175286
v 21.860189 17.803488 -23.488181
v 25.018729 0.745176 -29.175286
v 21.227367 17.803488 -23.488181
v 21.227367 13.378268 -26.015014
v 21.860189 14.644349 -25.383553
v 26.282516 0.743444 -24.751103
v 27.546922 0.743444 -24.751103
f 1101 1111 1112 
f 1083 1082 1084 
f 1086 1082 1087 
f 1083 1084 1088 
f 1082 1086 1089 
f 1085 1087 1090 
f 1086 1087 1091 
f 1085 1090 1092 
f 1090 1088 1092 
f 1084 1089 1093 
f 1081 1092 1094 
f 1092 1088 1094 
f 1082 1083 1095 
f 1090 1087 1095 
f 1085 1086 1096 
f 1086 1091 1096 
f 1084 1082 1097 
f 1082 1089 1097 
f 1089 1084 1097 
f 1087 1082 1098 
f 1082 1095 1098 
f 1095 1087 1098 
f 1088 1084 1099 
f 1084 1093 1099 
f 1094 1088 1099 
f 1093 1094 1099 
f 1090 1095 1100 
f 1089 1086 1101 
f 1093 1089 1101 
f 1088 1090 1102 
f 1087 1085 1103 
f 1085 1091 1103 
f 1091 1087 1103 
f 1091 1085 1104 
f 1085 1096 1104 
f 1096 1091 1104 
f 1086 1085 1105 
f 1092 1081 1105 
f 1085 1092 1105 
f 1083 1088 1106 
f 1095 1083 1106 
f 1088 1102 1106 
f 1081 1094 1107 
f 1094 1093 1107 
f 1100 1095 1108 
f 1095 1106 1108 
f 1106 1100 1108 
f 1090 1100 1109 
f 1102 1090 1109 
f 1100 1102 1109 
f 1102 1100 1110 
f 1100 1106 1110 
f 1106 1102 1110 
f 1101 1086 1111 
f 1086 1105 1111 
f 1105 1081 1111 
f 1081 1107 1111 
f 1111 1107 1112 
f 1093 1101 1112 
f 1107 1093 1112 
o convex_39
v -26.168244 22.862814 -25.383553
v -0.259120 32.341219 -20.960607
v -0.259120 29.813644 -20.960607
v -0.259120 24.126602 -24.118803
v -12.267704 32.341219 -24.119236
v -25.534211 23.494708 -24.119669
v -0.259120 23.494708 -22.856217
v -15.425189 32.341219 -23.487077
v -26.168244 26.021355 -25.383553
v -5.947664 22.862814 -24.750961
v -3.419140 31.707470 -20.960607
v -2.158682 32.341219 -22.224058
v -10.373214 22.862814 -23.487510
v -17.953712 23.494708 -25.383553
v -25.534211 24.758495 -24.119669
v -2.158682 29.813644 -20.960607
v -13.525626 32.341219 -22.855784
v -0.259120 22.862814 -24.118803
v -26.168244 26.021355 -24.750961
v -15.425189 32.341219 -24.119236
v -5.947664 23.494708 -24.750961
v -0.259120 26.654176 -23.487510
v -22.374190 22.862814 -24.119669
v -23.639720 26.021355 -25.383553
v -0.259120 32.341219 -21.592333
v -2.156146 23.494708 -22.856217
v -7.213193 28.549857 -21.592333
v -0.259120 22.862814 -23.487510
v -15.425189 29.813644 -22.855784
v -3.419140 30.443682 -20.960607
v -17.953712 22.862814 -25.383553
v -2.787643 32.341219 -20.960607
f 1129 1123 1144 
f 1114 1115 1116 
f 1116 1115 1119 
f 1114 1117 1120 
f 1115 1114 1123 
f 1117 1114 1124 
f 1113 1122 1125 
f 1113 1121 1126 
f 1118 1123 1127 
f 1119 1115 1128 
f 1115 1123 1128 
f 1114 1120 1129 
f 1116 1119 1130 
f 1122 1116 1130 
f 1125 1122 1130 
f 1113 1118 1131 
f 1120 1121 1131 
f 1121 1113 1131 
f 1118 1127 1131 
f 1129 1120 1131 
f 1127 1129 1131 
f 1120 1117 1132 
f 1121 1120 1132 
f 1117 1121 1132 
f 1117 1116 1133 
f 1116 1122 1133 
f 1126 1117 1133 
f 1122 1126 1133 
f 1114 1116 1134 
f 1116 1117 1134 
f 1117 1124 1134 
f 1118 1113 1135 
f 1113 1125 1135 
f 1121 1117 1136 
f 1126 1121 1136 
f 1117 1126 1136 
f 1124 1114 1137 
f 1114 1134 1137 
f 1134 1124 1137 
f 1125 1119 1138 
f 1119 1128 1138 
f 1135 1125 1138 
f 1135 1138 1139 
f 1118 1135 1139 
f 1138 1128 1139 
f 1119 1125 1140 
f 1130 1119 1140 
f 1125 1130 1140 
f 1127 1123 1141 
f 1123 1129 1141 
f 1129 1127 1141 
f 1123 1118 1142 
f 1128 1123 1142 
f 1118 1139 1142 
f 1139 1128 1142 
f 1122 1113 1143 
f 1113 1126 1143 
f 1126 1122 1143 
f 1123 1114 1144 
f 1114 1129 1144 
o convex_40
v 19.331996 19.070154 7.476772
v 21.859075 12.118643 -19.063998
v 22.491278 12.118643 -19.063998
v 19.331996 12.118643 12.533777
v 19.964199 19.070154 -15.272018
v 18.067590 15.279348 11.899718
v 21.859075 17.805871 -19.063998
v 19.964199 12.750784 11.899718
v 21.226872 12.118643 -17.798974
v 18.067590 19.070154 12.533777
v 22.491278 12.750784 -15.902983
v 18.699793 12.118643 10.637787
v 18.067590 17.805871 6.845806
v 20.594670 16.542270 -19.063998
v 21.226872 19.070154 -13.376027
v 19.331996 16.542270 12.533777
v 20.594670 19.070154 -19.063998
v 19.964199 12.118643 11.899718
v 18.067590 19.070154 6.211748
v 19.331996 12.118643 3.053826
v 18.699793 19.070154 12.533777
v 18.699793 12.118643 12.533777
v 18.699793 18.438012 -1.372213
v 22.491278 12.118643 -15.902983
v 22.491278 14.015066 -18.429939
v 21.226872 19.070154 -19.063998
v 21.226872 14.015066 -3.892983
v 19.964199 13.382925 11.268753
v 21.226872 12.750784 -19.063998
v 21.226872 17.805871 -10.845978
v 19.964199 18.438012 -15.272018
v 18.067590 15.279348 12.533777
f 1166 1154 1176 
f 1146 1147 1148 
f 1147 1146 1151 
f 1146 1148 1153 
f 1145 1149 1154 
f 1153 1148 1156 
f 1150 1154 1157 
f 1156 1150 1157 
f 1151 1146 1158 
f 1149 1145 1159 
f 1148 1152 1160 
f 1154 1148 1160 
f 1151 1158 1161 
f 1158 1149 1161 
f 1149 1159 1161 
f 1148 1147 1162 
f 1152 1148 1162 
f 1155 1152 1162 
f 1154 1149 1163 
f 1157 1154 1163 
f 1153 1156 1164 
f 1156 1157 1164 
f 1145 1154 1165 
f 1160 1145 1165 
f 1154 1160 1165 
f 1148 1154 1166 
f 1156 1148 1166 
f 1150 1156 1166 
f 1163 1149 1167 
f 1157 1163 1167 
f 1164 1157 1167 
f 1158 1164 1167 
f 1147 1155 1168 
f 1162 1147 1168 
f 1155 1162 1168 
f 1147 1151 1169 
f 1155 1147 1169 
f 1151 1159 1169 
f 1159 1151 1170 
f 1151 1161 1170 
f 1161 1159 1170 
f 1171 1160 1172 
f 1152 1155 1172 
f 1160 1152 1172 
f 1155 1171 1172 
f 1146 1153 1173 
f 1158 1146 1173 
f 1153 1164 1173 
f 1164 1158 1173 
f 1159 1145 1174 
f 1145 1160 1174 
f 1155 1169 1174 
f 1169 1159 1174 
f 1171 1155 1174 
f 1160 1171 1174 
f 1149 1158 1175 
f 1167 1149 1175 
f 1158 1167 1175 
f 1154 1150 1176 
f 1150 1166 1176 
o convex_41
v 16.802565 32.972185 -15.905025
v -0.259120 22.863866 -24.119147
v -0.259120 22.863866 -23.485769
v 20.595412 22.863866 -20.327785
v 1.637304 32.340848 -21.591573
v 16.802565 32.338869 -14.008849
v 16.802565 23.496192 -17.800211
v 11.746117 23.496192 -23.485769
v -0.259120 32.340848 -20.327785
v -0.259120 23.496192 -22.854370
v 20.595412 24.759856 -19.696386
v 20.595412 22.863866 -19.063998
v 2.270125 24.127529 -24.119147
v 4.166548 32.972185 -18.431610
v 17.435387 32.972185 -14.008849
v 7.324532 27.287183 -22.854370
v -0.259120 32.340848 -21.591573
v 4.166548 32.338869 -18.431610
v 11.744076 32.972185 -17.800211
v 16.169744 22.862876 -18.431610
v 11.746117 22.863866 -23.485769
v 19.329769 23.496192 -20.960174
v 5.430150 23.496192 -24.119147
v -0.259120 24.127529 -24.119147
v 17.435387 32.338869 -14.008849
v -0.259120 31.706542 -20.327785
v 17.435387 32.972185 -15.273626
v 9.855818 24.759856 -23.485769
v 1.006523 28.547878 -22.854370
v 17.435387 23.496192 -17.800211
v 5.430150 30.442879 -21.591573
v 7.957353 32.972185 -19.063998
f 1195 1207 1208 
f 1178 1179 1185 
f 1183 1182 1186 
f 1185 1179 1186 
f 1180 1187 1188 
f 1188 1187 1191 
f 1177 1190 1191 
f 1190 1182 1191 
f 1178 1185 1193 
f 1185 1190 1193 
f 1186 1182 1194 
f 1182 1190 1194 
f 1190 1185 1194 
f 1177 1187 1195 
f 1190 1177 1195 
f 1179 1178 1196 
f 1186 1179 1196 
f 1183 1186 1196 
f 1180 1188 1196 
f 1196 1178 1197 
f 1180 1196 1197 
f 1187 1180 1198 
f 1195 1187 1198 
f 1180 1197 1198 
f 1197 1184 1198 
f 1178 1189 1199 
f 1184 1197 1199 
f 1197 1178 1199 
f 1189 1178 1200 
f 1178 1193 1200 
f 1182 1183 1201 
f 1191 1182 1201 
f 1188 1191 1201 
f 1185 1186 1202 
f 1186 1194 1202 
f 1194 1185 1202 
f 1187 1177 1203 
f 1177 1191 1203 
f 1191 1187 1203 
f 1198 1184 1204 
f 1192 1198 1204 
f 1199 1189 1204 
f 1184 1199 1204 
f 1181 1192 1205 
f 1193 1181 1205 
f 1189 1200 1205 
f 1200 1193 1205 
f 1204 1189 1205 
f 1192 1204 1205 
f 1183 1196 1206 
f 1196 1188 1206 
f 1201 1183 1206 
f 1188 1201 1206 
f 1192 1181 1207 
f 1198 1192 1207 
f 1195 1198 1207 
f 1181 1193 1208 
f 1193 1190 1208 
f 1190 1195 1208 
f 1207 1181 1208 
o convex_42
v -0.893797 36.132952 -19.696448
v -27.431238 48.772062 -19.063998
v -27.431238 48.772062 -19.696448
v -26.168328 36.132952 -26.015014
v -24.902696 38.663001 -26.015014
v -4.685249 36.132952 -19.063998
v -28.062693 46.874216 -19.063998
v -12.270874 42.452507 -19.696448
v -28.696870 40.558373 -23.486697
v -21.111244 36.766392 -26.015014
v -28.696870 42.452507 -24.119147
v -0.893797 36.766392 -19.696448
v -25.534151 36.132952 -25.383306
v -0.893797 36.766392 -19.063998
v -28.062693 47.507656 -20.960607
v -26.168328 36.132952 -26.647464
v -28.696870 48.772062 -19.063998
v -24.271241 44.977607 -19.063998
v -8.476701 36.766392 -19.696448
v -4.685249 36.766392 -20.959864
v -21.111244 36.132952 -26.015014
v -26.168328 37.399832 -26.647464
v -12.270874 42.452507 -19.063998
v -22.374154 46.874216 -19.696448
v -25.534151 39.926170 -25.383306
v -19.214158 39.926170 -23.487439
v -28.696870 47.507656 -20.960607
v -28.062693 43.716913 -23.486697
v -28.696870 46.243250 -19.696448
v -24.902696 37.399832 -26.647464
v -28.696870 40.558373 -24.119147
v -22.374154 46.874216 -19.063998
f 1231 1232 1240 
f 1212 1209 1214 
f 1214 1210 1215 
f 1212 1214 1221 
f 1217 1212 1221 
f 1210 1214 1222 
f 1214 1209 1222 
f 1209 1220 1222 
f 1220 1216 1222 
f 1209 1212 1224 
f 1212 1217 1224 
f 1210 1211 1225 
f 1215 1210 1225 
f 1219 1217 1225 
f 1214 1215 1226 
f 1215 1217 1226 
f 1217 1221 1226 
f 1226 1221 1227 
f 1221 1214 1227 
f 1214 1226 1227 
f 1220 1209 1228 
f 1216 1220 1228 
f 1209 1224 1229 
f 1228 1209 1229 
f 1218 1228 1229 
f 1210 1222 1231 
f 1222 1216 1231 
f 1211 1210 1232 
f 1223 1211 1232 
f 1231 1216 1232 
f 1223 1232 1233 
f 1232 1216 1233 
f 1218 1213 1234 
f 1216 1228 1234 
f 1228 1218 1234 
f 1213 1233 1234 
f 1233 1216 1234 
f 1211 1223 1235 
f 1225 1211 1235 
f 1219 1225 1235 
f 1230 1219 1236 
f 1223 1233 1236 
f 1235 1223 1236 
f 1219 1235 1236 
f 1217 1215 1237 
f 1215 1225 1237 
f 1225 1217 1237 
f 1213 1218 1238 
f 1229 1224 1238 
f 1218 1229 1238 
f 1224 1230 1238 
f 1233 1213 1238 
f 1230 1236 1238 
f 1236 1233 1238 
f 1217 1219 1239 
f 1224 1217 1239 
f 1219 1230 1239 
f 1230 1224 1239 
f 1210 1231 1240 
f 1232 1210 1240 
o convex_43
v 20.594670 0.743877 47.290958
v 19.330511 4.534620 40.339819
v 19.330511 5.166700 40.339819
v -0.259120 2.639682 51.083062
v 23.120574 0.743877 40.339819
v 0.375372 0.743877 49.816925
v 1.639530 5.166700 49.816925
v 19.962590 5.166700 43.500957
v 0.375372 5.166700 48.553941
v 24.387145 1.375956 43.500957
v 21.226749 2.007602 46.658941
v 11.118306 4.534620 43.500957
v 1.639530 0.743877 51.083062
v 24.387145 1.375956 40.339819
v 20.594670 1.375956 47.290958
v 20.594670 5.166700 40.339819
v -0.259120 3.270895 49.185959
v 23.752653 0.743877 44.762889
v 0.375372 4.534620 50.448942
v 23.752653 2.007602 44.130872
v 1.639530 0.743877 49.185959
v 0.375372 2.639682 51.083062
v -0.259120 0.743877 51.083062
v -0.259120 5.166700 49.816925
v 4.165435 4.534620 46.659993
v 11.118306 5.166700 43.500957
v 20.594670 5.166700 42.868940
v 24.387145 0.743877 40.339819
v 20.594670 3.902974 44.762889
v 1.639530 1.375956 51.083062
v 21.856415 1.375956 46.658941
v -0.259120 1.375956 49.816925
f 1257 1265 1272 
f 1242 1243 1245 
f 1245 1241 1246 
f 1243 1247 1248 
f 1247 1243 1249 
f 1243 1242 1252 
f 1242 1245 1252 
f 1246 1241 1253 
f 1245 1243 1254 
f 1251 1247 1255 
f 1253 1241 1255 
f 1243 1248 1256 
f 1254 1243 1256 
f 1250 1254 1256 
f 1241 1245 1258 
f 1255 1247 1259 
f 1258 1250 1260 
f 1245 1246 1261 
f 1252 1245 1261 
f 1244 1253 1262 
f 1259 1244 1262 
f 1255 1259 1262 
f 1253 1244 1263 
f 1246 1253 1263 
f 1244 1257 1263 
f 1247 1249 1264 
f 1257 1244 1264 
f 1249 1257 1264 
f 1244 1259 1264 
f 1259 1247 1264 
f 1257 1249 1265 
f 1249 1243 1266 
f 1243 1252 1266 
f 1265 1249 1266 
f 1252 1265 1266 
f 1256 1248 1267 
f 1250 1256 1267 
f 1260 1250 1267 
f 1245 1254 1268 
f 1254 1250 1268 
f 1258 1245 1268 
f 1250 1258 1268 
f 1248 1247 1269 
f 1247 1251 1269 
f 1251 1260 1269 
f 1267 1248 1269 
f 1260 1267 1269 
f 1253 1255 1270 
f 1262 1253 1270 
f 1255 1262 1270 
f 1255 1241 1271 
f 1251 1255 1271 
f 1241 1258 1271 
f 1260 1251 1271 
f 1258 1260 1271 
f 1261 1246 1272 
f 1252 1261 1272 
f 1246 1263 1272 
f 1263 1257 1272 
f 1265 1252 1272 
o convex_44
v -25.537340 55.723573 20.116748
v -31.224568 46.246096 -13.376398
v -31.224568 47.509759 -13.376398
v -32.488850 46.246096 24.540931
v -26.801622 50.668918 -12.110755
v -30.591746 46.877928 24.540931
v -26.801622 54.458053 4.955012
v -27.434443 54.458053 24.540931
v -25.537340 54.458053 24.540931
v -26.169481 53.194390 -13.376398
v -29.960286 46.246096 -13.376398
v -31.856709 48.141591 23.906254
v -25.537340 53.194390 5.582266
v -28.065904 51.930726 -12.741721
v -29.328145 50.668918 -5.789963
v -32.488850 46.877928 17.589174
v -31.224568 46.246096 24.540931
v -25.537340 53.194390 -2.631423
v -26.169481 55.723573 24.540931
v -26.169481 53.194390 23.275288
v -26.801622 53.194390 -13.376398
v -26.169481 51.930726 -13.376398
v -27.434443 54.458053 22.644323
v -30.591746 48.773423 -8.313826
v -25.537340 54.458053 2.427438
v -26.169481 55.723573 20.116748
v -26.801622 55.089885 16.954496
v -29.960286 46.246096 -12.110755
v -26.801622 53.826222 -5.789963
v -32.488850 46.246096 17.589174
v -31.856709 47.509759 6.844198
v -32.488850 46.877928 24.540931
f 1284 1288 1304 
f 1276 1278 1280 
f 1280 1278 1281 
f 1274 1275 1282 
f 1276 1274 1283 
f 1274 1282 1283 
f 1278 1277 1285 
f 1273 1281 1285 
f 1275 1274 1288 
f 1278 1276 1289 
f 1276 1283 1289 
f 1273 1285 1290 
f 1281 1273 1291 
f 1280 1281 1291 
f 1281 1278 1292 
f 1278 1285 1292 
f 1285 1281 1292 
f 1282 1275 1293 
f 1275 1286 1293 
f 1277 1283 1294 
f 1283 1282 1294 
f 1285 1277 1294 
f 1282 1290 1294 
f 1290 1285 1294 
f 1284 1280 1295 
f 1280 1291 1295 
f 1286 1275 1296 
f 1287 1286 1296 
f 1284 1295 1296 
f 1295 1287 1296 
f 1290 1282 1297 
f 1273 1290 1297 
f 1291 1273 1298 
f 1295 1291 1298 
f 1273 1297 1298 
f 1295 1298 1299 
f 1279 1286 1299 
f 1286 1287 1299 
f 1287 1295 1299 
f 1298 1279 1299 
f 1277 1278 1300 
f 1283 1277 1300 
f 1278 1289 1300 
f 1289 1283 1300 
f 1286 1279 1301 
f 1282 1293 1301 
f 1293 1286 1301 
f 1297 1282 1301 
f 1298 1297 1301 
f 1279 1298 1301 
f 1274 1276 1302 
f 1288 1274 1302 
f 1276 1288 1302 
f 1275 1288 1303 
f 1288 1284 1303 
f 1296 1275 1303 
f 1284 1296 1303 
f 1276 1280 1304 
f 1280 1284 1304 
f 1288 1276 1304 
o convex_45
v -12.263429 53.826283 25.804842
v -16.056275 55.723573 26.437045
v -16.056275 55.723573 25.804842
v -17.321918 46.877062 27.700462
v 3.532613 53.826283 28.332664
v 3.532613 46.877062 27.700462
v -17.321918 50.036901 28.332664
v 3.532613 54.458424 27.068753
v 3.532613 46.877062 28.332664
v -17.321918 53.195008 25.804842
v -2.787437 55.090566 27.700462
v -17.321918 46.877062 28.332664
v -2.156656 55.090566 26.437045
v -17.321918 55.723573 26.437045
v -2.156656 53.826283 26.437045
v -15.425495 50.669042 28.332664
v -16.056275 54.458424 27.068753
v -10.369047 54.458424 25.804842
v -0.893055 55.090566 27.700462
v 1.003369 53.826283 28.332664
v 3.532613 53.195008 27.068753
v -10.369047 55.090566 25.804842
v -15.425495 53.195008 25.804842
v -17.321918 55.723573 25.804842
v 3.532613 54.458424 27.700462
v -12.896250 55.090566 27.068753
v -0.893055 55.090566 27.068753
v -9.103404 51.930726 28.332664
f 1330 1320 1332 
f 1309 1310 1312 
f 1308 1310 1313 
f 1310 1309 1313 
f 1309 1311 1313 
f 1307 1305 1314 
f 1308 1311 1314 
f 1311 1308 1316 
f 1308 1313 1316 
f 1313 1311 1316 
f 1306 1307 1318 
f 1314 1311 1318 
f 1315 1306 1318 
f 1317 1312 1319 
f 1311 1309 1320 
f 1318 1311 1321 
f 1311 1320 1321 
f 1305 1307 1322 
f 1310 1305 1322 
f 1319 1310 1322 
f 1317 1319 1322 
f 1307 1306 1323 
f 1306 1315 1323 
f 1315 1309 1323 
f 1309 1315 1324 
f 1320 1309 1324 
f 1312 1310 1325 
f 1310 1319 1325 
f 1319 1312 1325 
f 1307 1317 1326 
f 1322 1307 1326 
f 1317 1322 1326 
f 1305 1310 1327 
f 1310 1308 1327 
f 1314 1305 1327 
f 1308 1314 1327 
f 1307 1314 1328 
f 1318 1307 1328 
f 1314 1318 1328 
f 1309 1312 1329 
f 1323 1309 1329 
f 1312 1323 1329 
f 1315 1318 1330 
f 1318 1321 1330 
f 1321 1320 1330 
f 1317 1307 1331 
f 1312 1317 1331 
f 1307 1323 1331 
f 1323 1312 1331 
f 1324 1315 1332 
f 1320 1324 1332 
f 1315 1330 1332 
o convex_46
v 20.595412 22.862876 -19.063503
v 18.067837 32.972185 -14.008849
v 17.435634 32.972185 -14.008849
v 19.331006 22.862876 -14.008849
v 17.435634 22.862876 -19.063503
v 18.067837 27.286627 -19.063503
v 20.595412 23.495265 -14.641237
v 19.331006 31.076009 -15.905025
v 20.595412 24.759052 -19.063503
v 17.435634 32.339796 -15.905025
v 19.331006 31.076009 -14.008849
v 17.435634 23.495265 -17.799716
v 18.700040 32.972185 -15.273131
v 17.435634 27.286627 -19.063503
v 19.963209 26.022839 -19.063503
v 19.963209 22.862876 -14.008849
v 17.435634 32.339796 -14.008849
v 20.595412 24.759052 -16.536423
v 17.435634 26.022839 -16.536423
v 19.963209 27.286627 -14.008849
v 20.595412 22.862876 -14.641237
v 19.963209 27.918025 -17.799716
v 17.435634 32.972185 -15.273131
v 17.435634 22.862876 -18.431115
v 18.700040 32.972185 -14.641237
v 18.067837 32.339796 -15.905025
v 19.331006 28.548435 -17.799716
v 18.700040 32.339796 -14.008849
v 20.595412 24.127653 -15.273131
f 1350 1352 1361 
f 1334 1335 1336 
f 1333 1336 1337 
f 1333 1337 1338 
f 1333 1338 1341 
f 1339 1333 1341 
f 1337 1335 1342 
f 1334 1336 1343 
f 1335 1337 1344 
f 1335 1334 1345 
f 1343 1340 1345 
f 1338 1337 1346 
f 1337 1342 1346 
f 1342 1338 1346 
f 1341 1338 1347 
f 1336 1333 1348 
f 1343 1336 1348 
f 1336 1335 1349 
f 1335 1344 1349 
f 1339 1341 1350 
f 1344 1336 1351 
f 1336 1349 1351 
f 1349 1344 1351 
f 1348 1339 1352 
f 1343 1348 1352 
f 1350 1343 1352 
f 1333 1339 1353 
f 1348 1333 1353 
f 1339 1348 1353 
f 1340 1343 1354 
f 1345 1340 1354 
f 1341 1347 1354 
f 1347 1345 1354 
f 1350 1341 1354 
f 1343 1350 1354 
f 1342 1335 1355 
f 1335 1345 1355 
f 1345 1342 1355 
f 1337 1336 1356 
f 1336 1344 1356 
f 1344 1337 1356 
f 1345 1334 1357 
f 1343 1345 1357 
f 1338 1342 1358 
f 1345 1338 1358 
f 1342 1345 1358 
f 1338 1345 1359 
f 1347 1338 1359 
f 1345 1347 1359 
f 1334 1343 1360 
f 1357 1334 1360 
f 1343 1357 1360 
f 1339 1350 1361 
f 1352 1339 1361 
o convex_47
v -31.225496 45.611279 19.477555
v -33.752761 29.182679 -2.633155
v -33.120558 29.182679 -2.633155
v -31.225496 46.242570 -2.633155
v -33.752452 43.082774 27.068753
v -30.592984 39.288347 -2.633155
v -33.120558 39.291687 27.068753
v -33.752761 35.502270 4.952229
v -32.488974 46.244240 27.068753
v -33.120558 29.182679 2.425706
v -31.857080 43.715735 25.804038
v -31.857080 46.242570 2.425706
v -30.592984 46.242570 3.687513
v -33.752452 39.291687 27.068753
v -30.592984 41.818522 5.586040
v -33.752761 32.345815 -1.365532
v -32.488665 30.448601 -1.365532
v -33.752761 29.182679 2.425706
v -33.120558 45.611279 26.434942
v -30.592984 46.242570 -2.633155
v -31.857080 46.244240 27.068753
v -33.752452 43.082774 26.434942
v -30.592984 40.554269 2.425706
v -31.225496 44.347026 19.477555
v -33.752761 31.079892 -2.633155
v -30.592984 43.715735 6.216944
v -31.857080 44.347026 27.068753
v -32.488665 30.448601 -2.633155
v -32.488046 46.242570 17.587751
v -30.592984 39.288347 -1.365532
v -33.752761 38.025765 11.897986
v -31.225496 46.242570 18.849559
f 1387 1374 1393 
f 1364 1363 1365 
f 1364 1365 1367 
f 1366 1368 1370 
f 1363 1364 1371 
f 1368 1371 1372 
f 1370 1365 1373 
f 1368 1366 1375 
f 1371 1368 1375 
f 1367 1374 1376 
f 1363 1369 1377 
f 1373 1365 1377 
f 1369 1373 1377 
f 1371 1364 1378 
f 1372 1371 1378 
f 1369 1363 1379 
f 1363 1371 1379 
f 1371 1375 1379 
f 1366 1370 1380 
f 1367 1365 1381 
f 1365 1370 1381 
f 1374 1367 1381 
f 1374 1381 1382 
f 1370 1368 1382 
f 1381 1370 1382 
f 1366 1380 1383 
f 1380 1373 1383 
f 1367 1376 1384 
f 1376 1372 1384 
f 1372 1378 1384 
f 1372 1376 1385 
f 1362 1382 1385 
f 1365 1363 1386 
f 1363 1377 1386 
f 1377 1365 1386 
f 1376 1374 1387 
f 1385 1376 1387 
f 1362 1385 1387 
f 1368 1372 1388 
f 1382 1368 1388 
f 1372 1385 1388 
f 1385 1382 1388 
f 1364 1367 1389 
f 1378 1364 1389 
f 1367 1378 1389 
f 1370 1373 1390 
f 1380 1370 1390 
f 1373 1380 1390 
f 1378 1367 1391 
f 1367 1384 1391 
f 1384 1378 1391 
f 1373 1369 1392 
f 1375 1366 1392 
f 1369 1379 1392 
f 1379 1375 1392 
f 1366 1383 1392 
f 1383 1373 1392 
f 1374 1382 1393 
f 1382 1362 1393 
f 1362 1387 1393 
o convex_48
v -32.488541 46.877928 24.540931
v -24.905601 55.723573 25.804842
v -17.322660 55.722645 26.436551
v -32.488541 46.246096 27.068753
v -17.322660 51.299822 26.436551
v -26.168929 55.723573 24.540931
v -18.587474 55.089885 25.172887
v -28.695586 51.931654 27.068753
v -31.223728 46.246096 24.540931
v -18.587474 50.668918 27.068753
v -17.322660 53.826222 27.068753
v -30.591321 50.036159 27.068753
v -31.223728 46.246096 27.068753
v -17.322660 53.194390 25.804842
v -26.168929 55.723573 25.804842
v -27.432258 54.457126 24.540931
v -19.850802 55.722645 26.436551
v -25.536523 54.457126 24.540931
v -18.587474 55.722645 25.172887
v -31.854650 48.142519 24.540931
v -32.488541 46.877928 27.068753
v -26.168929 54.457126 26.436798
v -19.219880 53.826222 27.068753
v -17.322660 55.722645 25.804842
v -17.322660 51.299822 27.068753
v -32.488541 46.246096 24.540931
v -27.432258 54.457126 25.804842
v -18.587474 50.668918 26.436551
v -26.168929 52.561630 27.068753
v -31.854650 48.142519 27.068753
v -29.327993 48.772495 24.540931
v -25.536523 55.723573 24.540931
f 1417 1412 1425 
f 1394 1399 1402 
f 1401 1397 1403 
f 1398 1396 1404 
f 1401 1403 1404 
f 1397 1401 1405 
f 1397 1402 1406 
f 1403 1397 1406 
f 1396 1398 1407 
f 1398 1402 1407 
f 1402 1400 1407 
f 1396 1395 1408 
f 1395 1399 1408 
f 1405 1401 1408 
f 1399 1394 1409 
f 1408 1399 1409 
f 1404 1396 1410 
f 1396 1408 1410 
f 1402 1399 1411 
f 1407 1400 1412 
f 1400 1411 1412 
f 1405 1409 1413 
f 1409 1394 1413 
f 1394 1397 1414 
f 1397 1405 1414 
f 1413 1394 1414 
f 1408 1401 1415 
f 1410 1408 1415 
f 1401 1404 1416 
f 1404 1410 1416 
f 1395 1396 1417 
f 1396 1407 1417 
f 1407 1412 1417 
f 1403 1398 1418 
f 1398 1404 1418 
f 1404 1403 1418 
f 1397 1394 1419 
f 1394 1402 1419 
f 1402 1397 1419 
f 1405 1408 1420 
f 1409 1405 1420 
f 1408 1409 1420 
f 1402 1398 1421 
f 1398 1403 1421 
f 1406 1402 1421 
f 1403 1406 1421 
f 1415 1401 1422 
f 1410 1415 1422 
f 1401 1416 1422 
f 1416 1410 1422 
f 1405 1413 1423 
f 1414 1405 1423 
f 1413 1414 1423 
f 1400 1402 1424 
f 1411 1400 1424 
f 1402 1411 1424 
f 1399 1395 1425 
f 1411 1399 1425 
f 1412 1411 1425 
f 1395 1417 1425 
o convex_49
v -38.174640 21.596986 -26.015447
v 9.848952 22.861887 -22.855731
v 9.848952 21.597543 -22.855731
v 9.848952 17.174287 -25.383244
v -36.279034 22.861330 -27.278986
v -35.645578 17.174287 -26.647217
v 8.582039 22.861887 -24.120137
v -29.958762 22.861887 -24.751907
v 9.210733 17.174287 -24.120137
v -27.434463 17.174287 -27.279419
v -29.330069 17.174287 -26.015447
v 9.848952 18.438631 -25.383244
v -38.808096 17.807294 -27.278986
v 4.790829 22.228323 -22.855731
v -38.808096 19.702975 -26.015447
v -29.958762 22.227766 -24.751907
v -38.808096 22.861330 -26.647217
v -29.330069 19.070525 -27.279419
v -4.687198 17.174287 -24.751907
v -38.808096 22.861330 -27.278986
v 4.790829 22.861887 -22.855731
v 7.948583 21.597543 -22.855731
v 9.848952 22.228323 -24.120137
v -38.808096 17.807294 -26.647217
v 9.848952 17.174287 -24.120137
v -35.645578 17.174287 -27.279419
v -36.907728 22.861330 -26.015447
v -18.580367 22.228323 -24.120137
v -27.434463 17.808408 -27.279419
v 7.948583 20.965649 -24.751907
v -38.808096 20.333199 -26.015447
v -33.749973 22.861887 -25.383677
f 1456 1433 1457 
f 1427 1428 1429 
f 1427 1432 1433 
f 1431 1429 1434 
f 1429 1431 1435 
f 1431 1434 1436 
f 1427 1429 1437 
f 1429 1435 1437 
f 1428 1427 1439 
f 1433 1440 1441 
f 1440 1436 1441 
f 1438 1440 1442 
f 1430 1437 1443 
f 1436 1434 1444 
f 1438 1442 1445 
f 1430 1443 1445 
f 1427 1433 1446 
f 1439 1427 1446 
f 1434 1428 1447 
f 1428 1439 1447 
f 1439 1436 1447 
f 1444 1434 1447 
f 1436 1444 1447 
f 1432 1427 1448 
f 1427 1437 1448 
f 1437 1432 1448 
f 1431 1436 1449 
f 1438 1431 1449 
f 1436 1440 1449 
f 1440 1438 1449 
f 1429 1428 1450 
f 1428 1434 1450 
f 1434 1429 1450 
f 1435 1431 1451 
f 1431 1438 1451 
f 1443 1435 1451 
f 1438 1445 1451 
f 1445 1443 1451 
f 1442 1426 1452 
f 1436 1439 1453 
f 1433 1441 1453 
f 1441 1436 1453 
f 1446 1433 1453 
f 1439 1446 1453 
f 1437 1435 1454 
f 1443 1437 1454 
f 1435 1443 1454 
f 1430 1432 1455 
f 1432 1437 1455 
f 1437 1430 1455 
f 1440 1433 1456 
f 1426 1442 1456 
f 1442 1440 1456 
f 1432 1430 1457 
f 1433 1432 1457 
f 1430 1445 1457 
f 1445 1442 1457 
f 1452 1426 1457 
f 1442 1452 1457 
f 1426 1456 1457 
o convex_50
v -42.600138 12.117715 -8.957782
v -45.759916 4.535177 -24.751597
v -45.127713 4.535177 -24.751597
v -42.600138 17.806243 -24.751597
v -42.600138 4.535177 -6.427239
v -43.232341 5.167813 1.790533
v -43.232341 17.806243 -17.796499
v -44.495819 4.535177 -24.117662
v -45.759916 5.799150 -23.486326
v -43.864235 16.540971 -24.751597
v -42.600138 15.909634 -24.751597
v -42.600138 4.535177 1.790533
v -42.600138 17.806243 -17.796499
v -43.232341 4.535177 1.790533
v -43.864235 16.540971 -22.221054
v -45.759916 4.535177 -22.854989
v -43.232341 17.806243 -24.751597
v -43.864235 4.535177 -18.427836
v -42.600138 5.167813 1.790533
v -44.495819 13.380389 -24.751597
v -44.495819 5.167813 -24.751597
v -44.495819 10.856340 -19.061771
v -45.759916 5.799150 -24.751597
v -45.127713 5.167813 -16.533825
v -45.127713 8.961031 -22.221054
v -44.495819 13.380389 -23.486326
v -43.232341 12.117715 -8.957782
v -43.864235 15.909634 -20.958380
v -45.759916 5.167813 -22.854989
v -45.127713 4.535177 -16.533825
v -43.864235 11.485079 -14.003282
f 1484 1464 1488 
f 1460 1459 1461 
f 1461 1458 1462 
f 1459 1460 1462 
f 1462 1460 1465 
f 1461 1459 1467 
f 1460 1461 1468 
f 1461 1462 1468 
f 1462 1458 1469 
f 1459 1462 1469 
f 1458 1461 1470 
f 1461 1464 1470 
f 1464 1458 1470 
f 1459 1469 1471 
f 1469 1463 1471 
f 1464 1467 1472 
f 1466 1459 1473 
f 1459 1471 1473 
f 1464 1461 1474 
f 1467 1464 1474 
f 1461 1467 1474 
f 1462 1465 1475 
f 1468 1462 1475 
f 1465 1468 1475 
f 1458 1463 1476 
f 1469 1458 1476 
f 1463 1469 1476 
f 1467 1459 1477 
f 1472 1467 1477 
f 1465 1460 1478 
f 1460 1468 1478 
f 1468 1465 1478 
f 1459 1466 1480 
f 1477 1459 1480 
f 1463 1466 1481 
f 1471 1463 1481 
f 1466 1463 1482 
f 1472 1466 1482 
f 1463 1479 1482 
f 1479 1464 1482 
f 1466 1472 1483 
f 1472 1477 1483 
f 1480 1466 1483 
f 1477 1480 1483 
f 1463 1458 1484 
f 1458 1464 1484 
f 1464 1472 1485 
f 1482 1464 1485 
f 1472 1482 1485 
f 1466 1473 1486 
f 1481 1466 1486 
f 1473 1481 1486 
f 1473 1471 1487 
f 1471 1481 1487 
f 1481 1473 1487 
f 1479 1463 1488 
f 1464 1479 1488 
f 1463 1484 1488 
o convex_51
v 9.852168 17.175772 -24.751597
v 20.594917 22.861887 -19.064740
v 21.227367 21.596986 -17.800582
v 21.227367 14.015499 -24.751597
v 20.594917 12.750599 -20.959864
v 12.380856 22.228446 -24.119147
v 11.117069 22.228446 -20.328156
v 20.593803 19.070154 -17.168131
v 21.227367 20.334065 -22.223281
v 9.852168 22.859907 -23.487439
v 19.962467 22.861887 -17.168131
v 20.594917 16.543321 -24.751597
v 19.962467 22.861887 -20.959864
v 9.852168 17.175772 -24.119147
v 21.227367 12.750599 -22.223281
v 9.852168 20.333075 -24.751597
v 18.066229 14.649929 -20.959864
v 10.484619 22.861887 -20.959864
v 21.227367 19.070154 -17.168131
v 19.962467 14.015499 -24.751597
v 20.594917 12.750599 -22.223281
v 16.169991 19.068174 -24.751597
v 16.802442 22.861887 -22.223281
v 21.227367 12.750599 -20.959864
v 19.962467 20.334065 -17.168131
v 21.227367 21.596986 -20.959864
v 21.227367 15.911861 -24.751597
v 20.593803 22.861887 -17.168131
v 9.852168 21.595996 -22.855731
v 13.012193 22.859907 -23.487439
v 11.117069 22.861887 -20.328156
v 9.852168 22.228446 -24.119147
f 1494 1504 1520 
f 1491 1492 1497 
f 1492 1489 1500 
f 1499 1490 1501 
f 1498 1489 1502 
f 1492 1491 1503 
f 1489 1498 1504 
f 1500 1489 1504 
f 1493 1496 1505 
f 1496 1495 1505 
f 1502 1493 1505 
f 1495 1502 1505 
f 1499 1501 1506 
f 1502 1495 1506 
f 1496 1493 1507 
f 1499 1496 1507 
f 1503 1491 1507 
f 1489 1492 1508 
f 1492 1503 1508 
f 1508 1503 1509 
f 1502 1489 1509 
f 1493 1502 1509 
f 1503 1493 1509 
f 1489 1508 1509 
f 1504 1494 1510 
f 1500 1504 1510 
f 1497 1500 1511 
f 1501 1497 1511 
f 1498 1506 1511 
f 1506 1501 1511 
f 1510 1494 1511 
f 1500 1510 1511 
f 1493 1503 1512 
f 1507 1493 1512 
f 1503 1507 1512 
f 1495 1496 1513 
f 1499 1495 1513 
f 1496 1499 1513 
f 1490 1491 1514 
f 1491 1497 1514 
f 1501 1490 1514 
f 1497 1501 1514 
f 1497 1492 1515 
f 1492 1500 1515 
f 1500 1497 1515 
f 1491 1490 1516 
f 1490 1499 1516 
f 1507 1491 1516 
f 1499 1507 1516 
f 1498 1502 1517 
f 1506 1498 1517 
f 1502 1506 1517 
f 1494 1498 1518 
f 1511 1494 1518 
f 1498 1511 1518 
f 1495 1499 1519 
f 1506 1495 1519 
f 1499 1506 1519 
f 1498 1494 1520 
f 1504 1498 1520 
o convex_52
v 6.692391 54.458672 25.801750
v 6.692020 44.348374 8.110088
v 6.692391 44.349363 4.317737
v 8.588257 44.981752 -5.157760
v 6.060312 44.983731 25.801750
v 5.429346 52.561506 25.801750
v 7.955807 46.245539 -9.581573
v 4.796524 44.348374 23.275907
v 7.324470 47.508337 -3.894839
v 6.692391 51.298709 26.436798
v 8.588257 47.508337 -3.259791
v 4.796524 44.348374 26.436798
v 7.324470 44.981752 -5.792809
v 6.061054 52.561506 18.217046
v 6.060312 44.348374 24.538828
v 7.324099 51.297719 18.848507
v 4.796524 45.615130 23.907368
v 8.588257 44.981752 -10.216621
v 6.060312 54.458672 26.436798
v 7.324470 46.245539 -5.792809
v 7.324099 44.348374 9.376598
v 8.588257 47.508337 -4.526300
v 6.692391 50.035911 6.843579
v 8.588257 45.614140 -3.894839
v 7.324099 52.561506 18.848507
v 4.796524 46.876938 26.436798
v 7.955807 44.981752 -10.216621
v 6.060312 54.458672 25.801750
v 6.060312 45.615130 26.436798
v 8.588257 46.245539 -9.581573
v 6.061054 51.931097 16.954125
v 6.692391 50.664341 25.801750
f 1530 1549 1552 
f 1523 1522 1528 
f 1528 1522 1532 
f 1523 1528 1533 
f 1532 1522 1535 
f 1525 1532 1535 
f 1528 1532 1537 
f 1531 1524 1538 
f 1530 1521 1539 
f 1532 1530 1539 
f 1529 1527 1540 
f 1533 1528 1540 
f 1528 1537 1540 
f 1522 1523 1541 
f 1535 1522 1541 
f 1525 1535 1541 
f 1523 1538 1541 
f 1538 1524 1541 
f 1531 1538 1542 
f 1527 1529 1543 
f 1529 1540 1543 
f 1542 1527 1543 
f 1524 1531 1544 
f 1531 1536 1544 
f 1541 1524 1544 
f 1525 1541 1544 
f 1521 1530 1545 
f 1530 1536 1545 
f 1536 1531 1545 
f 1542 1521 1545 
f 1531 1542 1545 
f 1526 1537 1546 
f 1537 1532 1546 
f 1539 1526 1546 
f 1532 1539 1546 
f 1523 1533 1547 
f 1538 1523 1547 
f 1527 1538 1547 
f 1540 1527 1547 
f 1533 1540 1547 
f 1534 1526 1548 
f 1539 1521 1548 
f 1526 1539 1548 
f 1521 1542 1548 
f 1543 1534 1548 
f 1542 1543 1548 
f 1532 1525 1549 
f 1530 1532 1549 
f 1538 1527 1550 
f 1527 1542 1550 
f 1542 1538 1550 
f 1526 1534 1551 
f 1537 1526 1551 
f 1540 1537 1551 
f 1534 1543 1551 
f 1543 1540 1551 
f 1536 1530 1552 
f 1525 1544 1552 
f 1544 1536 1552 
f 1549 1525 1552 
o convex_53
v -25.537340 50.667001 27.068753
v -33.749545 31.710253 27.700956
v -33.749545 31.710253 28.332664
v -17.326742 31.710253 29.596575
v -31.854050 47.505893 28.332664
v -17.326742 51.929860 27.068753
v -18.588798 40.556208 29.596575
v -21.116125 31.710253 28.332664
v -33.749545 39.924778 27.068753
v -17.326742 50.033592 28.332664
v -31.222218 33.606522 28.964373
v -17.326742 49.402162 27.068753
v -31.854050 48.139302 27.068753
v -30.590386 31.710253 27.700956
v -33.749545 43.085885 28.332664
v -17.326742 31.710253 28.964373
v -21.747957 31.710253 29.596575
v -19.220630 51.929860 27.700956
v -27.431227 43.085885 28.964373
v -30.590386 49.402162 27.700956
v -17.326742 40.556208 29.596575
v -31.222218 31.710253 28.964373
v -33.117713 45.613584 27.068753
v -17.326742 42.452476 27.700956
v -21.116125 35.502790 29.596575
v -33.117713 45.613584 28.332664
v -18.588798 50.033592 28.332664
v -17.956966 48.770732 27.068753
v -33.117713 39.924778 27.068753
v -30.590386 49.402162 27.068753
v -28.694891 50.033592 27.700956
v -33.749545 43.085885 27.068753
f 1567 1575 1584 
f 1555 1554 1556 
f 1556 1554 1560 
f 1554 1555 1561 
f 1553 1558 1561 
f 1556 1558 1562 
f 1558 1556 1564 
f 1561 1558 1564 
f 1553 1561 1565 
f 1560 1554 1566 
f 1554 1561 1566 
f 1561 1555 1567 
f 1555 1563 1567 
f 1556 1560 1568 
f 1564 1556 1568 
f 1555 1556 1569 
f 1556 1559 1569 
f 1558 1553 1570 
f 1562 1558 1570 
f 1559 1557 1571 
f 1565 1557 1572 
f 1559 1556 1573 
f 1556 1562 1573 
f 1562 1559 1573 
f 1563 1555 1574 
f 1555 1569 1574 
f 1569 1563 1574 
f 1565 1561 1575 
f 1560 1564 1576 
f 1568 1560 1576 
f 1564 1568 1576 
f 1569 1559 1577 
f 1563 1569 1577 
f 1559 1571 1577 
f 1571 1563 1577 
f 1557 1565 1578 
f 1567 1563 1578 
f 1571 1557 1578 
f 1563 1571 1578 
f 1565 1575 1578 
f 1575 1567 1578 
f 1557 1559 1579 
f 1559 1562 1579 
f 1570 1557 1579 
f 1562 1570 1579 
f 1564 1560 1580 
f 1561 1564 1580 
f 1560 1566 1580 
f 1580 1566 1581 
f 1566 1561 1581 
f 1561 1580 1581 
f 1553 1565 1582 
f 1565 1572 1582 
f 1582 1572 1583 
f 1570 1553 1583 
f 1557 1570 1583 
f 1572 1557 1583 
f 1553 1582 1583 
f 1561 1567 1584 
f 1575 1561 1584 
