v 30.360496044158936 8.946633725092733 29.80906221542857
v 28.702744841575623 8.987536257743864 -4.71801196432906
v 33.286482095718384 8.983648422365604 -5.469437662095215
v 34.053489565849304 8.836204304624493 21.306709995718162
v 24.797777831554413 18.582019211389063 27.448174310252043
v 30.360496044158936 8.946633725092733 29.80906221542857
v 34.053489565849304 8.836204304624493 21.306709995718162
v 28.66930067539215 18.36116384447046 22.620572138573145
v 24.797777831554413 18.582019211389063 27.448174310252043
v 28.66930067539215 18.36116384447046 22.620572138573145
v 23.04048389196396 44.20891505065906 6.194049367983683
v 19.490918517112732 46.65619002255745 10.150699911836101
v 19.490918517112732 46.65619002255745 10.150699911836101
v 20.212653279304504 48.49791471697884 -3.381810042979655
v 12.567247450351715 56.987887269892234 -2.1546385895103697
v 12.64427900314331 53.48972380061809 18.286420631026168
v 24.797777831554413 18.582019211389063 27.448174310252043
v 19.490918517112732 46.65619002255745 10.150699911836101
v 12.64427900314331 53.48972380061809 18.286420631026168
v 12.76499629020691 28.509576731497937 28.13132238824408
v 15.279988944530487 8.519153030415014 39.522238177904164
v 28.711551427841187 8.894892173481374 32.850174646801534
v 28.711551427841187 8.894892009631976 36.417608004040424
v 15.279988944530487 8.519153611623675 43.089671535142934
v -32.265543937683105 7.686420645017103 5.278606578128511
v 10.615938901901245 1.2800637571758666 -1.7522746919912084
v 15.279988944530487 8.519153030415014 39.522238177904164
v -11.881162971258163 6.996734841029213 39.04456382247534
v -17.347703874111176 7.8196977412287705 34.96043852722659
v 28.711551427841187 8.894892173481374 32.850174646801534
v 30.360496044158936 8.946633725092733 29.80906221542857
v 24.797777831554413 18.582019211389063 27.448174310252043
v -17.347703874111176 7.8196977412287705 34.96043852722659
v -18.747752904891968 27.82625730035662 28.97524678355229
v -31.615138053894043 31.065429094250934 5.139075001307945
v -32.265543937683105 7.686420645017103 5.278606578128511
v 12.76499629020691 28.509576731497937 28.13132238824408
v 12.64427900314331 53.48972380061809 18.286420631026168
v -17.59991943836212 55.08054883697109 23.866778579073824
v -18.747752904891968 27.82625730035662 28.97524678355229
v -17.347703874111176 7.8196977412287705 34.96043852722659
v -11.881162971258163 6.996734841029213 39.04456382247534
v -11.881162971258163 6.996735422238361 42.61200015994635
v -17.347703874111176 7.819699067495492 38.52787188446524
v 10.615938901901245 1.2800637571758666 -1.7522746919912084
v 28.702744841575623 8.987536257743864 -4.71801196432906
v 30.360496044158936 8.946633725092733 29.80906221542857
v 28.711551427841187 8.894892173481374 32.850174646801534
v 15.279988944530487 8.519153030415014 39.522238177904164
v -18.747752904891968 27.82625730035662 28.97524678355229
v -17.347703874111176 7.8196977412287705 34.96043852722659
v -17.347703874111176 7.819699067495492 38.52787188446524
v -13.084658980369568 27.129212362393968 38.675446858777875
v 28.88171672821045 23.666783390482273 -4.768014084680825
v 28.66930067539215 18.36116384447046 22.620572138573145
v 34.053489565849304 8.836204304624493 21.306709995718162
v 33.286482095718384 8.983648422365604 -5.469437662095215
v 28.88171672821045 23.666783390482273 -4.768014084680825
v 24.635928869247437 43.54616932829354 -4.0999658570980575
v 23.04048389196396 44.20891505065906 6.194049367983683
v 28.66930067539215 18.36116384447046 22.620572138573145
v -27.573183178901672 56.50050088629886 2.735686037781929
v -24.328354001045227 55.02277830596098 -23.20986243467444
v -29.02156710624695 30.47760477329539 -33.49575598872547
v -31.615138053894043 31.065429094250934 5.139075001307945
v 19.249697029590607 8.85123340679503 -44.00005484781184
v 25.464126467704773 8.76245340904682 -37.121586439068075
v 33.286482095718384 8.983648422365604 -5.469437662095215
v 28.702744841575623 8.987536257743864 -4.71801196432906
v 14.727610349655151 18.495551683312314 -40.01306000679338
v 19.937975704669952 18.28619389282408 -36.67368590728541
v 25.464126467704773 8.76245340904682 -37.121586439068075
v 19.249697029590607 8.85123340679503 -44.00005484781184
v 19.937975704669952 18.28619389282408 -36.67368590728541
v 14.727610349655151 18.495551683312314 -40.01306000679338
v 16.46428108215332 39.52576798039682 -19.399971248983164
v 21.04247510433197 36.942482296484584 -16.43976425987131
v 16.46428108215332 39.52576798039682 -19.399971248983164
v 6.115251034498215 53.433664121087745 -27.57383263428253
v 12.567247450351715 56.987887269892234 -2.1546385895103697
v 20.212653279304504 48.49791471697884 -3.381810042979655
v 14.727610349655151 18.495551683312314 -40.01306000679338
v 1.1108874343335629 31.149076409526163 -42.759492107720106
v 6.115251034498215 53.433664121087745 -27.57383263428253
v 16.46428108215332 39.52576798039682 -19.399971248983164
v 1.1108874343335629 31.149076409526163 -42.759492107720106
v 1.8574336543679237 8.403902813003404 -48.38859873836486
v -23.72884899377823 6.895006012301473 -39.25955705919978
v -29.02156710624695 30.47760477329539 -33.49575598872547
v -32.265543937683105 7.686420645017103 5.278606578128511
v -27.60562002658844 7.731619956095814 -33.646072216825495
v -23.72884899377823 6.895006012301473 -39.25955705919978
v 1.8574336543679237 8.403902813003404 -48.38859873836486
v 10.615938901901245 1.2800637571758666 -1.7522746919912084
v 16.716094315052032 8.791894364021594 -46.35534429737286
v 14.727610349655151 18.495551683312314 -40.01306000679338
v 19.249697029590607 8.85123340679503 -44.00005484781184
v -27.60562002658844 7.731619956095814 -33.646072216825495
v -32.265543937683105 7.686420645017103 5.278606578128511
v -31.615138053894043 31.065429094250934 5.139075001307945
v -29.02156710624695 30.47760477329539 -33.49575598872547
v 1.1108874343335629 31.149076409526163 -42.759492107720106
v -29.02156710624695 30.47760477329539 -33.49575598872547
v -24.328354001045227 55.02277830596098 -23.20986243467444
v 6.115251034498215 53.433664121087745 -27.57383263428253
v -29.02156710624695 30.47760477329539 -33.49575598872547
v -23.72884899377823 6.895006012301473 -39.25955705919978
v -27.60562002658844 7.731619956095814 -33.646072216825495
v 10.615938901901245 1.2800637571758666 -1.7522746919912084
v 1.8574336543679237 8.403902813003404 -48.38859873836486
v 16.716094315052032 8.791894364021594 -46.35534429737286
v 19.249697029590607 8.85123340679503 -44.00005484781184
v 28.702744841575623 8.987536257743864 -4.71801196432906
v 14.727610349655151 18.495551683312314 -40.01306000679338
v 16.716094315052032 8.791894364021594 -46.35534429737286
v 1.8574336543679237 8.403902813003404 -48.38859873836486
v 1.1108874343335629 31.149076409526163 -42.759492107720106
v 28.88171672821045 23.666783390482273 -4.768014084680825
v 33.286482095718384 8.983648422365604 -5.469437662095215
v 25.464126467704773 8.76245340904682 -37.121586439068075
v 19.937975704669952 18.28619389282408 -36.67368590728541
v 28.88171672821045 23.666783390482273 -4.768014084680825
v 19.937975704669952 18.28619389282408 -36.67368590728541
v 21.04247510433197 36.942482296484584 -16.43976425987131
v 24.635928869247437 43.54616932829354 -4.0999658570980575
v 13.163191080093384 28.30347456184821 38.88064459780229
v -13.084658980369568 27.129212362393968 38.675446858777875
v -11.881162971258163 6.996735422238361 42.61200015994635
v 15.279988944530487 8.519153611623675 43.089671535142934
v -13.084658980369568 27.129212362393968 38.675446858777875
v -17.347703874111176 7.819699067495492 38.52787188446524
v -11.881162971258163 6.996735422238361 42.61200015994635
v 22.25322276353836 15.967009263670512 32.30117597320695
v 13.163191080093384 28.30347456184821 38.88064459780229
v 15.279988944530487 8.519153611623675 43.089671535142934
v 28.711551427841187 8.894892009631976 36.417608004040424
v 28.711551427841187 8.894892173481374 32.850174646801534
v 24.797777831554413 18.582019211389063 27.448174310252043
v 22.25322276353836 15.967009263670512 32.30117597320695
v 28.711551427841187 8.894892009631976 36.417608004040424
v -11.881162971258163 6.996734841029213 39.04456382247534
v 15.279988944530487 8.519153030415014 39.522238177904164
v 15.279988944530487 8.519153611623675 43.089671535142934
v -11.881162971258163 6.996735422238361 42.61200015994635
v -18.747752904891968 27.82625730035662 28.97524678355229
v -17.59991943836212 55.08054883697109 23.866778579073824
v -27.573183178901672 56.50050088629886 2.735686037781929
v -31.615138053894043 31.065429094250934 5.139075001307945
f 1 2 3
f 1 3 4
f 5 6 7
f 5 7 8
f 9 10 11
f 9 11 12
f 13 14 15
f 13 15 16
f 17 18 19
f 17 19 20
f 21 22 23
f 21 23 24
f 29 25 26
f 29 26 27
f 27 28 29
f 30 31 32
f 33 34 35
f 33 35 36
f 37 38 39
f 37 39 40
f 41 42 43
f 41 43 44
f 49 45 46
f 49 46 47
f 47 48 49
f 50 51 52
f 50 52 53
f 54 55 56
f 54 56 57
f 58 59 60
f 58 60 61
f 62 63 64
f 62 64 65
f 66 67 68
f 66 68 69
f 70 71 72
f 70 72 73
f 74 75 76
f 74 76 77
f 78 79 80
f 78 80 81
f 82 83 84
f 82 84 85
f 86 87 88
f 86 88 89
f 94 90 91
f 94 91 92
f 92 93 94
f 95 96 97
f 98 99 100
f 98 100 101
f 102 103 104
f 102 104 105
f 106 107 108
f 113 109 110
f 113 110 111
f 111 112 113
f 114 115 116
f 114 116 117
f 118 119 120
f 118 120 121
f 122 123 124
f 122 124 125
f 126 127 128
f 126 128 129
f 130 131 132
f 133 134 135
f 133 135 136
f 137 138 139
f 137 139 140
f 141 142 143
f 141 143 144
f 145 146 147
f 145 147 148
v -27.573183178901672 56.50050088629886 2.735686037781929
v -17.59991943836212 55.08054883697109 23.866778579073824
v -10.607831925153732 58.95398881957526 1.6417817090628495
v 12.64427900314331 53.48972380061809 18.286420631026168
v 12.567247450351715 56.987887269892234 -2.1546385895103697
v -10.607831925153732 58.95398881957526 1.6417817090628495
v -17.59991943836212 55.08054883697109 23.866778579073824
v 20.212653279304504 48.49791471697884 -3.381810042979655
v 19.490918517112732 46.65619002255745 10.150699911836101
v 23.04048389196396 44.20891505065906 6.194049367983683
v 24.635928869247437 43.54616932829354 -4.0999658570980575
v -27.573183178901672 56.50050088629886 2.735686037781929
v -10.607831925153732 58.95398881957526 1.6417817090628495
v -24.328354001045227 55.02277830596098 -23.20986243467444
v 6.115251034498215 53.433664121087745 -27.57383263428253
v -24.328354001045227 55.02277830596098 -23.20986243467444
v -10.607831925153732 58.95398881957526 1.6417817090628495
v 12.567247450351715 56.987887269892234 -2.1546385895103697
v 20.212653279304504 48.49791471697884 -3.381810042979655
v 24.635928869247437 43.54616932829354 -4.0999658570980575
v 21.04247510433197 36.942482296484584 -16.43976425987131
v 16.46428108215332 39.52576798039682 -19.399971248983164
v 24.797777831554413 18.582019211389063 27.448174310252043
v 12.76499629020691 28.509576731497937 28.13132238824408
v 13.163191080093384 28.30347456184821 38.88064459780229
v 22.25322276353836 15.967009263670512 32.30117597320695
v 12.76499629020691 28.509576731497937 28.13132238824408
v -18.747752904891968 27.82625730035662 28.97524678355229
v -13.084658980369568 27.129212362393968 38.675446858777875
v 13.163191080093384 28.30347456184821 38.88064459780229
f 149 150 151
f 152 153 154
f 152 154 155
f 156 157 158
f 156 158 159
f 160 161 162
f 163 164 165
f 163 165 166
f 167 168 169
f 167 169 170
f 171 172 173
f 171 173 174
f 175 176 177
f 175 177 178
