v -4.420080408453941 61.40192214895753 3.9176088372901554
v -7.936803996562958 61.144221125118044 1.8174882081814614
v -7.710258662700653 61.66631028655054 2.7806310098802176
v -5.426981300115585 61.83363266751122 4.144160806340433
v -10.044914484024048 61.222333585660884 5.338003197765696
v -6.528191268444061 61.48002864903623 7.438125875785025
v -6.795698404312134 61.88433871121616 6.429902067667901
v -9.078976511955261 61.717028251184225 5.066370967354139
v -6.528191268444061 61.48002864903623 7.438125875785025
v -4.420080408453941 61.40192214895753 3.9176088372901554
v -5.426981300115585 61.83363266751122 4.144160806340433
v -6.795698404312134 61.88433871121616 6.429902067667901
v -7.936803996562958 61.144221125118044 1.8174882081814614
v -10.044914484024048 61.222333585660884 5.338003197765696
v -9.078976511955261 61.717028251184225 5.066370967354139
v -7.710258662700653 61.66631028655054 2.7806310098802176
v -1.5725189819931984 -0.024389358616264307 3.370717916885989
v -3.860902786254883 -0.02438873895587519 7.174166295925754
v -7.6643504202365875 -0.02438911178094673 4.885782305399554
v -5.375966802239418 -0.024389731441275153 1.0823342988888196
v -7.211042940616608 53.583163631593294 3.7355410181386226
v -8.159732818603516 53.61831870919699 5.319840666179715
v -10.044914484024048 61.222333585660884 5.338003197765696
v -7.936803996562958 61.144221125118044 1.8174882081814614
v -7.6643504202365875 -0.02438911178094673 4.885782305399554
v -6.71112984418869 32.2284826678389 5.513580480701034
v -5.602715536952019 32.41315841883678 3.671322325069892
v -5.375966802239418 -0.024389731441275153 1.0823342988888196
v -3.860902786254883 -0.02438873895587519 7.174166295925754
v -4.862087219953537 32.228482849087335 6.62607547093064
v -6.71112984418869 32.2284826678389 5.513580480701034
v -7.6643504202365875 -0.02438911178094673 4.885782305399554
v -1.5725189819931984 -0.024389358616264307 3.370717916885989
v -3.7536732852458954 32.41316158031752 4.7838176878280425
v -4.862087219953537 32.228482849087335 6.62607547093064
v -3.860902786254883 -0.02438873895587519 7.174166295925754
v -5.375966802239418 -0.024389731441275153 1.0823342988888196
v -5.602715536952019 32.41315841883678 3.671322325069892
v -3.7536732852458954 32.41316158031752 4.7838176878280425
v -1.5725189819931984 -0.024389358616264307 3.370717916885989
v -6.71112984418869 32.2284826678389 5.513580480701034
v -8.159732818603516 53.61831870919699 5.319840666179715
v -7.211042940616608 53.583163631593294 3.7355410181386226
v -5.602715536952019 32.41315841883678 3.671322325069892
v -4.862087219953537 32.228482849087335 6.62607547093064
v -6.5771400928497314 53.734285660047505 6.264935620135218
v -8.159732818603516 53.61831870919699 5.319840666179715
v -6.71112984418869 32.2284826678389 5.513580480701034
v -3.7536732852458954 32.41316158031752 4.7838176878280425
v -5.628449842333794 53.6991425033727 4.6806355995631534
v -6.5771400928497314 53.734285660047505 6.264935620135218
v -4.862087219953537 32.228482849087335 6.62607547093064
v -5.602715536952019 32.41315841883678 3.671322325069892
v -7.211042940616608 53.583163631593294 3.7355410181386226
v -5.628449842333794 53.6991425033727 4.6806355995631534
v -3.7536732852458954 32.41316158031752 4.7838176878280425
v -6.5771400928497314 53.734285660047505 6.264935620135218
v -5.628449842333794 53.6991425033727 4.6806355995631534
v -4.420080408453941 61.40192214895753 3.9176088372901554
v -6.528191268444061 61.48002864903623 7.438125875785025
v -8.159732818603516 53.61831870919699 5.319840666179715
v -6.5771400928497314 53.734285660047505 6.264935620135218
v -6.528191268444061 61.48002864903623 7.438125875785025
v -10.044914484024048 61.222333585660884 5.338003197765696
v -5.628449842333794 53.6991425033727 4.6806355995631534
v -7.211042940616608 53.583163631593294 3.7355410181386226
v -7.936803996562958 61.144221125118044 1.8174882081814614
v -4.420080408453941 61.40192214895753 3.9176088372901554
v -6.795698404312134 61.88433871121616 6.429902067667901
v -5.426981300115585 61.83363266751122 4.144160806340433
v -3.9349742233753204 66.98367056038624 3.4625614827766054
v -6.5909311175346375 67.08206663060213 7.897975542597409
v -7.710258662700653 61.66631028655054 2.7806310098802176
v -9.078976511955261 61.717028251184225 5.066370967354139
v -11.02156788110733 66.75740565990448 5.252083318131362
v -8.365608751773834 66.65897978736609 0.8166685132573539
v -5.426981300115585 61.83363266751122 4.144160806340433
v -7.710258662700653 61.66631028655054 2.7806310098802176
v -8.365608751773834 66.65897978736609 0.8166685132573539
v -3.9349742233753204 66.98367056038624 3.4625614827766054
v -9.078976511955261 61.717028251184225 5.066370967354139
v -6.795698404312134 61.88433871121616 6.429902067667901
v -6.5909311175346375 67.08206663060213 7.897975542597409
v -11.02156788110733 66.75740565990448 5.252083318131362
v -6.5909311175346375 67.08206663060213 7.897975542597409
v -3.9349742233753204 66.98367056038624 3.4625614827766054
v -5.075585097074509 67.48840869446734 3.7182601112243407
v -6.894482672214508 67.5557982007276 6.75579475438575
v -8.365608751773834 66.65897978736609 0.8166685132573539
v -11.02156788110733 66.75740565990448 5.252083318131362
v -9.928745031356812 67.33345469910874 4.943789002522211
v -8.109847456216812 67.26605327191965 1.906255104420804
v -3.9349742233753204 66.98367056038624 3.4625614827766054
v -8.365608751773834 66.65897978736609 0.8166685132573539
v -8.109847456216812 67.26605327191965 1.906255104420804
v -5.075585097074509 67.48840869446734 3.7182601112243407
v -11.02156788110733 66.75740565990448 5.252083318131362
v -6.5909311175346375 67.08206663060213 7.897975542597409
v -6.894482672214508 67.5557982007276 6.75579475438575
v -9.928745031356812 67.33345469910874 4.943789002522211
v -5.075585097074509 67.48840869446734 3.7182601112243407
v -8.109847456216812 67.26605327191965 1.906255104420804
v -9.324749559164047 74.40310721246273 0.28339231788305497
v -3.8513261824846268 74.80421124154215 3.5520252903405587
v -9.928745031356812 67.33345469910874 4.943789002522211
v -6.894482672214508 67.5557982007276 6.75579475438575
v -7.086202502250671 74.27162079178918 9.034282534674865
v -12.5596284866333 73.87055252549716 5.765652914972803
v -6.894482672214508 67.5557982007276 6.75579475438575
v -5.075585097074509 67.48840869446734 3.7182601112243407
v -3.8513261824846268 74.80421124154215 3.5520252903405587
v -7.086202502250671 74.27162079178918 9.034282534674865
v -8.109847456216812 67.26605327191965 1.906255104420804
v -9.928745031356812 67.33345469910874 4.943789002522211
v -12.5596284866333 73.87055252549716 5.765652914972803
v -9.324749559164047 74.40310721246273 0.28339231788305497
v -12.5596284866333 73.87055252549716 5.765652914972803
v -7.086202502250671 74.27162079178918 9.034282534674865
v -7.39516019821167 74.28977616981675 7.826510634400967
v -11.357735097408295 73.99941771772616 5.460133640962472
v -7.086202502250671 74.27162079178918 9.034282534674865
v -3.8513261824846268 74.80421124154215 3.5520252903405587
v -5.053219944238663 74.67535200977751 3.8575438192918585
v -7.39516019821167 74.28977616981675 7.826510634400967
v -9.324749559164047 74.40310721246273 0.28339231788305497
v -12.5596284866333 73.87055252549716 5.765652914972803
v -11.357735097408295 73.99941771772616 5.460133640962472
v -9.015791863203049 74.38496375536442 1.4911660808001597
v -3.8513261824846268 74.80421124154215 3.5520252903405587
v -9.324749559164047 74.40310721246273 0.28339231788305497
v -9.015791863203049 74.38496375536442 1.4911660808001597
v -5.053219944238663 74.67535200977751 3.8575438192918585
v -7.39516019821167 74.28977616981675 7.826510634400967
v -5.053219944238663 74.67535200977751 3.8575438192918585
v -5.17352893948555 82.79249759356988 5.599990782063095
v -8.33849385380745 80.93267264467025 11.128039883509071
v -9.015791863203049 74.38496375536442 1.4911660808001597
v -11.357735097408295 73.99941771772616 5.460133640962472
v -13.998223841190338 80.51794893613402 7.748152608623046
v -10.83325445652008 82.3777202408534 2.22010387971484
v -5.053219944238663 74.67535200977751 3.8575438192918585
v -9.015791863203049 74.38496375536442 1.4911660808001597
v -10.83325445652008 82.3777202408534 2.22010387971484
v -5.17352893948555 82.79249759356988 5.599990782063095
v -11.357735097408295 73.99941771772616 5.460133640962472
v -7.39516019821167 74.28977616981675 7.826510634400967
v -8.33849385380745 80.93267264467025 11.128039883509071
v -13.998223841190338 80.51794893613402 7.748152608623046
v -5.17352893948555 82.79249759356988 5.599990782063095
v -10.83325445652008 82.3777202408534 2.22010387971484
v -10.354264825582504 82.34960503497521 4.0925633108176935
v -7.036876678466797 82.59273270377408 6.073650300187476
v -13.998223841190338 80.51794893613402 7.748152608623046
v -8.33849385380745 80.93267264467025 11.128039883509071
v -8.866608887910843 81.27137574073741 9.29973291495143
v -12.184001505374908 81.02828979519013 7.318647415690968
v -8.33849385380745 80.93267264467025 11.128039883509071
v -5.17352893948555 82.79249759356988 5.599990782063095
v -7.036876678466797 82.59273270377408 6.073650300187476
v -8.866608887910843 81.27137574073741 9.29973291495143
v -10.83325445652008 82.3777202408534 2.22010387971484
v -13.998223841190338 80.51794893613402 7.748152608623046
v -12.184001505374908 81.02828979519013 7.318647415690968
v -10.354264825582504 82.34960503497521 4.0925633108176935
v -8.866608887910843 81.27137574073741 9.29973291495143
v -7.036876678466797 82.59273270377408 6.073650300187476
v -7.640606164932251 87.23001008885159 7.661939356886364
v -9.978999197483063 85.51169229878207 11.788501814970891
v -10.354264825582504 82.34960503497521 4.0925633108176935
v -12.184001505374908 81.02828979519013 7.318647415690968
v -14.301639795303345 85.1949468354173 9.20709920715901
v -11.963236331939697 86.91321098130469 5.080525573212327
v -7.036876678466797 82.59273270377408 6.073650300187476
v -10.354264825582504 82.34960503497521 4.0925633108176935
v -11.963236331939697 86.91321098130469 5.080525573212327
v -7.640606164932251 87.23001008885159 7.661939356886364
v -12.184001505374908 81.02828979519013 7.318647415690968
v -8.866608887910843 81.27137574073741 9.29973291495143
v -9.978999197483063 85.51169229878207 11.788501814970891
v -14.301639795303345 85.1949468354173 9.20709920715901
v -9.978999197483063 85.51169229878207 11.788501814970891
v -7.640606164932251 87.23001008885159 7.661939356886364
v -8.654530346393585 86.92023882780833 7.897139335638206
v -10.2810338139534 85.72503503747308 10.767431001843017
v -11.963236331939697 86.91321098130469 5.080525573212327
v -14.301639795303345 85.1949468354173 9.20709920715901
v -13.287714123725891 85.50471213599558 8.9718962481759
v -11.66120320558548 86.6998980449363 6.101597876451465
v -7.640606164932251 87.23001008885159 7.661939356886364
v -11.963236331939697 86.91321098130469 5.080525573212327
v -11.66120320558548 86.6998980449363 6.101597876451465
v -8.654530346393585 86.92023882780833 7.897139335638206
v -14.301639795303345 85.1949468354173 9.20709920715901
v -9.978999197483063 85.51169229878207 11.788501814970891
v -10.2810338139534 85.72503503747308 10.767431001843017
v -13.287714123725891 85.50471213599558 8.9718962481759
v -8.654530346393585 86.92023882780833 7.897139335638206
v -11.66120320558548 86.6998980449363 6.101597876451465
v -12.74457573890686 90.48897801265242 10.879478017179219
v -13.287714123725891 85.50471213599558 8.9718962481759
v -10.2810338139534 85.72503503747308 10.767431001843017
v -12.74457573890686 90.48897801265242 10.879478017179219
v -10.2810338139534 85.72503503747308 10.767431001843017
v -8.654530346393585 86.92023882780833 7.897139335638206
v -12.74457573890686 90.48897801265242 10.879478017179219
v -11.66120320558548 86.6998980449363 6.101597876451465
v -13.287714123725891 85.50471213599558 8.9718962481759
v -12.74457573890686 90.48897801265242 10.879478017179219
v -8.715693652629852 67.67418861767884 -7.293779252625267
v -3.8815490901470184 67.3680411901808 -7.849498637962531
v -4.7903284430503845 67.98826316040689 -8.594945719009077
v -7.928956300020218 68.1870387490515 -8.234137229884551
v -4.432465136051178 67.4608388725272 -12.692986988690757
v -9.266610443592072 67.76697437909591 -12.13726983852573
v -8.286648988723755 68.24727469072508 -11.378835829738522
v -5.148016661405563 68.04851698347402 -11.739643573807902
v -9.266610443592072 67.76697437909591 -12.13726983852573
v -8.715693652629852 67.67418861767884 -7.293779252625267
v -7.928956300020218 68.1870387490515 -8.234137229884551
v -8.286648988723755 68.24727469072508 -11.378835829738522
v -3.8815490901470184 67.3680411901808 -7.849498637962531
v -4.432465136051178 67.4608388725272 -12.692986988690757
v -5.148016661405563 68.04851698347402 -11.739643573807902
v -4.7903284430503845 67.98826316040689 -8.594945719009077
v -8.978115767240524 -0.024409137849990468 -4.482084508733937
v -9.470514953136444 -0.024409856558409163 -8.893485363321492
v -5.059115216135979 -0.02440993678029705 -9.385883804159352
v -4.566716030240059 -0.024409218072121125 -4.974484439687917
v -5.950482934713364 58.38579982688756 -9.135866736718759
v -6.198406219482422 58.42756444636952 -11.315529626804846
v -4.432465136051178 67.4608388725272 -12.692986988690757
v -3.8815490901470184 67.3680411901808 -7.849498637962531
v -5.059115216135979 -0.02440993678029705 -9.385883804159352
v -6.197676807641983 32.22847429302177 -9.305610543005384
v -5.959174782037735 32.4131477120468 -7.168880915442453
v -4.566716030240059 -0.024409218072121125 -4.974484439687917
v -9.470514953136444 -0.024409856558409163 -8.893485363321492
v -8.342273533344269 32.22847433202155 -9.066231584064878
v -6.197676807641983 32.22847429302177 -9.305610543005384
v -5.059115216135979 -0.02440993678029705 -9.385883804159352
v -8.978115767240524 -0.024409137849990468 -4.482084508733937
v -8.10377299785614 32.41314775104671 -6.929501211443887
v -8.342273533344269 32.22847433202155 -9.066231584064878
v -9.470514953136444 -0.024409856558409163 -8.893485363321492
v -4.566716030240059 -0.024409218072121125 -4.974484439687917
v -5.959174782037735 32.4131477120468 -7.168880915442453
v -8.10377299785614 32.41314775104671 -6.929501211443887
v -8.978115767240524 -0.024409137849990468 -4.482084508733937
v -6.197676807641983 32.22847429302177 -9.305610543005384
v -6.198406219482422 58.42756444636952 -11.315529626804846
v -5.950482934713364 58.38579982688756 -9.135866736718759
v -5.959174782037735 32.4131477120468 -7.168880915442453
v -8.342273533344269 32.22847433202155 -9.066231584064878
v -8.373863995075226 58.56532870258285 -11.065444951049258
v -6.198406219482422 58.42756444636952 -11.315529626804846
v -6.197676807641983 32.22847429302177 -9.305610543005384
v -8.10377299785614 32.41314775104671 -6.929501211443887
v -8.125939965248108 58.52357600402985 -8.885782060965115
v -8.373863995075226 58.56532870258285 -11.065444951049258
v -8.342273533344269 32.22847433202155 -9.066231584064878
v -5.959174782037735 32.4131477120468 -7.168880915442453
v -5.950482934713364 58.38579982688756 -9.135866736718759
v -8.125939965248108 58.52357600402985 -8.885782060965115
v -8.10377299785614 32.41314775104671 -6.929501211443887
v -8.373863995075226 58.56532870258285 -11.065444951049258
v -8.125939965248108 58.52357600402985 -8.885782060965115
v -8.715693652629852 67.67418861767884 -7.293779252625267
v -9.266610443592072 67.76697437909591 -12.13726983852573
v -6.198406219482422 58.42756444636952 -11.315529626804846
v -8.373863995075226 58.56532870258285 -11.065444951049258
v -9.266610443592072 67.76697437909591 -12.13726983852573
v -4.432465136051178 67.4608388725272 -12.692986988690757
v -8.125939965248108 58.52357600402985 -8.885782060965115
v -5.950482934713364 58.38579982688756 -9.135866736718759
v -3.8815490901470184 67.3680411901808 -7.849498637962531
v -8.715693652629852 67.67418861767884 -7.293779252625267
v -8.286648988723755 68.24727469072508 -11.378835829738522
v -7.928956300020218 68.1870387490515 -8.234137229884551
v -8.845135569572449 74.30508030617916 -6.514308041465043
v -9.539223462343216 74.42196998087438 -12.616503442627176
v -4.7903284430503845 67.98826316040689 -8.594945719009077
v -5.148016661405563 68.04851698347402 -11.739643573807902
v -3.448798507452011 74.03628609185945 -13.316640398948723
v -2.754713036119938 73.91936661484198 -7.214444252723675
v -7.928956300020218 68.1870387490515 -8.234137229884551
v -4.7903284430503845 67.98826316040689 -8.594945719009077
v -2.754713036119938 73.91936661484198 -7.214444252723675
v -8.845135569572449 74.30508030617916 -6.514308041465043
v -5.148016661405563 68.04851698347402 -11.739643573807902
v -8.286648988723755 68.24727469072508 -11.378835829738522
v -9.539223462343216 74.42196998087438 -12.616503442627176
v -3.448798507452011 74.03628609185945 -13.316640398948723
v -9.539223462343216 74.42196998087438 -12.616503442627176
v -8.845135569572449 74.30508030617916 -6.514308041465043
v -7.953247427940369 74.90469689875079 -7.578656359980208
v -8.428584784269333 74.98474525583751 -11.757663187978517
v -2.754713036119938 73.91936661484198 -7.214444252723675
v -3.448798507452011 74.03628609185945 -13.316640398948723
v -4.25763726234436 74.72061315486266 -12.237143024086802
v -3.7823013961315155 74.64054095591801 -8.05813619608461
v -8.845135569572449 74.30508030617916 -6.514308041465043
v -2.754713036119938 73.91936661484198 -7.214444252723675
v -3.7823013961315155 74.64054095591801 -8.05813619608461
v -7.953247427940369 74.90469689875079 -7.578656359980208
v -3.448798507452011 74.03628609185945 -13.316640398948723
v -9.539223462343216 74.42196998087438 -12.616503442627176
v -8.428584784269333 74.98474525583751 -11.757663187978517
v -4.25763726234436 74.72061315486266 -12.237143024086802
v -7.953247427940369 74.90469689875079 -7.578656359980208
v -3.7823013961315155 74.64054095591801 -8.05813619608461
v -1.4647692441940308 83.11909316564828 -7.403293382765417
v -8.988630026578903 83.59558475782434 -6.538377910640631
v -4.25763726234436 74.72061315486266 -12.237143024086802
v -8.428584784269333 74.98474525583751 -11.757663187978517
v -9.891775250434875 82.9628861908157 -14.046217606488458
v -2.367912232875824 82.48642440096154 -14.911136058850339
v -8.428584784269333 74.98474525583751 -11.757663187978517
v -7.953247427940369 74.90469689875079 -7.578656359980208
v -8.988630026578903 83.59558475782434 -6.538377910640631
v -9.891775250434875 82.9628861908157 -14.046217606488458
v -3.7823013961315155 74.64054095591801 -8.05813619608461
v -4.25763726234436 74.72061315486266 -12.237143024086802
v -2.367912232875824 82.48642440096154 -14.911136058850339
v -1.4647692441940308 83.11909316564828 -7.403293382765417
v -2.367912232875824 82.48642440096154 -14.911136058850339
v -9.891775250434875 82.9628861908157 -14.046217606488458
v -8.72870534658432 82.98445726113164 -13.129380454183869
v -3.2816853374242783 82.63951911933559 -13.755552523325838
v -9.891775250434875 82.9628861908157 -14.046217606488458
v -8.988630026578903 83.59558475782434 -6.538377910640631
v -8.074858784675598 83.44250792084348 -7.693962936284166
v -8.72870534658432 82.98445726113164 -13.129380454183869
v -1.4647692441940308 83.11909316564828 -7.403293382765417
v -2.367912232875824 82.48642440096154 -14.911136058850339
v -3.2816853374242783 82.63951911933559 -13.755552523325838
v -2.6278402656316757 83.09753401626105 -8.32013202518807
v -8.988630026578903 83.59558475782434 -6.538377910640631
v -1.4647692441940308 83.11909316564828 -7.403293382765417
v -2.6278402656316757 83.09753401626105 -8.32013202518807
v -8.074858784675598 83.44250792084348 -7.693962936284166
v -8.72870534658432 82.98445726113164 -13.129380454183869
v -8.074858784675598 83.44250792084348 -7.693962936284166
v -9.218643605709076 93.08537091242204 -9.425126280510792
v -10.220805555582047 90.87595663881311 -16.925731205719416
v -2.6278402656316757 83.09753401626105 -8.32013202518807
v -3.2816853374242783 82.63951911933559 -13.755552523325838
v -2.44084969162941 90.38327642031915 -17.82008987960966
v -1.4386896044015884 92.5926251288192 -10.31948271921618
v -8.074858784675598 83.44250792084348 -7.693962936284166
v -2.6278402656316757 83.09753401626105 -8.32013202518807
v -1.4386896044015884 92.5926251288192 -10.31948271921618
v -9.218643605709076 93.08537091242204 -9.425126280510792
v -3.2816853374242783 82.63951911933559 -13.755552523325838
v -8.72870534658432 82.98445726113164 -13.129380454183869
v -10.220805555582047 90.87595663881311 -16.925731205719416
v -2.44084969162941 90.38327642031915 -17.82008987960966
v -9.218643605709076 93.08537091242204 -9.425126280510792
v -1.4386896044015884 92.5926251288192 -10.31948271921618
v -3.241845965385437 92.55922245430988 -11.740893304184464
v -7.801984250545502 92.84804876690352 -11.216677951021266
v -2.44084969162941 90.38327642031915 -17.82008987960966
v -10.220805555582047 90.87595663881311 -16.925731205719416
v -8.403150737285614 91.27832397284753 -15.581434935099326
v -3.843008726835251 90.98954534396898 -16.105654758618652
v -10.220805555582047 90.87595663881311 -16.925731205719416
v -9.218643605709076 93.08537091242204 -9.425126280510792
v -7.801984250545502 92.84804876690352 -11.216677951021266
v -8.403150737285614 91.27832397284753 -15.581434935099326
v -1.4386896044015884 92.5926251288192 -10.31948271921618
v -2.44084969162941 90.38327642031915 -17.82008987960966
v -3.843008726835251 90.98954534396898 -16.105654758618652
v -3.241845965385437 92.55922245430988 -11.740893304184464
v -8.403150737285614 91.27832397284753 -15.581434935099326
v -7.801984250545502 92.84804876690352 -11.216677951021266
v -8.378326892852783 98.35695410091694 -13.151189317972555
v -9.149238467216492 96.31565504054565 -18.73277057796269
v -3.241845965385437 92.55922245430988 -11.740893304184464
v -3.843008726835251 90.98954534396898 -16.105654758618652
v -3.2072655856609344 95.93937676725723 -19.415838255669055
v -2.4363551288843155 97.98061622298641 -13.834240604391894
v -7.801984250545502 92.84804876690352 -11.216677951021266
v -3.241845965385437 92.55922245430988 -11.740893304184464
v -2.4363551288843155 97.98061622298641 -13.834240604391894
v -8.378326892852783 98.35695410091694 -13.151189317972555
v -3.843008726835251 90.98954534396898 -16.105654758618652
v -8.403150737285614 91.27832397284753 -15.581434935099326
v -9.149238467216492 96.31565504054565 -18.73277057796269
v -3.2072655856609344 95.93937676725723 -19.415838255669055
v -9.149238467216492 96.31565504054565 -18.73277057796269
v -8.378326892852783 98.35695410091694 -13.151189317972555
v -7.5912028551101685 97.98894890825002 -14.10477714768825
v -8.127419650554657 96.56910603254033 -17.987126943927777
v -2.4363551288843155 97.98061622298641 -13.834240604391894
v -3.2072655856609344 95.93937676725723 -19.415838255669055
v -3.994389623403549 96.30737003899569 -18.46224744571918
v -3.458172082901001 97.72719503331388 -14.579885728547783
v -8.378326892852783 98.35695410091694 -13.151189317972555
v -2.4363551288843155 97.98061622298641 -13.834240604391894
v -3.458172082901001 97.72719503331388 -14.579885728547783
v -7.5912028551101685 97.98894890825002 -14.10477714768825
v -3.2072655856609344 95.93937676725723 -19.415838255669055
v -9.149238467216492 96.31565504054565 -18.73277057796269
v -8.127419650554657 96.56910603254033 -17.987126943927777
v -3.994389623403549 96.30737003899569 -18.46224744571918
v -7.5912028551101685 97.98894890825002 -14.10477714768825
v -3.458172082901001 97.72719503331388 -14.579885728547783
v -5.883428454399109 102.22848330061773 -19.87051841180244
v -3.994389623403549 96.30737003899569 -18.46224744571918
v -8.127419650554657 96.56910603254033 -17.987126943927777
v -5.883428454399109 102.22848330061773 -19.87051841180244
v -8.127419650554657 96.56910603254033 -17.987126943927777
v -7.5912028551101685 97.98894890825002 -14.10477714768825
v -5.883428454399109 102.22848330061773 -19.87051841180244
v -3.458172082901001 97.72719503331388 -14.579885728547783
v -3.994389623403549 96.30737003899569 -18.46224744571918
v -5.883428454399109 102.22848330061773 -19.87051841180244
v 5.5749595165252686 72.91709017971866 -10.230434644718606
v 5.574958398938179 72.91707310099159 -5.303703579800036
v 6.483471393585205 73.45041532167943 -6.167696834569732
v 6.4834728837013245 73.45044460286027 -9.366440818677791
v 10.483615100383759 72.44980248827497 -5.303703131142961
v 10.483615100383759 72.44980168560866 -10.230433823529587
v 9.670480340719223 73.1470390795601 -9.366440769246758
v 9.670479595661163 73.14703960070158 -6.167697157672584
v 10.483615100383759 72.44980168560866 -10.230433823529587
v 5.5749595165252686 72.91709017971866 -10.230434644718606
v 6.4834728837013245 73.45044460286027 -9.366440818677791
v 9.670480340719223 73.1470390795601 -9.366440769246758
v 5.574958398938179 72.91707310099159 -5.303703579800036
v 10.483615100383759 72.44980248827497 -5.303703131142961
v 9.670479595661163 73.14703960070158 -6.167697157672584
v 6.483471393585205 73.45041532167943 -6.167696834569732
v 1.556529477238655 -0.02439153501202654 -9.987904127438886
v 5.995324999094009 -0.024391535011905153 -9.987903382380827
v 5.995325371623039 -0.02439081184032869 -5.549107860525472
v 1.5565292909741402 -0.02439081184032869 -5.549107860525472
v 6.136824935674667 62.62212883233822 -6.658505420001593
v 8.345814049243927 62.41185556649972 -6.6585046406856705
v 10.483615100383759 72.44980248827497 -5.303703131142961
v 5.574958398938179 72.91707310099159 -5.303703579800036
v 5.995325371623039 -0.02439081184032869 -5.549107860525472
v 6.041842699050903 32.22848067969611 -6.6895529980596855
v 3.891844302415848 32.413156730835944 -6.689553028147233
v 1.5565292909741402 -0.02439081184032869 -5.549107860525472
v 5.995324999094009 -0.024391535011905153 -9.987903382380827
v 6.041843071579933 32.228480328126835 -8.847469871753152
v 6.041842699050903 32.22848067969611 -6.6895529980596855
v 5.995325371623039 -0.02439081184032869 -5.549107860525472
v 1.556529477238655 -0.02439153501202654 -9.987904127438886
v 3.891844302415848 32.413159359498906 -8.847469901841185
v 6.041843071579933 32.228480328126835 -8.847469871753152
v 5.995324999094009 -0.024391535011905153 -9.987903382380827
v 1.5565292909741402 -0.02439081184032869 -5.549107860525472
v 3.891844302415848 32.413156730835944 -6.689553028147233
v 3.891844302415848 32.413159359498906 -8.847469901841185
v 1.556529477238655 -0.02439153501202654 -9.987904127438886
v 6.041842699050903 32.22848067969611 -6.6895529980596855
v 8.345814049243927 62.41185556649972 -6.6585046406856705
v 6.136824935674667 62.62212883233822 -6.658505420001593
v 3.891844302415848 32.413156730835944 -6.689553028147233
v 6.041843071579933 32.228480328126835 -8.847469871753152
v 8.345814049243927 62.411855205284425 -8.875628298150652
v 8.345814049243927 62.41185556649972 -6.6585046406856705
v 6.041842699050903 32.22848067969611 -6.6895529980596855
v 3.891844302415848 32.413159359498906 -8.847469901841185
v 6.136826053261757 62.62214635251648 -8.875628332411427
v 8.345814049243927 62.411855205284425 -8.875628298150652
v 6.041843071579933 32.228480328126835 -8.847469871753152
v 3.891844302415848 32.413156730835944 -6.689553028147233
v 6.136824935674667 62.62212883233822 -6.658505420001593
v 6.136826053261757 62.62214635251648 -8.875628332411427
v 3.891844302415848 32.413159359498906 -8.847469901841185
v 8.345814049243927 62.411855205284425 -8.875628298150652
v 6.136826053261757 62.62214635251648 -8.875628332411427
v 5.5749595165252686 72.91709017971866 -10.230434644718606
v 10.483615100383759 72.44980168560866 -10.230433823529587
v 8.345814049243927 62.41185556649972 -6.6585046406856705
v 8.345814049243927 62.411855205284425 -8.875628298150652
v 10.483615100383759 72.44980168560866 -10.230433823529587
v 10.483615100383759 72.44980248827497 -5.303703131142961
v 6.136826053261757 62.62214635251648 -8.875628332411427
v 6.136824935674667 62.62212883233822 -6.658505420001593
v 5.574958398938179 72.91707310099159 -5.303703579800036
v 5.5749595165252686 72.91709017971866 -10.230434644718606
v 9.670480340719223 73.1470390795601 -9.366440769246758
v 6.4834728837013245 73.45044460286027 -9.366440818677791
v 5.509411916136742 80.36134661953483 -10.87060613370694
v 11.693708598613739 79.77261366169499 -10.870605292732106
v 6.483471393585205 73.45041532167943 -6.167696834569732
v 9.670479595661163 73.14703960070158 -6.167697157672584
v 11.693708598613739 79.77261467295519 -4.663534420544492
v 5.509410053491592 80.36131186800823 -4.6635348889844686
v 6.4834728837013245 73.45044460286027 -9.366440818677791
v 6.483471393585205 73.45041532167943 -6.167696834569732
v 5.509410053491592 80.36131186800823 -4.6635348889844686
v 5.509411916136742 80.36134661953483 -10.87060613370694
v 9.670479595661163 73.14703960070158 -6.167697157672584
v 9.670480340719223 73.1470390795601 -9.366440769246758
v 11.693708598613739 79.77261366169499 -10.870605292732106
v 11.693708598613739 79.77261467295519 -4.663534420544492
v 11.693708598613739 79.77261366169499 -10.870605292732106
v 5.509411916136742 80.36134661953483 -10.87060613370694
v 6.539580225944519 80.98640876772156 -9.892485074081586
v 10.77481359243393 80.58321910860303 -9.892484263335593
v 5.509410053491592 80.36131186800823 -4.6635348889844686
v 11.693708598613739 79.77261467295519 -4.663534420544492
v 10.77481359243393 80.58321980115115 -5.641654223953612
v 6.5395787358284 80.98638561841183 -5.64165466216669
v 5.509411916136742 80.36134661953483 -10.87060613370694
v 5.509410053491592 80.36131186800823 -4.6635348889844686
v 6.5395787358284 80.98638561841183 -5.64165466216669
v 6.539580225944519 80.98640876772156 -9.892485074081586
v 11.693708598613739 79.77261467295519 -4.663534420544492
v 11.693708598613739 79.77261366169499 -10.870605292732106
v 10.77481359243393 80.58321910860303 -9.892484263335593
v 10.77481359243393 80.58321980115115 -5.641654223953612
v 6.539580225944519 80.98640876772156 -9.892485074081586
v 6.5395787358284 80.98638561841183 -5.64165466216669
v 6.528680771589279 90.67362482842826 -3.9330913331058333
v 6.528691202402115 90.67365934194561 -11.601053049763577
v 10.77481359243393 80.58321980115115 -5.641654223953612
v 10.77481359243393 80.58321910860303 -9.892484263335593
v 14.060977101325989 89.08210803808208 -11.601052790466959
v 14.06097561120987 89.08210928735184 -3.9330895836989224
v 10.77481359243393 80.58321910860303 -9.892484263335593
v 6.539580225944519 80.98640876772156 -9.892485074081586
v 6.528691202402115 90.67365934194561 -11.601053049763577
v 14.060977101325989 89.08210803808208 -11.601052790466959
v 6.5395787358284 80.98638561841183 -5.64165466216669
v 10.77481359243393 80.58321980115115 -5.641654223953612
v 14.06097561120987 89.08210928735184 -3.9330895836989224
v 6.528680771589279 90.67362482842826 -3.9330913331058333
v 14.06097561120987 89.08210928735184 -3.9330895836989224
v 14.060977101325989 89.08210803808208 -11.601052790466959
v 13.02139163017273 89.30179304975137 -10.542742555948713
v 13.02139163017273 89.30179395417981 -4.991400262328604
v 14.060977101325989 89.08210803808208 -11.601052790466959
v 6.528691202402115 90.67365934194561 -11.601053049763577
v 7.568274438381195 90.45398659604653 -10.542742743664867
v 13.02139163017273 89.30179304975137 -10.542742555948713
v 6.528680771589279 90.67362482842826 -3.9330913331058333
v 14.06097561120987 89.08210928735184 -3.9330895836989224
v 13.02139163017273 89.30179395417981 -4.991400262328604
v 7.568266987800598 90.4539696190816 -4.9914000775128144
v 6.528691202402115 90.67365934194561 -11.601053049763577
v 6.528680771589279 90.67362482842826 -3.9330913331058333
v 7.568266987800598 90.4539696190816 -4.9914000775128144
v 7.568274438381195 90.45398659604653 -10.542742743664867
v 13.02139163017273 89.30179304975137 -10.542742555948713
v 7.568274438381195 90.45398659604653 -10.542742743664867
v 10.438526421785355 100.8901337935562 -12.10111682227839
v 17.80802607536316 97.5385884596939 -12.101116276242353
v 7.568266987800598 90.4539696190816 -4.9914000775128144
v 13.02139163017273 89.30179395417981 -4.991400262328604
v 17.80802607536316 97.53858975148556 -4.172155505873777
v 10.43851524591446 100.89006355977426 -4.172155306840103
v 7.568274438381195 90.45398659604653 -10.542742743664867
v 7.568266987800598 90.4539696190816 -4.9914000775128144
v 10.43851524591446 100.89006355977426 -4.172155306840103
v 10.438526421785355 100.8901337935562 -12.10111682227839
v 13.02139163017273 89.30179395417981 -4.991400262328604
v 13.02139163017273 89.30179304975137 -10.542742555948713
v 17.80802607536316 97.5385884596939 -12.101116276242353
v 17.80802607536316 97.53858975148556 -4.172155505873777
v 10.438526421785355 100.8901337935562 -12.10111682227839
v 10.43851524591446 100.89006355977426 -4.172155306840103
v 12.05022856593132 100.54954195686173 -5.8128967784426715
v 12.050239741802216 100.54958888340732 -10.460374494657945
v 17.80802607536316 97.53858975148556 -4.172155505873777
v 17.80802607536316 97.5385884596939 -12.101116276242353
v 16.31069928407669 98.28206726361022 -10.460376360405963
v 16.31070077419281 98.2820680207805 -5.812898271669429
v 17.80802607536316 97.5385884596939 -12.101116276242353
v 10.438526421785355 100.8901337935562 -12.10111682227839
v 12.050239741802216 100.54958888340732 -10.460374494657945
v 16.31069928407669 98.28206726361022 -10.460376360405963
v 10.43851524591446 100.89006355977426 -4.172155306840103
v 17.80802607536316 97.53858975148556 -4.172155505873777
v 16.31070077419281 98.2820680207805 -5.812898271669429
v 12.05022856593132 100.54954195686173 -5.8128967784426715
v 16.31069928407669 98.28206726361022 -10.460376360405963
v 12.050239741802216 100.54958888340732 -10.460374494657945
v 14.626342058181763 106.41563948890159 -11.164525352225818
v 20.071199536323547 103.4780484130045 -11.16452412857343
v 12.05022856593132 100.54954195686173 -5.8128967784426715
v 16.31070077419281 98.2820680207805 -5.812898271669429
v 20.071201026439667 103.47804939961564 -5.108748098748218
v 14.626318216323853 106.41558087086808 -5.108748577332837
v 12.050239741802216 100.54958888340732 -10.460374494657945
v 12.05022856593132 100.54954195686173 -5.8128967784426715
v 14.626318216323853 106.41558087086808 -5.108748577332837
v 14.626342058181763 106.41563948890159 -11.164525352225818
v 16.31070077419281 98.2820680207805 -5.812898271669429
v 16.31069928407669 98.28206726361022 -10.460376360405963
v 20.071199536323547 103.4780484130045 -11.16452412857343
v 20.071201026439667 103.47804939961564 -5.108748098748218
v 20.071199536323547 103.4780484130045 -11.16452412857343
v 14.626342058181763 106.41563948890159 -11.164525352225818
v 15.45514166355133 105.96848559397604 -10.242730507227046
v 19.24239546060562 103.92520260828867 -10.242730919392056
v 14.626318216323853 106.41558087086808 -5.108748577332837
v 20.071201026439667 103.47804939961564 -5.108748098748218
v 19.24239546060562 103.92520329454119 -6.03054294374699
v 15.455126762390137 105.96845051744158 -6.030543276634214
v 14.626342058181763 106.41563948890159 -11.164525352225818
v 14.626318216323853 106.41558087086808 -5.108748577332837
v 15.455126762390137 105.96845051744158 -6.030543276634214
v 15.45514166355133 105.96848559397604 -10.242730507227046
v 20.071201026439667 103.47804939961564 -5.108748098748218
v 20.071199536323547 103.4780484130045 -11.16452412857343
v 19.24239546060562 103.92520260828867 -10.242730919392056
v 19.24239546060562 103.92520329454119 -6.03054294374699
v 15.45514166355133 105.96848559397604 -10.242730507227046
v 15.455126762390137 105.96845051744158 -6.030543276634214
v 21.478186547756195 110.19769774435298 -8.136639071075718
v 19.24239546060562 103.92520329454119 -6.03054294374699
v 19.24239546060562 103.92520260828867 -10.242730919392056
v 21.478186547756195 110.19769774435298 -8.136639071075718
v 19.24239546060562 103.92520260828867 -10.242730919392056
v 15.45514166355133 105.96848559397604 -10.242730507227046
v 21.478186547756195 110.19769774435298 -8.136639071075718
v 15.455126762390137 105.96845051744158 -6.030543276634214
v 19.24239546060562 103.92520329454119 -6.03054294374699
v 21.478186547756195 110.19769774435298 -8.136639071075718
v 5.596090480685234 68.60316417104315 1.3101191249889619
v 1.7273634672164917 68.60314677307328 4.277351870132666
v 2.952989377081394 69.07939983720989 4.470404531446152
v 5.464809387922287 69.07941740473454 2.543891701483846
v 4.683712869882584 68.18589700623548 8.131886340601046
v 8.552437275648117 68.18589652281159 5.164651639682848
v 7.384255528450012 68.80850278102739 5.046495760793035
v 4.872436448931694 68.80850309489631 6.973009522075002
v 8.552437275648117 68.18589652281159 5.164651639682848
v 5.596090480685234 68.60316417104315 1.3101191249889619
v 5.464809387922287 69.07941740473454 2.543891701483846
v 7.384255528450012 68.80850278102739 5.046495760793035
v 1.7273634672164917 68.60314677307328 4.277351870132666
v 4.683712869882584 68.18589700623548 8.131886340601046
v 4.872436448931694 68.80850309489631 6.973009522075002
v 2.952989377081394 69.07939983720989 4.470404531446152
v 2.939692512154579 -0.024386103765269607 -1.7944529612865991
v 5.6410908699035645 -0.024385529938142934 1.7276728565487318
v 2.1189652383327484 -0.024385089824399575 4.429071773091262
v -0.582432234659791 -0.024385663651526245 0.906945955255931
v 3.1296227127313614 59.41026274366493 3.9025999671601532
v 4.460036754608154 59.22249647429805 5.637214370004625
v 4.683712869882584 68.18589700623548 8.131886340601046
v 1.7273634672164917 68.60314677307328 4.277351870132666
v 2.1189652383327484 -0.024385089824399575 4.429071773091262
v 3.0522003769874573 32.22848536431846 3.7719189767895296
v 1.7437350004911423 32.41315815728419 2.0659239309024686
v -0.582432234659791 -0.024385663651526245 0.906945955255931
v 5.6410908699035645 -0.024385529938142934 1.7276728565487318
v 4.764476791024208 32.228485150357635 2.4586367999373033
v 3.0522003769874573 32.22848536431846 3.7719189767895296
v 2.1189652383327484 -0.024385089824399575 4.429071773091262
v 2.939692512154579 -0.024386103765269607 -1.7944529612865991
v 3.4560132771730423 32.413169864252275 0.7526414746515278
v 4.764476791024208 32.228485150357635 2.4586367999373033
v 5.6410908699035645 -0.024385529938142934 1.7276728565487318
v -0.582432234659791 -0.024385663651526245 0.906945955255931
v 1.7437350004911423 32.41315815728419 2.0659239309024686
v 3.4560132771730423 32.413169864252275 0.7526414746515278
v 2.939692512154579 -0.024386103765269607 -1.7944529612865991
v 3.0522003769874573 32.22848536431846 3.7719189767895296
v 4.460036754608154 59.22249647429805 5.637214370004625
v 3.1296227127313614 59.41026274366493 3.9025999671601532
v 1.7437350004911423 32.41315815728419 2.0659239309024686
v 4.764476791024208 32.228485150357635 2.4586367999373033
v 6.201036646962166 59.2224962567481 4.301902316443415
v 4.460036754608154 59.22249647429805 5.637214370004625
v 3.0522003769874573 32.22848536431846 3.7719189767895296
v 3.4560132771730423 32.413169864252275 0.7526414746515278
v 4.870624095201492 59.41027444704403 2.567288472390545
v 6.201036646962166 59.2224962567481 4.301902316443415
v 4.764476791024208 32.228485150357635 2.4586367999373033
v 1.7437350004911423 32.41315815728419 2.0659239309024686
v 3.1296227127313614 59.41026274366493 3.9025999671601532
v 4.870624095201492 59.41027444704403 2.567288472390545
v 3.4560132771730423 32.413169864252275 0.7526414746515278
v 6.201036646962166 59.2224962567481 4.301902316443415
v 4.870624095201492 59.41027444704403 2.567288472390545
v 5.596090480685234 68.60316417104315 1.3101191249889619
v 8.552437275648117 68.18589652281159 5.164651639682848
v 4.460036754608154 59.22249647429805 5.637214370004625
v 6.201036646962166 59.2224962567481 4.301902316443415
v 8.552437275648117 68.18589652281159 5.164651639682848
v 4.683712869882584 68.18589700623548 8.131886340601046
v 4.870624095201492 59.41027444704403 2.567288472390545
v 3.1296227127313614 59.41026274366493 3.9025999671601532
v 1.7273634672164917 68.60314677307328 4.277351870132666
v 5.596090480685234 68.60316417104315 1.3101191249889619
v 7.384255528450012 68.80850278102739 5.046495760793035
v 5.464809387922287 69.07941740473454 2.543891701483846
v 6.059306487441063 75.25053038516648 0.8730909191701548
v 9.783937782049179 74.72482416989263 5.7293229997456265
v 2.952989377081394 69.07939983720989 4.470404531446152
v 4.872436448931694 68.80850309489631 6.973009522075002
v 4.909824579954147 74.72482477894667 9.46767006817462
v 1.1851908639073372 75.25050119189787 4.611436311223369
v 5.464809387922287 69.07941740473454 2.543891701483846
v 2.952989377081394 69.07939983720989 4.470404531446152
v 1.1851908639073372 75.25050119189787 4.611436311223369
v 6.059306487441063 75.25053038516648 0.8730909191701548
v 4.872436448931694 68.80850309489631 6.973009522075002
v 7.384255528450012 68.80850278102739 5.046495760793035
v 9.783937782049179 74.72482416989263 5.7293229997456265
v 4.909824579954147 74.72482477894667 9.46767006817462
v 9.783937782049179 74.72482416989263 5.7293229997456265
v 6.059306487441063 75.25053038516648 0.8730909191701548
v 5.911677703261375 75.80868638800581 2.2711278297256303
v 8.462440967559814 75.44866295446289 5.5968530489201305
v 1.1851908639073372 75.25050119189787 4.611436311223369
v 4.909824579954147 74.72482477894667 9.46767006817462
v 5.124469846487045 75.44866337156564 8.157011495351291
v 2.5737032294273376 75.80866296325013 4.831283109663921
v 6.059306487441063 75.25053038516648 0.8730909191701548
v 1.1851908639073372 75.25050119189787 4.611436311223369
v 2.5737032294273376 75.80866296325013 4.831283109663921
v 5.911677703261375 75.80868638800581 2.2711278297256303
v 4.909824579954147 74.72482477894667 9.46767006817462
v 9.783937782049179 74.72482416989263 5.7293229997456265
v 8.462440967559814 75.44866295446289 5.5968530489201305
v 5.124469846487045 75.44866337156564 8.157011495351291
v 5.911677703261375 75.80868638800581 2.2711278297256303
v 2.5737032294273376 75.80866296325013 4.831283109663921
v 1.225486770272255 84.45889449089415 5.851746746529735
v 7.246772944927216 84.45892950128179 1.2335531648235838
v 5.124469846487045 75.44866337156564 8.157011495351291
v 8.462440967559814 75.44866295446289 5.5968530489201305
v 11.783260107040405 83.0377590381424 7.148294778364627
v 5.7619791477918625 83.03775979054265 11.766494693058458
v 8.462440967559814 75.44866295446289 5.5968530489201305
v 5.911677703261375 75.80868638800581 2.2711278297256303
v 7.246772944927216 84.45892950128179 1.2335531648235838
v 11.783260107040405 83.0377590381424 7.148294778364627
v 2.5737032294273376 75.80866296325013 4.831283109663921
v 5.124469846487045 75.44866337156564 8.157011495351291
v 5.7619791477918625 83.03775979054265 11.766494693058458
v 1.225486770272255 84.45889449089415 5.851746746529735
v 5.7619791477918625 83.03775979054265 11.766494693058458
v 11.783260107040405 83.0377590381424 7.148294778364627
v 10.32610833644867 83.23391193448012 6.969351171978701
v 5.966906249523163 83.23391247919209 10.312769412525881
v 11.783260107040405 83.0377590381424 7.148294778364627
v 7.246772944927216 84.45892950128179 1.2335531648235838
v 7.041846215724945 84.26278873356125 2.68727807282519
v 10.32610833644867 83.23391193448012 6.969351171978701
v 1.225486770272255 84.45889449089415 5.851746746529735
v 5.7619791477918625 83.03775979054265 11.766494693058458
v 5.966906249523163 83.23391247919209 10.312769412525881
v 2.6826398447155952 84.26275947595022 6.030692588086927
v 7.246772944927216 84.45892950128179 1.2335531648235838
v 1.225486770272255 84.45889449089415 5.851746746529735
v 2.6826398447155952 84.26275947595022 6.030692588086927
v 7.041846215724945 84.26278873356125 2.68727807282519
v 10.32610833644867 83.23391193448012 6.969351171978701
v 7.041846215724945 84.26278873356125 2.68727807282519
v 9.994234144687653 93.58176654222791 4.002585661874661
v 14.432680606842041 90.58898846854106 9.789499782806805
v 2.6826398447155952 84.26275947595022 6.030692588086927
v 5.966906249523163 83.23391247919209 10.312769412525881
v 8.206450939178467 90.58898924655132 14.564892791992596
v 3.7679966539144516 93.58170175512747 8.777969730374418
v 7.041846215724945 84.26278873356125 2.68727807282519
v 2.6826398447155952 84.26275947595022 6.030692588086927
v 3.7679966539144516 93.58170175512747 8.777969730374418
v 9.994234144687653 93.58176654222791 4.002585661874661
v 5.966906249523163 83.23391247919209 10.312769412525881
v 10.32610833644867 83.23391193448012 6.969351171978701
v 14.432680606842041 90.58898846854106 9.789499782806805
v 8.206450939178467 90.58898924655132 14.564892791992596
v 9.994234144687653 93.58176654222791 4.002585661874661
v 3.7679966539144516 93.58170175512747 8.777969730374418
v 6.027083098888397 93.27762870500487 9.055399599021268
v 9.676530212163925 93.27767593269881 6.256357284722498
v 8.206450939178467 90.58898924655132 14.564892791992596
v 14.432680606842041 90.58898846854106 9.789499782806805
v 12.242487072944641 91.25288285287772 9.601892565098016
v 8.59304666519165 91.25288330890044 12.400940094795434
v 14.432680606842041 90.58898846854106 9.789499782806805
v 9.994234144687653 93.58176654222791 4.002585661874661
v 9.676530212163925 93.27767593269881 6.256357284722498
v 12.242487072944641 91.25288285287772 9.601892565098016
v 3.7679966539144516 93.58170175512747 8.777969730374418
v 8.206450939178467 90.58898924655132 14.564892791992596
v 8.59304666519165 91.25288330890044 12.400940094795434
v 6.027083098888397 93.27762870500487 9.055399599021268
v 12.242487072944641 91.25288285287772 9.601892565098016
v 9.676530212163925 93.27767593269881 6.256357284722498
v 11.780980229377747 98.51578005975391 7.855158640227516
v 15.060268342494965 95.89263994441494 12.130744033535686
v 6.027083098888397 93.27762870500487 9.055399599021268
v 8.59304666519165 91.25288330890044 12.400940094795434
v 10.304959118366241 95.89264053862374 15.77797161885139
v 7.02565461397171 98.51572700977876 11.50236387381017
v 9.676530212163925 93.27767593269881 6.256357284722498
v 6.027083098888397 93.27762870500487 9.055399599021268
v 7.02565461397171 98.51572700977876 11.50236387381017
v 11.780980229377747 98.51578005975391 7.855158640227516
v 8.59304666519165 91.25288330890044 12.400940094795434
v 12.242487072944641 91.25288285287772 9.601892565098016
v 15.060268342494965 95.89263994441494 12.130744033535686
v 10.304959118366241 95.89264053862374 15.77797161885139
v 15.060268342494965 95.89263994441494 12.130744033535686
v 11.780980229377747 98.51578005975391 7.855158640227516
v 11.556302011013031 98.11648874088387 9.061146188543376
v 13.837260007858276 96.29192548371735 12.035093414780505
v 7.02565461397171 98.51572700977876 11.50236387381017
v 10.304959118366241 95.89264053862374 15.77797161885139
v 10.52963137626648 96.29192589702821 14.571977365013964
v 8.248663693666458 98.11645935187015 11.598016727736617
v 11.780980229377747 98.51578005975391 7.855158640227516
v 7.02565461397171 98.51572700977876 11.50236387381017
v 8.248663693666458 98.11645935187015 11.598016727736617
v 11.556302011013031 98.11648874088387 9.061146188543376
v 10.304959118366241 95.89264053862374 15.77797161885139
v 15.060268342494965 95.89263994441494 12.130744033535686
v 13.837260007858276 96.29192548371735 12.035093414780505
v 10.52963137626648 96.29192589702821 14.571977365013964
v 11.556302011013031 98.11648874088387 9.061146188543376
v 8.248663693666458 98.11645935187015 11.598016727736617
v 13.530001044273376 101.89297444594968 15.059195249694229
v 10.52963137626648 96.29192589702821 14.571977365013964
v 13.837260007858276 96.29192548371735 12.035093414780505
v 13.530001044273376 101.89297444594968 15.059195249694229
v 13.837260007858276 96.29192548371735 12.035093414780505
v 11.556302011013031 98.11648874088387 9.061146188543376
v 13.530001044273376 101.89297444594968 15.059195249694229
v 8.248663693666458 98.11645935187015 11.598016727736617
v 10.52963137626648 96.29192589702821 14.571977365013964
v 13.530001044273376 101.89297444594968 15.059195249694229
f 1 2 3
f 1 3 4
f 5 6 7
f 5 7 8
f 9 10 11
f 9 11 12
f 13 14 15
f 13 15 16
f 17 18 19
f 17 19 20
f 21 22 23
f 21 23 24
f 25 26 27
f 25 27 28
f 29 30 31
f 29 31 32
f 33 34 35
f 33 35 36
f 37 38 39
f 37 39 40
f 41 42 43
f 41 43 44
f 45 46 47
f 45 47 48
f 49 50 51
f 49 51 52
f 53 54 55
f 53 55 56
f 57 58 59
f 57 59 60
f 61 62 63
f 61 63 64
f 65 66 67
f 65 67 68
f 69 70 71
f 69 71 72
f 73 74 75
f 73 75 76
f 77 78 79
f 77 79 80
f 81 82 83
f 81 83 84
f 85 86 87
f 85 87 88
f 89 90 91
f 89 91 92
f 93 94 95
f 93 95 96
f 97 98 99
f 97 99 100
f 101 102 103
f 101 103 104
f 105 106 107
f 105 107 108
f 109 110 111
f 109 111 112
f 113 114 115
f 113 115 116
f 117 118 119
f 117 119 120
f 121 122 123
f 121 123 124
f 125 126 127
f 125 127 128
f 129 130 131
f 129 131 132
f 133 134 135
f 133 135 136
f 137 138 139
f 137 139 140
f 141 142 143
f 141 143 144
f 145 146 147
f 145 147 148
f 149 150 151
f 149 151 152
f 153 154 155
f 153 155 156
f 157 158 159
f 157 159 160
f 161 162 163
f 161 163 164
f 165 166 167
f 165 167 168
f 169 170 171
f 169 171 172
f 173 174 175
f 173 175 176
f 177 178 179
f 177 179 180
f 181 182 183
f 181 183 184
f 185 186 187
f 185 187 188
f 189 190 191
f 189 191 192
f 193 194 195
f 193 195 196
f 197 198 199
f 200 201 202
f 203 204 205
f 206 207 208
f 209 210 211
f 209 211 212
f 213 214 215
f 213 215 216
f 217 218 219
f 217 219 220
f 221 222 223
f 221 223 224
f 225 226 227
f 225 227 228
f 229 230 231
f 229 231 232
f 233 234 235
f 233 235 236
f 237 238 239
f 237 239 240
f 241 242 243
f 241 243 244
f 245 246 247
f 245 247 248
f 249 250 251
f 249 251 252
f 253 254 255
f 253 255 256
f 257 258 259
f 257 259 260
f 261 262 263
f 261 263 264
f 265 266 267
f 265 267 268
f 269 270 271
f 269 271 272
f 273 274 275
f 273 275 276
f 277 278 279
f 277 279 280
f 281 282 283
f 281 283 284
f 285 286 287
f 285 287 288
f 289 290 291
f 289 291 292
f 293 294 295
f 293 295 296
f 297 298 299
f 297 299 300
f 301 302 303
f 301 303 304
f 305 306 307
f 305 307 308
f 309 310 311
f 309 311 312
f 313 314 315
f 313 315 316
f 317 318 319
f 317 319 320
f 321 322 323
f 321 323 324
f 325 326 327
f 325 327 328
f 329 330 331
f 329 331 332
f 333 334 335
f 333 335 336
f 337 338 339
f 337 339 340
f 341 342 343
f 341 343 344
f 345 346 347
f 345 347 348
f 349 350 351
f 349 351 352
f 353 354 355
f 353 355 356
f 357 358 359
f 357 359 360
f 361 362 363
f 361 363 364
f 365 366 367
f 365 367 368
f 369 370 371
f 369 371 372
f 373 374 375
f 373 375 376
f 377 378 379
f 377 379 380
f 381 382 383
f 381 383 384
f 385 386 387
f 385 387 388
f 389 390 391
f 389 391 392
f 393 394 395
f 393 395 396
f 397 398 399
f 397 399 400
f 401 402 403
f 401 403 404
f 405 406 407
f 408 409 410
f 411 412 413
f 414 415 416
f 417 418 419
f 417 419 420
f 421 422 423
f 421 423 424
f 425 426 427
f 425 427 428
f 429 430 431
f 429 431 432
f 433 434 435
f 433 435 436
f 437 438 439
f 437 439 440
f 441 442 443
f 441 443 444
f 445 446 447
f 445 447 448
f 449 450 451
f 449 451 452
f 453 454 455
f 453 455 456
f 457 458 459
f 457 459 460
f 461 462 463
f 461 463 464
f 465 466 467
f 465 467 468
f 469 470 471
f 469 471 472
f 473 474 475
f 473 475 476
f 477 478 479
f 477 479 480
f 481 482 483
f 481 483 484
f 485 486 487
f 485 487 488
f 489 490 491
f 489 491 492
f 493 494 495
f 493 495 496
f 497 498 499
f 497 499 500
f 501 502 503
f 501 503 504
f 505 506 507
f 505 507 508
f 509 510 511
f 509 511 512
f 513 514 515
f 513 515 516
f 517 518 519
f 517 519 520
f 521 522 523
f 521 523 524
f 525 526 527
f 525 527 528
f 529 530 531
f 529 531 532
f 533 534 535
f 533 535 536
f 537 538 539
f 537 539 540
f 541 542 543
f 541 543 544
f 545 546 547
f 545 547 548
f 549 550 551
f 549 551 552
f 553 554 555
f 553 555 556
f 557 558 559
f 557 559 560
f 561 562 563
f 561 563 564
f 565 566 567
f 565 567 568
f 569 570 571
f 569 571 572
f 573 574 575
f 573 575 576
f 577 578 579
f 577 579 580
f 581 582 583
f 581 583 584
f 585 586 587
f 585 587 588
f 589 590 591
f 589 591 592
f 593 594 595
f 593 595 596
f 597 598 599
f 597 599 600
f 601 602 603
f 601 603 604
f 605 606 607
f 605 607 608
f 609 610 611
f 609 611 612
f 613 614 615
f 616 617 618
f 619 620 621
f 622 623 624
f 625 626 627
f 625 627 628
f 629 630 631
f 629 631 632
f 633 634 635
f 633 635 636
f 637 638 639
f 637 639 640
f 641 642 643
f 641 643 644
f 645 646 647
f 645 647 648
f 649 650 651
f 649 651 652
f 653 654 655
f 653 655 656
f 657 658 659
f 657 659 660
f 661 662 663
f 661 663 664
f 665 666 667
f 665 667 668
f 669 670 671
f 669 671 672
f 673 674 675
f 673 675 676
f 677 678 679
f 677 679 680
f 681 682 683
f 681 683 684
f 685 686 687
f 685 687 688
f 689 690 691
f 689 691 692
f 693 694 695
f 693 695 696
f 697 698 699
f 697 699 700
f 701 702 703
f 701 703 704
f 705 706 707
f 705 707 708
f 709 710 711
f 709 711 712
f 713 714 715
f 713 715 716
f 717 718 719
f 717 719 720
f 721 722 723
f 721 723 724
f 725 726 727
f 725 727 728
f 729 730 731
f 729 731 732
f 733 734 735
f 733 735 736
f 737 738 739
f 737 739 740
f 741 742 743
f 741 743 744
f 745 746 747
f 745 747 748
f 749 750 751
f 749 751 752
f 753 754 755
f 753 755 756
f 757 758 759
f 757 759 760
f 761 762 763
f 761 763 764
f 765 766 767
f 765 767 768
f 769 770 771
f 769 771 772
f 773 774 775
f 773 775 776
f 777 778 779
f 777 779 780
f 781 782 783
f 781 783 784
f 785 786 787
f 785 787 788
f 789 790 791
f 789 791 792
f 793 794 795
f 793 795 796
f 797 798 799
f 797 799 800
f 801 802 803
f 801 803 804
f 805 806 807
f 805 807 808
f 809 810 811
f 809 811 812
f 813 814 815
f 813 815 816
f 817 818 819
f 817 819 820
f 821 822 823
f 824 825 826
f 827 828 829
f 830 831 832
