v 2.5075048208236694 41.349344448902194 -60.99550205603131
v 8.715948462486267 44.40604107441507 -57.50795730218399
v 9.397155791521072 34.967279902244975 -33.71226165163628
v 2.7680203318595886 32.025205967154974 -37.33307644941131
v 2.5075048208236694 41.349344448902194 -60.99550205603131
v 2.7680203318595886 32.025205967154974 -37.33307644941131
v -5.559617653489113 32.132097967323425 -37.26887034347417
v -5.330610275268555 41.479044172913795 -60.891277395307824
v 2.5075048208236694 41.349344448902194 -60.99550205603131
v -5.330610275268555 41.479044172913795 -60.891277395307824
v -5.129770934581757 48.737929575283886 -83.45884878743414
v 2.146974205970764 48.530725924841214 -83.60499338220116
v 2.5075048208236694 41.349344448902194 -60.99550205603131
v 2.146974205970764 48.530725924841214 -83.60499338220116
v 7.85510390996933 51.30208022234602 -80.07022978227461
v 8.715948462486267 44.40604107441507 -57.50795730218399
v -9.999575465917587 45.68886440436227 -56.00930004620132
v -5.330610275268555 41.479044172913795 -60.891277395307824
v -5.559617653489113 32.132097967323425 -37.26887034347417
v -10.524601489305496 36.1874974816158 -32.28687041481175
v -9.999575465917587 45.68886440436227 -56.00930004620132
v -10.524601489305496 36.1874974816158 -32.28687041481175
v -10.541778057813644 41.21072164428506 -26.142949619505437
v -10.044673830270767 50.91532249772131 -50.028654287439245
v -9.999575465917587 45.68886440436227 -56.00930004620132
v -10.044673830270767 50.91532249772131 -50.028654287439245
v -10.335111618041992 59.02354721013853 -72.93941148116376
v -9.494438767433167 52.67477545234837 -78.46929693096384
v -9.999575465917587 45.68886440436227 -56.00930004620132
v -9.494438767433167 52.67477545234837 -78.46929693096384
v -5.129770934581757 48.737929575283886 -83.45884878743414
v -5.330610275268555 41.479044172913795 -60.891277395307824
v 8.495894074440002 49.755412871772286 -51.61462640757858
v 3.651970624923706 54.08814978745166 -46.819960942396975
v 4.188290983438492 44.18248759962678 -22.728021190551015
v 9.266626834869385 40.05879607512433 -27.639180987771702
v 8.495894074440002 49.755412871772286 -51.61462640757858
v 9.266626834869385 40.05879607512433 -27.639180987771702
v 9.397155791521072 34.967279902244975 -33.71226165163628
v 8.715948462486267 44.40604107441507 -57.50795730218399
v 8.495894074440002 49.755412871772286 -51.61462640757858
v 8.715948462486267 44.40604107441507 -57.50795730218399
v 7.85510390996933 51.30208022234602 -80.07022978227461
v 7.513941824436188 56.300932030980924 -74.01706301513255
v 8.495894074440002 49.755412871772286 -51.61462640757858
v 7.513941824436188 56.300932030980924 -74.01706301513255
v 3.3006787300109863 62.14952531813447 -69.30683671693635
v 3.651970624923706 54.08814978745166 -46.819960942396975
v -0.38224421441555023 -4.578892334829376 1.100414992316998
v -12.148696184158325 -4.808065745058894 -2.7610942338614897
v -6.21647834777832 -4.986266629016083 -10.433547131464827
v 3.479204699397087 -4.808000722765413 -10.666007510306237
v -0.38224421441555023 -4.578892334829376 1.100414992316998
v 3.479204699397087 -4.808000722765413 -10.666007510306237
v 11.151692271232605 -4.986372988753211 -4.733696885137113
v 11.384151875972748 -4.808140855279094 4.961872139117719
v -0.38224421441555023 -4.578892334829376 1.100414992316998
v 11.384151875972748 -4.808140855279094 4.961872139117719
v 5.451776832342148 -4.986493466263461 12.634255804411442
v -4.243748635053635 -4.808206250101362 12.866786905678646
v -0.38224421441555023 -4.578892334829376 1.100414992316998
v -4.243748635053635 -4.808206250101362 12.866786905678646
v -11.916163563728333 -4.986384126284686 6.934463300082869
v -12.148696184158325 -4.808065745058894 -2.7610942338614897
v 12.87798136472702 -2.0699980167174212 5.452624673130673
v 6.301378458738327 -2.0776000768547305 14.313540201117144
v 7.108829170465469 -5.099780128094117 15.910283561916273
v 14.484161138534546 -5.0979399625329505 5.97930112090614
v 12.87798136472702 -2.0699980167174212 5.452624673130673
v 14.484161138534546 -5.0979399625329505 5.97930112090614
v 14.426140487194061 -5.094795597747402 -6.391139243490443
v 12.824155390262604 -2.057611734485655 -5.584198646296163
v 12.87798136472702 -2.0699980167174212 5.452624673130673
v 12.824155390262604 -2.057611734485655 -5.584198646296163
v 11.105415970087051 5.6373434162880605 -7.9897256439248725
v 11.132881790399551 6.370248109091172 1.2804084323554308
v 12.87798136472702 -2.0699980167174212 5.452624673130673
v 11.132881790399551 6.370248109091172 1.2804084323554308
v 5.386959761381149 6.967253914772521 8.727361616851253
v 6.301378458738327 -2.0776000768547305 14.313540201117144
v -4.734557867050171 -2.073991566684831 14.360939304170754
v -13.594651222229004 -2.063601873172043 7.778274604115534
v -15.192165970802307 -5.095955075046082 8.590049381796133
v -5.261378362774849 -5.098712823222597 15.96675896266707
v -4.734557867050171 -2.073991566684831 14.360939304170754
v -5.261378362774849 -5.098712823222597 15.96675896266707
v 7.108829170465469 -5.099780128094117 15.910283561916273
v 6.301378458738327 -2.0776000768547305 14.313540201117144
v -4.734557867050171 -2.073991566684831 14.360939304170754
v 6.301378458738327 -2.0776000768547305 14.313540201117144
v 5.386959761381149 6.967253914772521 8.727361616851253
v -4.22164723277092 6.979701608025879 8.77800023090832
v -4.734557867050171 -2.073991566684831 14.360939304170754
v -4.22164723277092 6.979701608025879 8.77800023090832
v -11.926378309726715 6.551524037219061 3.256661495110857
v -13.594651222229004 -2.063601873172043 7.778274604115534
v -13.643726706504822 -2.0508605695450175 -3.251000159637369
v -7.062374800443649 -2.042903860541722 -12.104368622065966
v -7.872963696718216 -5.0908010433856825 -13.70765930921063
v -15.249240398406982 -5.092726518397114 -3.778533180342323
v -13.643726706504822 -2.0508605695450175 -3.251000159637369
v -15.249240398406982 -5.092726518397114 -3.778533180342323
v -15.192165970802307 -5.095955075046082 8.590049381796133
v -13.594651222229004 -2.063601873172043 7.778274604115534
v -13.643726706504822 -2.0508605695450175 -3.251000159637369
v -13.594651222229004 -2.063601873172043 7.778274604115534
v -11.926378309726715 6.551524037219061 3.256661495110857
v -11.96066439151764 5.826651443017097 -6.012314762253279
v -13.643726706504822 -2.0508605695450175 -3.251000159637369
v -11.96066439151764 5.826651443017097 -6.012314762253279
v -6.2215641140937805 5.2376769908786525 -13.458111245419904
v -7.062374800443649 -2.042903860541722 -12.104368622065966
v 3.9688128978013992 -2.046867205842062 -12.15931441814839
v 12.824155390262604 -2.057611734485655 -5.584198646296163
v 14.426140487194061 -5.094795597747402 -6.391139243490443
v 4.496299102902412 -5.091953657707772 -13.765992884748403
v 3.9688128978013992 -2.046867205842062 -12.15931441814839
v 4.496299102902412 -5.091953657707772 -13.765992884748403
v -7.872963696718216 -5.0908010433856825 -13.70765930921063
v -7.062374800443649 -2.042903860541722 -12.104368622065966
v 3.9688128978013992 -2.046867205842062 -12.15931441814839
v -7.062374800443649 -2.042903860541722 -12.104368622065966
v -6.2215641140937805 5.2376769908786525 -13.458111245419904
v 3.393865004181862 5.217197199024148 -13.509907678393137
v 3.9688128978013992 -2.046867205842062 -12.15931441814839
v 3.393865004181862 5.217197199024148 -13.509907678393137
v 11.105415970087051 5.6373434162880605 -7.9897256439248725
v 12.824155390262604 -2.057611734485655 -5.584198646296163
v 4.719240963459015 -5.495676143938894 -14.444849489830156
v 15.102925896644592 -5.495815703378953 -6.732303498863305
v 11.151692271232605 -4.986372988753211 -4.733696885137113
v 3.479204699397087 -4.808000722765413 -10.666007510306237
v 4.719240963459015 -5.495676143938894 -14.444849489830156
v 3.479204699397087 -4.808000722765413 -10.666007510306237
v -6.21647834777832 -4.986266629016083 -10.433547131464827
v -8.215242624282837 -5.495566983152645 -14.384817181746284
v 4.719240963459015 -5.495676143938894 -14.444849489830156
v -8.215242624282837 -5.495566983152645 -14.384817181746284
v -7.872963696718216 -5.0908010433856825 -13.70765930921063
v 4.496299102902412 -5.091953657707772 -13.765992884748403
v 4.719240963459015 -5.495676143938894 -14.444849489830156
v 4.496299102902412 -5.091953657707772 -13.765992884748403
v 14.426140487194061 -5.094795597747402 -6.391139243490443
v 15.102925896644592 -5.495815703378953 -6.732303498863305
v -15.927629172801971 -5.495569761814783 -4.001321120778111
v -8.215242624282837 -5.495566983152645 -14.384817181746284
v -6.21647834777832 -4.986266629016083 -10.433547131464827
v -12.148696184158325 -4.808065745058894 -2.7610942338614897
v -15.927629172801971 -5.495569761814783 -4.001321120778111
v -12.148696184158325 -4.808065745058894 -2.7610942338614897
v -11.916163563728333 -4.986384126284686 6.934463300082869
v -15.867379307746887 -5.495655943927999 8.932990731095366
v -15.927629172801971 -5.495569761814783 -4.001321120778111
v -15.867379307746887 -5.495655943927999 8.932990731095366
v -15.192165970802307 -5.095955075046082 8.590049381796133
v -15.249240398406982 -5.092726518397114 -3.778533180342323
v -15.927629172801971 -5.495569761814783 -4.001321120778111
v -15.249240398406982 -5.092726518397114 -3.778533180342323
v -7.872963696718216 -5.0908010433856825 -13.70765930921063
v -8.215242624282837 -5.495566983152645 -14.384817181746284
v -5.483950674533844 -5.495799228668796 16.64547264706969
v -15.867379307746887 -5.495655943927999 8.932990731095366
v -11.916163563728333 -4.986384126284686 6.934463300082869
v -4.243748635053635 -4.808206250101362 12.866786905678646
v -5.483950674533844 -5.495799228668796 16.64547264706969
v -4.243748635053635 -4.808206250101362 12.866786905678646
v 5.451776832342148 -4.986493466263461 12.634255804411442
v 7.450275123119354 -5.4959113696982085 16.585373283760934
v -5.483950674533844 -5.495799228668796 16.64547264706969
v 7.450275123119354 -5.4959113696982085 16.585373283760934
v 7.108829170465469 -5.099780128094117 15.910283561916273
v -5.261378362774849 -5.098712823222597 15.96675896266707
v -5.483950674533844 -5.495799228668796 16.64547264706969
v -5.261378362774849 -5.098712823222597 15.96675896266707
v -15.192165970802307 -5.095955075046082 8.590049381796133
v -15.867379307746887 -5.495655943927999 8.932990731095366
v 15.162919461727142 -5.4959052382641795 6.201942415372435
v 7.450275123119354 -5.4959113696982085 16.585373283760934
v 5.451776832342148 -4.986493466263461 12.634255804411442
v 11.384151875972748 -4.808140855279094 4.961872139117719
v 15.162919461727142 -5.4959052382641795 6.201942415372435
v 11.384151875972748 -4.808140855279094 4.961872139117719
v 11.151692271232605 -4.986372988753211 -4.733696885137113
v 15.102925896644592 -5.495815703378953 -6.732303498863305
v 15.162919461727142 -5.4959052382641795 6.201942415372435
v 15.102925896644592 -5.495815703378953 -6.732303498863305
v 14.426140487194061 -5.094795597747402 -6.391139243490443
v 14.484161138534546 -5.0979399625329505 5.97930112090614
v 15.162919461727142 -5.4959052382641795 6.201942415372435
v 14.484161138534546 -5.0979399625329505 5.97930112090614
v 7.108829170465469 -5.099780128094117 15.910283561916273
v 7.450275123119354 -5.4959113696982085 16.585373283760934
v 3.7197142839431763 115.05199923100247 -130.85370746124164
v 3.07525098323822 96.61673083707622 -123.48652267980091
v 3.231474757194519 96.90415553192511 -128.53920846423833
v 3.629326820373535 116.50400330329677 -135.99253406804252
v 3.7197142839431763 115.05199923100247 -130.85370746124164
v 3.629326820373535 116.50400330329677 -135.99253406804252
v 4.5962899923324585 138.62923537937547 -136.87405460614153
v 4.857859015464783 136.87596560849542 -131.62494743649478
v 3.7197142839431763 115.05199923100247 -130.85370746124164
v 4.857859015464783 136.87596560849542 -131.62494743649478
v 1.8934041261672974 135.06899182492853 -127.77372415015793
v 0.9645342826843262 113.53855450745749 -126.84068145401945
v 3.7197142839431763 115.05199923100247 -130.85370746124164
v 0.9645342826843262 113.53855450745749 -126.84068145401945
v 0.33752620220184326 96.17268883406419 -119.314948491704
v 3.07525098323822 96.61673083707622 -123.48652267980091
v 0.34924447536468506 79.35661528933612 -118.63145929037847
v 0.9468168020248413 65.42047332880283 -105.41639201745102
v -4.79990541934967 65.8971436267552 -105.21534562828307
v -4.476472735404968 79.469071420382 -118.33838327033929
v 0.34924447536468506 79.35661528933612 -118.63145929037847
v -4.476472735404968 79.469071420382 -118.33838327033929
v -4.353514313697815 96.45632157415406 -131.11540458497205
v -0.052103400230407715 96.80582529093459 -131.35348943500426
v 0.34924447536468506 79.35661528933612 -118.63145929037847
v -0.052103400230407715 96.80582529093459 -131.35348943500426
v 3.231474757194519 96.90415553192511 -128.53920846423833
v 3.9534062147140503 80.69159288846225 -115.8745181893619
v 0.34924447536468506 79.35661528933612 -118.63145929037847
v 3.9534062147140503 80.69159288846225 -115.8745181893619
v 5.264720320701599 67.91663288555804 -102.46977720501074
v 0.9468168020248413 65.42047332880283 -105.41639201745102
v 3.5138458013534546 83.09460861576619 -110.78612966103239
v 4.65283989906311 72.76350464808712 -97.17070453694834
v 5.264720320701599 67.91663288555804 -102.46977720501074
v 3.9534062147140503 80.69159288846225 -115.8745181893619
v 3.5138458013534546 83.09460861576619 -110.78612966103239
v 3.9534062147140503 80.69159288846225 -115.8745181893619
v 3.231474757194519 96.90415553192511 -128.53920846423833
v 3.07525098323822 96.61673083707622 -123.48652267980091
v 3.5138458013534546 83.09460861576619 -110.78612966103239
v 3.07525098323822 96.61673083707622 -123.48652267980091
v 0.33752620220184326 96.17268883406419 -119.314948491704
v 0.2704411745071411 85.07606439026323 -106.57036498446274
v 3.5138458013534546 83.09460861576619 -110.78612966103239
v 0.2704411745071411 85.07606439026323 -106.57036498446274
v 0.9796202182769775 78.75792099560198 -90.63800664385734
v 4.65283989906311 72.76350464808712 -97.17070453694834
v -7.701539993286133 81.40837476499527 -114.27667275178864
v -8.474455773830414 69.96875546789126 -101.07139296826847
v -9.501364827156067 76.28683702059456 -94.15121129268887
v -8.12276005744934 83.76923806241933 -109.34231453962019
v -7.701539993286133 81.40837476499527 -114.27667275178864
v -8.12276005744934 83.76923806241933 -109.34231453962019
v -7.566505670547485 95.68078318005219 -122.02552923736813
v -7.250761985778809 95.9902437230206 -127.01102866980483
v -7.701539993286133 81.40837476499527 -114.27667275178864
v -7.250761985778809 95.9902437230206 -127.01102866980483
v -4.353514313697815 96.45632157415406 -131.11540458497205
v -4.476472735404968 79.469071420382 -118.33838327033929
v -7.701539993286133 81.40837476499527 -114.27667275178864
v -4.476472735404968 79.469071420382 -118.33838327033929
v -4.79990541934967 65.8971436267552 -105.21534562828307
v -8.474455773830414 69.96875546789126 -101.07139296826847
v -7.662549614906311 114.80624854693457 -135.35687409677152
v -7.250761985778809 95.9902437230206 -127.01102866980483
v -7.566505670547485 95.68078318005219 -122.02552923736813
v -7.709994912147522 113.33990359898344 -130.2065318702636
v -7.662549614906311 114.80624854693457 -135.35687409677152
v -7.709994912147522 113.33990359898344 -130.2065318702636
v -7.831361889839172 134.89464756674585 -131.89974836796958
v -8.046209812164307 136.66113763683666 -137.21637568137174
v -7.662549614906311 114.80624854693457 -135.35687409677152
v -8.046209812164307 136.66113763683666 -137.21637568137174
v -5.035051703453064 138.48135556146445 -141.13516679518372
v -4.769545793533325 116.33404606706144 -139.38143956556058
v -7.662549614906311 114.80624854693457 -135.35687409677152
v -4.769545793533325 116.33404606706144 -139.38143956556058
v -4.353514313697815 96.45632157415406 -131.11540458497205
v -7.250761985778809 95.9902437230206 -127.01102866980483
v -3.8398385047912598 112.9425914808377 -126.99639253093599
v -4.123398661613464 95.80114926916028 -119.14407383553043
v 0.33752620220184326 96.17268883406419 -119.314948491704
v 0.9645342826843262 113.53855450745749 -126.84068145401945
v -3.8398385047912598 112.9425914808377 -126.99639253093599
v 0.9645342826843262 113.53855450745749 -126.84068145401945
v 1.8934041261672974 135.06899182492853 -127.77372415015793
v -3.427240252494812 134.38623245278905 -128.3087472513552
v -3.8398385047912598 112.9425914808377 -126.99639253093599
v -3.427240252494812 134.38623245278905 -128.3087472513552
v -7.831361889839172 134.89464756674585 -131.89974836796958
v -7.709994912147522 113.33990359898344 -130.2065318702636
v -3.8398385047912598 112.9425914808377 -126.99639253093599
v -7.709994912147522 113.33990359898344 -130.2065318702636
v -7.566505670547485 95.68078318005219 -122.02552923736813
v -4.123398661613464 95.80114926916028 -119.14407383553043
v -9.029076993465424 60.57947578487944 -91.3127997866439
v -9.494438767433167 52.67477545234837 -78.46929693096384
v -10.335111618041992 59.02354721013853 -72.93941148116376
v -10.656313598155975 67.28766367234772 -85.03603243357762
v -9.029076993465424 60.57947578487944 -91.3127997866439
v -10.656313598155975 67.28766367234772 -85.03603243357762
v -9.501364827156067 76.28683702059456 -94.15121129268887
v -8.474455773830414 69.96875546789126 -101.07139296826847
v -9.029076993465424 60.57947578487944 -91.3127997866439
v -8.474455773830414 69.96875546789126 -101.07139296826847
v -4.79990541934967 65.8971436267552 -105.21534562828307
v -4.985268414020538 56.26536237243935 -95.91117821891756
v -9.029076993465424 60.57947578487944 -91.3127997866439
v -4.985268414020538 56.26536237243935 -95.91117821891756
v -5.129770934581757 48.737929575283886 -83.45884878743414
v -9.494438767433167 52.67477545234837 -78.46929693096384
v 6.109565496444702 63.901285054596066 -87.0583817163087
v 7.513941824436188 56.300932030980924 -74.01706301513255
v 7.85510390996933 51.30208022234602 -80.07022978227461
v 6.634992361068726 58.62953343122344 -92.79626370998582
v 6.109565496444702 63.901285054596066 -87.0583817163087
v 6.634992361068726 58.62953343122344 -92.79626370998582
v 5.264720320701599 67.91663288555804 -102.46977720501074
v 4.65283989906311 72.76350464808712 -97.17070453694834
v 6.109565496444702 63.901285054596066 -87.0583817163087
v 4.65283989906311 72.76350464808712 -97.17070453694834
v 0.9796202182769775 78.75792099560198 -90.63800664385734
v 3.4806370735168457 70.58323497568044 -80.79237895781415
v 6.109565496444702 63.901285054596066 -87.0583817163087
v 3.4806370735168457 70.58323497568044 -80.79237895781415
v 3.3006787300109863 62.14952531813447 -69.30683671693635
v 7.513941824436188 56.300932030980924 -74.01706301513255
v 1.5864014625549316 55.849798762143024 -96.07642606838895
v 2.146974205970764 48.530725924841214 -83.60499338220116
v -5.129770934581757 48.737929575283886 -83.45884878743414
v -4.985268414020538 56.26536237243935 -95.91117821891756
v 1.5864014625549316 55.849798762143024 -96.07642606838895
v -4.985268414020538 56.26536237243935 -95.91117821891756
v -4.79990541934967 65.8971436267552 -105.21534562828307
v 0.9468168020248413 65.42047332880283 -105.41639201745102
v 1.5864014625549316 55.849798762143024 -96.07642606838895
v 0.9468168020248413 65.42047332880283 -105.41639201745102
v 5.264720320701599 67.91663288555804 -102.46977720501074
v 6.634992361068726 58.62953343122344 -92.79626370998582
v 1.5864014625549316 55.849798762143024 -96.07642606838895
v 6.634992361068726 58.62953343122344 -92.79626370998582
v 7.85510390996933 51.30208022234602 -80.07022978227461
v 2.146974205970764 48.530725924841214 -83.60499338220116
v 3.089611232280731 122.73729135243548 -55.508812396804316
v 3.6694541573524475 124.52944740283925 -59.473415636018814
v 4.05881404876709 144.86933071236126 -53.73005843039706
v 2.67120897769928 143.86895084831787 -49.72805638581496
v 3.089611232280731 122.73729135243548 -55.508812396804316
v 2.67120897769928 143.86895084831787 -49.72805638581496
v -0.40662288665771484 143.464951050136 -46.75663662795547
v 0.28456300497055054 121.31126264281511 -52.466215585876654
v 3.089611232280731 122.73729135243548 -55.508812396804316
v 0.28456300497055054 121.31126264281511 -52.466215585876654
v 1.0705530643463135 100.72574848080119 -58.89317246194455
v 3.497132658958435 103.24559392078298 -62.10051668923677
v 3.089611232280731 122.73729135243548 -55.508812396804316
v 3.497132658958435 103.24559392078298 -62.10051668923677
v 3.1762510538101196 105.77467793220501 -66.2193470668684
v 3.6694541573524475 124.52944740283925 -59.473415636018814
v 0.1892685890197754 185.0822139722305 -116.49774944159522
v 4.9698710441589355 179.00382758052524 -117.01912220007969
v 4.48077917098999 175.59061428769252 -123.11709403703271
v 1.306578516960144 180.81281551781447 -123.83664215956583
v 0.1892685890197754 185.0822139722305 -116.49774944159522
v 1.306578516960144 180.81281551781447 -123.83664215956583
v -2.962702512741089 175.48270549362715 -126.46328685621371
v -5.088642239570618 178.85044026011133 -121.4847856081648
v 0.1892685890197754 185.0822139722305 -116.49774944159522
v -5.088642239570618 178.85044026011133 -121.4847856081648
v -4.993611574172974 172.6833863855001 -119.63284444839485
v -1.4253437519073486 177.0414523228221 -114.66726564867867
v 0.1892685890197754 185.0822139722305 -116.49774944159522
v -1.4253437519073486 177.0414523228221 -114.66726564867867
v 2.464398741722107 172.802751179809 -116.36326744147458
v 4.9698710441589355 179.00382758052524 -117.01912220007969
v -7.511022686958313 160.35963555097237 -130.49167623042675
v -4.460468888282776 162.27733091741658 -134.37516948948382
v -5.035051703453064 138.48135556146445 -141.13516679518372
v -8.046209812164307 136.66113763683666 -137.21637568137174
v -7.511022686958313 160.35963555097237 -130.49167623042675
v -8.046209812164307 136.66113763683666 -137.21637568137174
v -7.831361889839172 134.89464756674585 -131.89974836796958
v -7.208731770515442 158.49308121226565 -125.11960466015198
v -7.511022686958313 160.35963555097237 -130.49167623042675
v -7.208731770515442 158.49308121226565 -125.11960466015198
v -4.993611574172974 172.6833863855001 -119.63284444839485
v -5.088642239570618 178.85044026011133 -121.4847856081648
v -7.511022686958313 160.35963555097237 -130.49167623042675
v -5.088642239570618 178.85044026011133 -121.4847856081648
v -2.962702512741089 175.48270549362715 -126.46328685621371
v -4.460468888282776 162.27733091741658 -134.37516948948382
v 1.0159283876419067 162.97614781550485 -133.62748893927304
v 5.58168888092041 162.41784364859697 -129.8233416048139
v 4.5962899923324585 138.62923537937547 -136.87405460614153
v 0.23888945579528809 139.15085887161604 -140.53256394558042
v 1.0159283876419067 162.97614781550485 -133.62748893927304
v 0.23888945579528809 139.15085887161604 -140.53256394558042
v -5.035051703453064 138.48135556146445 -141.13516679518372
v -4.460468888282776 162.27733091741658 -134.37516948948382
v 1.0159283876419067 162.97614781550485 -133.62748893927304
v -4.460468888282776 162.27733091741658 -134.37516948948382
v -2.962702512741089 175.48270549362715 -126.46328685621371
v 1.306578516960144 180.81281551781447 -123.83664215956583
v 1.0159283876419067 162.97614781550485 -133.62748893927304
v 1.306578516960144 180.81281551781447 -123.83664215956583
v 4.48077917098999 175.59061428769252 -123.11709403703271
v 5.58168888092041 162.41784364859697 -129.8233416048139
v -2.6266276836395264 157.94766355551636 -121.40164564413753
v -7.208731770515442 158.49308121226565 -125.11960466015198
v -7.831361889839172 134.89464756674585 -131.89974836796958
v -3.427240252494812 134.38623245278905 -128.3087472513552
v -2.6266276836395264 157.94766355551636 -121.40164564413753
v -3.427240252494812 134.38623245278905 -128.3087472513552
v 1.8934041261672974 135.06899182492853 -127.77372415015793
v 2.8661131858825684 158.65935504283232 -120.74016533329844
v -2.6266276836395264 157.94766355551636 -121.40164564413753
v 2.8661131858825684 158.65935504283232 -120.74016533329844
v 2.464398741722107 172.802751179809 -116.36326744147458
v -1.4253437519073486 177.0414523228221 -114.66726564867867
v -2.6266276836395264 157.94766355551636 -121.40164564413753
v -1.4253437519073486 177.0414523228221 -114.66726564867867
v -4.993611574172974 172.6833863855001 -119.63284444839485
v -7.208731770515442 158.49308121226565 -125.11960466015198
v 5.900323390960693 160.56416389911791 -124.53747027391083
v 2.8661131858825684 158.65935504283232 -120.74016533329844
v 1.8934041261672974 135.06899182492853 -127.77372415015793
v 4.857859015464783 136.87596560849542 -131.62494743649478
v 5.900323390960693 160.56416389911791 -124.53747027391083
v 4.857859015464783 136.87596560849542 -131.62494743649478
v 4.5962899923324585 138.62923537937547 -136.87405460614153
v 5.58168888092041 162.41784364859697 -129.8233416048139
v 5.900323390960693 160.56416389911791 -124.53747027391083
v 5.58168888092041 162.41784364859697 -129.8233416048139
v 4.48077917098999 175.59061428769252 -123.11709403703271
v 4.9698710441589355 179.00382758052524 -117.01912220007969
v 5.900323390960693 160.56416389911791 -124.53747027391083
v 4.9698710441589355 179.00382758052524 -117.01912220007969
v 2.464398741722107 172.802751179809 -116.36326744147458
v 2.8661131858825684 158.65935504283232 -120.74016533329844
v 0.6486549973487854 174.18449314019955 -49.29341829467703
v 3.213067352771759 170.47880123264233 -46.93826830262984
v 4.281724989414215 167.6174796930591 -50.419351944814146
v 3.235843777656555 170.24975151871936 -52.98403294999019
v 0.6486549973487854 174.18449314019955 -49.29341829467703
v 3.235843777656555 170.24975151871936 -52.98403294999019
v 0.42719244956970215 168.40097027735212 -53.79737974999706
v -2.2579729557037354 171.31256212594073 -51.84095312703497
v 0.6486549973487854 174.18449314019955 -49.29341829467703
v -2.2579729557037354 171.31256212594073 -51.84095312703497
v -3.6523185670375824 169.0677325369467 -48.51088596118824
v -2.280747890472412 171.54161183986466 -45.795182519210144
v 0.6486549973487854 174.18449314019955 -49.29341829467703
v -2.280747890472412 171.54161183986466 -45.795182519210144
v 0.3212571144104004 168.26470355054838 -45.13008355660781
v 3.213067352771759 170.47880123264233 -46.93826830262984
v -3.564160317182541 161.21563178795452 -44.96930483935112
v -0.11341720819473267 160.4447650555717 -44.119214329277625
v 0.3212571144104004 168.26470355054838 -45.13008355660781
v -2.280747890472412 171.54161183986466 -45.795182519210144
v -3.564160317182541 161.21563178795452 -44.96930483935112
v -2.280747890472412 171.54161183986466 -45.795182519210144
v -3.6523185670375824 169.0677325369467 -48.51088596118824
v -5.2507102489471436 161.89330031418055 -48.17382946681674
v -3.564160317182541 161.21563178795452 -44.96930483935112
v -5.2507102489471436 161.89330031418055 -48.17382946681674
v -5.793914943933487 145.3319945112433 -49.89256842398735
v -3.897276520729065 144.17740530183485 -47.16972971487709
v -3.564160317182541 161.21563178795452 -44.96930483935112
v -3.897276520729065 144.17740530183485 -47.16972971487709
v -0.40662288665771484 143.464951050136 -46.75663662795547
v -0.11341720819473267 160.4447650555717 -44.119214329277625
v 3.2998070120811462 160.07819602458142 -46.9771795004978
v 5.045241117477417 160.1871645505136 -51.185645928888036
v 4.281724989414215 167.6174796930591 -50.419351944814146
v 3.213067352771759 170.47880123264233 -46.93826830262984
v 3.2998070120811462 160.07819602458142 -46.9771795004978
v 3.213067352771759 170.47880123264233 -46.93826830262984
v 0.3212571144104004 168.26470355054838 -45.13008355660781
v -0.11341720819473267 160.4447650555717 -44.119214329277625
v 3.2998070120811462 160.07819602458142 -46.9771795004978
v -0.11341720819473267 160.4447650555717 -44.119214329277625
v -0.40662288665771484 143.464951050136 -46.75663662795547
v 2.67120897769928 143.86895084831787 -49.72805638581496
v 3.2998070120811462 160.07819602458142 -46.9771795004978
v 2.67120897769928 143.86895084831787 -49.72805638581496
v 4.05881404876709 144.86933071236126 -53.73005843039706
v 5.045241117477417 160.1871645505136 -51.185645928888036
v -3.371349722146988 161.98029856855686 -52.37917558847358
v -5.2507102489471436 161.89330031418055 -48.17382946681674
v -3.6523185670375824 169.0677325369467 -48.51088596118824
v -2.2579729557037354 171.31256212594073 -51.84095312703497
v -3.371349722146988 161.98029856855686 -52.37917558847358
v -2.2579729557037354 171.31256212594073 -51.84095312703497
v 0.42719244956970215 168.40097027735212 -53.79737974999706
v 0.17579644918441772 161.5917711869392 -55.23402343319453
v -3.371349722146988 161.98029856855686 -52.37917558847358
v 0.17579644918441772 161.5917711869392 -55.23402343319453
v -0.6952494382858276 146.58053188363803 -56.777608433766055
v -4.089696705341339 146.25444726990742 -53.85037659200479
v -3.371349722146988 161.98029856855686 -52.37917558847358
v -4.089696705341339 146.25444726990742 -53.85037659200479
v -5.793914943933487 145.3319945112433 -49.89256842398735
v -5.2507102489471436 161.89330031418055 -48.17382946681674
v 3.4926146268844604 160.84287472611223 -54.387053229854445
v 0.17579644918441772 161.5917711869392 -55.23402343319453
v 0.42719244956970215 168.40097027735212 -53.79737974999706
v 3.235843777656555 170.24975151871936 -52.98403294999019
v 3.4926146268844604 160.84287472611223 -54.387053229854445
v 3.235843777656555 170.24975151871936 -52.98403294999019
v 4.281724989414215 167.6174796930591 -50.419351944814146
v 5.045241117477417 160.1871645505136 -51.185645928888036
v 3.4926146268844604 160.84287472611223 -54.387053229854445
v 5.045241117477417 160.1871645505136 -51.185645928888036
v 4.05881404876709 144.86933071236126 -53.73005843039706
v 2.4787887930870056 145.94600473731842 -56.40870922340908
v 3.4926146268844604 160.84287472611223 -54.387053229854445
v 2.4787887930870056 145.94600473731842 -56.40870922340908
v -0.6952494382858276 146.58053188363803 -56.777608433766055
v 0.17579644918441772 161.5917711869392 -55.23402343319453
v -9.978270530700684 74.88541494493592 -79.83565358450946
v -8.753377199172974 69.63918795979296 -73.7313503234794
v -7.842981815338135 78.79821706882878 -70.17799707553172
v -8.591099083423615 82.92454447200151 -75.2524391807488
v -9.978270530700684 74.88541494493592 -79.83565358450946
v -8.591099083423615 82.92454447200151 -75.2524391807488
v -6.670500338077545 87.51262920354846 -79.4350409032794
v -8.153919875621796 80.80869124924884 -84.9630010651893
v -9.978270530700684 74.88541494493592 -79.83565358450946
v -8.153919875621796 80.80869124924884 -84.9630010651893
v -9.501364827156067 76.28683702059456 -94.15121129268887
v -10.656313598155975 67.28766367234772 -85.03603243357762
v -9.978270530700684 74.88541494493592 -79.83565358450946
v -10.656313598155975 67.28766367234772 -85.03603243357762
v -10.335111618041992 59.02354721013853 -72.93941148116376
v -8.753377199172974 69.63918795979296 -73.7313503234794
v -3.695911169052124 68.8672189492633 -70.37831474772791
v 1.269616186618805 71.78139129527447 -70.77699877048049
v 0.9106367826461792 80.22310827122892 -67.44173880090099
v -3.5370081663131714 78.06487179774113 -67.25690444583114
v -3.695911169052124 68.8672189492633 -70.37831474772791
v -3.5370081663131714 78.06487179774113 -67.25690444583114
v -7.842981815338135 78.79821706882878 -70.17799707553172
v -8.753377199172974 69.63918795979296 -73.7313503234794
v -3.695911169052124 68.8672189492633 -70.37831474772791
v -8.753377199172974 69.63918795979296 -73.7313503234794
v -10.335111618041992 59.02354721013853 -72.93941148116376
v -3.924962878227234 60.504044286354905 -65.90225490206993
v -3.695911169052124 68.8672189492633 -70.37831474772791
v -3.924962878227234 60.504044286354905 -65.90225490206993
v 3.3006787300109863 62.14952531813447 -69.30683671693635
v 1.269616186618805 71.78139129527447 -70.77699877048049
v 2.21870094537735 77.5935704983635 -75.9278364235663
v 0.11854469776153564 82.728718263676 -82.05562985700524
v 0.5882024765014648 88.85817468304555 -76.82017939573565
v 2.083781361579895 84.77151418086132 -71.6850299662774
v 2.21870094537735 77.5935704983635 -75.9278364235663
v 2.083781361579895 84.77151418086132 -71.6850299662774
v 0.9106367826461792 80.22310827122892 -67.44173880090099
v 1.269616186618805 71.78139129527447 -70.77699877048049
v 2.21870094537735 77.5935704983635 -75.9278364235663
v 1.269616186618805 71.78139129527447 -70.77699877048049
v 3.3006787300109863 62.14952531813447 -69.30683671693635
v 3.4806370735168457 70.58323497568044 -80.79237895781415
v 2.21870094537735 77.5935704983635 -75.9278364235663
v 3.4806370735168457 70.58323497568044 -80.79237895781415
v 0.9796202182769775 78.75792099560198 -90.63800664385734
v 0.11854469776153564 82.728718263676 -82.05562985700524
v -3.975791484117508 121.39777277794185 -52.750404585795536
v 0.28456300497055054 121.31126264281511 -52.466215585876654
v -0.40662288665771484 143.464951050136 -46.75663662795547
v -3.897276520729065 144.17740530183485 -47.16972971487709
v -3.975791484117508 121.39777277794185 -52.750404585795536
v -3.897276520729065 144.17740530183485 -47.16972971487709
v -5.793914943933487 145.3319945112433 -49.89256842398735
v -6.928655505180359 122.52016358063433 -55.33580391950466
v -3.975791484117508 121.39777277794185 -52.750404585795536
v -6.928655505180359 122.52016358063433 -55.33580391950466
v -7.878588140010834 100.85752196114258 -61.767749528853926
v -3.8727596402168274 99.96749987418248 -59.13278301040725
v -3.975791484117508 121.39777277794185 -52.750404585795536
v -3.8727596402168274 99.96749987418248 -59.13278301040725
v 1.0705530643463135 100.72574848080119 -58.89317246194455
v 0.28456300497055054 121.31126264281511 -52.466215585876654
v 1.254183053970337 125.54133121099073 -61.95525188142682
v -2.4685800075531006 125.51733435157647 -62.135877793044585
v -0.6952494382858276 146.58053188363803 -56.777608433766055
v 2.4787887930870056 145.94600473731842 -56.40870922340908
v 1.254183053970337 125.54133121099073 -61.95525188142682
v 2.4787887930870056 145.94600473731842 -56.40870922340908
v 4.05881404876709 144.86933071236126 -53.73005843039706
v 3.6694541573524475 124.52944740283925 -59.473415636018814
v 1.254183053970337 125.54133121099073 -61.95525188142682
v 3.6694541573524475 124.52944740283925 -59.473415636018814
v 3.1762510538101196 105.77467793220501 -66.2193470668684
v -0.1228228211402893 106.56064821360602 -68.71421285081831
v 1.254183053970337 125.54133121099073 -61.95525188142682
v -0.1228228211402893 106.56064821360602 -68.71421285081831
v -4.359382390975952 105.69833588050119 -68.81371074385336
v -2.4685800075531006 125.51733435157647 -62.135877793044585
v -5.811223387718201 124.20181263649711 -59.19684407041804
v -6.928655505180359 122.52016358063433 -55.33580391950466
v -5.793914943933487 145.3319945112433 -49.89256842398735
v -4.089696705341339 146.25444726990742 -53.85037659200479
v -5.811223387718201 124.20181263649711 -59.19684407041804
v -4.089696705341339 146.25444726990742 -53.85037659200479
v -0.6952494382858276 146.58053188363803 -56.777608433766055
v -2.4685800075531006 125.51733435157647 -62.135877793044585
v -5.811223387718201 124.20181263649711 -59.19684407041804
v -2.4685800075531006 125.51733435157647 -62.135877793044585
v -4.359382390975952 105.69833588050119 -68.81371074385336
v -7.4927181005477905 103.28254820654104 -65.74647917198783
v -5.811223387718201 124.20181263649711 -59.19684407041804
v -7.4927181005477905 103.28254820654104 -65.74647917198783
v -7.878588140010834 100.85752196114258 -61.767749528853926
v -6.928655505180359 122.52016358063433 -55.33580391950466
v -0.10300576686859131 116.91566821802246 -139.21422478986597
v -0.052103400230407715 96.80582529093459 -131.35348943500426
v -4.353514313697815 96.45632157415406 -131.11540458497205
v -4.769545793533325 116.33404606706144 -139.38143956556058
v -0.10300576686859131 116.91566821802246 -139.21422478986597
v -4.769545793533325 116.33404606706144 -139.38143956556058
v -5.035051703453064 138.48135556146445 -141.13516679518372
v 0.23888945579528809 139.15085887161604 -140.53256394558042
v -0.10300576686859131 116.91566821802246 -139.21422478986597
v 0.23888945579528809 139.15085887161604 -140.53256394558042
v 4.5962899923324585 138.62923537937547 -136.87405460614153
v 3.629326820373535 116.50400330329677 -135.99253406804252
v -0.10300576686859131 116.91566821802246 -139.21422478986597
v 3.629326820373535 116.50400330329677 -135.99253406804252
v 3.231474757194519 96.90415553192511 -128.53920846423833
v -0.052103400230407715 96.80582529093459 -131.35348943500426
v 2.8358876705169678 91.95625281860013 -67.28425332004731
v 1.8783003091812134 95.21220945256803 -71.77151800685165
v 3.1762510538101196 105.77467793220501 -66.2193470668684
v 3.497132658958435 103.24559392078298 -62.10051668923677
v 2.8358876705169678 91.95625281860013 -67.28425332004731
v 3.497132658958435 103.24559392078298 -62.10051668923677
v 1.0705530643463135 100.72574848080119 -58.89317246194455
v 1.0617628693580627 88.45045721128491 -63.68273745575928
v 2.8358876705169678 91.95625281860013 -67.28425332004731
v 1.0617628693580627 88.45045721128491 -63.68273745575928
v 0.9106367826461792 80.22310827122892 -67.44173880090099
v 2.083781361579895 84.77151418086132 -71.6850299662774
v 2.8358876705169678 91.95625281860013 -67.28425332004731
v 2.083781361579895 84.77151418086132 -71.6850299662774
v 0.5882024765014648 88.85817468304555 -76.82017939573565
v 1.8783003091812134 95.21220945256803 -71.77151800685165
v -3.661227226257324 86.97741781357003 -63.73833642841719
v 1.0617628693580627 88.45045721128491 -63.68273745575928
v 1.0705530643463135 100.72574848080119 -58.89317246194455
v -3.8727596402168274 99.96749987418248 -59.13278301040725
v -3.661227226257324 86.97741781357003 -63.73833642841719
v -3.8727596402168274 99.96749987418248 -59.13278301040725
v -7.878588140010834 100.85752196114258 -61.767749528853926
v -7.867372035980225 87.7439390636304 -66.45263670893907
v -3.661227226257324 86.97741781357003 -63.73833642841719
v -7.867372035980225 87.7439390636304 -66.45263670893907
v -7.842981815338135 78.79821706882878 -70.17799707553172
v -3.5370081663131714 78.06487179774113 -67.25690444583114
v -3.661227226257324 86.97741781357003 -63.73833642841719
v -3.5370081663131714 78.06487179774113 -67.25690444583114
v 0.9106367826461792 80.22310827122892 -67.44173880090099
v 1.0617628693580627 88.45045721128491 -63.68273745575928
v -1.5938431024551392 95.93570212792726 -74.37311185755749
v -5.582839250564575 94.41962819504384 -74.31602228179183
v -4.359382390975952 105.69833588050119 -68.81371074385336
v -0.1228228211402893 106.56064821360602 -68.71421285081831
v -1.5938431024551392 95.93570212792726 -74.37311185755749
v -0.1228228211402893 106.56064821360602 -68.71421285081831
v 3.1762510538101196 105.77467793220501 -66.2193470668684
v 1.8783003091812134 95.21220945256803 -71.77151800685165
v -1.5938431024551392 95.93570212792726 -74.37311185755749
v 1.8783003091812134 95.21220945256803 -71.77151800685165
v 0.5882024765014648 88.85817468304555 -76.82017939573565
v -2.9703140258789062 89.63118685512073 -79.68057066165953
v -1.5938431024551392 95.93570212792726 -74.37311185755749
v -2.9703140258789062 89.63118685512073 -79.68057066165953
v -6.670500338077545 87.51262920354846 -79.4350409032794
v -5.582839250564575 94.41962819504384 -74.31602228179183
v -8.09096246957779 90.95686116243171 -70.82720092639087
v -7.867372035980225 87.7439390636304 -66.45263670893907
v -7.878588140010834 100.85752196114258 -61.767749528853926
v -7.4927181005477905 103.28254820654104 -65.74647917198783
v -8.09096246957779 90.95686116243171 -70.82720092639087
v -7.4927181005477905 103.28254820654104 -65.74647917198783
v -4.359382390975952 105.69833588050119 -68.81371074385336
v -5.582839250564575 94.41962819504384 -74.31602228179183
v -8.09096246957779 90.95686116243171 -70.82720092639087
v -5.582839250564575 94.41962819504384 -74.31602228179183
v -6.670500338077545 87.51262920354846 -79.4350409032794
v -8.591099083423615 82.92454447200151 -75.2524391807488
v -8.09096246957779 90.95686116243171 -70.82720092639087
v -8.591099083423615 82.92454447200151 -75.2524391807488
v -7.842981815338135 78.79821706882878 -70.17799707553172
v -7.867372035980225 87.7439390636304 -66.45263670893907
v 10.037359595298767 23.005126297331227 -9.878848515819953
v 4.724608361721039 25.431399899488277 -3.9160360105667222
v 5.386959761381149 6.967253914772521 8.727361616851253
v 11.132881790399551 6.370248109091172 1.2804084323554308
v 10.037359595298767 23.005126297331227 -9.878848515819953
v 11.132881790399551 6.370248109091172 1.2804084323554308
v 11.105415970087051 5.6373434162880605 -7.9897256439248725
v 10.078365355730057 20.011678502042365 -17.28596566313728
v 10.037359595298767 23.005126297331227 -9.878848515819953
v 10.078365355730057 20.011678502042365 -17.28596566313728
v 9.397155791521072 34.967279902244975 -33.71226165163628
v 9.266626834869385 40.05879607512433 -27.639180987771702
v 10.037359595298767 23.005126297331227 -9.878848515819953
v 9.266626834869385 40.05879607512433 -27.639180987771702
v 4.188290983438492 44.18248759962678 -22.728021190551015
v 4.724608361721039 25.431399899488277 -3.9160360105667222
v -4.040805250406265 25.463702650404432 -3.8320679725021747
v -11.038883030414581 23.69954154153593 -8.215795593218427
v -11.926378309726715 6.551524037219061 3.256661495110857
v -4.22164723277092 6.979701608025879 8.77800023090832
v -4.040805250406265 25.463702650404432 -3.8320679725021747
v -4.22164723277092 6.979701608025879 8.77800023090832
v 5.386959761381149 6.967253914772521 8.727361616851253
v 4.724608361721039 25.431399899488277 -3.9160360105667222
v -4.040805250406265 25.463702650404432 -3.8320679725021747
v 4.724608361721039 25.431399899488277 -3.9160360105667222
v 4.188290983438492 44.18248759962678 -22.728021190551015
v -4.02599573135376 44.221090569817875 -22.59297197294039
v -4.040805250406265 25.463702650404432 -3.8320679725021747
v -4.02599573135376 44.221090569817875 -22.59297197294039
v -10.541778057813644 41.21072164428506 -26.142949619505437
v -11.038883030414581 23.69954154153593 -8.215795593218427
v -11.049626767635345 20.73643250503512 -15.656073789599352
v -5.7886239141225815 18.340493191318252 -21.652044363683217
v -6.2215641140937805 5.2376769908786525 -13.458111245419904
v -11.96066439151764 5.826651443017097 -6.012314762253279
v -11.049626767635345 20.73643250503512 -15.656073789599352
v -11.96066439151764 5.826651443017097 -6.012314762253279
v -11.926378309726715 6.551524037219061 3.256661495110857
v -11.038883030414581 23.69954154153593 -8.215795593218427
v -11.049626767635345 20.73643250503512 -15.656073789599352
v -11.038883030414581 23.69954154153593 -8.215795593218427
v -10.541778057813644 41.21072164428506 -26.142949619505437
v -10.524601489305496 36.1874974816158 -32.28687041481175
v -11.049626767635345 20.73643250503512 -15.656073789599352
v -10.524601489305496 36.1874974816158 -32.28687041481175
v -5.559617653489113 32.132097967323425 -37.26887034347417
v -5.7886239141225815 18.340493191318252 -21.652044363683217
v 3.028537705540657 18.27785466184604 -21.70285284280077
v 10.078365355730057 20.011678502042365 -17.28596566313728
v 11.105415970087051 5.6373434162880605 -7.9897256439248725
v 3.393865004181862 5.217197199024148 -13.509907678393137
v 3.028537705540657 18.27785466184604 -21.70285284280077
v 3.393865004181862 5.217197199024148 -13.509907678393137
v -6.2215641140937805 5.2376769908786525 -13.458111245419904
v -5.7886239141225815 18.340493191318252 -21.652044363683217
v 3.028537705540657 18.27785466184604 -21.70285284280077
v -5.7886239141225815 18.340493191318252 -21.652044363683217
v -5.559617653489113 32.132097967323425 -37.26887034347417
v 2.7680203318595886 32.025205967154974 -37.33307644941131
v 3.028537705540657 18.27785466184604 -21.70285284280077
v 2.7680203318595886 32.025205967154974 -37.33307644941131
v 9.397155791521072 34.967279902244975 -33.71226165163628
v 10.078365355730057 20.011678502042365 -17.28596566313728
f 1 2 3
f 1 3 4
f 5 6 7
f 5 7 8
f 9 10 11
f 9 11 12
f 13 14 15
f 13 15 16
f 17 18 19
f 17 19 20
f 21 22 23
f 21 23 24
f 25 26 27
f 25 27 28
f 29 30 31
f 29 31 32
f 33 34 35
f 33 35 36
f 37 38 39
f 37 39 40
f 41 42 43
f 41 43 44
f 45 46 47
f 45 47 48
f 49 50 51
f 49 51 52
f 53 54 55
f 53 55 56
f 57 58 59
f 57 59 60
f 61 62 63
f 61 63 64
f 65 66 67
f 65 67 68
f 69 70 71
f 69 71 72
f 73 74 75
f 73 75 76
f 77 78 79
f 77 79 80
f 81 82 83
f 81 83 84
f 85 86 87
f 85 87 88
f 89 90 91
f 89 91 92
f 93 94 95
f 93 95 96
f 97 98 99
f 97 99 100
f 101 102 103
f 101 103 104
f 105 106 107
f 105 107 108
f 109 110 111
f 109 111 112
f 113 114 115
f 113 115 116
f 117 118 119
f 117 119 120
f 121 122 123
f 121 123 124
f 125 126 127
f 125 127 128
f 129 130 131
f 129 131 132
f 133 134 135
f 133 135 136
f 137 138 139
f 137 139 140
f 141 142 143
f 141 143 144
f 145 146 147
f 145 147 148
f 149 150 151
f 149 151 152
f 153 154 155
f 153 155 156
f 157 158 159
f 157 159 160
f 161 162 163
f 161 163 164
f 165 166 167
f 165 167 168
f 169 170 171
f 169 171 172
f 173 174 175
f 173 175 176
f 177 178 179
f 177 179 180
f 181 182 183
f 181 183 184
f 185 186 187
f 185 187 188
f 189 190 191
f 189 191 192
f 193 194 195
f 193 195 196
f 197 198 199
f 197 199 200
f 201 202 203
f 201 203 204
f 205 206 207
f 205 207 208
f 209 210 211
f 209 211 212
f 213 214 215
f 213 215 216
f 217 218 219
f 217 219 220
f 221 222 223
f 221 223 224
f 225 226 227
f 225 227 228
f 229 230 231
f 229 231 232
f 233 234 235
f 233 235 236
f 237 238 239
f 237 239 240
f 241 242 243
f 241 243 244
f 245 246 247
f 245 247 248
f 249 250 251
f 249 251 252
f 253 254 255
f 253 255 256
f 257 258 259
f 257 259 260
f 261 262 263
f 261 263 264
f 265 266 267
f 265 267 268
f 269 270 271
f 269 271 272
f 273 274 275
f 273 275 276
f 277 278 279
f 277 279 280
f 281 282 283
f 281 283 284
f 285 286 287
f 285 287 288
f 289 290 291
f 289 291 292
f 293 294 295
f 293 295 296
f 297 298 299
f 297 299 300
f 301 302 303
f 301 303 304
f 305 306 307
f 305 307 308
f 309 310 311
f 309 311 312
f 313 314 315
f 313 315 316
f 317 318 319
f 317 319 320
f 321 322 323
f 321 323 324
f 325 326 327
f 325 327 328
f 329 330 331
f 329 331 332
f 333 334 335
f 333 335 336
f 337 338 339
f 337 339 340
f 341 342 343
f 341 343 344
f 345 346 347
f 345 347 348
f 349 350 351
f 349 351 352
f 353 354 355
f 353 355 356
f 357 358 359
f 357 359 360
f 361 362 363
f 361 363 364
f 365 366 367
f 365 367 368
f 369 370 371
f 369 371 372
f 373 374 375
f 373 375 376
f 377 378 379
f 377 379 380
f 381 382 383
f 381 383 384
f 385 386 387
f 385 387 388
f 389 390 391
f 389 391 392
f 393 394 395
f 393 395 396
f 397 398 399
f 397 399 400
f 401 402 403
f 401 403 404
f 405 406 407
f 405 407 408
f 409 410 411
f 409 411 412
f 413 414 415
f 413 415 416
f 417 418 419
f 417 419 420
f 421 422 423
f 421 423 424
f 425 426 427
f 425 427 428
f 429 430 431
f 429 431 432
f 433 434 435
f 433 435 436
f 437 438 439
f 437 439 440
f 441 442 443
f 441 443 444
f 445 446 447
f 445 447 448
f 449 450 451
f 449 451 452
f 453 454 455
f 453 455 456
f 457 458 459
f 457 459 460
f 461 462 463
f 461 463 464
f 465 466 467
f 465 467 468
f 469 470 471
f 469 471 472
f 473 474 475
f 473 475 476
f 477 478 479
f 477 479 480
f 481 482 483
f 481 483 484
f 485 486 487
f 485 487 488
f 489 490 491
f 489 491 492
f 493 494 495
f 493 495 496
f 497 498 499
f 497 499 500
f 501 502 503
f 501 503 504
f 505 506 507
f 505 507 508
f 509 510 511
f 509 511 512
f 513 514 515
f 513 515 516
f 517 518 519
f 517 519 520
f 521 522 523
f 521 523 524
f 525 526 527
f 525 527 528
f 529 530 531
f 529 531 532
f 533 534 535
f 533 535 536
f 537 538 539
f 537 539 540
f 541 542 543
f 541 543 544
f 545 546 547
f 545 547 548
f 549 550 551
f 549 551 552
f 553 554 555
f 553 555 556
f 557 558 559
f 557 559 560
f 561 562 563
f 561 563 564
f 565 566 567
f 565 567 568
f 569 570 571
f 569 571 572
f 573 574 575
f 573 575 576
f 577 578 579
f 577 579 580
f 581 582 583
f 581 583 584
f 585 586 587
f 585 587 588
f 589 590 591
f 589 591 592
f 593 594 595
f 593 595 596
f 597 598 599
f 597 599 600
f 601 602 603
f 601 603 604
f 605 606 607
f 605 607 608
f 609 610 611
f 609 611 612
f 613 614 615
f 613 615 616
f 617 618 619
f 617 619 620
f 621 622 623
f 621 623 624
f 625 626 627
f 625 627 628
f 629 630 631
f 629 631 632
f 633 634 635
f 633 635 636
f 637 638 639
f 637 639 640
f 641 642 643
f 641 643 644
f 645 646 647
f 645 647 648
f 649 650 651
f 649 651 652
f 653 654 655
f 653 655 656
f 657 658 659
f 657 659 660
f 661 662 663
f 661 663 664
f 665 666 667
f 665 667 668
f 669 670 671
f 669 671 672
f 673 674 675
f 673 675 676
f 677 678 679
f 677 679 680
f 681 682 683
f 681 683 684
f 685 686 687
f 685 687 688
f 689 690 691
f 689 691 692
f 693 694 695
f 693 695 696
f 697 698 699
f 697 699 700
f 701 702 703
f 701 703 704
f 705 706 707
f 705 707 708
f 709 710 711
f 709 711 712
f 713 714 715
f 713 715 716
f 717 718 719
f 717 719 720
f 721 722 723
f 721 723 724
f 725 726 727
f 725 727 728
f 729 730 731
f 729 731 732
f 733 734 735
f 733 735 736
f 737 738 739
f 737 739 740
f 741 742 743
f 741 743 744
f 745 746 747
f 745 747 748
f 749 750 751
f 749 751 752
v -4.123398661613464 95.80114926916028 -119.14407383553043
v -7.566505670547485 95.68078318005219 -122.02552923736813
v -7.230667024850845 97.569350793181 -119.54650084327255
v -4.115663841366768 97.67824890389846 -116.93963211711775
v 0.11854469776153564 82.728718263676 -82.05562985700524
v 0.9796202182769775 78.75792099560198 -90.63800664385734
v 0.5010731518268585 82.25911562768874 -91.14999323150153
v -0.2779480069875717 85.8515245960919 -83.38545767442979
v 0.5882024765014648 88.85817468304555 -76.82017939573565
v 0.11854469776153564 82.728718263676 -82.05562985700524
v -0.2779480069875717 85.8515245960919 -83.38545767442979
v 0.14695487916469574 91.39688521770343 -78.6489099156979
v 4.188290983438492 44.18248759962678 -22.728021190551015
v 3.651970624923706 54.08814978745166 -46.819960942396975
v 2.648424543440342 61.01159227734139 -50.435862944506894
v 3.443024307489395 47.91600892627704 -25.01904553005059
v -7.566505670547485 95.68078318005219 -122.02552923736813
v -8.12276005744934 83.76923806241933 -109.34231453962019
v -7.733914256095886 86.7928924918824 -108.07191355442227
v -7.230667024850845 97.569350793181 -119.54650084327255
v 3.651970624923706 54.08814978745166 -46.819960942396975
v 3.3006787300109863 62.14952531813447 -69.30683671693635
v 2.639995515346527 64.17090990722116 -67.15922805082401
v 2.648424543440342 61.01159227734139 -50.435862944506894
v -8.12276005744934 83.76923806241933 -109.34231453962019
v -9.501364827156067 76.28683702059456 -94.15121129268887
v -8.981147408485413 80.02351177733829 -94.3284165103877
v -7.733914256095886 86.7928924918824 -108.07191355442227
v -10.044673830270767 50.91532249772131 -50.028654287439245
v -10.541778057813644 41.21072164428506 -26.142949619505437
v -9.883372485637665 45.22742767151268 -28.108556486525924
v -9.74302664399147 58.14110959805028 -53.33878749134183
v -6.670500338077545 87.51262920354846 -79.4350409032794
v -2.9703140258789062 89.63118685512073 -79.68057066165953
v -3.0724599957466125 92.09623801417378 -81.2367231685988
v -6.4200446009635925 90.17956129064326 -81.01459422664807
v -9.501364827156067 76.28683702059456 -94.15121129268887
v -8.153919875621796 80.80869124924884 -84.9630010651893
v -7.762104272842407 84.11446600486866 -86.0157805630427
v -8.981147408485413 80.02351177733829 -94.3284165103877
v -10.335111618041992 59.02354721013853 -72.93941148116376
v -10.044673830270767 50.91532249772131 -50.028654287439245
v -9.74302664399147 58.14110959805028 -53.33878749134183
v -9.696400165557861 61.3428179888158 -70.44564292858568
v -10.541778057813644 41.21072164428506 -26.142949619505437
v -4.02599573135376 44.221090569817875 -22.59297197294039
v -3.9884984493255615 47.95093130755668 -24.89686495464733
v -9.883372485637665 45.22742767151268 -28.108556486525924
v -4.284488037228584 61.01773158398555 -50.26257436175162
v -9.74302664399147 58.14110959805028 -53.33878749134183
v -9.883372485637665 45.22742767151268 -28.108556486525924
v -3.9884984493255615 47.95093130755668 -24.89686495464733
v -4.284488037228584 61.01773158398555 -50.26257436175162
v -3.9884984493255615 47.95093130755668 -24.89686495464733
v 3.443024307489395 47.91600892627704 -25.01904553005059
v 2.648424543440342 61.01159227734139 -50.435862944506894
v -4.284488037228584 61.01773158398555 -50.26257436175162
v 2.648424543440342 61.01159227734139 -50.435862944506894
v 2.639995515346527 64.17090990722116 -67.15922805082401
v -3.8970932364463806 62.682236722059685 -64.07908030348177
v -4.284488037228584 61.01773158398555 -50.26257436175162
v -3.8970932364463806 62.682236722059685 -64.07908030348177
v -9.696400165557861 61.3428179888158 -70.44564292858568
v -9.74302664399147 58.14110959805028 -53.33878749134183
v -4.4897884130477905 88.03879092929418 -105.43833021172
v -4.599199071526527 84.3391086777594 -93.82819119267467
v 0.5010731518268585 82.25911562768874 -91.14999323150153
v -0.14052614569664001 87.97518679236256 -105.5641079227626
v -4.4897884130477905 88.03879092929418 -105.43833021172
v -0.14052614569664001 87.97518679236256 -105.5641079227626
v -0.07983371615409851 98.01438331245879 -117.09422277857045
v -4.115663841366768 97.67824890389846 -116.93963211711775
v -4.4897884130477905 88.03879092929418 -105.43833021172
v -4.115663841366768 97.67824890389846 -116.93963211711775
v -7.230667024850845 97.569350793181 -119.54650084327255
v -7.733914256095886 86.7928924918824 -108.07191355442227
v -4.4897884130477905 88.03879092929418 -105.43833021172
v -7.733914256095886 86.7928924918824 -108.07191355442227
v -8.981147408485413 80.02351177733829 -94.3284165103877
v -4.599199071526527 84.3391086777594 -93.82819119267467
v -4.061612486839294 86.6504349615788 -86.39772157946071
v -7.762104272842407 84.11446600486866 -86.0157805630427
v -6.4200446009635925 90.17956129064326 -81.01459422664807
v -3.0724599957466125 92.09623801417378 -81.2367231685988
v -4.061612486839294 86.6504349615788 -86.39772157946071
v -3.0724599957466125 92.09623801417378 -81.2367231685988
v 0.14695487916469574 91.39688521770343 -78.6489099156979
v -0.2779480069875717 85.8515245960919 -83.38545767442979
v -4.061612486839294 86.6504349615788 -86.39772157946071
v -0.2779480069875717 85.8515245960919 -83.38545767442979
v 0.5010731518268585 82.25911562768874 -91.14999323150153
v -4.599199071526527 84.3391086777594 -93.82819119267467
v -4.061612486839294 86.6504349615788 -86.39772157946071
v -4.599199071526527 84.3391086777594 -93.82819119267467
v -8.981147408485413 80.02351177733829 -94.3284165103877
v -7.762104272842407 84.11446600486866 -86.0157805630427
v -3.924962878227234 60.504044286354905 -65.90225490206993
v -10.335111618041992 59.02354721013853 -72.93941148116376
v -9.696400165557861 61.3428179888158 -70.44564292858568
v -3.8970932364463806 62.682236722059685 -64.07908030348177
v 0.2704411745071411 85.07606439026323 -106.57036498446274
v 0.33752620220184326 96.17268883406419 -119.314948491704
v -0.07983371615409851 98.01438331245879 -117.09422277857045
v -0.14052614569664001 87.97518679236256 -105.5641079227626
v -4.02599573135376 44.221090569817875 -22.59297197294039
v 4.188290983438492 44.18248759962678 -22.728021190551015
v 3.443024307489395 47.91600892627704 -25.01904553005059
v -3.9884984493255615 47.95093130755668 -24.89686495464733
v 0.33752620220184326 96.17268883406419 -119.314948491704
v -4.123398661613464 95.80114926916028 -119.14407383553043
v -4.115663841366768 97.67824890389846 -116.93963211711775
v -0.07983371615409851 98.01438331245879 -117.09422277857045
v -8.153919875621796 80.80869124924884 -84.9630010651893
v -6.670500338077545 87.51262920354846 -79.4350409032794
v -6.4200446009635925 90.17956129064326 -81.01459422664807
v -7.762104272842407 84.11446600486866 -86.0157805630427
v 0.9796202182769775 78.75792099560198 -90.63800664385734
v 0.2704411745071411 85.07606439026323 -106.57036498446274
v -0.14052614569664001 87.97518679236256 -105.5641079227626
v 0.5010731518268585 82.25911562768874 -91.14999323150153
v 3.3006787300109863 62.14952531813447 -69.30683671693635
v -3.924962878227234 60.504044286354905 -65.90225490206993
v -3.8970932364463806 62.682236722059685 -64.07908030348177
v 2.639995515346527 64.17090990722116 -67.15922805082401
v -2.9703140258789062 89.63118685512073 -79.68057066165953
v 0.5882024765014648 88.85817468304555 -76.82017939573565
v 0.14695487916469574 91.39688521770343 -78.6489099156979
v -3.0724599957466125 92.09623801417378 -81.2367231685988
f 753 754 755
f 753 755 756
f 757 758 759
f 757 759 760
f 761 762 763
f 761 763 764
f 765 766 767
f 765 767 768
f 769 770 771
f 769 771 772
f 773 774 775
f 773 775 776
f 777 778 779
f 777 779 780
f 781 782 783
f 781 783 784
f 785 786 787
f 785 787 788
f 789 790 791
f 789 791 792
f 793 794 795
f 793 795 796
f 797 798 799
f 797 799 800
f 801 802 803
f 801 803 804
f 805 806 807
f 805 807 808
f 809 810 811
f 809 811 812
f 813 814 815
f 813 815 816
f 817 818 819
f 817 819 820
f 821 822 823
f 821 823 824
f 825 826 827
f 825 827 828
f 829 830 831
f 829 831 832
f 833 834 835
f 833 835 836
f 837 838 839
f 837 839 840
f 841 842 843
f 841 843 844
f 845 846 847
f 845 847 848
f 849 850 851
f 849 851 852
f 853 854 855
f 853 855 856
f 857 858 859
f 857 859 860
f 861 862 863
f 861 863 864
f 865 866 867
f 865 867 868
f 869 870 871
f 869 871 872
f 873 874 875
f 873 875 876
f 877 878 879
f 877 879 880
