o convex_0
v 7.045110 226.738390 -187.153339
v 8.742673 208.013889 -159.928528
v 3.640655 208.013889 -159.928528
v 7.045110 265.866301 -183.749884
v 13.849355 206.311661 -182.045325
v 1.938428 206.311661 -180.343597
v 1.938428 252.242652 -183.749884
v 13.849355 223.328105 -176.940142
v 8.742673 257.349334 -188.855067
v 10.444901 255.652937 -182.045325
v 1.938428 206.311661 -168.439998
v 3.640655 206.311661 -183.749884
v 5.342882 259.051562 -188.855067
v 13.849355 206.311661 -171.843453
v 3.640655 260.753789 -182.045325
v 13.849355 211.418344 -183.749884
v 1.938428 243.743175 -176.940142
v 10.444901 257.349334 -185.451611
v 3.640655 238.636493 -187.153339
v 7.045110 259.051562 -180.343597
v 10.444901 213.126400 -185.451611
v 10.444901 209.721946 -163.331983
v 3.640655 262.461846 -187.153339
v 8.742673 206.311661 -159.928528
v 1.938428 223.328105 -183.749884
v 12.147128 238.636493 -185.451611
v 7.045110 265.866301 -187.153339
v 8.742673 248.849857 -188.855067
v 8.742673 257.349334 -180.343597
v 3.640655 253.950709 -178.641869
v 12.147128 235.249526 -176.940142
v 12.147128 206.311661 -183.749884
f 21 16 32 
f 6 5 11 
f 7 6 11 
f 5 6 12 
f 5 8 14 
f 11 5 14 
f 8 5 16 
f 11 3 17 
f 7 11 17 
f 15 7 17 
f 4 10 18 
f 10 8 18 
f 1 12 19 
f 13 1 19 
f 3 2 20 
f 12 1 21 
f 10 2 22 
f 14 8 22 
f 15 4 23 
f 7 15 23 
f 13 19 23 
f 2 3 24 
f 3 11 24 
f 11 14 24 
f 22 2 24 
f 14 22 24 
f 6 7 25 
f 12 6 25 
f 19 12 25 
f 7 23 25 
f 23 19 25 
f 8 16 26 
f 9 18 26 
f 18 8 26 
f 9 13 27 
f 4 18 27 
f 18 9 27 
f 23 4 27 
f 13 23 27 
f 1 13 28 
f 13 9 28 
f 21 1 28 
f 16 21 28 
f 26 16 28 
f 9 26 28 
f 10 4 29 
f 2 10 29 
f 20 2 29 
f 4 20 29 
f 4 15 30 
f 17 3 30 
f 15 17 30 
f 3 20 30 
f 20 4 30 
f 8 10 31 
f 10 22 31 
f 22 8 31 
f 5 12 32 
f 16 5 32 
f 12 21 32 
o convex_1
v -1.464695 53.187316 -51.028949
v -6.568046 112.713809 -47.625494
v -9.971168 112.713809 -47.625494
v -13.374290 143.353900 -105.478572
v 8.742007 143.353900 -93.563647
v 12.147794 68.493872 -47.625494
v 1.935763 129.729087 -105.478572
v -13.374290 65.094413 -47.625494
v -8.265609 85.509150 -74.853137
v -13.374290 143.353900 -91.864750
v 3.638656 102.506441 -47.625494
v -15.077184 102.506441 -47.625494
v 12.147794 61.694955 -49.330053
v 8.742007 143.353900 -88.461295
v 7.041778 141.636184 -105.478572
v -15.077184 119.521719 -86.756736
v 5.338885 51.478594 -49.330053
v -9.971168 131.428816 -105.478572
v -1.464695 143.353900 -85.057840
v -8.265609 51.478594 -49.330053
v 0.235534 122.921177 -102.075117
v 10.444901 80.409962 -47.625494
v -15.077184 82.109691 -51.028949
v 0.235534 109.314351 -47.625494
v 5.338885 51.478594 -47.625494
v -15.077184 129.729087 -86.756736
v 3.638656 73.602052 -66.347330
v -13.374290 109.314351 -47.625494
v -15.077184 100.806712 -73.154241
v -4.865152 128.029358 -105.478572
v -9.971168 54.887045 -49.330053
v -4.865152 87.208879 -76.552033
f 62 53 64 
f 34 35 38 
f 38 35 40 
f 37 36 42 
f 34 38 43 
f 40 35 44 
f 37 38 45 
f 38 37 46 
f 37 42 46 
f 36 37 47 
f 39 36 47 
f 37 45 47 
f 45 39 47 
f 36 39 50 
f 48 36 50 
f 35 34 51 
f 42 35 51 
f 34 46 51 
f 46 42 51 
f 33 49 52 
f 43 38 54 
f 38 46 54 
f 46 43 54 
f 40 44 55 
f 44 48 55 
f 34 43 56 
f 46 34 56 
f 43 46 56 
f 38 40 57 
f 45 38 57 
f 49 45 57 
f 40 52 57 
f 52 49 57 
f 42 36 58 
f 44 42 58 
f 36 48 58 
f 48 44 58 
f 39 45 59 
f 49 33 59 
f 45 49 59 
f 53 39 59 
f 35 42 60 
f 44 35 60 
f 42 44 60 
f 48 50 61 
f 40 55 61 
f 55 48 61 
f 50 39 62 
f 41 50 62 
f 39 53 62 
f 50 41 63 
f 41 52 63 
f 52 40 63 
f 61 50 63 
f 40 61 63 
f 33 52 64 
f 52 41 64 
f 59 33 64 
f 53 59 64 
f 41 62 64 
o convex_2
v -21.883428 -6.380647 -8.487423
v 20.655600 -6.380647 10.225419
v 15.550583 -6.380647 17.029332
v 15.550583 7.229010 -13.588275
v -8.263111 7.229010 13.623211
v 8.742507 -8.085040 -20.400516
v -9.970335 7.229010 -20.400516
v -11.673395 -8.085040 20.435452
v 8.742507 7.229010 13.623211
v -16.778412 7.229010 6.819299
v -13.372291 -8.085040 -20.400516
v 20.655600 -8.085040 -11.885215
v -21.883428 -8.085040 11.928479
v 10.445567 -8.085040 22.138512
v -16.778412 7.229010 -13.588275
v 17.249480 5.524618 3.417342
v 5.340550 7.229010 -20.400516
v -8.263111 -2.979357 20.435452
v -18.477308 3.824722 8.518195
v 20.655600 -4.680752 -10.190483
v 10.445567 -2.979357 20.435452
v 20.655600 -8.085040 10.225419
v 12.144463 7.229010 10.225419
v -21.883428 -8.085040 -8.487423
v -21.883428 -6.380647 11.928479
v -8.263111 -6.380647 22.138512
v 8.742507 5.524618 15.326272
v -18.477308 -6.380647 15.326272
v 15.550583 7.229010 5.116239
v -6.568379 0.421933 18.732392
v 8.742507 7.229010 -18.697456
v 13.847523 -6.380647 -16.994396
f 70 95 96 
f 69 68 71 
f 68 69 73 
f 69 71 74 
f 71 70 75 
f 70 72 75 
f 72 70 76 
f 75 72 77 
f 72 76 78 
f 74 71 79 
f 71 75 79 
f 75 65 79 
f 71 68 81 
f 70 71 81 
f 69 74 83 
f 79 65 83 
f 74 79 83 
f 82 69 83 
f 66 76 84 
f 76 68 84 
f 80 66 84 
f 68 80 84 
f 78 67 85 
f 66 67 86 
f 76 66 86 
f 67 78 86 
f 78 76 86 
f 67 66 87 
f 68 73 87 
f 85 67 87 
f 65 75 88 
f 77 65 88 
f 75 77 88 
f 65 77 89 
f 83 65 89 
f 72 78 90 
f 78 85 90 
f 73 69 91 
f 87 73 91 
f 85 87 91 
f 77 72 92 
f 82 83 92 
f 89 77 92 
f 83 89 92 
f 72 90 92 
f 90 82 92 
f 66 80 93 
f 80 68 93 
f 87 66 93 
f 68 87 93 
f 69 82 94 
f 90 85 94 
f 82 90 94 
f 91 69 94 
f 85 91 94 
f 81 68 95 
f 70 81 95 
f 68 76 96 
f 76 70 96 
f 95 68 96 
o convex_3
v 5.338718 31.053198 1.715781
v -9.971667 7.229010 -20.389856
v -9.971667 8.933570 -22.092084
v 15.550917 8.933570 -15.306492
v 12.145796 65.082088 -47.625494
v -15.076184 65.082088 -32.305448
v -16.778745 7.229010 5.114406
v -9.971667 63.377529 -6.789526
v -8.269107 48.064812 -47.625494
v 8.743839 7.229010 11.929145
v 12.145796 65.082088 -34.007675
v -16.778745 7.229010 -15.306492
v 5.338718 41.257901 -44.215210
v -13.373624 65.082088 -47.625494
v 15.550917 12.337025 1.715781
v -8.269107 8.933570 11.929145
v 7.041279 7.229010 -20.389856
v 8.743839 65.082088 -27.204595
v 13.848356 44.661356 -39.108528
v -3.164590 49.763708 -1.688673
v 13.848356 54.871722 -28.906822
v -15.076184 48.064812 -39.108528
v -16.778745 10.632466 5.114406
v 8.743839 10.632466 11.929145
v -8.269107 65.082088 -8.497583
v 15.550917 7.229010 3.412179
v 5.338718 48.064812 -47.625494
v -16.778745 19.143936 -17.008720
v 15.550917 20.842832 -17.008720
v 5.338718 10.632466 -23.800140
v -6.566547 10.632466 11.929145
v 12.145796 58.275178 -47.625494
f 109 123 128 
f 103 98 106 
f 101 102 107 
f 99 98 108 
f 98 103 108 
f 105 99 108 
f 99 105 109 
f 102 101 110 
f 101 105 110 
f 103 106 112 
f 106 98 113 
f 109 100 113 
f 107 102 114 
f 100 109 115 
f 97 114 116 
f 101 107 117 
f 107 114 117 
f 114 111 117 
f 115 101 117 
f 105 108 118 
f 102 110 118 
f 110 105 118 
f 104 102 119 
f 108 103 119 
f 103 112 119 
f 112 104 119 
f 112 106 120 
f 114 97 120 
f 111 114 120 
f 97 116 120 
f 102 104 121 
f 114 102 121 
f 104 116 121 
f 116 114 121 
f 100 111 122 
f 106 113 122 
f 113 100 122 
f 120 106 122 
f 111 120 122 
f 105 101 123 
f 109 105 123 
f 102 118 124 
f 118 108 124 
f 119 102 124 
f 108 119 124 
f 111 100 125 
f 100 115 125 
f 117 111 125 
f 115 117 125 
f 98 99 126 
f 99 109 126 
f 113 98 126 
f 109 113 126 
f 104 112 127 
f 116 104 127 
f 112 120 127 
f 120 116 127 
f 101 115 128 
f 115 109 128 
f 123 101 128 
o convex_4
v 12.147794 70.193267 -45.917271
v -9.971168 68.494704 -8.497249
v -13.374290 97.406420 -15.299497
v -13.374290 65.082088 -47.621663
v -15.077184 117.825320 -44.216709
v -1.464695 107.613289 -27.207260
v 12.147794 65.082088 -34.009508
v 0.235534 109.317015 -47.621663
v -15.077184 75.299283 -11.898373
v -15.077184 117.825320 -22.105574
v -8.265609 65.082088 -8.497249
v 12.147794 65.082088 -47.621663
v -15.077184 80.400135 -47.621663
v -6.568046 117.825320 -32.308946
v 3.638656 100.808710 -37.410631
v -15.077184 111.015578 -47.621663
v -15.077184 66.790977 -37.410631
v -11.671396 117.825320 -22.105574
v -11.671396 65.082088 -8.497249
v -4.865152 66.790977 -11.898373
v 10.444901 80.400135 -47.621663
v -1.464695 104.210999 -25.506698
v -6.568046 117.825320 -42.516147
v 12.147794 66.790977 -34.009508
v -3.164923 114.417868 -32.308946
v 8.742007 66.790977 -28.907822
v -6.568046 114.417868 -47.621663
v -8.265609 66.790977 -8.497249
v 12.147794 71.896993 -39.115023
v 7.041778 92.300404 -45.917271
v -15.077184 97.406420 -15.299497
v 1.935763 104.210999 -34.009508
f 152 157 160 
f 133 137 138 
f 132 135 139 
f 129 135 140 
f 135 132 140 
f 132 136 140 
f 136 132 141 
f 137 133 141 
f 133 138 142 
f 136 141 144 
f 141 133 144 
f 141 132 145 
f 137 141 145 
f 138 131 146 
f 142 138 146 
f 139 130 147 
f 132 139 147 
f 145 132 147 
f 137 145 147 
f 139 135 148 
f 129 140 149 
f 140 136 149 
f 134 146 150 
f 133 142 151 
f 135 129 152 
f 134 150 152 
f 146 134 153 
f 142 146 153 
f 136 151 153 
f 151 142 153 
f 148 135 154 
f 150 148 154 
f 135 152 154 
f 152 150 154 
f 144 133 155 
f 136 144 155 
f 133 151 155 
f 151 136 155 
f 131 130 156 
f 130 139 156 
f 146 131 156 
f 139 148 156 
f 150 146 156 
f 148 150 156 
f 129 149 157 
f 152 129 157 
f 136 143 158 
f 149 136 158 
f 157 149 158 
f 143 157 158 
f 130 131 159 
f 138 137 159 
f 131 138 159 
f 147 130 159 
f 137 147 159 
f 143 136 160 
f 134 152 160 
f 153 134 160 
f 136 153 160 
f 157 143 160 
o convex_5
v -18.483304 168.871987 56.166237
v -30.389568 129.741411 8.526023
v -23.586655 129.741411 8.526023
v -37.194813 173.982000 22.147173
v -32.091462 172.280106 56.166237
v -18.483304 173.982000 44.250146
v -16.781410 145.062790 39.149460
v -38.894376 136.548988 10.231082
v -20.185198 138.255213 8.526023
v -35.492919 162.064410 8.526023
v -30.389568 143.356565 35.749002
v -15.079515 156.963058 35.749002
v -37.194813 170.578212 34.048774
v -26.988111 167.174423 56.166237
v -16.781410 173.982000 54.461178
v -25.288549 141.659001 35.749002
v -38.894376 148.466578 8.526023
v -20.185198 131.443305 11.931311
v -28.687674 173.982000 57.871296
v -15.079515 148.466578 39.149460
v -33.791025 173.982000 22.147173
v -35.492919 131.443305 10.231082
v -33.791025 160.366846 8.526023
v -25.288549 129.741411 11.931311
v -38.894376 155.256833 20.442114
v -25.288549 148.466578 42.554747
v -35.492919 141.659001 23.842572
v -15.079515 150.164142 34.048774
v -37.194813 162.064410 8.526023
v -21.884760 141.659001 8.526023
v -32.091462 173.982000 56.166237
v -38.894376 139.952776 13.631539
f 168 187 192 
f 163 162 169 
f 169 162 170 
f 169 166 172 
f 167 161 174 
f 165 171 174 
f 166 164 175 
f 172 166 175 
f 162 168 177 
f 170 162 177 
f 163 169 178 
f 174 161 179 
f 165 174 179 
f 161 175 179 
f 175 164 179 
f 161 167 180 
f 175 161 180 
f 172 175 180 
f 167 178 180 
f 164 166 181 
f 170 164 181 
f 168 162 182 
f 176 171 182 
f 169 170 183 
f 181 166 183 
f 170 181 183 
f 162 163 184 
f 167 176 184 
f 163 178 184 
f 178 167 184 
f 182 162 184 
f 176 182 184 
f 173 164 185 
f 165 173 185 
f 177 168 185 
f 164 177 185 
f 167 174 186 
f 174 171 186 
f 176 167 186 
f 171 176 186 
f 171 165 187 
f 168 182 187 
f 182 171 187 
f 169 172 188 
f 178 169 188 
f 172 180 188 
f 180 178 188 
f 164 170 189 
f 177 164 189 
f 170 177 189 
f 166 169 190 
f 183 166 190 
f 169 183 190 
f 164 173 191 
f 173 165 191 
f 179 164 191 
f 165 179 191 
f 165 185 192 
f 185 168 192 
f 187 165 192 
o convex_6
v 7.042445 163.778462 -171.834792
v 7.042445 197.798026 -148.021097
v 5.342216 197.798026 -148.021097
v 12.144963 206.301668 -183.746886
v 1.939927 206.301668 -180.343930
v -3.166256 158.677276 -148.021097
v 12.144963 162.079732 -148.021097
v 15.550917 175.689557 -178.640704
v 15.550917 201.200483 -173.538019
v -1.464195 196.094300 -151.424053
v 3.640155 175.689557 -178.640704
v 8.744506 206.301668 -158.229964
v 10.442902 156.973550 -154.827009
v -3.166256 163.778462 -154.827009
v 15.550917 170.583374 -163.336147
v 13.848856 162.079732 -168.431837
v 1.939927 206.301668 -159.933191
v -1.464195 155.264828 -149.724324
v 1.939927 163.778462 -170.135063
v 7.042445 199.496756 -183.746886
v 12.144963 175.689557 -180.343930
v 0.237866 177.388287 -171.834792
v -1.464195 192.691844 -148.021097
v 8.744506 155.264828 -148.021097
v 5.342216 156.973550 -158.229964
v 13.848856 206.301668 -182.043659
v 12.144963 165.482189 -148.021097
v 8.744506 197.798026 -151.424053
v 1.939927 196.094300 -180.343930
v 13.848856 206.301668 -171.834792
v 12.144963 158.677276 -151.424053
v 15.550917 189.289388 -180.343930
f 218 201 224 
f 194 195 198 
f 194 198 199 
f 195 194 204 
f 196 197 204 
f 202 197 206 
f 198 202 206 
f 200 201 207 
f 200 207 208 
f 202 195 209 
f 197 202 209 
f 195 204 209 
f 204 197 209 
f 198 206 210 
f 203 193 211 
f 210 206 211 
f 197 196 212 
f 203 212 213 
f 193 203 213 
f 208 193 213 
f 200 208 213 
f 212 196 213 
f 203 211 214 
f 211 206 214 
f 198 195 215 
f 195 202 215 
f 202 198 215 
f 199 198 216 
f 198 210 216 
f 216 210 217 
f 193 208 217 
f 208 205 217 
f 211 193 217 
f 210 211 217 
f 205 216 217 
f 196 204 218 
f 194 199 219 
f 199 207 219 
f 207 201 219 
f 204 194 220 
f 194 219 220 
f 219 201 220 
f 206 197 221 
f 197 212 221 
f 212 203 221 
f 203 214 221 
f 214 206 221 
f 201 218 222 
f 218 204 222 
f 204 220 222 
f 220 201 222 
f 207 199 223 
f 205 208 223 
f 208 207 223 
f 199 216 223 
f 216 205 223 
f 201 200 224 
f 213 196 224 
f 200 213 224 
f 196 218 224 
o convex_7
v -6.567712 145.057793 -122.498014
v -11.671896 173.972340 -120.795287
v 5.339551 180.787912 -131.006319
v -3.164923 156.974717 -148.014935
v 8.742340 151.868201 -120.795287
v 7.040946 196.102295 -148.014935
v 10.446233 155.265661 -148.014935
v -3.164923 190.990616 -148.014935
v -15.077184 170.569717 -122.498014
v 8.742340 160.377339 -120.795287
v 1.936762 143.353900 -124.200741
v 10.446233 160.377339 -125.900803
v -8.269107 146.761686 -120.795287
v 3.638157 170.569717 -120.795287
v 1.936762 153.572094 -148.014935
v 10.446233 168.886478 -148.014935
v 7.040946 196.102295 -146.312208
v -4.866318 160.377339 -146.312208
v -13.373291 162.076069 -122.498014
v -13.373291 173.972340 -120.795287
v 1.936762 143.353900 -120.795287
v 8.742340 150.164308 -129.303592
v 1.936762 194.398402 -146.312208
v -3.164923 153.572094 -144.612146
v -1.466027 143.353900 -124.200741
v -8.269107 146.761686 -122.498014
v -15.077184 172.278773 -120.795287
v 8.742340 184.190534 -146.312208
v 5.339551 153.572094 -148.014935
v -3.164923 190.990616 -146.312208
v 8.742340 150.164308 -124.200741
v 7.040946 192.694509 -142.909419
f 241 226 256 
f 228 230 231 
f 230 228 232 
f 226 229 234 
f 234 229 236 
f 229 226 237 
f 227 226 238 
f 234 227 238 
f 226 234 238 
f 228 231 239 
f 231 230 240 
f 236 231 240 
f 232 228 242 
f 233 232 242 
f 242 228 243 
f 233 242 243 
f 237 226 244 
f 226 241 244 
f 237 225 245 
f 229 237 245 
f 235 231 246 
f 245 235 246 
f 230 232 247 
f 241 230 247 
f 244 241 247 
f 228 239 248 
f 239 235 249 
f 245 225 249 
f 235 245 249 
f 225 248 249 
f 248 239 249 
f 225 237 250 
f 243 228 250 
f 237 243 250 
f 248 225 250 
f 228 248 250 
f 232 233 251 
f 243 237 251 
f 233 243 251 
f 237 244 251 
f 240 230 252 
f 236 240 252 
f 241 236 252 
f 230 241 252 
f 231 235 253 
f 239 231 253 
f 235 239 253 
f 247 232 254 
f 244 247 254 
f 232 251 254 
f 251 244 254 
f 231 236 255 
f 236 229 255 
f 229 245 255 
f 246 231 255 
f 245 246 255 
f 226 227 256 
f 227 234 256 
f 234 236 256 
f 236 241 256 
o convex_8
v -3.172252 129.741411 -107.181466
v -21.879597 179.086684 -105.478572
v -16.769251 177.381625 -105.478572
v 3.638323 168.875651 -120.792622
v 13.849355 158.659789 -105.478572
v -16.769251 163.765305 -120.792622
v 7.033950 148.463247 -120.792622
v -33.790858 170.575880 -105.478572
v -8.277768 145.062790 -120.792622
v -9.973166 133.151529 -105.478572
v -33.790858 179.086684 -108.884359
v 1.933264 131.446470 -105.478572
v -15.073852 172.271278 -120.792622
v 10.444068 163.765305 -105.478572
v 0.233036 141.657502 -120.792622
v -33.790858 170.575880 -107.181466
v 13.849355 155.264162 -108.884359
v 8.739009 160.364848 -120.792622
v -9.973166 133.151529 -107.181466
v -23.579826 179.086684 -108.884359
v -35.495917 179.086684 -105.478572
v 1.933264 131.446470 -107.181466
v 13.849355 153.563933 -107.181466
v -32.090630 173.981167 -110.584255
v 13.849355 158.659789 -108.884359
v 8.739009 151.863704 -120.792622
v -11.673395 172.271278 -120.792622
v -8.277768 131.446470 -107.181466
v -1.467193 141.657502 -120.792622
v 13.849355 153.563933 -105.478572
v 0.233036 129.741411 -107.181466
v 3.638323 168.875651 -119.089728
f 270 260 288 
f 258 259 260 
f 259 258 261 
f 262 260 263 
f 261 258 264 
f 262 263 265 
f 261 264 266 
f 266 257 268 
f 261 266 268 
f 260 262 269 
f 259 261 270 
f 265 263 271 
f 266 264 272 
f 263 260 274 
f 272 265 275 
f 266 272 275 
f 258 260 276 
f 267 258 276 
f 269 267 276 
f 264 258 277 
f 258 267 277 
f 272 264 277 
f 267 272 277 
f 273 261 279 
f 268 278 279 
f 278 263 279 
f 262 265 280 
f 269 262 280 
f 267 269 280 
f 265 272 280 
f 272 267 280 
f 260 270 281 
f 270 261 281 
f 261 273 281 
f 274 260 281 
f 273 274 281 
f 263 274 282 
f 274 273 282 
f 273 279 282 
f 279 263 282 
f 260 269 283 
f 276 260 283 
f 269 276 283 
f 257 266 284 
f 275 265 284 
f 266 275 284 
f 265 271 285 
f 257 284 285 
f 284 265 285 
f 261 268 286 
f 279 261 286 
f 268 279 286 
f 268 257 287 
f 271 263 287 
f 278 268 287 
f 263 278 287 
f 285 271 287 
f 257 285 287 
f 260 259 288 
f 259 270 288 
o convex_9
v -23.584156 114.419215 -37.412796
v -21.884261 117.830483 -13.594271
v -16.780077 117.830483 -18.699454
v -15.077184 80.401801 -15.295999
v -30.391234 114.422879 -15.298831
v -15.077184 117.830483 -42.520810
v -30.391234 117.830483 -27.208093
v -16.780077 102.518250 -40.816251
v -16.780077 80.401801 -17.000558
v -15.077184 100.814448 -15.295999
v -30.391234 116.123017 -27.208093
v -28.688340 117.830483 -13.594271
v -15.077184 102.518250 -40.816251
v -15.077184 117.830483 -20.404014
v -16.780077 104.218388 -13.594271
v -18.484470 117.830483 -42.520810
v -16.780077 80.401801 -15.295999
v -28.688340 109.322466 -18.699454
v -26.983947 116.123017 -34.009341
v -16.780077 107.622328 -42.520810
v -20.184365 102.518250 -13.594271
v -30.391234 117.830483 -15.298831
v -28.688340 116.123017 -13.594271
v -15.077184 80.401801 -17.000558
v -28.688340 109.322466 -15.298831
v -26.983947 117.830483 -34.009341
v -18.484470 114.419215 -42.520810
v -15.077184 107.622328 -42.520810
v -18.484470 109.322466 -13.594271
v -16.780077 102.518250 -13.594271
v -30.391234 114.422879 -18.699454
v -26.983947 112.722741 -13.594271
f 309 311 320 
f 290 291 294 
f 290 294 295 
f 292 294 298 
f 293 295 299 
f 296 297 299 
f 290 295 300 
f 294 292 301 
f 297 296 301 
f 294 291 302 
f 298 294 302 
f 298 302 303 
f 292 298 303 
f 290 300 303 
f 295 294 304 
f 297 292 305 
f 299 297 306 
f 289 296 307 
f 299 295 307 
f 296 299 307 
f 296 289 308 
f 301 296 308 
f 304 294 308 
f 303 300 309 
f 305 292 309 
f 295 293 310 
f 293 300 310 
f 300 295 310 
f 300 293 311 
f 309 300 311 
f 292 297 312 
f 301 292 312 
f 297 301 312 
f 297 305 313 
f 293 306 313 
f 306 297 313 
f 311 293 313 
f 305 311 313 
f 295 304 314 
f 307 295 314 
f 304 307 314 
f 289 307 315 
f 307 304 315 
f 308 289 315 
f 304 308 315 
f 294 301 316 
f 308 294 316 
f 301 308 316 
f 291 290 317 
f 302 291 317 
f 303 302 317 
f 290 303 317 
f 292 303 318 
f 309 292 318 
f 303 309 318 
f 293 299 319 
f 306 293 319 
f 299 306 319 
f 305 309 320 
f 311 305 320 
o convex_10
v -11.678392 117.830483 -18.699454
v -52.507198 150.154648 -15.296166
v -50.805637 143.347738 -25.509530
v -37.193148 162.062412 -22.102743
v -9.976831 119.536541 -44.222372
v -35.491587 119.536541 -20.402848
v -16.783075 124.641724 -8.489588
v -50.805637 162.062412 -8.489588
v -45.700954 134.852090 -8.489588
v -47.402515 162.062412 -25.509530
v -21.887758 117.830483 -40.815585
v -37.193148 162.062412 -13.596270
v -8.275270 119.536541 -32.305614
v -30.391234 117.830483 -13.596270
v -47.402515 134.852090 -28.902325
v -43.999392 141.646010 -32.305614
v -40.596270 162.062412 -8.489588
v -50.805637 139.948613 -13.596270
v -38.894709 124.641724 -30.609216
v -52.507198 162.062412 -16.999559
v -18.484636 121.238269 -8.489588
v -42.297831 126.343452 -16.999559
v -40.596270 162.062412 -25.509530
v -35.491587 124.641724 -8.489588
v -13.379953 117.830483 -44.222372
v -8.275270 119.536541 -40.815585
v -32.088465 117.830483 -27.202430
v -13.379953 119.536541 -44.222372
v -50.805637 150.154648 -25.509530
v -52.507198 160.365014 -10.192981
v -49.104076 141.646010 -8.489588
v -8.275270 117.830483 -40.815585
f 346 333 352 
f 327 328 329 
f 328 324 330 
f 324 328 332 
f 327 321 333 
f 332 327 333 
f 331 321 334 
f 331 335 336 
f 335 323 336 
f 328 327 337 
f 327 332 337 
f 332 328 337 
f 322 323 338 
f 323 335 338 
f 335 331 339 
f 323 322 340 
f 328 330 340 
f 321 327 341 
f 327 329 341 
f 334 321 341 
f 326 334 342 
f 329 338 342 
f 338 335 342 
f 339 326 342 
f 335 339 342 
f 324 325 343 
f 330 324 343 
f 325 330 343 
f 341 329 344 
f 334 341 344 
f 342 334 344 
f 329 342 344 
f 321 331 345 
f 331 336 345 
f 325 324 346 
f 324 332 346 
f 332 333 346 
f 334 326 347 
f 331 334 347 
f 326 339 347 
f 339 331 347 
f 330 325 348 
f 336 330 348 
f 325 345 348 
f 345 336 348 
f 336 323 349 
f 330 336 349 
f 323 340 349 
f 340 330 349 
f 322 338 350 
f 340 322 350 
f 328 340 350 
f 329 328 351 
f 338 329 351 
f 328 350 351 
f 350 338 351 
f 333 321 352 
f 321 345 352 
f 345 325 352 
f 325 346 352 
o convex_11
v -20.184698 136.550320 8.526023
v -47.406845 138.254046 -8.489588
v -47.406845 138.254046 -6.787361
v -35.493086 160.365847 8.526023
v -18.483137 124.642557 -8.489588
v -35.493086 131.446469 8.526023
v -35.493086 146.754357 -8.489588
v -30.394065 122.938831 -8.489588
v -23.587821 128.046345 8.526023
v -40.597769 138.254046 8.526023
v -47.406845 145.050631 -8.489588
v -33.791525 158.662121 6.823796
v -37.194647 126.342619 -5.085133
v -40.597769 146.754357 8.526023
v -18.483137 122.938831 -5.085133
v -37.194647 160.365847 6.823796
v -47.406845 145.050631 -5.085133
v -28.692504 128.046345 8.526023
v -23.587821 133.150196 -8.489588
v -21.886260 138.254046 3.421007
v -45.702453 146.754357 -8.489588
v -35.493086 129.746407 6.823796
v -20.184698 131.446469 8.526023
v -30.394065 122.938831 -6.787361
v -37.194647 160.365847 8.526023
v -44.000891 133.150196 -6.787361
v -37.194647 126.342619 -8.489588
v -35.493086 150.154482 -5.085133
v -21.886260 133.150196 -5.085133
v -40.597769 136.550320 6.823796
v -18.483137 126.342619 -6.787361
v -21.886260 139.954108 6.823796
f 383 372 384 
f 353 356 358 
f 357 354 359 
f 354 357 360 
f 353 358 361 
f 358 356 362 
f 354 355 363 
f 359 354 363 
f 356 353 364 
f 362 356 366 
f 360 357 367 
f 356 364 368 
f 355 362 369 
f 363 355 369 
f 362 366 369 
f 368 363 369 
f 361 358 370 
f 367 361 370 
f 357 359 371 
f 359 363 373 
f 363 368 373 
f 370 358 374 
f 353 361 375 
f 367 353 375 
f 361 367 375 
f 365 360 376 
f 360 367 376 
f 367 370 376 
f 374 365 376 
f 370 374 376 
f 366 356 377 
f 356 368 377 
f 369 366 377 
f 368 369 377 
f 355 354 378 
f 365 374 378 
f 354 360 379 
f 360 365 379 
f 378 354 379 
f 365 378 379 
f 368 364 380 
f 371 359 380 
f 364 371 380 
f 359 373 380 
f 373 368 380 
f 371 364 381 
f 364 372 381 
f 362 355 382 
f 358 362 382 
f 374 358 382 
f 355 378 382 
f 378 374 382 
f 353 367 383 
f 367 357 383 
f 357 371 383 
f 371 381 383 
f 381 372 383 
f 364 353 384 
f 372 364 384 
f 353 383 384 
o convex_12
v -33.794903 201.211563 -56.136631
v -35.497011 189.297049 -15.304827
v -33.796069 189.297049 -15.304827
v -42.300782 199.507063 -90.164522
v -44.002890 218.219758 -88.457298
v -35.497011 204.609238 -90.164522
v -33.796069 197.805394 -10.208138
v -40.599839 218.219758 -85.051177
v -37.196788 194.404888 -15.304827
v -32.092795 192.703219 -30.619876
v -38.898897 199.507063 -90.164522
v -35.497011 196.103725 -5.086466
v -42.300782 201.211563 -78.247265
v -32.092795 189.297049 -5.086466
v -32.092795 196.106556 -28.920980
v -35.497011 189.297049 -5.086466
v -40.599839 218.219758 -90.164522
v -35.497011 206.310907 -90.164522
v -37.196788 191.001550 -18.710947
v -37.196788 199.504231 -17.012051
v -44.002890 214.816420 -88.457298
v -32.092795 189.297049 -13.597603
v -42.300782 218.219758 -85.051177
v -44.002890 218.219758 -90.164522
v -38.897731 202.904738 -32.318772
v -32.092795 191.001550 -5.086466
v -38.897731 194.404888 -37.423789
v -33.794903 201.211563 -62.932215
v -35.497011 202.913232 -85.051177
v -42.300782 214.819252 -73.142248
v -33.796069 196.103725 -5.086466
v -35.497011 206.310907 -83.352281
f 385 402 416 
f 387 386 388 
f 387 388 395 
f 388 390 395 
f 386 387 398 
f 392 391 399 
f 385 392 399 
f 398 394 399 
f 396 393 400 
f 386 398 400 
f 398 396 400 
f 390 388 401 
f 389 392 401 
f 401 392 402 
f 390 401 402 
f 388 386 403 
f 386 400 403 
f 400 393 403 
f 396 391 404 
f 393 396 404 
f 388 397 405 
f 387 395 406 
f 395 394 406 
f 398 387 406 
f 394 398 406 
f 392 389 407 
f 391 392 407 
f 404 391 407 
f 401 388 408 
f 389 401 408 
f 388 405 408 
f 405 389 408 
f 393 404 409 
f 389 405 409 
f 405 393 409 
f 396 398 410 
f 399 391 410 
f 398 399 410 
f 397 388 411 
f 388 403 411 
f 403 393 411 
f 393 405 411 
f 405 397 411 
f 394 390 412 
f 385 399 412 
f 399 394 412 
f 402 385 412 
f 390 402 412 
f 390 394 413 
f 395 390 413 
f 394 395 413 
f 407 389 414 
f 404 407 414 
f 389 409 414 
f 409 404 414 
f 391 396 415 
f 410 391 415 
f 396 410 415 
f 392 385 416 
f 402 392 416 
o convex_13
v -28.687008 173.985831 42.558578
v -26.988111 209.709121 71.483785
v -25.289215 211.409683 69.780891
v -37.197478 196.100796 40.855684
v -32.088797 175.690223 57.869630
v -16.778745 175.690223 49.364156
v -35.494585 208.008559 69.780891
v -18.481638 173.985831 57.869630
v -33.793690 197.801358 40.855684
v -32.088797 201.202482 71.483785
v -25.289215 211.409683 64.675208
v -35.494585 179.091347 40.855684
v -32.088797 213.114075 64.675208
v -35.494585 201.202482 69.780891
v -20.182533 173.985831 44.261472
v -23.588320 199.501920 69.780891
v -18.481638 179.091347 47.664261
v -16.778745 177.390785 56.169735
v -30.387903 173.985831 57.869630
v -37.197478 196.100796 51.067050
v -28.687008 179.091347 40.855684
v -20.182533 179.091347 61.272419
v -23.588320 208.008559 68.077997
v -35.494585 209.709121 66.378102
v -32.088797 173.985831 45.961367
v -33.793690 179.091347 54.469839
v -30.387903 192.699672 68.077997
v -21.883428 197.801358 57.869630
v -26.988111 201.202482 71.483785
v -32.088797 209.709121 71.483785
v -28.687008 213.114075 64.675208
v -28.687008 175.690223 59.572524
f 438 443 448 
f 420 425 428 
f 425 420 429 
f 426 423 430 
f 424 417 431 
f 422 424 431 
f 419 418 432 
f 422 431 433 
f 431 425 433 
f 424 422 434 
f 417 424 435 
f 420 428 436 
f 430 423 436 
f 417 428 437 
f 428 425 437 
f 431 417 437 
f 425 431 437 
f 424 434 438 
f 434 432 438 
f 427 419 439 
f 419 432 439 
f 434 422 439 
f 432 434 439 
f 423 429 440 
f 429 420 440 
f 420 436 440 
f 436 423 440 
f 428 417 441 
f 421 428 441 
f 417 435 441 
f 435 421 441 
f 428 421 442 
f 421 430 442 
f 436 428 442 
f 430 436 442 
f 426 430 443 
f 430 421 443 
f 421 435 443 
f 425 427 444 
f 422 433 444 
f 433 425 444 
f 427 439 444 
f 439 422 444 
f 418 426 445 
f 432 418 445 
f 438 432 445 
f 426 443 445 
f 443 438 445 
f 418 419 446 
f 426 418 446 
f 423 426 446 
f 419 429 446 
f 429 423 446 
f 419 427 447 
f 427 425 447 
f 429 419 447 
f 425 429 447 
f 435 424 448 
f 424 438 448 
f 443 435 448 
o convex_14
v -37.194980 180.789910 -107.179966
v -32.092129 190.995280 -105.478572
v -28.690672 187.593490 -105.478572
v -25.287883 184.192866 -108.881361
v -25.287883 179.087849 -105.478572
v -38.897707 190.995280 -107.179966
v -35.493585 179.087849 -108.881361
v -37.194980 180.789910 -105.478572
v -25.287883 179.087849 -108.881361
v -38.897707 190.995280 -105.478572
v -32.092129 190.995280 -107.179966
v -35.493585 179.087849 -105.478572
v -35.493585 182.490805 -108.881361
v -38.897707 185.891429 -107.179966
v -25.287883 182.490805 -105.478572
v -38.897707 185.891429 -105.478572
v -30.392066 184.192866 -108.881361
v -25.287883 184.192866 -107.179966
v -26.989277 185.891429 -105.478572
f 466 451 467 
f 451 450 453 
f 453 450 456 
f 449 455 456 
f 452 453 457 
f 455 452 457 
f 453 455 457 
f 450 454 458 
f 456 450 458 
f 450 452 459 
f 454 450 459 
f 452 454 459 
f 455 453 460 
f 453 456 460 
f 456 455 460 
f 452 455 461 
f 461 455 462 
f 455 449 462 
f 449 456 462 
f 458 454 462 
f 454 461 462 
f 453 452 463 
f 451 453 463 
f 456 458 464 
f 462 456 464 
f 458 462 464 
f 454 452 465 
f 452 461 465 
f 461 454 465 
f 450 451 466 
f 452 450 466 
f 463 452 466 
f 463 466 467 
f 451 463 467 
o convex_15
v 37.671211 327.111509 -113.999052
v -25.286550 179.093678 -107.187164
v -25.286550 179.093678 -105.478572
v -21.878598 196.118047 -110.586364
v 34.263259 316.896888 -151.412728
v 30.861469 318.606569 -151.412728
v -18.470645 187.613107 -105.478572
v 27.459679 310.101629 -112.294956
v 35.964154 318.606569 -112.294956
v -8.265276 221.618378 -105.483068
v 29.160574 303.291881 -146.304936
v -23.579493 180.803360 -108.886764
v 34.263259 325.401828 -113.999052
v -25.286550 185.917915 -105.478572
v -18.470645 187.613107 -108.886764
v -25.286550 180.803360 -108.886764
v -6.570544 216.532801 -105.483068
v 30.861469 318.606569 -134.398745
v 30.861469 315.201695 -151.412728
v 35.964154 318.606569 -119.102348
v 37.671211 327.111509 -120.801947
v -25.286550 187.613107 -108.886764
v 34.263259 321.996954 -112.294956
v 27.459679 299.887008 -146.309432
v 37.671211 323.706635 -124.205643
v 34.263259 320.301761 -149.708632
v 34.263259 325.401828 -127.609339
v -20.177703 199.522921 -107.187164
v 18.955205 289.686875 -110.595356
v 32.562364 311.796821 -149.708632
v -1.461697 228.442614 -110.590860
v 32.562364 321.996954 -113.999052
f 480 485 499 
f 470 469 479 
f 474 470 479 
f 469 470 481 
f 470 474 481 
f 474 477 481 
f 474 479 482 
f 479 469 483 
f 469 481 483 
f 474 476 484 
f 477 474 484 
f 476 477 484 
f 473 471 485 
f 480 473 485 
f 473 472 486 
f 483 473 486 
f 479 483 486 
f 480 468 488 
f 471 473 489 
f 473 483 489 
f 483 481 489 
f 476 468 490 
f 477 476 490 
f 468 480 490 
f 480 475 490 
f 482 479 491 
f 486 472 491 
f 479 486 491 
f 468 476 492 
f 476 487 492 
f 488 468 492 
f 488 492 493 
f 472 473 493 
f 492 472 493 
f 493 473 494 
f 473 480 494 
f 480 488 494 
f 488 493 494 
f 475 471 495 
f 471 489 495 
f 489 481 495 
f 481 477 496 
f 490 475 496 
f 477 490 496 
f 475 495 496 
f 495 481 496 
f 478 482 497 
f 487 478 497 
f 491 472 497 
f 482 491 497 
f 472 492 497 
f 492 487 497 
f 476 474 498 
f 474 482 498 
f 482 478 498 
f 487 476 498 
f 478 487 498 
f 471 475 499 
f 475 480 499 
f 485 471 499 
o convex_16
v 10.442902 146.761686 -105.478572
v 18.954039 155.264162 -69.745788
v 17.248480 155.264162 -69.745788
v 0.239531 163.772633 -105.478572
v -13.374956 143.353900 -93.561815
v -15.077184 162.069740 -98.671994
v 18.954039 163.772633 -78.255759
v -13.374956 143.353900 -105.478572
v 12.145129 143.353900 -85.062337
v 18.954039 156.963058 -98.671994
v 10.442902 163.772633 -105.478572
v 18.954039 148.462581 -73.152575
v 18.954039 148.462581 -93.561815
v -15.077184 162.069740 -105.478572
v 7.041778 143.353900 -105.478572
v 17.251811 163.772633 -76.552366
v -9.967170 143.353900 -90.162023
v 15.549584 155.264162 -105.478572
v 18.954039 162.069740 -91.861919
v 15.549584 148.462581 -73.152575
v 18.954039 146.761686 -83.362441
v -15.077184 153.563267 -105.478572
v -9.967170 145.056794 -90.162023
v -3.164923 143.353900 -86.762232
v 13.844026 162.069740 -103.771681
v 0.239531 163.772633 -100.371890
v 12.145129 143.353900 -90.162023
v 17.248480 153.563267 -69.745788
v 17.248480 162.069740 -74.852470
v 18.954039 146.761686 -78.255759
v 15.549584 156.963058 -105.478572
v 17.248480 162.069740 -96.968601
f 509 530 531 
f 503 500 507 
f 504 507 508 
f 506 501 509 
f 500 503 510 
f 503 506 510 
f 509 501 511 
f 509 511 512 
f 505 503 513 
f 503 507 513 
f 507 500 514 
f 508 507 514 
f 500 512 514 
f 501 506 515 
f 506 503 515 
f 504 508 516 
f 500 510 517 
f 509 512 517 
f 512 500 517 
f 506 509 518 
f 510 506 518 
f 508 511 519 
f 512 511 520 
f 504 505 521 
f 507 504 521 
f 505 513 521 
f 513 507 521 
f 502 505 522 
f 505 504 522 
f 504 516 522 
f 516 508 523 
f 508 519 523 
f 519 516 523 
f 503 505 525 
f 505 515 525 
f 515 503 525 
f 508 514 526 
f 514 512 526 
f 520 508 526 
f 512 520 526 
f 501 502 527 
f 511 501 527 
f 519 511 527 
f 516 519 527 
f 502 522 527 
f 522 516 527 
f 502 501 528 
f 505 502 528 
f 501 515 528 
f 515 505 528 
f 511 508 529 
f 508 520 529 
f 520 511 529 
f 517 510 530 
f 509 517 530 
f 510 524 530 
f 530 524 531 
f 518 509 531 
f 510 518 531 
f 524 510 531 
o convex_17
v -32.093361 189.292743 20.431288
v -38.898540 170.578878 -6.788027
v -38.898540 173.985426 -6.788027
v -30.391234 187.595298 0.023547
v -35.495118 194.399068 -5.085133
v -37.196412 187.592966 23.840073
v -30.391234 182.488973 23.840073
v -38.897707 179.087088 13.628708
v -35.495950 172.283318 1.723443
v -32.093361 190.994851 -5.085133
v -37.196412 182.488973 23.840073
v -32.093361 192.696960 8.526023
v -30.391234 187.592966 23.840073
v -37.196412 170.578878 -6.788027
v -38.897707 180.789196 8.526023
v -37.195580 175.687535 10.225919
v -35.495118 194.399068 1.723443
v -35.495950 172.283318 -1.679346
v -33.796321 180.789196 22.137180
v -38.898540 170.578878 -3.379242
v -33.794656 194.399068 -5.085133
v -30.391234 189.295075 0.023547
v -32.093361 187.595298 -5.085133
v -30.391234 185.893190 5.126232
v -38.898540 179.087088 3.423338
v -30.391234 182.488973 22.134182
v -33.794656 189.292743 20.431288
v -37.196412 173.985426 -6.788027
v -30.391234 189.295075 6.826128
v -33.794656 194.399068 1.723443
v -32.093361 192.696960 1.723443
v -35.496783 180.789196 22.137180
f 547 550 563 
f 538 537 542 
f 537 539 542 
f 532 537 544 
f 538 535 544 
f 537 538 544 
f 543 532 544 
f 533 534 545 
f 539 537 546 
f 536 546 548 
f 546 537 548 
f 538 540 549 
f 540 545 549 
f 545 535 549 
f 540 538 550 
f 538 542 550 
f 547 540 550 
f 534 533 551 
f 542 539 551 
f 533 545 551 
f 545 540 551 
f 540 547 551 
f 547 542 551 
f 534 536 552 
f 536 548 552 
f 535 541 553 
f 544 535 553 
f 541 552 553 
f 541 535 554 
f 535 545 554 
f 545 541 554 
f 535 538 555 
f 549 535 555 
f 536 534 556 
f 546 536 556 
f 539 546 556 
f 534 551 556 
f 551 539 556 
f 538 549 557 
f 555 538 557 
f 549 555 557 
f 537 532 558 
f 532 543 558 
f 548 537 558 
f 543 548 558 
f 545 534 559 
f 541 545 559 
f 534 552 559 
f 552 541 559 
f 543 544 560 
f 544 553 560 
f 553 543 560 
f 548 543 561 
f 543 552 561 
f 552 548 561 
f 552 543 562 
f 543 553 562 
f 553 552 562 
f 542 547 563 
f 550 542 563 
o convex_18
v -35.494418 173.982666 23.840073
v -33.794689 196.102295 40.855684
v -33.794689 196.102295 37.451230
v -28.690505 173.982666 34.048441
v -30.391900 187.593080 23.840073
v -35.494418 177.386352 40.855684
v -37.196645 189.294923 23.840073
v -28.689673 182.494047 40.855684
v -37.196645 194.398287 40.855684
v -35.494418 173.982666 37.451230
v -28.690505 177.386352 40.855684
v -37.196645 184.193724 25.542301
v -28.689673 184.193724 32.347879
v -30.391900 182.491881 23.840073
v -33.793023 173.982666 23.840073
v -37.196645 190.996766 40.855684
v -37.196645 194.398287 35.747337
v -28.690505 173.982666 37.451230
v -32.094127 192.696444 40.855684
v -33.794689 190.996766 27.244528
v -35.494418 196.102295 37.451230
v -37.196645 184.193724 23.840073
v -37.197478 187.593080 34.050106
v -28.689673 180.790038 32.347879
v -35.493585 189.294923 23.840073
v -35.494418 196.102295 40.855684
v -32.094127 192.696444 39.151791
v -28.689673 184.193724 34.050106
v -37.196645 192.696444 30.648983
v -37.197478 189.292758 32.347879
v -28.689673 180.790038 40.855684
v -37.196645 190.996766 27.244528
f 593 592 595 
f 568 564 570 
f 565 569 571 
f 569 565 572 
f 564 567 573 
f 569 573 574 
f 571 569 574 
f 564 573 575 
f 564 568 577 
f 568 576 577 
f 567 564 578 
f 564 577 578 
f 577 567 578 
f 569 572 579 
f 573 569 579 
f 573 567 581 
f 574 573 581 
f 566 565 582 
f 565 571 582 
f 566 568 583 
f 565 566 584 
f 566 570 584 
f 580 572 584 
f 570 564 585 
f 564 575 585 
f 585 575 586 
f 575 573 586 
f 579 572 586 
f 573 579 586 
f 576 571 587 
f 567 577 587 
f 577 576 587 
f 581 567 587 
f 570 566 588 
f 568 570 588 
f 566 583 588 
f 583 568 588 
f 572 565 589 
f 565 584 589 
f 584 572 589 
f 568 566 590 
f 576 568 590 
f 566 582 590 
f 582 576 590 
f 571 576 591 
f 582 571 591 
f 576 582 591 
f 580 584 592 
f 572 580 593 
f 570 585 593 
f 585 586 593 
f 586 572 593 
f 580 592 593 
f 571 574 594 
f 574 581 594 
f 587 571 594 
f 581 587 594 
f 584 570 595 
f 592 584 595 
f 570 593 595 
o convex_19
v -32.092795 202.906874 -91.868748
v -47.406845 211.411348 -98.670662
v -47.406845 211.411348 -95.271204
v -33.795688 167.175756 -100.371890
v -37.199977 219.915823 -102.073118
v -32.092795 168.882813 -105.477073
v -38.901371 185.897925 -90.164522
v -42.299663 226.719402 -90.164522
v -42.299663 187.598820 -103.774346
v -32.092795 196.103294 -105.477073
v -45.703951 219.915823 -102.073118
v -32.092795 184.197030 -90.164522
v -35.497083 225.024670 -98.670662
v -42.299663 184.197030 -93.569976
v -42.299663 202.906874 -105.477073
v -47.406845 219.915823 -91.868748
v -37.199977 225.024670 -90.164522
v -42.299663 230.133517 -96.972432
v -32.092795 170.589871 -93.569976
v -35.497083 170.589871 -105.477073
v -44.002557 201.205979 -90.164522
v -45.703951 197.804189 -93.569976
v -45.703951 201.205979 -102.073118
v -32.092795 206.308663 -100.371890
v -35.497083 225.024670 -91.868748
v -35.497083 168.882813 -96.972432
v -47.406845 221.616717 -98.670662
v -38.901371 230.133517 -93.569976
v -42.299663 184.197030 -98.670662
v -38.901371 226.719402 -100.371890
v -45.703951 226.719402 -93.569976
v -33.795688 173.991661 -91.868748
f 621 614 627 
f 596 601 605 
f 601 596 607 
f 603 602 607 
f 605 600 608 
f 600 605 610 
f 605 601 610 
f 606 600 610 
f 597 598 611 
f 607 596 612 
f 603 607 612 
f 599 601 614 
f 601 607 614 
f 601 599 615 
f 604 610 615 
f 610 601 615 
f 602 603 616 
f 609 602 616 
f 603 611 616 
f 616 611 617 
f 598 597 617 
f 611 598 617 
f 609 616 617 
f 597 606 618 
f 610 604 618 
f 606 610 618 
f 617 597 618 
f 596 605 619 
f 605 608 619 
f 619 608 620 
f 612 596 620 
f 596 619 620 
f 599 614 621 
f 615 599 621 
f 606 597 622 
f 597 611 622 
f 613 606 622 
f 603 612 623 
f 620 608 623 
f 612 620 623 
f 604 615 624 
f 609 617 624 
f 618 604 624 
f 617 618 624 
f 621 609 624 
f 615 621 624 
f 600 606 625 
f 608 600 625 
f 606 613 625 
f 623 608 625 
f 613 623 625 
f 611 603 626 
f 622 611 626 
f 613 622 626 
f 603 623 626 
f 623 613 626 
f 607 602 627 
f 602 609 627 
f 614 607 627 
f 609 621 627 
o convex_20
v 3.638656 172.280439 -90.162571
v -21.880763 173.981334 -95.268040
v -25.286550 173.981334 -91.864394
v -15.075185 167.175756 -95.268040
v -11.672396 172.280439 -83.361109
v 5.341550 175.683228 -91.864394
v -20.180868 177.385122 -91.864394
v 0.232869 168.878649 -95.268040
v -16.778078 177.385122 -95.268040
v 0.235867 175.683228 -86.763588
v -16.778078 170.579544 -85.060600
v -4.869816 172.280439 -83.361109
v -8.272605 167.175756 -93.566217
v -11.672396 173.981334 -83.361109
v -25.286550 175.682229 -90.163737
v 1.935763 172.279440 -95.268040
v -21.880763 177.385122 -95.268040
v -23.583657 172.280439 -90.163737
v 0.232869 168.878649 -93.566217
v 5.341550 175.683228 -90.162571
v -15.075185 167.175756 -93.566217
v -13.372291 175.683228 -86.763588
v 5.341550 173.981334 -90.162571
v -16.778078 173.981334 -85.060600
v -4.869816 173.981334 -83.361109
v -16.778078 177.385122 -91.864394
v 3.638656 172.279440 -93.566217
v -8.272605 167.175756 -95.268040
v -25.286550 173.981334 -90.163737
v -15.075185 170.579544 -85.060600
v -20.180868 172.281438 -86.762423
v -25.286550 175.682229 -91.864394
f 642 644 659 
f 630 629 631 
f 631 629 635 
f 635 629 636 
f 632 638 639 
f 638 632 641 
f 632 639 641 
f 636 633 643 
f 635 636 643 
f 636 629 644 
f 634 636 644 
f 642 634 644 
f 630 631 645 
f 628 639 646 
f 639 640 646 
f 640 635 646 
f 633 636 647 
f 631 640 648 
f 645 631 648 
f 638 645 648 
f 637 634 649 
f 641 637 649 
f 634 642 649 
f 642 641 649 
f 639 628 650 
f 633 647 650 
f 647 639 650 
f 638 641 651 
f 641 642 651 
f 637 641 652 
f 641 639 652 
f 647 637 652 
f 639 647 652 
f 636 634 653 
f 634 637 653 
f 647 636 653 
f 637 647 653 
f 643 633 654 
f 635 643 654 
f 628 646 654 
f 646 635 654 
f 650 628 654 
f 633 650 654 
f 631 635 655 
f 640 631 655 
f 635 640 655 
f 642 630 656 
f 630 645 656 
f 645 638 656 
f 639 638 657 
f 640 639 657 
f 638 648 657 
f 648 640 657 
f 638 651 658 
f 651 642 658 
f 642 656 658 
f 656 638 658 
f 629 630 659 
f 630 642 659 
f 644 629 659 
o convex_21
v -3.167422 162.071072 -98.673660
v -13.374290 177.385122 -102.074117
v -13.374290 177.385122 -105.477573
v -15.077184 162.071072 -98.673660
v 0.236866 162.071072 -105.477573
v -1.466027 170.576546 -95.269205
v -15.077184 162.071072 -105.477573
v -15.077184 168.879649 -95.269205
v 0.236866 165.475360 -105.477573
v -3.167422 165.475360 -95.269205
v -15.077184 177.385122 -105.477573
v 0.236866 162.071072 -100.373389
v -15.077184 165.475360 -95.269205
v -9.971501 170.576546 -95.269205
v -4.868816 170.576546 -105.477573
v -1.466027 170.576546 -96.971932
v -15.077184 177.385122 -102.074117
v -1.466027 167.178254 -95.269205
v 0.236866 165.475360 -102.074117
v 0.236866 163.773966 -100.373389
v -3.167422 168.879649 -105.477573
f 674 675 680 
f 660 663 664 
f 662 661 665 
f 664 663 666 
f 662 664 666 
f 666 663 667 
f 664 662 668 
f 663 660 669 
f 665 667 669 
f 661 662 670 
f 662 666 670 
f 666 667 670 
f 660 664 671 
f 664 668 671 
f 669 660 671 
f 667 663 672 
f 663 669 672 
f 669 667 672 
f 665 661 673 
f 667 665 673 
f 668 662 674 
f 662 665 675 
f 674 662 675 
f 661 670 676 
f 670 667 676 
f 673 661 676 
f 667 673 676 
f 665 669 677 
f 671 665 677 
f 669 671 677 
f 671 668 678 
f 668 675 678 
f 675 665 678 
f 665 671 679 
f 671 678 679 
f 678 665 679 
f 668 674 680 
f 675 668 680 
o convex_22
v 44.476123 179.086684 -47.625494
v 18.954039 148.461581 -90.158859
v 20.656932 148.461581 -90.158859
v 34.264091 153.566764 -51.034279
v 18.954039 167.173591 -62.947039
v 44.476123 179.086684 -64.646935
v 42.773230 156.969220 -62.947039
v 18.954039 162.074403 -91.858754
v 30.866299 179.086684 -66.346830
v 18.954039 150.164308 -69.746621
v 35.969650 150.164308 -57.838358
v 22.357161 153.566764 -91.858754
v 37.669879 179.086684 -49.334384
v 42.773230 155.269491 -52.738672
v 20.656932 162.074403 -59.538254
v 46.179017 170.576047 -61.238149
v 37.669879 151.867035 -68.046726
v 41.070336 179.086684 -68.046726
v 35.969650 155.269491 -49.334384
v 41.070336 160.371676 -68.046726
v 22.357161 148.461581 -69.746621
v 20.656932 158.671947 -93.567644
v 46.179017 175.678232 -51.034279
v 29.163406 150.164308 -57.838358
v 42.773230 167.173591 -47.625494
v 25.760283 173.978503 -71.446517
v 35.969650 153.566764 -73.146412
v 27.463177 148.461581 -73.146412
v 39.367442 168.873320 -47.625494
v 46.179017 179.086684 -61.238149
v 35.969650 150.164308 -66.346830
v 39.367442 155.269491 -49.334384
f 694 705 712 
f 682 685 688 
f 681 686 689 
f 685 682 690 
f 681 689 693 
f 689 685 693 
f 685 690 695 
f 693 685 695 
f 694 687 696 
f 687 694 697 
f 689 686 698 
f 688 689 698 
f 695 684 699 
f 692 686 700 
f 686 696 700 
f 696 687 700 
f 682 683 701 
f 690 682 701 
f 683 682 702 
f 682 688 702 
f 692 683 702 
f 686 692 702 
f 698 686 702 
f 688 698 702 
f 694 696 703 
f 691 684 704 
f 684 695 704 
f 695 690 704 
f 690 701 704 
f 701 691 704 
f 703 681 705 
f 694 703 705 
f 688 685 706 
f 689 688 706 
f 685 689 706 
f 683 692 707 
f 697 683 707 
f 687 697 707 
f 692 700 707 
f 700 687 707 
f 701 683 708 
f 691 701 708 
f 681 693 709 
f 693 695 709 
f 695 699 709 
f 705 681 709 
f 699 705 709 
f 686 681 710 
f 696 686 710 
f 681 703 710 
f 703 696 710 
f 694 691 711 
f 683 697 711 
f 697 694 711 
f 708 683 711 
f 691 708 711 
f 684 691 712 
f 691 694 712 
f 699 684 712 
f 705 699 712 
o convex_23
v -6.569378 175.686726 -90.162023
v 32.566528 204.607269 -69.745788
v 32.566528 192.695312 -69.745788
v 8.746338 179.087311 -90.162023
v 0.241863 175.686726 -85.060671
v 25.755287 202.902729 -69.745788
v 1.942758 184.198098 -86.760400
v 32.566528 204.607269 -71.449848
v 7.045443 175.686726 -88.460129
v 27.456181 190.999267 -69.745788
v -1.462862 180.794682 -85.056341
v 32.566528 192.695312 -71.449848
v 5.340717 177.385603 -91.866083
v 27.456181 204.607269 -71.449848
v -4.864652 179.087311 -90.162023
v 18.951707 184.198098 -76.555531
v 22.353497 194.397020 -71.449848
v 7.045443 175.686726 -90.162023
v 18.951707 197.797605 -73.151742
v -6.569378 177.385603 -88.460129
v 30.861802 199.499313 -73.151742
v 3.639822 175.686726 -85.060671
v -1.462862 179.092974 -85.056341
v -3.163757 175.686726 -91.866083
v 8.746338 177.385603 -90.162023
v -3.163757 177.385603 -91.866083
v 20.652602 199.499313 -73.151742
v 8.746338 180.794682 -79.952823
v 27.456181 189.300391 -71.449848
v -6.569378 175.686726 -88.460129
v 5.340717 175.686726 -91.866083
v 27.456181 204.607269 -69.745788
f 739 731 744 
f 715 714 718 
f 714 715 720 
f 717 713 721 
f 715 718 722 
f 720 715 724 
f 715 721 724 
f 720 716 725 
f 719 720 725 
f 720 719 726 
f 714 720 726 
f 726 719 727 
f 722 718 729 
f 721 713 730 
f 724 721 730 
f 729 718 731 
f 727 713 732 
f 723 731 732 
f 716 720 733 
f 720 724 733 
f 717 721 734 
f 722 717 734 
f 721 728 734 
f 731 723 735 
f 729 731 735 
f 723 732 735 
f 730 713 736 
f 725 716 737 
f 724 730 737 
f 716 733 737 
f 733 724 737 
f 719 725 738 
f 713 727 738 
f 727 719 738 
f 736 713 738 
f 725 736 738 
f 726 727 739 
f 727 732 739 
f 732 731 739 
f 717 722 740 
f 722 729 740 
f 735 717 740 
f 729 735 740 
f 721 715 741 
f 715 722 741 
f 728 721 741 
f 722 734 741 
f 734 728 741 
f 713 717 742 
f 732 713 742 
f 717 735 742 
f 735 732 742 
f 736 725 743 
f 730 736 743 
f 725 737 743 
f 737 730 743 
f 718 714 744 
f 714 726 744 
f 731 718 744 
f 726 739 744 
o convex_24
v 37.675375 179.086684 -68.043894
v 47.880245 213.117240 -47.625494
v 49.582139 216.517031 -49.327388
v 27.461844 204.606103 -69.745788
v 41.070503 179.086684 -47.625494
v 47.880245 192.699839 -61.234152
v 47.880245 218.219258 -61.234152
v 44.474291 225.028168 -51.029282
v 46.176185 179.086684 -51.029282
v 32.569692 179.086684 -62.938211
v 41.070503 197.811184 -47.625494
v 41.070503 179.086684 -68.043894
v 34.271587 206.303667 -69.745788
v 47.880245 226.730395 -56.137130
v 27.461844 204.606103 -68.043894
v 37.675375 179.086684 -51.029282
v 42.772397 218.219258 -49.327388
v 47.880245 184.193366 -59.532258
v 49.582139 214.819467 -57.839025
v 44.474291 226.730395 -56.137130
v 46.176185 187.597820 -47.625494
v 29.163739 196.104293 -69.745788
v 47.880245 187.597820 -51.029282
v 42.772397 197.811184 -66.342000
v 44.474291 179.086684 -64.640106
v 49.582139 208.005894 -51.029282
v 27.461844 201.210976 -68.043894
v 49.582139 221.623713 -51.029282
v 35.973481 194.406730 -69.745788
v 32.569692 179.086684 -64.640106
v 46.176185 219.916822 -61.234152
v 29.163739 206.303667 -69.745788
f 775 757 776 
f 749 745 753 
f 745 749 754 
f 749 746 755 
f 751 750 756 
f 753 745 756 
f 755 759 760 
f 754 749 760 
f 749 755 760 
f 746 752 761 
f 755 746 761 
f 752 759 761 
f 759 755 761 
f 750 751 763 
f 751 758 763 
f 762 750 763 
f 752 758 764 
f 748 759 764 
f 759 752 764 
f 747 746 765 
f 746 749 765 
f 749 753 765 
f 748 757 766 
f 753 762 767 
f 747 765 767 
f 765 753 767 
f 751 756 768 
f 757 751 768 
f 756 750 769 
f 753 756 769 
f 750 762 769 
f 762 753 769 
f 763 747 770 
f 762 763 770 
f 747 767 770 
f 767 762 770 
f 759 748 771 
f 760 759 771 
f 754 760 771 
f 748 766 771 
f 746 747 772 
f 752 746 772 
f 758 752 772 
f 747 763 772 
f 763 758 772 
f 756 745 773 
f 745 766 773 
f 766 757 773 
f 768 756 773 
f 757 768 773 
f 745 754 774 
f 766 745 774 
f 754 771 774 
f 771 766 774 
f 751 757 775 
f 758 751 775 
f 764 758 775 
f 764 775 776 
f 757 748 776 
f 748 764 776 
o convex_25
v 15.549584 168.876817 -68.046226
v -15.077184 170.578212 -86.761400
v -15.077184 172.279606 -86.761400
v 15.549584 165.474861 -62.939544
v 17.248480 165.474861 -69.746122
v -1.466027 172.280439 -83.356945
v -9.970502 172.280439 -79.954822
v 12.145129 163.773466 -66.346330
v -15.077184 170.578212 -83.356945
v -9.970502 170.578212 -86.761400
v 15.549584 163.773466 -68.046226
v 1.938428 172.280439 -78.252595
v 18.954039 167.176255 -68.043894
v 18.954039 163.773466 -62.939544
v -9.970502 168.878483 -83.356945
v 13.847357 167.174590 -64.641771
v -4.863819 170.578212 -85.059172
v 18.954039 167.176255 -64.644103
v 15.549584 163.773466 -62.939544
v 3.637324 170.577379 -73.150576
v -9.970502 168.878483 -79.954822
v 1.938428 172.280439 -79.954822
v 18.954039 163.773466 -66.343999
v -9.970502 172.279606 -86.761400
v -15.077184 172.279606 -83.356945
v 12.145129 163.773466 -68.046226
v 13.847357 165.475694 -71.446017
v -1.466027 170.577379 -83.356945
v 15.549584 168.876817 -69.746122
v 0.236200 167.176255 -78.252595
v -3.164923 172.280439 -78.252595
v 5.342882 168.876817 -69.746122
f 792 796 808 
f 782 779 783 
f 779 778 785 
f 778 779 786 
f 782 783 788 
f 781 782 789 
f 784 787 790 
f 785 778 791 
f 778 786 791 
f 789 777 794 
f 780 790 794 
f 790 789 794 
f 777 792 794 
f 792 780 794 
f 780 785 795 
f 790 780 795 
f 784 790 795 
f 792 777 796 
f 785 791 797 
f 791 784 797 
f 795 785 797 
f 784 795 797 
f 788 777 798 
f 782 788 798 
f 789 782 798 
f 787 781 799 
f 781 789 799 
f 790 787 799 
f 789 790 799 
f 779 782 800 
f 786 779 800 
f 782 793 800 
f 793 786 800 
f 783 779 801 
f 780 783 801 
f 779 785 801 
f 785 780 801 
f 787 784 802 
f 784 791 802 
f 781 787 803 
f 793 781 803 
f 786 793 803 
f 782 781 804 
f 781 793 804 
f 793 782 804 
f 777 789 805 
f 798 777 805 
f 789 798 805 
f 791 786 806 
f 787 802 806 
f 802 791 806 
f 803 787 806 
f 786 803 806 
f 777 788 807 
f 788 783 807 
f 796 777 807 
f 783 796 807 
f 783 780 808 
f 780 792 808 
f 796 783 808 
o convex_26
v -50.808768 162.071072 -20.400516
v -45.707282 206.306665 3.421340
v -47.406112 206.306665 3.421340
v -44.006787 218.212929 -11.888713
v -37.198144 162.077235 -15.294500
v -54.211424 209.708454 -5.087798
v -50.808768 165.485187 -6.788027
v -40.602466 218.212929 0.018218
v -38.900305 163.778130 -23.803638
v -37.198144 168.886977 -6.790692
v -38.900305 213.110244 -8.490921
v -50.808768 221.614719 -8.493585
v -47.406112 167.179920 -23.803638
v -50.808768 219.919986 1.718446
v -54.211424 192.699506 -3.387570
v -42.306292 162.071072 -6.788027
v -52.509263 162.071072 -16.992064
v -45.707282 225.028834 -5.087798
v -50.808768 189.297716 0.018218
v -40.602466 219.919986 -10.191149
v -37.198144 162.077235 -22.100745
v -44.006787 185.895926 0.018218
v -50.808768 218.212929 -10.191149
v -52.509263 202.904875 1.718446
v -52.509263 162.071072 -10.191149
v -52.509263 170.587872 -16.992064
v -40.602466 202.904875 0.018218
v -38.900305 214.811139 -5.090463
v -37.198144 173.989662 -16.992064
v -47.406112 211.409349 -13.594271
v -54.211424 209.708454 -1.684676
v -47.406112 179.092347 -1.684676
f 830 827 840 
f 817 809 821 
f 812 817 821 
f 811 810 822 
f 810 816 822 
f 813 818 824 
f 823 814 825 
f 809 824 825 
f 822 816 826 
f 820 822 826 
f 823 815 827 
f 817 812 828 
f 812 820 828 
f 826 816 828 
f 820 826 828 
f 809 817 829 
f 818 813 829 
f 824 809 829 
f 813 824 829 
f 817 828 829 
f 828 819 829 
f 810 811 830 
f 824 818 830 
f 811 827 830 
f 820 812 831 
f 814 820 831 
f 811 822 832 
f 827 811 832 
f 823 827 832 
f 815 823 833 
f 824 815 833 
f 823 825 833 
f 825 824 833 
f 821 809 834 
f 809 825 834 
f 825 814 834 
f 814 831 834 
f 831 821 834 
f 816 810 835 
f 818 816 835 
f 810 830 835 
f 830 818 835 
f 816 818 836 
f 828 816 836 
f 819 828 836 
f 818 829 837 
f 829 819 837 
f 836 818 837 
f 819 836 837 
f 812 821 838 
f 831 812 838 
f 821 831 838 
f 820 814 839 
f 822 820 839 
f 814 823 839 
f 832 822 839 
f 823 832 839 
f 815 824 840 
f 827 815 840 
f 824 830 840 
o convex_27
v -15.077184 177.388016 -102.072785
v -32.092795 167.180523 -105.478572
v -23.584989 160.374195 -105.478572
v -32.092795 184.186350 -90.164522
v -32.092795 199.497589 -102.072785
v -16.779411 196.100421 -105.477073
v -15.077184 165.481939 -95.270205
v -30.390567 199.497589 -93.570309
v -30.390567 168.887101 -93.570309
v -15.077184 158.671614 -105.477073
v -32.092795 192.695259 -105.478572
v -21.884427 175.689432 -91.867415
v -16.779411 196.100421 -103.775678
v -18.481638 160.378192 -98.672994
v -32.092795 167.180523 -96.973098
v -32.092795 189.294093 -90.164522
v -15.077184 168.883104 -95.270205
v -26.987778 162.080773 -102.072785
v -32.092795 173.986850 -91.867415
v -32.092795 199.497589 -93.570309
v -15.077184 179.086600 -105.477073
v -30.390567 189.294093 -90.164522
v -21.884427 173.986850 -91.867415
v -20.182200 158.671614 -103.775678
v -15.077184 158.671614 -102.072785
v -25.288882 163.779358 -96.973098
v -30.390567 199.497589 -102.072785
v -15.077184 160.378192 -98.672994
v -25.288882 165.485935 -95.270205
v -23.584989 160.374195 -102.072785
v -18.481638 196.100421 -105.477073
v -30.390567 184.186350 -90.164522
f 863 862 872 
f 842 844 845 
f 841 847 850 
f 843 842 851 
f 842 845 851 
f 846 843 851 
f 846 848 853 
f 848 852 853 
f 844 842 855 
f 845 844 856 
f 847 841 857 
f 852 847 857 
f 841 853 857 
f 853 852 857 
f 842 843 858 
f 855 842 858 
f 844 855 859 
f 855 849 859 
f 848 845 860 
f 845 856 860 
f 856 848 860 
f 843 846 861 
f 841 850 861 
f 850 843 861 
f 853 841 861 
f 846 853 861 
f 852 848 862 
f 856 844 862 
f 848 856 862 
f 849 847 863 
f 847 852 863 
f 859 849 863 
f 844 859 863 
f 852 862 863 
f 843 850 864 
f 850 847 865 
f 864 850 865 
f 854 864 865 
f 849 855 866 
f 846 845 867 
f 845 848 867 
f 848 846 867 
f 847 854 868 
f 865 847 868 
f 854 865 868 
f 847 849 869 
f 854 847 869 
f 849 866 869 
f 866 854 869 
f 858 843 870 
f 855 858 870 
f 843 864 870 
f 864 854 870 
f 854 866 870 
f 866 855 870 
f 845 846 871 
f 851 845 871 
f 846 851 871 
f 862 844 872 
f 844 863 872 
o convex_28
v -25.288682 153.563267 -90.161691
v -15.077184 111.029902 -61.242313
v -15.077184 116.129588 -62.943786
v -40.595937 197.796527 -86.755914
v -16.780765 107.621116 -74.851265
v -15.077184 134.846428 -88.460218
v -37.191272 197.796527 -88.457387
v -40.595937 194.378748 -90.161691
v -16.780765 109.330006 -61.242313
v -16.780765 126.337956 -88.460218
v -18.486845 145.072783 -86.755914
v -15.077184 107.621116 -74.851265
v -30.386937 179.079688 -90.158860
v -38.892356 187.579166 -85.057272
v -18.481849 112.738791 -71.453982
v -16.780765 122.938165 -64.645259
v -35.490188 179.079688 -90.161691
v -37.191272 192.687847 -85.057272
v -15.077184 126.337956 -88.460218
v -16.780765 107.621116 -64.645259
v -38.892356 199.496423 -90.161691
v -23.590096 158.680942 -90.156029
v -15.077184 134.846428 -86.758745
v -18.481849 112.738791 -74.851265
v -16.780765 111.029902 -61.242313
v -15.077184 107.621116 -64.645259
v -37.191272 196.087638 -86.755914
v -30.386937 163.780628 -76.552738
v -38.892356 187.579166 -88.457387
v -37.191272 197.796527 -90.161691
v -20.182933 134.846428 -68.045374
v -40.595937 194.378748 -86.755914
f 886 881 904 
f 875 874 878 
f 878 874 884 
f 877 882 884 
f 883 878 885 
f 879 883 885 
f 874 875 888 
f 883 879 888 
f 880 873 889 
f 877 880 889 
f 882 877 889 
f 873 882 889 
f 882 873 891 
f 878 884 891 
f 884 882 891 
f 877 884 892 
f 881 886 892 
f 886 887 892 
f 887 877 892 
f 876 879 893 
f 880 876 893 
f 873 880 893 
f 873 885 894 
f 885 878 894 
f 891 873 894 
f 878 891 894 
f 875 878 895 
f 878 883 895 
f 888 875 895 
f 883 888 895 
f 880 877 896 
f 887 886 896 
f 877 887 896 
f 881 874 897 
f 876 881 897 
f 874 881 898 
f 884 874 898 
f 881 892 898 
f 892 884 898 
f 879 876 899 
f 876 890 899 
f 890 876 900 
f 876 897 900 
f 886 880 901 
f 880 896 901 
f 896 886 901 
f 885 873 902 
f 879 885 902 
f 893 879 902 
f 873 893 902 
f 874 888 903 
f 888 879 903 
f 897 874 903 
f 879 899 903 
f 899 890 903 
f 890 900 903 
f 900 897 903 
f 876 880 904 
f 881 876 904 
f 880 886 904 
