o convex_0
v 24.682702 38.893022 -15.576838
v 9.839067 0.535339 15.359270
v 12.310221 3.009641 14.121574
v 19.732038 -1.942961 -5.675268
v -1.302016 0.535339 0.506915
v 12.310221 38.893022 -1.962179
v 25.916885 36.414722 -0.727632
v 13.547190 37.653872 -15.576838
v 8.599312 -1.942961 -8.150660
v 18.495068 -1.942961 12.880729
v -0.062261 -1.942961 12.880729
v 25.916885 17.859453 -3.196726
v 17.258099 38.893022 0.506915
v 2.414464 -1.942961 -5.675268
v 11.076037 38.893022 -11.863749
v -0.062261 0.535339 12.880729
v 22.208763 -0.703811 4.220004
v 19.732038 36.414722 -16.814534
v 25.916885 31.462120 -13.098296
v -1.302016 1.770492 5.454551
v 27.159427 38.893022 -6.909815
v 23.442946 20.325761 5.454551
v 20.971793 38.893022 0.506915
v 13.547190 -1.942961 -8.150660
v 11.076037 38.893022 -4.437571
v 25.916885 17.859453 -0.727632
v 1.174709 0.535339 -4.437571
v 7.362343 0.535339 15.359270
v 22.208763 6.723094 -6.909815
v 27.159427 27.752665 -4.437571
v -1.302016 -1.942961 0.506915
v 17.258099 38.893022 -16.814534
f 18 9 32 
f 3 2 10 
f 9 4 10 
f 9 10 11 
f 10 2 11 
f 1 6 13 
f 8 9 14 
f 9 11 14 
f 6 1 15 
f 13 6 16 
f 10 4 17 
f 18 1 19 
f 15 5 20 
f 11 16 20 
f 1 13 21 
f 19 1 21 
f 3 10 22 
f 2 3 23 
f 13 2 23 
f 7 21 23 
f 21 13 23 
f 3 22 23 
f 22 7 23 
f 4 9 24 
f 9 18 24 
f 19 4 24 
f 18 19 24 
f 6 15 25 
f 16 6 25 
f 15 20 25 
f 20 16 25 
f 10 17 26 
f 17 12 26 
f 22 10 26 
f 7 22 26 
f 8 14 27 
f 5 15 27 
f 15 8 27 
f 11 2 28 
f 2 13 28 
f 16 11 28 
f 13 16 28 
f 17 4 29 
f 12 17 29 
f 4 19 29 
f 19 12 29 
f 12 19 30 
f 21 7 30 
f 19 21 30 
f 26 12 30 
f 7 26 30 
f 14 11 31 
f 20 5 31 
f 11 20 31 
f 5 27 31 
f 27 14 31 
f 9 8 32 
f 15 1 32 
f 8 15 32 
f 1 18 32 
o convex_1
v 11.074341 72.299678 -10.629929
v 16.021856 38.896535 -16.814776
v 17.258099 40.136290 -18.057560
v 1.174224 74.775676 -35.372953
v 13.546827 74.775676 -34.133803
v 25.921973 42.608776 -5.680597
v 12.310584 38.896535 -1.966782
v 2.410467 74.775676 -14.340111
v 16.021856 74.775676 -13.104595
v 24.683186 38.896535 -15.582894
v 23.446943 56.217984 -15.582894
v 22.205613 40.136290 -0.727632
v 11.074341 38.896535 -11.865445
v 7.360526 73.535921 -37.851253
v -0.064562 73.535921 -24.238774
v 16.021856 74.775676 -26.709806
v 12.310584 38.896535 -15.582894
v 14.783069 40.136290 -0.727632
v 24.683186 47.557259 -16.814776
v 1.174224 72.299678 -34.133803
v 23.446943 51.269500 -5.680597
v 4.885496 73.535921 -37.851253
v 6.124283 74.775676 -11.865445
v 24.683186 38.896535 -1.966782
v 11.074341 38.896535 -5.680597
v 19.730584 42.608776 -0.727632
v 25.921973 47.557259 -10.629929
v 19.730584 67.351194 -16.814776
v 13.546827 72.299678 -34.133803
v 2.410467 72.299678 -14.340111
v -0.064562 73.535921 -30.423621
v 25.921973 38.896535 -13.104595
f 51 59 64 
f 37 36 40 
f 37 40 41 
f 34 35 42 
f 39 34 42 
f 34 39 45 
f 36 37 46 
f 42 35 46 
f 40 36 47 
f 37 41 48 
f 43 37 48 
f 34 45 49 
f 39 44 50 
f 37 43 51 
f 49 45 52 
f 35 34 54 
f 46 35 54 
f 36 46 54 
f 34 49 54 
f 52 36 54 
f 49 52 54 
f 40 39 55 
f 41 40 55 
f 33 41 55 
f 39 50 55 
f 39 42 56 
f 44 39 56 
f 38 53 56 
f 53 44 56 
f 45 39 57 
f 47 45 57 
f 41 33 58 
f 50 44 58 
f 53 41 58 
f 44 53 58 
f 33 55 58 
f 55 50 58 
f 51 43 59 
f 53 38 59 
f 53 59 60 
f 48 41 60 
f 43 48 60 
f 41 53 60 
f 59 43 60 
f 46 37 61 
f 42 46 61 
f 37 51 61 
f 51 42 61 
f 39 40 62 
f 40 47 62 
f 57 39 62 
f 47 57 62 
f 47 36 63 
f 45 47 63 
f 36 52 63 
f 52 45 63 
f 42 51 64 
f 38 56 64 
f 56 42 64 
f 59 38 64 
o convex_2
v -9.961772 115.611053 -82.399597
v -6.253043 94.578453 -60.126394
v -2.540924 94.578453 -60.126394
v -2.540924 115.611053 -57.650517
v -16.151464 115.611053 -57.650517
v 1.172892 108.188388 -82.399597
v -11.201406 105.713480 -81.161659
v 1.172892 95.817966 -57.650517
v -11.201406 95.817966 -57.650517
v -0.065046 115.611053 -82.399597
v -2.540924 104.480144 -82.399597
v 1.172892 104.480144 -57.650517
v -12.437649 109.425842 -82.399597
v -13.675587 102.005236 -62.604694
v -8.725529 104.480144 -82.399597
v 1.172892 111.900750 -78.683359
v -16.151464 113.138204 -58.888455
v -0.065046 104.480144 -79.923720
v -16.151464 115.611053 -60.126394
v -11.201406 95.817966 -58.888455
v -13.675587 100.767782 -57.650517
v -11.201406 114.375658 -82.399597
v -8.725529 94.578453 -58.888455
v 1.172892 95.817966 -58.888455
v -1.302985 94.578453 -57.650517
v -12.437649 110.663296 -82.399597
v -12.437649 108.188388 -81.161659
v -3.777166 103.242690 -79.923720
v 1.172892 105.713480 -60.126394
v -12.437649 103.242690 -71.260573
v -9.961772 104.480144 -81.161659
v -0.065046 115.611053 -79.923720
f 80 74 96 
f 68 65 69 
f 68 69 72 
f 72 69 73 
f 65 68 74 
f 70 65 74 
f 65 70 75 
f 68 72 76 
f 72 70 76 
f 65 75 77 
f 71 77 79 
f 77 75 79 
f 70 74 80 
f 76 70 80 
f 67 75 82 
f 75 70 82 
f 69 65 83 
f 81 69 83 
f 77 81 83 
f 73 69 85 
f 69 81 85 
f 81 78 85 
f 84 73 85 
f 78 84 85 
f 65 77 86 
f 83 65 86 
f 66 67 87 
f 79 66 87 
f 73 84 87 
f 70 72 88 
f 67 82 88 
f 82 70 88 
f 72 73 89 
f 87 67 89 
f 73 87 89 
f 67 88 89 
f 88 72 89 
f 77 83 90 
f 86 77 90 
f 83 86 90 
f 77 71 91 
f 81 77 91 
f 78 81 91 
f 67 66 92 
f 75 67 92 
f 66 79 92 
f 79 75 92 
f 68 76 93 
f 80 68 93 
f 76 80 93 
f 71 84 94 
f 84 78 94 
f 91 71 94 
f 78 91 94 
f 71 79 95 
f 84 71 95 
f 79 87 95 
f 87 84 95 
f 74 68 96 
f 68 80 96 
o convex_3
v -5.014863 130.464378 -57.650517
v -17.388918 126.751289 -63.836818
v -16.150495 116.854442 -61.362879
v -8.728678 130.464378 -67.550149
v -2.539470 115.615172 -60.126394
v -16.150495 130.464378 -57.650517
v -16.150495 115.615172 -57.650517
v -13.673649 115.615172 -63.836818
v -14.913526 131.702074 -67.550149
v -2.539470 115.615172 -57.650517
v -5.014863 131.702074 -62.600333
v -17.388918 131.702074 -58.888940
v -7.491709 116.854442 -63.836818
v -14.913526 129.225107 -67.550149
v -6.253286 131.702074 -57.650517
v -17.388918 131.702074 -65.074272
v -6.253286 131.702074 -65.074272
v -2.539470 118.090564 -57.650517
v -3.777893 115.615172 -61.362879
v -11.199710 129.225107 -67.550149
v -5.014863 126.751289 -63.836818
v -14.913526 118.090564 -63.836818
v -17.388918 129.225107 -65.074272
v -11.199710 115.615172 -63.836818
v -8.728678 131.702074 -67.550149
v -5.014863 130.464378 -63.836818
v -5.014863 131.702074 -58.888940
v -17.388918 127.987410 -60.126394
v -14.913526 131.702074 -57.650517
v -16.150495 115.615172 -60.126394
v -2.539470 116.854442 -60.126394
v -3.777893 125.512018 -57.650517
f 107 123 128 
f 97 102 103 
f 101 103 104 
f 97 103 106 
f 103 101 106 
f 103 102 108 
f 107 105 108 
f 105 100 110 
f 102 97 111 
f 107 108 111 
f 98 108 112 
f 108 105 112 
f 105 110 112 
f 105 107 113 
f 97 106 114 
f 106 101 114 
f 101 104 115 
f 109 100 115 
f 100 109 116 
f 104 110 116 
f 110 100 116 
f 115 100 117 
f 101 115 117 
f 104 99 118 
f 110 104 118 
f 110 118 119 
f 99 98 119 
f 98 112 119 
f 112 110 119 
f 118 99 119 
f 115 104 120 
f 109 115 120 
f 116 109 120 
f 104 116 120 
f 100 105 121 
f 105 113 121 
f 117 100 121 
f 117 121 122 
f 113 107 122 
f 101 117 122 
f 121 113 122 
f 111 97 123 
f 107 111 123 
f 98 103 124 
f 103 108 124 
f 108 98 124 
f 108 102 125 
f 102 111 125 
f 111 108 125 
f 98 99 126 
f 103 98 126 
f 104 103 126 
f 99 104 126 
f 114 101 127 
f 107 114 127 
f 101 122 127 
f 122 107 127 
f 97 114 128 
f 114 107 128 
f 123 97 128 
o convex_4
v 16.022340 265.329061 -78.684692
v -0.064562 170.063149 -72.501903
v -0.064562 170.063149 -70.026753
v -0.064562 230.689554 -68.789904
v -0.064562 186.166886 -82.398144
v 12.309251 212.144094 -71.263601
v 9.832284 265.329061 -79.922994
v 14.784644 266.569301 -72.501903
v 2.410831 177.504587 -82.398144
v 2.410831 225.738284 -67.550149
v 11.069981 246.773912 -82.398144
v 12.309251 218.335603 -77.447843
v -0.064562 203.481795 -81.159842
v 9.832284 265.329061 -72.501903
v 1.173134 170.063149 -70.026753
v -0.064562 223.267494 -74.974146
v 11.069981 219.556464 -70.026753
v 14.784644 234.400583 -72.501903
v -0.064562 230.689554 -67.550149
v 12.309251 230.689554 -79.922994
v 9.832284 267.809540 -77.447843
v 6.125494 230.689554 -82.398144
v 8.596163 197.299975 -74.974146
v 14.784644 238.111613 -77.447843
v 13.546948 254.195972 -71.263601
v -0.064562 175.024107 -82.398144
v 16.022340 256.666762 -73.738751
v 8.596163 262.858271 -78.684692
v 12.309251 214.624574 -76.210995
v 13.546948 266.569301 -79.922994
v 16.022340 267.809540 -74.974146
v 11.069981 241.822643 -82.398144
f 148 137 160 
f 130 131 132 
f 130 132 133 
f 137 133 139 
f 133 132 141 
f 131 130 143 
f 130 137 143 
f 138 131 143 
f 141 132 144 
f 143 134 145 
f 138 143 145 
f 145 134 146 
f 132 131 147 
f 131 138 147 
f 136 142 147 
f 140 137 148 
f 142 136 149 
f 132 147 149 
f 147 142 149 
f 135 139 150 
f 139 133 150 
f 133 141 150 
f 141 135 150 
f 143 137 151 
f 134 143 151 
f 148 129 152 
f 140 148 152 
f 138 145 153 
f 145 146 153 
f 147 138 153 
f 136 147 153 
f 130 133 154 
f 137 130 154 
f 133 137 154 
f 152 129 155 
f 146 152 155 
f 136 153 155 
f 153 146 155 
f 135 141 156 
f 144 132 156 
f 141 144 156 
f 149 135 156 
f 132 149 156 
f 137 140 157 
f 146 134 157 
f 151 137 157 
f 134 151 157 
f 140 152 157 
f 152 146 157 
f 129 139 158 
f 139 135 158 
f 135 149 158 
f 158 149 159 
f 149 136 159 
f 155 129 159 
f 136 155 159 
f 129 158 159 
f 139 129 160 
f 137 139 160 
f 129 148 160 
o convex_5
v 3.645983 161.404240 -161.594232
v 4.883801 166.353088 -151.697023
v 3.645983 166.353088 -151.697023
v 3.645983 184.905814 -165.309017
v -3.776924 152.745575 -151.697023
v 3.645983 187.383871 -152.936172
v 9.835070 179.956967 -164.069867
v 7.359435 155.219998 -151.697023
v 1.173013 178.721572 -164.069867
v 8.597253 163.878664 -151.697023
v 8.597253 161.404240 -159.121262
v 1.173013 163.878664 -162.832050
v -0.063472 150.267518 -152.936172
v 6.120286 187.383871 -155.411807
v 7.359435 175.008120 -165.309017
v -3.776924 156.455393 -152.936172
v 9.835070 181.195995 -160.357747
v 8.597253 184.905814 -164.069867
v 4.883801 153.980970 -155.411807
v 2.410831 173.772725 -165.309017
v -1.301289 156.455393 -157.884777
v 3.645983 187.383871 -159.121262
v 8.597253 165.117693 -161.594232
v 9.835070 173.772725 -159.121262
v -2.539107 157.694422 -156.648292
v 4.883801 157.694422 -159.121262
v 6.120286 152.745575 -151.697023
v -3.776924 156.455393 -151.697023
v 4.883801 187.383871 -152.936172
v 8.597253 183.670419 -165.309017
v 9.835070 176.247148 -164.069867
v 6.120286 168.823878 -164.069867
f 175 183 192 
f 162 163 165 
f 162 165 168 
f 162 168 170 
f 170 168 171 
f 174 177 178 
f 177 167 178 
f 169 164 180 
f 172 169 180 
f 164 175 180 
f 172 161 181 
f 173 165 181 
f 164 169 182 
f 169 166 182 
f 166 174 182 
f 174 178 182 
f 178 164 182 
f 170 171 184 
f 167 177 184 
f 177 170 184 
f 169 172 185 
f 165 176 185 
f 176 169 185 
f 172 181 185 
f 181 165 185 
f 171 179 186 
f 179 173 186 
f 181 161 186 
f 173 181 186 
f 161 183 186 
f 183 171 186 
f 168 165 187 
f 171 168 187 
f 165 173 187 
f 179 171 187 
f 173 179 187 
f 165 163 188 
f 163 166 188 
f 166 169 188 
f 176 165 188 
f 169 176 188 
f 163 162 189 
f 166 163 189 
f 162 170 189 
f 174 166 189 
f 170 177 189 
f 177 174 189 
f 175 164 190 
f 164 178 190 
f 178 167 190 
f 171 183 191 
f 183 175 191 
f 184 171 191 
f 167 184 191 
f 175 190 191 
f 190 167 191 
f 161 172 192 
f 172 180 192 
f 180 175 192 
f 183 161 192 
o convex_6
v 4.885133 205.946893 -131.896547
v 2.410952 199.758896 -119.523218
v 1.173013 199.758896 -119.523218
v 4.885133 187.387505 -130.658730
v -1.302016 187.387505 -129.420912
v 6.122224 187.387505 -122.000064
v 7.360162 208.420711 -124.474487
v -0.064077 208.420711 -129.420912
v -1.302016 187.387505 -123.236670
v 7.360162 203.470773 -130.658730
v 2.410952 210.896830 -125.709882
v 1.173013 200.996956 -131.896547
v -0.064077 198.527740 -119.523218
v 4.885133 210.896830 -129.420912
v 2.410952 187.387505 -120.762247
v 6.122224 205.946893 -122.000064
v 6.122224 187.387505 -129.420912
v -1.302016 196.051621 -126.946489
v 7.360162 199.758896 -124.474487
v 1.173013 209.658770 -130.658730
v -0.064077 207.182651 -125.709882
v -0.064077 187.387505 -130.658730
v 2.410952 208.420711 -123.236670
v 4.885133 187.387505 -120.762247
v -0.064077 193.577803 -119.523218
v 6.122224 202.235015 -131.896547
v -1.302016 196.051621 -129.420912
v 1.173013 205.946893 -131.896547
v 6.122224 209.658770 -129.420912
v 6.122224 209.658770 -124.474487
v -1.302016 193.577803 -124.474487
v 7.360162 204.708833 -130.658730
f 221 199 224 
f 197 196 198 
f 197 198 201 
f 194 195 205 
f 201 198 207 
f 195 194 208 
f 198 196 209 
f 197 201 210 
f 202 199 211 
f 208 198 211 
f 199 208 211 
f 198 209 211 
f 209 202 211 
f 200 203 212 
f 206 193 212 
f 203 206 212 
f 203 200 213 
f 200 210 213 
f 196 197 214 
f 204 196 214 
f 197 204 214 
f 205 195 215 
f 195 208 215 
f 203 213 215 
f 213 205 215 
f 207 198 216 
f 208 194 216 
f 198 208 216 
f 194 205 217 
f 205 201 217 
f 201 207 217 
f 216 194 217 
f 207 216 217 
f 204 193 218 
f 196 204 218 
f 209 196 218 
f 202 209 218 
f 204 197 219 
f 197 210 219 
f 210 200 219 
f 193 204 220 
f 200 212 220 
f 212 193 220 
f 204 219 220 
f 219 200 220 
f 193 206 221 
f 206 199 221 
f 199 206 222 
f 206 203 222 
f 208 199 222 
f 203 215 222 
f 215 208 222 
f 201 205 223 
f 210 201 223 
f 205 213 223 
f 213 210 223 
f 199 202 224 
f 218 193 224 
f 202 218 224 
f 193 221 224 
o convex_7
v 1.173861 194.813319 -119.523218
v 11.072524 244.310390 -82.403231
v 9.833011 244.310390 -82.403231
v 6.123193 226.984477 -82.403231
v -0.064562 198.529476 -119.523218
v 8.595678 229.460300 -82.403231
v 3.648527 204.716609 -115.809402
v 8.595678 243.065211 -84.877897
v 6.123193 230.700633 -82.403231
v 3.648527 203.476276 -108.385405
v 9.833011 234.407100 -89.827229
v -0.064562 196.053653 -117.044918
v 1.173861 201.000453 -119.523218
v 11.072524 243.065211 -84.877897
v 2.411194 212.139232 -102.204191
v 2.411194 197.293987 -119.523218
v 7.360526 224.513500 -84.877897
v 8.595678 233.166766 -93.537410
v 4.885860 223.273166 -87.352563
v 2.411194 201.000453 -119.523218
v 11.072524 241.829722 -82.403231
v 1.173861 204.716609 -115.809402
v 8.595678 240.589389 -87.352563
v 8.595678 243.065211 -82.403231
v 3.648527 214.610209 -96.015710
v 2.411194 197.293987 -115.809402
v 4.884770 209.663409 -102.204191
v -0.064562 194.813319 -118.280434
v 6.122103 215.845698 -105.907105
v 4.885860 224.513500 -97.247592
v -0.064562 198.529476 -117.044918
v 9.833011 234.407100 -88.591713
f 253 235 256 
f 226 227 228 
f 226 228 230 
f 227 226 232 
f 228 227 233 
f 225 229 237 
f 232 226 238 
f 225 237 240 
f 230 228 241 
f 228 233 243 
f 233 239 243 
f 238 231 244 
f 231 240 244 
f 240 237 244 
f 237 242 244 
f 242 238 244 
f 226 230 245 
f 238 226 245 
f 235 238 245 
f 237 229 246 
f 237 246 247 
f 232 238 247 
f 242 237 247 
f 238 242 247 
f 246 232 247 
f 227 232 248 
f 233 227 248 
f 232 239 248 
f 239 233 248 
f 241 228 249 
f 234 241 249 
f 228 243 249 
f 243 236 249 
f 225 240 250 
f 240 234 250 
f 230 241 251 
f 241 234 251 
f 229 225 252 
f 236 229 252 
f 234 249 252 
f 249 236 252 
f 225 250 252 
f 250 234 252 
f 231 238 253 
f 238 235 253 
f 234 240 253 
f 240 231 253 
f 229 239 254 
f 239 232 254 
f 246 229 254 
f 232 246 254 
f 229 236 255 
f 239 229 255 
f 236 243 255 
f 243 239 255 
f 245 230 256 
f 235 245 256 
f 251 234 256 
f 230 251 256 
f 234 253 256 
o convex_8
v 4.885254 87.163055 -48.988339
v -16.151464 114.369845 -57.650517
v -16.151464 114.369845 -56.411125
v -6.248804 136.644622 -57.650517
v 2.408045 95.824022 -57.650517
v -11.199104 93.350204 -47.750885
v -8.723954 108.198320 -47.750885
v -9.961529 94.584509 -57.650517
v 4.885254 94.584509 -47.750885
v -16.151464 126.744142 -56.411125
v -7.486379 137.884135 -56.411125
v -0.065046 84.678821 -48.988339
v -2.540197 106.958807 -47.750885
v -13.674255 105.719294 -48.988339
v -5.017406 85.923542 -47.750885
v -14.913889 104.484989 -56.411125
v -13.674255 132.931291 -56.411125
v -1.302622 93.350204 -57.650517
v 1.172529 104.484989 -57.650517
v -13.674255 132.931291 -57.650517
v -1.302622 116.848871 -51.465185
v -11.199104 94.584509 -55.173671
v 3.647679 85.923542 -47.750885
v -13.674255 99.532145 -51.465185
v 4.885254 92.110691 -51.465185
v -6.248804 87.163055 -50.225793
v -7.486379 93.350204 -57.650517
v -13.674255 100.771658 -57.650517
v -11.199104 105.719294 -47.750885
v 4.885254 94.584509 -48.988339
v -8.723954 137.884135 -56.411125
v -14.913889 109.432625 -51.465185
f 272 280 288 
f 258 260 261 
f 258 261 264 
f 263 262 265 
f 258 259 266 
f 263 265 269 
f 267 263 269 
f 265 262 271 
f 259 258 272 
f 266 270 273 
f 261 257 274 
f 264 261 274 
f 257 268 274 
f 261 260 275 
f 260 258 276 
f 258 266 276 
f 266 273 276 
f 265 260 277 
f 260 267 277 
f 269 265 277 
f 267 269 277 
f 257 265 279 
f 268 257 279 
f 265 271 279 
f 271 268 279 
f 262 270 280 
f 278 262 280 
f 257 261 281 
f 265 257 281 
f 261 275 281 
f 271 262 282 
f 268 271 282 
f 262 278 282 
f 278 264 282 
f 264 274 283 
f 274 268 283 
f 282 264 283 
f 268 282 283 
f 258 264 284 
f 272 258 284 
f 264 278 284 
f 280 272 284 
f 278 280 284 
f 262 263 285 
f 270 262 285 
f 263 273 285 
f 273 270 285 
f 260 265 286 
f 275 260 286 
f 265 281 286 
f 281 275 286 
f 263 267 287 
f 267 260 287 
f 273 263 287 
f 260 276 287 
f 276 273 287 
f 266 259 288 
f 270 266 288 
f 259 272 288 
f 280 270 288 
o convex_9
v 11.071071 78.491551 -39.085799
v -11.201648 94.576515 -47.750885
v -11.201648 94.576515 -46.512462
v -1.301531 103.236755 -47.750885
v 4.884770 90.864153 -27.951620
v -0.062745 74.779189 -27.951620
v -0.062745 83.442336 -47.750885
v 14.784886 77.258942 -27.951620
v -3.776561 85.922089 -27.951620
v -8.726619 104.478085 -46.512462
v 1.173498 74.779189 -37.851253
v 6.121012 90.864153 -47.750885
v 12.309857 74.779189 -36.616706
v -6.249046 85.922089 -47.750885
v 1.173498 100.765723 -46.512462
v 7.359799 89.628637 -27.951620
v -3.776561 79.729974 -32.901436
v -11.201648 101.998332 -46.512462
v 6.121012 85.922089 -47.750885
v 14.784886 74.779189 -27.951620
v 7.359799 74.779189 -39.085799
v -3.776561 104.478085 -46.512462
v 3.645983 97.053361 -47.750885
v -0.062745 74.779189 -36.616706
v -8.726619 88.393121 -44.035616
v -3.776561 83.442336 -27.951620
v 12.309857 82.209727 -27.951620
v -8.726619 104.478085 -47.750885
v 13.546100 79.729974 -31.666889
v -11.201648 95.814938 -45.272101
v -2.537774 87.157605 -27.951620
v 14.784886 76.020519 -30.428466
f 317 296 320 
f 290 292 295 
f 293 294 296 
f 294 293 297 
f 295 292 300 
f 294 299 301 
f 290 295 302 
f 295 299 302 
f 293 296 304 
f 303 292 304 
f 290 291 306 
f 297 298 306 
f 300 289 307 
f 295 300 307 
f 289 301 307 
f 296 294 308 
f 294 301 308 
f 299 295 309 
f 301 299 309 
f 295 307 309 
f 307 301 309 
f 298 293 310 
f 304 292 310 
f 293 304 310 
f 300 292 311 
f 292 303 311 
f 299 294 312 
f 302 299 312 
f 294 305 312 
f 312 305 313 
f 291 290 313 
f 290 302 313 
f 305 291 313 
f 302 312 313 
f 294 297 314 
f 291 305 314 
f 305 294 314 
f 304 296 315 
f 303 304 315 
f 311 303 315 
f 292 290 316 
f 290 306 316 
f 306 298 316 
f 310 292 316 
f 298 310 316 
f 300 311 317 
f 315 296 317 
f 311 315 317 
f 306 291 318 
f 297 306 318 
f 291 314 318 
f 314 297 318 
f 297 293 319 
f 293 298 319 
f 298 297 319 
f 289 300 320 
f 301 289 320 
f 296 308 320 
f 308 301 320 
f 300 317 320 
o convex_10
v 4.883801 84.686573 -5.677448
v -9.964194 100.761242 -6.915871
v -7.488317 93.348872 -10.628960
v 6.121739 93.348872 -27.951620
v -5.012440 124.277350 -5.677448
v -2.538985 79.735303 -27.951620
v 14.784886 77.259669 -13.103626
v 14.784886 77.259669 -27.951620
v 1.174830 74.784034 -14.342049
v -6.250379 121.796870 -8.154294
v -2.538985 85.921968 -27.951620
v -6.250379 92.108632 -5.677448
v 7.359678 90.873237 -5.677448
v 14.784886 74.784034 -27.951620
v -0.063108 74.784034 -27.951620
v 9.833132 74.784034 -10.628960
v -9.964194 111.899176 -6.915871
v -1.301047 116.845601 -5.677448
v -2.538985 119.321236 -9.390537
v 14.784886 78.499908 -25.474774
v -2.538985 87.162208 -5.677448
v -1.301047 77.259669 -20.525443
v 14.784886 74.784034 -13.103626
v -9.964194 111.899176 -5.677448
v 14.784886 78.499908 -14.342049
v 4.883801 93.348872 -27.951620
v -9.964194 101.996637 -8.154294
v 7.359678 74.784034 -10.628960
v 1.174830 108.183302 -18.050777
v -7.488317 93.348872 -6.915871
v -6.250379 124.277350 -6.915871
v 7.359678 87.162208 -5.677448
f 336 343 352 
f 323 322 326 
f 326 324 328 
f 324 326 331 
f 321 325 332 
f 325 321 333 
f 328 327 334 
f 326 328 334 
f 334 329 335 
f 326 334 335 
f 329 334 336 
f 330 331 337 
f 325 333 338 
f 333 327 338 
f 325 338 339 
f 339 338 340 
f 327 328 340 
f 321 332 341 
f 332 329 341 
f 335 329 342 
f 326 335 342 
f 327 333 343 
f 334 327 343 
f 336 334 343 
f 322 332 344 
f 332 325 344 
f 337 322 344 
f 338 327 345 
f 340 338 345 
f 327 340 345 
f 324 331 346 
f 326 322 347 
f 331 326 347 
f 322 337 347 
f 337 331 347 
f 336 321 348 
f 329 336 348 
f 321 341 348 
f 341 329 348 
f 328 324 349 
f 339 340 349 
f 340 328 349 
f 324 346 349 
f 322 323 350 
f 323 326 350 
f 332 322 350 
f 329 332 350 
f 326 342 350 
f 342 329 350 
f 331 330 351 
f 330 337 351 
f 325 339 351 
f 344 325 351 
f 337 344 351 
f 346 331 351 
f 339 349 351 
f 349 346 351 
f 333 321 352 
f 321 336 352 
f 343 333 352 
o convex_11
v 1.172650 92.103787 -0.727632
v -19.863826 134.176740 2.985699
v -14.913768 115.612749 0.510791
v -5.016195 125.507778 -5.677448
v -12.438739 139.126798 14.121816
v 6.122708 93.350205 -5.677448
v -9.961166 99.536506 -5.677448
v -12.438739 110.667778 6.697092
v -7.488680 139.126798 -1.962179
v -18.625040 139.126798 12.883393
v -7.488680 139.126798 6.697092
v -2.541166 109.431535 6.697092
v -2.541166 88.395059 -4.439025
v -19.863826 139.126798 2.985699
v -8.722379 109.431535 7.933577
v -11.199952 110.667778 -5.677448
v 6.122708 93.350205 -3.202540
v -9.961166 139.126798 12.883393
v -18.625040 129.221594 7.933577
v -7.488680 125.507778 -5.677448
v 4.883922 87.153729 -5.677448
v -7.488680 98.300263 1.747276
v -12.438739 124.271535 11.646908
v -9.961166 99.536506 -1.962179
v -1.302379 98.300263 2.985699
v -13.674982 110.667778 2.985699
v -7.488680 120.562807 10.408485
v -19.863826 136.649225 10.408485
v -16.150011 125.507778 10.408485
v 6.122708 90.867545 -3.202540
v -5.016195 90.867545 -5.677448
v -16.150011 137.885468 14.121816
f 362 381 384 
f 355 354 359 
f 356 358 359 
f 358 356 361 
f 357 361 362 
f 361 357 363 
f 358 361 363 
f 362 361 366 
f 359 354 368 
f 356 359 368 
f 354 366 368 
f 358 363 369 
f 363 357 370 
f 369 363 370 
f 364 369 370 
f 361 356 372 
f 366 361 372 
f 356 368 372 
f 368 366 372 
f 359 358 373 
f 353 365 373 
f 365 353 374 
f 367 360 374 
f 360 367 375 
f 374 360 376 
f 364 367 377 
f 374 353 377 
f 367 374 377 
f 354 355 378 
f 355 359 378 
f 371 354 378 
f 360 371 378 
f 359 376 378 
f 376 360 378 
f 367 364 379 
f 370 357 379 
f 364 370 379 
f 357 375 379 
f 375 367 379 
f 366 354 380 
f 362 366 380 
f 354 371 380 
f 380 371 381 
f 371 360 381 
f 360 375 381 
f 362 380 381 
f 358 369 382 
f 369 364 382 
f 373 358 382 
f 353 373 382 
f 364 377 382 
f 377 353 382 
f 359 373 383 
f 373 365 383 
f 365 374 383 
f 376 359 383 
f 374 376 383 
f 357 362 384 
f 375 357 384 
f 381 375 384 
o convex_12
v -6.250379 134.181221 -134.372666
v -0.065773 150.260977 -117.048310
v 4.884285 158.922550 -128.186365
v 1.172165 125.519649 -117.048310
v 7.360162 155.209946 -151.697023
v -6.250379 157.682674 -136.845152
v -9.964194 126.756013 -117.048310
v -5.014136 151.497341 -150.459084
v -5.014136 158.922550 -126.951818
v -2.538259 158.922550 -151.697023
v 2.410104 149.021101 -151.697023
v -8.726256 140.366553 -136.845152
v 2.410104 129.232253 -117.048310
v -2.538259 123.043408 -118.289640
v 7.360162 158.922550 -149.217754
v -9.964194 130.468617 -117.048310
v -6.250379 142.835769 -145.503938
v -3.776197 149.021101 -117.048310
v -8.726256 124.283285 -119.524187
v 6.122224 151.497341 -151.697023
v -0.065773 141.599405 -144.266000
v -1.302016 158.922550 -123.238003
v 7.360162 153.970069 -146.745268
v 1.172165 126.756013 -120.765517
v -7.488317 147.784737 -144.266000
v -3.776197 149.021101 -151.697023
v -8.726256 142.835769 -133.138119
v -5.014136 153.970069 -150.459084
v 2.410104 134.181221 -117.048310
v 7.360162 153.970069 -150.459084
v -1.302016 136.657462 -138.079699
v 7.360162 158.922550 -151.697023
f 399 389 416 
f 388 386 391 
f 393 387 394 
f 390 393 394 
f 394 389 395 
f 386 388 397 
f 388 391 398 
f 394 387 399 
f 391 386 400 
f 393 390 400 
f 396 391 400 
f 400 386 402 
f 393 400 402 
f 391 396 403 
f 385 398 403 
f 398 391 403 
f 401 385 403 
f 396 401 403 
f 395 389 404 
f 401 395 405 
f 395 404 405 
f 386 387 406 
f 387 393 406 
f 402 386 406 
f 393 402 406 
f 387 397 407 
f 399 387 407 
f 389 399 407 
f 388 398 408 
f 405 404 408 
f 392 401 409 
f 401 396 409 
f 394 395 410 
f 395 401 410 
f 401 392 410 
f 400 390 411 
f 396 400 411 
f 390 409 411 
f 409 396 411 
f 390 394 412 
f 409 390 412 
f 392 409 412 
f 410 392 412 
f 394 410 412 
f 387 386 413 
f 397 387 413 
f 386 397 413 
f 397 388 414 
f 404 389 414 
f 407 397 414 
f 389 407 414 
f 388 408 414 
f 408 404 414 
f 398 385 415 
f 385 401 415 
f 401 405 415 
f 408 398 415 
f 405 408 415 
f 389 394 416 
f 394 399 416 
o convex_13
v -2.539591 121.806560 -115.808555
v -1.303106 119.331652 -88.586867
v -7.488196 119.331652 -88.586867
v -1.303106 149.026430 -115.808555
v -9.963831 129.223048 -117.048310
v -9.963831 108.196625 -91.066378
v 1.172529 110.671533 -89.826623
v 2.410346 127.991771 -117.048310
v -11.201648 115.621349 -88.586867
v -0.065289 149.026430 -117.048310
v -8.726013 123.046073 -117.048310
v 1.172529 115.621349 -88.586867
v -2.539591 113.146441 -102.201890
v -3.778741 146.547404 -115.808555
v -3.778741 106.957112 -88.586867
v -11.201648 116.856744 -102.201890
v 1.172529 121.806560 -113.331830
v 2.410346 132.933351 -115.808555
v -0.065289 147.782799 -114.568799
v -9.963831 129.223048 -113.331830
v -6.251711 114.381836 -104.670257
v -9.963831 118.096257 -88.586867
v -0.065289 109.432020 -92.303348
v -11.201648 110.671533 -88.586867
v -3.778741 106.957112 -89.826623
v -9.963831 111.906928 -98.488195
v 1.172529 124.281468 -117.048310
v 2.410346 125.520981 -110.860676
v -2.539591 120.571165 -114.568799
v -9.963831 125.520981 -117.048310
v -8.726013 121.806560 -115.808555
v -3.778741 146.547404 -117.048310
f 421 430 448 
f 418 419 425 
f 424 421 426 
f 421 424 427 
f 418 425 428 
f 423 428 431 
f 428 425 431 
f 424 423 433 
f 424 426 434 
f 428 434 435 
f 419 418 435 
f 420 419 435 
f 426 420 435 
f 418 428 435 
f 434 426 435 
f 425 430 436 
f 430 421 436 
f 421 432 436 
f 432 425 436 
f 419 420 438 
f 425 419 438 
f 420 430 438 
f 430 425 438 
f 423 431 439 
f 433 423 439 
f 429 433 439 
f 422 431 440 
f 431 425 440 
f 425 432 440 
f 432 422 440 
f 431 422 441 
f 422 437 441 
f 437 429 441 
f 439 431 441 
f 429 439 441 
f 422 432 442 
f 437 422 442 
f 417 427 443 
f 427 424 443 
f 424 433 443 
f 423 424 444 
f 428 423 444 
f 424 434 444 
f 434 428 444 
f 433 429 445 
f 429 437 445 
f 417 443 445 
f 443 433 445 
f 421 427 446 
f 432 421 446 
f 432 446 447 
f 427 417 447 
f 442 432 447 
f 437 442 447 
f 417 445 447 
f 445 437 447 
f 446 427 447 
f 420 426 448 
f 426 421 448 
f 430 420 448 
o convex_14
v -3.775955 178.723146 -40.332385
v 1.172892 162.638424 -117.039105
v 2.409377 162.638424 -117.039105
v 2.409377 168.824725 -117.039105
v -6.251832 175.012722 -46.519442
v 3.647800 170.062664 -105.904001
v -3.775955 175.014418 -44.049416
v -6.251832 179.961085 -37.862358
v -0.064562 166.353936 -108.374027
v 2.409377 163.878059 -107.135017
v -6.251832 176.250661 -35.376344
v 3.647800 167.588483 -107.135017
v 3.647800 170.062664 -110.852048
v -5.013409 177.485208 -53.937516
v -0.064562 163.878059 -107.135017
v 3.647800 163.878059 -117.039105
v 1.172892 166.353936 -117.039105
v -5.013409 179.961085 -37.862358
v -0.064562 172.536845 -93.537880
v -5.013409 176.250661 -35.376344
v -6.251832 175.012722 -41.571395
v -5.013409 175.012722 -58.893557
v -1.302016 175.012722 -61.363584
v -0.064562 171.300603 -98.485927
v -1.302016 176.248965 -61.363584
v 3.647800 168.824725 -117.039105
v -5.013409 179.961085 -35.376344
v -3.775955 176.248965 -41.571395
v -3.775955 178.723146 -47.758453
v -0.064562 167.588483 -84.872802
v -6.251832 177.486904 -45.280432
v -0.064562 163.878059 -108.374027
f 463 453 480 
f 451 450 452 
f 450 451 458 
f 456 453 459 
f 455 458 460 
f 454 460 461 
f 450 458 463 
f 451 452 464 
f 458 451 464 
f 460 458 464 
f 461 460 464 
f 452 450 465 
f 450 457 465 
f 461 452 467 
f 462 456 467 
f 458 455 468 
f 459 453 469 
f 453 463 469 
f 468 459 469 
f 457 453 470 
f 465 457 470 
f 462 465 470 
f 460 454 471 
f 452 465 472 
f 465 462 472 
f 467 452 472 
f 462 467 472 
f 454 461 473 
f 449 471 473 
f 471 454 473 
f 452 461 474 
f 464 452 474 
f 461 464 474 
f 456 459 475 
f 466 456 475 
f 468 449 475 
f 459 468 475 
f 449 473 475 
f 473 466 475 
f 455 460 476 
f 449 468 476 
f 468 455 476 
f 471 449 476 
f 460 471 476 
f 456 466 477 
f 461 467 477 
f 467 456 477 
f 473 461 477 
f 466 473 477 
f 463 458 478 
f 458 468 478 
f 469 463 478 
f 468 469 478 
f 453 456 479 
f 456 462 479 
f 470 453 479 
f 462 470 479 
f 457 450 480 
f 453 457 480 
f 450 463 480 
o convex_15
v 3.647800 204.711861 -131.898970
v 3.647800 187.390291 -157.880054
v 3.647800 188.628151 -157.880054
v 6.122708 204.711861 -133.137617
v 4.885254 188.628151 -149.222236
v 6.122708 188.628151 -156.643949
v 6.122708 200.998279 -131.898970
v 3.647800 196.050228 -139.323226
v 6.122708 187.390291 -154.166653
v 3.647800 187.390291 -151.694445
v 3.647800 203.472305 -135.612370
v 3.647800 202.234444 -131.898970
v 4.885254 188.628151 -157.880054
v 4.885254 200.998279 -131.898970
v 3.647800 188.628151 -149.222236
v 6.122708 189.864316 -149.222236
v 6.122708 204.711861 -131.898970
v 6.122708 189.864316 -155.405301
v 4.885254 203.472305 -135.612370
v 6.122708 187.390291 -156.643949
v 3.647800 204.711861 -133.137617
v 4.885254 187.390291 -151.694445
v 6.122708 196.050228 -139.323226
v 4.885254 187.390291 -157.880054
v 3.647800 200.998279 -133.137617
v 4.885254 198.522558 -143.039170
v 6.122708 194.812367 -147.986131
v 3.647800 198.522558 -143.039170
f 491 506 508 
f 483 482 481 
f 486 484 487 
f 481 482 488 
f 486 487 489 
f 488 482 490 
f 482 489 490 
f 483 481 491 
f 487 481 492 
f 481 488 492 
f 482 483 493 
f 485 487 494 
f 487 492 494 
f 488 490 495 
f 490 485 495 
f 485 494 495 
f 494 488 495 
f 489 487 496 
f 484 481 497 
f 481 487 497 
f 487 484 497 
f 484 486 498 
f 486 493 498 
f 491 484 499 
f 489 482 500 
f 486 489 500 
f 493 486 500 
f 481 484 501 
f 491 481 501 
f 484 491 501 
f 485 490 502 
f 490 489 502 
f 496 485 502 
f 489 496 502 
f 487 485 503 
f 485 496 503 
f 496 487 503 
f 482 493 504 
f 500 482 504 
f 493 500 504 
f 492 488 505 
f 488 494 505 
f 494 492 505 
f 493 483 506 
f 484 493 506 
f 491 499 506 
f 499 484 506 
f 493 484 507 
f 484 498 507 
f 498 493 507 
f 483 491 508 
f 506 483 508 
o convex_16
v -3.776924 158.931513 -145.510086
v 2.410346 203.473680 -131.900060
v 2.410346 203.473680 -133.138392
v 1.172408 158.931513 -147.982874
v -2.538985 161.403897 -151.693995
v -1.301653 158.931513 -143.035359
v -0.064925 199.758563 -131.900060
v 1.172408 161.403897 -151.693995
v 2.410346 197.286178 -131.900060
v -2.538985 170.063784 -147.982874
v -3.776924 158.931513 -143.035359
v -0.064925 196.043445 -131.900060
v -0.064925 197.286178 -135.611180
v -2.538985 158.931513 -151.693995
v -3.776924 161.403897 -144.273691
v -0.065531 165.114655 -150.457600
v 2.410346 193.571060 -135.613118
v -0.064925 178.728032 -136.849512
v 1.172408 203.473680 -133.138392
v 1.172408 158.931513 -151.693995
v -0.064925 199.758563 -133.138392
v 2.410346 200.996935 -134.374786
v -0.064925 171.306517 -139.324239
v -2.538985 167.587039 -149.219268
v -2.538985 166.353027 -140.562571
v 1.172408 187.383558 -134.374786
v 1.172408 200.996935 -134.374786
v -3.776924 161.403897 -143.035359
v 1.172408 176.255647 -145.506210
v -1.301653 165.114655 -150.457600
v -3.776924 160.165525 -145.510086
v 1.172408 203.473680 -131.900060
f 527 515 540 
f 509 512 514 
f 511 510 517 
f 510 515 517 
f 509 514 519 
f 517 515 520 
f 515 519 520 
f 512 509 522 
f 509 513 522 
f 513 516 522 
f 509 519 523 
f 516 513 524 
f 511 517 525 
f 517 512 525 
f 510 511 527 
f 518 521 527 
f 512 522 528 
f 522 516 528 
f 516 525 528 
f 525 512 528 
f 521 518 529 
f 518 523 529 
f 523 515 529 
f 515 527 529 
f 527 521 529 
f 511 525 530 
f 525 516 530 
f 527 511 530 
f 514 512 531 
f 512 517 531 
f 518 527 532 
f 519 514 533 
f 520 519 533 
f 514 526 533 
f 526 520 533 
f 517 520 534 
f 526 514 534 
f 520 526 534 
f 514 531 534 
f 531 517 534 
f 527 530 535 
f 532 527 535 
f 519 515 536 
f 515 523 536 
f 523 519 536 
f 516 524 537 
f 530 516 537 
f 535 530 537 
f 535 537 538 
f 524 513 538 
f 513 532 538 
f 532 535 538 
f 537 524 538 
f 513 509 539 
f 509 523 539 
f 523 518 539 
f 532 513 539 
f 518 532 539 
f 515 510 540 
f 510 527 540 
o convex_17
v -16.151222 196.050410 -66.312695
v -16.151222 203.473680 -60.125425
v -17.388555 203.473680 -60.125425
v -16.151222 196.050410 -61.363363
v -13.676556 197.287864 -62.601302
v -16.151222 202.236226 -63.836818
v -18.625403 203.473680 -62.601302
v -17.388555 197.287864 -61.363363
v -17.388555 196.050410 -65.074151
v -14.914374 197.287864 -66.312695
v -14.914374 202.236226 -62.601302
v -14.914374 200.998772 -60.125425
v -17.388555 198.525318 -60.125425
v -13.676556 196.050410 -62.601302
v -18.625403 202.236226 -61.363363
v -17.388555 199.762045 -65.074151
v -14.914374 196.050410 -61.363363
v -16.151222 203.473680 -62.601302
v -13.676556 197.287864 -63.836818
v -14.914374 202.236226 -60.125425
v -14.914374 196.050410 -66.312695
v -16.151222 198.525318 -60.125425
v -17.388555 196.050410 -63.836818
v -14.914374 200.998772 -63.836818
v -16.151222 197.287864 -66.312695
v -18.625403 202.236226 -62.601302
v -18.625403 203.473680 -61.363363
v -13.676556 196.050410 -63.836818
v -17.388555 202.236226 -63.836818
f 565 556 569 
f 543 542 547 
f 541 544 549 
f 542 543 552 
f 548 544 553 
f 552 543 553 
f 544 541 554 
f 545 552 554 
f 553 543 555 
f 548 553 555 
f 549 547 556 
f 541 549 556 
f 553 544 557 
f 544 554 557 
f 554 552 557 
f 547 542 558 
f 546 547 558 
f 542 551 558 
f 551 546 558 
f 551 545 559 
f 545 554 559 
f 551 542 560 
f 545 551 560 
f 542 552 560 
f 552 545 560 
f 541 550 561 
f 554 541 561 
f 550 559 561 
f 552 553 562 
f 553 557 562 
f 557 552 562 
f 544 548 563 
f 549 544 563 
f 555 549 563 
f 548 555 563 
f 550 546 564 
f 546 551 564 
f 551 559 564 
f 559 550 564 
f 550 541 565 
f 546 550 565 
f 541 556 565 
f 547 549 566 
f 555 547 566 
f 549 555 566 
f 543 547 567 
f 555 543 567 
f 547 555 567 
f 559 554 568 
f 554 561 568 
f 561 559 568 
f 547 546 569 
f 556 547 569 
f 546 565 569 
o convex_18
v -23.576188 173.785684 -57.650517
v -19.863826 228.213798 -47.750885
v -21.100311 228.213798 -47.750885
v -21.100311 177.494776 -47.750885
v -13.676556 161.407995 -57.650517
v -16.152433 219.552225 -57.650517
v -23.576188 229.450162 -53.936217
v -17.390856 228.213798 -48.988339
v -23.576188 184.919985 -47.750885
v -13.676556 172.549320 -55.173671
v -21.100311 217.079497 -57.650517
v -19.863826 162.651384 -56.411125
v -23.576188 230.686526 -48.988339
v -18.626372 231.922889 -53.936217
v -13.676556 161.407995 -56.411125
v -22.337765 177.494776 -47.750885
v -23.576188 194.817921 -57.650517
v -18.626372 223.261317 -47.750885
v -19.863826 233.166278 -48.988339
v -16.152433 191.108829 -51.465185
v -13.676556 177.494776 -56.411125
v -22.337765 233.166278 -52.700701
v -22.337765 228.213798 -55.173671
v -23.576188 176.258412 -52.700701
v -19.863826 162.651384 -57.650517
v -22.337765 226.977434 -47.750885
v -17.390856 161.407995 -56.411125
v -13.676556 177.494776 -57.650517
v -22.337765 168.833204 -56.411125
v -17.390856 229.450162 -52.700701
v -18.626372 233.166278 -50.225793
v -16.152433 219.552225 -56.411125
f 599 577 601 
f 571 572 573 
f 574 570 575 
f 573 572 578 
f 576 570 578 
f 575 570 580 
f 576 578 582 
f 579 573 584 
f 574 579 584 
f 573 578 585 
f 584 573 585 
f 570 576 586 
f 580 570 586 
f 576 580 586 
f 571 573 587 
f 577 571 587 
f 572 571 588 
f 571 577 588 
f 582 572 588 
f 573 579 589 
f 579 577 589 
f 587 573 589 
f 577 587 589 
f 579 574 590 
f 577 579 590 
f 576 582 591 
f 582 588 591 
f 575 580 592 
f 580 576 592 
f 583 575 592 
f 576 591 592 
f 591 583 592 
f 578 570 593 
f 585 578 593 
f 570 574 594 
f 578 572 595 
f 572 582 595 
f 582 578 595 
f 574 584 596 
f 585 581 596 
f 584 585 596 
f 594 574 596 
f 581 594 596 
f 574 575 597 
f 590 574 597 
f 575 590 597 
f 581 585 598 
f 593 570 598 
f 585 593 598 
f 570 594 598 
f 594 581 598 
f 575 583 599 
f 588 577 600 
f 583 591 600 
f 591 588 600 
f 577 599 600 
f 599 583 600 
f 590 575 601 
f 577 590 601 
f 575 599 601 
o convex_19
v -16.152416 188.622052 4.218793
v -22.338025 177.487873 -47.750885
v -23.575825 187.384719 -47.750885
v -19.863273 196.049683 -45.272585
v -23.575825 196.049683 -44.036100
v -17.389368 183.678171 6.697092
v -14.915464 183.678171 5.455278
v -19.863273 178.728839 -41.557800
v -22.338025 177.487873 -42.799615
v -17.389368 187.384719 6.697092
v -14.915464 187.384719 6.697092
v -21.101073 177.487873 -47.750885
v -21.101073 196.049683 -47.750885
v -22.338025 179.964355 -39.084830
v -18.625473 187.384719 -1.974292
v -17.389368 181.201688 -10.629687
v -21.101073 196.049683 -41.557800
v -18.625473 189.857568 -3.210777
v -23.575825 187.384719 -46.509070
v -23.575825 196.049683 -47.750885
v -16.152416 188.622052 -8.156717
v -16.152416 189.857568 -3.210777
v -23.575825 193.573200 -44.036100
v -19.863273 194.808716 -45.272585
v -21.101073 177.487873 -42.799615
v -22.338025 194.808716 -34.133561
v -17.389368 182.440838 -0.732477
v -16.152416 189.857568 -8.156717
v -18.625473 182.442655 -4.447262
v -14.915464 183.678171 6.697092
v -19.863273 196.049683 -42.799615
v -17.389368 189.857568 -20.526896
f 625 622 633 
f 604 603 610 
f 602 611 612 
f 611 607 612 
f 603 604 613 
f 609 608 613 
f 610 603 613 
f 606 605 614 
f 613 604 614 
f 605 613 614 
f 607 611 616 
f 613 608 617 
f 605 606 618 
f 611 602 619 
f 606 616 619 
f 616 611 619 
f 606 604 620 
f 604 610 620 
f 610 615 620 
f 615 616 620 
f 604 606 621 
f 606 614 621 
f 614 604 621 
f 608 609 622 
f 602 612 623 
f 618 619 623 
f 619 602 623 
f 616 606 624 
f 606 620 624 
f 620 616 624 
f 613 605 625 
f 609 613 625 
f 605 622 625 
f 610 613 626 
f 617 610 626 
f 613 617 626 
f 618 606 627 
f 606 619 627 
f 619 618 627 
f 607 610 628 
f 610 617 628 
f 612 608 629 
f 622 605 629 
f 608 622 629 
f 623 612 629 
f 605 623 629 
f 610 607 630 
f 615 610 630 
f 607 616 630 
f 616 615 630 
f 612 607 631 
f 608 612 631 
f 617 608 631 
f 607 628 631 
f 628 617 631 
f 605 618 632 
f 623 605 632 
f 618 623 632 
f 622 609 633 
f 609 625 633 
o convex_20
v 1.172892 115.613718 -87.348323
v -11.201648 106.953478 -83.638142
v -11.201648 106.953478 -82.399597
v -9.963710 119.327534 -88.586867
v -2.539712 106.953478 -88.586867
v -0.065046 115.613718 -82.399597
v -0.065046 105.717962 -82.399597
v -9.963710 115.613718 -82.399597
v -11.201648 109.428870 -88.586867
v -0.065046 118.087657 -88.586867
v -6.251105 104.478085 -83.638142
v 1.172892 110.667293 -88.586867
v -11.201648 118.087657 -87.348323
v -3.777651 116.852141 -82.399597
v -8.725771 106.953478 -88.586867
v 1.172892 108.191901 -82.399597
v -9.963710 119.327534 -87.348323
v -11.201648 114.376748 -82.399597
v -1.302985 118.087657 -86.110990
v -0.065046 105.717962 -83.638142
v -9.963710 105.717962 -84.875474
v -6.251105 104.478085 -82.399597
v 1.172892 113.138325 -82.399597
v -6.251105 119.327534 -87.348323
v -0.065046 116.852141 -83.638142
v -3.777651 104.478085 -83.638142
v -7.489044 116.852141 -82.399597
v -0.065046 108.191901 -88.586867
v -11.201648 118.087657 -88.586867
v 1.172892 115.613718 -88.586867
v -9.963710 105.717962 -82.399597
v -6.251105 119.327534 -88.586867
f 657 643 665 
f 639 636 640 
f 636 639 641 
f 635 636 642 
f 637 638 642 
f 638 637 643 
f 638 643 645 
f 642 636 646 
f 641 639 647 
f 642 638 648 
f 638 644 648 
f 639 640 649 
f 645 634 649 
f 637 646 650 
f 636 641 651 
f 646 636 651 
f 641 650 651 
f 650 646 651 
f 649 640 653 
f 645 649 653 
f 636 635 654 
f 635 642 654 
f 642 648 654 
f 648 644 654 
f 640 636 655 
f 654 644 655 
f 649 634 656 
f 639 649 656 
f 637 650 657 
f 650 647 657 
f 652 643 657 
f 652 657 658 
f 634 643 658 
f 647 639 658 
f 643 652 658 
f 656 634 658 
f 639 656 658 
f 657 647 658 
f 644 638 659 
f 653 640 659 
f 638 653 659 
f 640 655 659 
f 655 644 659 
f 641 647 660 
f 650 641 660 
f 647 650 660 
f 638 645 661 
f 653 638 661 
f 645 653 661 
f 637 642 662 
f 646 637 662 
f 642 646 662 
f 643 634 663 
f 634 645 663 
f 645 643 663 
f 636 654 664 
f 655 636 664 
f 654 655 664 
f 643 637 665 
f 637 657 665 
o convex_21
v -7.489286 139.132370 0.511881
v -8.727709 182.437689 10.409454
v -12.439102 182.437689 10.409454
v -7.489286 182.437689 6.696366
v -9.964194 141.607928 -0.727632
v -12.439102 139.132370 2.985457
v -9.964194 142.841469 4.221700
v -11.200679 177.486572 6.696366
v -12.439102 173.773234 10.409454
v -7.489286 176.248792 9.171031
v -12.439102 145.321266 1.749214
v -7.489286 145.321266 -0.727632
v -8.727709 139.132370 2.985457
v -8.727709 182.437689 6.696366
v -11.200679 173.773234 10.409454
v -12.439102 182.437689 9.171031
v -8.727709 145.321266 -0.727632
v -8.727709 157.690581 6.696366
v -9.964194 139.132370 -0.727632
v -7.489286 140.370149 1.749214
v -7.489286 139.132370 -0.727632
v -7.489286 182.437689 9.171031
v -12.439102 139.132370 1.749214
v -11.200679 142.841469 4.221700
v -8.727709 179.957891 10.409454
v -11.200679 182.437689 7.933698
v -12.439102 144.083487 4.221700
v -7.489286 157.690581 5.459033
v -8.727709 165.108779 7.933698
v -7.489286 170.059896 7.933698
v -8.727709 151.501685 5.459033
f 695 675 696 
f 668 667 669 
f 667 668 674 
f 668 671 674 
f 666 669 675 
f 671 668 676 
f 673 670 676 
f 669 666 677 
f 671 666 678 
f 672 671 678 
f 668 669 679 
f 669 677 679 
f 667 674 680 
f 674 672 680 
f 676 668 681 
f 673 676 681 
f 668 679 681 
f 670 673 682 
f 677 670 682 
f 673 679 682 
f 679 677 682 
f 680 672 683 
f 666 671 684 
f 676 670 684 
f 670 677 684 
f 666 675 685 
f 678 666 685 
f 677 666 686 
f 666 684 686 
f 684 677 686 
f 669 667 687 
f 667 675 687 
f 675 669 687 
f 671 676 688 
f 684 671 688 
f 676 684 688 
f 671 672 689 
f 672 674 689 
f 675 667 690 
f 667 680 690 
f 679 673 691 
f 673 681 691 
f 681 679 691 
f 674 671 692 
f 671 689 692 
f 689 674 692 
f 685 675 693 
f 678 685 693 
f 683 675 694 
f 680 683 694 
f 675 690 694 
f 690 680 694 
f 693 675 695 
f 678 693 695 
f 672 678 696 
f 683 672 696 
f 675 683 696 
f 678 695 696 
o convex_22
v 1.171196 167.585333 -82.399840
v -9.964194 119.327534 -88.586625
v -6.251590 119.327534 -88.586625
v 1.171196 172.533211 -84.874917
v -1.302258 178.725327 -82.399840
v -9.964194 120.565957 -86.111548
v -6.251590 121.810194 -86.111548
v -2.538985 160.166423 -82.399840
v -1.302258 172.533211 -84.874917
v -9.964194 123.042803 -88.586625
v 2.410346 176.248481 -83.637681
v -9.964194 125.519649 -86.111548
v -1.302258 178.725327 -83.637681
v 2.410346 178.725327 -82.399840
v -3.776924 135.415405 -84.875523
v -6.251590 123.042803 -88.586625
v -2.538985 170.056365 -82.399840
v -1.302258 160.166423 -82.399840
v -8.726256 132.944373 -87.348784
v -6.251590 119.327534 -87.348784
v 2.410346 178.725327 -83.637681
v -2.540197 142.840129 -86.111548
v -5.013651 126.758072 -86.111548
v -3.776924 146.549584 -83.637681
v -3.776924 135.415405 -87.348784
v -8.725044 120.565957 -86.111548
v -9.964194 125.519649 -87.348784
v -9.964194 119.327534 -87.348784
v 2.410346 176.248481 -82.399840
v 1.171196 171.294788 -84.874917
v -5.013651 126.758072 -87.348784
v -5.013651 146.549584 -83.637681
f 720 704 728 
f 697 701 704 
f 699 698 706 
f 698 702 706 
f 705 700 706 
f 702 704 708 
f 706 702 708 
f 700 705 709 
f 705 706 709 
f 708 701 709 
f 709 701 710 
f 701 697 710 
f 700 699 712 
f 699 706 712 
f 706 700 712 
f 704 701 713 
f 701 708 713 
f 708 704 713 
f 697 704 714 
f 711 697 714 
f 703 711 714 
f 709 706 715 
f 698 699 716 
f 707 700 717 
f 700 709 717 
f 709 710 717 
f 710 707 717 
f 707 697 718 
f 697 711 719 
f 711 703 719 
f 703 716 719 
f 718 697 719 
f 703 714 720 
f 714 704 720 
f 707 718 721 
f 702 716 722 
f 716 703 722 
f 720 702 722 
f 703 720 722 
f 706 708 723 
f 708 709 723 
f 715 706 723 
f 709 715 723 
f 702 698 724 
f 698 716 724 
f 716 702 724 
f 697 707 725 
f 710 697 725 
f 707 710 725 
f 699 700 726 
f 700 707 726 
f 721 699 726 
f 707 721 726 
f 716 699 727 
f 719 716 727 
f 718 719 727 
f 699 721 727 
f 721 718 727 
f 704 702 728 
f 702 720 728 
o convex_23
v -1.304007 225.745188 -65.075766
v -19.863826 207.191614 -58.888280
v -19.863826 207.191614 -57.651001
v -14.912345 222.033311 -60.125560
v -2.542362 219.559694 -68.787603
v -16.150700 202.241475 -57.651001
v -18.623534 203.476829 -62.600118
v -1.304007 229.454159 -68.787603
v -13.675928 220.795049 -57.651001
v -0.065652 220.795049 -67.548144
v -19.863826 214.609555 -58.888280
v -18.623534 199.762045 -58.888280
v -0.065652 229.454159 -66.310865
v -18.623534 205.950446 -62.600118
v -5.015196 214.612462 -66.310865
v -16.150700 220.795049 -57.651001
v -0.065652 222.030404 -66.310865
v -16.150700 203.476829 -62.600118
v -19.861888 199.762045 -57.651001
v -13.675928 217.080265 -57.651001
v -2.542362 229.454159 -66.310865
v -0.065652 220.795049 -68.787603
v -5.015196 214.612462 -63.837397
v -19.863826 214.609555 -57.651001
v -19.863826 210.903491 -60.125560
v -2.542362 223.268665 -68.787603
v -0.065652 229.454159 -68.787603
v -19.861888 199.762045 -58.888280
v -17.387117 219.556788 -58.888280
v -1.304007 219.559694 -68.787603
v -1.304007 228.218804 -65.075766
v -7.489967 220.795049 -61.362839
f 759 737 760 
f 731 734 737 
f 730 731 739 
f 732 736 739 
f 733 735 742 
f 734 740 743 
f 731 737 744 
f 737 741 744 
f 741 729 745 
f 738 741 745 
f 740 735 746 
f 743 740 746 
f 731 730 747 
f 734 731 747 
f 740 734 747 
f 737 734 748 
f 736 732 749 
f 741 736 749 
f 732 744 749 
f 744 741 749 
f 733 736 750 
f 741 738 750 
f 738 743 750 
f 743 738 751 
f 734 743 751 
f 745 734 751 
f 738 745 751 
f 739 731 752 
f 731 744 752 
f 730 739 753 
f 739 736 753 
f 742 735 753 
f 736 742 753 
f 736 733 754 
f 733 742 754 
f 742 736 754 
f 736 741 755 
f 750 736 755 
f 741 750 755 
f 735 740 756 
f 747 730 756 
f 740 747 756 
f 730 753 756 
f 753 735 756 
f 732 739 757 
f 744 732 757 
f 739 752 757 
f 752 744 757 
f 735 733 758 
f 746 735 758 
f 743 746 758 
f 733 750 758 
f 750 743 758 
f 741 737 759 
f 729 741 759 
f 745 729 760 
f 734 745 760 
f 748 734 760 
f 737 748 760 
f 729 759 760 
o convex_24
v -21.100311 158.930544 -66.310394
v -18.626857 194.812229 -57.652091
v -21.100311 194.812229 -57.652091
v -17.388918 158.930544 -57.652091
v -17.388918 155.222058 -73.735844
v -23.576188 175.009331 -57.652091
v -18.626857 141.601706 -63.839967
v -23.576188 186.145206 -58.889667
v -17.388918 192.332960 -58.889667
v -18.626857 155.222058 -73.735844
v -17.388918 141.601706 -68.785544
v -21.100311 194.812229 -58.889667
v -18.626857 141.601706 -68.785544
v -22.338250 166.357933 -57.652091
v -17.388918 163.883873 -71.260694
v -22.338250 193.567386 -58.889667
v -17.388918 141.601706 -63.839967
v -21.100311 156.451275 -63.839967
v -18.626857 194.812229 -58.889667
v -19.864795 160.164970 -57.652091
v -18.626857 163.883873 -71.260694
v -17.388918 192.332960 -57.652091
v -18.626857 146.555035 -71.260694
v -23.576188 186.145206 -57.652091
v -23.576188 175.009331 -58.889667
v -19.864795 153.977215 -70.023119
v -22.338250 165.118299 -58.889667
v -17.388918 153.977215 -73.735844
v -22.338250 193.567386 -57.652091
v -18.626857 158.930544 -57.652091
v -18.626857 153.977215 -73.735844
v -17.388918 146.555035 -71.260694
f 783 788 792 
f 762 763 764 
f 764 763 766 
f 764 765 769 
f 765 764 771 
f 763 762 772 
f 771 767 773 
f 764 766 774 
f 769 765 775 
f 765 770 775 
f 770 768 776 
f 763 772 776 
f 764 767 777 
f 771 764 777 
f 767 771 777 
f 761 773 778 
f 773 767 778 
f 762 769 779 
f 772 762 779 
f 769 775 779 
f 775 772 779 
f 764 774 780 
f 774 767 780 
f 775 770 781 
f 772 775 781 
f 776 772 781 
f 770 776 781 
f 762 764 782 
f 769 762 782 
f 764 769 782 
f 771 773 783 
f 766 763 784 
f 768 766 784 
f 776 768 784 
f 766 768 785 
f 761 778 785 
f 768 770 786 
f 773 761 786 
f 783 773 786 
f 785 768 786 
f 761 785 786 
f 774 766 787 
f 767 774 787 
f 778 767 787 
f 766 785 787 
f 785 778 787 
f 770 765 788 
f 765 771 788 
f 763 776 789 
f 784 763 789 
f 776 784 789 
f 767 764 790 
f 764 780 790 
f 780 767 790 
f 786 770 791 
f 783 786 791 
f 770 788 791 
f 788 783 791 
f 771 783 792 
f 788 771 792 
o convex_25
v -16.151222 146.559274 -73.735360
v -14.913526 191.093084 -57.652576
v -13.676556 196.049683 -62.602392
v -9.964194 131.708373 -57.652576
v -9.964194 173.767033 -78.685176
v -17.388918 131.708373 -58.890030
v -16.151222 194.802661 -67.552208
v -9.964194 131.708373 -67.552208
v -17.388918 161.410176 -74.972814
v -17.388918 188.617934 -57.652576
v -9.964194 181.192483 -68.785544
v -17.388918 131.708373 -66.314754
v -9.964194 146.559274 -57.652576
v -12.439587 157.694301 -77.447722
v -14.913526 131.708373 -57.652576
v -11.201890 173.767033 -78.685176
v -9.964194 156.459875 -76.210268
v -13.676556 196.049683 -65.077300
v -9.964194 161.410176 -61.364938
v -14.913526 132.949097 -68.785544
v -16.151222 196.049683 -62.602392
v -16.151222 156.459875 -76.210268
v -17.388918 149.034424 -73.735360
v -17.388918 158.935025 -57.652576
v -9.964194 176.242183 -77.447722
v -9.964194 134.183523 -68.785544
v -16.151222 162.644602 -76.210268
v -12.439587 192.327511 -66.314754
v -9.964194 167.582306 -78.685176
v -16.151222 191.093084 -68.785544
v -17.388918 188.617934 -58.890030
v -13.676556 157.694301 -77.447722
f 821 806 824 
f 797 796 800 
f 796 798 800 
f 796 794 802 
f 801 798 802 
f 796 797 803 
f 800 798 804 
f 798 801 804 
f 794 796 805 
f 796 803 805 
f 798 796 807 
f 796 802 807 
f 797 800 809 
f 795 794 811 
f 803 795 811 
f 794 805 811 
f 805 803 811 
f 804 793 812 
f 800 804 812 
f 793 806 812 
f 794 795 813 
f 802 794 813 
f 795 810 813 
f 810 799 813 
f 793 804 815 
f 804 801 815 
f 814 793 815 
f 801 814 815 
f 802 798 816 
f 798 807 816 
f 807 802 816 
f 803 797 817 
f 797 808 817 
f 808 799 817 
f 799 810 817 
f 809 800 818 
f 806 809 818 
f 800 812 818 
f 812 806 818 
f 814 801 819 
f 795 803 820 
f 810 795 820 
f 803 817 820 
f 817 810 820 
f 808 797 821 
f 797 809 821 
f 809 806 821 
f 801 799 822 
f 799 808 822 
f 819 801 822 
f 808 819 822 
f 799 801 823 
f 801 802 823 
f 813 799 823 
f 802 813 823 
f 806 793 824 
f 793 814 824 
f 819 808 824 
f 814 819 824 
f 808 821 824 
o convex_26
v -1.302016 177.491337 -82.399597
v -1.302016 176.255872 -68.788935
v -0.064562 191.100827 -70.026632
v -9.964194 179.967111 -74.976084
v -1.302985 217.084342 -74.976084
v -9.964194 167.588240 -68.788935
v -0.064562 168.828550 -82.399597
v -9.964194 167.588240 -78.685176
v -0.064562 167.588240 -70.026632
v -0.064562 198.523304 -81.160569
v -9.964194 177.491337 -78.685176
v -0.064562 213.368259 -72.500692
v -9.964194 171.304324 -68.788935
v -5.014378 192.336291 -79.921540
v -1.302985 217.084342 -73.738388
v -2.539470 171.304324 -82.399597
v -3.776924 189.860517 -81.159237
v -0.064562 168.828550 -68.788935
v -1.302985 203.470007 -79.921540
v -0.064562 217.084342 -74.976084
v -9.964194 176.255872 -71.265660
v -1.302985 213.368259 -72.500692
v -6.250863 176.255872 -68.788935
v -9.964194 179.967111 -77.448812
v -3.776924 207.186091 -73.738388
v -7.488317 182.438040 -79.921540
v -5.014378 167.588240 -77.448812
v -1.302985 198.523304 -81.160569
v -2.539470 168.828550 -82.399597
v -3.776924 205.945781 -76.212448
v -1.302016 167.588240 -68.788935
v -0.064562 177.491337 -82.399597
f 825 834 856 
f 830 828 832 
f 831 827 833 
f 830 832 833 
f 827 831 834 
f 832 828 835 
f 827 834 836 
f 830 826 837 
f 828 830 837 
f 825 831 840 
f 825 840 841 
f 827 826 842 
f 826 830 842 
f 833 827 842 
f 838 829 843 
f 836 834 844 
f 829 839 844 
f 839 836 844 
f 843 829 844 
f 834 843 844 
f 828 837 845 
f 827 836 846 
f 836 839 846 
f 839 837 846 
f 826 827 847 
f 837 826 847 
f 827 846 847 
f 846 837 847 
f 835 828 848 
f 839 829 849 
f 837 839 849 
f 828 845 849 
f 845 837 849 
f 848 828 849 
f 829 848 849 
f 835 838 850 
f 840 835 850 
f 838 841 850 
f 841 840 850 
f 832 831 851 
f 831 833 851 
f 833 832 851 
f 834 825 852 
f 825 841 852 
f 841 838 852 
f 843 834 852 
f 838 843 852 
f 831 832 853 
f 832 835 853 
f 840 831 853 
f 835 840 853 
f 829 838 854 
f 838 835 854 
f 848 829 854 
f 835 848 854 
f 830 833 855 
f 842 830 855 
f 833 842 855 
f 831 825 856 
f 834 831 856 
o convex_27
v -11.201648 145.315158 -57.650517
v -6.252317 181.198539 -26.714166
v -6.252317 181.198539 -29.191255
v -7.490255 145.315158 -56.408944
v -5.014378 179.958638 -35.377919
v -9.963710 177.485860 -26.714166
v -9.963710 179.958638 -27.952710
v -9.963104 149.031350 -57.650517
v -6.252317 177.485860 -26.714166
v -5.014378 177.485860 -30.429799
v -7.490255 149.031350 -57.650517
v -6.252317 179.958638 -35.377919
v -11.201648 147.791449 -57.650517
v -11.201648 149.031350 -52.696340
v -6.252317 157.693098 -45.274160
v -8.726377 153.976906 -47.748220
v -6.252317 157.693098 -47.748220
v -9.963710 167.584210 -35.377919
v -8.726377 181.198539 -26.714166
v -5.014378 176.249471 -35.377919
v -5.014378 179.958638 -29.191255
v -7.490255 145.315158 -57.650517
v -11.201648 151.504128 -52.696340
v -11.201648 145.315158 -56.408944
v -6.252317 160.165876 -42.797071
v -8.726377 181.198539 -27.952710
v -9.963104 153.976906 -47.748220
v -9.963710 179.958638 -26.714166
v -8.725771 167.584210 -35.377919
v -11.201648 151.504128 -53.931856
v -5.014378 178.722249 -29.191255
v -6.252317 158.929487 -47.748220
f 873 867 888 
f 859 858 861 
f 858 862 865 
f 857 864 867 
f 864 861 867 
f 859 861 868 
f 861 864 868 
f 868 864 869 
f 864 857 869 
f 863 868 869 
f 869 857 870 
f 871 860 873 
f 865 862 874 
f 862 870 874 
f 858 859 875 
f 862 858 875 
f 861 866 876 
f 866 871 876 
f 873 861 876 
f 871 873 876 
f 861 858 877 
f 858 865 877 
f 866 861 877 
f 860 857 878 
f 857 867 878 
f 873 860 878 
f 867 873 878 
f 869 870 879 
f 870 862 879 
f 857 860 880 
f 870 857 880 
f 860 872 880 
f 860 871 881 
f 871 866 881 
f 865 872 881 
f 872 860 881 
f 859 868 882 
f 868 863 882 
f 875 859 882 
f 863 875 882 
f 874 870 883 
f 872 874 883 
f 870 880 883 
f 880 872 883 
f 862 875 884 
f 875 863 884 
f 879 862 884 
f 863 879 884 
f 872 865 885 
f 865 874 885 
f 874 872 885 
f 863 869 886 
f 879 863 886 
f 869 879 886 
f 877 865 887 
f 866 877 887 
f 865 881 887 
f 881 866 887 
f 867 861 888 
f 861 873 888 
o convex_28
v -9.964194 136.655039 -68.786876
v -7.489286 147.787401 -57.650517
v -5.014378 149.022917 -66.311241
v -5.014378 131.702074 -58.888334
v -9.964194 131.702074 -57.650517
v -9.964194 150.263884 -71.262511
v -6.251832 131.702074 -65.074756
v -9.964194 146.548252 -57.650517
v -5.014378 147.787401 -68.786876
v -8.726740 131.702074 -67.547726
v -9.964194 150.263884 -62.600454
v -5.014378 150.263884 -67.547726
v -8.726740 147.787401 -71.262511
v -6.251832 131.702074 -57.650517
v -9.964194 131.702074 -67.547726
v -5.014378 131.702074 -61.363969
v -5.014378 132.943041 -58.888334
v -5.014378 150.263884 -68.786876
v -6.251832 134.178557 -66.311241
v -8.726740 150.263884 -62.600454
v -8.726740 136.655039 -68.786876
v -8.726740 147.787401 -57.650517
v -9.964194 147.787401 -71.262511
v -8.726740 150.263884 -71.262511
v -6.251832 134.178557 -57.650517
v -7.489286 150.263884 -63.838272
f 900 908 914 
f 889 893 894 
f 892 893 895 
f 893 890 896 
f 894 893 896 
f 891 892 897 
f 895 893 898 
f 894 896 899 
f 890 891 900 
f 891 897 900 
f 894 899 900 
f 893 892 902 
f 890 893 902 
f 893 889 903 
f 889 898 903 
f 898 893 903 
f 892 895 904 
f 897 892 904 
f 891 890 905 
f 892 891 905 
f 902 892 905 
f 900 897 906 
f 894 900 906 
f 897 901 906 
f 895 898 907 
f 904 895 907 
f 897 904 907 
f 900 899 908 
f 898 889 909 
f 889 901 909 
f 901 897 909 
f 907 898 909 
f 897 907 909 
f 896 890 910 
f 899 896 910 
f 890 908 910 
f 908 899 910 
f 889 894 911 
f 901 889 911 
f 894 901 911 
f 901 894 912 
f 894 906 912 
f 906 901 912 
f 890 902 913 
f 905 890 913 
f 902 905 913 
f 890 900 914 
f 908 890 914 
o convex_29
v 1.172892 158.926062 -147.985024
v 8.597616 163.875394 -150.458600
v 8.597616 162.636850 -150.458600
v 7.359920 165.113332 -140.559936
v 6.121497 158.926062 -141.798359
v 1.172892 162.636850 -151.697023
v 7.359193 158.926062 -151.697023
v 4.885254 165.113332 -140.559936
v 3.648285 158.926062 -140.559936
v 6.122224 165.113332 -147.985024
v 1.172892 158.926062 -151.697023
v 8.597616 163.875394 -151.697023
v 3.648285 161.402545 -140.559936
v 3.648285 163.875394 -151.697023
v 1.172892 162.636850 -150.458600
v 7.359920 163.875394 -140.559936
v 7.359193 158.926062 -149.222357
v 7.359920 162.636850 -141.798359
v 7.359193 165.113332 -147.985024
v 6.121497 160.164001 -140.559936
v 4.885254 165.113332 -143.036783
v 1.172892 160.164001 -147.985024
v 8.597616 162.636850 -151.697023
v 4.885254 158.926062 -140.559936
v 1.172892 161.402545 -149.222357
v 7.359920 165.113332 -146.746601
f 926 933 940 
f 917 916 918 
f 919 915 921 
f 915 919 923 
f 918 922 923 
f 922 918 924 
f 915 920 925 
f 921 915 925 
f 920 921 925 
f 916 917 926 
f 918 916 926 
f 921 920 926 
f 915 923 927 
f 923 922 927 
f 926 920 928 
f 924 926 928 
f 920 915 929 
f 922 920 929 
f 927 922 929 
f 917 918 930 
f 918 923 930 
f 921 917 931 
f 919 921 931 
f 917 930 932 
f 931 917 932 
f 919 931 932 
f 924 918 933 
f 926 924 933 
f 930 923 934 
f 932 930 934 
f 919 932 934 
f 920 922 935 
f 922 924 935 
f 928 920 935 
f 924 928 935 
f 915 927 936 
f 929 915 936 
f 917 921 937 
f 926 917 937 
f 921 926 937 
f 923 919 938 
f 919 934 938 
f 934 923 938 
f 927 929 939 
f 936 927 939 
f 929 936 939 
f 918 926 940 
f 933 918 940 
o convex_30
v -5.014378 225.743358 14.120605
v -18.626372 182.441565 6.698061
v -13.675103 182.441565 6.698061
v -13.675103 182.441565 16.594787
v -13.675103 225.743358 9.173211
v -5.014378 214.611601 6.698061
v -7.490013 182.441565 10.410302
v -12.437285 224.505043 15.357696
v -18.626372 186.156511 12.883515
v -5.014378 220.794457 16.594787
v -9.966980 186.156511 16.594787
v -7.490013 182.441565 7.936121
v -11.202133 224.505043 16.594787
v -7.491345 218.317826 6.698061
v -14.912920 220.794457 10.410302
v -6.253528 226.981673 11.646424
v -16.149405 192.339367 15.357696
v -18.626372 191.105412 7.936121
v -8.727830 226.981673 16.594787
v -13.675103 218.317826 7.936121
v -13.675103 223.266727 14.120605
v -9.966980 183.679880 6.698061
v -9.965648 226.981673 9.173211
v -18.626372 182.441565 12.883515
v -8.727830 187.394826 15.357696
v -18.626372 186.156511 6.698061
v -12.437285 226.981673 14.120605
v -5.014378 217.079511 6.698061
v -9.966980 182.441565 15.357696
v -5.014378 225.743358 16.594787
v -17.387222 199.760538 11.646424
v -14.912920 220.794457 9.173211
f 960 966 972 
f 942 943 944 
f 943 942 946 
f 944 943 947 
f 946 941 950 
f 947 946 950 
f 950 944 951 
f 946 947 952 
f 947 943 952 
f 944 950 953 
f 946 942 954 
f 953 948 957 
f 944 953 957 
f 942 949 958 
f 953 950 959 
f 945 954 960 
f 945 955 961 
f 957 948 961 
f 949 957 961 
f 943 946 962 
f 952 943 962 
f 946 952 962 
f 954 945 963 
f 959 956 963 
f 942 944 964 
f 949 942 964 
f 957 949 964 
f 944 957 964 
f 947 950 965 
f 950 951 965 
f 954 942 966 
f 942 958 966 
f 960 954 966 
f 948 953 967 
f 953 959 967 
f 945 961 967 
f 961 948 967 
f 963 945 967 
f 959 963 967 
f 941 946 968 
f 946 954 968 
f 956 941 968 
f 954 963 968 
f 963 956 968 
f 944 947 969 
f 951 944 969 
f 947 965 969 
f 965 951 969 
f 950 941 970 
f 941 956 970 
f 959 950 970 
f 956 959 970 
f 958 949 971 
f 955 958 971 
f 961 955 971 
f 949 961 971 
f 955 945 972 
f 958 955 972 
f 945 960 972 
f 966 958 972 
o convex_31
v -7.489044 182.437689 -23.001804
v -6.252801 217.086401 6.697092
v -7.488317 217.086401 6.697092
v -6.252801 210.896709 5.458669
v -6.252074 191.103259 -19.286535
v -5.014378 208.424223 2.981823
v -8.726740 193.582527 -16.809689
v -8.726740 205.948346 -0.727632
v -6.252074 182.437689 -21.760474
v -5.014378 212.134647 1.746307
v -8.726740 183.679019 -21.760474
v -7.488317 217.086401 5.458669
v -6.252074 186.154896 -23.001804
v -7.489044 186.154896 -18.048112
v -8.726740 186.154896 -23.001804
v -6.252074 207.182893 -4.445808
v -8.726740 207.182893 -3.207385
v -5.014378 213.369194 6.697092
v -7.488317 213.369194 6.697092
v -7.488317 208.424223 2.981823
v -8.726740 194.817074 -10.629202
v -5.014378 215.848463 5.458669
v -5.014378 208.424223 0.507884
v -7.489044 207.182893 -4.445808
v -6.252801 217.086401 5.458669
v -5.014378 210.896709 5.458669
v -6.252074 182.437689 -23.001804
v -7.489044 182.437689 -21.760474
v -7.489044 191.103259 -19.286535
v -6.252074 186.154896 -18.048112
v -8.726740 207.186285 -0.727632
v -8.726740 183.679019 -23.001804
f 983 987 1004 
f 980 979 983 
f 975 974 984 
f 977 982 985 
f 983 979 987 
f 977 985 987 
f 985 973 987 
f 982 977 988 
f 979 980 989 
f 974 975 990 
f 978 982 990 
f 975 980 991 
f 990 975 991 
f 976 990 991 
f 986 976 992 
f 991 980 992 
f 976 991 992 
f 980 983 993 
f 986 992 993 
f 992 980 993 
f 982 988 994 
f 974 990 994 
f 990 982 994 
f 978 981 995 
f 982 978 995 
f 985 982 995 
f 988 977 996 
f 984 988 996 
f 979 989 996 
f 989 984 996 
f 984 974 997 
f 988 984 997 
f 974 994 997 
f 994 988 997 
f 981 978 998 
f 976 986 998 
f 990 976 998 
f 978 990 998 
f 981 973 999 
f 973 985 999 
f 995 981 999 
f 985 995 999 
f 973 981 1000 
f 983 973 1000 
f 993 983 1000 
f 986 993 1000 
f 977 987 1001 
f 987 979 1001 
f 996 977 1001 
f 979 996 1001 
f 981 998 1002 
f 998 986 1002 
f 1000 981 1002 
f 986 1000 1002 
f 980 975 1003 
f 975 984 1003 
f 989 980 1003 
f 984 989 1003 
f 973 983 1004 
f 987 973 1004 
o convex_32
v -22.337765 142.848728 4.222548
v -11.203531 182.429210 16.596725
v -9.964469 182.429210 15.357575
v -12.441260 139.126798 14.121090
v -9.964469 139.131037 4.222548
v -18.623245 182.424971 6.698182
v -21.098704 160.173932 12.883272
v -19.859642 142.848728 14.121090
v -13.678990 182.424971 6.698182
v -17.386848 181.191393 15.358907
v -19.859642 139.126798 2.984730
v -8.726740 141.606672 9.173817
v -9.964469 182.429210 10.408970
v -14.916719 162.628371 16.596725
v -19.859642 181.191393 9.172485
v -14.916719 141.610911 2.984730
v -22.337765 157.698298 5.460365
v -22.337765 144.086546 10.408970
v -21.098704 139.126798 9.172485
v -17.386848 175.002306 5.460365
v -8.726740 140.368854 5.461697
v -18.623245 147.799998 15.358907
v -22.337765 158.936115 9.172485
v -14.916719 182.424971 16.596725
v -9.964469 175.006545 15.357575
v -13.678990 144.086546 15.358907
v -19.859642 142.848728 2.984730
v -18.623245 182.424971 12.883272
v -18.623245 168.817458 15.358907
v -16.150451 139.126798 14.121090
v -11.202199 139.131037 12.883272
v -19.859642 179.953575 6.698182
f 1024 1031 1036 
f 1009 1008 1015 
f 1006 1007 1017 
f 1010 1006 1017 
f 1013 1010 1017 
f 1007 1016 1017 
f 1013 1009 1020 
f 1009 1015 1020 
f 1012 1011 1022 
f 1021 1005 1022 
f 1015 1008 1023 
f 1005 1015 1023 
f 1012 1022 1023 
f 1022 1005 1023 
f 1010 1013 1024 
f 1013 1020 1024 
f 1009 1013 1025 
f 1017 1016 1025 
f 1013 1017 1025 
f 1011 1012 1026 
f 1019 1021 1027 
f 1022 1011 1027 
f 1021 1022 1027 
f 1018 1006 1028 
f 1026 1018 1028 
f 1007 1006 1029 
f 1016 1007 1029 
f 1006 1018 1030 
f 1018 1026 1030 
f 1029 1006 1030 
f 1008 1029 1030 
f 1015 1005 1031 
f 1020 1015 1031 
f 1005 1021 1031 
f 1024 1020 1031 
f 1006 1010 1032 
f 1011 1014 1032 
f 1010 1019 1032 
f 1027 1011 1032 
f 1019 1027 1032 
f 1028 1006 1032 
f 1014 1028 1032 
f 1014 1011 1033 
f 1011 1026 1033 
f 1028 1014 1033 
f 1026 1028 1033 
f 1023 1008 1034 
f 1012 1023 1034 
f 1026 1012 1034 
f 1008 1030 1034 
f 1030 1026 1034 
f 1008 1009 1035 
f 1009 1025 1035 
f 1025 1016 1035 
f 1029 1008 1035 
f 1016 1029 1035 
f 1019 1010 1036 
f 1021 1019 1036 
f 1010 1024 1036 
f 1031 1021 1036 
o convex_33
v -2.538501 158.927152 -124.476668
v 7.360162 165.112121 -139.319576
v 7.360162 163.877090 -139.319576
v -5.014378 160.165454 -139.319576
v -3.776440 170.062058 -126.950486
v 4.884285 168.823757 -117.052913
v 4.884285 158.927152 -128.188545
v 2.409619 170.062058 -134.369638
v 4.884285 158.927152 -140.559936
v 1.172892 162.639878 -117.052913
v -2.538501 170.062058 -134.369638
v -5.014378 158.927152 -128.188545
v 4.884285 165.112121 -140.559936
v 4.884285 170.062058 -124.476668
v -3.776440 158.927152 -140.559936
v 2.409619 168.823757 -117.052913
v 3.647558 162.639878 -118.288671
v -5.014378 165.112121 -133.131579
v 4.884285 170.062058 -133.131579
v -3.776440 160.165454 -140.559936
v -3.776440 170.062058 -133.131579
v 4.884285 166.349333 -118.288671
v 7.360162 165.112121 -140.559936
v 2.409619 158.927152 -125.712426
v 1.172892 165.112121 -117.052913
v 6.122224 160.165454 -140.559936
v -0.063835 170.062058 -123.238608
v -5.014378 161.402666 -128.188545
v 2.409619 162.639878 -117.052913
v -5.014378 158.927152 -139.319576
v 6.122224 165.112121 -128.188545
v 6.122224 166.349333 -139.319576
f 1055 1059 1068 
f 1039 1038 1042 
f 1043 1037 1045 
f 1041 1044 1047 
f 1045 1037 1048 
f 1037 1046 1048 
f 1042 1038 1050 
f 1044 1041 1050 
f 1045 1048 1051 
f 1049 1045 1051 
f 1046 1042 1052 
f 1040 1048 1054 
f 1050 1038 1055 
f 1044 1050 1055 
f 1047 1049 1056 
f 1051 1040 1056 
f 1049 1051 1056 
f 1041 1047 1057 
f 1040 1054 1057 
f 1054 1041 1057 
f 1056 1040 1057 
f 1047 1056 1057 
f 1042 1053 1058 
f 1053 1043 1058 
f 1038 1039 1059 
f 1045 1049 1059 
f 1055 1038 1059 
f 1037 1043 1060 
f 1043 1053 1060 
f 1048 1046 1061 
f 1052 1041 1061 
f 1046 1052 1061 
f 1039 1043 1062 
f 1043 1045 1062 
f 1059 1039 1062 
f 1045 1059 1062 
f 1042 1050 1063 
f 1050 1041 1063 
f 1041 1052 1063 
f 1052 1042 1063 
f 1041 1054 1064 
f 1054 1048 1064 
f 1061 1041 1064 
f 1048 1061 1064 
f 1046 1037 1065 
f 1042 1046 1065 
f 1053 1042 1065 
f 1037 1060 1065 
f 1060 1053 1065 
f 1048 1040 1066 
f 1040 1051 1066 
f 1051 1048 1066 
f 1039 1042 1067 
f 1043 1039 1067 
f 1042 1058 1067 
f 1058 1043 1067 
f 1047 1044 1068 
f 1049 1047 1068 
f 1044 1055 1068 
f 1059 1049 1068 
o convex_34
v -8.725771 166.348364 -78.687235
v -8.725771 151.505093 -62.600333
v -8.725771 158.925699 -63.838029
v -0.064562 165.108851 -70.026511
v -8.725771 150.267639 -72.497179
v -9.964194 170.062785 -67.551118
v -3.776924 151.505093 -68.790389
v -6.250863 171.300239 -67.551118
v -9.964194 150.267639 -72.497179
v -9.964194 167.585818 -78.687235
v -0.064562 167.585818 -71.261058
v -9.964194 150.267639 -62.600333
v -5.014378 165.108851 -76.211843
v -1.302016 167.585818 -68.790389
v -2.539470 155.215396 -70.026511
v -3.776924 151.505093 -67.551118
v -6.250863 167.585818 -77.447964
v -9.964194 165.108851 -65.075726
v -5.014378 150.267639 -67.551118
v -6.250863 171.300239 -68.788814
v -0.064562 165.108851 -71.261058
v -8.725771 171.300239 -68.788814
v -1.302016 160.163153 -68.790389
v -8.725771 158.925699 -76.211843
v -7.488317 168.825331 -66.313422
v -8.725771 150.267639 -62.600333
v -6.250863 162.636002 -76.211843
v -9.964194 158.925699 -76.211843
v -8.725771 171.300239 -67.551118
v -5.014378 170.062785 -67.551118
v -0.064562 167.585818 -70.026511
v -8.725771 167.585818 -78.687235
f 1088 1085 1100 
f 1077 1074 1078 
f 1070 1071 1080 
f 1077 1073 1080 
f 1074 1077 1080 
f 1071 1070 1082 
f 1075 1073 1083 
f 1075 1083 1084 
f 1081 1069 1085 
f 1079 1081 1085 
f 1080 1071 1086 
f 1074 1080 1086 
f 1073 1075 1087 
f 1080 1073 1087 
f 1075 1084 1087 
f 1076 1079 1088 
f 1079 1085 1088 
f 1079 1072 1089 
f 1081 1079 1089 
f 1072 1083 1089 
f 1083 1081 1089 
f 1078 1074 1090 
f 1076 1088 1090 
f 1088 1078 1090 
f 1072 1082 1091 
f 1083 1072 1091 
f 1084 1083 1091 
f 1073 1077 1092 
f 1086 1071 1093 
f 1070 1080 1094 
f 1082 1070 1094 
f 1080 1087 1094 
f 1087 1084 1094 
f 1091 1082 1094 
f 1084 1091 1094 
f 1069 1081 1095 
f 1083 1073 1095 
f 1081 1083 1095 
f 1073 1092 1095 
f 1092 1069 1095 
f 1077 1078 1096 
f 1078 1069 1096 
f 1092 1077 1096 
f 1069 1092 1096 
f 1074 1086 1097 
f 1090 1074 1097 
f 1076 1090 1097 
f 1093 1076 1097 
f 1086 1093 1097 
f 1071 1082 1098 
f 1076 1093 1098 
f 1093 1071 1098 
f 1079 1076 1099 
f 1072 1079 1099 
f 1082 1072 1099 
f 1098 1082 1099 
f 1076 1098 1099 
f 1069 1078 1100 
f 1085 1069 1100 
f 1078 1088 1100 
o convex_35
v -3.776924 170.064844 -131.895699
v 4.884285 187.385809 -120.760672
v 6.122708 187.385809 -121.999822
v 3.646831 170.064844 -123.236307
v 4.884285 170.064844 -131.895699
v -0.064562 187.385809 -130.659214
v -1.301047 187.385809 -123.236307
v -1.301047 171.302662 -123.236307
v 6.122708 187.385809 -129.422729
v 1.172892 171.302662 -134.372666
v 6.122708 175.014418 -123.236307
v 2.409377 177.490053 -120.760672
v -3.776924 170.064844 -126.948427
v -2.538501 182.436235 -129.422729
v -2.538501 171.302662 -134.372666
v 3.646831 184.910174 -131.895699
v 4.884285 178.724479 -120.760672
v 6.122708 176.252235 -129.422729
v 4.884285 182.436235 -131.895699
v -0.064562 187.385809 -121.999822
v 3.646831 171.302662 -121.999822
v -1.301047 186.147992 -130.659214
v 4.884285 170.064844 -124.475457
v -2.538501 179.960601 -124.475457
v -2.538501 170.064844 -134.372666
v 2.409377 187.385809 -120.760672
v -0.064562 173.778296 -121.999822
v -3.776924 172.540479 -128.184912
v 3.646831 170.064844 -133.133516
v -0.064562 170.064844 -123.236307
v -3.776924 171.302662 -131.895699
v -1.301047 187.385809 -129.422729
f 1122 1114 1132 
f 1104 1101 1105 
f 1102 1103 1106 
f 1102 1106 1107 
f 1106 1103 1109 
f 1109 1103 1111 
f 1101 1104 1113 
f 1106 1109 1116 
f 1115 1106 1116 
f 1110 1115 1116 
f 1103 1102 1117 
f 1111 1103 1117 
f 1102 1112 1117 
f 1105 1109 1118 
f 1111 1105 1118 
f 1109 1111 1118 
f 1109 1105 1119 
f 1116 1109 1119 
f 1110 1116 1119 
f 1102 1107 1120 
f 1111 1117 1121 
f 1117 1112 1121 
f 1106 1115 1122 
f 1104 1105 1123 
f 1105 1111 1123 
f 1121 1104 1123 
f 1111 1121 1123 
f 1108 1107 1124 
f 1113 1108 1124 
f 1107 1114 1124 
f 1105 1101 1125 
f 1115 1110 1125 
f 1101 1115 1125 
f 1112 1102 1126 
f 1102 1120 1126 
f 1120 1112 1126 
f 1107 1108 1127 
f 1120 1107 1127 
f 1112 1120 1127 
f 1121 1112 1127 
f 1101 1113 1128 
f 1113 1124 1128 
f 1124 1114 1128 
f 1119 1105 1129 
f 1110 1119 1129 
f 1105 1125 1129 
f 1125 1110 1129 
f 1113 1104 1130 
f 1108 1113 1130 
f 1104 1121 1130 
f 1127 1108 1130 
f 1121 1127 1130 
f 1115 1101 1131 
f 1114 1122 1131 
f 1122 1115 1131 
f 1101 1128 1131 
f 1128 1114 1131 
f 1107 1106 1132 
f 1114 1107 1132 
f 1106 1122 1132 
o convex_36
v -8.726922 184.911991 4.218066
v -8.726437 178.725327 -26.710896
v -6.251832 178.725327 -26.710896
v -8.726437 184.912597 -24.238410
v -11.201043 183.674658 6.693822
v -6.251832 184.912597 -22.998897
v -6.251832 178.726538 -20.526412
v -11.201043 184.911991 2.981823
v -8.726922 182.437325 1.745580
v -8.726437 178.726538 -19.290169
v -6.251832 182.436114 -18.050656
v -8.726437 182.436114 -26.710896
v -6.251832 182.436114 -26.710896
v -7.489619 181.201204 -6.917930
v -9.963740 181.201204 -4.442174
v -7.489619 179.963871 -11.859631
v -9.963740 184.911991 6.693822
v -11.201043 183.674658 2.981823
v -8.726922 183.674658 4.218066
v -6.251832 179.963265 -18.050656
v -6.251832 184.912597 -24.238410
v -9.963740 183.674658 6.693822
v -11.201043 184.911991 6.693822
v -9.963740 182.437325 1.745580
v -7.489619 178.726538 -19.290169
v -8.726437 181.201204 -4.442174
v -6.251832 178.725327 -22.998897
v -8.726437 179.963871 -11.859631
v -8.726437 178.725327 -25.474653
v -7.489619 178.725327 -22.998897
v -8.726437 184.912597 -22.998897
f 1155 1138 1163 
f 1135 1138 1139 
f 1138 1133 1143 
f 1139 1138 1143 
f 1135 1134 1144 
f 1134 1140 1144 
f 1140 1136 1144 
f 1138 1135 1145 
f 1135 1144 1145 
f 1144 1136 1145 
f 1141 1139 1146 
f 1137 1142 1147 
f 1139 1141 1148 
f 1133 1138 1149 
f 1134 1137 1150 
f 1140 1134 1150 
f 1137 1140 1150 
f 1143 1133 1151 
f 1141 1146 1151 
f 1133 1149 1151 
f 1139 1143 1152 
f 1146 1139 1152 
f 1143 1151 1152 
f 1151 1146 1152 
f 1136 1138 1153 
f 1138 1145 1153 
f 1145 1136 1153 
f 1137 1141 1154 
f 1149 1137 1154 
f 1141 1151 1154 
f 1151 1149 1154 
f 1136 1140 1155 
f 1140 1137 1155 
f 1149 1138 1155 
f 1137 1149 1155 
f 1141 1137 1156 
f 1137 1147 1156 
f 1147 1141 1156 
f 1148 1142 1157 
f 1139 1148 1157 
f 1141 1147 1158 
f 1147 1148 1158 
f 1148 1141 1158 
f 1134 1135 1159 
f 1135 1139 1159 
f 1139 1157 1159 
f 1157 1142 1159 
f 1147 1142 1160 
f 1142 1148 1160 
f 1148 1147 1160 
f 1137 1134 1161 
f 1142 1137 1161 
f 1134 1159 1161 
f 1161 1159 1162 
f 1159 1142 1162 
f 1142 1161 1162 
f 1138 1136 1163 
f 1136 1155 1163 
