v 2.240151353305464e-06 1.0721957482328563 29.830509249527527
v 2.27864287438706e-06 0.8771242889577161 -18.09874787315729
v 15.132144093513489 5.825976686459184 -18.09874867942768
v 15.962344408035278 6.507899256789231 29.830511344171263
v 15.962344408035278 6.507899256789231 29.830511344171263
v 15.132144093513489 5.825976686459184 -18.09874867942768
v 23.18378835916519 19.11127719460046 -18.098752333993968
v 24.455729126930237 20.81895211561873 29.83050901260483
v 24.455729126930237 20.81895211561873 29.83050901260483
v 23.18378835916519 19.11127719460046 -18.098752333993968
v 21.188530325889587 29.447955096072047 -17.04678121159881
v 21.50600552558899 37.345938774191396 29.830503339784716
v 21.50600552558899 37.345938774191396 29.830503339784716
v 17.715448141098022 35.05519091110706 -14.693711448806654
v 8.051643520593643 44.96143463430917 -18.098756545519148
v 8.493383973836899 48.39721212013866 29.830501539303768
v 8.493383973836899 48.39721212013866 29.830501539303768
v 8.051643520593643 44.96143463430917 -18.098756545519148
v -8.051647990942001 44.90268233595407 -18.09875653594718
v -8.493388444185257 48.4668214045396 29.830501527962976
v -8.493388444185257 48.4668214045396 29.830501527962976
v -8.051647990942001 44.90268233595407 -18.09875653594718
v -18.69523674249649 36.042596637835075 -25.977662117316605
v -20.435357093811035 37.320633658723935 30.05436646875486
v -20.435357093811035 37.320633658723935 30.05436646875486
v -18.69523674249649 36.042596637835075 -25.977662117316605
v -23.803234100341797 18.923135094223074 -18.339015646199094
v -24.45572316646576 21.3877145372267 29.830508919941668
v -27.72969901561737 22.760067892400876 -118.82630957433031
v -24.939385056495667 38.51585833732665 -118.99268062577144
v -26.7933189868927 38.95671362029213 -146.6849986602431
v -30.13942241668701 24.319493286256286 -140.16689458333735
v -24.45572316646576 21.3877145372267 29.830508919941668
v -23.803234100341797 18.923135094223074 -18.339015646199094
v -15.132144093513489 5.881624700408579 -18.09874868849389
v -15.962344408035278 7.064406218373322 29.830511253504774
v -15.962344408035278 7.064406218373322 29.830511253504774
v -15.132144093513489 5.881624700408579 -18.09874868849389
v 2.27864287438706e-06 0.8771242889577161 -18.09874787315729
v 2.240151353305464e-06 1.0721957482328563 29.830509249527527
v -24.939385056495667 38.51585833732665 -118.99268062577144
v -12.62999027967453 48.82252947954463 -119.7265942960607
v -14.489458501338959 49.29120222520197 -147.57251350465057
v -26.7933189868927 38.95671362029213 -146.6849986602431
v -12.62999027967453 48.82252947954463 -119.7265942960607
v 3.4387920051813126 48.82980109012313 -120.68463167364922
v 1.572100818157196 49.29814299733086 -148.73108474906755
v -14.489458501338959 49.29120222520197 -147.57251350465057
v 3.4387920051813126 48.82980109012313 -120.68463167364922
v 15.748193860054016 38.47090156897739 -118.77802045075296
v 10.067255049943924 44.116851161247276 -149.56998351735476
v 1.572100818157196 49.29814299733086 -148.73108474906755
v 10.504118353128433 8.92232546058732 -121.1058869593108
v -4.5955948531627655 3.4665213635778103 -120.20560559483101
v -6.458674371242523 3.7346558812821162 -145.0942164783601
v 8.634252101182938 9.230343524973947 -149.24049527823186
v 15.748193860054016 38.47090156897739 -118.77802045075296
v 18.53851079940796 22.76466892154483 -121.5849079027167
v 16.665032505989075 23.144204347687708 -149.81978316673056
v 14.898207783699036 33.163707902291584 -149.69233814765613
v 18.53851079940796 22.76466892154483 -121.5849079027167
v 10.504118353128433 8.92232546058732 -121.1058869593108
v 8.634252101182938 9.230343524973947 -149.24049527823186
v 16.665032505989075 23.144204347687708 -149.81978316673056
v -4.5955948531627655 3.4665213635778103 -120.20560559483101
v -20.07267326116562 7.768838342667525 -117.45855934828809
v -21.551606059074402 9.225566272631339 -139.72634227376065
v -6.458674371242523 3.7346558812821162 -145.0942164783601
v -20.07267326116562 7.768838342667525 -117.45855934828809
v -27.72969901561737 22.760067892400876 -118.82630957433031
v -30.13942241668701 24.319493286256286 -140.16689458333735
v -21.551606059074402 9.225566272631339 -139.72634227376065
v -15.132144093513489 5.881624700408579 -18.09874868849389
v -23.803234100341797 18.923135094223074 -18.339015646199094
v -24.440547823905945 19.27519546771137 -75.80280021941623
v -16.340626776218414 6.554368515893285 -79.99883996936406
v 2.27864287438706e-06 0.8771242889577161 -18.09874787315729
v -15.132144093513489 5.881624700408579 -18.09874868849389
v -16.340626776218414 6.554368515893285 -79.99883996936406
v -1.1231064796447754 2.117995192304897 -81.05303083594261
v 23.18378835916519 19.11127719460046 -18.098752333993968
v 15.132144093513489 5.825976686459184 -18.09874867942768
v 14.035123586654663 7.8489103589234785 -81.60069712721693
v 22.077302634716034 21.59057712419764 -81.95885771600945
v 15.132144093513489 5.825976686459184 -18.09874867942768
v 2.27864287438706e-06 0.8771242889577161 -18.09874787315729
v -1.1231064796447754 2.117995192304897 -81.05303083594261
v 14.035123586654663 7.8489103589234785 -81.60069712721693
v 8.051643520593643 44.96143463430917 -18.098756545519148
v 17.715448141098022 35.05519091110706 -14.693711448806654
v 19.28461641073227 36.81843234089806 -76.03672150599331
v 6.965514272451401 47.325964472803 -81.08403261653882
v -8.051647990942001 44.90268233595407 -18.09875653594718
v 8.051643520593643 44.96143463430917 -18.098756545519148
v 6.965514272451401 47.325964472803 -81.08403261653882
v -9.147152304649353 46.9053077378868 -80.68289328866675
v -18.69523674249649 36.042596637835075 -25.977662117316605
v -8.051647990942001 44.90268233595407 -18.09875653594718
v -9.147152304649353 46.9053077378868 -80.68289328866675
v -21.56766802072525 35.24580882546935 -73.98979642029732
v -18.400786817073822 6.13781624678147 114.39806122918235
v -15.962344408035278 7.064406218373322 29.830511253504774
v 2.240151353305464e-06 1.0721957482328563 29.830509249527527
v 2.158999734547251e-06 -0.13817447959424714 117.01363327370477
v -30.253204703330994 21.85896743241386 107.2493398339582
v -24.45572316646576 21.3877145372267 29.830508919941668
v -15.962344408035278 7.064406218373322 29.830511253504774
v -18.400786817073822 6.13781624678147 114.39806122918235
v -24.63824152946472 41.00358231430289 112.41158771054069
v -20.435357093811035 37.320633658723935 30.05436646875486
v -24.45572316646576 21.3877145372267 29.830508919941668
v -30.253204703330994 21.85896743241386 107.2493398339582
v -9.424708038568497 53.31198086507002 116.4726408886588
v -8.493388444185257 48.4668214045396 29.830501527962976
v -20.435357093811035 37.320633658723935 30.05436646875486
v -24.63824152946472 41.00358231430289 112.41158771054069
v 9.42470207810402 53.311980953207446 117.0136245655692
v 8.493383973836899 48.39721212013866 29.830501539303768
v -8.493388444185257 48.4668214045396 29.830501527962976
v -9.424708038568497 53.31198086507002 116.4726408886588
v 23.86418581008911 41.19581996439977 117.01362653954237
v 21.50600552558899 37.345938774191396 29.830503339784716
v 8.493383973836899 48.39721212013866 29.830501539303768
v 15.597669780254364 48.13224791525884 117.01362540945482
v 27.137354016304016 22.63277291297002 117.01362956384658
v 24.455729126930237 20.81895211561873 29.83050901260483
v 21.50600552558899 37.345938774191396 29.830503339784716
v 23.86418581008911 41.19581996439977 117.01362653954237
v 17.712651193141937 6.308707287302448 117.01363222337442
v 15.962344408035278 6.507899256789231 29.830511344171263
v 24.455729126930237 20.81895211561873 29.83050901260483
v 27.137354016304016 22.63277291297002 117.01362956384658
v 19.28461641073227 36.81843234089806 -76.03672150599331
v 21.188530325889587 29.447955096072047 -17.04678121159881
v 23.18378835916519 19.11127719460046 -18.098752333993968
v 22.077302634716034 21.59057712419764 -81.95885771600945
v 2.158999734547251e-06 -0.13817447959424714 117.01363327370477
v 2.240151353305464e-06 1.0721957482328563 29.830509249527527
v 15.962344408035278 6.507899256789231 29.830511344171263
v 17.712651193141937 6.308707287302448 117.01363222337442
v -16.340626776218414 6.554368515893285 -79.99883996936406
v -24.440547823905945 19.27519546771137 -75.80280021941623
v -27.72969901561737 22.760067892400876 -118.82630957433031
v -20.07267326116562 7.768838342667525 -117.45855934828809
v -1.1231064796447754 2.117995192304897 -81.05303083594261
v -16.340626776218414 6.554368515893285 -79.99883996936406
v -20.07267326116562 7.768838342667525 -117.45855934828809
v -4.5955948531627655 3.4665213635778103 -120.20560559483101
v 22.077302634716034 21.59057712419764 -81.95885771600945
v 14.035123586654663 7.8489103589234785 -81.60069712721693
v 10.504118353128433 8.92232546058732 -121.1058869593108
v 18.53851079940796 22.76466892154483 -121.5849079027167
v 19.28461641073227 36.81843234089806 -76.03672150599331
v 22.077302634716034 21.59057712419764 -81.95885771600945
v 18.53851079940796 22.76466892154483 -121.5849079027167
v 15.748193860054016 38.47090156897739 -118.77802045075296
v 14.035123586654663 7.8489103589234785 -81.60069712721693
v -1.1231064796447754 2.117995192304897 -81.05303083594261
v -4.5955948531627655 3.4665213635778103 -120.20560559483101
v 10.504118353128433 8.92232546058732 -121.1058869593108
v 6.965514272451401 47.325964472803 -81.08403261653882
v 19.28461641073227 36.81843234089806 -76.03672150599331
v 15.748193860054016 38.47090156897739 -118.77802045075296
v 3.4387920051813126 48.82980109012313 -120.68463167364922
v -9.147152304649353 46.9053077378868 -80.68289328866675
v 6.965514272451401 47.325964472803 -81.08403261653882
v 3.4387920051813126 48.82980109012313 -120.68463167364922
v -12.62999027967453 48.82252947954463 -119.7265942960607
v -21.56766802072525 35.24580882546935 -73.98979642029732
v -9.147152304649353 46.9053077378868 -80.68289328866675
v -12.62999027967453 48.82252947954463 -119.7265942960607
v -24.939385056495667 38.51585833732665 -118.99268062577144
v -27.72969901561737 22.760067892400876 -118.82630957433031
v -23.671354353427887 23.54843282993235 -75.34722473420321
v -21.56766802072525 35.24580882546935 -73.98979642029732
v -24.939385056495667 38.51585833732665 -118.99268062577144
v -23.671354353427887 23.54843282993235 -75.34722473420321
v -23.803234100341797 18.923135094223074 -18.339015646199094
v -18.69523674249649 36.042596637835075 -25.977662117316605
v -21.56766802072525 35.24580882546935 -73.98979642029732
v 0.0176266796188429 4.572089407731785 29.840549081734896
v 13.749782741069794 9.219606614697128 29.85700218674849
v 12.937100231647491 8.551356237494529 -18.040321670407288
v -0.02274927101098001 4.376910661888426 -18.077706513623028
v 13.749782741069794 9.219606614697128 29.85700218674849
v 21.010951697826385 21.431748972783872 29.917135323251866
v 19.744351506233215 19.754943295554597 -18.02280718071992
v 12.937100231647491 8.551356237494529 -18.040321670407288
v 21.010951697826385 21.431748972783872 29.917135323251866
v 18.464988470077515 35.622908594286066 30.012408055659744
v 17.74941384792328 28.803220607285205 -16.96666948374786
v 19.744351506233215 19.754943295554597 -18.02280718071992
v 18.464988470077515 35.622908594286066 30.012408055659744
v 7.268539071083069 45.12739671420854 30.069981613802884
v 6.768263876438141 41.70604054430388 -18.03039395793912
v 15.334439277648926 32.49259651610936 -14.578565288413817
v 7.268539071083069 45.12739671420854 30.069981613802884
v -7.285527139902115 45.18931699626627 30.050541548821293
v -6.806828081607819 41.6324407302054 -18.022597658411563
v 6.768263876438141 41.70604054430388 -18.03039395793912
v -7.285527139902115 45.18931699626627 30.050541548821293
v -17.484064400196075 35.448919693557706 30.243215149969885
v -15.722902119159698 34.19502251868512 -26.00436469716795
v -6.806828081607819 41.6324407302054 -18.022597658411563
v -17.484064400196075 35.448919693557706 30.243215149969885
v -20.99834233522415 21.915913039185437 29.961570507051583
v -20.352688431739807 19.509120277817022 -18.33976377996013
v -15.722902119159698 34.19502251868512 -26.00436469716795
v -24.283960461616516 23.31924286570533 -119.07914064763973
v -26.659610867500305 24.574246473534348 -140.44140977681946
v -23.913806676864624 36.98469986543123 -146.9485104735133
v -21.94739580154419 36.72681891325383 -119.30372121259583
v -20.99834233522415 21.915913039185437 29.961570507051583
v -13.79934549331665 9.815634438000458 29.8692836266992
v -12.99755722284317 8.65528437419862 -18.11423740732529
v -20.352688431739807 19.509120277817022 -18.33976377996013
v -13.79934549331665 9.815634438000458 29.8692836266992
v 0.0176266796188429 4.572089407731785 29.840549081734896
v -0.02274927101098001 4.376910661888426 -18.077706513623028
v -12.99755722284317 8.65528437419862 -18.11423740732529
v -21.94739580154419 36.72681891325383 -119.30372121259583
v -23.913806676864624 36.98469986543123 -146.9485104735133
v -13.307979702949524 45.99938370386711 -147.70613466100275
v -11.422128975391388 45.54374350287882 -119.92718723340577
v -11.422128975391388 45.54374350287882 -119.92718723340577
v -13.307979702949524 45.99938370386711 -147.70613466100275
v 0.4595180042088032 45.980047783173255 -148.77370152949564
v 2.3059144616127014 45.51854252870378 -120.72735574355174
v 2.3059144616127014 45.51854252870378 -120.72735574355174
v 0.4595180042088032 45.980047783173255 -148.77370152949564
v 7.973578572273254 41.31232149062351 -149.59283548124574
v 12.756845355033875 36.66049693580699 -118.62366796769025
v 8.27147588133812 11.607756144118685 -120.8751697378264
v 6.333568692207336 11.861298535964638 -149.05549481041496
v -6.677430868148804 7.226538131060229 -145.00235436873209
v -4.678483307361603 6.963958395650472 -120.10189408272664
v 12.756845355033875 36.66049693580699 -118.62366796769025
v 11.46240383386612 32.531043375372946 -149.4814806532246
v 13.222499191761017 23.732113308884852 -149.5891728918771
v 15.098007023334503 23.346702361478833 -121.31381415217454
v 15.098007023334503 23.346702361478833 -121.31381415217454
v 13.222499191761017 23.732113308884852 -149.5891728918771
v 6.333568692207336 11.861298535964638 -149.05549481041496
v 8.27147588133812 11.607756144118685 -120.8751697378264
v -4.678483307361603 6.963958395650472 -120.10189408272664
v -6.677430868148804 7.226538131060229 -145.00235436873209
v -19.347482919692993 11.943681861146034 -139.78433803596434
v -17.875172197818756 10.491974130525891 -117.5279872821776
v -17.875172197818756 10.491974130525891 -117.5279872821776
v -19.347482919692993 11.943681861146034 -139.78433803596434
v -26.659610867500305 24.574246473534348 -140.44140977681946
v -24.283960461616516 23.31924286570533 -119.07914064763973
v -12.99755722284317 8.65528437419862 -18.11423740732529
v -14.226441085338593 9.343302620910324 -80.03921661010995
v -21.46383374929428 21.1140121558771 -75.88996039105255
v -20.352688431739807 19.509120277817022 -18.33976377996013
v -0.02274927101098001 4.376910661888426 -18.077706513623028
v -1.2430595234036446 5.614470539800412 -80.95476122774956
v -14.226441085338593 9.343302620910324 -80.03921661010995
v -12.99755722284317 8.65528437419862 -18.11423740732529
v 19.744351506233215 19.754943295554597 -18.02280718071992
v 18.632204830646515 22.17058101614483 -81.74811366797172
v 11.792013049125671 10.528145879415522 -81.40234522683625
v 12.937100231647491 8.551356237494529 -18.040321670407288
v 12.937100231647491 8.551356237494529 -18.040321670407288
v 11.792013049125671 10.528145879415522 -81.40234522683625
v -1.2430595234036446 5.614470539800412 -80.95476122774956
v -0.02274927101098001 4.376910661888426 -18.077706513623028
v 6.768263876438141 41.70604054430388 -18.03039395793912
v 5.726782977581024 44.053159844915186 -81.14544870930784
v 16.242317855358124 35.088994641319175 -75.97978686754269
v 15.334439277648926 32.49259651610936 -14.578565288413817
v -6.806828081607819 41.6324407302054 -18.022597658411563
v -7.929249852895737 43.6307924324693 -80.89299912801376
v 5.726782977581024 44.053159844915186 -81.14544870930784
v 6.768263876438141 41.70604054430388 -18.03039395793912
v -15.722902119159698 34.19502251868512 -26.00436469716795
v -18.547800183296204 33.48987979698714 -74.2062027180062
v -7.929249852895737 43.6307924324693 -80.89299912801376
v -6.806828081607819 41.6324407302054 -18.022597658411563
v -16.412857174873352 9.01647510947372 114.50039001433969
v -0.05073486245237291 3.3610780523804147 117.0640463121552
v 0.0176266796188429 4.572089407731785 29.840549081734896
v -13.79934549331665 9.815634438000458 29.8692836266992
v -26.810669898986816 22.453285380187438 107.4624382631325
v -16.412857174873352 9.01647510947372 114.50039001433969
v -13.79934549331665 9.815634438000458 29.8692836266992
v -20.99834233522415 21.915913039185437 29.961570507051583
v -21.792054176330566 38.979229800602276 112.63750156497727
v -26.810669898986816 22.453285380187438 107.4624382631325
v -20.99834233522415 21.915913039185437 29.961570507051583
v -17.484064400196075 35.448919693557706 30.243215149969885
v -8.325156569480896 49.99602251896666 116.6849889363738
v -21.792054176330566 38.979229800602276 112.63750156497727
v -17.484064400196075 35.448919693557706 30.243215149969885
v -7.285527139902115 45.18931699626627 30.050541548821293
v 9.414982050657272 49.81753649567895 117.20973633712646
v -8.325156569480896 49.99602251896666 116.6849889363738
v -7.285527139902115 45.18931699626627 30.050541548821293
v 7.268539071083069 45.12739671420854 30.069981613802884
v 20.84314376115799 39.43572463227741 117.17181755353218
v 13.341100513935089 45.462731738358954 117.19093774165205
v 7.268539071083069 45.12739671420854 30.069981613802884
v 18.464988470077515 35.622908594286066 30.012408055659744
v 23.689906299114227 23.228905803137955 117.10986712617856
v 20.84314376115799 39.43572463227741 117.17181755353218
v 18.464988470077515 35.622908594286066 30.012408055659744
v 21.010951697826385 21.431748972783872 29.917135323251866
v 15.475842356681824 9.000012724624357 117.0662865280997
v 23.689906299114227 23.228905803137955 117.10986712617856
v 21.010951697826385 21.431748972783872 29.917135323251866
v 13.749782741069794 9.219606614697128 29.85700218674849
v 16.242317855358124 35.088994641319175 -75.97978686754269
v 18.632204830646515 22.17058101614483 -81.74811366797172
v 19.744351506233215 19.754943295554597 -18.02280718071992
v 17.74941384792328 28.803220607285205 -16.96666948374786
v -0.05073486245237291 3.3610780523804147 117.0640463121552
v 15.475842356681824 9.000012724624357 117.0662865280997
v 13.749782741069794 9.219606614697128 29.85700218674849
v 0.0176266796188429 4.572089407731785 29.840549081734896
v -14.226441085338593 9.343302620910324 -80.03921661010995
v -17.875172197818756 10.491974130525891 -117.5279872821776
v -24.283960461616516 23.31924286570533 -119.07914064763973
v -21.46383374929428 21.1140121558771 -75.88996039105255
v -1.2430595234036446 5.614470539800412 -80.95476122774956
v -4.678483307361603 6.963958395650472 -120.10189408272664
v -17.875172197818756 10.491974130525891 -117.5279872821776
v -14.226441085338593 9.343302620910324 -80.03921661010995
v 18.632204830646515 22.17058101614483 -81.74811366797172
v 15.098007023334503 23.346702361478833 -121.31381415217454
v 8.27147588133812 11.607756144118685 -120.8751697378264
v 11.792013049125671 10.528145879415522 -81.40234522683625
v 16.242317855358124 35.088994641319175 -75.97978686754269
v 12.756845355033875 36.66049693580699 -118.62366796769025
v 15.098007023334503 23.346702361478833 -121.31381415217454
v 18.632204830646515 22.17058101614483 -81.74811366797172
v 11.792013049125671 10.528145879415522 -81.40234522683625
v 8.27147588133812 11.607756144118685 -120.8751697378264
v -4.678483307361603 6.963958395650472 -120.10189408272664
v -1.2430595234036446 5.614470539800412 -80.95476122774956
v 5.726782977581024 44.053159844915186 -81.14544870930784
v 2.3059144616127014 45.51854252870378 -120.72735574355174
v 12.756845355033875 36.66049693580699 -118.62366796769025
v 16.242317855358124 35.088994641319175 -75.97978686754269
v -7.929249852895737 43.6307924324693 -80.89299912801376
v -11.422128975391388 45.54374350287882 -119.92718723340577
v 2.3059144616127014 45.51854252870378 -120.72735574355174
v 5.726782977581024 44.053159844915186 -81.14544870930784
v -18.547800183296204 33.48987979698714 -74.2062027180062
v -21.94739580154419 36.72681891325383 -119.30372121259583
v -11.422128975391388 45.54374350287882 -119.92718723340577
v -7.929249852895737 43.6307924324693 -80.89299912801376
v -24.283960461616516 23.31924286570533 -119.07914064763973
v -21.94739580154419 36.72681891325383 -119.30372121259583
v -18.547800183296204 33.48987979698714 -74.2062027180062
v -20.255310833454132 22.818888333623075 -75.56534185243639
v -20.255310833454132 22.818888333623075 -75.56534185243639
v -18.547800183296204 33.48987979698714 -74.2062027180062
v -15.722902119159698 34.19502251868512 -26.00436469716795
v -20.352688431739807 19.509120277817022 -18.33976377996013
v 2.158999734547251e-06 -0.13817447959424714 117.01363327370477
v 17.712651193141937 6.308707287302448 117.01363222337442
v 15.475842356681824 9.000012724624357 117.0662865280997
v -0.05073486245237291 3.3610780523804147 117.0640463121552
v 17.712651193141937 6.308707287302448 117.01363222337442
v 27.137354016304016 22.63277291297002 117.01362956384658
v 23.689906299114227 23.228905803137955 117.10986712617856
v 15.475842356681824 9.000012724624357 117.0662865280997
v 27.137354016304016 22.63277291297002 117.01362956384658
v 23.86418581008911 41.19581996439977 117.01362653954237
v 20.84314376115799 39.43572463227741 117.17181755353218
v 23.689906299114227 23.228905803137955 117.10986712617856
v 9.42470207810402 53.311980953207446 117.0136245655692
v -9.424708038568497 53.31198086507002 116.4726408886588
v -8.325156569480896 49.99602251896666 116.6849889363738
v 9.414982050657272 49.81753649567895 117.20973633712646
v -9.424708038568497 53.31198086507002 116.4726408886588
v -24.63824152946472 41.00358231430289 112.41158771054069
v -21.792054176330566 38.979229800602276 112.63750156497727
v -8.325156569480896 49.99602251896666 116.6849889363738
v -24.63824152946472 41.00358231430289 112.41158771054069
v -30.253204703330994 21.85896743241386 107.2493398339582
v -26.810669898986816 22.453285380187438 107.4624382631325
v -21.792054176330566 38.979229800602276 112.63750156497727
v -30.253204703330994 21.85896743241386 107.2493398339582
v -18.400786817073822 6.13781624678147 114.39806122918235
v -16.412857174873352 9.01647510947372 114.50039001433969
v -26.810669898986816 22.453285380187438 107.4624382631325
v 15.597669780254364 48.13224791525884 117.01362540945482
v 8.493383973836899 48.39721212013866 29.830501539303768
v 7.268539071083069 45.12739671420854 30.069981613802884
v 13.341100513935089 45.462731738358954 117.19093774165205
v -18.400786817073822 6.13781624678147 114.39806122918235
v 2.158999734547251e-06 -0.13817447959424714 117.01363327370477
v -0.05073486245237291 3.3610780523804147 117.0640463121552
v -16.412857174873352 9.01647510947372 114.50039001433969
v 8.634252101182938 9.230343524973947 -149.24049527823186
v -6.458674371242523 3.7346558812821162 -145.0942164783601
v -6.677430868148804 7.226538131060229 -145.00235436873209
v 6.333568692207336 11.861298535964638 -149.05549481041496
v 16.665032505989075 23.144204347687708 -149.81978316673056
v 8.634252101182938 9.230343524973947 -149.24049527823186
v 6.333568692207336 11.861298535964638 -149.05549481041496
v 13.222499191761017 23.732113308884852 -149.5891728918771
v 14.898207783699036 33.163707902291584 -149.69233814765613
v 16.665032505989075 23.144204347687708 -149.81978316673056
v 13.222499191761017 23.732113308884852 -149.5891728918771
v 11.46240383386612 32.531043375372946 -149.4814806532246
v 1.572100818157196 49.29814299733086 -148.73108474906755
v 10.067255049943924 44.116851161247276 -149.56998351735476
v 7.973578572273254 41.31232149062351 -149.59283548124574
v 0.4595180042088032 45.980047783173255 -148.77370152949564
v -14.489458501338959 49.29120222520197 -147.57251350465057
v 1.572100818157196 49.29814299733086 -148.73108474906755
v 0.4595180042088032 45.980047783173255 -148.77370152949564
v -13.307979702949524 45.99938370386711 -147.70613466100275
v -26.7933189868927 38.95671362029213 -146.6849986602431
v -14.489458501338959 49.29120222520197 -147.57251350465057
v -13.307979702949524 45.99938370386711 -147.70613466100275
v -23.913806676864624 36.98469986543123 -146.9485104735133
v -30.13942241668701 24.319493286256286 -140.16689458333735
v -26.7933189868927 38.95671362029213 -146.6849986602431
v -23.913806676864624 36.98469986543123 -146.9485104735133
v -26.659610867500305 24.574246473534348 -140.44140977681946
v -21.551606059074402 9.225566272631339 -139.72634227376065
v -30.13942241668701 24.319493286256286 -140.16689458333735
v -26.659610867500305 24.574246473534348 -140.44140977681946
v -19.347482919692993 11.943681861146034 -139.78433803596434
v -6.458674371242523 3.7346558812821162 -145.0942164783601
v -21.551606059074402 9.225566272631339 -139.72634227376065
v -19.347482919692993 11.943681861146034 -139.78433803596434
v -6.677430868148804 7.226538131060229 -145.00235436873209
v -24.440547823905945 19.27519546771137 -75.80280021941623
v -23.803234100341797 18.923135094223074 -18.339015646199094
v -20.352688431739807 19.509120277817022 -18.33976377996013
v -21.46383374929428 21.1140121558771 -75.88996039105255
v 10.067255049943924 44.116851161247276 -149.56998351735476
v 15.748193860054016 38.47090156897739 -118.77802045075296
v 12.756845355033875 36.66049693580699 -118.62366796769025
v 7.973578572273254 41.31232149062351 -149.59283548124574
v -27.72969901561737 22.760067892400876 -118.82630957433031
v -24.440547823905945 19.27519546771137 -75.80280021941623
v -21.46383374929428 21.1140121558771 -75.88996039105255
v -24.283960461616516 23.31924286570533 -119.07914064763973
v 19.28461641073227 36.81843234089806 -76.03672150599331
v 17.715448141098022 35.05519091110706 -14.693711448806654
v 15.334439277648926 32.49259651610936 -14.578565288413817
v 16.242317855358124 35.088994641319175 -75.97978686754269
v 23.86418581008911 41.19581996439977 117.01362653954237
v 15.597669780254364 48.13224791525884 117.01362540945482
v 13.341100513935089 45.462731738358954 117.19093774165205
v 20.84314376115799 39.43572463227741 117.17181755353218
v 17.715448141098022 35.05519091110706 -14.693711448806654
v 21.50600552558899 37.345938774191396 29.830503339784716
v 18.464988470077515 35.622908594286066 30.012408055659744
v 15.334439277648926 32.49259651610936 -14.578565288413817
v 21.188530325889587 29.447955096072047 -17.04678121159881
v 19.28461641073227 36.81843234089806 -76.03672150599331
v 16.242317855358124 35.088994641319175 -75.97978686754269
v 17.74941384792328 28.803220607285205 -16.96666948374786
v 21.50600552558899 37.345938774191396 29.830503339784716
v 21.188530325889587 29.447955096072047 -17.04678121159881
v 17.74941384792328 28.803220607285205 -16.96666948374786
v 18.464988470077515 35.622908594286066 30.012408055659744
v 8.493383973836899 48.39721212013866 29.830501539303768
v 9.42470207810402 53.311980953207446 117.0136245655692
v 9.414982050657272 49.81753649567895 117.20973633712646
v 7.268539071083069 45.12739671420854 30.069981613802884
v 15.748193860054016 38.47090156897739 -118.77802045075296
v 14.898207783699036 33.163707902291584 -149.69233814765613
v 11.46240383386612 32.531043375372946 -149.4814806532246
v 12.756845355033875 36.66049693580699 -118.62366796769025
v -23.671354353427887 23.54843282993235 -75.34722473420321
v -27.72969901561737 22.760067892400876 -118.82630957433031
v -24.283960461616516 23.31924286570533 -119.07914064763973
v -20.255310833454132 22.818888333623075 -75.56534185243639
v -23.803234100341797 18.923135094223074 -18.339015646199094
v -23.671354353427887 23.54843282993235 -75.34722473420321
v -20.255310833454132 22.818888333623075 -75.56534185243639
v -20.352688431739807 19.509120277817022 -18.33976377996013
v -3.340039402246475 44.48601741608651 -46.40105495429736
v -16.047193109989166 72.90765782705655 -64.60243459240017
v -14.606578648090363 73.94781276831743 -63.09403193746102
v 0.5852416157722473 45.21287311561767 -40.8870025624555
v 0.5852416157722473 45.21287311561767 -40.8870025624555
v -14.606578648090363 73.94781276831743 -63.09403193746102
v -15.390519797801971 74.61033065685555 -61.00141429523098
v -0.3846552222967148 45.370942307894516 -36.869312764103825
v -0.3846552222967148 45.370942307894516 -36.869312764103825
v -15.390519797801971 74.61033065685555 -61.00141429523098
v -17.615076899528503 74.23269956459826 -60.417193347476584
v -4.2977310717105865 44.78964522617681 -35.66205933249205
v -4.2977310717105865 44.78964522617681 -35.66205933249205
v -17.615076899528503 74.23269956459826 -60.417193347476584
v -19.055691361427307 73.19254462333738 -61.92559600241573
v -7.240912318229675 44.05027597195002 -38.47249569923146
v -14.606578648090363 73.94781276831743 -63.09403193746102
v -16.047193109989166 72.90765782705655 -64.60243459240017
v -18.27174425125122 72.5300207743338 -64.01821960510928
v -19.055691361427307 73.19254462333738 -61.92559600241573
v -17.615076899528503 74.23269956459826 -60.417193347476584
v -15.390519797801971 74.61033065685555 -61.00141429523098
v -7.240912318229675 44.05027597195002 -38.47249569923146
v -19.055691361427307 73.19254462333738 -61.92559600241573
v -18.27174425125122 72.5300207743338 -64.01821960510928
v -7.2876520454883575 43.81588554401386 -45.364324436450474
v -7.2876520454883575 43.81588554401386 -45.364324436450474
v -18.27174425125122 72.5300207743338 -64.01821960510928
v -16.047193109989166 72.90765782705655 -64.60243459240017
v -3.340039402246475 44.48601741608651 -46.40105495429736
v -10.405145585536957 59.696636013276795 -52.36490745378412
v -17.36965775489807 74.68368173191881 -51.18557835442234
v -16.707991063594818 74.69679489092029 -50.34375215607349
v -8.516475558280945 58.574161705493275 -50.13912082338476
v -8.516475558280945 58.574161705493275 -50.13912082338476
v -16.707991063594818 74.69679489092029 -50.34375215607349
v -17.043522000312805 74.33514982405217 -49.39333815481697
v -8.8849276304245 57.4905375896757 -48.62225992334446
v -8.8849276304245 57.4905375896757 -48.62225992334446
v -17.043522000312805 74.33514982405217 -49.39333815481697
v -18.04072856903076 73.96039159818207 -49.284753332141534
v -10.637736320495605 56.812123528897075 -48.34242792652527
v -10.637736320495605 56.812123528897075 -48.34242792652527
v -18.04072856903076 73.96039159818207 -49.284753332141534
v -18.702402710914612 73.94729036010906 -50.12658251072456
v -12.022088468074799 57.21733954440003 -49.57945980997959
v -16.707991063594818 74.69679489092029 -50.34375215607349
v -17.36965775489807 74.68368173191881 -51.18557835442234
v -18.366864323616028 74.30892946651367 -51.076990551515635
v -18.702402710914612 73.94729036010906 -50.12658251072456
v -18.04072856903076 73.96039159818207 -49.284753332141534
v -17.043522000312805 74.33514982405217 -49.39333815481697
v -12.022088468074799 57.21733954440003 -49.57945980997959
v -18.702402710914612 73.94729036010906 -50.12658251072456
v -18.366864323616028 74.30892946651367 -51.076990551515635
v -12.174747884273529 59.03160914151749 -52.172217449807604
v -12.174747884273529 59.03160914151749 -52.172217449807604
v -18.366864323616028 74.30892946651367 -51.076990551515635
v -17.36965775489807 74.68368173191881 -51.18557835442234
v -10.405145585536957 59.696636013276795 -52.36490745378412
f 1 2 3
f 1 3 4
f 5 6 7
f 5 7 8
f 9 10 11
f 9 11 12
f 13 14 15
f 13 15 16
f 17 18 19
f 17 19 20
f 21 22 23
f 21 23 24
f 25 26 27
f 25 27 28
f 29 30 31
f 29 31 32
f 33 34 35
f 33 35 36
f 37 38 39
f 37 39 40
f 41 42 43
f 41 43 44
f 45 46 47
f 45 47 48
f 49 50 51
f 49 51 52
f 53 54 55
f 53 55 56
f 57 58 59
f 57 59 60
f 61 62 63
f 61 63 64
f 65 66 67
f 65 67 68
f 69 70 71
f 69 71 72
f 73 74 75
f 73 75 76
f 77 78 79
f 77 79 80
f 81 82 83
f 81 83 84
f 85 86 87
f 85 87 88
f 89 90 91
f 89 91 92
f 93 94 95
f 93 95 96
f 97 98 99
f 97 99 100
f 101 102 103
f 101 103 104
f 105 106 107
f 105 107 108
f 109 110 111
f 109 111 112
f 113 114 115
f 113 115 116
f 117 118 119
f 117 119 120
f 121 122 123
f 121 123 124
f 125 126 127
f 125 127 128
f 129 130 131
f 129 131 132
f 133 134 135
f 133 135 136
f 137 138 139
f 137 139 140
f 141 142 143
f 141 143 144
f 145 146 147
f 145 147 148
f 149 150 151
f 149 151 152
f 153 154 155
f 153 155 156
f 157 158 159
f 157 159 160
f 161 162 163
f 161 163 164
f 165 166 167
f 165 167 168
f 169 170 171
f 169 171 172
f 173 174 175
f 173 175 176
f 177 178 179
f 177 179 180
f 181 182 183
f 181 183 184
f 185 186 187
f 185 187 188
f 189 190 191
f 189 191 192
f 193 194 195
f 193 195 196
f 197 198 199
f 197 199 200
f 201 202 203
f 201 203 204
f 205 206 207
f 205 207 208
f 209 210 211
f 209 211 212
f 213 214 215
f 213 215 216
f 217 218 219
f 217 219 220
f 221 222 223
f 221 223 224
f 225 226 227
f 225 227 228
f 229 230 231
f 229 231 232
f 233 234 235
f 233 235 236
f 237 238 239
f 237 239 240
f 241 242 243
f 241 243 244
f 245 246 247
f 245 247 248
f 249 250 251
f 249 251 252
f 253 254 255
f 253 255 256
f 257 258 259
f 257 259 260
f 261 262 263
f 261 263 264
f 265 266 267
f 265 267 268
f 269 270 271
f 269 271 272
f 273 274 275
f 273 275 276
f 277 278 279
f 277 279 280
f 281 282 283
f 281 283 284
f 285 286 287
f 285 287 288
f 289 290 291
f 289 291 292
f 293 294 295
f 293 295 296
f 297 298 299
f 297 299 300
f 301 302 303
f 301 303 304
f 305 306 307
f 305 307 308
f 309 310 311
f 309 311 312
f 313 314 315
f 313 315 316
f 317 318 319
f 317 319 320
f 321 322 323
f 321 323 324
f 325 326 327
f 325 327 328
f 329 330 331
f 329 331 332
f 333 334 335
f 333 335 336
f 337 338 339
f 337 339 340
f 341 342 343
f 341 343 344
f 345 346 347
f 345 347 348
f 349 350 351
f 349 351 352
f 353 354 355
f 353 355 356
f 357 358 359
f 357 359 360
f 361 362 363
f 361 363 364
f 365 366 367
f 365 367 368
f 369 370 371
f 369 371 372
f 373 374 375
f 373 375 376
f 377 378 379
f 377 379 380
f 381 382 383
f 381 383 384
f 385 386 387
f 385 387 388
f 389 390 391
f 389 391 392
f 393 394 395
f 393 395 396
f 397 398 399
f 397 399 400
f 401 402 403
f 401 403 404
f 405 406 407
f 405 407 408
f 409 410 411
f 409 411 412
f 413 414 415
f 413 415 416
f 417 418 419
f 417 419 420
f 421 422 423
f 421 423 424
f 425 426 427
f 425 427 428
f 429 430 431
f 429 431 432
f 433 434 435
f 433 435 436
f 437 438 439
f 437 439 440
f 441 442 443
f 441 443 444
f 445 446 447
f 445 447 448
f 449 450 451
f 449 451 452
f 453 454 455
f 453 455 456
f 457 458 459
f 457 459 460
f 461 462 463
f 461 463 464
f 465 466 467
f 465 467 468
f 469 470 471
f 469 471 472
f 473 474 475
f 473 475 476
f 477 478 479
f 477 479 480
f 481 482 483
f 481 483 484
f 485 486 487
f 485 487 488
f 489 490 491
f 489 491 492
f 493 494 495
f 493 495 496
f 502 497 498
f 502 498 499
f 502 499 500
f 500 501 502
f 503 504 505
f 503 505 506
f 507 508 509
f 507 509 510
f 511 512 513
f 511 513 514
f 515 516 517
f 515 517 518
f 519 520 521
f 519 521 522
f 523 524 525
f 523 525 526
f 532 527 528
f 532 528 529
f 532 529 530
f 530 531 532
f 533 534 535
f 533 535 536
f 537 538 539
f 537 539 540
v -6.2079355120658875 52.58623543291232 -135.1873960338194
v -5.380131304264069 54.326345203902214 -136.1050932701391
v -6.630001962184906 54.38065599566129 -142.00097016344805
v -8.730611950159073 52.45003761759606 -142.56524702099904
v 4.203315451741219 51.58830872894978 -146.845063031271
v 3.3178843557834625 53.7252009333437 -146.08342330754598
v 5.461113899946213 53.840912451450556 -139.81531543531486
v 6.552690267562866 52.01485267567344 -139.55450905413275
v 6.552690267562866 52.01485267567344 -139.55450905413275
v 5.461113899946213 53.840912451450556 -139.81531543531486
v 0.4197129048407078 53.96189258999689 -136.1875025926287
v 1.433715783059597 52.36864296195003 -133.68203301085072
v 1.433715783059597 52.36864296195003 -133.68203301085072
v 0.4197129048407078 53.96189258999689 -136.1875025926287
v -5.380131304264069 54.326345203902214 -136.1050932701391
v -6.2079355120658875 52.58623543291232 -135.1873960338194
v -8.730611950159073 52.45003761759606 -142.56524702099904
v -6.630001962184906 54.38065599566129 -142.00097016344805
v -2.75514367967844 54.0010571123654 -146.55888960386199
v -3.2791204750537872 51.97554203225363 -148.02605760500995
v -3.2791204750537872 51.97554203225363 -148.02605760500995
v -2.75514367967844 54.0010571123654 -146.55888960386199
v 3.3178843557834625 53.7252009333437 -146.08342330754598
v 4.203315451741219 51.58830872894978 -146.845063031271
v 6.552690267562866 52.01485267567344 -139.55450905413275
v 1.433715783059597 52.36864296195003 -133.68203301085072
v -0.5539742298424244 51.72976960264917 -139.66209539150643
v 0.508760754019022 51.65632456072969 -140.88126070470554
v -3.2791204750537872 51.97554203225363 -148.02605760500995
v 4.203315451741219 51.58830872894978 -146.845063031271
v -0.014964770525693893 51.628047867703245 -142.4129570196788
v -1.6014240682125092 51.6732221770627 -142.72547610052496
v 1.433715783059597 52.36864296195003 -133.68203301085072
v -6.2079355120658875 52.58623543291232 -135.1873960338194
v -2.1404337137937546 51.77494391200668 -139.97462639328154
v -0.5539742298424244 51.72976960264917 -139.66209539150643
v -8.730611950159073 52.45003761759606 -142.56524702099904
v -3.2791204750537872 51.97554203225363 -148.02605760500995
v -1.6014240682125092 51.6732221770627 -142.72547610052496
v -2.6641588658094406 51.74667317944665 -141.5063107873268
v 4.203315451741219 51.58830872894978 -146.845063031271
v 6.552690267562866 52.01485267567344 -139.55450905413275
v 0.508760754019022 51.65632456072969 -140.88126070470554
v -0.014964770525693893 51.628047867703245 -142.4129570196788
v -6.2079355120658875 52.58623543291232 -135.1873960338194
v -8.730611950159073 52.45003761759606 -142.56524702099904
v -2.6641588658094406 51.74667317944665 -141.5063107873268
v -2.1404337137937546 51.77494391200668 -139.97462639328154
v -2.75514367967844 54.0010571123654 -146.55888960386199
v -6.630001962184906 54.38065599566129 -142.00097016344805
v -0.5856453441083431 55.977208246283574 -141.28244835172103
v 3.3178843557834625 53.7252009333437 -146.08342330754598
v -2.75514367967844 54.0010571123654 -146.55888960386199
v -0.5856453441083431 55.977208246283574 -141.28244835172103
v 5.461113899946213 53.840912451450556 -139.81531543531486
v 3.3178843557834625 53.7252009333437 -146.08342330754598
v -0.5856453441083431 55.977208246283574 -141.28244835172103
v 0.4197129048407078 53.96189258999689 -136.1875025926287
v 5.461113899946213 53.840912451450556 -139.81531543531486
v -0.5856453441083431 55.977208246283574 -141.28244835172103
v -5.380131304264069 54.326345203902214 -136.1050932701391
v 0.4197129048407078 53.96189258999689 -136.1875025926287
v -0.5856453441083431 55.977208246283574 -141.28244835172103
v -6.630001962184906 54.38065599566129 -142.00097016344805
v -5.380131304264069 54.326345203902214 -136.1050932701391
v -0.5856453441083431 55.977208246283574 -141.28244835172103
v -8.211743086576462 57.45725366115781 -126.05751496858305
v -9.654887020587921 59.11295734800733 -126.64789924483168
v -15.413965284824371 58.107171123862386 -123.9890074031118
v -15.158964693546295 55.98990125896424 -121.74037415029726
v -22.398741543293 54.232503956010184 -134.2339842460613
v -21.793681383132935 56.619676073004364 -133.41594664822563
v -15.89142382144928 57.8663185418528 -137.08373058851217
v -15.552425384521484 55.989898554387615 -138.340947213194
v -15.552425384521484 55.989898554387615 -138.340947213194
v -15.89142382144928 57.8663185418528 -137.08373058851217
v -11.023585498332977 58.68135317320802 -132.67240288240035
v -8.408474177122116 57.45725230887047 -134.35779553956695
v -8.408474177122116 57.45725230887047 -134.35779553956695
v -11.023585498332977 58.68135317320802 -132.67240288240035
v -9.654887020587921 59.11295734800733 -126.64789924483168
v -8.211743086576462 57.45725366115781 -126.05751496858305
v -15.158964693546295 55.98990125896424 -121.74037415029726
v -15.413965284824371 58.107171123862386 -123.9890074031118
v -20.91715633869171 56.858602339816144 -126.9819590696588
v -21.936994791030884 54.46857542619448 -126.16817646515557
v -21.936994791030884 54.46857542619448 -126.16817646515557
v -20.91715633869171 56.858602339816144 -126.9819590696588
v -21.793681383132935 56.619676073004364 -133.41594664822563
v -22.398741543293 54.232503956010184 -134.2339842460613
v -15.552425384521484 55.989898554387615 -138.340947213194
v -8.408474177122116 57.45725230887047 -134.35779553956695
v -13.958494365215302 55.71266067658618 -130.93585683599477
v -15.44162780046463 55.40802716287948 -131.76278778611953
v -21.936994791030884 54.46857542619448 -126.16817646515557
v -22.398741543293 54.232503956010184 -134.2339842460613
v -16.88391864299774 55.10339392991673 -130.86652461392987
v -16.843076050281525 55.10339421066262 -129.14331857068646
v -8.408474177122116 57.45725230887047 -134.35779553956695
v -8.211743086576462 57.45725366115781 -126.05751496858305
v -13.917651772499084 55.71266095733014 -129.21266271368032
v -13.958494365215302 55.71266067658618 -130.93585683599477
v -15.158964693546295 55.98990125896424 -121.74037415029726
v -21.936994791030884 54.46857542619448 -126.16817646515557
v -16.843076050281525 55.10339421066262 -129.14331857068646
v -15.359942615032196 55.408027724367386 -128.31639954149063
v -22.398741543293 54.232503956010184 -134.2339842460613
v -15.552425384521484 55.989898554387615 -138.340947213194
v -15.44162780046463 55.40802716287948 -131.76278778611953
v -16.88391864299774 55.10339392991673 -130.86652461392987
v -8.211743086576462 57.45725366115781 -126.05751496858305
v -15.158964693546295 55.98990125896424 -121.74037415029726
v -15.359942615032196 55.408027724367386 -128.31639954149063
v -13.917651772499084 55.71266095733014 -129.21266271368032
v -20.91715633869171 56.858602339816144 -126.9819590696588
v -15.413965284824371 58.107171123862386 -123.9890074031118
v -16.36883020401001 59.8785605198207 -130.38550398763687
v -21.793681383132935 56.619676073004364 -133.41594664822563
v -20.91715633869171 56.858602339816144 -126.9819590696588
v -16.36883020401001 59.8785605198207 -130.38550398763687
v -15.89142382144928 57.8663185418528 -137.08373058851217
v -21.793681383132935 56.619676073004364 -133.41594664822563
v -16.36883020401001 59.8785605198207 -130.38550398763687
v -11.023585498332977 58.68135317320802 -132.67240288240035
v -15.89142382144928 57.8663185418528 -137.08373058851217
v -16.36883020401001 59.8785605198207 -130.38550398763687
v -9.654887020587921 59.11295734800733 -126.64789924483168
v -11.023585498332977 58.68135317320802 -132.67240288240035
v -16.36883020401001 59.8785605198207 -130.38550398763687
v -15.413965284824371 58.107171123862386 -123.9890074031118
v -9.654887020587921 59.11295734800733 -126.64789924483168
v -16.36883020401001 59.8785605198207 -130.38550398763687
v 3.6824434995651245 57.352865584626606 -141.1699984530108
v 5.265536531805992 59.13505649705916 -140.4781318686717
v 11.714766919612885 58.05243303693129 -143.27221862542604
v 11.491336673498154 55.77341923472063 -145.76976015857707
v 19.18293684720993 53.881778711494796 -131.74030466545284
v 18.534180521965027 56.451310955685216 -132.66234125504226
v 11.899857968091965 57.79318499972408 -128.75445830639435
v 11.491336673498154 55.773422232305975 -127.37071230701459
v 11.491336673498154 55.773422232305975 -127.37071230701459
v 11.899857968091965 57.79318499972408 -128.75445830639435
v 6.623493134975433 58.670475146917454 -133.7687587956977
v 3.6824434995651245 57.352867083419284 -131.97047452722956
v 3.6824434995651245 57.352867083419284 -131.97047452722956
v 6.623493134975433 58.670475146917454 -133.7687587956977
v 5.265536531805992 59.13505649705916 -140.4781318686717
v 3.6824434995651245 57.352865584626606 -141.1699984530108
v 11.491336673498154 55.77341923472063 -145.76976015857707
v 11.714766919612885 58.05243303693129 -143.27221862542604
v 17.732161283493042 56.70848595160595 -139.81239527490789
v 18.883219361305237 54.13588377549025 -140.68705725506982
v 18.883219361305237 54.13588377549025 -140.68705725506982
v 17.732161283493042 56.70848595160595 -139.81239527490789
v 18.534180521965027 56.451310955685216 -132.66234125504226
v 19.18293684720993 53.881778711494796 -131.74030466545284
v 11.491336673498154 55.773422232305975 -127.37071230701459
v 3.6824434995651245 57.352867083419284 -131.97047452722956
v 9.920132160186768 55.475004274559964 -135.6152982493021
v 11.54131218791008 55.147101397838185 -134.66034834007547
v 18.883219361305237 54.13588377549025 -140.68705725506982
v 19.18293684720993 53.881778711494796 -131.74030466545284
v 13.162492215633392 54.81919820995425 -135.61529814245773
v 13.162492215633392 54.819197898795984 -137.5251740122087
v 3.6824434995651245 57.352867083419284 -131.97047452722956
v 3.6824434995651245 57.352865584626606 -141.1699984530108
v 9.920132160186768 55.4750039634017 -137.52517411905308
v 9.920132160186768 55.475004274559964 -135.6152982493021
v 11.491336673498154 55.77341923472063 -145.76976015857707
v 18.883219361305237 54.13588377549025 -140.68705725506982
v 13.162492215633392 54.819197898795984 -137.5251740122087
v 11.54131218791008 55.147100775517764 -138.48012392143534
v 19.18293684720993 53.881778711494796 -131.74030466545284
v 11.491336673498154 55.773422232305975 -127.37071230701459
v 11.54131218791008 55.147101397838185 -134.66034834007547
v 13.162492215633392 54.81919820995425 -135.61529814245773
v 3.6824434995651245 57.352865584626606 -141.1699984530108
v 11.491336673498154 55.77341923472063 -145.76976015857707
v 11.54131218791008 55.147100775517764 -138.48012392143534
v 9.920132160186768 55.4750039634017 -137.52517411905308
v 17.732161283493042 56.70848595160595 -139.81239527490789
v 11.714766919612885 58.05243303693129 -143.27221862542604
v 12.604548037052155 59.959145058503886 -136.16164707480158
v 18.534180521965027 56.451310955685216 -132.66234125504226
v 17.732161283493042 56.70848595160595 -139.81239527490789
v 12.604548037052155 59.959145058503886 -136.16164707480158
v 11.899857968091965 57.79318499972408 -128.75445830639435
v 18.534180521965027 56.451310955685216 -132.66234125504226
v 12.604548037052155 59.959145058503886 -136.16164707480158
v 6.623493134975433 58.670475146917454 -133.7687587956977
v 11.899857968091965 57.79318499972408 -128.75445830639435
v 12.604548037052155 59.959145058503886 -136.16164707480158
v 5.265536531805992 59.13505649705916 -140.4781318686717
v 6.623493134975433 58.670475146917454 -133.7687587956977
v 12.604548037052155 59.959145058503886 -136.16164707480158
v 11.714766919612885 58.05243303693129 -143.27221862542604
v 5.265536531805992 59.13505649705916 -140.4781318686717
v 12.604548037052155 59.959145058503886 -136.16164707480158
v 18.876418471336365 32.11730125806879 -72.97123597788999
v 20.28513252735138 33.659586414234816 -72.53273081801206
v 25.34695565700531 32.834907954222906 -75.69886384901446
v 24.856016039848328 30.919798449154744 -77.83183959214884
v 33.03236663341522 28.912855185816284 -67.08635562831992
v 32.370784878730774 31.17446392470839 -67.70102889602897
v 27.290603518486023 32.19184733846363 -63.571529864775435
v 27.122172713279724 30.389710031413777 -62.42350238954461
v 27.122172713279724 30.389710031413777 -62.42350238954461
v 27.290603518486023 32.19184733846363 -63.571529864775435
v 22.25019484758377 33.06951621802693 -67.09507050459212
v 20.009496808052063 31.852258539314427 -65.26706737658812
v 20.009496808052063 31.852258539314427 -65.26706737658812
v 22.25019484758377 33.06951621802693 -67.09507050459212
v 20.28513252735138 33.659586414234816 -72.53273081801206
v 18.876418471336365 32.11730125806879 -72.97123597788999
v 24.856016039848328 30.919798449154744 -77.83183959214884
v 25.34695565700531 32.834907954222906 -75.69886384901446
v 30.81764578819275 31.599804691859234 -73.58241000017702
v 31.67884051799774 29.390254394491024 -74.53428389632964
v 31.67884051799774 29.390254394491024 -74.53428389632964
v 30.81764578819275 31.599804691859234 -73.58241000017702
v 32.370784878730774 31.17446392470839 -67.70102889602897
v 33.03236663341522 28.912855185816284 -67.08635562831992
v 27.122172713279724 30.389710031413777 -62.42350238954461
v 20.009496808052063 31.852258539314427 -65.26706737658812
v 24.7906357049942 30.35793370043173 -69.14365786189157
v 26.26727521419525 30.05429879542911 -68.55330956870976
v 31.67884051799774 29.390254394491024 -74.53428389632964
v 33.03236663341522 28.912855185816284 -67.08635562831992
v 27.508682012557983 29.805690637899826 -69.56241020378927
v 27.273446321487427 29.86071440514287 -71.16184721112114
v 20.009496808052063 31.852258539314427 -65.26706737658812
v 18.876418471336365 32.11730125806879 -72.97123597788999
v 24.555401504039764 30.412960447907007 -70.74309486922392
v 24.7906357049942 30.35793370043173 -69.14365786189157
v 24.856016039848328 30.919798449154744 -77.83183959214884
v 31.67884051799774 29.390254394491024 -74.53428389632964
v 27.273446321487427 29.86071440514287 -71.16184721112114
v 25.796806812286377 30.16434931014646 -71.75218954383845
v 33.03236663341522 28.912855185816284 -67.08635562831992
v 27.122172713279724 30.389710031413777 -62.42350238954461
v 26.26727521419525 30.05429879542911 -68.55330956870976
v 27.508682012557983 29.805690637899826 -69.56241020378927
v 18.876418471336365 32.11730125806879 -72.97123597788999
v 24.856016039848328 30.919798449154744 -77.83183959214884
v 25.796806812286377 30.16434931014646 -71.75218954383845
v 24.555401504039764 30.412960447907007 -70.74309486922392
v 30.81764578819275 31.599804691859234 -73.58241000017702
v 25.34695565700531 32.834907954222906 -75.69886384901446
v 26.96506977081299 34.29666216509938 -69.79594193369138
v 32.370784878730774 31.17446392470839 -67.70102889602897
v 30.81764578819275 31.599804691859234 -73.58241000017702
v 26.96506977081299 34.29666216509938 -69.79594193369138
v 27.290603518486023 32.19184733846363 -63.571529864775435
v 32.370784878730774 31.17446392470839 -67.70102889602897
v 26.96506977081299 34.29666216509938 -69.79594193369138
v 22.25019484758377 33.06951621802693 -67.09507050459212
v 27.290603518486023 32.19184733846363 -63.571529864775435
v 26.96506977081299 34.29666216509938 -69.79594193369138
v 20.28513252735138 33.659586414234816 -72.53273081801206
v 22.25019484758377 33.06951621802693 -67.09507050459212
v 26.96506977081299 34.29666216509938 -69.79594193369138
v 25.34695565700531 32.834907954222906 -75.69886384901446
v 20.28513252735138 33.659586414234816 -72.53273081801206
v 26.96506977081299 34.29666216509938 -69.79594193369138
f 541 542 543
f 541 543 544
f 545 546 547
f 545 547 548
f 549 550 551
f 549 551 552
f 553 554 555
f 553 555 556
f 557 558 559
f 557 559 560
f 561 562 563
f 561 563 564
f 565 566 567
f 565 567 568
f 569 570 571
f 569 571 572
f 573 574 575
f 573 575 576
f 577 578 579
f 577 579 580
f 581 582 583
f 581 583 584
f 585 586 587
f 585 587 588
f 589 590 591
f 592 593 594
f 595 596 597
f 598 599 600
f 601 602 603
f 604 605 606
f 607 608 609
f 607 609 610
f 611 612 613
f 611 613 614
f 615 616 617
f 615 617 618
f 619 620 621
f 619 621 622
f 623 624 625
f 623 625 626
f 627 628 629
f 627 629 630
f 631 632 633
f 631 633 634
f 635 636 637
f 635 637 638
f 639 640 641
f 639 641 642
f 643 644 645
f 643 645 646
f 647 648 649
f 647 649 650
f 651 652 653
f 651 653 654
f 655 656 657
f 658 659 660
f 661 662 663
f 664 665 666
f 667 668 669
f 670 671 672
f 673 674 675
f 673 675 676
f 677 678 679
f 677 679 680
f 681 682 683
f 681 683 684
f 685 686 687
f 685 687 688
f 689 690 691
f 689 691 692
f 693 694 695
f 693 695 696
f 697 698 699
f 697 699 700
f 701 702 703
f 701 703 704
f 705 706 707
f 705 707 708
f 709 710 711
f 709 711 712
f 713 714 715
f 713 715 716
f 717 718 719
f 717 719 720
f 721 722 723
f 724 725 726
f 727 728 729
f 730 731 732
f 733 734 735
f 736 737 738
f 739 740 741
f 739 741 742
f 743 744 745
f 743 745 746
f 747 748 749
f 747 749 750
f 751 752 753
f 751 753 754
f 755 756 757
f 755 757 758
f 759 760 761
f 759 761 762
f 763 764 765
f 763 765 766
f 767 768 769
f 767 769 770
f 771 772 773
f 771 773 774
f 775 776 777
f 775 777 778
f 779 780 781
f 779 781 782
f 783 784 785
f 783 785 786
f 787 788 789
f 790 791 792
f 793 794 795
f 796 797 798
f 799 800 801
f 802 803 804
v -2.1404337137937546 51.77494391200668 -139.97462639328154
v -2.6641588658094406 51.74667317944665 -141.5063107873268
v -4.269151389598846 48.28939238522601 -140.28337788534964
v -3.447968140244484 48.69480253715745 -138.9342864215531
v 0.508760754019022 51.65632456072969 -140.88126070470554
v -0.5539742298424244 51.72976960264917 -139.66209539150643
v -1.9313730299472809 48.260141758878525 -138.11621260119563
v -1.199948973953724 47.413412883831676 -139.29794607149188
v -1.6014240682125092 51.6732221770627 -142.72547610052496
v -0.014964770525693893 51.628047867703245 -142.4129570196788
v -2.2502852603793144 47.22147669301917 -141.1021309538568
v -3.537726402282715 47.44266351017916 -141.4651113556459
v -0.5539742298424244 51.72976960264917 -139.66209539150643
v -2.1404337137937546 51.77494391200668 -139.97462639328154
v -3.447968140244484 48.69480253715745 -138.9342864215531
v -1.9313730299472809 48.260141758878525 -138.11621260119563
v -0.014964770525693893 51.628047867703245 -142.4129570196788
v 0.508760754019022 51.65632456072969 -140.88126070470554
v -1.199948973953724 47.413412883831676 -139.29794607149188
v -2.2502852603793144 47.22147669301917 -141.1021309538568
v -2.6641588658094406 51.74667317944665 -141.5063107873268
v -1.6014240682125092 51.6732221770627 -142.72547610052496
v -3.537726402282715 47.44266351017916 -141.4651113556459
v -4.269151389598846 48.28939238522601 -140.28337788534964
v -13.917651772499084 55.71266095733014 -129.21266271368032
v -15.359942615032196 55.408027724367386 -128.31639954149063
v -13.460826873779297 50.6173162701623 -128.63134970397786
v -12.269377708435059 51.30540406781368 -129.50640560602912
v -11.782543361186981 51.45496972556067 -131.20900038747658
v -12.269377708435059 51.30540406781368 -129.50640560602912
v -5.09503036737442 47.27266382775414 -130.99884564954337
v -5.258459597826004 47.50938607713114 -134.54401075006112
v -15.44162780046463 55.40802716287948 -131.76278778611953
v -13.958494365215302 55.71266067658618 -130.93585683599477
v -11.782543361186981 51.45496972556067 -131.20900038747658
v -13.132008910179138 50.916447601049896 -131.94205398397483
v -16.843076050281525 55.10339421066262 -129.14331857068646
v -16.88391864299774 55.10339392991673 -130.86652461392987
v -14.712604880332947 50.34017221776333 -130.69116697297335
v -14.810292422771454 50.07879414565346 -129.36439137954713
v -13.958494365215302 55.71266067658618 -130.93585683599477
v -13.917651772499084 55.71266095733014 -129.21266271368032
v -12.269377708435059 51.30540406781368 -129.50640560602912
v -11.782543361186981 51.45496972556067 -131.20900038747658
v -16.88391864299774 55.10339392991673 -130.86652461392987
v -15.44162780046463 55.40802716287948 -131.76278778611953
v -13.132008910179138 50.916447601049896 -131.94205398397483
v -14.712604880332947 50.34017221776333 -130.69116697297335
v -15.359942615032196 55.408027724367386 -128.31639954149063
v -16.843076050281525 55.10339421066262 -129.14331857068646
v -14.810292422771454 50.07879414565346 -129.36439137954713
v -13.460826873779297 50.6173162701623 -128.63134970397786
v -14.712604880332947 50.34017221776333 -130.69116697297335
v -13.132008910179138 50.916447601049896 -131.94205398397483
v -8.350587636232376 46.96552918336339 -136.21954490980767
v -11.279287934303284 46.18495004021863 -134.3499139690365
v -13.460826873779297 50.6173162701623 -128.63134970397786
v -14.810292422771454 50.07879414565346 -129.36439137954713
v -11.11585944890976 45.94822779084163 -130.80474886851877
v -8.023730665445328 46.492084684609374 -129.12921470877222
v -12.269377708435059 51.30540406781368 -129.50640560602912
v -13.460826873779297 50.6173162701623 -128.63134970397786
v -8.023730665445328 46.492084684609374 -129.12921470877222
v -5.09503036737442 47.27266382775414 -130.99884564954337
v -13.132008910179138 50.916447601049896 -131.94205398397483
v -11.782543361186981 51.45496972556067 -131.20900038747658
v -5.258459597826004 47.50938607713114 -134.54401075006112
v -8.350587636232376 46.96552918336339 -136.21954490980767
v -14.810292422771454 50.07879414565346 -129.36439137954713
v -14.712604880332947 50.34017221776333 -130.69116697297335
v -11.279287934303284 46.18495004021863 -134.3499139690365
v -11.11585944890976 45.94822779084163 -130.80474886851877
v 9.920132160186768 55.4750039634017 -137.52517411905308
v 11.54131218791008 55.147100775517764 -138.48012392143534
v 9.429362416267395 49.99042584311586 -138.18111042032612
v 8.08660015463829 50.731076292154185 -137.24306456244724
v 7.5026243925094604 50.89206874287669 -135.36985749639103
v 8.08660015463829 50.731076292154185 -137.24306456244724
v 0.1002773642539978 46.39027290760612 -135.77823202616952
v 0.1882322132587433 46.64508042428389 -131.84690043316135
v 11.54131218791008 55.147101397838185 -134.66034834007547
v 9.920132160186768 55.475004274559964 -135.6152982493021
v 7.5026243925094604 50.89206874287669 -135.36985749639103
v 8.978202939033508 50.31240775003816 -134.5224104834647
v 13.162492215633392 54.819197898795984 -137.5251740122087
v 13.162492215633392 54.81919820995425 -135.61529814245773
v 10.761896520853043 49.69211093357042 -135.86654280580643
v 10.904940217733383 49.41076187004509 -137.3336634073993
v 9.920132160186768 55.475004274559964 -135.6152982493021
v 9.920132160186768 55.4750039634017 -137.52517411905308
v 8.08660015463829 50.731076292154185 -137.24306456244724
v 7.5026243925094604 50.89206874287669 -135.36985749639103
v 13.162492215633392 54.81919820995425 -135.61529814245773
v 11.54131218791008 55.147101397838185 -134.66034834007547
v 8.978202939033508 50.31240775003816 -134.5224104834647
v 10.761896520853043 49.69211093357042 -135.86654280580643
v 11.54131218791008 55.147100775517764 -138.48012392143534
v 13.162492215633392 54.819197898795984 -137.5251740122087
v 10.904940217733383 49.41076187004509 -137.3336634073993
v 9.429362416267395 49.99042584311586 -138.18111042032612
v 10.761896520853043 49.69211093357042 -135.86654280580643
v 8.978202939033508 50.31240775003816 -134.5224104834647
v 3.5694412887096405 46.05967670146435 -129.90970169887092
v 6.862696260213852 45.21946844220121 -131.90382263666018
v 9.429362416267395 49.99042584311586 -138.18111042032612
v 10.904940217733383 49.41076187004509 -137.3336634073993
v 6.7747414112091064 44.96466390575568 -135.83515422966883
v 3.3935323357582092 45.55006762857328 -137.77236488488822
v 8.08660015463829 50.731076292154185 -137.24306456244724
v 9.429362416267395 49.99042584311586 -138.18111042032612
v 3.3935323357582092 45.55006762857328 -137.77236488488822
v 0.1002773642539978 46.39027290760612 -135.77823202616952
v 8.978202939033508 50.31240775003816 -134.5224104834647
v 7.5026243925094604 50.89206874287669 -135.36985749639103
v 0.1882322132587433 46.64508042428389 -131.84690043316135
v 3.5694412887096405 46.05967670146435 -129.90970169887092
v 10.904940217733383 49.41076187004509 -137.3336634073993
v 10.761896520853043 49.69211093357042 -135.86654280580643
v 6.862696260213852 45.21946844220121 -131.90382263666018
v 6.7747414112091064 44.96466390575568 -135.83515422966883
v 24.555401504039764 30.412960447907007 -70.74309486922392
v 25.796806812286377 30.16434931014646 -71.75218954383845
v 20.358610153198242 26.812476222106657 -71.31413062143675
v 20.272108912467957 28.126049500890193 -70.35195093622927
v 26.26727521419525 30.05429879542911 -68.55330956870976
v 24.7906357049942 30.35793370043173 -69.14365786189157
v 20.179401338100433 28.50392534988115 -68.61792671152288
v 20.539119839668274 27.047623048286013 -67.98689210002405
v 27.273446321487427 29.86071440514287 -71.16184721112114
v 27.508682012557983 29.805690637899826 -69.56241020378927
v 20.926053822040558 25.503820803034273 -69.35146866506561
v 20.718330144882202 25.35617094027928 -70.68309600993743
v 24.7906357049942 30.35793370043173 -69.14365786189157
v 24.555401504039764 30.412960447907007 -70.74309486922392
v 20.272108912467957 28.126049500890193 -70.35195093622927
v 20.179401338100433 28.50392534988115 -68.61792671152288
v 27.508682012557983 29.805690637899826 -69.56241020378927
v 26.26727521419525 30.05429879542911 -68.55330956870976
v 20.539119839668274 27.047623048286013 -67.98689210002405
v 20.926053822040558 25.503820803034273 -69.35146866506561
v 25.796806812286377 30.16434931014646 -71.75218954383845
v 27.273446321487427 29.86071440514287 -71.16184721112114
v 20.718330144882202 25.35617094027928 -70.68309600993743
v 20.358610153198242 26.812476222106657 -71.31413062143675
f 805 806 807
f 805 807 808
f 809 810 811
f 809 811 812
f 813 814 815
f 813 815 816
f 817 818 819
f 817 819 820
f 821 822 823
f 821 823 824
f 825 826 827
f 825 827 828
f 829 830 831
f 829 831 832
f 833 834 835
f 833 835 836
f 837 838 839
f 837 839 840
f 841 842 843
f 841 843 844
f 845 846 847
f 845 847 848
f 849 850 851
f 849 851 852
f 853 854 855
f 853 855 856
f 857 858 859
f 857 859 860
f 861 862 863
f 861 863 864
f 865 866 867
f 865 867 868
f 869 870 871
f 869 871 872
f 873 874 875
f 873 875 876
f 877 878 879
f 877 879 880
f 881 882 883
f 881 883 884
f 885 886 887
f 885 887 888
f 889 890 891
f 889 891 892
f 893 894 895
f 893 895 896
f 897 898 899
f 897 899 900
f 901 902 903
f 901 903 904
f 905 906 907
f 905 907 908
f 909 910 911
f 909 911 912
f 913 914 915
f 913 915 916
f 917 918 919
f 917 919 920
f 921 922 923
f 921 923 924
f 925 926 927
f 925 927 928
f 929 930 931
f 929 931 932
f 933 934 935
f 933 935 936
f 937 938 939
f 937 939 940
f 941 942 943
f 941 943 944
f 945 946 947
f 945 947 948
