o convex_0
v -24.503392 33.417473 -91.989978
v -55.911422 29.136792 -120.546489
v -57.345197 29.136792 -119.115169
v -24.503392 24.851219 -99.129805
v -25.933952 34.845998 -103.409787
v -55.911422 34.846976 -116.260916
v -30.212774 27.708268 -94.844231
v -24.503392 27.708268 -104.838311
v -53.056731 33.417473 -120.546489
v -57.345197 29.136792 -114.832391
v -44.492658 33.417473 -104.841107
v -25.933952 34.845998 -93.418502
v -53.056731 27.708268 -119.115169
v -41.637967 26.281700 -107.698156
v -51.629385 31.989927 -120.546489
v -24.503392 27.708268 -91.989978
v -24.503392 30.561403 -104.838311
v -41.637967 34.846976 -113.403867
v -28.785428 33.417473 -93.418502
v -25.933952 24.851219 -101.984058
v -57.345197 33.417473 -114.832391
v -55.911422 34.846976 -119.115169
v -27.361297 24.851219 -99.129805
v -53.056731 29.136792 -120.546489
v -24.503392 34.845998 -101.984058
v -54.484076 27.708268 -116.260916
v -51.629385 34.846976 -111.975342
v -28.785428 26.280722 -96.272756
v -50.202040 30.563360 -109.121089
v -25.933952 27.708268 -91.989978
v -28.785428 24.851219 -101.984058
v -41.637967 29.136792 -114.832391
f 24 15 32 
f 1 4 8 
f 3 2 13 
f 2 9 15 
f 4 1 16 
f 1 8 17 
f 17 15 18 
f 15 9 18 
f 5 17 18 
f 1 12 19 
f 8 4 20 
f 13 8 20 
f 3 10 21 
f 2 3 22 
f 9 2 22 
f 6 18 22 
f 18 9 22 
f 3 21 22 
f 21 6 22 
f 4 16 23 
f 20 4 23 
f 13 2 24 
f 8 13 24 
f 2 15 24 
f 12 1 25 
f 1 17 25 
f 17 5 25 
f 18 12 25 
f 5 18 25 
f 10 3 26 
f 3 13 26 
f 14 10 26 
f 18 6 27 
f 12 18 27 
f 11 19 27 
f 19 12 27 
f 6 21 27 
f 21 11 27 
f 7 10 28 
f 10 14 28 
f 14 23 28 
f 10 7 29 
f 7 19 29 
f 19 11 29 
f 21 10 29 
f 11 21 29 
f 16 1 30 
f 19 7 30 
f 1 19 30 
f 23 16 30 
f 7 28 30 
f 28 23 30 
f 13 20 31 
f 23 14 31 
f 20 23 31 
f 26 13 31 
f 14 26 31 
f 17 8 32 
f 15 17 32 
f 8 24 32 
o convex_1
v -23.070674 51.984237 25.109330
v -5.940961 47.701879 43.667568
v -8.798848 47.701879 45.097490
v -25.926046 69.113672 19.395791
v -13.080648 46.272935 29.389871
v -17.364963 46.272935 39.383951
v -31.641821 67.686964 19.395791
v -25.926046 69.113672 13.682253
v -5.940961 46.272935 36.527182
v -31.641821 63.402370 15.112175
v -13.080648 49.128586 43.667568
v -25.926046 61.975662 15.112175
v -18.791391 46.272935 30.816719
v -30.210361 61.975662 20.825714
v -14.509591 50.557530 26.536177
v -5.940961 47.701879 36.527182
v -17.364963 60.546718 29.389871
v -11.654220 46.272935 45.097490
v -30.210361 69.113672 19.395791
v -31.641821 67.686964 13.682253
v -18.791391 50.557530 37.954029
v -20.215303 47.701879 30.816719
v -17.364963 49.128586 26.536177
v -25.926046 66.258021 13.682253
v -25.926046 63.402370 26.536177
v -5.940961 46.272935 43.667568
v -28.781418 60.546718 23.682483
v -27.354990 59.120011 17.972019
v -31.641821 64.831313 13.682253
v -31.641821 69.113672 16.539022
v -10.225276 49.128586 43.667568
v -18.791391 61.975662 23.682483
f 49 48 64 
f 38 37 41 
f 37 38 45 
f 39 42 46 
f 41 37 47 
f 37 44 47 
f 34 41 48 
f 41 47 48 
f 47 40 48 
f 34 48 49 
f 38 41 50 
f 35 43 50 
f 36 40 51 
f 42 39 52 
f 38 50 53 
f 50 43 53 
f 42 33 54 
f 33 45 54 
f 45 38 54 
f 46 42 54 
f 44 37 55 
f 45 33 55 
f 37 45 55 
f 40 47 56 
f 47 44 56 
f 52 40 56 
f 36 51 57 
f 51 39 57 
f 39 53 57 
f 53 43 57 
f 34 35 58 
f 41 34 58 
f 35 50 58 
f 50 41 58 
f 39 46 59 
f 53 39 59 
f 38 53 59 
f 54 38 59 
f 46 54 59 
f 33 42 60 
f 55 33 60 
f 44 55 60 
f 42 52 61 
f 56 44 61 
f 52 56 61 
f 60 42 61 
f 44 60 61 
f 51 40 62 
f 39 51 62 
f 52 39 62 
f 40 52 62 
f 35 34 63 
f 43 35 63 
f 34 49 63 
f 49 36 63 
f 36 57 63 
f 57 43 63 
f 40 36 64 
f 48 40 64 
f 36 49 64 
o convex_2
v 11.197139 49.127049 66.536539
v 6.913243 46.270699 46.528251
v 6.913243 46.271398 29.389871
v 8.341209 53.410526 112.211861
v 9.768056 47.699922 105.061411
v 5.485278 49.127049 112.211861
v 6.913243 49.126350 29.389871
v 11.197139 46.270699 47.963205
v 9.768615 49.126350 29.389871
v 5.485278 46.270699 77.935102
v 9.768056 53.410526 92.203573
v 5.485278 50.554176 103.634564
v 9.768056 53.410526 112.211861
v 11.197139 46.270699 75.081408
v 5.485278 47.699922 50.816899
v 8.341209 53.410526 92.203573
v 11.197139 49.126350 45.101404
v 9.768615 50.553477 42.247710
v 9.768056 49.127049 112.211861
v 9.768615 46.271398 30.824826
v 5.485278 47.699922 105.061411
v 5.485278 46.270699 50.816899
v 8.341209 50.553477 42.247710
v 5.485278 50.554176 112.211861
v 9.768056 46.270699 77.935102
v 11.197139 47.699922 75.081408
v 9.768615 47.699223 29.389871
v 11.197139 47.699223 45.101404
v 8.341209 46.271398 29.389871
v 5.485278 49.127049 76.508255
v 11.197139 49.127049 46.528251
v 9.768056 46.270699 46.528251
f 93 72 96 
f 67 71 73 
f 66 72 74 
f 74 70 76 
f 68 70 77 
f 65 75 77 
f 75 68 77 
f 72 65 78 
f 74 72 78 
f 74 76 79 
f 68 75 80 
f 76 68 80 
f 71 76 80 
f 65 72 81 
f 75 81 82 
f 73 71 82 
f 80 75 82 
f 81 73 82 
f 77 70 83 
f 69 78 83 
f 78 77 83 
f 74 69 85 
f 70 74 85 
f 69 83 85 
f 83 70 85 
f 67 66 86 
f 71 67 86 
f 66 74 86 
f 79 71 86 
f 74 79 86 
f 71 80 87 
f 82 71 87 
f 80 82 87 
f 70 68 88 
f 68 76 88 
f 76 70 88 
f 69 74 89 
f 78 69 89 
f 74 78 89 
f 65 77 90 
f 78 65 90 
f 77 78 90 
f 67 73 91 
f 73 81 91 
f 84 91 92 
f 81 72 92 
f 72 84 92 
f 91 81 92 
f 66 67 93 
f 84 72 93 
f 67 91 93 
f 91 84 93 
f 76 71 94 
f 71 79 94 
f 79 76 94 
f 75 65 95 
f 65 81 95 
f 81 75 95 
f 72 66 96 
f 66 93 96 
o convex_3
v -30.213296 27.709386 -143.394773
v -24.502553 33.416355 -140.538703
v -24.502553 41.984986 -146.248747
v -24.502553 29.137491 -144.821061
v -25.930379 23.425071 -140.538703
v -30.213296 29.137491 -140.538703
v -27.357645 40.556881 -147.677830
v -24.502553 34.844460 -147.677830
v -28.784912 37.700671 -144.821061
v -28.784912 23.425071 -141.967087
v -28.784912 33.416355 -146.248747
v -30.213296 24.853176 -140.538703
v -24.502553 26.281281 -140.538703
v -25.930379 33.416355 -140.538703
v -25.930379 23.425071 -141.967087
v -24.502553 41.984986 -147.677830
v -25.930379 41.984986 -146.248747
v -25.930379 34.844460 -147.677830
v -28.784912 37.700671 -146.248747
v -28.784912 29.137491 -144.821061
v -30.213296 30.565596 -143.394773
v -27.357645 36.272566 -147.677830
v -27.357645 39.128776 -144.821061
v -30.213296 24.853176 -141.967087
v -24.502553 26.281281 -141.967087
v -28.784912 23.425071 -140.538703
v -25.930379 41.984986 -147.677830
v -27.357645 40.556881 -146.248747
v -30.213296 30.565596 -141.967087
v -28.784912 26.281281 -143.394773
v -24.502553 27.709386 -143.394773
f 121 111 127 
f 99 98 100 
f 101 98 102 
f 99 100 104 
f 101 102 108 
f 102 97 108 
f 100 98 109 
f 98 101 109 
f 98 99 110 
f 102 98 110 
f 104 100 111 
f 101 106 111 
f 106 104 111 
f 109 101 111 
f 104 103 112 
f 99 104 112 
f 110 99 113 
f 99 112 113 
f 103 104 114 
f 104 106 114 
f 105 103 115 
f 103 107 115 
f 97 107 116 
f 107 114 116 
f 97 102 117 
f 107 97 117 
f 115 107 117 
f 107 103 118 
f 103 114 118 
f 114 107 118 
f 105 102 119 
f 102 110 119 
f 113 105 119 
f 110 113 119 
f 97 106 120 
f 108 97 120 
f 106 108 120 
f 100 109 121 
f 109 111 121 
f 106 101 122 
f 101 108 122 
f 108 106 122 
f 112 103 123 
f 103 113 123 
f 113 112 123 
f 103 105 124 
f 113 103 124 
f 105 113 124 
f 102 105 125 
f 105 115 125 
f 117 102 125 
f 115 117 125 
f 106 97 126 
f 114 106 126 
f 97 116 126 
f 116 114 126 
f 111 100 127 
f 100 121 127 
o convex_4
v -28.784912 23.423254 -113.407221
v -25.930379 13.429453 -140.538004
v -24.502553 13.429453 -140.538004
v -24.502553 33.417054 -140.538004
v -30.213296 26.277787 -140.538004
v -24.502553 14.857698 -111.978697
v -24.502553 23.423254 -111.978697
v -30.213296 20.568721 -137.680955
v -25.930379 14.857698 -111.978697
v -25.930379 33.417054 -139.109479
v -30.213296 24.849542 -127.684079
v -28.784912 20.568721 -116.267066
v -25.930379 13.429453 -130.541128
v -27.357645 23.423254 -111.978697
v -30.213296 20.568721 -140.538004
v -30.213296 21.996965 -127.684079
v -27.357645 17.714187 -111.978697
v -28.784912 19.140476 -121.978368
v -24.502553 13.429453 -130.541128
v -24.502553 33.417054 -139.109479
v -25.930379 33.417054 -140.538004
v -28.784912 21.996965 -113.407221
v -30.213296 26.277787 -139.109479
f 138 137 150 
f 130 129 131 
f 131 129 132 
f 130 131 133 
f 133 131 134 
f 133 134 136 
f 132 135 138 
f 128 137 138 
f 129 130 140 
f 135 129 140 
f 136 134 141 
f 137 128 141 
f 134 137 141 
f 132 129 142 
f 135 132 142 
f 129 135 142 
f 128 138 143 
f 138 135 143 
f 136 141 144 
f 141 128 144 
f 135 140 145 
f 140 136 145 
f 143 135 145 
f 139 143 145 
f 144 139 145 
f 136 144 145 
f 130 133 146 
f 133 136 146 
f 140 130 146 
f 136 140 146 
f 134 131 147 
f 131 137 147 
f 137 134 147 
f 131 132 148 
f 132 137 148 
f 137 131 148 
f 128 143 149 
f 143 139 149 
f 139 144 149 
f 144 128 149 
f 137 132 150 
f 132 138 150 
o convex_5
v -25.930029 20.566485 -76.281101
v -25.930029 14.857977 -111.975203
v -24.502693 14.857977 -111.975203
v -27.357925 23.423254 -111.975203
v -24.502693 23.423254 -111.975203
v -24.502413 23.423254 -83.423416
v -24.502413 17.711392 -80.568586
v -27.357925 17.713069 -104.832888
v -27.357925 23.423254 -99.126724
v -25.930029 17.711392 -80.568586
v -27.357925 20.565646 -94.842733
v -25.930029 23.423254 -83.423416
v -27.357925 17.713069 -111.975203
v -24.502413 19.140196 -76.281101
v -25.930029 16.285104 -93.417065
v -25.930029 19.140196 -76.281101
v -24.502413 20.566485 -76.281101
v -27.357925 21.993611 -94.842733
v -24.502693 16.285104 -93.417065
v -25.930029 14.857977 -110.549535
v -24.502693 14.857977 -110.549535
v -24.502413 17.711392 -91.987904
v -24.502413 23.423254 -91.987904
f 156 172 173 
f 153 152 154 
f 153 154 155 
f 155 154 156 
f 156 154 159 
f 154 158 159 
f 158 160 161 
f 159 158 161 
f 151 156 162 
f 156 159 162 
f 154 152 163 
f 152 158 163 
f 158 154 163 
f 157 156 164 
f 160 157 164 
f 157 160 165 
f 160 158 165 
f 161 160 166 
f 151 161 166 
f 164 151 166 
f 160 164 166 
f 156 151 167 
f 151 164 167 
f 164 156 167 
f 161 151 168 
f 159 161 168 
f 151 162 168 
f 162 159 168 
f 157 165 169 
f 169 165 170 
f 152 153 170 
f 158 152 170 
f 165 158 170 
f 153 157 171 
f 157 169 171 
f 169 170 171 
f 170 153 171 
f 153 155 172 
f 157 153 172 
f 156 157 172 
f 155 156 173 
f 172 155 173 
o convex_6
v -10.221782 46.270699 66.522002
v 5.485278 50.554176 112.211861
v 5.485278 49.126071 112.211861
v 5.485278 47.699223 50.814383
v -10.221782 50.554176 109.352017
v -10.221782 46.270699 112.211861
v 5.485278 46.270699 77.949080
v -8.793537 47.699223 49.381386
v 2.628788 46.270699 49.381386
v -13.078271 47.699223 112.211861
v -1.655946 50.554176 100.784784
v 5.485278 47.699223 105.065325
v -8.793537 46.270699 49.381386
v -13.078271 46.270699 103.632328
v 5.485278 50.554176 102.211631
v -8.793537 50.554176 100.784784
v -13.078271 47.699223 103.632328
v -10.221782 50.554176 112.211861
v 5.485278 46.270699 50.814383
v 2.628788 47.699223 49.381386
v -13.078271 46.270699 112.211861
v -10.221782 47.699223 66.522002
v -10.221782 49.126071 87.924709
f 181 195 196 
f 175 176 177 
f 176 175 179 
f 179 174 180 
f 177 176 180 
f 180 174 182 
f 179 175 183 
f 178 175 184 
f 176 179 185 
f 179 180 185 
f 180 176 185 
f 174 181 186 
f 182 174 186 
f 181 182 186 
f 174 179 187 
f 175 177 188 
f 184 175 188 
f 181 178 189 
f 178 184 189 
f 184 181 189 
f 183 178 190 
f 174 187 190 
f 187 183 190 
f 175 178 191 
f 183 175 191 
f 178 183 191 
f 177 180 192 
f 180 182 192 
f 182 177 192 
f 177 182 193 
f 182 181 193 
f 181 184 193 
f 188 177 193 
f 184 188 193 
f 179 183 194 
f 187 179 194 
f 183 187 194 
f 181 174 195 
f 174 190 195 
f 195 190 196 
f 178 181 196 
f 190 178 196 
o convex_7
v 24.046311 43.412425 117.923722
v 12.625105 43.412425 110.783896
v 14.056425 41.986844 110.783896
v 22.620583 24.853735 117.923722
v 12.625105 47.696297 117.923722
v 21.190660 40.558887 110.783896
v 15.482154 49.126630 112.213119
v 26.904758 24.853735 116.495198
v 22.620583 24.853735 115.067372
v 12.625105 43.412425 116.494499
v 26.904758 33.419101 117.923722
v 16.909280 49.126630 117.923722
v 25.476234 40.558887 116.494499
v 21.190660 37.700597 110.783896
v 12.625105 46.268339 110.783896
v 26.904758 33.419101 116.495198
v 24.046311 43.412425 116.494499
v 26.904758 24.853735 117.923722
v 12.625105 44.840382 117.923722
v 14.055027 49.126630 112.213119
v 24.047709 24.853735 115.067372
v 19.764931 37.700597 110.783896
v 14.055027 49.126630 117.923722
v 16.909280 49.126630 115.067372
v 16.912076 44.840382 110.783896
v 12.625105 47.696297 112.213119
v 22.619185 44.840382 116.494499
v 25.476234 40.558887 117.923722
v 14.056425 46.268339 110.783896
v 22.619185 44.840382 117.923722
f 223 208 226 
f 200 197 201 
f 199 198 202 
f 198 199 205 
f 200 198 205 
f 204 200 205 
f 198 200 206 
f 201 198 206 
f 197 200 207 
f 201 197 208 
f 199 202 210 
f 202 204 210 
f 198 201 211 
f 202 198 211 
f 204 202 212 
f 207 204 212 
f 202 209 212 
f 209 207 212 
f 202 203 213 
f 197 209 213 
f 209 202 213 
f 200 204 214 
f 207 200 214 
f 204 207 214 
f 200 201 215 
f 206 200 215 
f 201 206 215 
f 208 203 216 
f 203 211 216 
f 204 205 217 
f 210 204 217 
f 205 210 217 
f 205 199 218 
f 199 210 218 
f 210 205 218 
f 201 208 219 
f 216 201 219 
f 208 216 219 
f 203 208 220 
f 203 202 221 
f 202 211 221 
f 211 201 222 
f 201 216 222 
f 216 211 222 
f 213 203 223 
f 197 213 223 
f 203 220 223 
f 220 208 223 
f 197 207 224 
f 209 197 224 
f 207 209 224 
f 211 203 225 
f 203 221 225 
f 221 211 225 
f 208 197 226 
f 197 223 226 
o convex_8
v 12.622538 19.139358 -9.161279
v 16.909001 21.994729 30.817837
v -14.504559 21.994729 30.817837
v 16.909001 19.139358 20.823058
v -7.364555 19.139358 13.681135
v -8.788251 21.994729 12.248837
v 14.052384 20.567043 -9.161279
v -14.504559 20.567043 30.817837
v 16.909001 21.994729 19.394673
v -14.504559 20.567043 17.958462
v 16.909001 20.567043 30.817837
v -14.504559 21.994729 17.958462
v 16.909001 19.139358 15.109519
v -7.364555 19.139358 10.828279
v -3.081167 21.994729 12.248837
v 14.052384 19.139358 -9.161279
v 12.622538 20.567043 -9.161279
v 12.622538 19.139358 20.819144
v 16.909001 20.567043 15.109519
v 14.052384 21.994729 17.958462
v -4.511013 19.139358 15.113433
v 11.192692 19.139358 -7.736808
v 11.192692 20.567043 -7.736808
v 5.482534 21.994729 15.093866
v 9.765921 21.994729 16.522250
v 14.052384 19.139358 20.823058
f 234 244 252 
f 227 230 231 
f 229 228 232 
f 228 229 234 
f 228 230 235 
f 232 228 235 
f 234 229 236 
f 231 234 236 
f 230 228 237 
f 228 234 237 
f 234 230 237 
f 229 232 238 
f 236 229 238 
f 230 227 239 
f 235 230 239 
f 227 231 240 
f 231 236 240 
f 233 232 241 
f 232 235 241 
f 227 233 242 
f 239 227 242 
f 233 227 243 
f 232 233 243 
f 231 230 244 
f 233 235 245 
f 235 239 245 
f 242 233 245 
f 239 242 245 
f 235 233 246 
f 241 235 246 
f 234 231 247 
f 231 244 247 
f 244 234 247 
f 227 240 248 
f 240 236 248 
f 243 227 248 
f 243 248 249 
f 238 232 249 
f 236 238 249 
f 232 243 249 
f 248 236 249 
f 233 241 250 
f 241 246 250 
f 250 246 251 
f 246 233 251 
f 233 250 251 
f 230 234 252 
f 244 230 252 
o convex_9
v 6.914082 40.558558 -144.818825
v 16.906765 39.131292 -117.696009
v 16.906765 37.702907 -117.696009
v 5.486396 43.413650 -113.406662
v 12.624825 43.413650 -144.818825
v 9.769454 37.702907 -113.406662
v 11.197139 37.702907 -136.249356
v 5.486396 43.413650 -144.818825
v 5.486396 40.558558 -113.406662
v 5.486396 40.558558 -139.105845
v 6.914082 43.413650 -113.406662
v 16.906765 37.702907 -123.405914
v 9.769454 39.131292 -144.818825
v 12.624825 43.413650 -137.679138
v 9.769454 37.702907 -136.249356
v 12.624825 39.131292 -113.406662
v 6.914082 39.131292 -114.839519
v 12.624825 41.985825 -144.818825
v 15.480197 40.558558 -121.979206
v 16.906765 39.131292 -123.405914
v 8.342886 39.131292 -144.818825
v 6.914082 39.131292 -127.689111
v 11.197139 39.131292 -141.962335
v 12.624825 37.702907 -113.406662
v 9.769454 41.985825 -113.406662
v 5.486396 41.985825 -144.818825
v 14.052511 41.985825 -129.112743
v 15.480197 40.558558 -129.112743
f 271 272 280 
f 255 258 259 
f 257 253 260 
f 256 257 260 
f 258 256 261 
f 256 260 261 
f 261 260 262 
f 257 256 263 
f 256 258 263 
f 254 255 264 
f 255 259 264 
f 253 257 265 
f 257 263 266 
f 259 258 267 
f 265 259 267 
f 255 254 268 
f 263 258 268 
f 258 261 269 
f 261 262 269 
f 267 258 269 
f 257 264 270 
f 265 257 270 
f 254 264 272 
f 264 257 272 
f 271 254 272 
f 262 253 273 
f 253 265 273 
f 267 262 273 
f 265 267 273 
f 262 267 274 
f 269 262 274 
f 267 269 274 
f 264 259 275 
f 259 265 275 
f 270 264 275 
f 265 270 275 
f 258 255 276 
f 255 268 276 
f 268 258 276 
f 268 254 277 
f 263 268 277 
f 254 271 277 
f 271 263 277 
f 260 253 278 
f 262 260 278 
f 253 262 278 
f 266 263 279 
f 263 271 279 
f 271 266 279 
f 257 266 280 
f 266 271 280 
f 272 257 280 
o convex_10
v -20.216281 7.715495 -141.955346
v -1.654549 6.286971 -20.588915
v -7.367948 10.571566 -20.588915
v -1.654549 9.143041 -147.677830
v -4.514393 0.575808 -20.588915
v -18.788455 10.571566 -20.588915
v -1.654549 3.431879 -143.385967
v -23.074029 10.571566 -140.537165
v -15.930708 4.860403 -20.588915
v -11.653521 3.431879 -137.663483
v -1.654549 0.575808 -63.445348
v -20.216281 6.286971 -101.960156
v -10.223599 10.571566 -140.537165
v -23.074029 9.143041 -119.115169
v -7.367948 3.431879 -146.247209
v -18.788455 7.715495 -26.311400
v -1.654549 0.575808 -20.588915
v -1.654549 9.143041 -113.405125
v -13.075056 3.431879 -47.720956
v -5.942219 2.004333 -119.115169
v -20.216281 6.286971 -124.825213
v -21.644106 7.715495 -140.537165
v -4.514393 0.575808 -34.870246
v -18.788455 6.286971 -49.151577
v -3.084471 2.004333 -120.533350
v -13.075056 3.431879 -20.588915
v -21.644106 10.571566 -81.993661
v -18.788455 6.286971 -141.955346
v -1.654549 4.860403 -147.677830
v -20.216281 9.143041 -47.720956
v -3.084471 0.575808 -63.445348
v -3.084471 9.143041 -147.677830
f 309 295 312 
f 282 283 285 
f 285 283 286 
f 284 282 287 
f 286 283 288 
f 285 286 289 
f 287 282 291 
f 283 284 293 
f 288 283 293 
f 284 288 293 
f 289 286 296 
f 282 285 297 
f 291 282 297 
f 285 291 297 
f 283 282 298 
f 284 283 298 
f 282 284 298 
f 290 295 300 
f 292 294 301 
f 290 299 301 
f 299 292 301 
f 288 281 302 
f 294 288 302 
f 301 294 302 
f 291 285 303 
f 285 299 303 
f 299 290 303 
f 292 289 304 
f 294 292 304 
f 289 296 304 
f 296 294 304 
f 287 291 305 
f 295 287 305 
f 300 295 305 
f 285 289 306 
f 289 292 306 
f 299 285 306 
f 292 299 306 
f 286 288 307 
f 288 294 307 
f 281 295 308 
f 295 290 308 
f 290 301 308 
f 302 281 308 
f 301 302 308 
f 284 287 309 
f 287 295 309 
f 296 286 310 
f 294 296 310 
f 286 307 310 
f 307 294 310 
f 290 300 311 
f 291 303 311 
f 303 290 311 
f 305 291 311 
f 300 305 311 
f 288 284 312 
f 281 288 312 
f 295 281 312 
f 284 309 312 
o convex_11
v -18.788455 10.571566 -141.965969
v -8.794375 13.428614 -20.588915
v -8.794375 10.571566 -20.588915
v -24.501994 20.567043 -20.588915
v -23.073609 24.851219 -124.809698
v -24.501994 10.571566 -137.676901
v -20.216840 10.571566 -20.588915
v -17.360071 24.851219 -20.588915
v -13.079529 12.000090 -136.251172
v -17.360071 24.851219 -54.865814
v -24.501994 21.994170 -140.516478
v -24.501994 24.851219 -73.424052
v -24.501994 16.285663 -23.452254
v -14.507914 10.571566 -141.965969
v -20.216840 24.851219 -20.588915
v -18.788455 24.851219 -79.150730
v -23.073609 21.994170 -140.516478
v -8.794375 13.428614 -23.452254
v -13.079529 10.571566 -136.251172
v -24.501994 24.851219 -124.809698
v -24.501994 10.571566 -140.516478
v -8.794375 10.571566 -29.167051
v -14.507914 12.000090 -141.965969
v -21.645225 12.000090 -27.729441
v -24.501994 17.711392 -20.588915
v -8.794375 12.000090 -29.167051
v -20.216840 24.851219 -94.821867
v -24.501994 23.422694 -54.865814
v -18.788455 12.000090 -141.965969
v -23.073609 14.855741 -20.588915
f 337 325 342 
f 315 314 316 
f 313 315 318 
f 315 316 319 
f 318 315 319 
f 316 314 320 
f 320 314 322 
f 317 320 322 
f 318 316 323 
f 320 317 324 
f 323 316 324 
f 316 318 325 
f 315 313 326 
f 316 320 327 
f 320 324 327 
f 322 321 328 
f 317 322 328 
f 317 321 329 
f 323 317 329 
f 314 315 330 
f 322 314 330 
f 321 322 330 
f 315 326 331 
f 326 321 331 
f 317 323 332 
f 324 317 332 
f 323 324 332 
f 313 318 333 
f 323 313 333 
f 318 323 333 
f 330 315 334 
f 315 331 334 
f 331 321 334 
f 326 313 335 
f 321 326 335 
f 329 321 335 
f 323 329 335 
f 318 319 336 
f 325 318 336 
f 319 325 336 
f 319 316 337 
f 316 325 337 
f 321 330 338 
f 330 334 338 
f 334 321 338 
f 321 317 339 
f 317 328 339 
f 328 321 339 
f 324 316 340 
f 316 327 340 
f 327 324 340 
f 313 323 341 
f 335 313 341 
f 323 335 341 
f 325 319 342 
f 319 337 342 
o convex_12
v 2.631025 4.860822 -140.523327
v 19.764931 11.999531 -20.588915
v 12.621610 11.999531 -20.588915
v -1.654549 0.575808 -20.588915
v -1.654549 10.570447 -147.671820
v 15.479358 6.287670 -79.137870
v 11.193785 11.999531 -150.533761
v -1.654549 6.287670 -20.588915
v 12.621610 3.431739 -20.588915
v -1.654549 0.575808 -76.288649
v 1.203199 11.999531 -136.249495
v 9.765959 7.714517 -150.533761
v -1.654549 4.860822 -147.671820
v 16.907184 10.570447 -91.984806
v 1.203199 0.575808 -66.290935
v 18.335009 7.714517 -24.875467
v 4.058850 0.575808 -20.588915
v 15.479358 4.860822 -42.008955
v 18.335009 11.999531 -72.002097
v 4.058850 2.003774 -79.137870
v 19.764931 10.570447 -33.448571
v -0.224626 3.431739 -130.538333
v 12.621610 3.431739 -32.023960
v 2.631025 11.999531 -149.096431
v -1.654549 10.570447 -134.824884
v 18.335009 10.570447 -72.002097
v 15.479358 4.860822 -20.588915
v 11.193785 10.570447 -150.533761
v 9.765959 11.999531 -47.732837
v 1.203199 4.860822 -147.671820
v 4.058850 0.575808 -29.162019
v 6.916598 7.714517 -150.533761
f 347 366 374 
f 344 345 346 
f 345 344 349 
f 346 345 350 
f 347 346 350 
f 344 346 351 
f 346 347 352 
f 345 349 353 
f 352 347 355 
f 348 354 356 
f 346 352 357 
f 351 346 359 
f 346 357 359 
f 348 358 360 
f 349 344 361 
f 356 349 361 
f 343 354 362 
f 354 348 362 
f 348 360 362 
f 344 358 363 
f 358 348 363 
f 361 344 363 
f 352 355 364 
f 357 352 364 
f 343 362 364 
f 362 357 364 
f 351 359 365 
f 360 351 365 
f 357 362 365 
f 362 360 365 
f 353 349 366 
f 347 353 366 
f 347 350 367 
f 353 347 367 
f 350 353 367 
f 348 356 368 
f 356 361 368 
f 363 348 368 
f 361 363 368 
f 344 351 369 
f 358 344 369 
f 351 360 369 
f 360 358 369 
f 354 349 370 
f 349 356 370 
f 356 354 370 
f 350 345 371 
f 345 353 371 
f 353 350 371 
f 354 343 372 
f 355 354 372 
f 343 364 372 
f 364 355 372 
f 359 357 373 
f 365 359 373 
f 357 365 373 
f 349 354 374 
f 355 347 374 
f 354 355 374 
f 366 349 374 
o convex_13
v -20.215582 6.288928 90.785672
v -8.798009 7.717312 116.495757
v -11.652403 10.571006 113.637590
v -10.224298 16.283008 -20.588915
v -8.798009 3.432158 -20.588915
v -23.071793 17.711392 -20.588915
v -27.357925 17.711392 110.779423
v -11.652403 2.003774 116.495757
v -15.936718 4.860543 -20.588915
v -20.215582 17.711392 100.769129
v -27.357925 14.854623 106.498881
v -8.798009 16.283008 -9.156247
v -23.071793 14.854623 -20.588915
v -8.798009 2.003774 116.495757
v -18.787477 4.860543 115.059964
v -14.508613 17.711392 -10.592040
v -13.080508 3.432158 -20.588915
v -17.364823 6.288928 -20.588915
v -27.357925 17.711392 80.788796
v -21.643687 17.711392 110.779423
v -8.798009 2.003774 73.650088
v -8.798009 9.144159 105.063089
v -18.787477 4.860543 89.363297
v -23.071793 9.144159 113.637590
v -18.787477 11.997854 115.059964
v -15.936718 3.432158 110.779423
v -8.798009 13.426238 -20.588915
v -27.357925 16.283008 80.788796
v -23.071793 9.144159 109.343630
v -10.224298 2.003774 73.650088
v -17.364823 17.711392 -20.588915
v -14.508613 7.717312 116.495757
f 399 398 406 
f 378 379 380 
f 380 379 383 
f 380 381 384 
f 376 379 386 
f 380 383 387 
f 379 376 388 
f 376 382 388 
f 380 384 390 
f 386 378 390 
f 384 386 390 
f 383 379 391 
f 387 383 392 
f 385 387 392 
f 381 380 393 
f 385 381 393 
f 380 387 393 
f 376 377 394 
f 377 384 394 
f 384 381 394 
f 379 388 395 
f 388 382 395 
f 377 376 396 
f 384 377 396 
f 376 386 396 
f 386 384 396 
f 383 391 397 
f 375 392 397 
f 392 383 397 
f 381 385 398 
f 397 389 398 
f 376 394 399 
f 394 381 399 
f 381 398 399 
f 382 389 400 
f 391 382 400 
f 389 397 400 
f 397 391 400 
f 379 378 401 
f 378 386 401 
f 386 379 401 
f 387 385 402 
f 385 393 402 
f 393 387 402 
f 392 375 403 
f 385 392 403 
f 375 397 403 
f 398 385 403 
f 397 398 403 
f 391 379 404 
f 382 391 404 
f 379 395 404 
f 395 382 404 
f 378 380 405 
f 390 378 405 
f 380 390 405 
f 382 376 406 
f 389 382 406 
f 398 389 406 
f 376 399 406 
o convex_14
v -31.640143 20.567323 107.916224
v -14.506237 21.995288 30.823428
v -14.506237 20.567323 30.823428
v -24.500457 17.711392 -20.588915
v -21.647601 17.711392 109.343630
v -20.220334 23.423254 -20.588915
v -25.927723 23.423254 107.916224
v -15.936858 17.711392 -20.588915
v -28.783933 17.711392 109.343630
v -30.211200 23.423254 106.488817
v -24.500457 20.567323 -20.588915
v -17.364124 23.423254 -20.588915
v -21.647601 19.139917 109.343630
v -15.936858 17.711392 9.399475
v -24.500457 23.423254 100.779193
v -31.640143 21.995288 106.488817
v -28.783933 17.711392 87.932536
v -15.936858 20.567323 -20.588915
v -20.220334 23.423254 45.097490
v -14.506237 21.995288 19.417038
v -27.354990 19.139917 110.783896
v -30.211200 21.995288 109.343630
v -23.073190 19.139917 110.783896
v -17.364124 23.423254 -12.011619
v -31.640143 20.567323 106.488817
v -27.354990 17.711392 110.783896
v -14.506237 20.567323 19.417038
v -24.500457 21.995288 109.343630
v -17.364124 17.711392 35.105647
v -18.791391 23.423254 19.417038
v -30.211200 23.423254 107.916224
v -23.073190 17.711392 110.783896
f 429 432 438 
f 409 408 411 
f 411 410 414 
f 410 412 414 
f 410 411 415 
f 413 412 416 
f 412 410 417 
f 416 412 417 
f 412 413 418 
f 414 412 418 
f 411 408 419 
f 414 409 420 
f 411 414 420 
f 418 413 421 
f 419 408 421 
f 416 417 422 
f 415 407 423 
f 410 415 423 
f 414 418 424 
f 421 408 425 
f 418 421 425 
f 408 409 426 
f 418 408 426 
f 424 418 426 
f 422 407 428 
f 428 427 429 
f 411 419 429 
f 408 418 430 
f 418 425 430 
f 417 410 431 
f 407 422 431 
f 422 417 431 
f 423 407 431 
f 410 423 431 
f 407 415 432 
f 415 411 432 
f 428 407 432 
f 427 428 432 
f 429 427 432 
f 409 414 433 
f 414 424 433 
f 426 409 433 
f 424 426 433 
f 421 413 434 
f 419 421 434 
f 413 428 434 
f 428 429 434 
f 429 419 434 
f 409 411 435 
f 420 409 435 
f 411 420 435 
f 425 408 436 
f 408 430 436 
f 430 425 436 
f 413 416 437 
f 416 422 437 
f 428 413 437 
f 422 428 437 
f 411 429 438 
f 432 411 438 
o convex_15
v -0.226583 43.414209 -100.547147
v 5.485278 41.987362 -20.596743
v 5.485278 40.559257 -20.596743
v 5.485278 44.842734 -100.547147
v -0.226583 43.414209 -26.309722
v -0.226583 40.559257 -20.596743
v 5.485278 43.414209 -100.547147
v 1.201382 44.842734 -63.420608
v 5.485278 43.414209 -24.885390
v -0.226583 44.842734 -100.547147
v -0.226583 40.559257 -27.741880
v 5.485278 44.842734 -63.420608
v 5.485278 40.559257 -26.309722
v 1.201382 41.987362 -67.709256
v -0.226583 44.842734 -64.852766
v -0.226583 41.987362 -20.596743
v 1.201382 43.414209 -24.885390
v 5.485278 41.987362 -64.852766
v -0.226583 41.987362 -67.709256
v 2.629347 40.559257 -27.741880
f 452 451 458 
f 440 441 442 
f 441 440 444 
f 443 439 444 
f 442 441 445 
f 439 442 445 
f 440 442 447 
f 442 439 448 
f 439 443 448 
f 446 442 448 
f 444 439 449 
f 441 444 449 
f 442 446 450 
f 446 447 450 
f 447 442 450 
f 445 441 451 
f 441 449 451 
f 439 445 452 
f 443 446 453 
f 448 443 453 
f 446 448 453 
f 444 440 454 
f 443 444 454 
f 446 443 455 
f 447 446 455 
f 440 447 455 
f 454 440 455 
f 443 454 455 
f 445 451 456 
f 451 452 456 
f 452 445 456 
f 449 439 457 
f 452 449 457 
f 439 452 457 
f 451 449 458 
f 449 452 458 
o convex_16
v 9.768056 10.570447 75.079171
v 2.629347 0.575808 -20.588915
v 2.629347 6.287670 -20.588915
v 2.629347 0.575808 117.923722
v 12.625105 3.431739 -20.588915
v 11.196580 2.003774 117.923722
v 2.629347 11.999531 45.101544
v 12.625105 9.141364 -20.588915
v 12.625105 9.141364 117.923722
v 2.629347 7.714517 112.202077
v 6.913942 0.575808 100.785902
v 12.625105 3.431739 117.923722
v 9.768056 9.141364 -20.588915
v 4.057872 0.575808 -20.588915
v 4.057872 11.999531 53.643337
v 4.057872 6.287670 117.923722
v 2.629347 11.999531 53.643337
v 11.196580 9.141364 117.923722
v 5.486396 7.714517 -20.588915
v 6.913942 0.575808 117.923722
v 4.057872 11.999531 45.101544
v 2.629347 4.860822 117.923722
v 11.196580 2.003774 115.062899
v 6.913942 7.714517 117.923722
v 2.629347 6.287670 116.486532
v 9.768056 10.570447 73.655539
f 466 479 484 
f 461 460 462 
f 460 461 463 
f 461 462 465 
f 463 461 466 
f 462 464 467 
f 463 466 467 
f 466 459 467 
f 465 462 468 
f 462 460 469 
f 464 463 470 
f 463 467 470 
f 467 464 470 
f 466 461 471 
f 465 466 471 
f 460 463 472 
f 469 460 472 
f 463 469 472 
f 467 459 473 
f 462 467 474 
f 465 468 475 
f 473 465 475 
f 467 473 475 
f 474 467 476 
f 475 468 476 
f 467 475 476 
f 461 465 477 
f 471 461 477 
f 465 471 477 
f 464 462 478 
f 462 469 478 
f 469 464 478 
f 466 465 479 
f 473 459 479 
f 465 473 479 
f 468 462 480 
f 462 474 480 
f 463 464 481 
f 469 463 481 
f 464 469 481 
f 474 476 482 
f 476 468 482 
f 468 480 483 
f 480 474 483 
f 482 468 483 
f 474 482 483 
f 459 466 484 
f 479 459 484 
o convex_17
v 24.048827 16.282169 70.794716
v 12.625105 3.432997 73.655539
v 14.053070 3.432997 73.655539
v 12.625105 4.861941 -20.588915
v 12.625105 14.853225 -7.735550
v 16.910119 14.853225 117.923722
v 22.619744 14.853225 -20.588915
v 19.763813 6.289626 117.923722
v 16.910119 4.861941 -10.582815
v 12.625105 9.144998 117.923722
v 24.048827 13.425540 117.923722
v 15.481035 16.282169 -20.588915
v 18.336966 16.282169 117.923722
v 12.625105 3.432997 117.923722
v 22.619744 16.282169 -20.588915
v 24.048827 16.282169 117.923722
v 18.336966 4.861941 117.923722
v 14.053070 16.282169 0.833360
v 15.481035 4.861941 -20.588915
v 21.190660 11.997854 -16.304460
v 19.763813 6.289626 106.493989
v 16.910119 16.282169 90.779801
v 12.625105 10.570168 -20.588915
v 18.336966 4.861941 87.932536
v 24.048827 14.853225 70.794716
v 18.336966 7.717312 -20.588915
v 14.053070 3.432997 117.923722
v 24.048827 13.425540 115.062899
v 12.625105 14.853225 -10.582815
v 14.053070 16.282169 -7.735550
f 496 513 514 
f 487 486 488 
f 488 486 489 
f 489 486 494 
f 492 490 494 
f 490 492 495 
f 491 488 496 
f 490 495 497 
f 485 496 497 
f 486 487 498 
f 494 486 498 
f 492 494 498 
f 485 491 499 
f 496 485 499 
f 491 496 499 
f 495 485 500 
f 485 497 500 
f 497 495 500 
f 492 498 501 
f 497 496 502 
f 487 488 503 
f 488 491 503 
f 493 487 503 
f 495 492 505 
f 492 501 505 
f 493 504 505 
f 489 494 506 
f 494 490 506 
f 490 497 506 
f 502 489 506 
f 497 502 506 
f 488 489 507 
f 496 488 507 
f 487 493 508 
f 501 487 508 
f 505 501 508 
f 493 505 508 
f 491 485 509 
f 485 495 509 
f 503 491 510 
f 493 503 510 
f 491 504 510 
f 504 493 510 
f 498 487 511 
f 487 501 511 
f 501 498 511 
f 504 491 512 
f 495 505 512 
f 505 504 512 
f 491 509 512 
f 509 495 512 
f 489 502 513 
f 507 489 513 
f 496 507 513 
f 502 496 514 
f 513 502 514 
o convex_18
v -17.361203 44.841057 -144.816448
v -7.367808 44.841057 -89.131252
v -10.223263 44.841057 -89.131252
v -11.651690 39.132969 -93.421018
v -7.367808 44.841057 -130.540848
v -21.643687 39.132969 -144.816448
v -18.788232 40.560515 -107.702069
v -13.080116 46.270699 -114.842594
v -18.788232 39.132969 -144.816448
v -11.651690 46.270699 -144.816448
v -15.934174 39.132969 -90.564807
v -7.367808 46.270000 -104.845858
v -21.643687 40.560515 -131.963503
v -7.367808 43.414908 -89.131252
v -15.934174 40.560515 -90.564807
v -7.367808 46.270000 -130.540848
v -20.216658 39.132969 -117.682452
v -11.651690 44.841057 -144.816448
v -11.651690 46.270000 -104.845858
v -14.505747 46.270699 -129.107292
v -11.651690 39.132969 -89.142153
v -7.367808 43.414908 -106.273963
v -21.643687 40.560515 -144.816448
v -17.361203 39.132969 -136.247818
v -14.505747 46.270699 -144.816448
v -18.788232 41.988061 -119.110557
v -14.505747 40.560515 -89.142153
v -13.080116 43.413511 -144.816448
v -21.643687 39.132969 -131.963503
v -20.216658 40.560515 -117.682452
v -17.361203 44.841057 -141.960238
v -11.651690 44.841057 -94.849123
f 533 529 546 
f 520 515 523 
f 518 520 523 
f 523 515 524 
f 520 518 525 
f 517 516 526 
f 516 519 526 
f 524 522 526 
f 516 517 528 
f 519 516 528 
f 521 525 529 
f 519 524 530 
f 526 519 530 
f 524 526 530 
f 520 525 531 
f 525 521 531 
f 524 519 532 
f 523 524 532 
f 517 526 533 
f 526 522 533 
f 521 529 533 
f 522 524 534 
f 525 518 535 
f 528 517 535 
f 518 528 535 
f 518 519 536 
f 528 518 536 
f 519 528 536 
f 515 520 537 
f 527 515 537 
f 520 527 537 
f 519 518 538 
f 523 519 538 
f 518 523 538 
f 524 515 539 
f 534 524 539 
f 515 534 539 
f 521 533 540 
f 533 522 540 
f 522 534 540 
f 534 527 540 
f 517 529 541 
f 529 525 541 
f 525 535 541 
f 535 517 541 
f 519 523 542 
f 532 519 542 
f 523 532 542 
f 527 520 543 
f 520 531 543 
f 531 527 543 
f 531 521 544 
f 527 531 544 
f 521 540 544 
f 540 527 544 
f 515 527 545 
f 534 515 545 
f 527 534 545 
f 529 517 546 
f 517 533 546 
o convex_19
v 12.625943 37.702907 12.258201
v 21.192897 40.559397 110.783896
v 18.335848 43.414209 110.783896
v 14.054468 41.986803 110.783896
v 8.343166 46.270699 25.113991
v 16.907323 39.131152 23.686642
v 6.913243 41.986803 25.113991
v 19.761577 37.702907 110.783896
v 11.200214 46.270699 107.919552
v 21.192897 37.702907 76.508218
v 14.054468 46.270699 95.073407
v 6.913243 44.842454 12.258201
v 6.913243 46.270699 52.233632
v 21.192897 39.131152 76.508218
v 12.625943 37.702907 27.968690
v 15.480197 37.702907 12.258201
v 11.200214 44.842454 107.919552
v 11.200214 46.270699 53.670626
v 12.625943 41.986803 13.695195
v 18.335848 37.702907 99.355455
v 9.770292 39.131152 12.258201
v 14.054468 46.270699 110.783896
v 21.192897 40.559397 97.928106
v 6.913243 44.842454 52.233632
v 11.200214 43.414209 97.928106
v 21.192897 37.702907 110.783896
v 6.913243 41.986803 12.258201
v 8.343166 44.842454 12.258201
v 15.480197 39.131152 12.258201
v 6.913243 46.270699 25.113991
v 9.770292 46.270699 36.532787
v 16.907323 37.702907 23.686642
f 556 562 578 
f 548 549 550 
f 548 550 554 
f 554 547 556 
f 551 555 557 
f 555 551 559 
f 558 553 559 
f 548 556 560 
f 547 554 561 
f 556 547 562 
f 547 558 562 
f 550 555 563 
f 555 559 563 
f 551 557 564 
f 560 552 564 
f 554 550 566 
f 553 561 566 
f 561 554 566 
f 558 547 567 
f 547 561 567 
f 561 553 567 
f 550 549 568 
f 555 550 568 
f 549 557 568 
f 557 555 568 
f 549 548 569 
f 557 549 569 
f 548 560 569 
f 564 557 569 
f 560 564 569 
f 559 553 570 
f 563 559 570 
f 563 570 571 
f 550 563 571 
f 566 550 571 
f 553 566 571 
f 570 553 571 
f 548 554 572 
f 556 548 572 
f 554 556 572 
f 553 558 573 
f 558 567 573 
f 567 553 573 
f 558 551 574 
f 562 558 574 
f 551 565 574 
f 574 565 575 
f 552 562 575 
f 565 552 575 
f 562 574 575 
f 551 558 576 
f 559 551 576 
f 558 559 576 
f 551 564 577 
f 564 552 577 
f 565 551 577 
f 552 565 577 
f 560 556 578 
f 552 560 578 
f 562 552 578 
o convex_20
v 11.197139 49.126630 62.242858
v 15.481035 49.126630 112.206969
v 15.481035 46.270699 112.206969
v 11.197139 47.698664 96.501167
v 12.625384 46.270699 65.094456
v 12.625384 46.270699 112.206969
v 15.481035 49.126630 97.929412
v 11.197139 46.270699 65.094456
v 12.625384 49.126630 100.781011
v 12.625384 49.126630 62.242858
v 15.481035 46.270699 99.357657
v 12.625384 47.698664 112.206969
v 11.197139 46.270699 96.501167
v 11.197139 49.126630 83.656747
v 12.625384 47.698664 62.242858
v 14.052791 49.126630 112.206969
v 14.052791 47.698664 79.372013
v 11.197139 47.698664 62.242858
v 15.481035 47.698664 97.929412
v 14.052791 49.126630 79.372013
f 595 588 598 
f 583 581 584 
f 581 580 584 
f 579 580 585 
f 580 581 585 
f 582 579 586 
f 583 584 586 
f 580 579 587 
f 579 585 588 
f 581 583 589 
f 585 581 589 
f 584 580 590 
f 582 584 590 
f 587 582 590 
f 584 582 591 
f 582 586 591 
f 586 584 591 
f 579 582 592 
f 587 579 592 
f 582 587 592 
f 583 586 593 
f 579 588 593 
f 589 583 593 
f 580 587 594 
f 590 580 594 
f 587 590 594 
f 593 588 595 
f 589 593 595 
f 586 579 596 
f 579 593 596 
f 593 586 596 
f 585 589 597 
f 595 585 597 
f 589 595 597 
f 588 585 598 
f 585 595 598 
o convex_21
v -23.071143 36.275920 109.355930
v -7.366410 53.410526 117.923722
v -7.366410 53.410526 115.067233
v -25.927973 41.986896 112.212420
v -21.644686 36.275920 113.639826
v -11.653610 44.841546 109.355930
v -7.366410 49.126874 117.923722
v -15.934941 50.552522 116.495477
v -17.361399 44.841546 109.355930
v -25.927973 39.132247 113.639826
v -11.651654 53.410526 115.067233
v -7.366410 50.552522 112.212420
v -27.356387 36.275920 110.785853
v -10.223239 49.126874 117.923722
v -23.071143 44.841546 112.212420
v -25.927973 40.561249 110.785853
v -14.508483 41.986896 109.355930
v -14.508483 46.267193 109.355930
v -25.927973 41.986896 113.639826
v -10.223239 53.410526 117.923722
v -13.082025 43.414221 115.066394
v -7.366410 49.126874 112.212420
v -21.644686 36.275920 109.355930
v -23.071143 39.132247 109.355930
v -27.356387 36.275920 112.212420
v -23.071143 36.275920 113.639826
v -27.356387 37.704922 110.785853
v -10.223239 50.552522 112.212420
v -11.653610 46.267193 109.355930
v -11.653610 44.841546 116.495477
v -11.651654 53.410526 116.495477
v -15.934941 47.699550 116.495477
f 608 612 630 
f 601 600 605 
f 604 599 607 
f 600 601 609 
f 601 605 610 
f 599 603 611 
f 605 600 612 
f 606 609 613 
f 609 607 613 
f 602 613 614 
f 613 607 614 
f 599 604 615 
f 604 607 616 
f 607 609 616 
f 608 606 617 
f 613 602 617 
f 606 613 617 
f 600 609 618 
f 612 600 618 
f 606 612 618 
f 603 615 619 
f 610 605 620 
f 604 610 620 
f 615 604 620 
f 605 615 620 
f 603 599 621 
f 599 615 621 
f 615 603 621 
f 607 599 622 
f 614 607 622 
f 611 603 623 
f 608 617 623 
f 612 608 624 
f 623 603 624 
f 608 623 624 
f 599 611 625 
f 602 614 625 
f 617 602 625 
f 622 599 625 
f 614 622 625 
f 611 623 625 
f 623 617 625 
f 609 601 626 
f 601 610 626 
f 616 609 626 
f 610 616 626 
f 610 604 627 
f 604 616 627 
f 616 610 627 
f 605 612 628 
f 615 605 628 
f 603 619 628 
f 619 615 628 
f 624 603 628 
f 612 624 628 
f 609 606 629 
f 618 609 629 
f 606 618 629 
f 606 608 630 
f 612 606 630 
o convex_22
v 9.767497 53.410526 117.923722
v -7.364733 49.126630 112.211861
v -7.364733 50.554875 112.211861
v 9.767497 49.126630 112.211861
v -7.364733 49.126630 117.923722
v 9.767497 53.410526 112.211861
v -7.364733 53.410526 117.923722
v 9.767497 49.126630 117.923722
v -7.364733 53.410526 116.495757
v 8.338693 53.410526 112.211861
f 639 636 640 
f 632 633 634 
f 633 632 635 
f 632 634 635 
f 634 633 636 
f 631 634 636 
f 635 631 637 
f 633 635 637 
f 631 636 637 
f 634 631 638 
f 631 635 638 
f 635 634 638 
f 633 637 639 
f 637 636 639 
f 636 633 640 
f 633 639 640 
o convex_23
v 5.487794 11.999531 -149.101043
v 21.191219 21.993331 -91.987182
v 21.191219 19.137960 -91.987182
v 6.914921 13.429732 -99.127848
v 12.625105 24.848703 -150.533761
v 12.625105 11.999531 -147.674056
v 15.479358 24.848703 -94.846887
v 18.335289 23.421017 -146.247070
v 16.906485 11.999531 -91.987182
v 4.060667 13.429732 -133.386995
v 11.197978 11.999531 -91.987182
v 16.906485 24.848703 -150.533761
v 21.191219 19.137960 -99.127848
v 21.191219 23.421017 -109.128218
v 12.625105 24.848703 -131.960008
v 18.335289 24.848703 -91.987182
v 14.052232 14.857418 -150.533761
v 6.914921 11.999531 -99.127848
v 18.335289 21.993331 -146.247070
v 6.914921 16.285104 -150.533761
v 18.335289 13.429732 -94.846887
v 12.625105 17.712790 -91.987182
v 11.197978 23.421017 -150.533761
v 4.060667 11.999531 -133.386995
v 11.197978 11.999531 -150.533761
v 4.060667 13.429732 -137.679417
v 21.191219 23.421017 -94.846887
v 16.906485 20.565646 -150.533761
v 16.906485 19.137960 -146.247070
v 21.191219 20.565646 -106.274244
v 14.052232 24.848703 -111.982191
v 16.906485 11.999531 -99.127848
f 646 661 672 
f 643 642 649 
f 641 646 649 
f 644 647 650 
f 649 642 651 
f 641 649 651 
f 645 647 652 
f 642 643 653 
f 648 652 654 
f 642 653 654 
f 647 645 655 
f 651 642 656 
f 652 647 656 
f 654 652 656 
f 645 652 657 
f 641 651 658 
f 651 644 658 
f 652 648 659 
f 648 654 659 
f 645 657 660 
f 643 649 661 
f 653 643 661 
f 646 657 661 
f 647 644 662 
f 644 651 662 
f 651 656 662 
f 656 647 662 
f 655 645 663 
f 650 655 663 
f 645 660 663 
f 644 650 664 
f 641 658 664 
f 658 644 664 
f 646 641 665 
f 657 646 665 
f 641 660 665 
f 660 657 665 
f 660 641 666 
f 650 663 666 
f 663 660 666 
f 641 664 666 
f 664 650 666 
f 642 654 667 
f 656 642 667 
f 654 656 667 
f 657 652 668 
f 652 659 668 
f 659 657 668 
f 659 653 669 
f 657 659 669 
f 653 661 669 
f 661 657 669 
f 654 653 670 
f 659 654 670 
f 653 659 670 
f 650 647 671 
f 647 655 671 
f 655 650 671 
f 649 646 672 
f 661 649 672 
o convex_24
v 16.909700 11.999531 -91.980193
v 24.048827 20.565646 -20.595904
v 19.764093 24.848703 -20.595904
v 14.055307 11.999531 -20.595904
v 16.909700 24.848703 -91.980193
v 11.197139 14.857418 -89.122306
v 22.619744 21.993331 -91.980193
v 22.619744 14.857418 -20.595904
v 18.336267 24.848703 -20.595904
v 19.764093 11.999531 -56.288049
v 11.197139 11.999531 -91.980193
v 22.619744 19.137960 -84.838969
v 12.627481 13.429732 -39.161689
v 19.764093 11.999531 -20.595904
v 24.048827 19.137960 -52.011699
v 19.764093 24.848703 -81.981082
v 16.909700 24.848703 -60.564398
v 18.336267 11.999531 -86.264419
v 24.048827 17.712790 -33.445915
v 14.055307 13.429732 -20.595904
v 22.619744 20.565646 -91.980193
v 21.191918 16.285104 -83.413520
v 11.197139 11.999531 -80.555633
v 24.048827 20.565646 -52.011699
v 24.048827 17.712790 -20.595904
v 11.197139 14.857418 -91.980193
v 12.627481 11.999531 -39.161689
v 18.336267 24.848703 -91.980193
v 22.619744 14.857418 -26.311678
v 18.336267 13.429732 -91.980193
v 19.764093 13.429732 -77.697746
v 11.197139 13.429732 -80.555633
f 695 685 704 
f 674 675 676 
f 673 677 679 
f 674 676 680 
f 676 675 681 
f 675 677 681 
f 676 673 682 
f 673 676 683 
f 677 673 683 
f 681 678 685 
f 680 676 686 
f 676 682 686 
f 682 680 686 
f 677 675 688 
f 677 678 689 
f 681 677 689 
f 678 681 689 
f 682 673 690 
f 687 674 691 
f 676 681 692 
f 685 676 692 
f 681 685 692 
f 673 679 693 
f 687 684 693 
f 690 693 694 
f 684 687 694 
f 687 691 694 
f 693 684 694 
f 683 676 695 
f 678 683 695 
f 675 674 696 
f 674 687 696 
f 688 675 696 
f 679 688 696 
f 693 679 696 
f 687 693 696 
f 674 680 697 
f 691 674 697 
f 680 691 697 
f 678 677 698 
f 677 683 698 
f 683 678 698 
f 676 685 699 
f 695 676 699 
f 685 695 699 
f 679 677 700 
f 677 688 700 
f 688 679 700 
f 680 682 701 
f 691 680 701 
f 682 691 701 
f 690 673 702 
f 673 693 702 
f 693 690 702 
f 682 690 703 
f 691 682 703 
f 690 694 703 
f 694 691 703 
f 685 678 704 
f 678 695 704 
o convex_25
v -5.938445 0.576787 72.233304
v 2.629347 4.858586 117.923722
v 2.629347 -0.851319 117.923722
v 2.629347 0.576787 49.381386
v -8.794375 7.714796 116.494639
v -4.509361 7.714796 49.381386
v 2.629347 7.714796 73.662388
v -8.794375 2.004892 49.381386
v -7.366410 0.576787 116.494639
v -8.794375 7.714796 49.381386
v -1.655667 -0.851319 70.804221
v 2.629347 7.714796 112.207388
v 2.629347 6.286691 49.381386
v -8.794375 2.004892 116.494639
v -3.082514 -0.851319 117.923722
v 1.201382 -0.851319 65.101305
v -4.509361 0.576787 49.381386
v -4.509361 4.858586 117.923722
v -7.366410 0.576787 106.497763
v 2.629347 -0.851319 93.642721
v 2.629347 6.286691 116.494639
v -3.082514 -0.851319 105.068680
v -7.366410 7.714796 116.494639
v -0.226583 -0.851319 65.101305
v -4.509361 0.576787 117.923722
f 719 722 729 
f 706 707 708 
f 706 708 711 
f 710 709 711 
f 710 708 712 
f 709 710 714 
f 712 709 714 
f 710 712 714 
f 705 712 715 
f 706 711 716 
f 711 709 716 
f 708 710 717 
f 711 708 717 
f 710 711 717 
f 709 712 718 
f 712 713 718 
f 718 713 719 
f 707 706 719 
f 715 707 719 
f 707 715 720 
f 712 708 721 
f 715 712 721 
f 706 709 722 
f 709 718 722 
f 719 706 722 
f 712 705 723 
f 713 712 723 
f 705 715 723 
f 719 713 723 
f 708 707 724 
f 707 720 724 
f 720 708 724 
f 706 716 725 
f 715 719 726 
f 723 715 726 
f 719 723 726 
f 709 706 727 
f 716 709 727 
f 706 725 727 
f 725 716 727 
f 708 720 728 
f 720 715 728 
f 715 721 728 
f 721 708 728 
f 718 719 729 
f 722 718 729 
o convex_26
v -20.218098 36.274662 47.943358
v -13.078271 36.274662 25.099267
v -13.078271 34.847116 25.099267
v -17.361049 33.419291 -20.581088
v -18.789574 33.419291 59.369316
v -15.935320 36.274662 -20.581088
v -14.506796 33.419291 -20.581088
v -13.078271 36.274662 -20.581088
v -20.218098 33.419291 42.230379
v -17.361049 36.274662 55.080669
v -17.361049 34.847116 -20.581088
v -20.218098 36.274662 59.369316
v -15.935320 33.419291 23.674935
v -13.078271 34.847116 -20.581088
v -17.361049 36.274662 -10.587287
v -20.218098 33.419291 59.369316
v -17.361049 34.847116 55.080669
v -17.361049 33.419291 49.367690
v -14.506796 33.419291 -7.730798
v -20.218098 34.847116 42.230379
v -18.789574 36.274662 59.369316
f 746 739 750 
f 730 731 735 
f 733 735 736 
f 734 733 736 
f 731 732 737 
f 735 731 737 
f 736 735 737 
f 733 734 738 
f 731 730 739 
f 732 731 739 
f 735 733 740 
f 733 738 740 
f 730 738 741 
f 739 730 741 
f 734 736 742 
f 737 732 743 
f 736 737 743 
f 730 735 744 
f 740 730 744 
f 735 740 744 
f 738 734 745 
f 741 738 745 
f 734 741 745 
f 734 732 746 
f 732 739 746 
f 732 734 747 
f 742 732 747 
f 734 742 747 
f 732 742 748 
f 742 736 748 
f 743 732 748 
f 736 743 748 
f 738 730 749 
f 730 740 749 
f 740 738 749 
f 741 734 750 
f 739 741 750 
f 734 746 750 
o convex_27
v -24.500876 33.418033 105.072034
v -23.073609 23.423254 59.377144
v -21.647181 23.423254 59.377144
v -18.790133 36.274942 59.377144
v -24.500876 23.423254 105.072034
v -20.219076 34.845858 99.360173
v -27.356247 24.852337 99.360173
v -21.647181 34.845858 63.662158
v -20.219076 26.280163 63.662158
v -23.073609 36.274942 105.072034
v -24.500876 24.852337 62.235311
v -27.356247 23.423254 105.072034
v -18.790133 36.274942 77.944048
v -23.073609 36.274942 92.212519
v -20.219076 36.274942 59.377144
v -18.790133 31.990207 65.089005
v -21.647181 36.274942 105.072034
v -24.500876 23.423254 62.235311
v -18.790133 31.990207 59.377144
v -21.647181 23.423254 69.378492
v -23.073609 24.852337 95.070686
v -21.647181 31.990207 105.072034
v -21.647181 33.418033 59.377144
v -18.790133 34.845858 77.944048
v -20.219076 36.274942 99.360173
v -20.219076 30.562381 82.224589
v -27.356247 24.852337 105.072034
v -27.356247 23.423254 99.360173
v -24.500876 33.418033 99.360173
v -21.647181 36.274942 70.800866
v -21.647181 30.562381 100.787020
v -23.073609 27.707988 59.377144
f 761 773 782 
f 753 752 754 
f 752 753 755 
f 751 755 760 
f 757 758 761 
f 755 751 762 
f 752 755 762 
f 754 760 763 
f 751 760 764 
f 760 754 764 
f 754 752 765 
f 764 754 765 
f 754 763 766 
f 760 755 767 
f 763 760 767 
f 761 752 768 
f 757 761 768 
f 752 762 768 
f 753 754 769 
f 759 753 769 
f 754 766 769 
f 766 759 769 
f 755 753 770 
f 753 759 770 
f 770 759 771 
f 755 770 771 
f 767 755 772 
f 756 767 772 
f 761 758 773 
f 765 752 773 
f 758 765 773 
f 763 756 774 
f 759 766 774 
f 766 763 774 
f 756 763 775 
f 767 756 775 
f 763 767 775 
f 771 759 776 
f 774 756 776 
f 759 774 776 
f 751 757 777 
f 762 751 777 
f 757 762 777 
f 762 757 778 
f 757 768 778 
f 768 762 778 
f 757 751 779 
f 751 764 779 
f 764 757 779 
f 758 757 780 
f 757 764 780 
f 765 758 780 
f 764 765 780 
f 755 771 781 
f 756 772 781 
f 772 755 781 
f 771 776 781 
f 776 756 781 
f 752 761 782 
f 773 752 782 
o convex_28
v -21.646063 36.274942 105.072034
v -30.212178 23.423254 106.500559
v -30.212178 23.423254 109.355511
v -27.356807 36.274942 112.211861
v -21.646063 33.418033 112.211861
v -24.503112 23.423254 105.072034
v -24.503112 34.845858 105.072034
v -25.929540 23.423254 109.355511
v -27.356807 36.274942 109.355511
v -21.646063 36.274942 112.211861
v -30.212178 27.707988 107.928384
v -21.646063 31.990207 105.072034
v -24.503112 31.990207 112.211861
v -27.356807 23.423254 105.072034
v -24.503112 24.852337 109.355511
v -30.212178 24.852337 106.500559
v -30.212178 27.707988 109.355511
v -24.503112 23.423254 106.500559
v -27.356807 34.845858 112.211861
v -27.356807 26.280163 105.072034
v -23.075007 36.274942 105.072034
v -21.646063 31.990207 106.500559
v -23.075007 31.990207 112.211861
v -28.784912 29.135814 110.783337
v -28.784912 31.990207 110.783337
f 806 786 807 
f 785 784 788 
f 783 788 789 
f 785 788 790 
f 786 783 791 
f 783 786 792 
f 787 783 792 
f 786 787 792 
f 784 785 793 
f 791 789 793 
f 783 787 794 
f 788 783 794 
f 787 786 795 
f 785 790 795 
f 788 784 796 
f 789 788 796 
f 787 790 797 
f 784 793 798 
f 793 789 798 
f 796 784 798 
f 786 791 799 
f 793 785 799 
f 791 793 799 
f 790 788 800 
f 788 794 800 
f 787 797 800 
f 797 790 800 
f 785 795 801 
f 795 786 801 
f 789 796 802 
f 798 789 802 
f 796 798 802 
f 783 789 803 
f 791 783 803 
f 789 791 803 
f 794 787 804 
f 787 800 804 
f 800 794 804 
f 790 787 805 
f 787 795 805 
f 795 790 805 
f 799 785 806 
f 785 801 806 
f 801 786 806 
f 786 799 807 
f 799 806 807 
o convex_29
v -8.792271 43.415048 7.982692
v 6.913243 46.270419 52.233124
v -7.364281 46.270419 59.377144
v -8.792271 43.415048 59.377144
v -17.360210 46.270419 32.245802
v 6.913243 43.415048 12.258481
v 2.626897 44.842734 5.114461
v 6.913243 46.270419 25.112405
v -15.929844 43.415048 39.384511
v 6.913243 44.842734 52.233124
v -7.364281 44.842734 5.114461
v -11.648251 44.842734 59.377144
v 6.913243 43.415048 26.541209
v 2.626897 43.415048 5.114461
v -7.364281 46.270419 25.107094
v -15.929844 43.415048 32.245802
v -17.360210 46.270419 36.526903
v -11.648251 43.415048 59.377144
v -10.220261 46.270419 59.377144
v 6.913243 44.842734 12.258481
v -17.360210 44.842734 32.245802
v -7.364281 43.415048 5.114461
v -17.360210 44.842734 36.526903
v -7.364281 44.842734 59.377144
v -8.792271 44.842734 7.982692
v -15.929844 46.270419 30.822310
v 2.626897 46.270419 25.107094
f 818 822 834 
f 810 809 812 
f 811 808 813 
f 812 809 815 
f 809 813 815 
f 808 811 816 
f 809 810 817 
f 813 809 817 
f 811 810 819 
f 811 813 820 
f 817 811 820 
f 813 817 820 
f 813 808 821 
f 814 813 821 
f 818 814 821 
f 812 815 822 
f 808 816 823 
f 810 812 824 
f 816 811 825 
f 811 819 825 
f 819 810 826 
f 810 824 826 
f 824 819 826 
f 813 814 827 
f 815 813 827 
f 814 815 827 
f 812 808 828 
f 808 823 828 
f 823 816 828 
f 824 812 828 
f 808 818 829 
f 821 808 829 
f 818 821 829 
f 819 824 830 
f 825 819 830 
f 816 825 830 
f 828 816 830 
f 824 828 830 
f 810 811 831 
f 817 810 831 
f 811 817 831 
f 808 812 832 
f 818 808 832 
f 812 818 832 
f 818 812 833 
f 812 822 833 
f 822 818 833 
f 815 814 834 
f 814 818 834 
f 822 815 834 
o convex_30
v -23.074029 39.131711 109.355930
v -7.366410 46.268742 67.953182
v -7.366410 44.841336 67.953182
v -20.217259 37.704305 59.377144
v -20.217259 36.275920 106.493989
v -14.506796 46.268742 109.355930
v -10.223179 44.841336 105.070357
v -11.651564 46.268742 66.524658
v -17.360490 36.275920 59.377144
v -7.366410 46.268742 59.377144
v -21.645644 40.560095 99.356259
v -23.074029 36.275920 109.355930
v -13.079949 39.131711 63.662717
v -11.651564 46.268742 109.355930
v -21.645644 36.275920 76.514545
v -21.645644 39.131711 82.228642
v -18.788875 43.413930 106.493989
v -10.223179 46.268742 59.377144
v -7.366410 44.841336 59.377144
v -14.506796 41.985545 109.355930
v -23.074029 37.704305 97.927735
v -17.360490 40.560095 59.377144
v -17.360490 36.275920 69.376815
v -14.506796 46.268742 99.356259
v -10.223179 43.413930 87.928064
v -20.217259 36.275920 59.377144
v -10.223179 46.268742 105.070357
v -20.217259 39.131711 67.953182
v -8.794795 44.841336 89.356588
v -13.079949 39.131711 59.377144
v -21.645644 36.275920 109.355930
v -23.074029 36.275920 97.927735
f 855 849 866 
f 840 836 842 
f 836 837 844 
f 842 836 844 
f 843 838 844 
f 840 835 846 
f 843 839 846 
f 836 840 848 
f 840 846 848 
f 843 846 849 
f 835 845 850 
f 845 842 850 
f 835 840 851 
f 845 835 851 
f 842 845 851 
f 842 844 852 
f 844 838 852 
f 844 837 853 
f 843 844 853 
f 837 847 853 
f 839 841 854 
f 841 848 854 
f 848 846 854 
f 846 835 855 
f 838 849 855 
f 850 838 855 
f 835 850 855 
f 852 838 856 
f 842 852 856 
f 839 843 857 
f 847 839 857 
f 843 847 857 
f 840 842 858 
f 851 840 858 
f 842 851 858 
f 841 839 859 
f 839 847 859 
f 838 843 860 
f 849 838 860 
f 843 849 860 
f 836 848 861 
f 848 841 861 
f 838 850 862 
f 850 842 862 
f 856 838 862 
f 842 856 862 
f 837 836 863 
f 847 837 863 
f 841 859 863 
f 859 847 863 
f 836 861 863 
f 861 841 863 
f 847 843 864 
f 843 853 864 
f 853 847 864 
f 846 839 865 
f 839 854 865 
f 854 846 865 
f 849 846 866 
f 846 855 866 
o convex_31
v 14.053070 21.994729 5.113902
v 14.053070 16.283427 -4.879759
v 15.481035 16.283427 -4.879759
v 14.053070 19.139917 15.110218
v 16.909001 24.851219 15.110218
v 16.909001 20.567323 -12.021123
v 16.909001 16.283427 7.968854
v 14.053070 20.567323 -10.592319
v 15.481035 24.851219 7.968854
v 16.909001 19.139917 15.110218
v 15.481035 24.851219 15.110218
v 16.909001 19.139917 -12.021123
v 14.053070 16.283427 2.256294
v 16.909001 24.851219 7.968854
v 16.909001 16.283427 -0.596003
v 15.481035 16.283427 7.968854
v 15.481035 19.139917 -12.021123
v 14.053070 20.567323 15.110218
v 15.481035 20.567323 -12.021123
v 14.053070 19.139917 -10.592319
v 14.053070 21.994729 2.256294
f 867 875 887 
f 867 868 870 
f 868 869 873 
f 872 871 873 
f 868 867 874 
f 871 870 876 
f 870 873 876 
f 873 871 876 
f 870 871 877 
f 875 867 877 
f 871 875 877 
f 869 868 878 
f 872 873 878 
f 870 868 879 
f 868 873 879 
f 871 872 880 
f 872 875 880 
f 875 871 880 
f 873 869 881 
f 869 878 881 
f 878 873 881 
f 873 870 882 
f 870 879 882 
f 879 873 882 
f 878 868 883 
f 872 878 883 
f 867 870 884 
f 877 867 884 
f 870 877 884 
f 875 872 885 
f 874 875 885 
f 883 874 885 
f 872 883 885 
f 868 874 886 
f 883 868 886 
f 874 883 886 
f 874 867 887 
f 875 874 887 
o convex_32
v 1.201382 43.415048 -144.818825
v 5.485278 44.842454 -100.556232
v 4.056754 46.270699 -101.986015
v -0.226583 43.415048 -100.556232
v 5.485278 41.986803 -144.818825
v -0.226583 46.270699 -144.818825
v 5.485278 44.842454 -144.818825
v 5.485278 41.986803 -103.415797
v -0.226583 46.270699 -103.415797
v 4.056754 46.270699 -140.529478
v 4.056754 41.986803 -144.818825
v -0.226583 44.842454 -144.818825
v 4.056754 41.986803 -103.415797
v -0.226583 44.842454 -100.556232
v 5.485278 43.415048 -100.556232
v -0.226583 43.415048 -106.271029
v 2.629347 46.270699 -144.818825
v 2.629347 46.270699 -101.986015
f 896 901 905 
f 892 888 893 
f 892 893 894 
f 890 889 894 
f 889 892 894 
f 892 889 895 
f 890 893 896 
f 893 891 896 
f 893 890 897 
f 890 894 897 
f 888 892 898 
f 892 895 898 
f 891 893 899 
f 893 888 899 
f 891 898 900 
f 898 895 900 
f 889 890 901 
f 891 889 901 
f 896 891 901 
f 889 891 902 
f 895 889 902 
f 891 900 902 
f 900 895 902 
f 888 898 903 
f 898 891 903 
f 899 888 903 
f 891 899 903 
f 894 893 904 
f 893 897 904 
f 897 894 904 
f 890 896 905 
f 901 890 905 
o convex_33
v 16.909001 16.283427 -20.588915
v 25.476793 21.994729 57.949178
v 25.476793 19.139917 57.949178
v 16.909001 16.283427 49.377333
v 16.909001 24.851219 12.268545
v 24.048548 20.567323 -20.588915
v 22.620303 16.283427 -20.588915
v 19.765491 24.851219 -20.588915
v 21.192897 24.851219 57.949178
v 24.048548 16.283427 57.949178
v 25.476793 21.994729 22.239561
v 25.476793 19.139917 13.683091
v 18.337246 19.139917 57.949178
v 22.620303 24.851219 45.095254
v 18.337246 24.851219 -20.588915
v 16.909001 24.851219 20.817327
v 24.048548 17.711672 -20.588915
v 19.765491 24.851219 53.659412
v 18.337246 16.283427 57.949178
v 24.048548 16.283427 29.389173
v 16.909001 20.567323 -13.446992
v 16.909001 17.711672 49.377333
v 22.620303 24.851219 57.949178
v 21.192897 24.851219 6.548856
v 25.476793 20.567323 13.683091
v 16.909001 17.711672 -20.588915
f 926 920 931 
f 906 909 910 
f 909 906 912 
f 906 911 912 
f 911 906 913 
f 908 907 914 
f 913 910 914 
f 909 912 915 
f 908 914 915 
f 907 908 916 
f 911 913 916 
f 908 915 917 
f 916 908 917 
f 915 914 918 
f 913 914 919 
f 907 916 919 
f 913 906 920 
f 910 913 920 
f 910 909 921 
f 914 910 921 
f 912 911 922 
f 918 914 923 
f 914 921 923 
f 909 915 924 
f 918 909 924 
f 915 918 924 
f 915 912 925 
f 917 915 925 
f 912 922 925 
f 922 917 925 
f 906 910 926 
f 910 920 926 
f 909 918 927 
f 921 909 927 
f 918 923 927 
f 923 921 927 
f 914 907 928 
f 907 919 928 
f 919 914 928 
f 916 913 929 
f 913 919 929 
f 919 916 929 
f 911 916 930 
f 916 917 930 
f 922 911 930 
f 917 922 930 
f 920 906 931 
f 906 926 931 
o convex_34
v 18.336966 19.139917 57.949178
v 28.332723 24.851219 117.923722
v 28.332723 21.994729 117.923722
v 18.336966 17.711672 117.923722
v 24.048129 16.283427 57.949178
v 21.193037 24.851219 57.949178
v 25.476653 16.283427 117.923722
v 26.903221 21.994729 62.234752
v 22.621561 24.851219 117.923722
v 18.336966 16.283427 57.949178
v 18.336966 16.283427 117.923722
v 21.193037 24.851219 95.075159
v 25.476653 17.711672 59.381616
v 22.621561 24.851219 57.949178
v 26.903221 19.139917 90.789585
v 26.903221 20.567323 62.234752
v 25.476653 21.994729 57.949178
v 18.336966 19.139917 77.944607
v 28.332723 21.994729 109.352576
v 25.476653 16.283427 103.640435
v 28.332723 24.851219 116.491284
v 28.332723 23.422974 109.352576
v 25.476653 19.139917 57.949178
f 936 948 954 
f 934 933 935 
f 936 932 937 
f 934 935 938 
f 935 933 940 
f 933 937 940 
f 935 932 941 
f 932 936 941 
f 936 938 941 
f 941 938 942 
f 938 935 942 
f 935 941 942 
f 935 940 943 
f 940 937 943 
f 937 933 945 
f 936 937 945 
f 946 944 947 
f 939 947 948 
f 945 939 948 
f 936 945 948 
f 932 935 949 
f 937 932 949 
f 935 943 949 
f 943 937 949 
f 933 934 950 
f 946 947 950 
f 947 939 950 
f 934 938 951 
f 938 936 951 
f 936 944 951 
f 944 946 951 
f 950 934 951 
f 946 950 951 
f 939 945 952 
f 945 933 952 
f 933 950 952 
f 952 950 953 
f 950 939 953 
f 939 952 953 
f 944 936 954 
f 947 944 954 
f 948 947 954 
o convex_35
v 14.053909 31.992164 -20.588915
v 22.620862 37.702907 30.812805
v 22.620862 36.274522 30.812805
v 15.481734 37.702907 42.235409
v 9.769174 37.702907 -20.588915
v 18.336127 31.992164 43.669525
v 22.620862 31.992164 -2.020893
v 18.336127 36.274522 -20.588915
v 9.769174 36.274522 -6.304370
v 21.191779 37.702907 7.973886
v 19.763953 31.992164 43.669525
v 19.763953 37.702907 43.669525
v 14.053909 31.992164 -6.304370
v 18.336127 33.419989 -20.588915
v 15.481734 36.274522 42.235409
v 22.620862 33.419989 -2.020893
v 22.620862 31.992164 7.973886
v 12.627341 37.702907 -20.588915
v 9.769174 37.702907 -6.304370
v 9.769174 36.274522 -20.588915
v 16.908302 31.992164 -20.588915
v 22.620862 37.702907 22.245851
v 16.908302 37.702907 43.669525
v 12.627341 33.419989 -4.876544
v 22.620862 34.847256 25.101503
v 16.908302 31.992164 27.957154
v 11.199516 34.847256 -4.876544
v 22.620862 34.847256 5.118235
v 16.908302 36.274522 43.669525
f 977 969 983 
f 958 956 959 
f 956 957 961 
f 960 955 961 
f 955 959 962 
f 959 956 964 
f 957 956 965 
f 960 961 965 
f 956 958 966 
f 965 956 966 
f 960 965 966 
f 955 960 967 
f 963 955 967 
f 955 962 968 
f 962 961 968 
f 958 963 969 
f 963 960 969 
f 956 961 970 
f 961 962 970 
f 962 964 970 
f 961 957 971 
f 965 961 971 
f 962 959 972 
f 959 964 972 
f 964 962 972 
f 958 959 973 
f 959 963 973 
f 963 958 973 
f 959 955 974 
f 955 963 974 
f 963 959 974 
f 961 955 975 
f 955 968 975 
f 968 961 975 
f 964 956 976 
f 956 970 976 
f 966 958 977 
f 960 966 977 
f 958 969 977 
f 963 967 978 
f 957 965 979 
f 971 957 979 
f 965 971 979 
f 967 960 980 
f 978 967 980 
f 978 980 981 
f 960 963 981 
f 963 978 981 
f 980 960 981 
f 970 964 982 
f 964 976 982 
f 976 970 982 
f 969 960 983 
f 960 977 983 
o convex_36
v 24.048827 29.136792 115.060803
v 19.766050 24.853735 43.676514
v 16.909001 36.272705 43.676514
v 21.191779 33.417334 47.959851
v 19.766050 37.702907 115.060803
v 21.191779 24.853735 102.210792
v 22.620303 37.702907 110.777466
v 22.620303 24.853735 52.243187
v 19.766050 37.702907 43.676514
v 16.909001 36.272705 60.809861
v 24.048827 24.853735 115.060803
v 21.191779 27.709106 115.060803
v 24.048827 26.281421 93.644119
v 16.909001 37.702907 60.809861
v 19.766050 24.853735 60.809861
v 21.191779 31.989648 43.676514
v 19.766050 34.845020 112.202916
v 22.620303 37.702907 115.060803
v 21.191779 37.702907 69.376535
v 22.620303 26.281421 52.243187
v 21.191779 24.853735 43.676514
v 16.909001 37.702907 43.676514
v 22.620303 24.853735 115.060803
v 24.048827 24.853735 93.644119
v 24.048827 29.136792 107.919579
v 19.766050 36.272705 115.060803
v 21.191779 26.281421 109.345029
v 22.620303 27.709106 59.384411
v 24.048827 27.709106 100.778355
f 1003 1011 1012 
f 989 985 991 
f 985 986 992 
f 988 990 992 
f 986 985 993 
f 984 988 994 
f 989 991 994 
f 994 988 995 
f 984 994 996 
f 988 992 997 
f 986 993 997 
f 993 988 997 
f 985 989 998 
f 993 985 998 
f 989 993 998 
f 985 992 999 
f 992 987 999 
f 993 995 1000 
f 988 984 1001 
f 984 990 1001 
f 990 988 1001 
f 987 992 1002 
f 992 990 1002 
f 996 991 1003 
f 999 987 1003 
f 987 1002 1003 
f 991 985 1004 
f 985 999 1004 
f 1003 991 1004 
f 999 1003 1004 
f 992 986 1005 
f 986 997 1005 
f 997 992 1005 
f 989 994 1006 
f 994 995 1006 
f 994 991 1007 
f 991 996 1007 
f 996 994 1007 
f 990 984 1008 
f 984 996 1008 
f 1002 990 1008 
f 988 993 1009 
f 995 988 1009 
f 993 1000 1009 
f 1000 995 1009 
f 993 989 1010 
f 995 993 1010 
f 989 1006 1010 
f 1006 995 1010 
f 1003 1002 1011 
f 1002 1008 1011 
f 1011 1008 1012 
f 996 1003 1012 
f 1008 996 1012 
o convex_37
v -23.072910 39.129754 -129.107807
v -13.078271 39.129754 -84.847356
v -13.078271 37.701509 -84.847356
v -23.074029 34.847815 -84.847356
v -23.072910 33.419011 -146.241282
v -20.218098 39.129754 -147.674196
v -17.363286 33.419011 -84.847356
v -24.501994 33.419011 -91.993478
v -24.501994 39.129754 -147.674196
v -17.363286 39.129754 -89.133799
v -13.078271 37.701509 -91.993478
v -24.501994 33.419011 -146.241282
v -20.218098 37.701509 -147.674196
v -24.501994 34.847815 -91.993478
v -23.074029 36.274383 -93.420243
v -13.078271 39.129754 -91.993478
v -21.644945 39.129754 -114.840161
v -23.074029 33.419011 -84.847356
v -15.934202 39.129754 -84.847356
v -17.363286 33.419011 -86.280270
v -24.501994 34.847815 -147.674196
v -14.506237 36.274383 -90.566714
v -24.501994 39.129754 -146.241282
v -23.072910 34.847815 -147.674196
v -21.644945 36.274383 -147.674196
f 1036 1025 1037 
f 1015 1014 1016 
f 1013 1014 1018 
f 1015 1016 1019 
f 1017 1019 1020 
f 1013 1018 1021 
f 1014 1013 1022 
f 1014 1015 1023 
f 1015 1019 1023 
f 1017 1020 1024 
f 1020 1021 1024 
f 1021 1018 1025 
f 1023 1017 1025 
f 1018 1023 1025 
f 1020 1016 1026 
f 1021 1020 1026 
f 1016 1022 1027 
f 1026 1016 1027 
f 1013 1026 1027 
f 1018 1014 1028 
f 1014 1023 1028 
f 1023 1018 1028 
f 1022 1013 1029 
f 1013 1027 1029 
f 1027 1022 1029 
f 1019 1016 1030 
f 1020 1019 1030 
f 1016 1020 1030 
f 1016 1014 1031 
f 1014 1022 1031 
f 1022 1016 1031 
f 1019 1017 1032 
f 1023 1019 1032 
f 1017 1024 1033 
f 1024 1021 1033 
f 1021 1025 1033 
f 1017 1023 1034 
f 1032 1017 1034 
f 1023 1032 1034 
f 1013 1021 1035 
f 1021 1026 1035 
f 1026 1013 1035 
f 1017 1033 1036 
f 1033 1025 1036 
f 1025 1017 1037 
f 1017 1036 1037 
o convex_38
v 14.053070 37.702907 -116.265109
v 12.626223 24.851219 -150.532922
v 11.197139 26.281560 -150.532922
v 14.053070 24.853735 -116.265109
v 16.909001 30.562521 -150.532922
v 11.197139 37.702907 -126.261006
v 16.909001 37.702907 -121.980883
v 14.053070 34.844740 -149.103979
v 16.909001 24.851219 -149.103979
v 11.197139 36.272565 -116.265109
v 15.481035 24.853735 -116.265109
v 11.197139 33.416914 -150.532922
v 12.626223 24.853735 -127.689950
v 16.909001 37.702907 -129.115539
v 15.481035 34.844740 -149.103979
v 14.053070 37.702907 -131.970072
v 11.197139 34.844740 -146.249446
v 11.197139 26.281560 -146.249446
v 15.481035 31.989089 -116.265109
v 16.909001 36.272565 -121.980883
v 12.626223 29.137212 -116.265109
v 11.197139 37.702907 -116.265109
v 16.909001 24.851219 -150.532922
v 15.481035 37.702907 -117.694052
v 15.481035 33.416914 -150.532922
v 15.481035 37.702907 -131.970072
v 12.626223 37.702907 -130.541128
v 12.626223 26.281560 -123.406473
v 12.626223 24.851219 -141.965969
v 11.197139 31.989089 -129.115539
v 14.053070 24.851219 -141.965969
v 11.197139 29.137212 -137.675784
f 1050 1067 1069 
f 1039 1040 1042 
f 1043 1038 1044 
f 1042 1044 1046 
f 1041 1038 1047 
f 1043 1040 1047 
f 1038 1041 1048 
f 1042 1040 1049 
f 1040 1043 1049 
f 1044 1042 1051 
f 1043 1044 1051 
f 1049 1045 1052 
f 1051 1042 1052 
f 1043 1051 1053 
f 1052 1045 1053 
f 1049 1043 1054 
f 1045 1049 1054 
f 1053 1045 1054 
f 1040 1039 1055 
f 1047 1040 1055 
f 1038 1048 1056 
f 1048 1044 1056 
f 1046 1044 1057 
f 1044 1048 1057 
f 1048 1046 1057 
f 1041 1047 1058 
f 1038 1043 1059 
f 1047 1038 1059 
f 1043 1047 1059 
f 1039 1042 1060 
f 1046 1039 1060 
f 1042 1046 1060 
f 1044 1038 1061 
f 1038 1056 1061 
f 1056 1044 1061 
f 1042 1049 1062 
f 1052 1042 1062 
f 1049 1052 1062 
f 1051 1052 1063 
f 1053 1051 1063 
f 1052 1053 1063 
f 1043 1053 1064 
f 1054 1043 1064 
f 1053 1054 1064 
f 1050 1041 1065 
f 1041 1058 1065 
f 1058 1047 1065 
f 1039 1046 1066 
f 1048 1041 1066 
f 1041 1050 1066 
f 1055 1039 1066 
f 1050 1055 1066 
f 1047 1055 1067 
f 1050 1065 1067 
f 1065 1047 1067 
f 1046 1048 1068 
f 1066 1046 1068 
f 1048 1066 1068 
f 1055 1050 1069 
f 1067 1055 1069 
o convex_39
v -18.790692 33.419011 -69.139737
v -24.501994 24.852896 -127.671919
v -24.501994 26.280163 -131.961266
v -24.501994 33.419011 -90.564249
v -23.073470 33.419011 -144.821900
v -18.790692 24.852896 -69.139737
v -23.073470 31.990067 -70.576928
v -17.362167 31.990067 -77.718432
v -23.073470 24.852896 -127.671919
v -24.501994 24.852896 -107.684597
v -24.501994 33.419011 -144.821900
v -18.790692 24.852896 -81.992962
v -21.644945 24.852896 -77.718432
v -23.073470 31.990067 -144.821900
v -17.362167 33.419011 -69.139737
v -24.501994 29.135534 -92.001440
v -23.073470 33.419011 -70.576928
v -20.219216 24.852896 -69.139737
v -17.362167 29.135534 -69.139737
v -17.362167 33.419011 -77.718432
v -21.644945 31.990067 -69.139737
v -23.073470 26.280163 -131.961266
v -24.501994 31.990067 -144.821900
v -24.501994 26.280163 -100.565318
v -17.362167 29.135534 -71.999302
v -21.644945 29.135534 -69.139737
v -24.501994 31.990067 -90.564249
v -17.362167 30.561962 -74.858867
f 1094 1081 1097 
f 1072 1071 1073 
f 1073 1070 1074 
f 1071 1072 1078 
f 1075 1071 1078 
f 1073 1071 1079 
f 1071 1075 1079 
f 1072 1073 1080 
f 1073 1074 1080 
f 1075 1078 1081 
f 1079 1075 1082 
f 1074 1077 1083 
f 1080 1074 1083 
f 1077 1081 1083 
f 1074 1070 1084 
f 1070 1075 1084 
f 1073 1079 1085 
f 1082 1076 1085 
f 1070 1073 1086 
f 1073 1076 1086 
f 1075 1070 1087 
f 1082 1075 1087 
f 1076 1082 1087 
f 1075 1081 1088 
f 1084 1075 1088 
f 1077 1084 1088 
f 1077 1074 1089 
f 1074 1084 1089 
f 1084 1077 1089 
f 1070 1086 1090 
f 1086 1076 1090 
f 1087 1070 1090 
f 1078 1072 1091 
f 1081 1078 1091 
f 1072 1083 1091 
f 1083 1081 1091 
f 1072 1080 1092 
f 1083 1072 1092 
f 1080 1083 1092 
f 1079 1082 1093 
f 1085 1079 1093 
f 1082 1085 1093 
f 1077 1088 1094 
f 1088 1081 1094 
f 1076 1087 1095 
f 1090 1076 1095 
f 1087 1090 1095 
f 1076 1073 1096 
f 1073 1085 1096 
f 1085 1076 1096 
f 1081 1077 1097 
f 1077 1094 1097 
o convex_40
v -17.363845 33.419011 -20.592467
v -20.216421 23.424232 -20.592467
v -20.216421 24.853595 -69.131490
v -21.646063 31.989648 -56.275164
v -21.646063 24.852617 15.098477
v -15.934202 29.134835 -46.288627
v -15.934202 33.417054 12.245181
v -17.363845 23.424232 -16.304276
v -17.363845 33.419011 -69.131490
v -18.790133 33.417054 15.098477
v -18.790133 23.424232 15.098477
v -17.363845 24.853595 -61.990003
v -21.646063 27.708408 -67.696596
v -21.646063 23.424232 -19.157572
v -15.934202 33.419011 -53.421867
v -15.934202 27.708408 -20.592467
v -21.646063 31.989648 -69.131490
v -18.790133 33.419011 -69.131490
v -15.934202 31.989648 12.245181
v -21.646063 23.424232 15.098477
v -17.363845 29.134835 -69.131490
v -17.363845 24.852617 -0.602899
v -18.790133 24.853595 -69.131490
v -17.363845 27.708408 15.098477
v -17.363845 23.424232 -20.592467
v -15.934202 31.989648 -53.421867
v -15.934202 27.708408 -26.307306
v -17.363845 33.417054 15.098477
v -15.934202 29.133857 -7.736140
v -17.363845 27.708408 -67.696596
v -21.646063 29.134835 -69.131490
v -21.646063 27.708408 -13.450979
f 1102 1107 1129 
f 1099 1105 1108 
f 1107 1102 1108 
f 1102 1101 1110 
f 1100 1099 1111 
f 1099 1108 1111 
f 1102 1110 1111 
f 1110 1100 1111 
f 1098 1104 1112 
f 1104 1103 1112 
f 1106 1098 1112 
f 1103 1104 1113 
f 1106 1100 1114 
f 1110 1101 1114 
f 1098 1106 1115 
f 1101 1107 1115 
f 1107 1098 1115 
f 1106 1114 1115 
f 1114 1101 1115 
f 1113 1104 1116 
f 1108 1102 1117 
f 1111 1108 1117 
f 1102 1111 1117 
f 1100 1106 1118 
f 1106 1112 1118 
f 1108 1105 1119 
f 1105 1113 1119 
f 1099 1100 1120 
f 1100 1118 1120 
f 1107 1108 1121 
f 1116 1104 1121 
f 1108 1119 1121 
f 1119 1116 1121 
f 1105 1099 1122 
f 1113 1105 1122 
f 1099 1120 1122 
f 1120 1109 1122 
f 1103 1109 1123 
f 1112 1103 1123 
f 1118 1112 1123 
f 1109 1103 1124 
f 1103 1113 1124 
f 1113 1122 1124 
f 1122 1109 1124 
f 1104 1098 1125 
f 1098 1107 1125 
f 1121 1104 1125 
f 1107 1121 1125 
f 1113 1116 1126 
f 1119 1113 1126 
f 1116 1119 1126 
f 1109 1120 1127 
f 1120 1118 1127 
f 1123 1109 1127 
f 1118 1123 1127 
f 1100 1110 1128 
f 1114 1100 1128 
f 1110 1114 1128 
f 1101 1102 1129 
f 1107 1101 1129 
o convex_41
v -14.505538 39.130872 -89.131252
v -7.366410 41.986803 -20.588915
v -8.795494 41.986803 -20.588915
v -14.505538 33.419011 -20.588915
v -7.366410 41.986803 -86.273084
v -20.218098 33.419011 -84.844001
v -10.224577 44.842734 -84.844001
v -17.361189 34.848095 -20.588915
v -15.932105 33.419011 -77.698583
v -7.366410 39.130872 -33.443958
v -20.218098 34.848095 -76.269500
v -7.366410 44.842734 -89.131252
v -8.795494 43.413650 -34.873042
v -10.223319 36.274942 -20.588915
v -13.080228 39.130872 -20.588915
v -17.361189 33.419011 -20.588915
v -17.361189 33.419011 -84.844001
v -14.505538 40.558838 -89.131252
v -14.505538 33.419011 -47.734794
v -7.366410 44.842734 -73.404623
v -11.649887 39.130872 -89.131252
v -7.366410 39.130872 -20.588915
v -7.366410 40.558838 -63.427876
v -20.218098 34.848095 -84.844001
v -17.361189 36.274942 -46.305710
v -10.224577 44.842734 -89.131252
v -7.366410 43.413650 -34.873042
v -20.218098 33.419011 -76.269500
v -8.795494 44.842734 -73.404623
v -7.366410 43.413650 -89.131252
v -10.223319 36.274942 -24.882875
v -18.789014 36.274942 -76.269500
f 1140 1154 1161 
f 1131 1132 1133 
f 1133 1132 1137 
f 1133 1135 1138 
f 1134 1131 1139 
f 1131 1134 1141 
f 1132 1131 1142 
f 1131 1133 1143 
f 1137 1132 1144 
f 1142 1136 1144 
f 1132 1142 1144 
f 1135 1133 1145 
f 1133 1137 1145 
f 1137 1140 1145 
f 1135 1130 1146 
f 1134 1138 1146 
f 1138 1135 1146 
f 1141 1130 1147 
f 1133 1138 1148 
f 1138 1139 1148 
f 1143 1133 1148 
f 1131 1141 1149 
f 1141 1136 1149 
f 1130 1141 1150 
f 1146 1130 1150 
f 1134 1146 1150 
f 1139 1131 1151 
f 1131 1143 1151 
f 1143 1139 1151 
f 1138 1134 1152 
f 1134 1139 1152 
f 1139 1138 1152 
f 1130 1135 1153 
f 1135 1140 1153 
f 1140 1136 1153 
f 1147 1130 1153 
f 1140 1137 1154 
f 1137 1144 1154 
f 1144 1136 1154 
f 1136 1141 1155 
f 1141 1147 1155 
f 1153 1136 1155 
f 1147 1153 1155 
f 1142 1131 1156 
f 1131 1149 1156 
f 1149 1142 1156 
f 1140 1135 1157 
f 1135 1145 1157 
f 1145 1140 1157 
f 1136 1142 1158 
f 1149 1136 1158 
f 1142 1149 1158 
f 1141 1134 1159 
f 1150 1141 1159 
f 1134 1150 1159 
f 1139 1143 1160 
f 1148 1139 1160 
f 1143 1148 1160 
f 1136 1140 1161 
f 1154 1136 1161 
o convex_42
v -21.643827 39.130872 -144.822319
v -11.650306 50.554595 -146.250424
v -11.650306 50.554595 -149.105796
v -24.501994 43.417005 -146.250424
v -11.650306 44.842734 -149.105796
v -24.501994 39.130872 -147.677271
v -13.079390 43.417005 -144.822319
v -18.789434 39.130872 -147.677271
v -15.935041 50.554595 -146.250424
v -14.508473 50.554595 -149.105796
v -15.935041 46.269581 -144.822319
v -24.501994 43.417005 -147.677271
v -18.789434 39.130872 -144.822319
v -14.508473 44.842734 -149.105796
v -24.501994 39.130872 -146.250424
v -15.935041 50.554595 -147.677271
v -11.650306 44.842734 -147.677271
v -21.643827 40.559956 -144.822319
v -13.079390 46.269581 -144.822319
v -11.650306 49.126630 -146.250424
v -13.079390 43.417005 -146.250424
v -17.362866 44.842734 -144.822319
f 1179 1172 1183 
f 1164 1163 1166 
f 1162 1167 1169 
f 1163 1164 1170 
f 1164 1166 1171 
f 1170 1164 1171 
f 1162 1168 1172 
f 1163 1170 1172 
f 1170 1165 1172 
f 1167 1165 1173 
f 1165 1170 1173 
f 1171 1167 1173 
f 1168 1162 1174 
f 1162 1169 1174 
f 1166 1169 1175 
f 1169 1167 1175 
f 1171 1166 1175 
f 1167 1171 1175 
f 1162 1165 1176 
f 1165 1167 1176 
f 1167 1162 1176 
f 1170 1171 1177 
f 1173 1170 1177 
f 1171 1173 1177 
f 1166 1163 1178 
f 1168 1166 1178 
f 1165 1162 1179 
f 1162 1172 1179 
f 1168 1163 1180 
f 1163 1172 1180 
f 1172 1168 1180 
f 1163 1168 1181 
f 1178 1163 1181 
f 1168 1178 1181 
f 1166 1168 1182 
f 1169 1166 1182 
f 1168 1174 1182 
f 1174 1169 1182 
f 1172 1165 1183 
f 1165 1179 1183 
o convex_43
v 5.485278 40.558838 -150.533202
v 2.629347 50.554595 -147.677761
v 2.629347 50.554595 -149.104363
v -11.650306 44.843433 -147.677761
v 9.768056 40.558838 -144.822878
v 11.197139 44.843433 -150.533202
v -11.650306 50.552638 -149.105481
v -1.655667 46.270979 -144.822319
v 11.197139 44.843433 -144.822878
v -11.650306 50.552638 -147.677761
v -11.650306 44.843433 -149.105481
v 4.056194 47.697546 -150.533202
v 6.912125 40.558838 -144.822878
v 9.768056 40.558838 -150.533202
v 11.197139 41.988341 -144.822878
v 9.768056 46.270000 -150.533202
v -1.655667 44.843433 -144.822319
v 2.629347 43.415887 -150.533202
v 5.485278 49.125092 -147.677761
v 11.197139 41.988341 -149.104363
v 5.485278 40.558838 -147.677761
v 2.629347 46.270000 -144.822878
v 6.912125 47.697546 -150.533202
v 2.629347 46.270000 -150.533202
v 11.197139 43.415887 -150.533202
v 9.768056 46.270000 -149.104363
v 5.485278 49.125092 -149.104363
v -0.226583 50.554595 -147.677761
v -0.226583 46.270979 -144.822319
v -0.226583 50.554595 -149.104363
v -0.226583 50.552638 -149.105481
v -0.226583 44.843433 -144.822319
f 1212 1200 1215 
f 1190 1187 1193 
f 1187 1191 1193 
f 1184 1187 1194 
f 1187 1190 1194 
f 1189 1184 1195 
f 1184 1188 1196 
f 1188 1184 1197 
f 1184 1189 1197 
f 1189 1192 1198 
f 1188 1197 1198 
f 1192 1189 1199 
f 1189 1195 1199 
f 1191 1187 1200 
f 1187 1196 1200 
f 1196 1188 1200 
f 1184 1194 1201 
f 1194 1190 1201 
f 1195 1184 1201 
f 1186 1185 1202 
f 1185 1192 1202 
f 1189 1198 1203 
f 1198 1197 1203 
f 1187 1184 1204 
f 1184 1196 1204 
f 1196 1187 1204 
f 1192 1185 1205 
f 1195 1190 1206 
f 1186 1199 1206 
f 1199 1195 1206 
f 1190 1195 1207 
f 1201 1190 1207 
f 1195 1201 1207 
f 1197 1189 1208 
f 1189 1203 1208 
f 1203 1197 1208 
f 1192 1199 1209 
f 1202 1192 1209 
f 1199 1202 1209 
f 1199 1186 1210 
f 1186 1202 1210 
f 1202 1199 1210 
f 1185 1186 1211 
f 1191 1185 1211 
f 1190 1193 1211 
f 1193 1191 1211 
f 1185 1191 1212 
f 1198 1192 1212 
f 1191 1200 1212 
f 1205 1185 1212 
f 1192 1205 1212 
f 1186 1190 1213 
f 1211 1186 1213 
f 1190 1211 1213 
f 1190 1186 1214 
f 1186 1206 1214 
f 1206 1190 1214 
f 1188 1198 1215 
f 1200 1188 1215 
f 1198 1212 1215 
o convex_44
v -5.937466 44.841755 -137.671450
v -0.227282 41.987781 -20.588915
v -0.227282 40.559956 -20.588915
v -7.365711 41.987781 -20.588915
v -0.227282 46.270699 -104.837752
v -0.227282 44.841755 -144.821900
v -7.365711 40.559956 -36.300448
v -7.365711 46.270699 -104.837752
v -0.227282 43.415048 -26.304411
v -7.365711 46.270699 -133.390909
v -7.365711 43.415048 -27.739365
v -0.227282 46.270699 -144.821900
v -7.365711 43.415048 -106.260546
v -0.227282 40.559956 -27.739365
v -7.365711 40.559956 -20.588915
v -3.083073 44.841755 -144.821900
v -5.937466 41.987781 -74.861802
v -0.227282 41.987781 -69.146306
v -7.365711 44.841755 -133.390909
v -3.083073 46.270699 -144.821900
v -5.937466 43.415048 -26.304411
v -7.365711 41.987781 -74.861802
v -5.937466 40.559956 -36.300448
v -0.227282 43.415048 -107.671179
v -5.937466 46.270699 -137.671450
f 1225 1235 1240 
f 1218 1217 1219 
f 1217 1218 1220 
f 1220 1218 1221 
f 1222 1219 1223 
f 1219 1217 1224 
f 1217 1220 1224 
f 1220 1223 1224 
f 1223 1220 1225 
f 1222 1223 1225 
f 1223 1219 1226 
f 1220 1221 1227 
f 1225 1220 1227 
f 1222 1225 1228 
f 1221 1218 1229 
f 1218 1222 1229 
f 1218 1219 1230 
f 1222 1218 1230 
f 1219 1222 1230 
f 1227 1221 1231 
f 1228 1216 1231 
f 1221 1229 1233 
f 1225 1216 1234 
f 1216 1228 1234 
f 1228 1225 1234 
f 1225 1227 1235 
f 1231 1216 1235 
f 1227 1231 1235 
f 1219 1224 1236 
f 1224 1223 1236 
f 1226 1219 1236 
f 1223 1226 1236 
f 1222 1228 1237 
f 1231 1221 1237 
f 1228 1231 1237 
f 1221 1232 1237 
f 1237 1232 1238 
f 1229 1222 1238 
f 1233 1229 1238 
f 1232 1233 1238 
f 1222 1237 1238 
f 1232 1221 1239 
f 1221 1233 1239 
f 1233 1232 1239 
f 1216 1225 1240 
f 1235 1216 1240 
o convex_45
v 18.336966 30.564478 -80.566954
v 14.054188 24.853735 -116.262593
v 15.479917 24.853735 -116.262593
v 14.054188 37.702907 -116.262593
v 11.197139 36.272705 -90.563550
v 16.908442 24.853735 -80.566954
v 15.479917 37.702907 -80.566954
v 11.197139 37.702907 -116.262593
v 18.336966 24.853735 -96.276389
v 12.625664 37.702907 -80.566954
v 16.908442 36.272705 -87.708877
v 16.908442 26.281421 -113.400932
v 14.054188 24.853735 -107.691587
v 18.336966 24.853735 -80.566954
v 15.479917 24.853735 -90.563550
v 11.197139 36.272705 -116.262593
v 18.336966 29.136792 -89.134466
v 15.479917 34.845020 -110.546259
v 12.625664 36.272705 -80.566954
v 11.197139 37.702907 -90.563550
v 16.908442 36.272705 -80.566954
v 15.479917 31.989648 -116.262593
v 15.479917 37.702907 -97.701979
v 16.908442 24.853735 -113.400932
v 18.336966 26.281421 -96.276389
v 18.336966 30.564478 -84.850710
v 15.479917 36.272705 -106.262503
f 1251 1258 1267 
f 1243 1242 1244 
f 1242 1243 1246 
f 1246 1241 1247 
f 1244 1242 1248 
f 1247 1244 1248 
f 1246 1243 1249 
f 1246 1247 1250 
f 1247 1248 1250 
f 1245 1242 1253 
f 1242 1246 1253 
f 1241 1246 1254 
f 1249 1241 1254 
f 1246 1249 1254 
f 1245 1253 1255 
f 1253 1246 1255 
f 1242 1245 1256 
f 1248 1242 1256 
f 1245 1248 1256 
f 1241 1249 1257 
f 1251 1257 1258 
f 1250 1245 1259 
f 1246 1250 1259 
f 1245 1255 1259 
f 1255 1246 1259 
f 1248 1245 1260 
f 1245 1250 1260 
f 1250 1248 1260 
f 1247 1241 1261 
f 1241 1251 1261 
f 1251 1247 1261 
f 1243 1244 1262 
f 1252 1243 1262 
f 1258 1252 1262 
f 1244 1258 1262 
f 1244 1247 1263 
f 1247 1251 1263 
f 1251 1244 1263 
f 1249 1243 1264 
f 1252 1249 1264 
f 1243 1252 1264 
f 1249 1252 1265 
f 1257 1249 1265 
f 1252 1258 1265 
f 1258 1257 1265 
f 1251 1241 1266 
f 1241 1257 1266 
f 1257 1251 1266 
f 1244 1251 1267 
f 1258 1244 1267 
o convex_46
v 15.481035 29.133857 -80.563460
v 22.620862 31.989648 -0.600476
v 19.764512 31.989648 7.970391
v 19.764512 24.851918 7.970391
v 19.764512 24.851918 -61.991803
v 18.337385 31.989648 -80.563460
v 16.909560 31.989648 7.970391
v 16.909560 24.851918 -16.303622
v 16.909560 24.851918 -80.563460
v 22.620862 29.133857 -17.733544
v 15.481035 31.989648 -80.563460
v 18.338084 24.851918 7.970391
v 21.192338 31.989648 -40.586301
v 18.337385 24.851918 -80.563460
v 16.909560 29.133857 5.110547
v 15.481035 30.561403 -67.702826
v 22.620862 29.133857 -9.162677
v 22.620862 31.989648 -10.592599
v 22.620862 30.561403 -0.600476
v 16.909560 26.280861 -6.311498
v 15.481035 31.989648 -67.702826
v 22.620862 30.561403 -17.733544
v 16.909560 30.561403 7.970391
v 19.764512 26.280861 -61.991803
v 15.481035 29.133857 -79.124871
v 21.192338 30.561403 -40.586301
f 1280 1277 1293 
f 1269 1270 1271 
f 1270 1269 1273 
f 1270 1273 1274 
f 1271 1270 1274 
f 1272 1271 1275 
f 1268 1273 1276 
f 1275 1268 1276 
f 1272 1275 1276 
f 1271 1272 1277 
f 1273 1268 1278 
f 1274 1273 1278 
f 1271 1274 1279 
f 1275 1271 1279 
f 1273 1269 1280 
f 1273 1272 1281 
f 1272 1276 1281 
f 1276 1273 1281 
f 1278 1268 1283 
f 1277 1269 1284 
f 1271 1277 1284 
f 1269 1277 1285 
f 1280 1269 1285 
f 1269 1271 1286 
f 1284 1269 1286 
f 1271 1284 1286 
f 1275 1279 1287 
f 1279 1282 1287 
f 1283 1275 1287 
f 1282 1283 1287 
f 1274 1278 1288 
f 1278 1283 1288 
f 1283 1274 1288 
f 1277 1280 1289 
f 1285 1277 1289 
f 1280 1285 1289 
f 1279 1274 1290 
f 1282 1279 1290 
f 1274 1283 1290 
f 1283 1282 1290 
f 1272 1273 1291 
f 1273 1280 1291 
f 1280 1272 1291 
f 1268 1275 1292 
f 1283 1268 1292 
f 1275 1283 1292 
f 1277 1272 1293 
f 1272 1280 1293 
o convex_47
v 11.198258 34.847256 -32.019068
v 21.192897 33.419989 -36.304641
v 19.764931 36.274522 -37.731209
v 15.481035 31.992164 -80.563460
v 15.481035 37.702907 -80.563460
v 9.769174 37.702907 -20.588915
v 14.054188 31.992164 -20.588915
v 19.764931 37.702907 -76.277886
v 12.626223 36.274522 -80.563460
v 18.336966 36.274522 -20.588915
v 21.192897 31.992164 -50.576187
v 19.764931 37.702907 -56.282458
v 16.907883 31.992164 -20.588915
v 19.764931 34.847256 -76.277886
v 21.192897 36.274522 -61.994599
v 9.769174 36.274522 -30.586630
v 12.626223 37.702907 -80.563460
v 16.907883 31.992164 -80.563460
v 12.626223 37.702907 -20.588915
v 21.192897 31.992164 -36.304641
v 18.336966 33.419989 -20.588915
v 21.192897 33.419989 -60.562160
v 9.769174 36.274522 -20.588915
v 14.054188 31.992164 -33.445635
v 9.769174 37.702907 -30.586630
v 11.198258 36.274522 -57.714896
v 16.907883 36.274522 -80.563460
v 21.192897 36.274522 -59.135593
v 11.198258 37.702907 -57.714896
v 21.192897 34.847256 -61.994599
f 1315 1307 1323 
f 1298 1299 1301 
f 1298 1297 1302 
f 1295 1296 1303 
f 1299 1300 1303 
f 1300 1297 1304 
f 1301 1299 1305 
f 1303 1296 1305 
f 1303 1300 1306 
f 1300 1304 1306 
f 1295 1304 1308 
f 1301 1305 1308 
f 1307 1301 1308 
f 1297 1294 1309 
f 1299 1298 1310 
f 1298 1302 1310 
f 1297 1298 1311 
f 1304 1297 1311 
f 1301 1307 1311 
f 1299 1303 1312 
f 1305 1299 1312 
f 1303 1305 1312 
f 1295 1303 1313 
f 1304 1295 1313 
f 1306 1304 1313 
f 1306 1313 1314 
f 1303 1306 1314 
f 1313 1303 1314 
f 1308 1304 1315 
f 1304 1311 1315 
f 1311 1307 1315 
f 1300 1299 1316 
f 1309 1300 1316 
f 1299 1309 1316 
f 1294 1297 1317 
f 1297 1300 1317 
f 1309 1294 1317 
f 1300 1309 1317 
f 1309 1299 1318 
f 1299 1310 1318 
f 1302 1297 1319 
f 1297 1309 1319 
f 1309 1318 1319 
f 1298 1301 1320 
f 1311 1298 1320 
f 1301 1311 1320 
f 1296 1295 1321 
f 1305 1296 1321 
f 1295 1308 1321 
f 1308 1305 1321 
f 1310 1302 1322 
f 1318 1310 1322 
f 1319 1318 1322 
f 1302 1319 1322 
f 1307 1308 1323 
f 1308 1315 1323 
o convex_48
v 8.341908 37.702907 -20.588915
v 15.481035 39.132130 12.254287
v 15.481035 37.702907 12.254287
v 2.629347 44.842734 12.254287
v 8.341908 43.413510 -13.448669
v 2.629347 40.559257 -4.881017
v 2.629347 41.986384 -20.588915
v 9.768475 37.702907 9.396260
v 11.196301 39.132130 -20.588915
v 8.341908 44.842734 12.254287
v 2.629347 43.413510 12.254287
v 2.629347 43.413510 -14.876076
v 8.341908 44.842734 5.114041
v 11.196301 37.702907 -20.588915
v 2.629347 40.559257 -20.588915
v 8.341908 41.986384 -20.588915
v 15.481035 39.132130 9.396260
v 11.196301 37.702907 12.254287
v 2.629347 44.842734 5.114041
v 2.629347 41.986384 6.541448
v 8.341908 37.702907 -7.735830
v 9.768475 41.986384 -14.876076
v 14.050694 40.559257 10.823666
v 12.622868 39.132130 -12.018048
v 15.481035 37.702907 9.396260
v 6.914082 43.413510 -14.876076
v 12.622868 37.702907 -12.018048
v 9.768475 43.413510 0.828608
v 14.050694 40.559257 12.254287
v 11.196301 40.559257 -13.448669
f 1340 1347 1353 
f 1326 1325 1327 
f 1329 1327 1330 
f 1324 1326 1331 
f 1324 1330 1332 
f 1327 1325 1333 
f 1326 1327 1334 
f 1327 1329 1334 
f 1330 1327 1335 
f 1327 1333 1336 
f 1326 1324 1337 
f 1324 1332 1337 
f 1324 1329 1338 
f 1330 1324 1338 
f 1329 1330 1338 
f 1332 1330 1339 
f 1330 1335 1339 
f 1325 1326 1340 
f 1331 1326 1341 
f 1326 1334 1341 
f 1334 1331 1341 
f 1335 1327 1342 
f 1327 1336 1342 
f 1336 1335 1342 
f 1329 1331 1343 
f 1334 1329 1343 
f 1331 1334 1343 
f 1329 1324 1344 
f 1324 1331 1344 
f 1331 1329 1344 
f 1339 1328 1345 
f 1332 1339 1345 
f 1328 1340 1345 
f 1336 1333 1346 
f 1325 1340 1346 
f 1340 1328 1346 
f 1337 1332 1347 
f 1326 1337 1348 
f 1340 1326 1348 
f 1347 1340 1348 
f 1336 1328 1349 
f 1335 1336 1349 
f 1328 1339 1349 
f 1339 1335 1349 
f 1337 1347 1350 
f 1348 1337 1350 
f 1347 1348 1350 
f 1328 1336 1351 
f 1346 1328 1351 
f 1336 1346 1351 
f 1333 1325 1352 
f 1325 1346 1352 
f 1346 1333 1352 
f 1332 1345 1353 
f 1345 1340 1353 
f 1347 1332 1353 
o convex_49
v 8.342047 37.702907 -29.165653
v 14.052231 39.132130 -56.295038
v 8.342047 43.413510 -34.871364
v 5.486955 40.559257 -113.406662
v 12.624266 37.702907 -113.406662
v 6.914082 44.842734 -104.829925
v 5.486955 43.413510 -24.877284
v 11.196301 37.702907 -20.588915
v 5.486955 40.559257 -20.588915
v 9.769174 37.702907 -113.406662
v 14.052231 39.132130 -91.973903
v 5.486955 43.413510 -113.406662
v 11.196301 41.986384 -76.265027
v 14.052231 37.702907 -56.295038
v 12.624266 39.132130 -29.165653
v 5.486955 44.842734 -63.436262
v 9.769174 41.986384 -113.406662
v 8.342047 41.986384 -20.588915
v 6.914082 44.842734 -63.436262
v 12.624266 39.132130 -113.406662
v 5.486955 44.842734 -104.829925
v 9.769174 41.986384 -26.303712
v 14.052231 37.702907 -91.973903
v 8.342047 37.702907 -20.588915
v 6.914082 43.413510 -24.877284
v 11.196301 39.132130 -20.588915
v 12.624266 37.702907 -29.165653
v 11.196301 41.986384 -81.988909
v 8.342047 43.413510 -110.544721
v 5.486955 41.986384 -20.588915
v 6.914082 43.413510 -113.406662
v 11.196301 40.559257 -27.730140
f 1375 1379 1385 
f 1354 1358 1361 
f 1357 1354 1362 
f 1360 1357 1362 
f 1354 1357 1363 
f 1358 1354 1363 
f 1357 1358 1363 
f 1358 1357 1365 
f 1357 1360 1365 
f 1356 1355 1366 
f 1361 1358 1367 
f 1364 1355 1367 
f 1367 1355 1368 
f 1365 1360 1369 
f 1358 1365 1370 
f 1362 1361 1371 
f 1356 1366 1372 
f 1366 1359 1372 
f 1359 1369 1372 
f 1369 1360 1372 
f 1364 1358 1373 
f 1358 1370 1373 
f 1370 1364 1373 
f 1359 1365 1374 
f 1369 1359 1374 
f 1365 1369 1374 
f 1355 1356 1375 
f 1368 1355 1375 
f 1358 1364 1376 
f 1367 1358 1376 
f 1364 1367 1376 
f 1354 1361 1377 
f 1361 1362 1377 
f 1362 1354 1377 
f 1360 1371 1378 
f 1356 1372 1378 
f 1372 1360 1378 
f 1375 1356 1378 
f 1371 1375 1378 
f 1371 1361 1379 
f 1375 1371 1379 
f 1361 1367 1380 
f 1367 1368 1380 
f 1379 1361 1380 
f 1368 1379 1380 
f 1355 1364 1381 
f 1366 1355 1381 
f 1359 1366 1381 
f 1364 1370 1382 
f 1381 1364 1382 
f 1359 1381 1382 
f 1360 1362 1383 
f 1371 1360 1383 
f 1362 1371 1383 
f 1365 1359 1384 
f 1370 1365 1384 
f 1359 1382 1384 
f 1382 1370 1384 
f 1368 1375 1385 
f 1379 1368 1385 
o convex_50
v -8.794375 9.142762 -20.588915
v 2.629347 6.286551 49.381386
v 2.629347 0.575808 49.381386
v -8.794375 2.004752 49.381386
v 2.629347 0.575808 -20.588915
v -8.794375 2.004752 -20.588915
v -8.794375 9.142762 39.374866
v 2.629347 9.142762 26.532823
v 2.629347 6.286551 -20.588915
v -4.509361 0.575808 -20.588915
v -4.509361 0.575808 49.381386
v -8.794375 7.714656 49.381386
v 2.629347 9.142762 40.806326
v -4.509361 9.142762 -14.876774
v -4.509361 7.714656 49.381386
v -5.938445 9.142762 -20.588915
v -3.082514 9.142762 -7.726325
v 1.201382 9.142762 40.806326
v 1.201382 9.142762 17.957762
f 1394 1402 1404 
f 1388 1387 1389 
f 1387 1388 1390 
f 1389 1386 1391 
f 1386 1390 1391 
f 1386 1389 1392 
f 1387 1390 1393 
f 1386 1392 1393 
f 1390 1386 1394 
f 1393 1390 1394 
f 1390 1388 1395 
f 1389 1391 1395 
f 1391 1390 1395 
f 1388 1389 1396 
f 1395 1388 1396 
f 1389 1395 1396 
f 1389 1387 1397 
f 1392 1389 1397 
f 1387 1393 1398 
f 1393 1392 1398 
f 1386 1393 1399 
f 1397 1387 1400 
f 1398 1397 1400 
f 1387 1398 1400 
f 1394 1386 1401 
f 1386 1399 1401 
f 1399 1394 1401 
f 1399 1393 1402 
f 1394 1399 1402 
f 1392 1397 1403 
f 1398 1392 1403 
f 1397 1398 1403 
f 1393 1394 1404 
f 1402 1393 1404 
o convex_51
v -7.366410 9.143600 -20.588915
v 2.629347 11.999251 49.381386
v 1.201382 11.999251 49.381386
v -7.366410 14.854343 -9.164634
v -8.794375 11.999251 0.841887
v 1.201382 9.143600 46.525316
v 2.629347 10.571985 32.238114
v -8.794375 14.854343 3.691108
v -8.794375 9.143600 -10.582395
v -7.366410 11.999251 -20.588915
v 2.629347 9.143600 32.238114
v -4.509361 14.854343 7.971789
v -8.794375 11.999251 -20.588915
v -5.938445 10.571985 -17.732845
v 2.629347 11.999251 37.950255
v -7.366410 11.999251 9.403249
v -5.938445 14.854343 12.266168
v -3.082514 9.143600 -2.021033
v -0.226583 13.426518 33.669574
v 2.629347 9.143600 46.525316
v 1.201382 10.571985 49.381386
v -3.082514 10.571985 -2.021033
v -8.794375 14.854343 -9.164634
v -8.794375 9.143600 -20.588915
v -0.226583 13.426518 26.532823
v -0.226583 9.143600 39.374866
v -5.938445 9.143600 -17.732845
v -8.794375 13.426518 3.691108
v -1.655667 13.426518 33.669574
v -7.366410 14.854343 9.403249
v -3.082514 13.426518 9.403249
v -4.509361 14.854343 12.266168
f 1433 1423 1436 
f 1409 1412 1413 
f 1405 1410 1413 
f 1410 1405 1415 
f 1411 1406 1415 
f 1408 1412 1416 
f 1413 1412 1417 
f 1414 1405 1417 
f 1408 1414 1417 
f 1405 1414 1418 
f 1406 1411 1419 
f 1409 1413 1420 
f 1416 1412 1421 
f 1415 1405 1422 
f 1411 1415 1422 
f 1407 1406 1423 
f 1406 1419 1423 
f 1415 1406 1424 
f 1410 1415 1424 
f 1406 1407 1425 
f 1407 1412 1425 
f 1420 1410 1425 
f 1424 1406 1425 
f 1410 1424 1425 
f 1414 1408 1426 
f 1418 1414 1426 
f 1419 1411 1426 
f 1411 1422 1426 
f 1412 1408 1427 
f 1408 1417 1427 
f 1417 1412 1427 
f 1405 1413 1428 
f 1413 1417 1428 
f 1417 1405 1428 
f 1408 1416 1429 
f 1423 1419 1429 
f 1416 1423 1429 
f 1413 1410 1430 
f 1410 1420 1430 
f 1420 1413 1430 
f 1405 1418 1431 
f 1422 1405 1431 
f 1418 1426 1431 
f 1426 1422 1431 
f 1412 1409 1432 
f 1409 1420 1432 
f 1425 1412 1432 
f 1420 1425 1432 
f 1407 1423 1433 
f 1412 1407 1434 
f 1421 1412 1434 
f 1407 1433 1434 
f 1433 1421 1434 
f 1426 1408 1435 
f 1419 1426 1435 
f 1408 1429 1435 
f 1429 1419 1435 
f 1416 1421 1436 
f 1423 1416 1436 
f 1421 1433 1436 
o convex_52
v 15.481035 29.134276 16.538742
v 18.336966 24.851219 7.970391
v 19.764931 24.851219 7.970391
v 21.192897 24.851219 43.669525
v 19.764931 31.989648 7.970391
v 18.336966 31.989648 43.669525
v 15.481035 24.851219 15.113014
v 21.192897 31.989648 43.669525
v 21.192897 24.851219 13.683790
v 16.909001 31.989648 7.970391
v 19.764931 24.851219 43.669525
v 15.481035 24.851219 10.828838
v 16.909001 31.989648 26.532823
v 18.336966 29.134276 42.240301
v 21.192897 26.280302 13.683790
v 21.192897 31.989648 40.811078
v 15.481035 26.280302 16.538742
v 15.481035 27.707988 12.254567
v 18.336966 30.561962 43.669525
v 16.909001 30.561962 7.970391
v 21.192897 29.134276 26.532823
v 15.481035 26.280302 10.828838
v 15.481035 29.134276 15.113014
f 1446 1454 1459 
f 1438 1439 1440 
f 1439 1438 1441 
f 1438 1440 1443 
f 1442 1440 1444 
f 1441 1442 1444 
f 1440 1439 1445 
f 1439 1441 1445 
f 1444 1440 1445 
f 1441 1438 1446 
f 1442 1441 1446 
f 1440 1442 1447 
f 1443 1440 1447 
f 1438 1443 1448 
f 1443 1437 1448 
f 1437 1442 1449 
f 1446 1437 1449 
f 1442 1446 1449 
f 1443 1447 1450 
f 1445 1441 1451 
f 1444 1445 1451 
f 1441 1444 1452 
f 1444 1451 1452 
f 1442 1437 1453 
f 1437 1443 1453 
f 1448 1437 1454 
f 1447 1442 1455 
f 1443 1450 1455 
f 1450 1447 1455 
f 1442 1453 1455 
f 1453 1443 1455 
f 1446 1438 1456 
f 1438 1448 1456 
f 1448 1446 1456 
f 1451 1441 1457 
f 1441 1452 1457 
f 1452 1451 1457 
f 1446 1448 1458 
f 1454 1446 1458 
f 1448 1454 1458 
f 1437 1446 1459 
f 1454 1437 1459 
o convex_53
v -18.790133 33.417054 59.377144
v -21.646063 23.424232 15.110218
v -21.646063 24.852477 15.110218
v -17.362167 33.417054 15.110218
v -18.790133 23.424232 29.392108
v -23.074029 27.707988 59.377144
v -21.646063 23.424232 59.377144
v -21.646063 33.417054 57.947221
v -17.362167 27.707988 15.110218
v -17.362167 31.989788 43.660998
v -18.790133 33.417054 15.110218
v -20.218098 24.852477 57.947221
v -23.074029 23.424232 43.660998
v -18.790133 23.424232 15.110218
v -20.218098 30.562521 16.540140
v -23.074029 23.424232 59.377144
v -18.790133 30.562521 59.377144
v -23.074029 26.279743 49.380687
v -17.362167 33.417054 43.660998
v -17.362167 29.134276 30.822030
v -20.218098 23.424232 50.806276
v -21.646063 33.417054 59.377144
v -18.790133 24.852477 36.537386
v -23.074029 24.852477 43.660998
v -23.074029 27.707988 56.517299
v -17.362167 27.707988 17.970062
v -20.218098 26.279743 59.377144
v -17.362167 30.562521 37.949976
f 1482 1479 1487 
f 1461 1462 1463 
f 1460 1465 1466 
f 1461 1464 1466 
f 1460 1463 1467 
f 1461 1463 1468 
f 1468 1463 1469 
f 1463 1462 1470 
f 1467 1463 1470 
f 1462 1461 1472 
f 1461 1466 1472 
f 1464 1461 1473 
f 1461 1468 1473 
f 1468 1464 1473 
f 1470 1462 1474 
f 1467 1470 1474 
f 1466 1465 1475 
f 1465 1472 1475 
f 1472 1466 1475 
f 1460 1466 1476 
f 1469 1460 1476 
f 1472 1465 1477 
f 1463 1460 1478 
f 1460 1469 1478 
f 1469 1463 1478 
f 1468 1469 1479 
f 1466 1464 1480 
f 1471 1466 1480 
f 1465 1460 1481 
f 1460 1467 1481 
f 1467 1465 1481 
f 1469 1476 1482 
f 1476 1471 1482 
f 1464 1479 1482 
f 1480 1464 1482 
f 1471 1480 1482 
f 1462 1472 1483 
f 1477 1462 1483 
f 1472 1477 1483 
f 1465 1467 1484 
f 1474 1462 1484 
f 1467 1474 1484 
f 1462 1477 1484 
f 1477 1465 1484 
f 1464 1468 1485 
f 1479 1464 1485 
f 1468 1479 1485 
f 1466 1471 1486 
f 1476 1466 1486 
f 1471 1476 1486 
f 1479 1469 1487 
f 1469 1482 1487 
o convex_54
v -15.931966 36.274942 -9.161279
v 2.627390 43.414768 6.533480
v -5.940122 43.414768 26.530586
v -13.075476 36.274942 29.388753
v 2.627390 39.131292 -10.590362
v -8.792698 41.985545 -20.588915
v -11.649188 43.414768 30.817837
v -10.220943 36.274942 -20.588915
v 2.627390 43.414768 -14.872581
v -17.360210 37.704165 30.817837
v -7.366410 36.274942 13.678898
v 2.627390 40.558418 -20.588915
v -10.220943 43.414768 3.690409
v -15.931966 37.704165 -9.161279
v 2.627390 41.985545 6.533480
v -14.503721 37.704165 -20.588915
v -7.366410 41.985545 29.388753
v -17.360210 36.274942 30.817837
v -8.792698 43.414768 -9.161279
v -17.360210 37.704165 16.537065
v 2.627390 39.131292 -4.879060
v -11.649188 43.414768 22.248367
v 2.627390 41.985545 -20.588915
v -14.503721 36.274942 -20.588915
v -8.792698 41.985545 30.817837
v -11.649188 40.558418 -17.730748
v -7.366410 43.414768 -13.448530
v -13.075476 40.558418 -4.879060
v -17.360210 36.274942 16.537065
v -5.940122 41.985545 26.530586
v -14.503721 36.274942 30.817837
v -8.792698 43.414768 30.817837
f 1512 1504 1519 
f 1490 1489 1494 
f 1491 1488 1495 
f 1489 1492 1496 
f 1494 1489 1496 
f 1491 1495 1498 
f 1495 1492 1498 
f 1492 1495 1499 
f 1495 1493 1499 
f 1496 1492 1499 
f 1494 1496 1500 
f 1489 1490 1502 
f 1492 1489 1502 
f 1491 1498 1502 
f 1493 1495 1503 
f 1488 1491 1505 
f 1494 1497 1505 
f 1500 1496 1506 
f 1497 1494 1507 
f 1501 1488 1507 
f 1505 1497 1507 
f 1498 1492 1508 
f 1492 1502 1508 
f 1502 1498 1508 
f 1494 1500 1509 
f 1507 1494 1509 
f 1501 1507 1509 
f 1493 1496 1510 
f 1499 1493 1510 
f 1496 1499 1510 
f 1495 1488 1511 
f 1488 1501 1511 
f 1503 1495 1511 
f 1501 1503 1511 
f 1491 1504 1512 
f 1494 1505 1512 
f 1493 1503 1513 
f 1503 1501 1513 
f 1506 1493 1513 
f 1500 1506 1513 
f 1496 1493 1514 
f 1493 1506 1514 
f 1506 1496 1514 
f 1509 1500 1515 
f 1501 1509 1515 
f 1500 1513 1515 
f 1513 1501 1515 
f 1488 1505 1516 
f 1507 1488 1516 
f 1505 1507 1516 
f 1502 1490 1517 
f 1491 1502 1517 
f 1490 1504 1517 
f 1504 1491 1517 
f 1505 1491 1518 
f 1491 1512 1518 
f 1512 1505 1518 
f 1490 1494 1519 
f 1504 1490 1519 
f 1494 1512 1519 
o convex_55
v -20.218098 36.274942 53.661369
v -8.794375 43.414768 46.522940
v -10.222341 43.414768 59.374348
v -15.933084 43.414768 35.105367
v -14.506237 36.274942 30.820632
v -15.933084 36.274942 56.517858
v -8.794375 41.985545 30.820632
v -17.362167 40.558418 59.374348
v -17.362167 37.704165 30.820632
v -8.794375 41.985545 46.522940
v -20.218098 37.704165 59.374348
v -11.651424 43.414768 30.820632
v -13.079390 43.414768 59.374348
v -14.506237 37.704165 59.374348
v -18.790133 37.704165 37.959061
v -17.362167 36.274942 30.820632
v -14.506237 36.274942 42.243796
v -10.222341 41.985545 59.374348
v -8.794375 43.414768 30.820632
v -20.218098 36.274942 59.374348
v -20.218098 37.704165 53.661369
v -18.790133 36.274942 37.959061
v -15.933084 43.414768 36.533611
v -17.362167 36.274942 59.374348
v -13.079390 37.704165 43.672040
v -14.506237 43.414768 33.677122
f 1531 1528 1545 
f 1522 1521 1523 
f 1520 1524 1525 
f 1526 1524 1528 
f 1521 1522 1529 
f 1526 1521 1529 
f 1524 1526 1529 
f 1522 1527 1530 
f 1523 1521 1531 
f 1526 1528 1531 
f 1522 1523 1532 
f 1527 1522 1532 
f 1522 1530 1533 
f 1523 1528 1534 
f 1524 1520 1535 
f 1528 1524 1535 
f 1534 1528 1535 
f 1525 1524 1536 
f 1524 1529 1536 
f 1533 1525 1536 
f 1529 1522 1537 
f 1522 1533 1537 
f 1533 1529 1537 
f 1521 1526 1538 
f 1531 1521 1538 
f 1526 1531 1538 
f 1520 1525 1539 
f 1530 1520 1539 
f 1533 1530 1539 
f 1520 1530 1540 
f 1530 1523 1540 
f 1534 1520 1540 
f 1523 1534 1540 
f 1520 1534 1541 
f 1535 1520 1541 
f 1534 1535 1541 
f 1523 1530 1542 
f 1530 1527 1542 
f 1532 1523 1542 
f 1527 1532 1542 
f 1525 1533 1543 
f 1539 1525 1543 
f 1533 1539 1543 
f 1529 1533 1544 
f 1536 1529 1544 
f 1533 1536 1544 
f 1528 1523 1545 
f 1523 1531 1545 
