v 40.12064566915433 133.11950259500261 -0.4722112419972291
v 40.1206447832367 112.85207026940341 -0.4722112419972291
v 40.120647516908896 112.85207270078891 55.24420233389537
v 40.120653620717064 127.41267099729738 38.64588604946039
v 40.12064840282663 133.11950745777372 25.763547317091252
v 40.12064389731908 92.58463794380421 -0.4722112419972291
v 130.6739583470294 92.58463398559303 -0.47221331029231806
v 130.6739583470294 92.58463398559303 25.763547317091252
v 40.12064663099117 92.5846379438041 25.763547317091252
v 130.6739583470294 92.58463398559303 -0.47221331029231806
v 130.67395923294706 112.85206631119223 -0.47221331029231806
v 130.67395923294714 112.85206874257784 55.244218880256085
v 130.673958596483 98.29146679899071 38.645890186050565
v 130.6739583470294 92.58463398559303 25.763547317091252
v 130.67396011886467 133.11949863679143 -0.47221331029231806
v 40.12064566915433 133.11950259500261 -0.4722112419972291
v 40.12064840282663 133.11950745777372 25.763547317091252
v 130.67396011886487 133.11950349956265 25.763547317091252
v 40.1206447832367 112.85207026940341 -0.4722112419972291
v 40.12064389731908 92.58463794380421 -0.4722112419972291
v 40.12064663099117 92.5846379438041 25.763547317091252
v 40.12065234778894 98.29147075720154 38.64588604946039
v 40.120647516908896 112.85207270078891 55.24420233389537
v 130.67395923294706 112.85206631119223 -0.47221331029231806
v 130.67396011886467 133.11949863679143 -0.47221331029231806
v 130.67396011886487 133.11950349956265 25.763547317091252
v 130.6739708040995 127.41266703908609 38.645890186050565
v 130.67395923294714 112.85206874257784 55.244218880256085
v 38.088415860675546 93.1929675970899 27.004044526015605
v 38.08841286001818 90.99375188361344 24.376358347276437
v 41.24395616217946 90.99375174568026 24.376358347276437
v 41.24395813770979 93.19296745915676 27.004044526015605
v 38.08841295614893 93.19296698924364 -0.47221331029231806
v 38.08841284709947 90.69820624940323 -0.47221331029231806
v 38.08841286001818 90.99375188361344 24.376358347276437
v 38.088415860675546 93.1929675970899 27.004044526015605
v 38.08841284709947 90.69820624940323 -0.47221331029231806
v 41.24395888293284 90.69820611146994 -0.47221331029231806
v 41.24395616217946 90.99375174568026 24.376358347276437
v 38.08841286001818 90.99375188361344 24.376358347276437
v 41.24395888293284 90.69820611146994 -0.47221331029231806
v 41.243958991982296 93.19296685131033 -0.47221331029231806
v 41.24395813770979 93.19296745915676 27.004044526015605
v 41.24395616217946 90.99375174568026 24.376358347276437
v 41.243958991982296 93.19296685131033 -0.47221331029231806
v 38.08841295614893 93.19296698924364 -0.47221331029231806
v 38.088415860675546 93.1929675970899 27.004044526015605
v 41.24395813770979 93.19296745915676 27.004044526015605
v 83.67834900257213 93.1929655283098 27.004044526015605
v 83.6783407054251 90.99374996679515 24.376366620456793
v 86.8338785402422 90.9937498288622 24.376366620456793
v 86.83388957106132 93.19296539037673 27.004044526015605
v 83.67834626890003 93.19296499644432 -0.47221331029231806
v 83.67834615985056 90.6982042566039 -0.47221331029231806
v 83.6783407054251 90.99374996679515 24.376366620456793
v 83.67834900257213 93.1929655283098 27.004044526015605
v 83.67834615985056 90.6982042566039 -0.47221331029231806
v 86.83388399466766 90.69820411867096 -0.47221331029231806
v 86.8338785402422 90.9937498288622 24.376366620456793
v 83.6783407054251 90.99374996679515 24.376366620456793
v 86.83388399466766 90.69820411867096 -0.47221331029231806
v 86.83388410371712 93.19296485851137 -0.47221331029231806
v 86.83388957106132 93.19296539037673 27.004044526015605
v 86.8338785402422 90.9937498288622 24.376366620456793
v 129.37827981289962 93.19296353070233 27.004044526015605
v 129.3782742494247 90.99374796918758 24.376358347276437
v 132.53381755158597 90.99374783125438 24.376358347276437
v 132.53381764771672 93.19296339276939 27.004044526015605
v 129.3782743455554 93.19296299883698 -0.47221537858740703
v 129.37827423650597 90.69820225899656 -0.47221537858740703
v 129.3782742494247 90.99374796918758 24.376358347276437
v 129.37827981289962 93.19296353070233 27.004044526015605
v 129.37827423650597 90.69820225899656 -0.47221537858740703
v 132.53381753866725 90.69820212106339 -0.47221537858740703
v 132.53381755158597 90.99374783125438 24.376358347276437
v 129.3782742494247 90.99374796918758 24.376358347276437
v 132.53381753866725 90.69820212106339 -0.47221537858740703
v 132.5338176477167 93.19296286090378 -0.47221537858740703
v 132.53381764771672 93.19296339276939 27.004044526015605
v 132.53381755158597 90.99374783125438 24.376358347276437
v 132.5338176477167 93.19296286090378 -0.47221537858740703
v 129.3782743455554 93.19296299883698 -0.47221537858740703
v 129.37827981289962 93.19296353070233 27.004044526015605
v 132.53381764771672 93.19296339276939 27.004044526015605
v 38.088414766809 134.61603997798483 -0.47221331029231806
v 41.24396080264237 134.61603984005154 -0.47221331029231806
v 41.243960693593166 132.12128502671357 -0.47221331029231806
v 38.0884146577598 132.12128516464685 -0.47221331029231806
v 38.08841476921665 134.67112058759784 25.2130250766686
v 38.0884175622865 132.12128759603235 27.004044526015605
v 41.243959839320745 132.1212874580992 27.004044526015605
v 41.243958071377925 134.67112044966467 25.2130250766686
v 38.0884146577598 132.12128516464685 -0.47221331029231806
v 41.243960693593166 132.12128502671357 -0.47221331029231806
v 41.243959839320745 132.1212874580992 27.004044526015605
v 38.0884175622865 132.12128759603235 27.004044526015605
v 41.243960693593166 132.12128502671357 -0.47221331029231806
v 41.24396080264237 134.61603984005154 -0.47221331029231806
v 41.243958071377925 134.67112044966467 25.2130250766686
v 41.243959839320745 132.1212874580992 27.004044526015605
v 41.24396080264237 134.61603984005154 -0.47221331029231806
v 38.088414766809 134.61603997798483 -0.47221331029231806
v 38.08841476921665 134.67112058759784 25.2130250766686
v 41.243958071377925 134.67112044966467 25.2130250766686
v 83.67834808196775 134.67111859479854 25.21302921325878
v 83.6783507041831 132.12128560323305 27.004044526015605
v 86.83389127267229 132.12128546529996 27.004044526015605
v 86.83388591678485 134.6711184568656 25.21302921325878
v 83.6783480795601 134.61603798518553 -0.47221331029231806
v 83.6783479705109 132.12128317184755 -0.47221331029231806
v 83.6783507041831 132.12128560323305 27.004044526015605
v 83.67834808196775 134.67111859479854 25.21302921325878
v 86.833885805328 132.1212830339146 -0.47221331029231806
v 86.83388591437719 134.61603784725258 -0.47221331029231806
v 86.83388591678485 134.6711184568656 25.21302921325878
v 86.83389127267229 132.12128546529996 27.004044526015605
v 86.83388591437719 134.61603784725258 -0.47221331029231806
v 83.6783480795601 134.61603798518553 -0.47221331029231806
v 83.67834808196775 134.67111859479854 25.21302921325878
v 86.83388591678485 134.6711184568656 25.21302921325878
v 129.37827615862315 134.6711165971912 25.2130250766686
v 129.37828151451058 132.12128360562556 27.004044526015605
v 132.53381934932767 132.12128346769262 27.004044526015605
v 132.53381946078443 134.671116459258 25.2130250766686
v 129.3782761562155 134.6160359875782 -0.47221537858740703
v 129.3782760471663 132.1212811742402 -0.47221537858740703
v 129.37828151451058 132.12128360562556 27.004044526015605
v 129.37827615862315 134.6711165971912 25.2130250766686
v 129.3782760471663 132.1212811742402 -0.47221537858740703
v 132.5338193493276 132.121281036307 -0.47221537858740703
v 132.53381934932767 132.12128346769262 27.004044526015605
v 129.37828151451058 132.12128360562556 27.004044526015605
v 132.5338193493276 132.121281036307 -0.47221537858740703
v 132.53381945837677 134.616035849645 -0.47221537858740703
v 132.53381946078443 134.671116459258 25.2130250766686
v 132.53381934932767 132.12128346769262 27.004044526015605
v 132.53381945837677 134.616035849645 -0.47221537858740703
v 129.3782761562155 134.6160359875782 -0.47221537858740703
v 129.37827615862315 134.6711165971912 25.2130250766686
v 132.53381946078443 134.671116459258 25.2130250766686
v 37.01877166253655 112.79050528995523 56.118123194430154
v 132.3719085737779 112.79050112193714 56.118123194430154
v 132.3719092855202 129.07326686583554 39.94147436637468
v 37.01877237427887 129.07327103385362 39.94147436637468
v 132.3719092855202 129.07326686583554 39.94147436637468
v 132.37190925782096 128.4395821284112 38.716253584977494
v 37.018772346579624 128.43958629642927 38.716253584977494
v 37.01877237427887 129.07327103385362 39.94147436637468
v 132.37190925782096 128.4395821284112 38.716253584977494
v 132.37190958311857 135.88152343910872 24.249621497404405
v 37.01877267187722 135.8815276071268 24.249621497404405
v 37.018772346579624 128.43958629642927 38.716253584977494
v 37.01877166253655 112.79050528995523 56.118123194430154
v 37.018770973379624 97.02443299815297 39.94147436637468
v 132.37190788462095 97.02442883013488 39.94147436637468
v 132.3719085737779 112.79050112193714 56.118123194430154
v 132.37190788462095 97.02442883013488 39.94147436637468
v 37.018770973379624 97.02443299815297 39.94147436637468
v 37.01877100107875 97.65811500026851 38.716253584977494
v 132.3719079123201 97.65811083225042 38.716253584977494
v 132.3719079123201 97.65811083225042 38.716253584977494
v 37.01877100107875 97.65811500026851 38.716253584977494
v 37.01877067578108 90.21617201799337 24.249621497404405
v 132.3719075870224 90.21616784997528 24.249621497404405
v 132.3719091777133 126.60693251889494 38.71826396780398
v 132.37190857442354 112.80527178951898 53.589152603697585
v 37.0187716631822 112.80527595753708 53.589152603697585
v 37.01877226647196 126.60693668691303 38.71826396780398
v 37.018772582757826 133.84271351756658 23.531525988873
v 132.37190949399917 133.8427093495485 23.531525988873
v 132.3719091777133 126.60693251889494 38.71826396780398
v 37.01877226647196 126.60693668691303 38.71826396780398
v 132.37190799242765 99.49075801038104 38.71826396780398
v 37.0187710811863 99.49076217839914 38.71826396780398
v 37.0187716631822 112.80527595753708 53.589152603697585
v 132.37190857442354 112.80527178951898 53.589152603697585
v 37.01877074701591 91.84583482599413 23.411287722170528
v 37.0187710811863 99.49076217839914 38.71826396780398
v 132.37190799242765 99.49075801038104 38.71826396780398
v 132.37190765825724 91.84583065797604 23.411287722170528
v 37.01877237427887 129.07327103385362 39.94147436637468
v 37.01877226647196 126.60693668691303 38.71826396780398
v 37.0187716631822 112.80527595753708 53.589152603697585
v 37.01877166253655 112.79050528995523 56.118123194430154
v 132.3719085737779 112.79050112193714 56.118123194430154
v 132.37190857442354 112.80527178951898 53.589152603697585
v 132.3719091777133 126.60693251889494 38.71826396780398
v 132.3719092855202 129.07326686583554 39.94147436637468
v 37.018772346579624 128.43958629642927 38.716253584977494
v 37.01877226647196 126.60693668691303 38.71826396780398
v 37.01877237427887 129.07327103385362 39.94147436637468
v 132.3719092855202 129.07326686583554 39.94147436637468
v 132.3719091777133 126.60693251889494 38.71826396780398
v 132.37190925782096 128.4395821284112 38.716253584977494
v 37.01877267187722 135.8815276071268 24.249621497404405
v 37.018772582757826 133.84271351756658 23.531525988873
v 37.01877226647196 126.60693668691303 38.71826396780398
v 37.018772346579624 128.43958629642927 38.716253584977494
v 132.37190958311857 135.88152343910872 24.249621497404405
v 132.37190949399917 133.8427093495485 23.531525988873
v 37.018772582757826 133.84271351756658 23.531525988873
v 37.01877267187722 135.8815276071268 24.249621497404405
v 132.37190925782096 128.4395821284112 38.716253584977494
v 132.3719091777133 126.60693251889494 38.71826396780398
v 132.37190949399917 133.8427093495485 23.531525988873
v 132.37190958311857 135.88152343910872 24.249621497404405
v 132.37190788462095 97.02442883013488 39.94147436637468
v 132.37190799242765 99.49075801038104 38.71826396780398
v 132.37190857442354 112.80527178951898 53.589152603697585
v 132.3719085737779 112.79050112193714 56.118123194430154
v 37.01877166253655 112.79050528995523 56.118123194430154
v 37.0187716631822 112.80527595753708 53.589152603697585
v 37.0187710811863 99.49076217839914 38.71826396780398
v 37.018770973379624 97.02443299815297 39.94147436637468
v 132.3719079123201 97.65811083225042 38.716253584977494
v 132.37190799242765 99.49075801038104 38.71826396780398
v 132.37190788462095 97.02442883013488 39.94147436637468
v 37.018770973379624 97.02443299815297 39.94147436637468
v 37.0187710811863 99.49076217839914 38.71826396780398
v 37.01877100107875 97.65811500026851 38.716253584977494
v 132.3719075870224 90.21616784997528 24.249621497404405
v 132.37190765825724 91.84583065797604 23.411287722170528
v 132.37190799242765 99.49075801038104 38.71826396780398
v 132.3719079123201 97.65811083225042 38.716253584977494
v 37.01877067578108 90.21617201799337 24.249621497404405
v 37.01877074701591 91.84583482599413 23.411287722170528
v 132.37190765825724 91.84583065797604 23.411287722170528
v 132.3719075870224 90.21616784997528 24.249621497404405
v 37.01877100107875 97.65811500026851 38.716253584977494
v 37.0187710811863 99.49076217839914 38.71826396780398
v 37.01877074701591 91.84583482599413 23.411287722170528
v 37.01877067578108 90.21617201799337 24.249621497404405
v 55.68186496466729 102.91189536804997 46.77334260657153
v 55.681864925931905 102.02573311747894 47.66601049379278
v 53.08910816438013 102.02573262296553 47.66601049379278
v 53.08910956995158 102.91189548138291 46.77334260657153
v 55.68186696541465 117.41409542928052 59.9094983756695
v 53.089112937534985 117.4140955426134 59.9094983756695
v 53.0891128987995 116.52793086065675 60.80216626289075
v 55.68186692667916 116.52793074732388 60.80216626289075
v 55.68186496466729 102.91189536804997 46.77334260657153
v 53.08910956995158 102.91189548138291 46.77334260657153
v 53.089112937534985 117.4140955426134 59.9094983756695
v 55.68186696541465 117.41409542928052 59.9094983756695
v 53.08910956995158 102.91189548138291 46.77334260657153
v 53.08910816438013 102.02573262296553 47.66601049379278
v 53.0891128987995 116.52793086065675 60.80216626289075
v 53.089112937534985 117.4140955426134 59.9094983756695
v 53.08910816438013 102.02573262296553 47.66601049379278
v 55.681864925931905 102.02573311747894 47.66601049379278
v 55.68186692667916 116.52793074732388 60.80216626289075
v 53.0891128987995 116.52793086065675 60.80216626289075
v 55.681864925931905 102.02573311747894 47.66601049379278
v 55.68186496466729 102.91189536804997 46.77334260657153
v 55.68186696541465 117.41409542928052 59.9094983756695
v 55.68186692667916 116.52793074732388 60.80216626289075
v 77.30425988240847 102.91189685429066 46.77334260657153
v 77.30426531101725 102.02573399587298 47.66601049379278
v 74.7115140168097 102.02573471705215 47.66601049379278
v 74.71151405554508 102.91189696762318 46.77334260657153
v 77.30426598366397 117.41409691552103 59.9094983756695
v 74.71151742312838 117.41409459746806 59.909506648849856
v 74.71151738439289 116.52792991551142 60.80216626289075
v 77.30427141227256 116.52792980217853 60.80216626289075
v 77.30425988240847 102.91189685429066 46.77334260657153
v 74.71151405554508 102.91189696762318 46.77334260657153
v 74.71151742312838 117.41409459746806 59.909506648849856
v 77.30426598366397 117.41409691552103 59.9094983756695
v 74.71151405554508 102.91189696762318 46.77334260657153
v 74.7115140168097 102.02573471705215 47.66601049379278
v 74.71151738439289 116.52792991551142 60.80216626289075
v 74.71151742312838 117.41409459746806 59.909506648849856
v 74.7115140168097 102.02573471705215 47.66601049379278
v 77.30426531101725 102.02573399587298 47.66601049379278
v 77.30427141227256 116.52792980217853 60.80216626289075
v 74.71151738439289 116.52792991551142 60.80216626289075
v 77.30426531101725 102.02573399587298 47.66601049379278
v 77.30425988240847 102.91189685429066 46.77334260657153
v 77.30426598366397 117.41409691552103 59.9094983756695
v 77.30427141227256 116.52792980217853 60.80216626289075
v 98.92667666952616 102.91189347775918 46.77334260657153
v 98.92667663079084 102.02573244288095 47.66601049379278
v 96.333919869239 102.02573073267475 47.66601049379278
v 96.3339199079744 102.91189359109218 46.77334260657153
v 98.92668277078155 117.41409110760394 59.9094983756695
v 96.3339260092298 117.41409122093694 59.9094983756695
v 96.3339259704943 116.5279265389803 60.80216626289075
v 98.92668273204606 116.5279264256473 60.80216626289075
v 98.92667666952616 102.91189347775918 46.77334260657153
v 96.3339199079744 102.91189359109218 46.77334260657153
v 96.3339260092298 117.41409122093694 59.9094983756695
v 98.92668277078155 117.41409110760394 59.9094983756695
v 96.3339199079744 102.91189359109218 46.77334260657153
v 96.333919869239 102.02573073267475 47.66601049379278
v 96.3339259704943 116.5279265389803 60.80216626289075
v 96.3339260092298 117.41409122093694 59.9094983756695
v 96.333919869239 102.02573073267475 47.66601049379278
v 98.92667663079084 102.02573244288095 47.66601049379278
v 98.92668273204606 116.5279264256473 60.80216626289075
v 96.3339259704943 116.5279265389803 60.80216626289075
v 98.92667663079084 102.02573244288095 47.66601049379278
v 98.92667666952616 102.91189347775918 46.77334260657153
v 98.92668277078155 117.41409110760394 59.9094983756695
v 98.92668273204606 116.5279264256473 60.80216626289075
v 120.54907158726719 102.91189131692144 46.77334260657153
v 120.54907154853178 102.025728458504 47.66600222061243
v 117.95632025432421 102.02572857183678 47.66600222061243
v 117.95632029305962 102.91189143025422 46.77334260657153
v 120.5490886232111 117.41409259384415 59.9094983756695
v 117.95633732900342 117.4140902757913 59.9094983756695
v 117.95633182292374 116.5279255938349 60.80216626289075
v 120.5490885844755 116.52792548050189 60.80216626289075
v 120.54907158726719 102.91189131692144 46.77334260657153
v 117.95632029305962 102.91189143025422 46.77334260657153
v 117.95633732900342 117.4140902757913 59.9094983756695
v 120.5490886232111 117.41409259384415 59.9094983756695
v 117.95632029305962 102.91189143025422 46.77334260657153
v 117.95632025432421 102.02572857183678 47.66600222061243
v 117.95633182292374 116.5279255938349 60.80216626289075
v 117.95633732900342 117.4140902757913 59.9094983756695
v 117.95632025432421 102.02572857183678 47.66600222061243
v 120.54907154853178 102.025728458504 47.66600222061243
v 120.5490885844755 116.52792548050189 60.80216626289075
v 117.95633182292374 116.5279255938349 60.80216626289075
v 120.54907154853178 102.025728458504 47.66600222061243
v 120.54907158726719 102.91189131692144 46.77334260657153
v 120.5490886232111 117.41409259384415 59.9094983756695
v 120.5490885844755 116.52792548050189 60.80216626289075
v 133.72797396563058 113.12573321643642 53.05233902312466
v 133.7279739656307 113.12573564782203 59.68559302251742
v 133.7279739283516 112.27288945857448 59.68559302251742
v 133.7279739283516 112.27288945857448 53.05233902312466
v 35.361966832301974 113.12574237892247 53.0523307499443
v 35.36196679502299 112.27289862106053 53.0523307499443
v 35.36196679502293 112.27289740536773 59.68559302251742
v 35.36196683230187 113.12573994753686 59.68559302251742
v 133.7279739283516 112.27288945857448 53.05233902312466
v 133.7279739283516 112.27288945857448 59.68559302251742
v 109.13647761236362 112.27289174919575 58.196329553471514
v 109.13647214501938 112.27289053350319 51.563067280898395
v 133.7279739283516 112.27288945857448 59.68559302251742
v 133.7279739656307 113.12573564782203 59.68559302251742
v 109.13647764964266 113.12573672275049 58.196329553471514
v 109.13647761236362 112.27289174919575 58.196329553471514
v 133.7279739656307 113.12573564782203 59.68559302251742
v 133.72797396563058 113.12573321643642 53.05233902312466
v 109.13647218229848 113.12573672275073 51.563067280898395
v 109.13647764964266 113.12573672275049 58.196329553471514
v 84.54497036168729 112.2728940398175 57.68698293168018
v 59.95346857835519 112.27289754613182 58.19632128029116
v 59.953468578355135 112.27289633043901 51.563067280898395
v 84.54497036168729 112.2728940398175 51.05372065910706
v 84.54497039896627 113.12573779767943 57.68697465849982
v 59.95346861563418 113.12574130399375 58.19632128029116
v 59.95346857835519 112.27289754613182 58.19632128029116
v 84.54497036168729 112.2728940398175 57.68698293168018
v 84.54497039896627 113.12573779767943 51.05372065910706
v 59.95346861563407 113.12573887260814 51.563067280898395
v 59.95346861563418 113.12574130399375 58.19632128029116
v 84.54497039896627 113.12573779767943 57.68697465849982
v 109.13647761236362 112.27289174919575 58.196329553471514
v 84.54497036168729 112.2728940398175 57.68698293168018
v 84.54497036168729 112.2728940398175 51.05372065910706
v 109.13647214501938 112.27289053350319 51.563067280898395
v 109.13647764964266 113.12573672275049 58.196329553471514
v 84.54497039896627 113.12573779767943 57.68697465849982
v 84.54497036168729 112.2728940398175 57.68698293168018
v 109.13647761236362 112.27289174919575 58.196329553471514
v 109.13647218229848 113.12573672275073 51.563067280898395
v 84.54497039896627 113.12573779767943 51.05372065910706
v 84.54497039896627 113.12573779767943 57.68697465849982
v 109.13647764964266 113.12573672275049 58.196329553471514
v 59.95346857835519 112.27289754613182 58.19632128029116
v 35.36196679502293 112.27289740536773 59.68559302251742
v 35.36196679502299 112.27289862106053 53.0523307499443
v 59.953468578355135 112.27289633043901 51.563067280898395
v 59.95346861563418 113.12574130399375 58.19632128029116
v 35.36196683230187 113.12573994753686 59.68559302251742
v 35.36196679502293 112.27289740536773 59.68559302251742
v 59.95346857835519 112.27289754613182 58.19632128029116
v 59.95346861563407 113.12573887260814 51.563067280898395
v 35.361966832301974 113.12574237892247 53.0523307499443
v 35.36196683230187 113.12573994753686 59.68559302251742
v 59.95346861563418 113.12574130399375 58.19632128029116
v 53.901438863504104 122.655042013887 46.77334260657153
v 51.30868210195214 122.65503726444878 46.77334260657153
v 51.30868214068763 123.54120194640542 47.66601049379278
v 53.90143890223949 123.54120426445803 47.66600222061243
v 53.9014382295929 108.152844384042 59.9094983756695
v 53.901438268328384 109.03900906599864 60.80216626289075
v 51.30868560728466 109.03900674794585 60.80216626289075
v 51.30868556854917 108.1528420659892 59.9094983756695
v 53.901438863504104 122.655042013887 46.77334260657153
v 53.9014382295929 108.152844384042 59.9094983756695
v 51.30868556854917 108.1528420659892 59.9094983756695
v 51.30868210195214 122.65503726444878 46.77334260657153
v 51.30868210195214 122.65503726444878 46.77334260657153
v 51.30868556854917 108.1528420659892 59.9094983756695
v 51.30868560728466 109.03900674794585 60.80216626289075
v 51.30868214068763 123.54120194640542 47.66601049379278
v 51.30868214068763 123.54120194640542 47.66601049379278
v 51.30868560728466 109.03900674794585 60.80216626289075
v 53.901438268328384 109.03900906599864 60.80216626289075
v 53.90143890223949 123.54120426445803 47.66600222061243
v 53.90143890223949 123.54120426445803 47.66600222061243
v 53.901438268328384 109.03900906599864 60.80216626289075
v 53.9014382295929 108.152844384042 59.9094983756695
v 53.901438863504104 122.655042013887 46.77334260657153
v 75.52384198226113 122.6550337745849 46.77334260657153
v 72.93108795438158 122.65503631930338 46.77334260657153
v 72.93108799311706 123.54120100126002 47.66601049379278
v 75.52384202099672 123.54120088792715 47.66601049379278
v 75.52384681569421 108.15283857612526 59.909506648849856
v 75.52384685442975 109.03900447377471 60.80216626289075
v 72.931090092878 109.03900458710771 60.80216626289075
v 72.93109005414246 108.15283868945826 59.9094983756695
v 75.52384198226113 122.6550337745849 46.77334260657153
v 75.52384681569421 108.15283857612526 59.909506648849856
v 72.93109005414246 108.15283868945826 59.9094983756695
v 72.93108795438158 122.65503631930338 46.77334260657153
v 72.93108795438158 122.65503631930338 46.77334260657153
v 72.93109005414246 108.15283868945826 59.9094983756695
v 72.931090092878 109.03900458710771 60.80216626289075
v 72.93108799311706 123.54120100126002 47.66601049379278
v 72.93108799311706 123.54120100126002 47.66601049379278
v 72.931090092878 109.03900458710771 60.80216626289075
v 75.52384685442975 109.03900447377471 60.80216626289075
v 75.52384202099672 123.54120088792715 47.66601049379278
v 75.52384202099672 123.54120088792715 47.66601049379278
v 75.52384685442975 109.03900447377471 60.80216626289075
v 75.52384681569421 108.15283857612526 59.909506648849856
v 75.52384198226113 122.6550337745849 46.77334260657153
v 97.14625330203496 122.65503769221047 46.77334260657153
v 94.55349654048311 122.65503537415786 46.773334333391176
v 94.55349657921859 123.5412000561145 47.66600222061243
v 97.14625334077046 123.54120237416711 47.66601049379278
v 97.14625266812386 108.15284249375108 59.9094983756695
v 97.14625270685924 109.03900474432211 60.80216626289075
v 94.55350141265167 109.03900485765487 60.80216626289075
v 94.55350137391618 108.15284017569823 59.9094983756695
v 97.14625330203496 122.65503769221047 46.77334260657153
v 97.14625266812386 108.15284249375108 59.9094983756695
v 94.55350137391618 108.15284017569823 59.9094983756695
v 94.55349654048311 122.65503537415786 46.773334333391176
v 94.55349654048311 122.65503537415786 46.773334333391176
v 94.55350137391618 108.15284017569823 59.9094983756695
v 94.55350141265167 109.03900485765487 60.80216626289075
v 94.55349657921859 123.5412000561145 47.66600222061243
v 94.55349657921859 123.5412000561145 47.66600222061243
v 94.55350141265167 109.03900485765487 60.80216626289075
v 97.14625270685924 109.03900474432211 60.80216626289075
v 97.14625334077046 123.54120237416711 47.66601049379278
v 97.14625334077046 123.54120237416711 47.66601049379278
v 97.14625270685924 109.03900474432211 60.80216626289075
v 97.14625266812386 108.15284249375108 59.9094983756695
v 97.14625330203496 122.65503769221047 46.77334260657153
v 118.76864821977625 122.65504160983677 46.77334260657153
v 116.1758914582244 122.65503929178416 46.773334333391176
v 116.17589149695988 123.5412039737408 47.66600222061243
v 118.76864825851163 123.5412038604078 47.66600222061243
v 118.76864211852082 108.15284276429921 59.9094983756695
v 118.76864215725625 109.03900623056305 60.80216626289075
v 116.17589086304862 109.039005128203 60.80216626289075
v 116.17589629165737 108.15284166193892 59.9094983756695
v 118.76864821977625 122.65504160983677 46.77334260657153
v 118.76864211852082 108.15284276429921 59.9094983756695
v 116.17589629165737 108.15284166193892 59.9094983756695
v 116.1758914582244 122.65503929178416 46.773334333391176
v 116.1758914582244 122.65503929178416 46.773334333391176
v 116.17589629165737 108.15284166193892 59.9094983756695
v 116.17589086304862 109.039005128203 60.80216626289075
v 116.17589149695988 123.5412039737408 47.66600222061243
v 116.17589149695988 123.5412039737408 47.66600222061243
v 116.17589086304862 109.039005128203 60.80216626289075
v 118.76864215725625 109.03900623056305 60.80216626289075
v 118.76864825851163 123.5412038604078 47.66600222061243
v 118.76864825851163 123.5412038604078 47.66600222061243
v 118.76864215725625 109.03900623056305 60.80216626289075
v 118.76864211852082 108.15284276429921 59.9094983756695
v 118.76864821977625 122.65504160983677 46.77334260657153
v 38.08841426973301 123.24426712525288 25.213016803488244
v 38.08841743981295 121.50202858965103 25.318392301681342
v 41.24395937513818 121.5020284517179 25.318392301681342
v 41.243957571894285 123.24426698731969 25.213016803488244
v 38.088414267325255 123.18918408425425 -0.472219515177585
v 38.08841419357745 121.50203102103679 -0.472219515177585
v 38.08841743981295 121.50202858965103 25.318392301681342
v 38.08841426973301 123.24426712525288 25.213016803488244
v 38.08841419357745 121.50203102103679 -0.472219515177585
v 41.24396022941082 121.50203088310349 -0.472219515177585
v 41.24395937513818 121.5020284517179 25.318392301681342
v 38.08841743981295 121.50202858965103 25.318392301681342
v 41.24396030315862 123.18918394632095 -0.472219515177585
v 38.088414267325255 123.18918408425425 -0.472219515177585
v 38.08841426973301 123.24426712525288 25.213016803488244
v 41.243957571894285 123.24426698731969 25.213016803488244
v 38.08841345693019 104.64950653017691 25.213016803488244
v 38.088416627010126 102.90726799457507 25.318388165091164
v 41.24395856233536 102.90726785664194 25.318388165091164
v 41.24395675909147 104.64950639224372 25.213016803488244
v 38.08841345452238 104.59442227348548 -0.47222158347267396
v 38.088413380774576 102.90726921026801 -0.47222158347267396
v 38.088416627010126 102.90726799457507 25.318388165091164
v 38.08841345693019 104.64950653017691 25.213016803488244
v 38.088413380774576 102.90726921026801 -0.47222158347267396
v 41.24395941660794 102.90726907233471 -0.47222158347267396
v 41.24395856233536 102.90726785664194 25.318388165091164
v 38.088416627010126 102.90726799457507 25.318388165091164
v 41.24395949035575 104.59442213555218 -0.47222158347267396
v 38.08841345452238 104.59442227348548 -0.47222158347267396
v 38.08841345693019 104.64950653017691 25.213016803488244
v 41.24395675909147 104.64950639224372 25.213016803488244
v 36.73179916914673 125.22114658846452 26.55672193735245
v 40.304069381973434 125.22114400093001 26.55671780076227
v 40.304069381973434 125.22114400093001 24.869563994193413
v 36.73179916914673 125.22114658846452 24.86956813078359
v 36.73179910792063 100.36828451274833 26.611800635571853
v 36.73180217869586 100.26291433886703 24.869563994193413
v 40.30406859000991 100.2629141827183 24.869563994193413
v 40.30406671521622 100.36828435659956 26.611796498981676
v 36.73179916914673 125.22114658846452 26.55672193735245
v 36.73179916914673 125.22114658846452 24.86956813078359
v 36.73180217869586 100.26291433886703 24.869563994193413
v 36.73179910792063 100.36828451274833 26.611800635571853
v 36.73179916914673 125.22114658846452 24.86956813078359
v 40.304069381973434 125.22114400093001 24.869563994193413
v 40.30406859000991 100.2629141827183 24.869563994193413
v 36.73180217869586 100.26291433886703 24.869563994193413
v 40.304069381973434 125.22114400093001 26.55671780076227
v 36.73179916914673 125.22114658846452 26.55672193735245
v 36.73179910792063 100.36828451274833 26.611800635571853
v 40.30406671521622 100.36828435659956 26.611796498981676
v 38.94045407925151 121.47124721058245 0.11856002085687578
v 38.191644622989195 112.91232008914295 0.11856002085687578
v 38.19164359786216 112.912320089143 23.814799684259015
v 38.940453054124475 121.47124721058249 23.814799684259015
v 39.37876888216662 121.43290180896496 0.11856002085687578
v 38.62995938319056 112.87397225613984 0.11856002085687578
v 38.191644622989195 112.91232008914295 0.11856002085687578
v 38.94045407925151 121.47124721058245 0.11856002085687578
v 38.62995938319056 112.87397225613984 0.11856002085687578
v 38.629958358063526 112.8739722561399 23.814799684259015
v 38.19164359786216 112.912320089143 23.814799684259015
v 38.191644622989195 112.91232008914295 0.11856002085687578
v 38.629958358063526 112.8739722561399 23.814799684259015
v 39.378767857039584 121.432901808965 23.814799684259015
v 38.940453054124475 121.47124721058249 23.814799684259015
v 38.19164359786216 112.912320089143 23.814799684259015
v 39.378767857039584 121.432901808965 23.814799684259015
v 39.37876888216662 121.43290180896496 0.11856002085687578
v 38.94045407925151 121.47124721058245 0.11856002085687578
v 38.940453054124475 121.47124721058249 23.814799684259015
v 38.94045334971082 104.78130218131847 0.11856002085687578
v 38.94045232458379 104.78130218131851 23.814799684259015
v 36.38558655191991 112.30536243698381 23.814799684259015
v 36.385587577047 112.30536365267656 0.11856002085687578
v 39.3787681559783 104.81964997600288 0.11856002085687578
v 38.94045334971082 104.78130218131847 0.11856002085687578
v 36.385587577047 112.30536365267656 0.11856002085687578
v 36.82390234060073 112.34370901597536 0.11856002085687578
v 36.82390234060073 112.34370901597536 0.11856002085687578
v 36.385587577047 112.30536365267656 0.11856002085687578
v 36.38558655191991 112.30536243698381 23.814799684259015
v 36.82390114461919 112.34370901597542 23.814799684259015
v 36.82390114461919 112.34370901597542 23.814799684259015
v 36.38558655191991 112.30536243698381 23.814799684259015
v 38.94045232458379 104.78130218131851 23.814799684259015
v 39.378767130851266 104.81964997600292 23.814799684259015
v 39.378767130851266 104.81964997600292 23.814799684259015
v 38.94045232458379 104.78130218131851 23.814799684259015
v 38.94045334971082 104.78130218131847 0.11856002085687578
v 39.3787681559783 104.81964997600288 0.11856002085687578
v 129.59283472891326 91.55313696111412 22.328638657846568
v 131.8149492937505 91.5531356482896 22.328642794436746
v 131.8149492937505 91.5531356482896 24.823412057578025
v 129.59283472891326 91.55313696111412 24.823407920987847
v 129.59284200184598 132.8601865459517 22.32863452125639
v 129.59284199498128 132.70314091800458 24.52784855277332
v 131.8149510924744 132.7031408208731 24.5278526893635
v 131.81495109933908 132.86018644882023 22.328638657846568
v 129.59283472891326 91.55313696111412 24.823407920987847
v 131.8149492937505 91.5531356482896 24.823412057578025
v 131.8149510924744 132.7031408208731 24.5278526893635
v 129.59284199498128 132.70314091800458 24.52784855277332
v 131.8149492937505 91.5531356482896 24.823412057578025
v 131.8149492937505 91.5531356482896 22.328642794436746
v 131.81495109933908 132.86018644882023 22.328638657846568
v 131.8149510924744 132.7031408208731 24.5278526893635
v 131.8149492937505 91.5531356482896 22.328642794436746
v 129.59283472891326 91.55313696111412 22.328638657846568
v 129.59284200184598 132.8601865459517 22.32863452125639
v 131.81495109933908 132.86018644882023 22.328638657846568
v 38.698243194311075 97.55863600030874 35.67504903250938
v 40.920356990303084 97.55863590317706 35.675053169099556
v 40.920356990303084 97.55863590317706 38.169822432240835
v 38.698243194311075 97.55863600030874 38.169822432240835
v 38.69823830425459 128.3545679623863 35.67504903250938
v 38.6982382973898 128.19751990305357 37.87426306402631
v 40.92035961098006 128.19751980592156 37.87426306402631
v 40.920359617844845 128.3545678652543 35.67504903250938
v 38.698243194311075 97.55863600030874 35.67504903250938
v 38.698243194311075 97.55863600030874 38.169822432240835
v 38.6982382973898 128.19751990305357 37.87426306402631
v 38.69823830425459 128.3545679623863 35.67504903250938
v 38.698243194311075 97.55863600030874 38.169822432240835
v 40.920356990303084 97.55863590317706 38.169822432240835
v 40.92035961098006 128.19751980592156 37.87426306402631
v 38.6982382973898 128.19751990305357 37.87426306402631
v 40.920356990303084 97.55863590317706 38.169822432240835
v 40.920356990303084 97.55863590317706 35.675053169099556
v 40.920359617844845 128.3545678652543 35.67504903250938
v 40.92035961098006 128.19751980592156 37.87426306402631
v 40.920356990303084 97.55863590317706 35.675053169099556
v 38.698243194311075 97.55863600030874 35.67504903250938
v 38.69823830425459 128.3545679623863 35.67504903250938
v 40.920359617844845 128.3545678652543 35.67504903250938
v 38.08841476921665 134.67112058759784 25.2130250766686
v 38.088414766809 134.61603997798483 -0.47221331029231806
v 38.0884146577598 132.12128516464685 -0.47221331029231806
v 38.0884175622865 132.12128759603235 27.004044526015605
v 64.24318966022317 91.65462929113802 18.626915795533932
v 64.24319245933228 93.15165356523292 18.626915795533932
v 64.24319245933228 93.15165356523292 17.550057957459103
v 64.24318966022317 91.65462925314762 17.550057957459103
v 75.33918654482319 91.65462876812617 18.681982083982803
v 75.44456413656691 91.6546339682048 17.550053820868925
v 75.44455600098753 93.15165543101057 17.550057957459103
v 75.33918661026021 93.15165308021159 18.681982083982803
v 64.24318966022317 91.65462929113802 18.626915795533932
v 64.24318966022317 91.65462925314762 17.550057957459103
v 75.44456413656691 91.6546339682048 17.550053820868925
v 75.33918654482319 91.65462876812617 18.681982083982803
v 64.24318966022317 91.65462925314762 17.550057957459103
v 64.24319245933228 93.15165356523292 17.550057957459103
v 75.44455600098753 93.15165543101057 17.550057957459103
v 75.44456413656691 91.6546339682048 17.550053820868925
v 64.24319245933228 93.15165356523292 18.626915795533932
v 64.24318966022317 91.65462929113802 18.626915795533932
v 75.33918654482319 91.65462876812617 18.681982083982803
v 75.33918661026021 93.15165308021159 18.681982083982803
v 64.24318692655109 91.65462940510933 11.975634536145662
v 64.24319519300437 93.1516535652328 11.975634536145662
v 64.24319519300437 93.1516535652328 10.89878083466101
v 64.24318692655108 91.65462925314773 10.89878083466101
v 75.3391838111511 91.6546287681263 12.03070496118471
v 75.44456140289482 91.65463396820492 10.898772561480655
v 75.44455326731544 93.15165543101068 10.89878083466101
v 75.33918387658812 93.15165308021173 12.03070496118471
v 64.24318692655109 91.65462940510933 11.975634536145662
v 64.24318692655108 91.65462925314773 10.89878083466101
v 75.44456140289482 91.65463396820492 10.898772561480655
v 75.3391838111511 91.6546287681263 12.03070496118471
v 64.24318692655108 91.65462925314773 10.89878083466101
v 64.24319519300437 93.1516535652328 10.89878083466101
v 75.44455326731544 93.15165543101068 10.89878083466101
v 75.44456140289482 91.65463396820492 10.898772561480655
v 64.24319519300437 93.1516535652328 11.975634536145662
v 64.24318692655109 91.65462940510933 11.975634536145662
v 75.3391838111511 91.6546287681263 12.03070496118471
v 75.33918387658812 93.15165308021173 12.03070496118471
v 63.515477934998096 91.34063040272065 10.459235035532402
v 63.51547800043508 92.83765420193566 10.45923917212258
v 64.59233157765775 92.8376541548649 10.45923917212258
v 64.59233151222074 91.34063008971707 10.459235035532402
v 63.460405377063466 91.34063070905114 19.030249884244768
v 64.59233697956519 91.34063597822885 19.13563365561822
v 64.59232884398578 92.83765719409702 19.135621245847688
v 63.460405442500466 92.83765466022776 19.030249884244768
v 63.515477934998096 91.34063040272065 10.459235035532402
v 64.59233151222074 91.34063008971707 10.459235035532402
v 64.59233697956519 91.34063597822885 19.13563365561822
v 63.460405377063466 91.34063070905114 19.030249884244768
v 64.59233151222074 91.34063008971707 10.459235035532402
v 64.59233157765775 92.8376541548649 10.45923917212258
v 64.59232884398578 92.83765719409702 19.135621245847688
v 64.59233697956519 91.34063597822885 19.13563365561822
v 63.51547800043508 92.83765420193566 10.45923917212258
v 63.515477934998096 91.34063040272065 10.459235035532402
v 63.460405377063466 91.34063070905114 19.030249884244768
v 63.460405442500466 92.83765466022776 19.030249884244768
v 75.19063878970165 91.34062989238313 10.459235035532402
v 75.19063885513864 92.83765369159816 10.45923917212258
v 76.2674951660334 92.83765364452726 10.45923917212258
v 76.26749510059639 91.34062957937944 10.459235035532402
v 75.13557716645539 91.34063019871314 19.03024574765459
v 76.26750876895711 91.34063546789088 19.135629519028043
v 76.26750063337771 92.83765653179745 19.13561297266733
v 75.1355772318924 92.83765414988977 19.03024574765459
v 75.19063878970165 91.34062989238313 10.459235035532402
v 76.26749510059639 91.34062957937944 10.459235035532402
v 76.26750876895711 91.34063546789088 19.135629519028043
v 75.13557716645539 91.34063019871314 19.03024574765459
v 76.26749510059639 91.34062957937944 10.459235035532402
v 76.2674951660334 92.83765364452726 10.45923917212258
v 76.26750063337771 92.83765653179745 19.13561297266733
v 76.26750876895711 91.34063546789088 19.135629519028043
v 75.19063885513864 92.83765369159816 10.45923917212258
v 75.19063878970165 91.34062989238313 10.459235035532402
v 75.13557716645539 91.34063019871314 19.03024574765459
v 75.1355772318924 92.83765414988977 19.03024574765459
v 109.28707470657471 91.65462734120241 18.626911658943754
v 109.28707477201172 93.15165152032144 18.626911658943754
v 109.28707477201172 93.15165152032144 17.550053820868925
v 109.2870747065747 91.65462726522162 17.550053820868925
v 120.38306612383055 91.65462678020043 18.681977947392625
v 120.48844371557426 91.65463201826944 17.550049684278747
v 120.48843831366698 93.1516533860991 17.550053820868925
v 120.38306618926757 93.15165103530025 18.681977947392625
v 109.28707470657471 91.65462734120241 18.626911658943754
v 109.2870747065747 91.65462726522162 17.550053820868925
v 120.48844371557426 91.65463201826944 17.550049684278747
v 120.38306612383055 91.65462678020043 18.681977947392625
v 109.2870747065747 91.65462726522162 17.550053820868925
v 109.28707477201172 93.15165152032144 17.550053820868925
v 120.48843831366698 93.1516533860991 17.550053820868925
v 120.48844371557426 91.65463201826944 17.550049684278747
v 109.28707477201172 93.15165152032144 18.626911658943754
v 109.28707470657471 91.65462734120241 18.626911658943754
v 120.38306612383055 91.65462678020043 18.681977947392625
v 120.38306618926757 93.15165103530025 18.681977947392625
v 109.28707470657471 91.65462745517361 11.975634536145662
v 109.2870802393559 93.15165152032121 11.975634536145662
v 109.2870802393559 93.15165152032121 10.89878083466101
v 109.2870747065747 91.65462726522162 10.89878083466101
v 120.38306612383055 91.65462678020043 12.03070496118471
v 120.48844371557426 91.65463201826944 10.898772561480655
v 120.4884328463228 93.15165338609933 10.89878083466101
v 120.38306618926757 93.15165103530025 12.03070496118471
v 109.28707470657471 91.65462745517361 11.975634536145662
v 109.2870747065747 91.65462726522162 10.89878083466101
v 120.48844371557426 91.65463201826944 10.898772561480655
v 120.38306612383055 91.65462678020043 12.03070496118471
v 109.2870747065747 91.65462726522162 10.89878083466101
v 109.2870802393559 93.15165152032121 10.89878083466101
v 120.4884328463228 93.15165338609933 10.89878083466101
v 120.48844371557426 91.65463201826944 10.898772561480655
v 109.2870802393559 93.15165152032121 11.975634536145662
v 109.28707470657471 91.65462745517361 11.975634536145662
v 120.38306612383055 91.65462678020043 12.03070496118471
v 120.38306618926757 93.15165103530025 12.03070496118471
v 108.55936024767753 91.34062843378996 10.459235035532402
v 108.55936031311452 92.8376521570242 10.459235035532402
v 109.63621935768137 92.83765210995318 10.459235035532402
v 109.63621929224438 91.34062815877655 10.459235035532402
v 108.50428768974291 91.34062874012045 19.03024574765459
v 109.63621929224463 91.34063404728857 19.13563365561822
v 109.63621389033732 92.83765514918542 19.135621245847688
v 108.50428775517992 92.83765269129708 19.03024574765459
v 108.55936024767753 91.34062843378996 10.459235035532402
v 109.63621929224438 91.34062815877655 10.459235035532402
v 109.63621929224463 91.34063404728857 19.13563365561822
v 108.50428768974291 91.34062874012045 19.03024574765459
v 109.63621929224438 91.34062815877655 10.459235035532402
v 109.63621935768137 92.83765210995318 10.459235035532402
v 109.63621389033732 92.83765514918542 19.135621245847688
v 109.63621929224463 91.34063404728857 19.13563365561822
v 108.55936031311452 92.8376521570242 10.459235035532402
v 108.55936024767753 91.34062843378996 10.459235035532402
v 108.50428768974291 91.34062874012045 19.03024574765459
v 108.50428775517992 92.83765269129708 19.03024574765459
v 120.23452383605319 91.34062792345233 10.459235035532402
v 120.23452390149018 92.83765164668657 10.459235035532402
v 121.31137747871284 92.83765159961581 10.459235035532402
v 121.31137741327585 91.34062764843918 10.459235035532402
v 120.17946221280692 91.34062822978237 19.03024161106441
v 121.31139381530865 91.34063353695048 19.135629519028043
v 121.31138294605715 92.83765448688598 19.13561297266733
v 120.17946227824393 92.83765218095898 19.03024161106441
v 120.23452383605319 91.34062792345233 10.459235035532402
v 121.31137741327585 91.34062764843918 10.459235035532402
v 121.31139381530865 91.34063353695048 19.135629519028043
v 120.17946221280692 91.34062822978237 19.03024161106441
v 121.31137741327585 91.34062764843918 10.459235035532402
v 121.31137747871284 92.83765159961581 10.459235035532402
v 121.31138294605715 92.83765448688598 19.13561297266733
v 121.31139381530865 91.34063353695048 19.135629519028043
v 120.23452390149018 92.83765164668657 10.459235035532402
v 120.23452383605319 91.34062792345233 10.459235035532402
v 120.17946221280692 91.34062822978237 19.03024161106441
v 120.17946227824393 92.83765218095898 19.03024161106441
v 64.24318877463394 133.93383579744784 18.626907522353576
v 64.24318877463394 133.93383579744784 17.550049684278747
v 64.24319417654092 132.43680736340377 17.550049684278747
v 64.24319417654092 132.43680736340377 18.626907522353576
v 75.33919112657814 133.93383531242617 18.681973810802447
v 75.33919106114095 132.43680687838233 18.681973810802447
v 75.44456045186817 132.43680687377648 17.550049684278747
v 75.44456598464913 133.93382558227765 17.55004554768857
v 64.24318877463394 133.93383579744784 18.626907522353576
v 75.33919112657814 133.93383531242617 18.681973810802447
v 75.44456598464913 133.93382558227765 17.55004554768857
v 64.24318877463394 133.93383579744784 17.550049684278747
v 64.24318877463394 133.93383579744784 17.550049684278747
v 75.44456598464913 133.93382558227765 17.55004554768857
v 75.44456045186817 132.43680687377648 17.550049684278747
v 64.24319417654092 132.43680736340377 17.550049684278747
v 64.24319417654092 132.43680736340377 18.626907522353576
v 75.33919106114095 132.43680687838233 18.681973810802447
v 75.33919112657814 133.93383531242617 18.681973810802447
v 64.24318877463394 133.93383579744784 18.626907522353576
v 64.24318604096185 133.93383579744795 11.975630399555484
v 64.24318604096185 133.93383579744795 10.898776698070833
v 64.24319417654092 132.43680736340377 10.898776698070833
v 64.24319417654092 132.43680736340377 11.975630399555484
v 75.33918019188978 133.93383531242665 12.030700824594533
v 75.33918012645259 132.4368068783828 12.030700824594533
v 75.44454951717981 132.43680687377696 10.898776698070833
v 75.44455778363286 133.93382558227802 10.898768424890477
v 64.24318604096185 133.93383579744795 11.975630399555484
v 75.33918019188978 133.93383531242665 12.030700824594533
v 75.44455778363286 133.93382558227802 10.898768424890477
v 64.24318604096185 133.93383579744795 10.898776698070833
v 64.24318604096185 133.93383579744795 10.898776698070833
v 75.44455778363286 133.93382558227802 10.898768424890477
v 75.44454951717981 132.43680687377696 10.898776698070833
v 64.24319417654092 132.43680736340377 10.898776698070833
v 64.24319417654092 132.43680736340377 11.975630399555484
v 75.33918012645259 132.4368068783828 12.030700824594533
v 75.33918019188978 133.93383531242665 12.030700824594533
v 64.24318604096185 133.93383579744795 11.975630399555484
v 63.51547707685952 134.2478346924982 10.459230898942224
v 64.59233065408218 134.24783464542742 10.459230898942224
v 64.59233058864498 132.75080621138358 10.459230898942224
v 63.51547701142233 132.75080625845436 10.459230898942224
v 63.46040451892467 134.24782983213427 19.03024161106441
v 63.46040445348769 132.75080626086165 19.03024161106441
v 64.5923278549729 132.75080621138372 19.13561710925751
v 64.59233612142594 134.24782491988475 19.135629519028043
v 63.51547707685952 134.2478346924982 10.459230898942224
v 63.46040451892467 134.24782983213427 19.03024161106441
v 64.59233612142594 134.24782491988475 19.135629519028043
v 64.59233065408218 134.24783464542742 10.459230898942224
v 64.59233065408218 134.24783464542742 10.459230898942224
v 64.59233612142594 134.24782491988475 19.135629519028043
v 64.5923278549729 132.75080621138372 19.13561710925751
v 64.59233058864498 132.75080621138358 10.459230898942224
v 63.51547701142233 132.75080625845436 10.459230898942224
v 63.46040445348769 132.75080626086165 19.03024161106441
v 63.46040451892467 134.24782983213427 19.03024161106441
v 63.51547707685952 134.2478346924982 10.459230898942224
v 75.19063793156307 134.24783418216072 10.459230898942224
v 76.26749150878574 134.24783413508993 10.459230898942224
v 76.26749144334855 132.7508057010461 10.459230898942224
v 75.19063786612588 132.75080574811687 10.459230898942224
v 75.13557904198868 134.2478293217962 19.030237474474234
v 75.1355789765517 132.75080575052357 19.030237474474234
v 76.26750237803691 132.75080570104564 19.135608836077154
v 76.26751064448996 134.24782440954664 19.135625382437865
v 75.19063793156307 134.24783418216072 10.459230898942224
v 75.13557904198868 134.2478293217962 19.030237474474234
v 76.26751064448996 134.24782440954664 19.135625382437865
v 76.26749150878574 134.24783413508993 10.459230898942224
v 76.26749150878574 134.24783413508993 10.459230898942224
v 76.26751064448996 134.24782440954664 19.135625382437865
v 76.26750237803691 132.75080570104564 19.135608836077154
v 76.26749144334855 132.7508057010461 10.459230898942224
v 75.19063786612588 132.75080574811687 10.459230898942224
v 75.1355789765517 132.75080575052357 19.030237474474234
v 75.13557904198868 134.2478293217962 19.030237474474234
v 75.19063793156307 134.24783418216072 10.459230898942224
v 109.28707655465756 133.93383382851692 18.6269033857634
v 109.28707655465756 133.93383382851692 17.55004554768857
v 109.28707648922037 132.43680539447308 17.55004554768857
v 109.28707648922037 132.43680539447308 18.6269033857634
v 120.3830679719134 133.93383334349573 18.68196967421227
v 120.38306790647621 132.4368049094519 18.68196967421227
v 120.48844003087552 132.43680490484593 17.55004554768857
v 120.48844556365648 133.9338236133471 17.55004141109839
v 109.28707655465756 133.93383382851692 18.6269033857634
v 120.3830679719134 133.93383334349573 18.68196967421227
v 120.48844556365648 133.9338236133471 17.55004141109839
v 109.28707655465756 133.93383382851692 17.55004554768857
v 109.28707655465756 133.93383382851692 17.55004554768857
v 120.48844556365648 133.9338236133471 17.55004141109839
v 120.48844003087552 132.43680490484593 17.55004554768857
v 109.28707648922037 132.43680539447308 17.55004554768857
v 109.28707648922037 132.43680539447308 18.6269033857634
v 120.38306790647621 132.4368049094519 18.68196967421227
v 120.3830679719134 133.93383334349573 18.68196967421227
v 109.28707655465756 133.93383382851692 18.6269033857634
v 109.28707655465756 133.93383382851692 11.975630399555484
v 109.28707655465756 133.93383382851692 10.898776698070833
v 109.28708195656455 132.43680539447286 10.898776698070833
v 109.28708195656455 132.43680539447286 11.975630399555484
v 120.3830679719134 133.93383334349573 12.030700824594533
v 120.38306790647621 132.4368049094519 12.030700824594533
v 120.48842909618716 132.4368049048464 10.898776698070833
v 120.48844556365648 133.9338236133471 10.898768424890477
v 109.28707655465756 133.93383382851692 11.975630399555484
v 120.3830679719134 133.93383334349573 12.030700824594533
v 120.48844556365648 133.9338236133471 10.898768424890477
v 109.28707655465756 133.93383382851692 10.898776698070833
v 109.28707655465756 133.93383382851692 10.898776698070833
v 120.48844556365648 133.9338236133471 10.898768424890477
v 120.48842909618716 132.4368049048464 10.898776698070833
v 109.28708195656455 132.43680539447286 10.898776698070833
v 109.28708195656455 132.43680539447286 11.975630399555484
v 120.38306790647621 132.4368049094519 12.030700824594533
v 120.3830679719134 133.93383334349573 12.030700824594533
v 109.28707655465756 133.93383382851692 11.975630399555484
v 108.55935665586686 134.24783272356765 10.459230898942224
v 109.63621570043371 134.24783267649664 10.459230898942224
v 109.63621563499652 132.7508042424528 10.459230898942224
v 108.55935659042967 132.7508042895238 10.459230898942224
v 108.50427863058783 134.24782786320395 19.030237474474234
v 108.50427856515086 132.75080429193133 19.030237474474234
v 109.63621016765234 132.75080424245306 19.13561710925751
v 109.6362157004333 134.2478229509542 19.135629519028043
v 108.55935665586686 134.24783272356765 10.459230898942224
v 108.50427863058783 134.24782786320395 19.030237474474234
v 109.6362157004333 134.2478229509542 19.135629519028043
v 109.63621570043371 134.24783267649664 10.459230898942224
v 109.63621570043371 134.24783267649664 10.459230898942224
v 109.6362157004333 134.2478229509542 19.135629519028043
v 109.63621016765234 132.75080424245306 19.13561710925751
v 109.63621563499652 132.7508042424528 10.459230898942224
v 108.55935659042967 132.7508042895238 10.459230898942224
v 108.50427856515086 132.75080429193133 19.030237474474234
v 108.50427863058783 134.24782786320395 19.030237474474234
v 108.55935665586686 134.24783272356765 10.459230898942224
v 120.23452024424252 134.24783221323003 10.459230898942224
v 121.31137382146518 134.24783216615924 10.459230898942224
v 121.31137375602799 132.7508037321154 10.459230898942224
v 120.23452017880533 132.75080377918619 10.459230898942224
v 120.17945862099603 134.2478273528656 19.030233337884056
v 120.17945855555905 132.750803781593 19.030233337884056
v 121.31137922337217 132.75080373211517 19.135608836077154
v 121.3113956908415 134.24782244061586 19.135625382437865
v 120.23452024424252 134.24783221323003 10.459230898942224
v 120.17945862099603 134.2478273528656 19.030233337884056
v 121.3113956908415 134.24782244061586 19.135625382437865
v 121.31137382146518 134.24783216615924 10.459230898942224
v 121.31137382146518 134.24783216615924 10.459230898942224
v 121.3113956908415 134.24782244061586 19.135625382437865
v 121.31137922337217 132.75080373211517 19.135608836077154
v 121.31137375602799 132.7508037321154 10.459230898942224
v 120.23452017880533 132.75080377918619 10.459230898942224
v 120.17945855555905 132.750803781593 19.030233337884056
v 120.17945862099603 134.2478273528656 19.030233337884056
v 120.23452024424252 134.24783221323003 10.459230898942224
f 5 1 2
f 5 2 3
f 3 4 5
f 6 7 8
f 6 8 9
f 14 10 11
f 14 11 12
f 12 13 14
f 15 16 17
f 15 17 18
f 23 19 20
f 23 20 21
f 21 22 23
f 28 24 25
f 28 25 26
f 26 27 28
f 29 30 31
f 29 31 32
f 33 34 35
f 33 35 36
f 37 38 39
f 37 39 40
f 41 42 43
f 41 43 44
f 45 46 47
f 45 47 48
f 49 50 51
f 49 51 52
f 53 54 55
f 53 55 56
f 57 58 59
f 57 59 60
f 61 62 63
f 61 63 64
f 65 66 67
f 65 67 68
f 69 70 71
f 69 71 72
f 73 74 75
f 73 75 76
f 77 78 79
f 77 79 80
f 81 82 83
f 81 83 84
f 85 86 87
f 85 87 88
f 89 90 91
f 89 91 92
f 93 94 95
f 93 95 96
f 97 98 99
f 97 99 100
f 101 102 103
f 101 103 104
f 105 106 107
f 105 107 108
f 109 110 111
f 109 111 112
f 113 114 115
f 113 115 116
f 117 118 119
f 117 119 120
f 121 122 123
f 121 123 124
f 125 126 127
f 125 127 128
f 129 130 131
f 129 131 132
f 133 134 135
f 133 135 136
f 137 138 139
f 137 139 140
f 141 142 143
f 141 143 144
f 145 146 147
f 145 147 148
f 149 150 151
f 149 151 152
f 153 154 155
f 153 155 156
f 157 158 159
f 157 159 160
f 161 162 163
f 161 163 164
f 165 166 167
f 165 167 168
f 169 170 171
f 169 171 172
f 173 174 175
f 173 175 176
f 177 178 179
f 177 179 180
f 181 182 183
f 181 183 184
f 185 186 187
f 185 187 188
f 189 190 191
f 192 193 194
f 195 196 197
f 195 197 198
f 199 200 201
f 199 201 202
f 203 204 205
f 203 205 206
f 207 208 209
f 207 209 210
f 211 212 213
f 211 213 214
f 215 216 217
f 218 219 220
f 221 222 223
f 221 223 224
f 225 226 227
f 225 227 228
f 229 230 231
f 229 231 232
f 233 234 235
f 233 235 236
f 237 238 239
f 237 239 240
f 241 242 243
f 241 243 244
f 245 246 247
f 245 247 248
f 249 250 251
f 249 251 252
f 253 254 255
f 253 255 256
f 257 258 259
f 257 259 260
f 261 262 263
f 261 263 264
f 265 266 267
f 265 267 268
f 269 270 271
f 269 271 272
f 273 274 275
f 273 275 276
f 277 278 279
f 277 279 280
f 281 282 283
f 281 283 284
f 285 286 287
f 285 287 288
f 289 290 291
f 289 291 292
f 293 294 295
f 293 295 296
f 297 298 299
f 297 299 300
f 301 302 303
f 301 303 304
f 305 306 307
f 305 307 308
f 309 310 311
f 309 311 312
f 313 314 315
f 313 315 316
f 317 318 319
f 317 319 320
f 321 322 323
f 321 323 324
f 325 326 327
f 325 327 328
f 329 330 331
f 329 331 332
f 333 334 335
f 333 335 336
f 337 338 339
f 337 339 340
f 341 342 343
f 341 343 344
f 345 346 347
f 345 347 348
f 349 350 351
f 349 351 352
f 353 354 355
f 353 355 356
f 357 358 359
f 357 359 360
f 361 362 363
f 361 363 364
f 365 366 367
f 365 367 368
f 369 370 371
f 369 371 372
f 373 374 375
f 373 375 376
f 377 378 379
f 377 379 380
f 381 382 383
f 381 383 384
f 385 386 387
f 385 387 388
f 389 390 391
f 389 391 392
f 393 394 395
f 393 395 396
f 397 398 399
f 397 399 400
f 401 402 403
f 401 403 404
f 405 406 407
f 405 407 408
f 409 410 411
f 409 411 412
f 413 414 415
f 413 415 416
f 417 418 419
f 417 419 420
f 421 422 423
f 421 423 424
f 425 426 427
f 425 427 428
f 429 430 431
f 429 431 432
f 433 434 435
f 433 435 436
f 437 438 439
f 437 439 440
f 441 442 443
f 441 443 444
f 445 446 447
f 445 447 448
f 449 450 451
f 449 451 452
f 453 454 455
f 453 455 456
f 457 458 459
f 457 459 460
f 461 462 463
f 461 463 464
f 465 466 467
f 465 467 468
f 469 470 471
f 469 471 472
f 473 474 475
f 473 475 476
f 477 478 479
f 477 479 480
f 481 482 483
f 481 483 484
f 485 486 487
f 485 487 488
f 489 490 491
f 489 491 492
f 493 494 495
f 493 495 496
f 497 498 499
f 497 499 500
f 501 502 503
f 501 503 504
f 505 506 507
f 505 507 508
f 509 510 511
f 509 511 512
f 513 514 515
f 513 515 516
f 517 518 519
f 517 519 520
f 521 522 523
f 521 523 524
f 525 526 527
f 525 527 528
f 529 530 531
f 529 531 532
f 533 534 535
f 533 535 536
f 537 538 539
f 537 539 540
f 541 542 543
f 541 543 544
f 545 546 547
f 545 547 548
f 549 550 551
f 549 551 552
f 553 554 555
f 553 555 556
f 557 558 559
f 557 559 560
f 561 562 563
f 561 563 564
f 565 566 567
f 565 567 568
f 569 570 571
f 569 571 572
f 573 574 575
f 573 575 576
f 577 578 579
f 577 579 580
f 581 582 583
f 581 583 584
f 585 586 587
f 585 587 588
f 589 590 591
f 589 591 592
f 593 594 595
f 593 595 596
f 597 598 599
f 597 599 600
f 601 602 603
f 601 603 604
f 605 606 607
f 605 607 608
f 609 610 611
f 609 611 612
f 613 614 615
f 613 615 616
f 617 618 619
f 617 619 620
f 621 622 623
f 621 623 624
f 625 626 627
f 625 627 628
f 629 630 631
f 629 631 632
f 633 634 635
f 633 635 636
f 637 638 639
f 637 639 640
f 641 642 643
f 641 643 644
f 645 646 647
f 645 647 648
f 649 650 651
f 649 651 652
f 653 654 655
f 653 655 656
f 657 658 659
f 657 659 660
f 661 662 663
f 661 663 664
f 665 666 667
f 665 667 668
f 669 670 671
f 669 671 672
f 673 674 675
f 673 675 676
f 677 678 679
f 677 679 680
f 681 682 683
f 681 683 684
f 685 686 687
f 685 687 688
f 689 690 691
f 689 691 692
f 693 694 695
f 693 695 696
f 697 698 699
f 697 699 700
f 701 702 703
f 701 703 704
f 705 706 707
f 705 707 708
f 709 710 711
f 709 711 712
f 713 714 715
f 713 715 716
f 717 718 719
f 717 719 720
f 721 722 723
f 721 723 724
f 725 726 727
f 725 727 728
f 729 730 731
f 729 731 732
f 733 734 735
f 733 735 736
f 737 738 739
f 737 739 740
f 741 742 743
f 741 743 744
f 745 746 747
f 745 747 748
f 749 750 751
f 749 751 752
f 753 754 755
f 753 755 756
f 757 758 759
f 757 759 760
f 761 762 763
f 761 763 764
f 765 766 767
f 765 767 768
f 769 770 771
f 769 771 772
f 773 774 775
f 773 775 776
f 777 778 779
f 777 779 780
f 781 782 783
f 781 783 784
f 785 786 787
f 785 787 788
f 789 790 791
f 789 791 792
f 793 794 795
f 793 795 796
f 797 798 799
f 797 799 800
f 801 802 803
f 801 803 804
f 805 806 807
f 805 807 808
f 809 810 811
f 809 811 812
f 813 814 815
f 813 815 816
f 817 818 819
f 817 819 820
f 821 822 823
f 821 823 824
f 825 826 827
f 825 827 828
f 829 830 831
f 829 831 832
f 833 834 835
f 833 835 836
f 837 838 839
f 837 839 840
f 841 842 843
f 841 843 844
f 845 846 847
f 845 847 848
f 849 850 851
f 849 851 852
f 853 854 855
f 853 855 856
f 857 858 859
f 857 859 860
f 861 862 863
f 861 863 864
f 865 866 867
f 865 867 868
f 869 870 871
f 869 871 872
f 873 874 875
f 873 875 876
f 877 878 879
f 877 879 880
f 881 882 883
f 881 883 884
f 885 886 887
f 885 887 888
f 889 890 891
f 889 891 892
f 893 894 895
f 893 895 896
f 897 898 899
f 897 899 900
f 901 902 903
f 901 903 904
f 905 906 907
f 905 907 908
f 909 910 911
f 909 911 912
f 913 914 915
f 913 915 916
f 917 918 919
f 917 919 920
f 921 922 923
f 921 923 924
f 925 926 927
f 925 927 928
f 929 930 931
f 929 931 932
f 933 934 935
f 933 935 936
f 937 938 939
f 937 939 940
