v -3.958565181679539 177.08312610690678 59.335954633195314
v -1.401647576420566 188.1035700747665 47.94796407082432
v -2.5528217572099856 218.42993391644947 61.47009516592236
v -4.320746125608444 213.83513147357735 79.44473394458224
v 5.328533596058964 203.91527823088325 12.621046934329492
v 8.977753048488866 203.7165679902807 4.2433972914495275
v 8.984589971787976 219.8459641713782 3.863800752538739
v 5.335370519358074 220.04467441198074 12.241450395418703
v 8.977753048488866 203.7165679902807 4.2433972914495275
v 5.6325832291641795 203.51785776873896 -4.260227656222547
v 5.639420152463289 219.64725394983645 -4.639824195133336
v 8.984589971787976 219.8459641713782 3.863800752538739
v 1.8001066962168828 202.9314820801889 -19.579884621088663
v -2.3919275944349905 201.5898245760534 -27.64614034260889
v -2.19822030487399 214.9747485290768 -38.40104158677536
v 1.8452693489143988 218.23500496723585 -22.087380954556558
v -2.3919275944349905 201.5898245760534 -27.64614034260889
v -6.871711381799539 202.93148219661526 -19.736067999619475
v -6.826548729102023 218.2350050836622 -22.24356433308737
v -2.19822030487399 214.9747485290768 -38.40104158677536
v -11.253368715213377 203.51785780166495 -4.564359546920922
v -14.90258681622156 203.71656798711481 3.8132877768121562
v -14.89574989292245 219.8459641682123 3.433691237901367
v -11.246531791914268 219.64725398276244 -4.9439560858317115
v -14.90258681622156 203.71656798711481 3.8132877768121562
v -11.557418289383518 203.91527818677574 12.31691177147069
v -11.550581366084408 220.04467436787323 11.9373152325599
v -14.89574989292245 219.8459641682123 3.433691237901367
v -6.1037390986800455 188.10357007106458 47.863274429150245
v -3.958565181679539 177.08312610690678 59.335954633195314
v -4.320746125608444 213.83513147357735 79.44473394458224
v -5.440250749498491 218.42993391417625 61.41808951576463
v -9.339029130823977 -2.330732354346395 11.496014904685612
v -11.708379443258362 -2.4921772666348545 5.473190277224923
v -9.044274140592197 -2.655515525786285 -0.6427216661365449
v -2.8343046495453104 -2.723149548886454 -3.0841331722975287
v 3.283722791379704 -2.655515531487282 -0.42068205682917537
v 5.7258622197186195 -2.492177260612408 5.787199082287131
v 3.141162110491937 -2.3307323291141984 11.720797003767528
v -3.1225412277633247 -2.854390518321736 12.919223514762937
v -3.1327432982215524 218.991675993746 13.485116036120324
v 3.8582361678679464 218.92402720595612 10.736573247573128
v 6.857505862310683 218.76070858636245 3.851038970016146
v 4.108132529735521 218.59738998358125 -3.138033542057988
v -2.77933734365664 218.52974120027176 -6.136541227670799
v -9.770317464218243 218.59739000346832 -3.3879977962669567
v -12.769586474874853 218.76070858493054 3.4975348733661433
v -10.020213778937757 218.9240271642164 10.486606375635818
v -3.146363668367801 203.32869586135524 14.24133554048985
v 5.328533596058964 203.91527823088325 12.621046934329492
v 2.020119440742998 197.66681425916687 27.7311195306005
v -8.795269264623432 197.66681294157587 27.53632297149986
v 5.328533596058964 203.91527823088325 12.621046934329492
v 5.335370519358074 220.04467441198074 12.241450395418703
v 1.2326084594669275 219.92308023109942 33.19315072060206
v 2.020119440742998 197.66681425916687 27.7311195306005
v 5.335370519358074 220.04467441198074 12.241450395418703
v -3.170575516877357 220.12698287215352 15.585609673538272
v -8.204960848284873 219.92308022366933 33.023170115340754
v 1.2326084594669275 219.92308023109942 33.19315072060206
v -3.170575516877357 220.12698287215352 15.585609673538272
v -11.550581366084408 220.04467436787323 11.9373152325599
v -8.204960848284873 219.92308022366933 33.023170115340754
v -11.550581366084408 220.04467436787323 11.9373152325599
v -11.557418289383518 203.91527818677574 12.31691177147069
v -8.795269264623432 197.66681294157587 27.53632297149986
v -8.204960848284873 219.92308022366933 33.023170115340754
v -11.557418289383518 203.91527818677574 12.31691177147069
v -3.146363668367801 203.32869586135524 14.24133554048985
v -8.795269264623432 197.66681294157587 27.53632297149986
v 5.639420152463289 219.64725394983645 -4.639824195133336
v 5.6325832291641795 203.51785776873896 -4.260227656222547
v 1.8001066962168828 202.9314820801889 -19.579884621088663
v 1.8452693489143988 218.23500496723585 -22.087380954556558
v -6.871711381799539 202.93148219661526 -19.736067999619475
v -2.3919275944349905 201.5898245760534 -27.64614034260889
v 1.8001066962168828 202.9314820801889 -19.579884621088663
v -11.253368715213377 203.51785780166495 -4.564359546920922
v -11.246531791914268 219.64725398276244 -4.9439560858317115
v -6.826548729102023 218.2350050836622 -22.24356433308737
v -6.871711381799539 202.93148219661526 -19.736067999619475
v 1.8452693489143988 218.23500496723585 -22.087380954556558
v -2.19822030487399 214.9747485290768 -38.40104158677536
v -6.826548729102023 218.2350050836622 -22.24356433308737
v -6.826548729102023 218.2350050836622 -22.24356433308737
v -11.246531791914268 219.64725398276244 -4.9439560858317115
v -2.7405854549338446 219.5649454763696 -8.288117322467691
v -6.826548729102023 218.2350050836622 -22.24356433308737
v -2.7405854549338446 219.5649454763696 -8.288117322467691
v 5.639420152463289 219.64725394983645 -4.639824195133336
v 1.8452693489143988 218.23500496723585 -22.087380954556558
v 1.8001066962168828 202.9314820801889 -19.579884621088663
v 5.6325832291641795 203.51785776873896 -4.260227656222547
v -2.747422378232954 203.4355492952721 -7.908520783556902
v -6.871711381799539 202.93148219661526 -19.736067999619475
v -6.871711381799539 202.93148219661526 -19.736067999619475
v -2.747422378232954 203.4355492952721 -7.908520783556902
v -11.253368715213377 203.51785780166495 -4.564359546920922
v -1.401647576420566 188.1035700747665 47.94796407082432
v -3.958565181679539 177.08312610690678 59.335954633195314
v -6.1037390986800455 188.10357007106458 47.863274429150245
v -5.440250749498491 218.42993391417625 61.41808951576463
v -4.320746125608444 213.83513147357735 79.44473394458224
v -2.5528217572099856 218.42993391644947 61.47009516592236
v -1.401647576420566 188.1035700747665 47.94796407082432
v 2.020119440742998 197.66681425916687 27.7311195306005
v 1.2326084594669275 219.92308023109942 33.19315072060206
v -2.5528217572099856 218.42993391644947 61.47009516592236
v -5.440250749498491 218.42993391417625 61.41808951576463
v -8.204960848284873 219.92308022366933 33.023170115340754
v -8.795269264623432 197.66681294157587 27.53632297149986
v -6.1037390986800455 188.10357007106458 47.863274429150245
v 2.020119440742998 197.66681425916687 27.7311195306005
v -1.401647576420566 188.1035700747665 47.94796407082432
v -6.1037390986800455 188.10357007106458 47.863274429150245
v -8.795269264623432 197.66681294157587 27.53632297149986
v -8.204960848284873 219.92308022366933 33.023170115340754
v -5.440250749498491 218.42993391417625 61.41808951576463
v -2.5528217572099856 218.42993391644947 61.47009516592236
v 1.2326084594669275 219.92308023109942 33.19315072060206
v 5.328533596058964 203.91527823088325 12.621046934329492
v -3.146363668367801 203.32869586135524 14.24133554048985
v -3.0892371406717425 202.88434863844782 11.069585185456733
v 3.174466063758511 203.40800684306205 9.871159326695377
v -3.146363668367801 203.32869586135524 14.24133554048985
v -11.557418289383518 203.91527818677574 12.31691177147069
v -9.305724511157031 203.40800680242316 9.646376584971655
v -3.0892371406717425 202.88434863844782 11.069585185456733
v -11.557418289383518 203.91527818677574 12.31691177147069
v -14.90258681622156 203.71656798711481 3.8132877768121562
v -11.675076808134751 203.24652000354808 3.62355307161676
v -9.305724511157031 203.40800680242316 9.646376584971655
v -14.90258681622156 203.71656798711481 3.8132877768121562
v -11.253368715213377 203.51785780166495 -4.564359546920922
v -9.010970830151969 203.08322363098327 -2.49236000943106
v -11.675076808134751 203.24652000354808 3.62355307161676
v -11.253368715213377 203.51785780166495 -4.564359546920922
v -2.747422378232954 203.4355492952721 -7.908520783556902
v -2.8010005786817422 203.01557915068022 -4.933770600704528
v -9.010970830151969 203.08322363098327 -2.49236000943106
v -2.747422378232954 203.4355492952721 -7.908520783556902
v 5.6325832291641795 203.51785776873896 -4.260227656222547
v 3.31702545899359 203.08322360987555 -2.270321066346055
v -2.8010005786817422 203.01557915068022 -4.933770600704528
v 5.6325832291641795 203.51785776873896 -4.260227656222547
v 8.977753048488866 203.7165679902807 4.2433972914495275
v 5.759167476242421 203.24652000571882 3.9375617602320627
v 3.31702545899359 203.08322360987555 -2.270321066346055
v 8.977753048488866 203.7165679902807 4.2433972914495275
v 5.328533596058964 203.91527823088325 12.621046934329492
v 3.174466063758511 203.40800684306205 9.871159326695377
v 5.759167476242421 203.24652000571882 3.9375617602320627
v -3.170575516877357 220.12698287215352 15.585609673538272
v 5.335370519358074 220.04467441198074 12.241450395418703
v 3.8589514975742634 220.61160445796315 10.696857037690629
v -3.1320279685152355 220.67925324575302 13.445399826237825
v 5.335370519358074 220.04467441198074 12.241450395418703
v 8.984589971787976 219.8459641713782 3.863800752538739
v 6.858221192017 220.4482858383695 3.811322760133647
v 3.8589514975742634 220.61160445796315 10.696857037690629
v 8.984589971787976 219.8459641713782 3.863800752538739
v 5.639420152463289 219.64725394983645 -4.639824195133336
v 4.108847859441838 220.28496723558828 -3.177749751940487
v 6.858221192017 220.4482858383695 3.811322760133647
v 5.639420152463289 219.64725394983645 -4.639824195133336
v -2.7405854549338446 219.5649454763696 -8.288117322467691
v -2.778622013950323 220.2173184522788 -6.176257437553298
v 4.108847859441838 220.28496723558828 -3.177749751940487
v -2.7405854549338446 219.5649454763696 -8.288117322467691
v -11.246531791914268 219.64725398276244 -4.9439560858317115
v -9.769602789125285 220.28496725547535 -3.427714017939735
v -2.778622013950323 220.2173184522788 -6.176257437553298
v -11.246531791914268 219.64725398276244 -4.9439560858317115
v -14.89574989292245 219.8459641682123 3.433691237901367
v -12.768871799781895 220.44828583693757 3.457818651693365
v -9.769602789125285 220.28496725547535 -3.427714017939735
v -14.89574989292245 219.8459641682123 3.433691237901367
v -11.550581366084408 220.04467436787323 11.9373152325599
v -10.0194991038448 220.61160441622343 10.44689015396304
v -12.768871799781895 220.44828583693757 3.457818651693365
v -11.550581366084408 220.04467436787323 11.9373152325599
v -3.170575516877357 220.12698287215352 15.585609673538272
v -3.1320279685152355 220.67925324575302 13.445399826237825
v -10.0194991038448 220.61160441622343 10.44689015396304
v -3.1320279685152355 220.67925324575302 13.445399826237825
v 3.8589514975742634 220.61160445796315 10.696857037690629
v 3.8582361678679464 218.92402720595612 10.736573247573128
v -3.1327432982215524 218.991675993746 13.485116036120324
v 3.8589514975742634 220.61160445796315 10.696857037690629
v 6.858221192017 220.4482858383695 3.811322760133647
v 6.857505862310683 218.76070858636245 3.851038970016146
v 3.8582361678679464 218.92402720595612 10.736573247573128
v 6.858221192017 220.4482858383695 3.811322760133647
v 4.108847859441838 220.28496723558828 -3.177749751940487
v 4.108132529735521 218.59738998358125 -3.138033542057988
v 6.857505862310683 218.76070858636245 3.851038970016146
v 4.108847859441838 220.28496723558828 -3.177749751940487
v -2.778622013950323 220.2173184522788 -6.176257437553298
v -2.77933734365664 218.52974120027176 -6.136541227670799
v 4.108132529735521 218.59738998358125 -3.138033542057988
v -2.778622013950323 220.2173184522788 -6.176257437553298
v -9.769602789125285 220.28496725547535 -3.427714017939735
v -9.770317464218243 218.59739000346832 -3.3879977962669567
v -2.77933734365664 218.52974120027176 -6.136541227670799
v -9.769602789125285 220.28496725547535 -3.427714017939735
v -12.768871799781895 220.44828583693757 3.457818651693365
v -12.769586474874853 218.76070858493054 3.4975348733661433
v -9.770317464218243 218.59739000346832 -3.3879977962669567
v -12.768871799781895 220.44828583693757 3.457818651693365
v -10.0194991038448 220.61160441622343 10.44689015396304
v -10.020213778937757 218.9240271642164 10.486606375635818
v -12.769586474874853 218.76070858493054 3.4975348733661433
v -10.0194991038448 220.61160441622343 10.44689015396304
v -3.1320279685152355 220.67925324575302 13.445399826237825
v -3.1327432982215524 218.991675993746 13.485116036120324
v -10.020213778937757 218.9240271642164 10.486606375635818
v 3.174466063758511 203.40800684306205 9.871159326695377
v -3.0892371406717425 202.88434863844782 11.069585185456733
v -3.103904298427028 88.4637714345877 11.884236731867482
v 3.159798014686058 88.98744009640481 10.685809955861073
v -3.0892371406717425 202.88434863844782 11.069585185456733
v -9.305724511157031 203.40800680242316 9.646376584971655
v -9.320391905616123 88.98744005576592 10.46102722592763
v -3.103904298427028 88.4637714345877 11.884236731867482
v -9.305724511157031 203.40800680242316 9.646376584971655
v -11.675076808134751 203.24652000354808 3.62355307161676
v -11.68974356566101 88.82595328000087 4.438204706011142
v -9.320391905616123 88.98744005576592 10.46102722592763
v -11.675076808134751 203.24652000354808 3.62355307161676
v -9.010970830151969 203.08322363098327 -2.49236000943106
v -9.025638248185093 88.66265691513942 -1.6777080596109144
v -11.68974356566101 88.82595328000087 4.438204706011142
v -9.010970830151969 203.08322363098327 -2.49236000943106
v -2.8010005786817422 203.01557915068022 -4.933770600704528
v -2.815667729089139 88.59499145880383 -4.119119462258712
v -9.025638248185093 88.66265691513942 -1.6777080596109144
v -2.8010005786817422 203.01557915068022 -4.933770600704528
v 3.31702545899359 203.08322360987555 -2.270321066346055
v 3.302358040960466 88.6626568940317 -1.4556691165259092
v -2.815667729089139 88.59499145880383 -4.119119462258712
v 3.31702545899359 203.08322360987555 -2.270321066346055
v 5.759167476242421 203.24652000571882 3.9375617602320627
v 5.7444994124362 88.82595327831996 4.752213207437865
v 3.302358040960466 88.6626568940317 -1.4556691165259092
v 5.759167476242421 203.24652000571882 3.9375617602320627
v 3.174466063758511 203.40800684306205 9.871159326695377
v 3.159798014686058 88.98744009640481 10.685809955861073
v 5.7444994124362 88.82595327831996 4.752213207437865
v -3.103904298427028 88.4637714345877 11.884236731867482
v -3.1225412277633247 -2.854390518321736 12.919223514762937
v 3.141162110491937 -2.3307323291141984 11.720797003767528
v 3.159798014686058 88.98744009640481 10.685809955861073
v -9.320391905616123 88.98744005576592 10.46102722592763
v -9.339029130823977 -2.330732354346395 11.496014904685612
v -3.1225412277633247 -2.854390518321736 12.919223514762937
v -3.103904298427028 88.4637714345877 11.884236731867482
v -11.68974356566101 88.82595328000087 4.438204706011142
v -11.708379443258362 -2.4921772666348545 5.473190277224923
v -9.339029130823977 -2.330732354346395 11.496014904685612
v -9.320391905616123 88.98744005576592 10.46102722592763
v -9.025638248185093 88.66265691513942 -1.6777080596109144
v -9.044274140592197 -2.655515525786285 -0.6427216661365449
v -11.708379443258362 -2.4921772666348545 5.473190277224923
v -11.68974356566101 88.82595328000087 4.438204706011142
v -2.815667729089139 88.59499145880383 -4.119119462258712
v -2.8343046495453104 -2.723149548886454 -3.0841331722975287
v -9.044274140592197 -2.655515525786285 -0.6427216661365449
v -9.025638248185093 88.66265691513942 -1.6777080596109144
v 3.302358040960466 88.6626568940317 -1.4556691165259092
v 3.283722791379704 -2.655515531487282 -0.42068205682917537
v -2.8343046495453104 -2.723149548886454 -3.0841331722975287
v -2.815667729089139 88.59499145880383 -4.119119462258712
v 5.7444994124362 88.82595327831996 4.752213207437865
v 5.7258622197186195 -2.492177260612408 5.787199082287131
v 3.283722791379704 -2.655515531487282 -0.42068205682917537
v 3.302358040960466 88.6626568940317 -1.4556691165259092
v 3.159798014686058 88.98744009640481 10.685809955861073
v 3.141162110491937 -2.3307323291141984 11.720797003767528
v 5.7258622197186195 -2.492177260612408 5.787199082287131
v 5.7444994124362 88.82595327831996 4.752213207437865
f 1 2 3
f 1 3 4
f 5 6 7
f 5 7 8
f 9 10 11
f 9 11 12
f 13 14 15
f 13 15 16
f 17 18 19
f 17 19 20
f 21 22 23
f 21 23 24
f 25 26 27
f 25 27 28
f 29 30 31
f 29 31 32
f 40 33 34
f 40 34 35
f 40 35 36
f 40 36 37
f 40 37 38
f 38 39 40
f 48 41 42
f 48 42 43
f 48 43 44
f 48 44 45
f 48 45 46
f 46 47 48
f 49 50 51
f 49 51 52
f 53 54 55
f 53 55 56
f 57 58 59
f 57 59 60
f 61 62 63
f 64 65 66
f 64 66 67
f 68 69 70
f 71 72 73
f 71 73 74
f 75 76 77
f 78 79 80
f 78 80 81
f 82 83 84
f 85 86 87
f 88 89 90
f 88 90 91
f 92 93 94
f 92 94 95
f 96 97 98
f 99 100 101
f 102 103 104
f 105 106 107
f 105 107 108
f 109 110 111
f 109 111 112
f 113 114 115
f 113 115 116
f 117 118 119
f 117 119 120
f 121 122 123
f 121 123 124
f 125 126 127
f 125 127 128
f 129 130 131
f 129 131 132
f 133 134 135
f 133 135 136
f 137 138 139
f 137 139 140
f 141 142 143
f 141 143 144
f 145 146 147
f 145 147 148
f 149 150 151
f 149 151 152
f 153 154 155
f 153 155 156
f 157 158 159
f 157 159 160
f 161 162 163
f 161 163 164
f 165 166 167
f 165 167 168
f 169 170 171
f 169 171 172
f 173 174 175
f 173 175 176
f 177 178 179
f 177 179 180
f 181 182 183
f 181 183 184
f 185 186 187
f 185 187 188
f 189 190 191
f 189 191 192
f 193 194 195
f 193 195 196
f 197 198 199
f 197 199 200
f 201 202 203
f 201 203 204
f 205 206 207
f 205 207 208
f 209 210 211
f 209 211 212
f 213 214 215
f 213 215 216
f 217 218 219
f 217 219 220
f 221 222 223
f 221 223 224
f 225 226 227
f 225 227 228
f 229 230 231
f 229 231 232
f 233 234 235
f 233 235 236
f 237 238 239
f 237 239 240
f 241 242 243
f 241 243 244
f 245 246 247
f 245 247 248
f 249 250 251
f 249 251 252
f 253 254 255
f 253 255 256
f 257 258 259
f 257 259 260
f 261 262 263
f 261 263 264
f 265 266 267
f 265 267 268
f 269 270 271
f 269 271 272
f 273 274 275
f 273 275 276
f 277 278 279
f 277 279 280
