v 5.494239807128906 13.33899065567116 -1.1914893319631018e-06
v 2.9384536743164062 13.33899189675489 58.87741351187997
v -63.909217834472656 13.33899189675489 58.87741351187997
v -63.909217834472656 13.33899189675489 58.87741351187997
v -63.909217834472656 13.33899065567116 -1.1914893319631018e-06
v 5.494239807128906 13.33899065567116 -1.1914893319631018e-06
v 5.494239807128906 13.33899065567116 -1.1914893319631018e-06
v 5.494239807128906 14.523447768336922 58.87741356365419
v 5.494239807128906 13.33899189675489 58.87741351187997
v -63.909217834472656 31.96478411270241 -3.77330042014226e-07
v -63.909217834472656 31.964784400111824 58.87741432603922
v 5.494239807128906 31.964784400111824 58.87741432603922
v 5.494239807128906 31.964784400111824 58.87741432603922
v 5.494239807128906 31.96478411270241 -3.77330042014226e-07
v -63.909217834472656 31.96478411270241 -3.77330042014226e-07
v -63.909217834472656 13.33899065567116 -1.1914893319631018e-06
v -63.909217834472656 14.523447768336922 58.87741356365419
v -63.909217834472656 31.964784400111824 58.87741432603922
v -63.909217834472656 31.964784400111824 58.87741432603922
v -63.909217834472656 31.96478411270241 -3.77330042014226e-07
v -63.909217834472656 13.33899065567116 -1.1914893319631018e-06
v 5.494239807128906 13.33899065567116 -1.1914893319631018e-06
v 5.494239807128906 13.33899189675489 58.87741351187997
v 2.9384536743164062 13.33899189675489 58.87741351187997
v 5.494239807128906 31.964784400111824 58.87741432603922
v -63.909217834472656 31.964784400111824 58.87741432603922
v -63.909217834472656 14.523447768336922 58.87741356365419
v -63.909217834472656 14.523447768336922 58.87741356365419
v 5.494239807128906 14.523447768336922 58.87741356365419
v 5.494239807128906 31.964784400111824 58.87741432603922
v 5.494239807128906 31.96478411270241 -3.77330042014226e-07
v 5.494239807128906 31.964784400111824 58.87741432603922
v 5.494239807128906 14.523447768336922 58.87741356365419
v 5.494239807128906 14.523447768336922 58.87741356365419
v 5.494239807128906 13.33899065567116 -1.1914893319631018e-06
v 5.494239807128906 31.96478411270241 -3.77330042014226e-07
v -63.909217834472656 13.33899065567116 -1.1914893319631018e-06
v -63.909217834472656 13.33899189675489 58.87741351187997
v -63.909217834472656 14.523447768336922 58.87741356365419
v -63.909217834472656 11.926380785665948 61.24289578045505
v 5.494239807128906 11.926380785665948 61.24289578045505
v 5.494239807128906 11.926380695823354 63.2982546671738
v 5.494239807128906 11.926380695823354 63.2982546671738
v -63.909217834472656 11.926380695823354 63.2982546671738
v -63.909217834472656 11.926380785665948 61.24289578045505
v 5.494239807128906 13.33899189675489 58.87741351187997
v 5.494239807128906 14.523447768336922 58.87741356365419
v 5.494239807128906 14.523447575095815 63.2982547806952
v 5.494239807128906 14.523447768336922 58.87741356365419
v -63.909217834472656 14.523447768336922 58.87741356365419
v -63.909217834472656 14.523447575095815 63.2982547806952
v -63.909217834472656 14.523447575095815 63.2982547806952
v 5.494239807128906 14.523447575095815 63.2982547806952
v 5.494239807128906 14.523447768336922 58.87741356365419
v -63.909217834472656 14.523447768336922 58.87741356365419
v -63.909217834472656 13.33899189675489 58.87741351187997
v -63.909217834472656 14.523447575095815 63.2982547806952
v -63.909217834472656 13.33899189675489 58.87741351187997
v 2.9384536743164062 13.33899189675489 58.87741351187997
v 5.494239807128906 11.926380785665948 61.24289578045505
v 5.494239807128906 11.926380785665948 61.24289578045505
v -63.909217834472656 11.926380785665948 61.24289578045505
v -63.909217834472656 13.33899189675489 58.87741351187997
v 2.9384536743164062 13.33899189675489 58.87741351187997
v 5.494239807128906 13.33899189675489 58.87741351187997
v 5.494239807128906 11.926380785665948 61.24289578045505
v 5.494239807128906 13.33899189675489 58.87741351187997
v 5.494239807128906 14.523447575095815 63.2982547806952
v 5.494239807128906 11.926380695823354 63.2982546671738
v 5.494239807128906 11.926380695823354 63.2982546671738
v 5.494239807128906 11.926380785665948 61.24289578045505
v 5.494239807128906 13.33899189675489 58.87741351187997
v 5.494239807128906 14.523447575095815 63.2982547806952
v -63.909217834472656 14.523447575095815 63.2982547806952
v -63.909217834472656 11.926380695823354 63.2982546671738
v -63.909217834472656 11.926380695823354 63.2982546671738
v 5.494239807128906 11.926380695823354 63.2982546671738
v 5.494239807128906 14.523447575095815 63.2982547806952
v -63.909217834472656 14.523447575095815 63.2982547806952
v -63.909217834472656 13.33899189675489 58.87741351187997
v -63.909217834472656 11.926380785665948 61.24289578045505
v -63.909217834472656 11.926380785665948 61.24289578045505
v -63.909217834472656 11.926380695823354 63.2982546671738
v -63.909217834472656 14.523447575095815 63.2982547806952
v -0.41938018798828125 13.908526005448017 63.29421880410909
v -0.41938018798828125 13.908525781037632 68.4281299369216
v 4.708293914794922 13.908525781037632 68.4281299369216
v 4.708293914794922 13.908525781037632 68.4281299369216
v 4.708293914794922 13.908526005447847 63.29422261880636
v -0.41938018798828125 13.908526005448017 63.29421880410909
v -0.41938018798828125 12.172117771805269 63.294222542905544
v 4.708293914794922 12.172117771805269 63.294222542905544
v 4.708293914794922 12.172117641651404 66.27179593768093
v 4.708293914794922 12.172117641651404 66.27179593768093
v -0.41938018798828125 12.172117641651404 66.27179593768093
v -0.41938018798828125 12.172117771805269 63.294222542905544
v 4.708293914794922 13.908526005447847 63.29422261880636
v 4.708293914794922 13.908525781037632 68.4281299369216
v 4.708293914794922 12.172117641651404 66.27179593768093
v 4.708293914794922 12.172117641651404 66.27179593768093
v 4.708293914794922 12.172117771805269 63.294222542905544
v 4.708293914794922 13.908526005447847 63.29422261880636
v 4.708293914794922 13.908525781037632 68.4281299369216
v -0.41938018798828125 13.908525781037632 68.4281299369216
v -0.41938018798828125 12.172117641651404 66.27179593768093
v -0.41938018798828125 12.172117641651404 66.27179593768093
v 4.708293914794922 12.172117641651404 66.27179593768093
v 4.708293914794922 13.908525781037632 68.4281299369216
v -0.41938018798828125 13.908525781037632 68.4281299369216
v -0.41938018798828125 13.908526005448017 63.29421880410909
v -0.41938018798828125 12.172117771805269 63.294222542905544
v -0.41938018798828125 12.172117771805269 63.294222542905544
v -0.41938018798828125 12.172117641651404 66.27179593768093
v -0.41938018798828125 13.908525781037632 68.4281299369216
v -13.0218505859375 13.908526005448017 63.29421880410909
v -13.0218505859375 13.908525781037632 68.4281299369216
v -7.894174575805664 13.908525781037632 68.4281299369216
v -7.894174575805664 13.908525781037632 68.4281299369216
v -7.894174575805664 13.908526005447847 63.29422261880636
v -13.0218505859375 13.908526005448017 63.29421880410909
v -13.0218505859375 12.172117771805269 63.294222542905544
v -7.894174575805664 12.172117771805269 63.294222542905544
v -7.894174575805664 12.172117641651404 66.27179593768093
v -7.894174575805664 12.172117641651404 66.27179593768093
v -13.0218505859375 12.172117641651404 66.27179593768093
v -13.0218505859375 12.172117771805269 63.294222542905544
v -7.894174575805664 13.908526005447847 63.29422261880636
v -7.894174575805664 13.908525781037632 68.4281299369216
v -7.894174575805664 12.172117641651404 66.27179593768093
v -7.894174575805664 12.172117641651404 66.27179593768093
v -7.894174575805664 12.172117771805269 63.294222542905544
v -7.894174575805664 13.908526005447847 63.29422261880636
v -7.894174575805664 13.908525781037632 68.4281299369216
v -13.0218505859375 13.908525781037632 68.4281299369216
v -13.0218505859375 12.172117641651404 66.27179593768093
v -13.0218505859375 12.172117641651404 66.27179593768093
v -7.894174575805664 12.172117641651404 66.27179593768093
v -7.894174575805664 13.908525781037632 68.4281299369216
v -13.0218505859375 13.908525781037632 68.4281299369216
v -13.0218505859375 13.908526005448017 63.29421880410909
v -13.0218505859375 12.172117771805269 63.294222542905544
v -13.0218505859375 12.172117771805269 63.294222542905544
v -13.0218505859375 12.172117641651404 66.27179593768093
v -13.0218505859375 13.908525781037632 68.4281299369216
v -25.624319076538086 13.908526005448017 63.29421880410909
v -25.624319076538086 13.908525781037632 68.4281299369216
v -20.496644973754883 13.908525781037632 68.4281299369216
v -20.496644973754883 13.908525781037632 68.4281299369216
v -20.496644973754883 13.908526005447847 63.29422261880636
v -25.624319076538086 13.908526005448017 63.29421880410909
v -25.624319076538086 12.172117771805269 63.294222542905544
v -20.496644973754883 12.172117771805269 63.294222542905544
v -20.496644973754883 12.172117641651404 66.27179593768093
v -20.496644973754883 12.172117641651404 66.27179593768093
v -25.624319076538086 12.172117641651404 66.27179593768093
v -25.624319076538086 12.172117771805269 63.294222542905544
v -20.496644973754883 13.908526005447847 63.29422261880636
v -20.496644973754883 13.908525781037632 68.4281299369216
v -20.496644973754883 12.172117641651404 66.27179593768093
v -20.496644973754883 12.172117641651404 66.27179593768093
v -20.496644973754883 12.172117771805269 63.294222542905544
v -20.496644973754883 13.908526005447847 63.29422261880636
v -20.496644973754883 13.908525781037632 68.4281299369216
v -25.624319076538086 13.908525781037632 68.4281299369216
v -25.624319076538086 12.172117641651404 66.27179593768093
v -25.624319076538086 12.172117641651404 66.27179593768093
v -20.496644973754883 12.172117641651404 66.27179593768093
v -20.496644973754883 13.908525781037632 68.4281299369216
v -25.624319076538086 13.908525781037632 68.4281299369216
v -25.624319076538086 13.908526005448017 63.29421880410909
v -25.624319076538086 12.172117771805269 63.294222542905544
v -25.624319076538086 12.172117771805269 63.294222542905544
v -25.624319076538086 12.172117641651404 66.27179593768093
v -25.624319076538086 13.908525781037632 68.4281299369216
v -38.22678756713867 13.908526005448017 63.29421880410909
v -38.22678756713867 13.908525781037632 68.4281299369216
v -33.09911346435547 13.908525781037632 68.4281299369216
v -33.09911346435547 13.908525781037632 68.4281299369216
v -33.09911346435547 13.908526005447847 63.29422261880636
v -38.22678756713867 13.908526005448017 63.29421880410909
v -38.22678756713867 12.172117771805269 63.294222542905544
v -33.09911346435547 12.172117771805269 63.294222542905544
v -33.09911346435547 12.172117641651404 66.27179593768093
v -33.09911346435547 12.172117641651404 66.27179593768093
v -38.22678756713867 12.172117641651404 66.27179593768093
v -38.22678756713867 12.172117771805269 63.294222542905544
v -33.09911346435547 13.908526005447847 63.29422261880636
v -33.09911346435547 13.908525781037632 68.4281299369216
v -33.09911346435547 12.172117641651404 66.27179593768093
v -33.09911346435547 12.172117641651404 66.27179593768093
v -33.09911346435547 12.172117771805269 63.294222542905544
v -33.09911346435547 13.908526005447847 63.29422261880636
v -33.09911346435547 13.908525781037632 68.4281299369216
v -38.22678756713867 13.908525781037632 68.4281299369216
v -38.22678756713867 12.172117641651404 66.27179593768093
v -38.22678756713867 12.172117641651404 66.27179593768093
v -33.09911346435547 12.172117641651404 66.27179593768093
v -33.09911346435547 13.908525781037632 68.4281299369216
v -38.22678756713867 13.908525781037632 68.4281299369216
v -38.22678756713867 13.908526005448017 63.29421880410909
v -38.22678756713867 12.172117771805269 63.294222542905544
v -38.22678756713867 12.172117771805269 63.294222542905544
v -38.22678756713867 12.172117641651404 66.27179593768093
v -38.22678756713867 13.908525781037632 68.4281299369216
v -50.82925796508789 13.908526005448017 63.29421880410909
v -50.82925796508789 13.908525781037632 68.4281299369216
v -45.70158386230469 13.908525781037632 68.4281299369216
v -45.70158386230469 13.908525781037632 68.4281299369216
v -45.70158386230469 13.908526005447847 63.29422261880636
v -50.82925796508789 13.908526005448017 63.29421880410909
v -50.82925796508789 12.172117771805269 63.294222542905544
v -45.70158386230469 12.172117771805269 63.294222542905544
v -45.70158386230469 12.172117641651404 66.27179593768093
v -45.70158386230469 12.172117641651404 66.27179593768093
v -50.82925796508789 12.172117641651404 66.27179593768093
v -50.82925796508789 12.172117771805269 63.294222542905544
v -45.70158386230469 13.908526005447847 63.29422261880636
v -45.70158386230469 13.908525781037632 68.4281299369216
v -45.70158386230469 12.172117641651404 66.27179593768093
v -45.70158386230469 12.172117641651404 66.27179593768093
v -45.70158386230469 12.172117771805269 63.294222542905544
v -45.70158386230469 13.908526005447847 63.29422261880636
v -45.70158386230469 13.908525781037632 68.4281299369216
v -50.82925796508789 13.908525781037632 68.4281299369216
v -50.82925796508789 12.172117641651404 66.27179593768093
v -50.82925796508789 12.172117641651404 66.27179593768093
v -45.70158386230469 12.172117641651404 66.27179593768093
v -45.70158386230469 13.908525781037632 68.4281299369216
v -50.82925796508789 13.908525781037632 68.4281299369216
v -50.82925796508789 13.908526005448017 63.29421880410909
v -50.82925796508789 12.172117771805269 63.294222542905544
v -50.82925796508789 12.172117771805269 63.294222542905544
v -50.82925796508789 12.172117641651404 66.27179593768093
v -50.82925796508789 13.908525781037632 68.4281299369216
v -63.43172836303711 13.908526005448017 63.29421880410909
v -63.43172836303711 13.908525781037632 68.4281299369216
v -58.30405044555664 13.908525781037632 68.4281299369216
v -58.30405044555664 13.908525781037632 68.4281299369216
v -58.30405044555664 13.908526005447847 63.29422261880636
v -63.43172836303711 13.908526005448017 63.29421880410909
v -63.43172836303711 12.172117771805269 63.294222542905544
v -58.30405044555664 12.172117771805269 63.294222542905544
v -58.30405044555664 12.172117641651404 66.27179593768093
v -58.30405044555664 12.172117641651404 66.27179593768093
v -63.43172836303711 12.172117641651404 66.27179593768093
v -63.43172836303711 12.172117771805269 63.294222542905544
v -58.30405044555664 13.908526005447847 63.29422261880636
v -58.30405044555664 13.908525781037632 68.4281299369216
v -58.30405044555664 12.172117641651404 66.27179593768093
v -58.30405044555664 12.172117641651404 66.27179593768093
v -58.30405044555664 12.172117771805269 63.294222542905544
v -58.30405044555664 13.908526005447847 63.29422261880636
v -58.30405044555664 13.908525781037632 68.4281299369216
v -63.43172836303711 13.908525781037632 68.4281299369216
v -63.43172836303711 12.172117641651404 66.27179593768093
v -63.43172836303711 12.172117641651404 66.27179593768093
v -58.30405044555664 12.172117641651404 66.27179593768093
v -58.30405044555664 13.908525781037632 68.4281299369216
v -63.43172836303711 13.908525781037632 68.4281299369216
v -63.43172836303711 13.908526005448017 63.29421880410909
v -63.43172836303711 12.172117771805269 63.294222542905544
v -63.43172836303711 12.172117771805269 63.294222542905544
v -63.43172836303711 12.172117641651404 66.27179593768093
v -63.43172836303711 13.908525781037632 68.4281299369216
f 1 2 3
f 4 5 6
f 7 8 9
f 10 11 12
f 13 14 15
f 16 17 18
f 19 20 21
f 22 23 24
f 25 26 27
f 28 29 30
f 31 32 33
f 34 35 36
f 37 38 39
f 40 41 42
f 43 44 45
f 46 47 48
f 49 50 51
f 52 53 54
f 55 56 57
f 58 59 60
f 61 62 63
f 64 65 66
f 67 68 69
f 70 71 72
f 73 74 75
f 76 77 78
f 79 80 81
f 82 83 84
f 85 86 87
f 88 89 90
f 91 92 93
f 94 95 96
f 97 98 99
f 100 101 102
f 103 104 105
f 106 107 108
f 109 110 111
f 112 113 114
f 115 116 117
f 118 119 120
f 121 122 123
f 124 125 126
f 127 128 129
f 130 131 132
f 133 134 135
f 136 137 138
f 139 140 141
f 142 143 144
f 145 146 147
f 148 149 150
f 151 152 153
f 154 155 156
f 157 158 159
f 160 161 162
f 163 164 165
f 166 167 168
f 169 170 171
f 172 173 174
f 175 176 177
f 178 179 180
f 181 182 183
f 184 185 186
f 187 188 189
f 190 191 192
f 193 194 195
f 196 197 198
f 199 200 201
f 202 203 204
f 205 206 207
f 208 209 210
f 211 212 213
f 214 215 216
f 217 218 219
f 220 221 222
f 223 224 225
f 226 227 228
f 229 230 231
f 232 233 234
f 235 236 237
f 238 239 240
f 241 242 243
f 244 245 246
f 247 248 249
f 250 251 252
f 253 254 255
f 256 257 258
f 259 260 261
f 262 263 264
