o convex_0
v -46.055623 31.638516 29.882555
v 5.411167 32.574184 61.693626
v 4.005604 32.574184 61.693626
v 5.411167 32.574184 -0.066522
v 5.411167 31.638516 61.693626
v 5.411167 31.638516 -0.066522
v -46.055623 32.574184 29.411011
v -46.055623 31.638516 -0.066522
v -14.710051 31.638516 58.882499
v -46.055623 32.106350 -0.066522
v -14.710051 32.574184 58.882499
v -46.055623 32.574184 29.882555
v -19.390224 32.574184 54.668832
v 4.942646 32.574184 -0.066522
v 4.005604 31.638516 61.693626
v -19.390224 31.638516 54.668832
f 9 13 16 
f 3 2 4 
f 2 3 5 
f 4 2 5 
f 5 1 6 
f 4 5 6 
f 3 4 7 
f 6 1 8 
f 4 6 8 
f 1 7 8 
f 1 5 9 
f 4 8 10 
f 8 7 10 
f 3 7 11 
f 9 3 11 
f 7 1 12 
f 11 7 12 
f 11 12 13 
f 9 11 13 
f 12 1 13 
f 7 4 14 
f 4 10 14 
f 10 7 14 
f 5 3 15 
f 9 5 15 
f 3 9 15 
f 1 9 16 
f 13 1 16 
o convex_1
v -63.366997 31.639386 28.942032
v -61.496026 50.821500 32.685072
v -63.366997 50.821500 32.685072
v -61.496026 50.821500 28.942032
v -61.963815 31.639386 32.685072
v -61.496026 31.639386 28.942032
v -63.366997 50.821500 28.942032
v -63.366997 31.639386 32.685072
v -61.496026 31.639386 29.877792
v -61.496026 49.882673 32.685072
f 21 25 26 
f 19 18 20 
f 18 19 21 
f 20 18 22 
f 17 20 22 
f 21 17 22 
f 17 19 23 
f 19 20 23 
f 20 17 23 
f 19 17 24 
f 17 21 24 
f 21 19 24 
f 22 18 25 
f 21 22 25 
f 18 21 26 
f 25 18 26 
o convex_2
v -14.707669 40.060262 57.478493
v -46.055623 39.124503 29.412706
v -46.055623 39.124503 29.882005
v -14.707669 39.124503 57.478493
v -20.326121 40.060262 56.542688
v -44.647174 40.060262 29.412706
v -45.586140 40.060262 32.689422
v -20.326121 39.592383 56.542688
v -39.504343 39.124503 34.091734
v -42.312034 39.592383 35.963345
v -15.643566 39.124503 57.947793
v -17.984844 40.060262 54.204571
v -18.451258 40.060262 57.947793
v -44.647174 39.124503 29.412706
v -46.055623 40.060262 29.412706
v -17.984844 39.124503 54.204571
v -45.586140 39.592383 32.689422
v -39.504343 40.060262 34.091734
v -19.387155 39.124503 54.671077
v -42.312034 40.060262 35.963345
v -14.707669 40.060262 57.947793
v -18.451258 39.592383 57.947793
v -14.707669 39.124503 57.947793
v -46.055623 40.060262 29.882005
v -17.515361 40.060262 54.671077
v -17.515361 39.124503 54.671077
v -45.119726 39.592383 33.155928
v -45.119726 40.060262 33.155928
f 33 53 54 
f 29 28 30 
f 31 27 32 
f 31 32 33 
f 30 28 35 
f 29 34 36 
f 34 31 36 
f 29 30 37 
f 32 27 38 
f 27 31 39 
f 31 34 39 
f 28 32 40 
f 35 28 40 
f 32 35 40 
f 28 29 41 
f 32 28 41 
f 33 32 41 
f 30 35 42 
f 35 38 42 
f 33 29 43 
f 35 32 44 
f 32 38 44 
f 38 35 44 
f 34 29 45 
f 29 37 45 
f 37 34 45 
f 31 33 46 
f 36 31 46 
f 30 27 47 
f 27 39 47 
f 39 37 47 
f 34 37 48 
f 39 34 48 
f 37 39 48 
f 37 30 49 
f 30 47 49 
f 47 37 49 
f 29 33 50 
f 41 29 50 
f 33 41 50 
f 27 30 51 
f 38 27 51 
f 42 38 51 
f 42 51 52 
f 30 42 52 
f 51 30 52 
f 29 36 53 
f 43 29 53 
f 33 43 53 
f 36 46 53 
f 53 46 54 
f 46 33 54 
o convex_3
v -61.495660 31.638424 -0.066522
v -46.055623 32.106304 28.942032
v -46.055623 31.638424 28.942032
v -46.055623 32.106304 -0.066522
v -61.495660 32.106304 28.942032
v -61.495660 31.638424 28.942032
v -46.055623 31.638424 -0.066522
v -61.495660 32.106304 -0.066522
f 59 58 62 
f 56 57 58 
f 57 56 59 
f 56 58 59 
f 55 57 60 
f 59 55 60 
f 57 59 60 
f 57 55 61 
f 58 57 61 
f 55 58 61 
f 58 55 62 
f 55 59 62 
o convex_4
v -61.495660 31.639386 28.942124
v -46.055623 41.463902 29.877701
v -46.055623 41.463902 29.409912
v -46.055623 31.639386 28.942124
v -46.055623 31.639386 29.877701
v -61.495660 41.463902 29.877701
v -61.495660 31.639386 29.877701
v -61.495660 41.463902 29.409912
v -61.495660 32.107724 28.942124
v -46.055623 32.107724 28.942124
f 66 71 72 
f 65 64 66 
f 63 66 67 
f 66 64 67 
f 67 64 68 
f 64 65 68 
f 63 67 69 
f 67 68 69 
f 68 63 69 
f 63 68 70 
f 68 65 70 
f 66 63 71 
f 63 70 71 
f 71 70 72 
f 65 66 72 
f 70 65 72 
o convex_5
v -62.899300 49.884916 28.942032
v -63.367180 32.574184 -0.066522
v -62.899300 32.574184 -0.066522
v -63.367180 32.574184 28.942032
v -63.367180 49.884916 -0.066522
v -62.899300 49.884916 -0.066522
v -62.899300 32.574184 28.942032
v -63.367180 49.884916 28.942032
f 77 76 80 
f 74 75 76 
f 75 74 77 
f 74 76 77 
f 73 75 78 
f 77 73 78 
f 75 77 78 
f 75 73 79 
f 76 75 79 
f 73 76 79 
f 76 73 80 
f 73 77 80 
o convex_6
v -63.366997 49.885832 -0.066522
v -61.495843 50.821500 28.942032
v -61.495843 50.353666 28.942032
v -61.495843 50.821500 -0.066522
v -63.366997 50.821500 28.942032
v -63.366997 50.821500 -0.066522
v -63.366997 49.885832 28.942032
v -61.495843 50.353666 -0.066522
v -62.898979 49.885832 28.942032
v -62.898979 49.885832 -0.066522
f 89 81 90 
f 82 83 84 
f 83 82 85 
f 82 84 85 
f 84 81 86 
f 81 85 86 
f 85 84 86 
f 85 81 87 
f 83 85 87 
f 84 83 88 
f 81 84 88 
f 87 81 89 
f 83 87 89 
f 88 83 89 
f 88 89 90 
f 81 88 90 
o convex_7
v -37.627602 49.884870 23.320878
v -14.245926 49.416716 -0.066522
v -14.245926 49.884870 -0.066522
v -46.055623 41.464177 29.405882
v -14.710463 40.996892 1.806463
v -44.646213 40.996892 29.877792
v -16.113553 40.996892 1.337484
v -45.581606 49.884870 29.405882
v -13.778230 49.884870 0.871436
v -23.599861 49.884870 8.357515
v -44.646213 49.884870 29.877792
v -39.030692 49.884870 22.857762
v -13.771909 40.996892 -0.066522
v -46.055623 40.996892 29.877792
v -16.119873 49.884870 1.337484
v -14.710463 49.416716 1.809394
v -13.771909 40.996892 0.871436
v -30.144454 40.996892 16.300848
v -46.055623 40.996892 29.405882
v -14.242766 40.996892 -0.066522
v -45.581606 49.884870 29.877792
v -13.778230 49.884870 -0.066522
v -37.627602 40.996892 23.320878
v -30.144454 49.416716 16.300848
v -16.119873 41.464177 1.340415
v -14.713623 49.884870 1.806463
v -14.710463 41.464177 1.809394
v -39.969246 49.884870 23.792789
v -46.055623 41.464177 29.877792
v -13.775069 49.416716 0.871436
v -30.144454 49.884870 16.297917
v -16.119873 49.416716 1.337484
f 110 115 122 
f 95 96 97 
f 91 93 98 
f 93 91 99 
f 98 93 100 
f 96 91 101 
f 91 98 101 
f 100 94 102 
f 98 100 102 
f 92 93 103 
f 95 97 103 
f 97 96 104 
f 96 101 104 
f 93 92 105 
f 100 93 105 
f 94 100 105 
f 95 103 107 
f 96 95 108 
f 97 104 109 
f 104 94 109 
f 94 105 109 
f 92 103 110 
f 103 97 110 
f 98 94 111 
f 101 98 111 
f 104 101 111 
f 93 99 112 
f 103 93 112 
f 91 96 113 
f 108 91 113 
f 96 108 113 
f 91 108 114 
f 108 106 114 
f 97 109 115 
f 110 97 115 
f 99 91 116 
f 106 99 116 
f 107 106 117 
f 95 107 117 
f 108 95 117 
f 106 108 117 
f 94 98 118 
f 102 94 118 
f 98 102 118 
f 94 104 119 
f 111 94 119 
f 104 111 119 
f 99 106 120 
f 106 107 120 
f 107 103 120 
f 112 99 120 
f 103 112 120 
f 91 114 121 
f 114 106 121 
f 116 91 121 
f 106 116 121 
f 105 92 122 
f 109 105 122 
f 92 110 122 
f 115 109 122 
o convex_8
v -45.122886 41.463902 28.942216
v -45.588888 49.885741 29.877792
v -44.653495 49.417494 29.877609
v -61.495660 41.463902 29.877609
v -61.495660 49.885741 29.409958
v -44.184103 49.417494 28.942216
v -44.653495 41.463902 29.877609
v -61.495660 41.463902 29.409958
v -61.495660 49.885741 29.877792
v -44.184103 41.463902 29.409958
v -44.184103 41.463902 28.942216
v -45.122886 49.417494 28.942216
v -45.588888 49.885741 29.409958
v -44.184103 49.417494 29.409958
v -61.495660 49.417494 29.877792
v -45.588888 49.417494 29.877792
f 137 129 138 
f 125 124 129 
f 126 123 129 
f 123 126 130 
f 127 123 130 
f 126 127 130 
f 127 126 131 
f 124 127 131 
f 125 129 132 
f 129 123 132 
f 123 128 133 
f 132 123 133 
f 128 132 133 
f 123 127 134 
f 127 128 134 
f 128 123 134 
f 127 124 135 
f 124 128 135 
f 128 127 135 
f 124 125 136 
f 128 124 136 
f 132 128 136 
f 125 132 136 
f 126 129 137 
f 124 131 137 
f 131 126 137 
f 129 124 138 
f 124 137 138 
o convex_9
v -42.306172 50.821500 30.344756
v -61.495660 50.353666 -0.066522
v -61.495660 49.885832 29.408630
v -10.496750 49.885832 -0.066522
v -10.496750 50.821500 -0.066522
v -61.495660 50.821500 -0.066522
v -45.111711 49.885832 32.685072
v -61.495660 50.821500 32.685072
v -10.496750 49.885832 3.209920
v -10.496750 50.821500 3.209920
v -14.240797 49.885832 -0.066522
v -61.495660 49.885832 32.685072
v -45.111711 50.821500 32.685072
v -42.306172 49.885832 30.344756
f 145 147 152 
f 142 140 143 
f 143 140 144 
f 140 141 144 
f 139 143 144 
f 141 142 145 
f 139 144 146 
f 144 141 146 
f 142 143 147 
f 145 142 147 
f 143 139 148 
f 139 147 148 
f 147 143 148 
f 141 140 149 
f 142 141 149 
f 140 142 149 
f 141 145 150 
f 146 141 150 
f 145 146 150 
f 145 139 151 
f 139 146 151 
f 146 145 151 
f 139 145 152 
f 147 139 152 
o convex_10
v -63.366997 32.574184 -0.066522
v -61.495843 32.106350 28.942032
v -61.495843 31.638516 28.942032
v -61.495843 32.106350 -0.066522
v -63.366997 31.638516 28.942032
v -63.366997 31.638516 -0.066522
v -63.366997 32.574184 28.942032
v -61.495843 31.638516 -0.066522
v -62.898979 32.574184 -0.066522
v -62.898979 32.574184 28.942032
f 154 161 162 
f 154 155 156 
f 155 154 157 
f 155 157 158 
f 153 156 158 
f 157 153 158 
f 153 157 159 
f 157 154 159 
f 156 155 160 
f 155 158 160 
f 158 156 160 
f 154 156 161 
f 156 153 161 
f 153 159 161 
f 161 159 162 
f 159 154 162 
o convex_11
v 3.539647 40.060262 61.693260
v -17.982828 39.592383 57.950587
v -17.982828 40.060262 57.950587
v 3.539647 40.060262 58.418787
v 3.539647 39.124503 58.418787
v -14.704738 39.592383 61.693260
v -15.172435 39.124503 57.950587
v -14.704738 40.060262 61.693260
v 3.539647 39.592383 61.693260
v -14.704738 39.124503 58.886621
v 3.539647 39.124503 58.886621
v -17.982828 39.592383 58.418787
v -14.237041 40.060262 57.950587
v -17.982828 40.060262 58.418787
v -14.237041 39.124503 57.950587
v -15.172435 39.124503 58.418787
f 172 174 178 
f 165 163 166 
f 166 163 167 
f 164 165 169 
f 163 165 170 
f 168 163 170 
f 167 163 171 
f 163 168 171 
f 171 168 172 
f 169 167 172 
f 172 167 173 
f 167 171 173 
f 171 172 173 
f 165 164 174 
f 164 169 174 
f 168 170 174 
f 172 168 174 
f 165 166 175 
f 166 167 175 
f 169 165 175 
f 170 165 176 
f 165 174 176 
f 174 170 176 
f 167 169 177 
f 175 167 177 
f 169 175 177 
f 169 172 178 
f 174 169 178 
o convex_12
v 3.539831 32.574184 58.418787
v 5.410984 40.996022 61.693260
v 5.410984 40.996022 57.950587
v 3.539831 40.996022 61.693260
v 5.410984 32.574184 61.693260
v 3.539831 40.996022 57.950587
v 5.410984 32.574184 57.950587
v 4.007802 32.574184 61.693260
v 3.539831 39.592108 61.693260
v 4.943012 32.574184 57.950587
v 3.539831 32.574184 58.886621
v 3.539831 40.527776 57.950587
f 184 188 190 
f 180 181 182 
f 181 180 183 
f 180 182 183 
f 182 181 184 
f 179 182 184 
f 183 179 185 
f 181 183 185 
f 184 181 185 
f 179 183 186 
f 183 182 186 
f 182 179 187 
f 186 182 187 
f 185 179 188 
f 184 185 188 
f 179 186 189 
f 187 179 189 
f 186 187 189 
f 179 184 190 
f 188 179 190 
o convex_13
v -15.175549 32.574184 57.950678
v 3.539647 39.123861 58.886347
v 3.539647 32.574184 58.886347
v -14.706570 39.123861 58.886347
v -14.239423 39.123861 57.950678
v 3.539647 32.574184 58.418512
v -14.706570 32.574184 58.886347
v 3.539647 39.123861 58.418512
v -15.175549 39.123861 58.418512
v -14.239423 32.574184 57.950678
v -15.175549 39.123861 57.950678
v -15.175549 32.574184 58.418512
f 197 199 202 
f 193 192 194 
f 194 192 195 
f 193 191 196 
f 192 193 196 
f 191 193 197 
f 193 194 197 
f 195 192 198 
f 192 196 198 
f 196 195 198 
f 194 195 199 
f 197 194 199 
f 191 195 200 
f 195 196 200 
f 196 191 200 
f 195 191 201 
f 191 199 201 
f 199 195 201 
f 191 197 202 
f 199 191 202 
o convex_14
v -14.707669 39.123861 57.478493
v -46.055623 32.574184 29.412706
v -46.055623 39.123861 29.412706
v -19.387155 39.123861 54.671077
v -15.643566 32.574184 57.947793
v -39.504343 32.574184 34.091734
v -44.647174 39.123861 29.412706
v -17.984844 32.574184 54.204571
v -46.055623 32.574184 29.882005
v -46.055623 39.123861 29.882005
v -17.984844 39.123861 54.204571
v -44.647174 32.574184 29.412706
v -19.387155 32.574184 54.671077
v -15.643566 39.123861 57.947793
v -14.707669 32.574184 57.478493
v -39.504343 39.123861 34.091734
v -14.707669 32.574184 57.947793
v -14.707669 39.123861 57.947793
v -17.515361 39.123861 54.671077
v -17.515361 32.574184 54.671077
f 210 221 222 
f 203 205 206 
f 207 204 208 
f 205 203 209 
f 204 205 209 
f 207 208 210 
f 205 204 211 
f 204 207 211 
f 206 205 212 
f 205 211 212 
f 211 206 212 
f 209 203 213 
f 210 208 213 
f 208 204 214 
f 204 209 214 
f 207 206 215 
f 206 211 215 
f 211 207 215 
f 203 206 216 
f 206 207 216 
f 207 210 217 
f 209 213 218 
f 213 208 218 
f 208 214 218 
f 214 209 218 
f 216 207 219 
f 217 203 219 
f 207 217 219 
f 203 216 220 
f 219 203 220 
f 216 219 220 
f 213 203 221 
f 210 213 221 
f 203 217 221 
f 221 217 222 
f 217 210 222 
o convex_15
v -45.585492 40.060354 32.681591
v 3.539647 40.996022 61.693626
v -14.712381 40.996022 61.693626
v 3.539647 40.996022 -0.066522
v 3.539647 40.060354 61.693626
v -46.051501 40.996022 29.411011
v -14.246371 40.528188 -0.066522
v 3.539647 40.528188 -0.066522
v -14.712381 40.060354 61.693626
v -14.246371 40.996022 -0.066522
v -46.051501 40.060354 29.411011
v -42.304010 40.996022 35.958216
v 3.539647 40.060354 58.417001
v -44.648619 40.060354 29.411011
v -16.115263 40.528188 1.342064
v -45.585492 40.996022 32.681591
v -20.323908 40.060354 56.542917
v -16.115263 40.996022 1.342064
v -42.304010 40.060354 35.958216
v -20.323908 40.996022 56.542917
v -46.051501 40.060354 29.882555
v -46.051501 40.996022 29.882555
v -43.711747 40.060354 34.555675
v -43.711747 40.996022 34.555675
f 245 234 246 
f 225 224 226 
f 224 225 227 
f 226 224 227 
f 225 226 228 
f 226 227 230 
f 229 226 230 
f 223 227 231 
f 227 225 231 
f 228 226 232 
f 226 229 232 
f 227 223 233 
f 229 230 233 
f 225 228 234 
f 230 227 235 
f 227 233 235 
f 235 233 236 
f 233 230 236 
f 230 235 236 
f 232 229 237 
f 229 233 237 
f 233 228 237 
f 234 228 238 
f 223 231 239 
f 231 225 239 
f 228 232 240 
f 237 228 240 
f 232 237 240 
f 223 239 241 
f 239 234 241 
f 225 234 242 
f 239 225 242 
f 234 239 242 
f 233 223 243 
f 228 233 243 
f 223 238 243 
f 243 238 244 
f 238 228 244 
f 228 243 244 
f 238 223 245 
f 223 241 245 
f 241 234 245 
f 234 238 246 
f 238 245 246 
o convex_16
v 3.539831 40.528188 -0.066522
v 5.410984 40.996022 57.950587
v 5.410984 40.060354 57.950587
v 5.410984 40.996022 -0.066522
v 3.539831 40.996022 57.950587
v 5.410984 40.060354 -0.066522
v 3.539831 40.996022 -0.066522
v 3.539831 40.528188 57.950587
v 4.943012 40.060354 57.950587
v 4.943012 40.060354 -0.066522
f 252 255 256 
f 248 249 250 
f 249 248 251 
f 248 250 251 
f 250 249 252 
f 247 250 252 
f 250 247 253 
f 247 251 253 
f 251 250 253 
f 251 247 254 
f 249 251 254 
f 252 249 255 
f 254 247 255 
f 249 254 255 
f 247 252 256 
f 255 247 256 
o convex_17
v 5.411167 40.059530 57.950587
v 4.943287 32.574184 -0.066522
v 5.411167 32.574184 -0.066522
v 4.943287 32.574184 57.950587
v 4.943287 40.059530 -0.066522
v 5.411167 40.059530 -0.066522
v 5.411167 32.574184 57.950587
v 4.943287 40.059530 57.950587
f 261 260 264 
f 258 259 260 
f 259 258 261 
f 258 260 261 
f 257 259 262 
f 261 257 262 
f 259 261 262 
f 259 257 263 
f 260 259 263 
f 257 260 263 
f 260 257 264 
f 257 261 264 
