o convex_0
v -0.000036 0.000029 0.000001
v 0.000036 0.000035 0.000000
v 0.000036 0.000035 -0.000000
v -0.000036 0.000029 -0.000000
v 0.000036 0.000034 0.000001
v -0.000036 0.000029 0.000000
f 1 4 6 
f 3 1 4 
f 1 2 5 
f 4 1 6 
f 3 2 1 
f 2 3 1 
f 1 3 4 
f 2 1 5 
o convex_1
v -0.000036 0.000021 0.000001
v 0.000036 0.000026 0.000000
v 0.000036 0.000026 -0.000000
v -0.000036 0.000021 -0.000000
v 0.000036 0.000026 0.000001
v -0.000036 0.000021 0.000000
f 7 10 12 
f 9 7 10 
f 7 8 11 
f 10 7 12 
f 9 8 7 
f 8 9 7 
f 7 9 10 
f 8 7 11 
o convex_2
v -0.000036 -0.000026 0.000000
v 0.000036 -0.000021 0.000000
v 0.000036 -0.000021 -0.000000
v 0.000036 -0.000021 0.000001
v -0.000036 -0.000026 -0.000000
v -0.000036 -0.000026 0.000001
f 16 13 18 
f 13 14 16 
f 15 13 17 
f 13 16 18 
f 15 14 13 
f 14 15 13 
f 14 13 16 
f 13 15 17 
o convex_3
v -0.000036 -0.000013 0.000001
v 0.000036 -0.000007 0.000000
v 0.000036 -0.000007 -0.000000
v -0.000036 -0.000013 -0.000000
v 0.000036 -0.000007 0.000001
v -0.000036 -0.000013 0.000000
f 19 22 24 
f 21 19 22 
f 19 20 23 
f 22 19 24 
f 21 20 19 
f 20 21 19 
f 19 21 22 
f 20 19 23 
o convex_4
v -0.000036 -0.000006 0.000001
v 0.000036 -0.000002 0.000000
v 0.000036 -0.000002 -0.000000
v -0.000036 -0.000007 -0.000000
v 0.000036 -0.000002 0.000001
v -0.000036 -0.000007 0.000000
f 25 28 30 
f 27 25 28 
f 25 26 29 
f 28 25 30 
f 27 26 25 
f 26 27 25 
f 25 27 28 
f 26 25 29 
o convex_5
v -0.000036 0.000005 0.000000
v 0.000036 0.000012 0.000000
v 0.000036 0.000012 -0.000000
v 0.000036 0.000005 0.000001
v -0.000036 0.000005 -0.000000
v -0.000036 0.000005 0.000001
v 0.000036 0.000012 0.000001
f 34 31 36 
f 33 32 31 
f 31 32 34 
f 33 31 35 
f 31 34 36 
f 34 32 37 
f 32 34 37 
f 32 33 31 
f 32 31 34 
f 31 33 35 
o convex_6
v -0.000036 0.000026 -0.000000
v -0.000000 0.000029 0.000001
v -0.000000 0.000029 0.000000
v -0.000035 0.000027 0.000001
v -0.000035 0.000029 -0.000000
v -0.000036 0.000026 0.000000
v -0.000036 0.000026 0.000001
f 41 43 44 
f 38 39 41 
f 40 38 42 
f 38 41 43 
f 43 41 44 
f 40 39 38 
f 39 40 38 
f 39 38 41 
f 38 40 42 
f 41 38 43 
o convex_7
v -0.000000 0.000026 0.000000
v 0.000036 0.000029 0.000000
v 0.000036 0.000029 -0.000000
v 0.000035 0.000027 0.000001
v -0.000000 0.000027 0.000001
v 0.000035 0.000026 -0.000000
v 0.000035 0.000029 0.000001
v -0.000000 0.000026 0.000001
f 49 45 52 
f 45 46 48 
f 45 48 49 
f 47 45 50 
f 48 46 51 
f 45 49 52 
f 47 46 45 
f 46 47 45 
f 46 45 48 
f 48 45 49 
f 45 47 50 
f 46 48 51 
o convex_8
v -0.000036 -0.000035 0.000001
v 0.000036 -0.000030 0.000000
v 0.000036 -0.000030 -0.000000
v -0.000036 -0.000035 -0.000000
v 0.000036 -0.000030 0.000001
v -0.000036 -0.000035 0.000000
f 53 56 58 
f 55 53 56 
f 53 54 57 
f 56 53 58 
f 55 54 53 
f 54 55 53 
f 53 55 56 
f 54 53 57 
o convex_9
v -0.000036 -0.000020 0.000001
v 0.000036 -0.000016 0.000000
v 0.000036 -0.000016 -0.000000
v -0.000036 -0.000021 -0.000000
v 0.000036 -0.000016 0.000001
v -0.000036 -0.000021 0.000000
f 59 62 64 
f 61 59 62 
f 59 60 63 
f 62 59 64 
f 61 60 59 
f 60 61 59 
f 59 61 62 
f 60 59 63 
o convex_10
v -0.000036 -0.000002 -0.000000
v -0.000001 0.000005 0.000001
v -0.000001 0.000001 0.000001
v -0.000036 0.000005 -0.000000
v -0.000001 -0.000002 0.000001
v -0.000035 -0.000002 0.000001
v -0.000001 0.000005 0.000000
v -0.000035 0.000005 -0.000000
v -0.000036 -0.000002 0.000000
f 71 68 72 
f 67 66 65 
f 65 66 68 
f 67 65 69 
f 69 65 70 
f 68 66 71 
f 68 71 72 
f 70 65 73 
f 65 70 73 
f 66 67 65 
f 66 65 68 
f 65 67 69 
f 65 69 70 
f 66 68 71 
o convex_11
v -0.000001 -0.000002 0.000000
v 0.000036 0.000005 0.000000
v 0.000036 0.000005 -0.000000
v 0.000035 -0.000002 0.000001
v -0.000001 -0.000002 0.000001
v 0.000035 -0.000002 -0.000000
v 0.000036 0.000005 0.000001
v 0.000035 0.000001 0.000001
f 80 77 81 
f 74 75 77 
f 74 77 78 
f 76 74 79 
f 77 75 80 
f 77 80 81 
f 76 75 74 
f 75 76 74 
f 75 74 77 
f 77 74 78 
f 74 76 79 
f 75 77 80 
o convex_12
v -0.000036 0.000016 0.000001
v 0.000036 0.000021 0.000000
v 0.000036 0.000021 -0.000000
v -0.000036 0.000016 -0.000000
v 0.000036 0.000020 0.000001
v -0.000036 0.000016 0.000000
f 82 85 87 
f 84 82 85 
f 82 83 86 
f 85 82 87 
f 84 83 82 
f 83 84 82 
f 82 84 85 
f 83 82 86 
o convex_13
v -0.000036 -0.000030 -0.000000
v -0.000000 -0.000026 0.000001
v -0.000000 -0.000026 0.000000
v -0.000035 -0.000029 0.000001
v -0.000035 -0.000026 -0.000000
v -0.000036 -0.000030 0.000000
v -0.000036 -0.000030 0.000001
f 91 93 94 
f 88 89 91 
f 90 88 92 
f 88 91 93 
f 93 91 94 
f 90 89 88 
f 89 90 88 
f 89 88 91 
f 88 90 92 
f 91 88 93 
o convex_14
v -0.000000 -0.000030 0.000000
v 0.000036 -0.000026 0.000000
v 0.000036 -0.000026 -0.000000
v 0.000035 -0.000029 0.000001
v -0.000000 -0.000029 0.000001
v 0.000035 -0.000030 -0.000000
v 0.000035 -0.000026 0.000001
v -0.000000 -0.000030 0.000001
f 99 95 102 
f 95 96 98 
f 95 98 99 
f 97 95 100 
f 98 96 101 
f 95 99 102 
f 97 96 95 
f 96 97 95 
f 96 95 98 
f 98 95 99 
f 95 97 100 
f 96 98 101 
o convex_15
v -0.000036 -0.000016 -0.000000
v -0.000000 -0.000013 0.000001
v -0.000000 -0.000013 0.000000
v -0.000035 -0.000015 0.000001
v -0.000035 -0.000013 -0.000000
v -0.000036 -0.000016 0.000000
v -0.000036 -0.000016 0.000001
f 106 108 109 
f 103 104 106 
f 105 103 107 
f 103 106 108 
f 108 106 109 
f 105 104 103 
f 104 105 103 
f 104 103 106 
f 103 105 107 
f 106 103 108 
o convex_16
v -0.000000 -0.000016 0.000000
v 0.000036 -0.000013 0.000000
v 0.000036 -0.000013 -0.000000
v 0.000035 -0.000015 0.000001
v -0.000000 -0.000015 0.000001
v 0.000035 -0.000016 -0.000000
v 0.000035 -0.000013 0.000001
v -0.000000 -0.000016 0.000001
f 114 110 117 
f 110 111 113 
f 110 113 114 
f 112 110 115 
f 113 111 116 
f 110 114 117 
f 112 111 110 
f 111 112 110 
f 111 110 113 
f 113 110 114 
f 110 112 115 
f 111 113 116 
o convex_17
v -0.000036 0.000012 -0.000000
v -0.000000 0.000016 0.000001
v -0.000000 0.000016 0.000001
v -0.000036 0.000016 -0.000000
v -0.000000 0.000012 0.000001
v -0.000035 0.000012 0.000001
v -0.000000 0.000016 0.000000
v -0.000035 0.000016 -0.000000
v -0.000036 0.000012 0.000000
f 124 121 125 
f 120 119 118 
f 118 119 121 
f 120 118 122 
f 122 118 123 
f 121 119 124 
f 121 124 125 
f 123 118 126 
f 118 123 126 
f 119 120 118 
f 119 118 121 
f 118 120 122 
f 118 122 123 
f 119 121 124 
o convex_18
v -0.000000 0.000012 0.000000
v 0.000036 0.000016 0.000000
v 0.000036 0.000016 -0.000000
v 0.000035 0.000012 0.000001
v -0.000000 0.000012 0.000001
v 0.000035 0.000012 -0.000000
v 0.000035 0.000016 0.000001
v 0.000036 0.000016 0.000001
f 128 133 134 
f 127 128 130 
f 127 130 131 
f 129 127 132 
f 130 128 133 
f 133 128 134 
f 129 128 127 
f 128 129 127 
f 128 127 130 
f 130 127 131 
f 127 129 132 
f 128 130 133 
