o convex_0
v 94.580961 33.870067 39.600235
v 67.809407 -34.167546 22.862500
v 85.658602 -35.285667 -0.557750
v 68.928619 30.522694 -0.557750
v 111.310943 30.522694 -0.557750
v 113.540413 -34.167546 26.211619
v 67.809407 33.870067 26.211619
v 85.658602 -34.167546 39.600235
v 111.310943 -30.820174 -0.557750
v 113.540413 33.870067 26.211619
v 68.928619 -30.820174 -0.557750
v 96.810431 -34.167546 38.483862
v 85.658602 33.870067 39.600235
v 70.043355 -34.167546 28.444365
v 89.007284 36.106307 38.483862
v 67.809407 -4.048184 9.481746
v 86.773337 -35.285667 31.789554
v 95.695696 -35.285667 -0.557750
v 111.310943 33.870067 28.444365
v 113.540413 33.870067 22.862500
v 113.540413 -34.167546 22.862500
v 70.043355 33.870067 28.444365
v 111.310943 -34.167546 28.444365
v 94.580961 -34.167546 39.600235
v 67.809407 -34.167546 26.211619
v 96.810431 33.870067 38.483862
v 95.695696 -35.285667 30.669250
v 67.809407 33.870067 22.862500
v 82.314396 33.870067 37.367489
v 82.314396 -34.167546 37.367489
v 67.809407 -15.201433 9.481746
v 67.809407 26.064190 16.179985
f 16 28 32 
f 3 4 5 
f 3 5 9 
f 3 2 11 
f 4 3 11 
f 8 1 13 
f 5 4 15 
f 13 1 15 
f 2 7 16 
f 4 11 16 
f 3 9 18 
f 17 3 18 
f 6 10 19 
f 10 15 19 
f 9 5 20 
f 10 6 20 
f 5 15 20 
f 15 10 20 
f 18 9 21 
f 6 18 21 
f 9 20 21 
f 20 6 21 
f 7 14 22 
f 15 7 22 
f 6 19 23 
f 19 12 23 
f 1 8 24 
f 12 1 24 
f 8 17 24 
f 2 3 25 
f 7 2 25 
f 14 7 25 
f 3 17 25 
f 17 14 25 
f 1 12 26 
f 15 1 26 
f 12 19 26 
f 19 15 26 
f 18 6 27 
f 17 18 27 
f 6 23 27 
f 23 12 27 
f 12 24 27 
f 24 17 27 
f 15 4 28 
f 7 15 28 
f 16 7 28 
f 8 13 29 
f 13 15 29 
f 22 14 29 
f 15 22 29 
f 17 8 30 
f 14 17 30 
f 8 29 30 
f 29 14 30 
f 11 2 31 
f 2 16 31 
f 16 11 31 
f 4 16 32 
f 28 4 32 
o convex_1
v 86.773664 -28.593215 39.601327
v 94.580633 -29.708933 50.755231
v 94.580633 -34.169621 50.755231
v 86.773664 -29.708933 50.755231
v 94.580633 -34.169621 39.601327
v 86.773664 -34.169621 39.601327
v 93.464806 -28.593215 39.601327
v 86.773664 -34.169621 50.755231
v 91.233916 -28.593215 44.063543
v 94.580633 -29.708933 39.601327
v 89.004554 -28.593215 44.063543
v 86.773664 -28.593215 40.717154
v 93.464806 -28.593215 40.717154
f 39 41 45 
f 35 34 36 
f 34 35 37 
f 37 35 38 
f 36 33 38 
f 33 37 38 
f 37 33 39 
f 35 36 40 
f 38 35 40 
f 36 38 40 
f 36 34 41 
f 39 33 41 
f 34 37 42 
f 39 34 42 
f 37 39 42 
f 36 41 43 
f 41 33 43 
f 33 36 44 
f 43 33 44 
f 36 43 44 
f 34 39 45 
f 41 34 45 
o convex_2
v 91.233807 36.106307 45.177733
v 86.772900 -28.592669 39.600781
v 86.772900 -28.592669 40.716608
v 93.465898 -28.592669 39.600781
v 86.772900 33.864389 39.600781
v 93.465898 33.864389 39.600781
v 91.233807 -28.592669 44.061360
v 89.004991 33.864389 45.177733
v 89.004991 -28.592669 44.061360
v 93.465898 -28.592669 40.716608
v 86.772900 33.864389 40.716608
v 93.465898 33.864389 40.716608
v 89.004991 36.106307 39.600781
v 89.004991 36.106307 45.177733
v 91.233807 36.106307 39.600781
v 91.233807 33.864389 45.177733
f 52 55 61 
f 48 47 49 
f 47 48 50 
f 49 47 50 
f 49 50 51 
f 48 49 52 
f 52 53 54 
f 48 52 54 
f 53 48 54 
f 49 51 55 
f 52 49 55 
f 50 48 56 
f 48 53 56 
f 51 46 57 
f 46 55 57 
f 55 51 57 
f 51 50 58 
f 50 56 58 
f 58 56 59 
f 53 46 59 
f 56 53 59 
f 46 58 59 
f 46 51 60 
f 58 46 60 
f 51 58 60 
f 46 53 61 
f 53 52 61 
f 55 46 61 
