o convex_0
v 62.760714 -104.358545 22.923874
v 61.031247 -106.664275 -0.709858
v 62.760714 -106.664275 -0.709858
v 61.031247 -106.664275 22.923874
v 61.031247 -104.358545 -0.709858
v 62.760714 -104.358545 -0.709858
v 62.760714 -106.664275 22.923874
v 61.031247 -104.358545 22.923874
f 5 4 8 
f 2 3 4 
f 3 2 5 
f 2 4 5 
f 1 3 6 
f 5 1 6 
f 3 5 6 
f 3 1 7 
f 4 3 7 
f 1 4 7 
f 4 1 8 
f 1 5 8 
o convex_1
v 78.906466 -63.423374 19.466520
v 104.271978 -45.550469 17.161581
v 104.271978 -47.282475 17.737562
v 104.271978 -62.844289 18.889524
v 79.484987 -49.588318 15.431098
v 78.906466 -61.115782 20.620006
v 78.906466 -45.550469 17.161581
v 102.538900 -47.282475 15.431098
v 104.271978 -63.423374 20.620006
v 102.538900 -49.588318 15.431098
v 78.906466 -45.550469 16.008095
v 104.271978 -61.115782 20.620006
v 78.906466 -62.844289 18.889524
v 78.906466 -49.588318 18.313543
v 104.271978 -45.550469 16.008095
v 78.906466 -63.423374 20.620006
v 104.271978 -49.588318 18.313543
v 79.484987 -47.282475 15.431098
v 104.271978 -49.012732 16.008095
v 104.271978 -63.423374 19.466520
v 78.906466 -47.282475 17.737562
v 78.906466 -49.012732 16.008095
v 104.271978 -54.772090 17.161581
v 78.906466 -54.772090 17.161581
v 104.271978 -51.895910 16.584584
v 78.906466 -51.895910 16.584584
f 32 30 34 
f 10 11 12 
f 9 14 15 
f 11 10 15 
f 12 11 17 
f 12 13 18 
f 13 16 18 
f 9 15 19 
f 15 10 19 
f 17 11 20 
f 14 17 20 
f 12 9 21 
f 13 12 21 
f 9 19 21 
f 15 14 22 
f 14 20 22 
f 10 12 23 
f 18 16 23 
f 19 10 23 
f 16 19 23 
f 14 9 24 
f 9 17 24 
f 17 14 24 
f 20 11 25 
f 11 22 25 
f 22 20 25 
f 16 13 26 
f 13 19 26 
f 19 16 26 
f 23 12 27 
f 18 23 27 
f 9 12 28 
f 12 17 28 
f 17 9 28 
f 11 15 29 
f 15 22 29 
f 22 11 29 
f 19 13 30 
f 21 19 30 
f 12 18 31 
f 27 12 31 
f 13 21 32 
f 21 30 32 
f 18 27 33 
f 31 18 33 
f 27 31 33 
f 30 13 34 
f 13 32 34 
o convex_2
v 62.761730 -106.663767 27.538550
v 61.031924 -106.663767 22.926639
v 59.877987 -108.393911 24.080068
v 67.372343 -108.393911 24.080068
v 61.031924 -104.358488 22.926639
v 61.031924 -104.358488 27.538550
v 67.372343 -106.088237 25.808632
v 67.372343 -108.393911 25.808632
v 59.877987 -108.393911 25.808632
v 62.761730 -104.358488 22.926639
v 62.761730 -104.358488 27.538550
v 67.372343 -106.088237 24.080068
v 59.877987 -106.088237 24.080068
v 61.031924 -106.663767 27.538550
v 62.761730 -106.663767 22.926639
v 59.877987 -106.088237 25.808632
f 47 43 50 
f 37 36 38 
f 36 37 39 
f 38 41 42 
f 37 38 42 
f 41 35 42 
f 37 42 43 
f 42 35 43 
f 36 39 44 
f 39 40 44 
f 41 44 45 
f 40 35 45 
f 35 41 45 
f 44 40 45 
f 41 38 46 
f 38 44 46 
f 44 41 46 
f 39 37 47 
f 40 39 47 
f 37 43 47 
f 35 40 48 
f 43 35 48 
f 40 43 48 
f 38 36 49 
f 36 44 49 
f 44 38 49 
f 43 40 50 
f 40 47 50 
o convex_3
v 81.786710 -47.280105 15.431098
v 79.480529 -49.586286 -0.135626
v 81.786710 -49.586286 -0.135626
v 79.480529 -49.586286 15.431098
v 79.480529 -47.280105 -0.135626
v 81.786710 -47.280105 -0.135626
v 81.786710 -49.586286 15.431098
v 79.480529 -47.280105 15.431098
f 55 54 58 
f 52 53 54 
f 53 52 55 
f 52 54 55 
f 51 53 56 
f 55 51 56 
f 53 55 56 
f 53 51 57 
f 54 53 57 
f 51 54 57 
f 54 51 58 
f 51 55 58 
o convex_4
v 102.542173 -47.280105 15.431098
v 100.812876 -49.586286 -0.135626
v 102.542173 -49.586286 -0.135626
v 100.812876 -49.586286 15.431098
v 100.812876 -47.280105 -0.135626
v 102.542173 -47.280105 -0.135626
v 102.542173 -49.586286 15.431098
v 100.812876 -47.280105 15.431098
f 63 62 66 
f 60 61 62 
f 61 60 63 
f 60 62 63 
f 59 61 64 
f 63 59 64 
f 61 63 64 
f 61 59 65 
f 62 61 65 
f 59 62 65 
f 62 59 66 
f 59 63 66 
o convex_5
v 111.767068 -92.826284 25.808689
v 59.883066 -92.826509 23.502733
v 59.883066 -90.521005 23.502733
v 59.883066 -92.826509 25.808689
v 59.883066 -90.521005 25.808689
v 111.767068 -90.521005 23.502733
v 111.767068 -92.826284 23.502733
v 111.767068 -90.521005 25.808689
v 67.374882 -92.826509 23.502733
v 67.374882 -92.826509 25.808689
f 75 67 76 
f 69 68 70 
f 70 67 71 
f 69 70 71 
f 69 71 72 
f 68 69 72 
f 72 67 73 
f 68 72 73 
f 71 67 74 
f 72 71 74 
f 67 72 74 
f 70 68 75 
f 73 67 75 
f 68 73 75 
f 67 70 76 
f 70 75 76 
o convex_6
v 111.186685 -73.802093 26.385460
v 59.877987 -76.107372 24.079504
v 59.877987 -76.107372 26.385460
v 59.877987 -73.802093 24.079504
v 111.186685 -76.107372 24.079504
v 59.877987 -73.802093 26.385460
v 111.186685 -76.107372 26.385460
v 111.186685 -73.802093 24.079504
f 81 80 84 
f 78 79 80 
f 79 78 81 
f 78 80 81 
f 79 77 82 
f 80 79 82 
f 77 80 82 
f 77 79 83 
f 81 77 83 
f 79 81 83 
f 80 77 84 
f 77 81 84 
o convex_7
v 85.821229 -118.195181 -0.135626
v 86.399073 -117.042091 22.926188
v 77.175250 -117.042091 22.926188
v 77.752191 -118.195181 22.926188
v 77.175250 -117.618636 -0.135626
v 86.399073 -117.042091 -0.135626
v 86.399073 -117.618636 22.926188
v 77.175250 -118.195181 -0.135626
v 77.175250 -117.042091 14.273493
v 77.175250 -118.195181 22.926188
v 84.668252 -117.042091 0.442274
v 86.399073 -117.618636 -0.135626
v 85.821229 -118.195181 1.017916
v 79.482109 -118.195181 18.889919
v 85.245192 -117.042091 -0.135626
v 78.329131 -118.195181 21.772645
v 82.362296 -118.195181 10.821896
f 98 97 101 
f 86 87 88 
f 87 86 90 
f 85 89 90 
f 86 88 91 
f 90 86 91 
f 85 88 92 
f 89 85 92 
f 87 89 92 
f 89 87 93 
f 87 90 93 
f 88 87 94 
f 87 92 94 
f 92 88 94 
f 89 93 95 
f 93 90 95 
f 85 90 96 
f 91 85 96 
f 90 91 96 
f 88 85 97 
f 85 91 97 
f 88 97 98 
f 90 89 99 
f 89 95 99 
f 95 90 99 
f 91 88 100 
f 98 91 100 
f 88 98 100 
f 97 91 101 
f 91 98 101 
o convex_8
v 81.785299 -111.850756 35.609169
v 67.375334 -111.850756 28.115096
v 71.989051 -111.850756 28.115096
v 90.434890 -87.061733 36.186730
v 67.375334 -87.061733 29.846199
v 89.854790 -111.850756 33.879646
v 70.835622 -87.061733 28.115096
v 78.329526 -87.061733 35.033188
v 67.953177 -111.850756 30.422180
v 90.434890 -87.061733 34.455627
v 90.434890 -111.850756 36.186730
v 76.024925 -111.850756 34.455627
v 86.396759 -87.061733 36.186730
v 67.375334 -87.061733 28.115096
v 86.396759 -111.850756 36.186730
v 89.854790 -107.813076 33.879646
v 77.753940 -111.850756 35.033188
v 76.024925 -108.390581 34.455627
v 90.434890 -111.850756 34.455627
v 67.375334 -111.850756 29.846199
v 70.835622 -87.061733 31.574932
v 81.785299 -91.101839 35.609169
v 67.953177 -104.932833 30.422180
v 85.243330 -87.641664 32.726894
v 76.600511 -93.982083 34.455627
v 77.753940 -100.895153 35.033188
v 71.989051 -111.273251 28.115096
v 88.125774 -110.695747 33.303665
v 88.125774 -111.850756 33.303665
v 74.871495 -109.543164 33.879646
v 74.871495 -111.850756 33.879646
f 113 131 132 
f 102 103 104 
f 102 104 107 
f 104 103 108 
f 106 105 108 
f 105 106 109 
f 103 102 110 
f 108 105 111 
f 102 107 112 
f 111 105 112 
f 110 102 113 
f 105 109 114 
f 112 105 114 
f 103 106 115 
f 108 103 115 
f 106 108 115 
f 102 112 116 
f 112 114 116 
f 111 107 117 
f 113 102 118 
f 113 118 119 
f 107 111 120 
f 112 107 120 
f 111 112 120 
f 106 103 121 
f 110 106 121 
f 103 110 121 
f 109 106 122 
f 114 109 123 
f 102 116 123 
f 116 114 123 
f 118 102 123 
f 106 110 124 
f 122 106 124 
f 119 122 124 
f 108 111 125 
f 117 108 125 
f 111 117 125 
f 109 122 126 
f 122 119 126 
f 119 118 127 
f 123 109 127 
f 118 123 127 
f 109 126 127 
f 126 119 127 
f 104 108 128 
f 108 117 128 
f 128 117 129 
f 117 107 129 
f 129 107 130 
f 107 104 130 
f 104 128 130 
f 128 129 130 
f 113 119 131 
f 124 110 131 
f 119 124 131 
f 110 113 132 
f 131 110 132 
o convex_9
v 67.375334 -87.061733 29.846199
v 90.434890 -70.920044 36.186730
v 90.434890 -70.920044 34.455627
v 90.434890 -87.061733 34.455627
v 71.989051 -70.920044 28.115096
v 78.905112 -71.496758 35.033188
v 78.329526 -87.061733 35.033188
v 70.835622 -87.061733 28.115096
v 67.375334 -70.920044 29.846199
v 86.396759 -87.061733 36.186730
v 67.375334 -70.920044 28.115096
v 90.434890 -87.061733 36.186730
v 86.396759 -70.920044 36.186730
v 67.375334 -87.061733 28.115096
v 70.835622 -70.920044 31.574932
v 71.989051 -77.839039 28.115096
v 71.411208 -85.906724 28.115096
v 70.835622 -87.061733 31.574932
v 79.478441 -70.920044 35.033188
v 77.176097 -79.564443 34.455627
v 82.360885 -76.685610 35.609169
v 78.329526 -86.483438 35.033188
v 77.753940 -70.920044 34.455627
f 151 147 155 
f 135 134 136 
f 134 135 137 
f 135 136 137 
f 133 136 139 
f 136 133 140 
f 134 137 141 
f 139 136 142 
f 137 140 143 
f 141 137 143 
f 133 141 143 
f 136 134 144 
f 134 142 144 
f 142 136 144 
f 134 141 145 
f 142 134 145 
f 139 142 145 
f 140 133 146 
f 133 143 146 
f 143 140 146 
f 141 133 147 
f 145 141 147 
f 137 136 148 
f 140 137 148 
f 140 148 149 
f 136 140 149 
f 148 136 149 
f 133 139 150 
f 147 133 150 
f 139 147 150 
f 138 145 151 
f 145 147 151 
f 138 147 152 
f 145 138 153 
f 145 153 154 
f 139 145 154 
f 147 139 154 
f 138 152 154 
f 152 147 154 
f 153 138 154 
f 147 138 155 
f 138 151 155 
o convex_10
v 91.591705 -115.312455 36.762486
v 114.070935 -99.169185 29.845860
v 114.070935 -99.169185 28.691641
v 90.437204 -99.169185 34.456417
v 107.729275 -115.312455 28.691641
v 113.492528 -115.312455 30.422575
v 102.539803 -99.169185 35.032342
v 90.437204 -115.312455 34.456417
v 102.539803 -115.312455 35.032342
v 90.437204 -99.169185 36.762486
v 111.764246 -99.169185 28.691641
v 114.070935 -115.312455 28.691641
v 112.340340 -99.169185 30.998499
v 90.437204 -115.312455 36.762486
v 91.591705 -99.169185 36.762486
v 105.422586 -115.312455 33.879703
v 107.729275 -114.735684 28.691641
v 114.070935 -115.312455 29.845860
v 105.422586 -99.169185 33.879703
v 113.492528 -99.169185 30.422575
v 112.340340 -102.054621 30.998499
v 109.457557 -115.312455 32.151929
f 161 176 177 
f 157 158 159 
f 156 160 161 
f 157 159 162 
f 160 156 163 
f 159 160 163 
f 156 161 164 
f 162 156 164 
f 162 159 165 
f 159 163 165 
f 159 158 166 
f 158 160 166 
f 158 157 167 
f 160 158 167 
f 161 160 167 
f 157 162 168 
f 163 156 169 
f 156 165 169 
f 165 163 169 
f 156 162 170 
f 165 156 170 
f 162 165 170 
f 164 161 171 
f 162 164 171 
f 160 159 172 
f 159 166 172 
f 166 160 172 
f 157 161 173 
f 167 157 173 
f 161 167 173 
f 168 162 174 
f 162 171 174 
f 171 168 174 
f 161 157 175 
f 157 168 175 
f 168 161 175 
f 161 168 176 
f 168 171 176 
f 176 171 177 
f 171 161 177 
o convex_11
v 114.071443 -70.341918 30.422349
v 90.434890 -99.169185 34.455514
v 112.341130 -99.169185 27.540356
v 102.542342 -99.169185 35.032455
v 90.434890 -70.341918 34.455514
v 91.591593 -70.341918 36.763276
v 111.762779 -70.341918 27.540356
v 114.649794 -98.590721 29.846312
v 90.434890 -99.169185 36.763276
v 102.542342 -70.341918 35.032455
v 114.649794 -70.341918 28.116394
v 114.649794 -98.590721 28.116394
v 112.341130 -99.169185 30.999290
v 90.434890 -70.341918 36.763276
v 112.919481 -71.496025 30.999290
v 91.591593 -99.169185 36.763276
v 114.649794 -70.341918 29.846312
v 112.919481 -73.228595 27.540356
v 114.071443 -87.636585 30.422349
v 111.762779 -73.801416 27.540356
v 112.919481 -99.169185 27.540356
v 105.424617 -99.169185 33.879477
v 114.071443 -99.169185 29.846312
v 112.919481 -70.341918 30.999290
v 114.071443 -99.169185 28.116394
v 112.341130 -70.341918 27.540356
v 113.493092 -99.169185 30.422349
f 190 200 204 
f 179 180 181 
f 178 182 183 
f 182 178 184 
f 179 181 186 
f 182 179 186 
f 183 181 187 
f 178 183 187 
f 184 178 188 
f 188 185 189 
f 181 180 190 
f 183 182 191 
f 182 186 191 
f 186 183 191 
f 181 183 193 
f 186 181 193 
f 183 186 193 
f 178 185 194 
f 188 178 194 
f 185 188 194 
f 180 184 195 
f 185 178 196 
f 178 192 196 
f 180 179 197 
f 179 182 197 
f 184 180 197 
f 182 184 197 
f 188 189 198 
f 190 180 198 
f 180 195 198 
f 195 188 198 
f 181 190 199 
f 192 181 199 
f 190 196 199 
f 196 192 199 
f 189 185 200 
f 190 198 200 
f 178 187 201 
f 187 181 201 
f 192 178 201 
f 181 192 201 
f 198 189 202 
f 189 200 202 
f 200 198 202 
f 184 188 203 
f 195 184 203 
f 188 195 203 
f 185 196 204 
f 196 190 204 
f 200 185 204 
o convex_12
v 69.679258 -110.700092 13.699374
v 77.748861 -117.041131 28.115096
v 77.748861 -117.617056 28.115096
v 77.173759 -117.041865 -0.135626
v 73.714454 -115.888549 -0.135626
v 70.832623 -110.700092 4.479728
v 71.409305 -112.430800 28.115096
v 71.986777 -111.276750 28.115096
v 76.597076 -118.195181 14.849756
v 69.679258 -111.853408 -0.135626
v 77.173759 -118.195181 -0.135626
v 70.255940 -111.853408 20.615491
v 76.596286 -117.617056 28.115096
v 77.173759 -116.465207 15.427712
v 70.255940 -110.700092 -0.135626
v 71.409305 -110.700092 20.037535
v 70.255940 -110.700092 22.924551
v 69.679258 -111.853408 5.054919
v 76.597076 -118.195181 -0.135626
v 74.867029 -114.735232 -0.135626
v 69.679258 -110.700092 -0.135626
v 77.748861 -117.041131 22.924551
v 72.562670 -114.160041 19.462344
v 77.173759 -118.195181 14.849756
v 69.679258 -111.276750 13.699374
v 71.409305 -111.276750 28.115096
v 76.020394 -117.618523 16.005668
v 70.255940 -111.276750 22.924551
v 71.409305 -110.700092 22.924551
v 77.748861 -117.617056 22.924551
v 71.985987 -114.160041 2.751390
v 70.832623 -112.430067 20.615491
f 222 227 236 
f 207 206 211 
f 211 206 212 
f 208 209 214 
f 209 208 215 
f 207 211 217 
f 213 207 217 
f 212 206 218 
f 205 210 219 
f 208 214 219 
f 210 205 220 
f 212 218 220 
f 220 205 221 
f 214 209 222 
f 205 214 222 
f 213 209 223 
f 209 215 223 
f 215 213 223 
f 218 208 224 
f 219 210 224 
f 208 219 224 
f 210 220 224 
f 220 218 224 
f 214 205 225 
f 205 219 225 
f 219 214 225 
f 206 207 226 
f 215 208 226 
f 218 206 226 
f 208 218 226 
f 207 213 228 
f 215 207 228 
f 213 215 228 
f 221 205 229 
f 205 222 229 
f 222 216 229 
f 211 212 230 
f 221 211 230 
f 212 221 230 
f 209 213 231 
f 213 217 231 
f 217 227 231 
f 227 222 231 
f 216 211 232 
f 211 221 232 
f 221 229 232 
f 229 216 232 
f 212 220 233 
f 221 212 233 
f 220 221 233 
f 207 215 234 
f 226 207 234 
f 215 226 234 
f 222 209 235 
f 209 231 235 
f 231 222 235 
f 211 216 236 
f 217 211 236 
f 216 222 236 
f 227 217 236 
o convex_13
v 70.832349 -108.393911 22.926188
v 69.679258 -110.700092 -0.135626
v 69.679258 -108.393911 -0.135626
v 69.679258 -108.393911 17.736377
v 70.255803 -110.700092 22.926188
v 70.832349 -110.700092 13.122208
v 70.255803 -108.393911 -0.135626
v 69.679258 -110.700092 14.273493
v 70.255803 -110.700092 -0.135626
v 70.832349 -110.700092 22.926188
v 70.832349 -108.393911 16.007192
v 70.255803 -108.393911 22.926188
v 70.832349 -109.547001 13.697850
v 69.679258 -108.970456 17.736377
v 70.832349 -110.123547 13.122208
f 243 249 251 
f 239 238 240 
f 237 239 240 
f 241 238 242 
f 239 237 243 
f 238 239 243 
f 240 238 244 
f 238 241 244 
f 242 238 245 
f 238 243 245 
f 243 242 245 
f 237 241 246 
f 241 242 246 
f 242 237 246 
f 237 242 247 
f 243 237 247 
f 237 240 248 
f 241 237 248 
f 240 241 248 
f 247 242 249 
f 243 247 249 
f 241 240 250 
f 240 244 250 
f 244 241 250 
f 242 243 251 
f 249 242 251 
o convex_14
v 76.597802 -65.154421 22.346595
v 71.986399 -70.918464 22.924551
v 71.408894 -69.765034 -0.135626
v 76.597802 -65.730515 -0.135626
v 76.597802 -66.883944 28.115096
v 71.986399 -69.187699 23.502507
v 76.020297 -64.576465 -0.135626
v 73.138869 -69.765034 2.176199
v 75.444316 -65.730515 25.806036
v 72.562888 -70.918464 28.115096
v 71.408894 -69.187699 1.598243
v 71.986399 -69.764413 28.115096
v 76.020297 -64.576465 8.514360
v 76.020805 -65.730515 28.115096
v 76.597802 -66.306609 9.095082
v 76.597802 -64.576465 -0.135626
v 72.562888 -70.918464 22.924551
v 72.563395 -69.765034 -0.135626
v 76.597802 -66.883944 25.230845
v 74.867827 -65.730515 9.670272
v 71.986399 -70.918464 28.115096
v 71.408894 -69.187699 -0.135626
v 76.020297 -65.154421 22.346595
v 76.597802 -65.730515 28.115096
v 76.597802 -64.576465 8.514360
v 73.139376 -68.036132 24.655654
v 73.715357 -66.883323 7.363978
v 73.139376 -70.340507 22.924551
v 71.408894 -69.765034 1.598243
v 75.443300 -65.154421 9.670272
v 76.020805 -67.460038 24.655654
v 74.291338 -66.306609 8.514360
f 271 281 283 
f 255 252 256 
f 255 254 258 
f 261 256 263 
f 257 262 263 
f 258 262 264 
f 263 256 265 
f 260 263 265 
f 255 256 266 
f 259 255 266 
f 252 255 267 
f 255 258 267 
f 258 264 267 
f 253 254 268 
f 261 253 268 
f 256 261 268 
f 254 255 269 
f 255 259 269 
f 268 254 269 
f 259 268 269 
f 266 256 270 
f 259 266 270 
f 256 268 270 
f 254 253 272 
f 253 261 272 
f 261 263 272 
f 263 262 272 
f 258 254 273 
f 254 262 273 
f 262 258 273 
f 252 264 274 
f 264 260 274 
f 265 252 274 
f 260 265 274 
f 256 252 275 
f 252 265 275 
f 265 256 275 
f 264 252 276 
f 252 267 276 
f 267 264 276 
f 263 260 277 
f 257 263 277 
f 271 257 277 
f 260 271 277 
f 262 257 278 
f 268 259 279 
f 262 254 280 
f 254 272 280 
f 272 262 280 
f 260 264 281 
f 271 260 281 
f 259 270 282 
f 270 268 282 
f 279 259 282 
f 268 279 282 
f 264 262 283 
f 257 271 283 
f 278 257 283 
f 262 278 283 
f 281 264 283 
o convex_15
v 86.401048 -117.618636 -0.135626
v 106.578160 -116.465545 28.691077
v 106.578160 -117.042091 28.691077
v 106.574210 -117.042091 -0.135626
v 86.401048 -116.465658 22.923479
v 93.319648 -116.465658 3.329447
v 86.401048 -117.618636 22.923479
v 106.574210 -117.618636 -0.135626
v 90.436075 -116.465545 28.691077
v 106.574210 -117.618636 12.545189
v 86.401048 -117.042091 -0.135626
v 106.574210 -116.465658 11.396748
v 90.436075 -117.042091 28.691077
v 96.772036 -116.465658 4.480710
v 87.554477 -117.618636 22.923479
v 92.166219 -116.465658 5.631972
v 88.131192 -116.465658 17.155881
v 94.473078 -116.465658 3.329447
v 86.401048 -116.465658 22.347848
v 102.537207 -116.465658 8.512949
v 106.578160 -116.465545 22.923479
v 90.436075 -116.465545 22.923479
v 106.578160 -117.042091 22.923479
v 95.626507 -116.465658 3.902257
f 301 304 307 
f 288 284 290 
f 284 287 291 
f 290 284 291 
f 286 285 292 
f 288 290 292 
f 291 286 293 
f 290 291 293 
f 287 284 294 
f 284 288 294 
f 289 287 294 
f 290 286 296 
f 286 292 296 
f 292 290 296 
f 286 290 298 
f 293 286 298 
f 290 293 298 
f 289 294 299 
f 299 294 300 
f 287 289 301 
f 288 292 302 
f 294 288 302 
f 300 294 302 
f 295 287 303 
f 287 297 303 
f 303 297 304 
f 285 286 304 
f 291 287 304 
f 292 285 304 
f 287 295 304 
f 301 289 304 
f 295 303 304 
f 289 299 305 
f 299 300 305 
f 302 292 305 
f 300 302 305 
f 292 304 305 
f 304 289 305 
f 286 291 306 
f 304 286 306 
f 291 304 306 
f 297 287 307 
f 287 301 307 
f 304 297 307 
o convex_16
v 111.767068 -111.276637 28.691077
v 106.578160 -117.618636 -0.135626
v 106.578160 -117.040680 -0.135626
v 106.578160 -115.887871 28.691077
v 107.732153 -117.040680 22.347848
v 110.613582 -114.736304 -0.135626
v 110.037093 -113.007402 4.480710
v 111.767068 -112.431308 28.691077
v 106.578160 -117.041921 28.691077
v 107.732153 -117.618636 -0.135626
v 111.189563 -111.276637 22.923479
v 110.613582 -113.584117 -0.135626
v 106.578160 -116.464586 4.480710
v 110.613582 -114.736304 5.056341
v 111.767068 -111.276637 22.923479
v 106.578160 -115.887871 21.772216
v 107.155664 -117.041921 28.691077
v 107.732153 -117.618636 5.056341
v 111.189563 -111.276637 28.691077
v 110.613582 -114.160211 21.190942
v 106.578160 -117.618636 12.545189
v 110.037093 -113.584117 -0.135626
v 111.767068 -112.431308 22.923479
v 110.037093 -112.430687 20.615311
v 107.155156 -117.618636 12.545189
v 110.613582 -113.007402 4.480710
v 108.308134 -116.464586 22.347848
v 108.884115 -113.584117 20.615311
f 323 331 335 
f 310 309 311 
f 309 310 313 
f 308 311 315 
f 311 309 316 
f 315 311 316 
f 309 313 317 
f 313 310 319 
f 310 311 320 
f 314 310 320 
f 313 315 321 
f 317 313 321 
f 308 315 322 
f 318 308 322 
f 314 318 322 
f 320 311 323 
f 312 315 324 
f 315 316 324 
f 309 317 325 
f 317 321 325 
f 311 308 326 
f 308 318 326 
f 323 311 326 
f 318 323 326 
f 321 315 327 
f 316 309 328 
f 324 316 328 
f 309 325 328 
f 310 314 329 
f 314 319 329 
f 319 310 329 
f 315 313 330 
f 313 319 330 
f 322 315 330 
f 319 322 330 
f 318 314 331 
f 314 320 331 
f 323 318 331 
f 312 324 332 
f 325 312 332 
f 324 328 332 
f 328 325 332 
f 319 314 333 
f 314 322 333 
f 322 319 333 
f 315 312 334 
f 312 325 334 
f 325 321 334 
f 327 315 334 
f 321 327 334 
f 320 323 335 
f 331 320 335 
o convex_17
v 112.919707 -103.206244 22.926188
v 110.613977 -114.159364 -0.135626
v 111.190692 -114.159364 -0.135626
v 112.343218 -102.051912 -0.135626
v 110.613977 -111.853070 22.926188
v 112.343218 -111.274719 5.054185
v 111.766955 -102.629078 22.926188
v 111.766955 -113.005032 21.192488
v 112.919707 -105.511353 -0.135626
v 110.613977 -113.005032 -0.135626
v 112.919707 -102.051912 -0.135626
v 110.613977 -113.582198 21.192488
v 111.766955 -113.582198 -0.135626
v 112.919707 -102.051912 22.926188
v 111.766955 -104.358206 2.749358
v 111.766955 -112.427866 22.926188
v 111.766955 -102.629078 18.889919
v 112.343218 -108.968424 21.192488
v 110.613977 -112.427866 4.478543
v 112.343218 -111.274719 -0.135626
v 111.190692 -114.159364 5.054185
v 112.343218 -102.051912 22.926188
v 111.190692 -113.582198 21.192488
v 112.919707 -104.936557 9.092711
v 111.766955 -104.936557 -0.135626
v 111.766955 -113.582198 5.054185
v 110.613977 -113.005032 22.926188
v 112.919707 -103.783410 19.463304
v 110.613977 -114.159364 5.054185
v 110.613977 -111.853070 20.616846
v 112.343218 -108.393628 22.926188
v 112.919707 -105.511353 3.327258
f 344 359 367 
f 338 337 339 
f 340 336 342 
f 338 339 344 
f 339 337 345 
f 337 340 345 
f 344 339 346 
f 336 344 346 
f 340 337 347 
f 338 344 348 
f 342 336 349 
f 346 339 349 
f 336 346 349 
f 336 340 351 
f 342 339 352 
f 340 342 352 
f 339 350 352 
f 343 341 353 
f 345 340 354 
f 350 345 354 
f 352 350 354 
f 344 341 355 
f 341 348 355 
f 348 344 355 
f 337 338 356 
f 338 348 356 
f 339 342 357 
f 349 339 357 
f 342 349 357 
f 343 351 358 
f 347 356 358 
f 356 343 358 
f 344 336 359 
f 339 345 360 
f 350 339 360 
f 345 350 360 
f 341 343 361 
f 348 341 361 
f 343 356 361 
f 356 348 361 
f 340 347 362 
f 351 340 362 
f 358 351 362 
f 347 358 362 
f 336 353 363 
f 353 341 363 
f 359 336 363 
f 341 359 363 
f 347 337 364 
f 337 356 364 
f 356 347 364 
f 340 352 365 
f 354 340 365 
f 352 354 365 
f 336 351 366 
f 351 343 366 
f 353 336 366 
f 343 353 366 
f 341 344 367 
f 359 341 367 
o convex_18
v 113.496704 -96.862552 17.736377
v 112.343613 -102.051912 -0.135626
v 112.343613 -85.908642 -0.135626
v 112.343613 -102.051912 22.926188
v 112.343613 -85.908642 22.926188
v 113.496704 -85.908642 -0.135626
v 113.496704 -99.744828 -0.135626
v 112.920158 -85.908642 22.926188
v 112.920158 -102.051912 22.926188
v 112.920158 -102.051912 -0.135626
v 113.496704 -98.014514 17.736377
v 113.496704 -85.908642 1.017916
v 113.496704 -96.285781 17.158477
v 113.496704 -99.744828 1.598073
v 113.496704 -98.589705 12.544308
f 376 381 382 
f 370 369 371 
f 370 371 372 
f 370 372 373 
f 369 370 373 
f 373 368 374 
f 369 373 374 
f 372 371 375 
f 373 372 375 
f 371 369 376 
f 368 375 376 
f 375 371 376 
f 369 374 377 
f 376 369 377 
f 374 376 377 
f 374 368 378 
f 368 376 378 
f 368 373 379 
f 373 375 379 
f 379 375 380 
f 375 368 380 
f 368 379 380 
f 376 374 381 
f 374 378 381 
f 381 378 382 
f 378 376 382 
o convex_19
v 112.920102 -70.341918 22.925285
v 112.343613 -89.942541 22.925285
v 112.343613 -85.907288 -0.135626
v 112.920102 -89.942541 22.925285
v 112.920102 -85.907288 -0.135626
v 112.343613 -70.341918 -0.135626
v 112.343613 -76.685497 27.538550
v 112.920102 -70.341918 -0.135626
v 112.920102 -89.942541 27.538550
v 112.343613 -70.341918 22.925285
v 112.343613 -89.942541 27.538550
v 112.920102 -76.685497 27.538550
f 389 391 394 
f 384 385 386 
f 383 386 387 
f 386 385 387 
f 387 385 388 
f 385 384 388 
f 388 384 389 
f 383 387 390 
f 387 388 390 
f 388 383 390 
f 384 386 391 
f 386 383 391 
f 383 388 392 
f 389 383 392 
f 388 389 392 
f 389 384 393 
f 384 391 393 
f 391 389 393 
f 383 389 394 
f 391 383 394 
o convex_20
v 108.308247 -65.153744 18.889016
v 111.766165 -70.918464 22.925285
v 107.731758 -66.306123 2.749358
v 112.919650 -69.188201 -0.135626
v 112.919650 -69.764391 23.502281
v 107.731758 -66.883442 27.538550
v 112.342654 -70.341145 -0.135626
v 108.884736 -65.153744 -0.135626
v 108.885244 -65.730498 26.384557
v 112.342654 -70.918464 27.538550
v 107.731758 -65.153744 -0.135626
v 111.766165 -70.341145 2.752067
v 112.919650 -70.918464 22.925285
v 107.731758 -65.730498 27.538550
v 112.342654 -69.764391 27.538550
v 112.919650 -69.188201 3.329064
v 112.919650 -70.341145 -0.135626
v 111.766165 -70.918464 27.538550
v 108.884736 -65.153744 3.329064
v 107.731758 -65.730498 -0.135626
v 107.731758 -65.153744 18.889016
v 111.766165 -68.611447 25.230563
v 107.731758 -66.883442 25.807560
v 108.308755 -65.730498 27.538550
v 112.919650 -70.918464 24.079278
v 109.461733 -66.307252 26.384557
v 112.342654 -69.187637 24.656275
v 112.919650 -70.340581 24.079278
v 108.884736 -67.460196 2.752067
f 414 401 423 
f 398 401 402 
f 397 400 405 
f 395 402 405 
f 402 401 405 
f 401 396 406 
f 398 399 407 
f 396 401 407 
f 404 396 407 
f 400 404 408 
f 405 400 408 
f 408 404 409 
f 399 398 410 
f 398 402 410 
f 401 398 411 
f 398 407 411 
f 407 401 411 
f 400 396 412 
f 396 404 412 
f 404 400 412 
f 402 395 413 
f 395 403 413 
f 410 402 413 
f 403 410 413 
f 397 405 414 
f 405 401 414 
f 395 405 415 
f 408 395 415 
f 405 408 415 
f 397 396 417 
f 396 400 417 
f 400 397 417 
f 403 395 418 
f 395 408 418 
f 409 403 418 
f 408 409 418 
f 407 399 419 
f 404 407 419 
f 409 404 419 
f 403 409 420 
f 410 403 420 
f 409 416 420 
f 416 410 420 
f 409 399 421 
f 399 410 421 
f 416 409 421 
f 410 416 421 
f 399 409 422 
f 419 399 422 
f 409 419 422 
f 396 397 423 
f 406 396 423 
f 401 406 423 
f 397 414 423 
o convex_21
v 109.460886 -66.881969 22.926188
v 76.597802 -65.729217 18.890370
v 76.597802 -65.152672 18.890370
v 76.597802 -66.306101 22.926188
v 104.268931 -63.423713 20.620288
v 109.460886 -66.881969 18.890370
v 78.907482 -63.423713 19.467141
v 108.302829 -65.152672 18.890370
v 108.878641 -65.728878 22.926188
v 78.907482 -63.423713 20.620288
v 77.752642 -66.306101 18.890370
v 104.268931 -63.423713 19.467141
v 76.597802 -65.729217 22.926188
v 108.302829 -66.881969 18.890370
v 109.460886 -66.305424 18.890370
v 108.302829 -65.152672 21.772250
v 76.597802 -65.152672 21.772250
v 76.597802 -66.306101 20.620288
v 108.302829 -66.881969 22.926188
v 109.460886 -66.305424 22.926188
v 77.176830 -66.306101 19.467141
v 86.402685 -65.728878 22.926188
f 433 436 445 
f 426 425 427 
f 425 426 429 
f 429 426 431 
f 426 430 431 
f 427 424 432 
f 430 426 433 
f 428 430 433 
f 432 428 433 
f 425 429 434 
f 430 428 435 
f 431 430 435 
f 426 427 436 
f 427 432 436 
f 429 424 437 
f 434 429 437 
f 424 429 438 
f 429 431 438 
f 428 432 439 
f 435 428 439 
f 431 435 439 
f 438 431 439 
f 433 426 440 
f 426 436 440 
f 436 433 440 
f 427 425 441 
f 437 427 441 
f 424 427 442 
f 437 424 442 
f 427 437 442 
f 432 424 443 
f 424 438 443 
f 439 432 443 
f 438 439 443 
f 425 434 444 
f 434 437 444 
f 441 425 444 
f 437 441 444 
f 432 433 445 
f 436 432 445 
o convex_22
v 102.540762 -66.882985 35.032962
v 104.847846 -70.341580 31.574368
v 104.847846 -66.882985 31.574368
v 90.434890 -70.341580 34.456530
v 90.434890 -66.882985 34.456530
v 91.590012 -70.341580 36.762768
v 106.578160 -70.341580 33.304681
v 90.434890 -66.882985 36.762768
v 102.540762 -70.341580 35.032962
v 106.578160 -66.882985 33.304681
v 106.578160 -70.341580 31.574368
v 106.578160 -66.882985 31.574368
v 90.434890 -70.341580 36.762768
v 91.590012 -66.882985 36.762768
v 105.423037 -66.882985 33.881113
v 105.423037 -70.341580 33.881113
f 452 460 461 
f 448 447 449 
f 446 448 450 
f 448 449 450 
f 449 447 451 
f 451 447 452 
f 446 450 453 
f 450 449 453 
f 446 451 454 
f 451 452 454 
f 448 446 455 
f 455 452 456 
f 447 448 456 
f 452 447 456 
f 448 455 457 
f 455 456 457 
f 456 448 457 
f 449 451 458 
f 453 449 458 
f 451 453 458 
f 451 446 459 
f 446 453 459 
f 453 451 459 
f 446 454 460 
f 455 446 460 
f 452 455 460 
f 454 452 461 
f 460 454 461 
o convex_23
v 72.563565 -120.501024 32.728248
v 90.434890 -111.853183 36.186279
v 90.434890 -122.230999 36.186279
v 90.434890 -116.467126 31.574368
v 71.408894 -111.853183 31.574368
v 77.753997 -111.853183 35.032850
v 75.448380 -121.075989 31.574368
v 77.176661 -121.652986 35.032850
v 81.208697 -111.853183 31.574368
v 90.434890 -122.230999 34.456361
v 86.395404 -111.853183 36.186279
v 89.855692 -111.853183 33.880323
v 86.395404 -122.230999 36.186279
v 71.408894 -111.853183 32.151308
v 71.408894 -119.924027 31.574368
v 75.448380 -121.652986 32.151308
v 90.434890 -117.042091 31.574368
v 81.786033 -122.230999 33.880323
v 77.176661 -115.313132 35.032850
v 81.786033 -122.230999 35.609790
v 71.408894 -119.924027 32.151308
v 75.448380 -121.652986 33.880323
v 76.021990 -111.853183 34.456361
v 90.434890 -111.853183 34.456361
v 88.127411 -111.853183 33.304286
v 71.988092 -120.501024 31.574368
v 86.395404 -122.230999 33.880323
v 81.786033 -111.853183 35.609790
v 73.716373 -121.075989 33.304286
v 76.601188 -121.652986 32.151308
v 73.716373 -121.075989 31.574368
v 76.021990 -121.652986 34.456361
f 490 483 493 
f 463 464 465 
f 463 466 467 
f 466 465 468 
f 465 466 470 
f 466 463 470 
f 465 464 471 
f 464 463 472 
f 463 467 472 
f 470 463 473 
f 471 464 474 
f 464 472 474 
f 467 466 475 
f 466 468 476 
f 475 466 476 
f 468 465 478 
f 465 471 478 
f 471 468 478 
f 471 474 479 
f 474 472 481 
f 479 474 481 
f 477 479 481 
f 480 469 481 
f 475 476 482 
f 477 481 483 
f 467 475 484 
f 469 480 484 
f 480 467 484 
f 475 482 484 
f 463 465 485 
f 473 463 485 
f 465 473 485 
f 465 470 486 
f 473 465 486 
f 470 473 486 
f 476 468 487 
f 462 482 487 
f 482 476 487 
f 477 483 487 
f 468 471 488 
f 471 479 488 
f 479 477 488 
f 472 467 489 
f 467 480 489 
f 481 472 489 
f 480 481 489 
f 482 462 490 
f 462 487 490 
f 487 483 490 
f 477 468 491 
f 468 488 491 
f 488 477 491 
f 468 477 492 
f 487 468 492 
f 477 487 492 
f 481 469 493 
f 483 481 493 
f 469 484 493 
f 484 482 493 
f 482 490 493 
o convex_24
v 70.255803 -87.061733 22.926188
v 71.985270 -70.341918 28.115096
v 71.985270 -70.341918 22.926188
v 70.256142 -73.803391 26.384613
v 71.408668 -85.906272 28.115096
v 70.255803 -87.061733 28.115096
v 71.408668 -84.752448 22.926188
v 70.256142 -73.803391 24.079673
v 71.985270 -77.261591 25.232651
v 71.408668 -70.341918 28.115096
v 71.408668 -70.341918 22.926188
v 71.985270 -77.261591 28.115096
v 70.832405 -87.061733 22.926188
v 71.985270 -76.683861 22.926188
v 70.832574 -76.683861 28.115096
v 70.255803 -84.177991 22.926188
v 70.832405 -87.061733 28.115096
v 71.408668 -85.330178 23.503692
v 70.255803 -85.330178 28.115096
v 70.832574 -76.107767 22.926188
v 71.408668 -85.906272 26.384613
v 70.255803 -84.752448 26.961610
v 70.255803 -84.177991 24.079673
f 509 515 516 
f 498 495 499 
f 494 496 500 
f 496 495 502 
f 495 496 503 
f 499 495 503 
f 501 497 503 
f 501 503 504 
f 496 494 504 
f 503 496 504 
f 495 498 505 
f 502 495 505 
f 498 502 505 
f 499 494 506 
f 494 500 506 
f 500 496 507 
f 496 502 507 
f 499 503 508 
f 503 497 508 
f 494 499 509 
f 497 501 509 
f 504 494 509 
f 498 499 510 
f 506 498 510 
f 499 506 510 
f 506 500 511 
f 500 507 511 
f 507 502 511 
f 508 497 512 
f 499 508 512 
f 509 499 512 
f 501 504 513 
f 509 501 513 
f 504 509 513 
f 502 498 514 
f 498 506 514 
f 511 502 514 
f 506 511 514 
f 512 497 515 
f 509 512 515 
f 497 509 516 
f 515 497 516 
o convex_25
v 71.985665 -120.501363 30.420826
v 74.289589 -111.853183 31.574029
v 79.479343 -111.854029 31.574029
v 72.561646 -111.853183 28.115096
v 79.480529 -117.618072 28.115096
v 67.373077 -118.771050 28.115096
v 67.951428 -111.853183 30.420826
v 71.985665 -120.501363 31.574029
v 79.480529 -117.618072 31.574029
v 67.373077 -111.853183 28.115096
v 67.373077 -118.771050 29.844562
v 70.256537 -112.432211 31.574029
v 74.289589 -120.501363 31.574029
v 70.256537 -119.922334 31.574029
v 79.479343 -111.854029 30.997427
v 79.480529 -117.040736 28.115096
v 69.680556 -119.347538 28.692036
v 67.373077 -111.853183 29.844562
v 73.138812 -120.501363 30.420826
v 67.951428 -118.771050 30.420826
v 70.832518 -111.853183 31.574029
v 68.527409 -119.347538 28.692036
v 74.289589 -120.501363 30.997427
v 68.527409 -118.771050 28.115096
v 68.527409 -119.347538 30.420826
v 69.103390 -119.347538 30.997427
v 69.103390 -113.007007 30.997427
v 74.289589 -111.853183 29.844562
v 79.480529 -117.040736 31.574029
f 532 519 545 
f 520 521 522 
f 518 520 523 
f 519 518 524 
f 519 524 525 
f 520 522 526 
f 523 520 526 
f 526 522 527 
f 524 518 528 
f 524 517 529 
f 521 525 529 
f 525 524 529 
f 524 528 530 
f 518 519 531 
f 521 520 532 
f 525 521 532 
f 531 519 532 
f 520 531 532 
f 523 526 534 
f 527 523 534 
f 526 527 534 
f 529 517 535 
f 517 533 535 
f 533 521 535 
f 523 527 536 
f 518 523 537 
f 528 518 537 
f 523 528 537 
f 517 524 538 
f 527 522 538 
f 533 517 538 
f 522 533 538 
f 521 529 539 
f 529 535 539 
f 535 521 539 
f 522 521 540 
f 521 533 540 
f 533 522 540 
f 524 530 541 
f 538 524 541 
f 527 538 541 
f 530 528 542 
f 523 536 542 
f 536 527 542 
f 541 530 542 
f 527 541 542 
f 528 523 543 
f 523 542 543 
f 542 528 543 
f 520 518 544 
f 518 531 544 
f 531 520 544 
f 519 525 545 
f 525 532 545 
o convex_26
v 82.936471 -65.729556 35.609169
v 67.375334 -65.729556 28.115096
v 67.375334 -62.847167 28.115096
v 90.434890 -65.729556 34.455627
v 90.434890 -61.694133 36.186730
v 79.478441 -61.694133 35.033188
v 90.434890 -61.694133 34.455627
v 67.375334 -65.729556 29.846199
v 69.106606 -63.423882 28.115096
v 67.375334 -62.847167 29.846199
v 77.753940 -65.729556 34.455627
v 90.434890 -65.729556 36.186730
v 71.411208 -62.270848 29.269428
v 70.835622 -62.270848 31.574932
v 86.972345 -61.694133 36.186730
v 68.528763 -65.729556 28.115096
v 78.905112 -61.694133 32.726894
v 86.972345 -65.729556 36.186730
v 69.106606 -62.847167 28.115096
v 70.835622 -65.729556 31.574932
v 79.478441 -65.729556 35.033188
v 70.260036 -62.270848 29.269428
v 77.753940 -62.270848 34.455627
v 70.260036 -62.270848 30.998951
v 80.054027 -61.694133 32.726894
v 82.936471 -62.270848 35.609169
v 78.905112 -61.694133 34.455627
f 562 569 572 
f 546 547 549 
f 550 549 552 
f 551 550 552 
f 547 546 553 
f 548 547 553 
f 547 548 554 
f 552 549 554 
f 548 553 555 
f 553 546 556 
f 546 549 557 
f 549 550 557 
f 555 553 559 
f 550 551 560 
f 557 550 560 
f 549 547 561 
f 547 554 561 
f 554 549 561 
f 551 552 562 
f 546 557 563 
f 560 546 563 
f 557 560 563 
f 554 548 564 
f 552 554 564 
f 558 552 564 
f 548 558 564 
f 553 556 565 
f 559 553 565 
f 556 559 565 
f 546 551 566 
f 556 546 566 
f 551 556 566 
f 548 555 567 
f 558 548 567 
f 562 558 567 
f 556 551 568 
f 559 556 568 
f 551 559 568 
f 555 559 569 
f 559 551 569 
f 567 555 569 
f 562 567 569 
f 552 558 570 
f 562 552 570 
f 558 562 570 
f 551 546 571 
f 560 551 571 
f 546 560 571 
f 551 562 572 
f 569 551 572 
o convex_27
v 104.270398 -65.153010 34.456417
v 112.340340 -65.153010 28.691641
v 112.340340 -64.576239 28.691641
v 90.437204 -65.153010 34.456417
v 90.437204 -61.117193 36.762486
v 90.437204 -61.117193 34.456417
v 103.691991 -61.694359 34.456417
v 91.591705 -65.153010 36.762486
v 114.070935 -64.576239 30.422575
v 103.691991 -61.694359 32.727063
v 102.539803 -61.694359 35.032342
v 112.916434 -65.153010 30.998499
v 105.422586 -62.270735 31.575214
v 102.539803 -65.153010 35.032342
v 91.591705 -61.117193 36.762486
v 114.070935 -64.576239 28.691641
v 90.437204 -65.153010 36.762486
v 110.033651 -63.423092 32.151929
v 110.609745 -63.999468 29.269146
v 114.070935 -65.153010 28.691641
v 104.270398 -62.270735 34.456417
v 91.591705 -61.117193 34.456417
v 104.846492 -62.270735 31.575214
v 114.070935 -65.153010 30.422575
v 110.033651 -63.423092 30.422575
v 101.968336 -61.694359 32.727063
v 111.764246 -63.999468 29.269146
v 112.916434 -64.576239 30.998499
v 110.033651 -65.153010 32.151929
f 584 590 601 
f 575 574 576 
f 574 573 576 
f 575 576 578 
f 576 577 578 
f 576 573 580 
f 573 574 584 
f 580 573 586 
f 573 583 586 
f 583 580 586 
f 578 577 587 
f 577 580 587 
f 579 582 587 
f 583 579 587 
f 580 583 587 
f 574 575 588 
f 577 576 589 
f 576 580 589 
f 580 577 589 
f 582 579 590 
f 581 588 590 
f 575 578 591 
f 588 575 591 
f 584 574 592 
f 574 588 592 
f 588 581 592 
f 579 583 593 
f 583 573 593 
f 590 579 593 
f 573 590 593 
f 582 578 594 
f 578 587 594 
f 587 582 594 
f 582 585 595 
f 591 578 595 
f 585 591 595 
f 581 584 596 
f 592 581 596 
f 584 592 596 
f 588 582 597 
f 582 590 597 
f 590 588 597 
f 578 582 598 
f 595 578 598 
f 582 595 598 
f 585 582 599 
f 582 588 599 
f 591 585 599 
f 588 591 599 
f 584 581 600 
f 581 590 600 
f 590 584 600 
f 573 584 601 
f 590 573 601 
o convex_28
v 71.408894 -108.393911 24.079278
v 110.613977 -106.088406 25.808914
v 110.613977 -108.393911 25.808914
v 110.613977 -106.088406 24.079278
v 71.408894 -106.088406 25.808914
v 110.613977 -108.393911 24.079278
v 71.408894 -108.393911 25.808914
v 71.408894 -106.088406 24.079278
f 606 605 609 
f 603 604 605 
f 604 603 606 
f 603 605 606 
f 604 602 607 
f 605 604 607 
f 602 605 607 
f 602 604 608 
f 606 602 608 
f 604 606 608 
f 605 602 609 
f 602 606 609 
o convex_29
v 105.422586 -117.618636 33.879703
v 111.188152 -119.348272 28.691641
v 110.033651 -119.924817 29.269146
v 90.437204 -117.618636 34.456417
v 91.591705 -122.230999 36.762486
v 90.437204 -122.230999 34.456417
v 102.539803 -122.230999 35.032342
v 91.591705 -117.618636 36.762486
v 114.070935 -117.618636 29.845860
v 111.188152 -117.618636 28.691641
v 103.115897 -122.230999 32.727063
v 112.916434 -119.348272 30.422575
v 102.539803 -117.618636 35.032342
v 90.437204 -117.618636 36.762486
v 112.916434 -119.348272 28.691641
v 113.492528 -118.772630 30.422575
v 90.437204 -122.230999 36.762486
v 114.070935 -117.618636 28.691641
v 101.968336 -122.230999 32.727063
v 114.070935 -118.772630 28.691641
v 113.492528 -117.618636 30.422575
v 103.115897 -122.230999 34.456417
v 105.422586 -121.077908 33.879703
v 107.150868 -121.077908 30.998499
v 114.070935 -118.772630 29.845860
v 107.150868 -121.077908 32.727063
v 110.609745 -119.924817 31.575214
v 110.609745 -119.924817 29.269146
v 109.457557 -119.924817 32.151929
v 109.457557 -117.618636 32.151929
v 108.881463 -120.501363 32.151929
f 621 636 640 
f 611 612 615 
f 613 611 615 
f 614 615 616 
f 610 613 617 
f 614 616 617 
f 613 610 618 
f 611 613 619 
f 613 618 619 
f 616 615 620 
f 616 610 622 
f 610 617 622 
f 617 616 622 
f 613 615 623 
f 617 613 623 
f 614 617 623 
f 612 611 624 
f 611 619 624 
f 615 614 626 
f 614 623 626 
f 623 615 626 
f 619 618 627 
f 624 619 627 
f 615 612 628 
f 612 620 628 
f 620 615 628 
f 621 624 629 
f 627 618 629 
f 624 627 629 
f 618 610 630 
f 625 618 630 
f 616 620 631 
f 610 616 632 
f 631 620 633 
f 625 621 634 
f 618 625 634 
f 621 629 634 
f 629 618 634 
f 624 621 635 
f 633 624 635 
f 631 633 635 
f 621 625 636 
f 620 612 637 
f 612 624 637 
f 633 620 637 
f 624 633 637 
f 625 630 638 
f 610 632 638 
f 632 616 638 
f 616 636 638 
f 636 625 638 
f 630 610 639 
f 610 638 639 
f 638 630 639 
f 616 631 640 
f 635 621 640 
f 631 635 640 
f 636 616 640 
o convex_30
v 109.457557 -115.312455 32.151929
v 90.437204 -117.041696 28.691641
v 90.437204 -117.618185 34.456417
v 114.070935 -117.618185 28.691641
v 90.437204 -115.312455 36.762486
v 102.539803 -117.618185 35.032342
v 107.150868 -115.312455 28.691641
v 90.437204 -116.465433 28.691641
v 90.437204 -117.618185 36.762486
v 114.070935 -115.312455 28.691641
v 102.539803 -115.312455 35.032342
v 113.492528 -117.618185 30.422575
v 90.437204 -115.312455 34.456417
v 114.070935 -115.312455 29.845860
v 111.188152 -117.618185 28.691641
v 91.591705 -115.312455 36.762486
v 91.591705 -117.618185 36.762486
v 113.492528 -115.312455 30.422575
v 93.319987 -115.889169 30.422575
v 105.422586 -117.618185 33.879703
v 114.070935 -117.618185 29.845860
v 105.422586 -115.312455 33.879703
v 109.457557 -117.618185 32.151929
f 660 652 663 
f 642 643 645 
f 643 644 646 
f 644 642 647 
f 645 641 647 
f 642 645 648 
f 647 642 648 
f 645 643 649 
f 643 646 649 
f 644 647 650 
f 647 641 650 
f 641 645 651 
f 646 644 652 
f 645 647 653 
f 648 645 653 
f 650 641 654 
f 644 650 654 
f 643 642 655 
f 644 643 655 
f 642 644 655 
f 645 649 656 
f 651 645 656 
f 646 651 656 
f 649 646 657 
f 656 649 657 
f 646 656 657 
f 641 652 658 
f 654 641 658 
f 652 654 658 
f 647 648 659 
f 653 647 659 
f 648 653 659 
f 651 646 660 
f 646 652 660 
f 652 644 661 
f 644 654 661 
f 654 652 661 
f 641 651 662 
f 660 641 662 
f 651 660 662 
f 652 641 663 
f 641 660 663 
o convex_31
v 111.191256 -111.276637 22.926188
v 112.343782 -105.511184 27.538550
v 111.767181 -105.511184 27.538550
v 112.343782 -105.511184 22.926188
v 114.073249 -108.393911 25.808914
v 111.190579 -111.276637 27.538550
v 110.614316 -106.087955 24.079730
v 114.073249 -106.087955 24.079730
v 111.767858 -111.276637 22.926188
v 111.767181 -111.276637 27.538550
v 110.614316 -108.393911 25.808914
v 114.073249 -108.393911 24.079730
v 110.614316 -106.087955 25.808914
v 114.073249 -106.087955 25.808914
v 111.767858 -105.511184 22.926188
v 111.190579 -107.241497 27.538550
v 110.614316 -108.393911 24.079730
v 111.191256 -107.817704 22.926188
v 112.343782 -107.817704 27.538550
v 112.343782 -108.393911 22.926188
v 111.767858 -111.276637 25.808914
v 111.190579 -111.276637 25.808914
v 111.767181 -105.511184 25.808914
f 678 670 686 
f 666 665 667 
f 665 666 669 
f 667 665 671 
f 664 667 672 
f 669 664 672 
f 669 672 673 
f 665 669 673 
f 667 671 675 
f 671 668 675 
f 668 672 675 
f 666 670 676 
f 674 669 676 
f 670 674 676 
f 665 668 677 
f 671 665 677 
f 668 671 677 
f 666 667 678 
f 667 664 678 
f 669 666 679 
f 666 676 679 
f 676 669 679 
f 670 664 680 
f 669 674 680 
f 674 670 680 
f 664 670 681 
f 678 664 681 
f 670 678 681 
f 668 665 682 
f 665 673 682 
f 673 668 682 
f 672 667 683 
f 667 675 683 
f 675 672 683 
f 672 668 684 
f 673 672 684 
f 668 673 684 
f 664 669 685 
f 680 664 685 
f 669 680 685 
f 670 666 686 
f 666 678 686 
o convex_32
v 69.679258 -108.393911 -0.135626
v 70.832349 -91.099244 7.936009
v 70.255803 -91.099244 7.936009
v 70.832349 -91.099244 -0.135626
v 70.832349 -104.356344 7.358448
v 69.679258 -108.393911 7.936009
v 70.832349 -107.237660 -0.135626
v 70.255803 -91.099244 -0.135626
v 69.679258 -103.203479 7.936009
v 70.255803 -108.393911 7.936009
v 69.679258 -106.662074 -0.135626
v 70.255803 -108.393911 -0.135626
v 70.832349 -103.779065 7.936009
v 70.832349 -107.237660 1.594687
v 69.679258 -103.203479 6.782467
v 69.679258 -103.779065 5.629714
v 70.832349 -106.662074 2.747439
v 69.679258 -106.084795 1.017916
f 702 694 704 
f 689 688 690 
f 690 688 691 
f 688 689 692 
f 687 690 693 
f 690 691 693 
f 689 690 694 
f 690 687 694 
f 687 692 695 
f 692 689 695 
f 689 694 695 
f 688 692 696 
f 692 687 696 
f 694 687 697 
f 687 695 697 
f 687 693 698 
f 696 687 698 
f 693 696 698 
f 691 688 699 
f 688 696 699 
f 696 691 699 
f 693 691 700 
f 696 693 700 
f 695 694 701 
f 697 695 701 
f 697 701 702 
f 701 694 702 
f 691 696 703 
f 700 691 703 
f 696 700 703 
f 694 697 704 
f 697 702 704 
o convex_33
v 69.679653 -108.393911 7.936009
v 70.832179 -91.099244 22.926188
v 71.408894 -92.253801 18.888113
v 69.103164 -91.676522 7.936009
v 69.679653 -106.084795 22.926188
v 71.408894 -104.931930 7.936009
v 70.832179 -108.393911 22.926188
v 71.408894 -91.676522 7.936009
v 69.103164 -92.253801 18.888113
v 69.103164 -104.931930 18.888113
v 69.103164 -104.931930 7.936009
v 71.408894 -104.931930 18.888113
v 69.679653 -95.712396 22.926188
v 69.679653 -108.393911 18.888113
v 70.255916 -108.393911 7.936009
v 70.255916 -91.099244 7.936009
v 70.255916 -91.099244 22.926188
v 70.832179 -108.393911 17.159605
v 69.103164 -91.676522 17.736264
v 70.255916 -108.393911 22.926188
v 70.832179 -91.099244 7.936009
v 71.408894 -91.676522 17.736264
f 712 706 726 
f 705 708 710 
f 707 706 711 
f 706 709 711 
f 707 710 712 
f 710 708 712 
f 709 713 714 
f 713 708 714 
f 714 708 715 
f 708 705 715 
f 705 714 715 
f 710 707 716 
f 707 711 716 
f 711 710 716 
f 709 706 717 
f 713 709 717 
f 705 711 718 
f 709 714 718 
f 714 705 718 
f 705 710 719 
f 711 705 719 
f 712 708 720 
f 717 706 721 
f 713 717 721 
f 706 720 721 
f 720 708 721 
f 710 711 722 
f 719 710 722 
f 711 719 722 
f 708 713 723 
f 721 708 723 
f 713 721 723 
f 711 709 724 
f 718 711 724 
f 709 718 724 
f 706 712 725 
f 720 706 725 
f 712 720 725 
f 706 707 726 
f 707 712 726 
o convex_34
v 70.832744 -91.095462 -0.132804
v 72.561985 -69.765373 16.007643
v 71.409007 -69.765373 16.007643
v 71.409007 -69.765373 -0.132804
v 70.256255 -91.095462 16.007643
v 70.256255 -76.110532 -0.712171
v 71.985270 -87.059532 -0.712171
v 71.985270 -87.059532 16.007643
v 72.561985 -69.765373 1.019383
v 70.256255 -76.110532 16.007643
v 70.256255 -91.095462 -0.132804
v 70.832744 -71.498338 1.597114
v 71.409007 -90.517111 0.443290
v 70.832744 -91.095462 16.007643
v 71.985270 -76.110532 -0.712171
v 70.256255 -87.059532 -0.712171
v 72.561985 -70.345812 16.007643
v 72.561985 -70.345812 1.019383
v 71.985270 -69.765373 -0.132804
v 70.832744 -71.498338 2.749302
v 70.832744 -72.074601 -0.132804
v 71.409007 -90.517111 -0.132804
f 733 739 748 
f 729 728 730 
f 728 729 731 
f 728 731 734 
f 730 728 735 
f 731 729 736 
f 732 731 736 
f 727 731 737 
f 731 732 737 
f 733 727 737 
f 729 730 738 
f 732 736 738 
f 733 734 739 
f 739 734 740 
f 731 727 740 
f 734 731 740 
f 727 739 740 
f 732 730 741 
f 733 732 741 
f 735 733 741 
f 732 733 742 
f 737 732 742 
f 733 737 742 
f 728 734 743 
f 734 733 743 
f 735 728 743 
f 735 743 744 
f 733 735 744 
f 743 733 744 
f 730 735 745 
f 741 730 745 
f 735 741 745 
f 736 729 746 
f 729 738 746 
f 738 736 746 
f 730 732 747 
f 738 730 747 
f 732 738 747 
f 727 733 748 
f 739 727 748 
o convex_35
v 79.481488 -65.729330 2.747326
v 86.398113 -65.729330 18.890370
v 86.398113 -66.305932 18.890370
v 76.597802 -65.729330 18.890370
v 82.362296 -64.576634 -0.135626
v 86.398113 -65.729330 -0.135626
v 76.597802 -64.576634 8.515094
v 76.597802 -65.153236 -0.135626
v 78.328397 -66.305932 17.733837
v 85.821568 -66.305932 6.207614
v 78.904943 -65.153236 18.890370
v 86.398113 -65.153236 7.937758
v 76.597802 -64.576634 -0.135626
v 76.597802 -65.729330 7.360423
v 86.398113 -65.153236 -0.135626
v 81.785751 -65.729330 -0.135626
v 76.597802 -65.153236 18.890370
v 77.751852 -64.576634 7.937758
v 78.328397 -66.305932 18.890370
v 80.058033 -65.153236 17.733837
v 86.398113 -66.305932 6.207614
v 82.362296 -64.576634 1.019045
v 80.058033 -66.305932 14.852747
v 77.175307 -65.729330 6.207614
v 80.634579 -65.729330 1.019045
v 77.175307 -64.576634 8.515094
v 83.515387 -66.305932 9.662315
f 773 758 775 
f 751 750 752 
f 750 751 754 
f 753 754 756 
f 752 755 756 
f 751 757 758 
f 752 750 759 
f 750 754 760 
f 755 753 761 
f 753 756 761 
f 756 755 761 
f 752 756 762 
f 757 752 762 
f 754 753 763 
f 760 754 763 
f 753 760 763 
f 756 754 764 
f 754 758 764 
f 755 752 765 
f 752 759 765 
f 759 755 765 
f 753 755 766 
f 751 752 767 
f 757 751 767 
f 752 757 767 
f 759 750 768 
f 750 760 768 
f 766 759 768 
f 754 751 769 
f 758 754 769 
f 751 758 769 
f 760 753 770 
f 753 766 770 
f 768 760 770 
f 766 768 770 
f 758 757 771 
f 756 749 772 
f 762 756 772 
f 757 762 772 
f 771 757 772 
f 749 756 773 
f 756 764 773 
f 764 758 773 
f 755 759 774 
f 766 755 774 
f 759 766 774 
f 758 771 775 
f 772 749 775 
f 771 772 775 
f 749 773 775 
o convex_36
v 69.102713 -88.211776 16.585318
v 72.561646 -69.765373 22.926188
v 71.985326 -69.765373 22.926188
v 70.832349 -91.097550 22.926188
v 71.985326 -87.059137 16.007643
v 71.408668 -69.765373 16.007643
v 69.102713 -75.534833 18.890596
v 72.561646 -69.765373 16.007643
v 70.256029 -84.175451 22.926188
v 70.256029 -91.097550 16.007643
v 71.985326 -88.211776 18.890596
v 69.102713 -75.534833 16.585318
v 69.102713 -88.211776 18.890596
v 71.408668 -70.343781 22.926188
v 70.256029 -91.097550 22.926188
v 70.832349 -91.097550 16.007643
v 72.561646 -70.920100 22.926188
v 70.256029 -76.111153 16.007643
v 71.408668 -69.765373 21.772871
v 70.832349 -75.534833 22.926188
v 71.985326 -88.211776 16.585318
v 71.408330 -84.751771 22.926188
v 72.561646 -70.343781 16.007643
v 72.561646 -70.920100 21.195874
f 798 792 799 
f 777 778 779 
f 778 777 781 
f 781 777 783 
f 780 781 783 
f 779 778 784 
f 781 780 785 
f 776 782 787 
f 785 776 787 
f 782 776 788 
f 784 782 788 
f 776 785 788 
f 784 778 789 
f 779 784 790 
f 785 779 790 
f 784 788 790 
f 788 785 790 
f 779 785 791 
f 785 780 791 
f 786 779 791 
f 777 779 792 
f 783 777 792 
f 781 785 793 
f 787 781 793 
f 785 787 793 
f 778 781 794 
f 781 787 794 
f 787 782 794 
f 789 778 794 
f 782 789 794 
f 782 784 795 
f 789 782 795 
f 784 789 795 
f 791 780 796 
f 786 791 796 
f 792 786 796 
f 779 786 797 
f 792 779 797 
f 786 792 797 
f 780 783 798 
f 783 792 798 
f 796 780 798 
f 796 798 799 
f 792 796 799 
o convex_37
v 97.352249 -66.306101 2.171853
v 86.401161 -65.729612 -0.135626
v 86.401161 -65.153123 -0.135626
v 86.401161 -66.306101 18.890370
v 107.731250 -65.153123 18.890370
v 107.731250 -65.153123 -0.135626
v 106.574548 -66.306101 18.890370
v 86.401161 -65.729612 18.890370
v 107.731250 -65.729612 -0.135626
v 89.860828 -66.306101 -0.135626
v 86.401161 -65.153123 6.784950
v 86.401161 -66.306101 5.632141
v 105.422022 -65.153123 18.890370
v 107.731250 -65.729612 18.890370
v 95.625548 -66.306101 -0.135626
v 106.574548 -66.306101 18.311172
v 86.979512 -66.306101 4.477470
v 96.201811 -66.306101 0.443572
f 814 808 817 
f 802 801 803 
f 802 804 805 
f 801 802 805 
f 803 800 806 
f 804 803 806 
f 802 803 807 
f 803 804 807 
f 805 804 808 
f 801 805 808 
f 800 803 809 
f 801 808 809 
f 804 802 810 
f 802 807 810 
f 803 801 811 
f 809 803 811 
f 807 804 812 
f 804 810 812 
f 810 807 812 
f 804 806 813 
f 808 804 813 
f 806 808 813 
f 800 809 814 
f 809 808 814 
f 806 800 815 
f 800 808 815 
f 808 806 815 
f 801 809 816 
f 811 801 816 
f 809 811 816 
f 808 800 817 
f 800 814 817 
o convex_38
v 111.190522 -76.107146 24.080068
v 112.343782 -70.918464 27.538550
v 111.767293 -70.918464 27.538550
v 112.919989 -70.918464 22.926639
v 114.073249 -76.107146 26.385121
v 112.343782 -76.683917 27.538550
v 112.919989 -76.683917 22.926639
v 111.767293 -70.918464 23.503579
v 114.073249 -73.801190 24.080068
v 111.190522 -73.801190 26.385121
v 114.073249 -73.801190 26.385121
v 111.190522 -76.107146 26.385121
v 112.343782 -76.683917 22.926639
v 112.919989 -76.683917 27.538550
v 114.073249 -76.107146 24.080068
v 112.919989 -70.918464 25.232595
v 111.190522 -73.801190 24.080068
v 112.919989 -72.648777 27.538550
v 112.343782 -70.918464 22.926639
v 111.767293 -73.801190 27.538550
f 820 829 837 
f 820 819 821 
f 819 820 823 
f 820 821 825 
f 824 821 826 
f 820 825 827 
f 826 821 828 
f 822 826 828 
f 818 823 829 
f 827 818 829 
f 820 827 829 
f 823 818 830 
f 821 824 830 
f 824 823 830 
f 819 823 831 
f 824 822 831 
f 823 824 831 
f 822 828 831 
f 822 824 832 
f 826 822 832 
f 824 826 832 
f 821 819 833 
f 819 828 833 
f 828 821 833 
f 818 827 834 
f 827 825 834 
f 830 818 834 
f 828 819 835 
f 819 831 835 
f 831 828 835 
f 825 821 836 
f 821 830 836 
f 834 825 836 
f 830 834 836 
f 823 820 837 
f 829 823 837 
o convex_39
v 69.679258 -105.511184 22.926188
v 70.832349 -87.061733 28.115096
v 70.832349 -87.061733 25.808632
v 70.832349 -105.511184 28.115096
v 69.679258 -93.982083 28.115096
v 70.832349 -105.511184 22.926188
v 69.679258 -95.136077 22.926188
v 69.679258 -103.203197 28.115096
v 70.832349 -93.404183 22.926188
v 70.255803 -87.061733 25.808632
v 70.255803 -87.061733 28.115096
v 70.255803 -105.511184 28.115096
v 69.679258 -93.404183 26.384613
v 70.255803 -93.404183 22.926188
v 69.679258 -105.511184 24.079673
v 69.679258 -93.404183 27.537591
f 848 850 853 
f 840 839 841 
f 841 839 842 
f 840 841 843 
f 841 838 843 
f 838 842 844 
f 843 838 844 
f 842 838 845 
f 841 842 845 
f 840 843 846 
f 843 844 846 
f 839 840 847 
f 840 846 847 
f 842 839 848 
f 839 847 848 
f 838 841 849 
f 841 845 849 
f 844 842 850 
f 847 844 850 
f 848 847 850 
f 846 844 851 
f 844 847 851 
f 847 846 851 
f 845 838 852 
f 838 849 852 
f 849 845 852 
f 842 848 853 
f 850 842 853 
o convex_40
v 112.919989 -99.171104 27.538550
v 111.190522 -111.274944 27.538550
v 111.190522 -111.274944 28.691641
v 114.073249 -118.769808 28.691528
v 114.073249 -99.171104 28.691641
v 114.073249 -118.769808 28.115096
v 111.767293 -101.475592 28.691641
v 112.919989 -118.769808 28.115096
v 114.073249 -99.171104 28.115096
v 111.767293 -101.475592 27.538550
v 111.190522 -106.664049 28.115096
v 112.343782 -99.171104 28.691641
v 112.919989 -118.769808 28.691528
v 112.343782 -107.817252 27.538550
v 111.190522 -106.664049 28.691641
v 112.343782 -99.171104 27.538550
v 111.190522 -107.241610 27.538550
v 111.767293 -111.274944 27.538550
v 112.919989 -102.055072 27.538550
v 114.073249 -111.274944 28.691641
f 858 856 873 
f 858 857 859 
f 856 858 860 
f 856 855 861 
f 855 859 861 
f 859 857 861 
f 854 858 862 
f 859 854 862 
f 858 859 862 
f 854 855 863 
f 860 863 864 
f 855 856 864 
f 858 854 865 
f 860 858 865 
f 863 860 865 
f 857 856 866 
f 856 861 866 
f 861 857 866 
f 855 854 867 
f 856 860 868 
f 860 864 868 
f 864 856 868 
f 854 863 869 
f 865 854 869 
f 863 865 869 
f 863 855 870 
f 864 863 870 
f 855 864 870 
f 859 855 871 
f 855 867 871 
f 867 859 871 
f 854 859 872 
f 867 854 872 
f 859 867 872 
f 856 857 873 
f 857 858 873 
o convex_41
v 71.408894 -90.520779 25.808914
v 67.373472 -92.827017 23.502959
v 70.255465 -93.403732 22.926188
v 70.255465 -87.061733 22.926188
v 67.373472 -90.520779 25.808914
v 70.831784 -93.403732 25.808914
v 70.255465 -87.061733 25.808914
v 71.408894 -92.827017 23.502959
v 67.373472 -92.827017 25.808914
v 70.831784 -87.061733 22.926188
v 67.373472 -90.520779 23.502959
v 70.831784 -87.061733 25.808914
v 71.408894 -92.827017 25.808914
v 71.408894 -90.520779 23.502959
v 70.831784 -93.403732 22.926188
v 70.255465 -93.403732 25.808914
f 879 882 889 
f 876 875 877 
f 874 878 879 
f 878 874 880 
f 877 878 880 
f 875 876 882 
f 878 875 882 
f 879 878 882 
f 876 877 883 
f 877 880 883 
f 877 875 884 
f 878 877 884 
f 875 878 884 
f 880 874 885 
f 874 883 885 
f 883 880 885 
f 874 879 886 
f 881 874 886 
f 879 881 886 
f 874 881 887 
f 883 874 887 
f 881 883 887 
f 879 876 888 
f 881 879 888 
f 876 883 888 
f 883 881 888 
f 876 879 889 
f 882 876 889 
o convex_42
v 70.832179 -111.853183 22.926188
v 70.831784 -105.512143 28.115096
v 71.408894 -106.088206 25.808632
v 67.373472 -106.088206 24.079673
v 70.832179 -111.853183 28.115096
v 70.831784 -105.512143 22.926188
v 67.373472 -108.393700 25.808632
v 71.408499 -111.853183 22.926188
v 71.408499 -111.853183 28.115096
v 70.255070 -105.512143 28.115096
v 67.373472 -108.393700 24.079673
v 67.373472 -106.088206 25.808632
v 70.255465 -111.275878 28.115096
v 70.255070 -105.512143 22.926188
v 71.408894 -106.088206 24.079673
v 70.255465 -111.275878 22.926188
v 71.408499 -110.699815 28.115096
v 71.408499 -110.699815 22.926188
v 71.408894 -108.393700 24.079673
v 70.255070 -108.970384 28.115096
v 70.255070 -108.970384 22.926188
v 71.408894 -108.393700 25.808632
f 898 908 911 
f 891 892 895 
f 890 894 896 
f 894 890 897 
f 890 895 897 
f 891 894 898 
f 894 897 898 
f 894 891 899 
f 891 895 899 
f 896 893 900 
f 890 896 900 
f 893 896 901 
f 899 893 901 
f 896 894 902 
f 894 899 902 
f 895 890 903 
f 899 895 903 
f 893 899 903 
f 900 893 903 
f 895 892 904 
f 890 900 905 
f 903 890 905 
f 892 891 906 
f 898 892 906 
f 891 898 906 
f 897 895 907 
f 895 904 907 
f 904 897 907 
f 898 897 908 
f 904 892 908 
f 897 904 908 
f 901 896 909 
f 899 901 909 
f 896 902 909 
f 902 899 909 
f 900 903 910 
f 905 900 910 
f 903 905 910 
f 892 898 911 
f 908 892 911 
o convex_43
v 90.433818 -116.465658 31.574029
v 77.750893 -117.618636 22.926188
v 77.750893 -117.618636 28.114385
v 86.972581 -117.618636 22.926188
v 86.396536 -116.465658 22.926188
v 83.517552 -116.465658 31.574029
v 84.093597 -117.618636 31.574029
v 77.750893 -117.042147 22.926188
v 90.432576 -117.042147 22.926188
v 90.433818 -117.042147 31.574029
v 79.482753 -117.042147 31.574029
v 90.432576 -116.465658 22.926188
v 77.750893 -117.042147 28.114385
v 79.482753 -117.618636 31.574029
v 86.972581 -117.618636 24.657280
v 84.667159 -116.465658 26.962298
v 84.669642 -117.618636 30.996716
v 83.517552 -116.465658 30.420250
v 85.243204 -116.465658 25.232899
v 90.433818 -117.042147 28.114385
v 90.433818 -116.465658 28.114385
f 912 931 932 
f 914 913 915 
f 915 913 916 
f 912 916 917 
f 914 915 918 
f 912 917 918 
f 913 914 919 
f 916 913 919 
f 915 916 920 
f 912 918 921 
f 918 917 922 
f 916 912 923 
f 920 916 923 
f 919 914 924 
f 917 919 924 
f 914 922 924 
f 922 917 924 
f 914 918 925 
f 922 914 925 
f 918 922 925 
f 918 915 926 
f 915 921 926 
f 917 916 927 
f 921 918 928 
f 918 926 928 
f 926 921 928 
f 919 917 929 
f 917 927 929 
f 927 919 929 
f 916 919 930 
f 927 916 930 
f 919 927 930 
f 915 920 931 
f 921 915 931 
f 912 921 931 
f 920 923 931 
f 931 923 932 
f 923 912 932 
o convex_44
v 112.343726 -105.511184 22.926639
v 112.919933 -89.944460 27.538550
v 112.343952 -89.944460 27.538550
v 112.919933 -89.944460 22.926639
v 114.072572 -92.828936 25.808632
v 112.343726 -105.511184 27.538550
v 111.767068 -90.523488 23.503579
v 111.767293 -105.511184 27.538550
v 114.072572 -90.523488 23.503579
v 111.767293 -105.511184 22.926639
v 112.920158 -103.204212 22.926639
v 112.920158 -102.628232 27.538550
v 111.767068 -90.523488 25.808632
v 112.343952 -89.944460 22.926639
v 114.072572 -90.523488 25.808632
v 114.072572 -92.828936 23.503579
v 111.767293 -101.474746 27.538550
v 111.767293 -102.050727 22.926639
v 112.920158 -103.204212 23.503579
v 111.767068 -92.828936 23.503579
v 112.920158 -99.167774 27.538550
v 111.767068 -92.828936 25.808632
v 112.920158 -99.167774 22.926639
f 941 943 955 
f 935 934 936 
f 934 935 938 
f 933 938 940 
f 938 935 940 
f 936 934 941 
f 936 933 942 
f 933 940 942 
f 933 936 943 
f 938 933 943 
f 934 938 944 
f 935 939 945 
f 935 936 946 
f 939 935 946 
f 936 942 946 
f 941 934 947 
f 937 941 947 
f 944 937 947 
f 941 937 948 
f 937 943 948 
f 943 941 948 
f 940 935 949 
f 935 945 949 
f 945 940 949 
f 942 939 950 
f 939 946 950 
f 946 942 950 
f 943 937 951 
f 938 943 951 
f 937 944 951 
f 944 938 951 
f 939 942 952 
f 942 940 952 
f 945 939 952 
f 934 944 953 
f 947 934 953 
f 944 947 953 
f 940 945 954 
f 952 940 954 
f 945 952 954 
f 936 941 955 
f 943 936 955 
o convex_45
v 112.918691 -66.882985 30.997145
v 108.308473 -67.459530 27.538550
v 106.578160 -70.341580 30.997145
v 114.648158 -70.341580 28.115998
v 106.578160 -66.882985 32.726950
v 108.308473 -70.341580 32.726950
v 115.226340 -66.882985 28.115998
v 114.072515 -70.341580 30.420713
v 111.189224 -70.341580 27.538550
v 108.308473 -66.882985 27.538550
v 115.226340 -66.882985 29.845296
v 106.578160 -66.882985 30.997145
v 106.578160 -70.341580 32.726950
v 108.308473 -66.882985 32.726950
v 112.343049 -69.765034 27.538550
v 115.226340 -68.036075 29.845296
v 110.037940 -69.188489 32.150010
v 114.648158 -70.341580 29.845296
v 109.461451 -66.882985 27.538550
v 112.918691 -70.341580 30.997145
v 115.226340 -68.036075 28.115998
v 110.037940 -66.882985 32.150010
v 112.343049 -70.341580 27.538550
v 110.615275 -68.036075 27.538550
f 970 974 979 
f 958 959 961 
f 960 956 962 
f 961 959 963 
f 958 957 964 
f 959 958 964 
f 957 958 965 
f 960 962 965 
f 964 957 965 
f 962 956 966 
f 958 960 967 
f 965 958 967 
f 960 965 967 
f 960 958 968 
f 958 961 968 
f 961 960 968 
f 956 960 969 
f 960 961 969 
f 964 965 970 
f 962 966 971 
f 969 961 972 
f 963 959 973 
f 959 971 973 
f 971 963 973 
f 965 962 974 
f 970 965 974 
f 961 963 975 
f 966 956 975 
f 963 971 975 
f 971 966 975 
f 972 961 975 
f 956 972 975 
f 970 962 976 
f 971 959 976 
f 962 971 976 
f 956 969 977 
f 972 956 977 
f 969 972 977 
f 959 964 978 
f 964 970 978 
f 976 959 978 
f 970 976 978 
f 962 970 979 
f 974 962 979 
o convex_46
v 107.152617 -65.153179 33.302537
v 90.434890 -66.305932 27.540356
v 90.434890 -66.882477 32.726499
v 115.226340 -66.882477 28.116394
v 115.226340 -65.153179 28.116394
v 90.434890 -65.153179 36.763276
v 102.544261 -66.882477 35.032455
v 90.434890 -65.729725 27.540356
v 90.434890 -66.882477 36.763276
v 115.226340 -66.882477 29.846312
v 107.727751 -66.882477 27.540356
v 90.434890 -65.153179 34.455514
v 115.226340 -65.153179 29.846312
v 102.544261 -65.153179 35.032455
v 108.305312 -65.729725 27.540356
v 91.590012 -65.153179 36.763276
v 112.918522 -66.882477 30.999290
v 113.493656 -65.153179 28.116394
v 91.590012 -66.882477 36.763276
v 112.918522 -65.153179 30.999290
v 108.882874 -66.882477 27.540356
v 107.152617 -66.882477 33.302537
v 108.882874 -66.305932 27.540356
f 1000 994 1002 
f 981 982 985 
f 980 984 985 
f 982 983 986 
f 981 985 987 
f 985 982 988 
f 982 986 988 
f 983 984 989 
f 986 983 989 
f 982 981 990 
f 983 982 990 
f 981 987 990 
f 985 984 991 
f 987 985 991 
f 984 980 992 
f 989 984 992 
f 980 985 993 
f 986 980 993 
f 987 984 994 
f 990 987 994 
f 985 988 995 
f 993 985 995 
f 986 993 995 
f 986 989 996 
f 989 992 996 
f 984 987 997 
f 991 984 997 
f 987 991 997 
f 988 986 998 
f 995 988 998 
f 986 995 998 
f 992 980 999 
f 980 996 999 
f 996 992 999 
f 984 983 1000 
f 983 990 1000 
f 990 994 1000 
f 980 986 1001 
f 996 980 1001 
f 986 996 1001 
f 994 984 1002 
f 984 1000 1002 
o convex_47
v 107.731250 -65.729556 27.538099
v 76.597802 -66.306044 22.926188
v 76.597802 -65.729556 22.926188
v 76.597802 -65.729556 28.115096
v 90.436583 -66.306044 28.115096
v 107.731250 -66.306044 22.926695
v 107.731250 -65.729556 22.926695
v 107.731250 -66.306044 27.538099
v 76.597802 -66.306044 28.115096
v 90.436583 -65.729556 28.115096
v 90.436583 -66.306044 22.926188
v 90.436583 -65.729556 22.926188
f 1013 1005 1014 
f 1005 1004 1006 
f 1003 1005 1006 
f 1007 1004 1008 
f 1005 1003 1009 
f 1003 1008 1009 
f 1003 1007 1010 
f 1007 1008 1010 
f 1008 1003 1010 
f 1006 1004 1011 
f 1007 1006 1011 
f 1004 1007 1011 
f 1003 1006 1012 
f 1007 1003 1012 
f 1006 1007 1012 
f 1004 1005 1013 
f 1008 1004 1013 
f 1009 1008 1013 
f 1009 1013 1014 
f 1005 1009 1014 
o convex_48
v 86.396759 -66.882646 36.186730
v 67.375334 -70.918069 28.115096
v 67.375334 -70.918069 29.846199
v 90.434890 -70.918069 34.455627
v 76.024925 -66.882646 28.115096
v 67.375334 -66.882646 29.846199
v 79.478441 -70.918069 35.033188
v 90.434890 -66.882646 34.455627
v 72.564637 -70.918069 28.115096
v 90.434890 -70.918069 36.186730
v 77.753940 -66.882646 34.455627
v 67.375334 -66.882646 28.115096
v 90.434890 -66.882646 36.186730
v 70.835622 -70.918069 31.574932
v 86.396759 -70.918069 36.186730
v 76.024925 -67.459756 28.115096
v 79.478441 -66.882646 35.033188
v 70.835622 -66.882646 31.574932
v 77.753940 -70.918069 34.455627
v 73.142480 -70.341354 28.115096
f 1023 1030 1034 
f 1017 1016 1018 
f 1016 1017 1020 
f 1015 1019 1020 
f 1017 1018 1021 
f 1019 1015 1022 
f 1018 1019 1022 
f 1018 1016 1023 
f 1016 1019 1023 
f 1021 1018 1024 
f 1018 1022 1024 
f 1015 1020 1025 
f 1019 1016 1026 
f 1016 1020 1026 
f 1020 1019 1026 
f 1022 1015 1027 
f 1015 1024 1027 
f 1024 1022 1027 
f 1020 1017 1028 
f 1017 1021 1028 
f 1015 1021 1029 
f 1021 1024 1029 
f 1024 1015 1029 
f 1019 1018 1030 
f 1023 1019 1030 
f 1021 1015 1031 
f 1015 1025 1031 
f 1025 1021 1031 
f 1025 1020 1032 
f 1020 1028 1032 
f 1028 1025 1032 
f 1021 1025 1033 
f 1028 1021 1033 
f 1025 1028 1033 
f 1018 1023 1034 
f 1030 1018 1034 
o convex_49
v 82.936471 -65.729556 35.609169
v 67.375334 -66.882646 28.115096
v 67.375334 -66.882646 29.846199
v 90.434890 -66.882646 36.186730
v 90.434890 -65.729556 28.115096
v 67.375334 -65.729556 28.115096
v 90.434890 -66.306101 28.115096
v 90.434890 -65.729556 36.186730
v 79.478441 -66.882646 35.033188
v 70.835622 -65.729556 31.574932
v 76.600511 -66.882646 28.115096
v 90.434890 -66.882646 33.303665
v 79.478441 -65.729556 35.033188
v 86.972345 -66.882646 36.186730
v 67.375334 -65.729556 29.846199
v 70.835622 -66.882646 31.574932
v 86.972345 -65.729556 36.186730
v 77.753940 -65.729556 34.455627
v 77.753940 -66.882646 34.455627
v 82.936471 -66.882646 35.609169
f 1043 1048 1054 
f 1037 1036 1038 
f 1039 1036 1040 
f 1036 1037 1040 
f 1035 1039 1040 
f 1039 1038 1041 
f 1036 1039 1041 
f 1039 1035 1042 
f 1038 1039 1042 
f 1037 1038 1043 
f 1035 1040 1044 
f 1038 1036 1045 
f 1036 1041 1045 
f 1045 1041 1046 
f 1041 1038 1046 
f 1038 1045 1046 
f 1043 1035 1047 
f 1035 1044 1047 
f 1038 1042 1048 
f 1043 1038 1048 
f 1040 1037 1049 
f 1044 1040 1049 
f 1037 1044 1049 
f 1037 1043 1050 
f 1044 1037 1050 
f 1042 1035 1051 
f 1035 1048 1051 
f 1048 1042 1051 
f 1043 1047 1052 
f 1047 1044 1052 
f 1044 1050 1052 
f 1052 1050 1053 
f 1050 1043 1053 
f 1043 1052 1053 
f 1035 1043 1054 
f 1048 1035 1054 
