v -0.192474365234375 -10.431031584739685 30.061243057250977
v -0.192474365234375 -10.431031584739685 80.32325172424316
v -10.132118225097656 -10.431030631065369 65.74699592590332
v -10.132118225097656 -10.431030631065369 65.74699592590332
v -10.132118225097656 -10.431031584739685 30.061243057250977
v -0.192474365234375 -10.431031584739685 30.061243057250977
v 9.747169494628906 -10.431031584739685 30.061243057250977
v 9.747169494628906 11.134169220924377 30.061243057250977
v 9.747169494628906 11.134170174598694 65.74699592590332
v 9.747169494628906 11.134170174598694 65.74699592590332
v 9.747169494628906 -10.431030631065369 65.74699592590332
v 9.747169494628906 -10.431031584739685 30.061243057250977
v -0.192474365234375 11.134169220924377 30.061243057250977
v -0.192474365234375 11.134169220924377 80.32325172424316
v 9.747169494628906 11.134170174598694 65.74699592590332
v 9.747169494628906 11.134170174598694 65.74699592590332
v 9.747169494628906 11.134169220924377 30.061243057250977
v -0.192474365234375 11.134169220924377 30.061243057250977
v -10.132118225097656 11.134169220924377 30.061243057250977
v -10.132118225097656 -10.431031584739685 30.061243057250977
v -10.132118225097656 -10.431030631065369 65.74699592590332
v -10.132118225097656 -10.431030631065369 65.74699592590332
v -10.132118225097656 11.134170174598694 65.74699592590332
v -10.132118225097656 11.134169220924377 30.061243057250977
v 9.747169494628906 -10.431031584739685 30.061243057250977
v 9.747169494628906 -10.431030631065369 65.74699592590332
v -0.192474365234375 -10.431031584739685 80.32325172424316
v -0.192474365234375 -10.431031584739685 80.32325172424316
v -0.192474365234375 -10.431031584739685 30.061243057250977
v 9.747169494628906 -10.431031584739685 30.061243057250977
v -10.132118225097656 11.134169220924377 30.061243057250977
v -10.132118225097656 11.134170174598694 65.74699592590332
v -0.192474365234375 11.134169220924377 80.32325172424316
v -0.192474365234375 11.134169220924377 80.32325172424316
v -0.192474365234375 11.134169220924377 30.061243057250977
v -10.132118225097656 11.134169220924377 30.061243057250977
v -0.19247445142556785 -12.402856230735779 81.61083030700684
v -0.19247429580858721 12.722446084022522 81.61083030700684
v -12.36101245880127 12.722448945045471 63.56509971618652
v -12.36101245880127 12.722448945045471 63.56509971618652
v -12.36101245880127 -12.402854323387146 63.56509971618652
v -0.19247445142556785 -12.402856230735779 81.61083030700684
v 12.091211318969727 -12.402854323387146 63.45733833312988
v 12.091211318969727 12.722447037696838 63.45733833312988
v -0.19247429580858721 12.722446084022522 81.61083030700684
v -0.19247429580858721 12.722446084022522 81.61083030700684
v -0.19247445142556785 -12.402856230735779 81.61083030700684
v 12.091211318969727 -12.402854323387146 63.45733833312988
v -0.19247445142556785 -12.402856230735779 81.61083030700684
v -12.36101245880127 -12.402854323387146 63.56509971618652
v -12.36101245880127 -12.40285336971283 62.4201717376709
v -12.36101245880127 -12.40285336971283 62.4201717376709
v -0.19247445464134216 -12.402856230735779 80.46590232849121
v -0.19247445142556785 -12.402856230735779 81.61083030700684
v -12.36101245880127 12.722448945045471 63.56509971618652
v -0.19247429580858721 12.722446084022522 81.61083030700684
v -0.19247429072856903 12.722446084022522 80.46590232849121
v -0.19247429072856903 12.722446084022522 80.46590232849121
v -12.36101245880127 12.722449898719788 62.4201717376709
v -12.36101245880127 12.722448945045471 63.56509971618652
v -12.36101245880127 -12.402854323387146 63.56509971618652
v -12.36101245880127 12.722448945045471 63.56509971618652
v -12.36101245880127 12.722449898719788 62.4201717376709
v -12.36101245880127 12.722449898719788 62.4201717376709
v -12.36101245880127 -12.40285336971283 62.4201717376709
v -12.36101245880127 -12.402854323387146 63.56509971618652
v 12.091211318969727 -12.402854323387146 63.45733833312988
v -0.19247445142556785 -12.402856230735779 81.61083030700684
v -0.19247445464134216 -12.402856230735779 80.46590232849121
v -0.19247445464134216 -12.402856230735779 80.46590232849121
v 12.091211318969727 -12.402854323387146 62.31241035461426
v 12.091211318969727 -12.402854323387146 63.45733833312988
v 12.091211318969727 12.722447037696838 63.45733833312988
v 12.091211318969727 -12.402854323387146 63.45733833312988
v 12.091211318969727 -12.402854323387146 62.31241035461426
v 12.091211318969727 -12.402854323387146 62.31241035461426
v 12.091211318969727 12.722447037696838 62.31241035461426
v 12.091211318969727 12.722447037696838 63.45733833312988
v -0.19247429580858721 12.722446084022522 81.61083030700684
v 12.091211318969727 12.722447037696838 63.45733833312988
v 12.091211318969727 12.722447037696838 62.31241035461426
v 12.091211318969727 12.722447037696838 62.31241035461426
v -0.19247429072856903 12.722446084022522 80.46590232849121
v -0.19247429580858721 12.722446084022522 81.61083030700684
v 12.091211318969727 12.722447037696838 62.31241035461426
v 12.091211318969727 -12.402854323387146 62.31241035461426
v -0.19247445464134216 -12.402856230735779 80.46590232849121
v -0.19247445464134216 -12.402856230735779 80.46590232849121
v -0.19247429072856903 12.722446084022522 80.46590232849121
v 12.091211318969727 12.722447037696838 62.31241035461426
v -0.19247429072856903 12.722446084022522 80.46590232849121
v -0.19247445464134216 -12.402856230735779 80.46590232849121
v -12.36101245880127 -12.40285336971283 62.4201717376709
v -12.36101245880127 -12.40285336971283 62.4201717376709
v -12.36101245880127 12.722449898719788 62.4201717376709
v -0.19247429072856903 12.722446084022522 80.46590232849121
v 1.2731947898864746 18.993122696876526 61.54648208618164
v 0.7971028685569763 18.993122696876526 62.53509712219238
v 0.7971028685569763 18.074413895606995 62.53509712219238
v 0.7971028685569763 18.074413895606995 62.53509712219238
v 1.2731947898864746 18.074413895606995 61.54648208618164
v 1.2731947898864746 18.993122696876526 61.54648208618164
v 0.7971028685569763 18.993122696876526 62.53509712219238
v -0.27266570925712585 18.993122696876526 62.77926445007324
v -0.27266570925712585 18.074413895606995 62.77926445007324
v -0.27266570925712585 18.074413895606995 62.77926445007324
v 0.7971028685569763 18.074413895606995 62.53509712219238
v 0.7971028685569763 18.993122696876526 62.53509712219238
v -0.27266570925712585 18.993122696876526 62.77926445007324
v -1.1305535435676575 18.993122696876526 62.09512138366699
v -1.1305535435676575 18.074413895606995 62.09512138366699
v -1.1305535435676575 18.074413895606995 62.09512138366699
v -0.27266570925712585 18.074413895606995 62.77926445007324
v -0.27266570925712585 18.993122696876526 62.77926445007324
v -1.1305535435676575 18.993122696876526 62.09512138366699
v -1.130553424358368 18.993122696876526 60.99784278869629
v -1.130553424358368 18.074413895606995 60.99784278869629
v -1.130553424358368 18.074413895606995 60.99784278869629
v -1.1305535435676575 18.074413895606995 62.09512138366699
v -1.1305535435676575 18.993122696876526 62.09512138366699
v -1.130553424358368 18.993122696876526 60.99784278869629
v -0.27266576886177063 18.993122696876526 60.31369972229004
v -0.27266576886177063 18.074413895606995 60.31369972229004
v -0.27266576886177063 18.074413895606995 60.31369972229004
v -1.130553424358368 18.074413895606995 60.99784278869629
v -1.130553424358368 18.993122696876526 60.99784278869629
v -0.27266576886177063 18.993122696876526 60.31369972229004
v 0.7971028089523315 18.993122696876526 60.5578670501709
v 0.7971028089523315 18.074413895606995 60.5578670501709
v 0.7971028089523315 18.074413895606995 60.5578670501709
v -0.27266576886177063 18.074413895606995 60.31369972229004
v -0.27266576886177063 18.993122696876526 60.31369972229004
v 0.7971028089523315 18.993122696876526 60.5578670501709
v 1.2731947898864746 18.993122696876526 61.54648208618164
v 1.2731947898864746 18.074413895606995 61.54648208618164
v 1.2731947898864746 18.074413895606995 61.54648208618164
v 0.7971028089523315 18.074413895606995 60.5578670501709
v 0.7971028089523315 18.993122696876526 60.5578670501709
v -0.27266576886177063 18.993122696876526 60.31369972229004
v -1.130553424358368 18.993122696876526 60.99784278869629
v -1.1305535435676575 18.993122696876526 62.09512138366699
v -1.1305535435676575 18.993122696876526 62.09512138366699
v -0.27266570925712585 18.993122696876526 62.77926445007324
v 0.7971028685569763 18.993122696876526 62.53509712219238
v -1.1305535435676575 18.993122696876526 62.09512138366699
v 0.7971028685569763 18.993122696876526 62.53509712219238
v 1.2731947898864746 18.993122696876526 61.54648208618164
v -0.27266576886177063 18.993122696876526 60.31369972229004
v -1.1305535435676575 18.993122696876526 62.09512138366699
v 1.2731947898864746 18.993122696876526 61.54648208618164
v 0.7971028089523315 18.993122696876526 60.5578670501709
v -0.27266576886177063 18.993122696876526 60.31369972229004
v 1.2731947898864746 18.993122696876526 61.54648208618164
v 0.7971028685569763 18.074413895606995 62.53509712219238
v -0.27266570925712585 18.074413895606995 62.77926445007324
v -1.1305535435676575 18.074413895606995 62.09512138366699
v -1.1305535435676575 18.074413895606995 62.09512138366699
v -1.130553424358368 18.074413895606995 60.99784278869629
v -0.27266576886177063 18.074413895606995 60.31369972229004
v -1.1305535435676575 18.074413895606995 62.09512138366699
v -0.27266576886177063 18.074413895606995 60.31369972229004
v 0.7971028089523315 18.074413895606995 60.5578670501709
v 0.7971028685569763 18.074413895606995 62.53509712219238
v -1.1305535435676575 18.074413895606995 62.09512138366699
v 0.7971028089523315 18.074413895606995 60.5578670501709
v 1.2731947898864746 18.074413895606995 61.54648208618164
v 0.7971028685569763 18.074413895606995 62.53509712219238
v 0.7971028089523315 18.074413895606995 60.5578670501709
v -0.5452245473861694 19.511229157447815 60.996368408203125
v -0.5452245473861694 19.511229157447815 62.01741409301758
v 0.42208433151245117 19.511229157447815 62.01741409301758
v 0.42208433151245117 19.511229157447815 62.01741409301758
v 0.42208433151245117 19.511229157447815 60.996368408203125
v -0.5452245473861694 19.511229157447815 60.996368408203125
v -0.5452245473861694 19.511229157447815 60.996368408203125
v 0.42208433151245117 19.511229157447815 60.996368408203125
v 0.42208433151245117 10.903701424598694 60.996368408203125
v 0.42208433151245117 10.903701424598694 60.996368408203125
v -0.5452245473861694 10.903701424598694 60.996368408203125
v -0.5452245473861694 19.511229157447815 60.996368408203125
v 0.42208433151245117 19.511229157447815 60.996368408203125
v 0.42208433151245117 19.511229157447815 62.01741409301758
v 0.42208433151245117 10.903701424598694 62.01741409301758
v 0.42208433151245117 10.903701424598694 62.01741409301758
v 0.42208433151245117 10.903701424598694 60.996368408203125
v 0.42208433151245117 19.511229157447815 60.996368408203125
v 0.42208433151245117 19.511229157447815 62.01741409301758
v -0.5452245473861694 19.511229157447815 62.01741409301758
v -0.5452245473861694 10.903701424598694 62.01741409301758
v -0.5452245473861694 10.903701424598694 62.01741409301758
v 0.42208433151245117 10.903701424598694 62.01741409301758
v 0.42208433151245117 19.511229157447815 62.01741409301758
v -0.5452245473861694 19.511229157447815 62.01741409301758
v -0.5452245473861694 19.511229157447815 60.996368408203125
v -0.5452245473861694 10.903701424598694 60.996368408203125
v -0.5452245473861694 10.903701424598694 60.996368408203125
v -0.5452245473861694 10.903701424598694 62.01741409301758
v -0.5452245473861694 19.511229157447815 62.01741409301758
v 11.195109367370605 11.655446648597717 31.67581558227539
v 11.195109367370605 11.655446648597717 33.727787017822266
v 11.199413299560547 10.671210885047913 33.727787017822266
v 11.199413299560547 10.671210885047913 33.727787017822266
v 11.199413299560547 10.671210885047913 31.67581558227539
v 11.195109367370605 11.655446648597717 31.67581558227539
v -10.88580322265625 11.557154297828674 31.675815105438232
v -10.881502151489258 10.572917580604553 31.675815105438232
v -10.881502151489258 10.572917580604553 33.72778654098511
v -10.881502151489258 10.572917580604553 33.72778654098511
v -10.88580322265625 11.557154297828674 33.72778654098511
v -10.88580322265625 11.557154297828674 31.675815105438232
v 11.195109367370605 11.655446648597717 31.67581558227539
v 11.199413299560547 10.671210885047913 31.67581558227539
v -10.881502151489258 10.572917580604553 31.675815105438232
v -10.881502151489258 10.572917580604553 31.675815105438232
v -10.88580322265625 11.557154297828674 31.675815105438232
v 11.195109367370605 11.655446648597717 31.67581558227539
v 11.199413299560547 10.671210885047913 31.67581558227539
v 11.199413299560547 10.671210885047913 33.727787017822266
v -10.881502151489258 10.572917580604553 33.72778654098511
v -10.881502151489258 10.572917580604553 33.72778654098511
v -10.881502151489258 10.572917580604553 31.675815105438232
v 11.199413299560547 10.671210885047913 31.67581558227539
v 11.199413299560547 10.671210885047913 33.727787017822266
v 11.195109367370605 11.655446648597717 33.727787017822266
v -10.88580322265625 11.557154297828674 33.72778654098511
v -10.88580322265625 11.557154297828674 33.72778654098511
v -10.881502151489258 10.572917580604553 33.72778654098511
v 11.199413299560547 10.671210885047913 33.727787017822266
v 11.195109367370605 11.655446648597717 33.727787017822266
v 11.195109367370605 11.655446648597717 31.67581558227539
v -10.88580322265625 11.557154297828674 31.675815105438232
v -10.88580322265625 11.557154297828674 31.675815105438232
v -10.88580322265625 11.557154297828674 33.72778654098511
v 11.195109367370605 11.655446648597717 33.727787017822266
v 9.425947189331055 11.827149987220764 29.678781509399414
v 9.425947189331055 11.827149987220764 31.73075294494629
v 10.413932800292969 11.827149987220764 31.73075294494629
v 10.413932800292969 11.827149987220764 31.73075294494629
v 10.413932800292969 11.827149987220764 29.678781509399414
v 9.425947189331055 11.827149987220764 29.678781509399414
v 9.425947189331055 -10.745989203453064 29.678781032562256
v 10.413932800292969 -10.745989203453064 29.678781032562256
v 10.413932800292969 -10.745989203453064 31.73075246810913
v 10.413932800292969 -10.745989203453064 31.73075246810913
v 9.425947189331055 -10.745989203453064 31.73075246810913
v 9.425947189331055 -10.745989203453064 29.678781032562256
v 9.425947189331055 11.827149987220764 29.678781509399414
v 10.413932800292969 11.827149987220764 29.678781509399414
v 10.413932800292969 -10.745989203453064 29.678781032562256
v 10.413932800292969 -10.745989203453064 29.678781032562256
v 9.425947189331055 -10.745989203453064 29.678781032562256
v 9.425947189331055 11.827149987220764 29.678781509399414
v 10.413932800292969 11.827149987220764 29.678781509399414
v 10.413932800292969 11.827149987220764 31.73075294494629
v 10.413932800292969 -10.745989203453064 31.73075246810913
v 10.413932800292969 -10.745989203453064 31.73075246810913
v 10.413932800292969 -10.745989203453064 29.678781032562256
v 10.413932800292969 11.827149987220764 29.678781509399414
v 10.413932800292969 11.827149987220764 31.73075294494629
v 9.425947189331055 11.827149987220764 31.73075294494629
v 9.425947189331055 -10.745989203453064 31.73075246810913
v 9.425947189331055 -10.745989203453064 31.73075246810913
v 10.413932800292969 -10.745989203453064 31.73075246810913
v 10.413932800292969 11.827149987220764 31.73075294494629
v 9.425947189331055 11.827149987220764 31.73075294494629
v 9.425947189331055 11.827149987220764 29.678781509399414
v 9.425947189331055 -10.745989203453064 29.678781032562256
v 9.425947189331055 -10.745989203453064 29.678781032562256
v 9.425947189331055 -10.745989203453064 31.73075246810913
v 9.425947189331055 11.827149987220764 31.73075294494629
v -10.588155746459961 11.827149987220764 29.678781509399414
v -10.588155746459961 11.827149987220764 31.73075294494629
v -9.600170135498047 11.827149987220764 31.73075294494629
v -9.600170135498047 11.827149987220764 31.73075294494629
v -9.600170135498047 11.827149987220764 29.678781509399414
v -10.588155746459961 11.827149987220764 29.678781509399414
v -10.588155746459961 -11.301559805870056 29.678781032562256
v -9.600170135498047 -11.301559805870056 29.678781032562256
v -9.600170135498047 -11.301559805870056 31.73075246810913
v -9.600170135498047 -11.301559805870056 31.73075246810913
v -10.588155746459961 -11.301559805870056 31.73075246810913
v -10.588155746459961 -11.301559805870056 29.678781032562256
v -10.588155746459961 11.827149987220764 29.678781509399414
v -9.600170135498047 11.827149987220764 29.678781509399414
v -9.600170135498047 -11.301559805870056 29.678781032562256
v -9.600170135498047 -11.301559805870056 29.678781032562256
v -10.588155746459961 -11.301559805870056 29.678781032562256
v -10.588155746459961 11.827149987220764 29.678781509399414
v -9.600170135498047 11.827149987220764 29.678781509399414
v -9.600170135498047 11.827149987220764 31.73075294494629
v -9.600170135498047 -11.301559805870056 31.73075246810913
v -9.600170135498047 -11.301559805870056 31.73075246810913
v -9.600170135498047 -11.301559805870056 29.678781032562256
v -9.600170135498047 11.827149987220764 29.678781509399414
v -9.600170135498047 11.827149987220764 31.73075294494629
v -10.588155746459961 11.827149987220764 31.73075294494629
v -10.588155746459961 -11.301559805870056 31.73075246810913
v -10.588155746459961 -11.301559805870056 31.73075246810913
v -9.600170135498047 -11.301559805870056 31.73075246810913
v -9.600170135498047 11.827149987220764 31.73075294494629
v -10.588155746459961 11.827149987220764 31.73075294494629
v -10.588155746459961 11.827149987220764 29.678781509399414
v -10.588155746459961 -11.301559805870056 29.678781032562256
v -10.588155746459961 -11.301559805870056 29.678781032562256
v -10.588155746459961 -11.301559805870056 31.73075246810913
v -10.588155746459961 11.827149987220764 31.73075294494629
v 11.195108413696289 -10.192919135093689 31.675813674926758
v 11.195108413696289 -10.192919135093689 33.72778511047363
v 11.19941234588623 -11.177154898643494 33.72778511047363
v 11.19941234588623 -11.177154898643494 33.72778511047363
v 11.19941234588623 -11.177154898643494 31.675813674926758
v 11.195108413696289 -10.192919135093689 31.675813674926758
v -10.885804176330566 -10.291211485862732 31.6758131980896
v -10.881503105163574 -11.275448203086853 31.6758131980896
v -10.881503105163574 -11.275448203086853 33.727784633636475
v -10.881503105163574 -11.275448203086853 33.727784633636475
v -10.885804176330566 -10.291211485862732 33.727784633636475
v -10.885804176330566 -10.291211485862732 31.6758131980896
v 11.195108413696289 -10.192919135093689 31.675813674926758
v 11.19941234588623 -11.177154898643494 31.675813674926758
v -10.881503105163574 -11.275448203086853 31.6758131980896
v -10.881503105163574 -11.275448203086853 31.6758131980896
v -10.885804176330566 -10.291211485862732 31.6758131980896
v 11.195108413696289 -10.192919135093689 31.675813674926758
v 11.19941234588623 -11.177154898643494 31.675813674926758
v 11.19941234588623 -11.177154898643494 33.72778511047363
v -10.881503105163574 -11.275448203086853 33.727784633636475
v -10.881503105163574 -11.275448203086853 33.727784633636475
v -10.881503105163574 -11.275448203086853 31.6758131980896
v 11.19941234588623 -11.177154898643494 31.675813674926758
v 11.19941234588623 -11.177154898643494 33.72778511047363
v 11.195108413696289 -10.192919135093689 33.72778511047363
v -10.885804176330566 -10.291211485862732 33.727784633636475
v -10.885804176330566 -10.291211485862732 33.727784633636475
v -10.881503105163574 -11.275448203086853 33.727784633636475
v 11.19941234588623 -11.177154898643494 33.72778511047363
v 11.195108413696289 -10.192919135093689 33.72778511047363
v 11.195108413696289 -10.192919135093689 31.675813674926758
v -10.885804176330566 -10.291211485862732 31.6758131980896
v -10.885804176330566 -10.291211485862732 31.6758131980896
v -10.885804176330566 -10.291211485862732 33.727784633636475
v 11.195108413696289 -10.192919135093689 33.72778511047363
v -7.61624813079834 8.300653100013733 13.027860641479492
v -7.61624813079834 8.300653100013733 14.679664611816406
v -7.61624813079834 8.699082970619202 14.679664611816406
v -7.61624813079834 8.699082970619202 14.679664611816406
v -7.61624813079834 8.699082970619202 13.027860641479492
v -7.61624813079834 8.300653100013733 13.027860641479492
v 7.21712064743042 8.300652623176575 13.027860641479492
v 7.21712064743042 8.699082970619202 13.027860641479492
v 7.21712064743042 8.699082970619202 14.679664611816406
v 7.21712064743042 8.699082970619202 14.679664611816406
v 7.21712064743042 8.300652623176575 14.679664611816406
v 7.21712064743042 8.300652623176575 13.027860641479492
v -7.61624813079834 8.300653100013733 13.027860641479492
v -7.61624813079834 8.699082970619202 13.027860641479492
v 7.21712064743042 8.699082970619202 13.027860641479492
v 7.21712064743042 8.699082970619202 13.027860641479492
v 7.21712064743042 8.300652623176575 13.027860641479492
v -7.61624813079834 8.300653100013733 13.027860641479492
v -7.61624813079834 8.699082970619202 13.027860641479492
v -7.61624813079834 8.699082970619202 14.679664611816406
v 7.21712064743042 8.699082970619202 14.679664611816406
v 7.21712064743042 8.699082970619202 14.679664611816406
v 7.21712064743042 8.699082970619202 13.027860641479492
v -7.61624813079834 8.699082970619202 13.027860641479492
v -7.61624813079834 8.699082970619202 14.679664611816406
v -7.61624813079834 8.300653100013733 14.679664611816406
v 7.21712064743042 8.300652623176575 14.679664611816406
v 7.21712064743042 8.300652623176575 14.679664611816406
v 7.21712064743042 8.699082970619202 14.679664611816406
v -7.61624813079834 8.699082970619202 14.679664611816406
v -7.61624813079834 8.300653100013733 14.679664611816406
v -7.61624813079834 8.300653100013733 13.027860641479492
v 7.21712064743042 8.300652623176575 13.027860641479492
v 7.21712064743042 8.300652623176575 13.027860641479492
v 7.21712064743042 8.300652623176575 14.679664611816406
v -7.61624813079834 8.300653100013733 14.679664611816406
v 6.964903831481934 9.48374330997467 11.371809005737305
v 6.964903831481934 9.48374330997467 13.023612976074219
v 7.3633341789245605 9.48374330997467 13.023612976074219
v 7.3633341789245605 9.48374330997467 13.023612976074219
v 7.3633341789245605 9.48374330997467 11.371809005737305
v 6.964903831481934 9.48374330997467 11.371809005737305
v 6.964901924133301 -8.751583456993103 11.371807098388672
v 7.3633341789245605 -8.751583456993103 11.371807098388672
v 7.3633341789245605 -8.751583456993103 13.023611068725586
v 7.3633341789245605 -8.751583456993103 13.023611068725586
v 6.964901924133301 -8.751583456993103 13.023611068725586
v 6.964901924133301 -8.751583456993103 11.371807098388672
v 6.964903831481934 9.48374330997467 11.371809005737305
v 7.3633341789245605 9.48374330997467 11.371809005737305
v 7.3633341789245605 -8.751583456993103 11.371807098388672
v 7.3633341789245605 -8.751583456993103 11.371807098388672
v 6.964901924133301 -8.751583456993103 11.371807098388672
v 6.964903831481934 9.48374330997467 11.371809005737305
v 7.3633341789245605 9.48374330997467 11.371809005737305
v 7.3633341789245605 9.48374330997467 13.023612976074219
v 7.3633341789245605 -8.751583456993103 13.023611068725586
v 7.3633341789245605 -8.751583456993103 13.023611068725586
v 7.3633341789245605 -8.751583456993103 11.371807098388672
v 7.3633341789245605 9.48374330997467 11.371809005737305
v 7.3633341789245605 9.48374330997467 13.023612976074219
v 6.964903831481934 9.48374330997467 13.023612976074219
v 6.964901924133301 -8.751583456993103 13.023611068725586
v 6.964901924133301 -8.751583456993103 13.023611068725586
v 7.3633341789245605 -8.751583456993103 13.023611068725586
v 7.3633341789245605 9.48374330997467 13.023612976074219
v 6.964903831481934 9.48374330997467 13.023612976074219
v 6.964903831481934 9.48374330997467 11.371809005737305
v 6.964901924133301 -8.751583456993103 11.371807098388672
v 6.964901924133301 -8.751583456993103 11.371807098388672
v 6.964901924133301 -8.751583456993103 13.023611068725586
v 6.964903831481934 9.48374330997467 13.023612976074219
v -7.61624813079834 -8.010720610618591 13.027860641479492
v -7.61624813079834 -8.010720610618591 14.679664611816406
v -7.61624813079834 -7.612290740013123 14.679664611816406
v -7.61624813079834 -7.612290740013123 14.679664611816406
v -7.61624813079834 -7.612290740013123 13.027860641479492
v -7.61624813079834 -8.010720610618591 13.027860641479492
v 7.21712064743042 -8.010724425315857 13.027860641479492
v 7.21712064743042 -7.612290740013123 13.027860641479492
v 7.21712064743042 -7.612290740013123 14.679664611816406
v 7.21712064743042 -7.612290740013123 14.679664611816406
v 7.21712064743042 -8.010724425315857 14.679664611816406
v 7.21712064743042 -8.010724425315857 13.027860641479492
v -7.61624813079834 -8.010720610618591 13.027860641479492
v -7.61624813079834 -7.612290740013123 13.027860641479492
v 7.21712064743042 -7.612290740013123 13.027860641479492
v 7.21712064743042 -7.612290740013123 13.027860641479492
v 7.21712064743042 -8.010724425315857 13.027860641479492
v -7.61624813079834 -8.010720610618591 13.027860641479492
v -7.61624813079834 -7.612290740013123 13.027860641479492
v -7.61624813079834 -7.612290740013123 14.679664611816406
v 7.21712064743042 -7.612290740013123 14.679664611816406
v 7.21712064743042 -7.612290740013123 14.679664611816406
v 7.21712064743042 -7.612290740013123 13.027860641479492
v -7.61624813079834 -7.612290740013123 13.027860641479492
v -7.61624813079834 -7.612290740013123 14.679664611816406
v -7.61624813079834 -8.010720610618591 14.679664611816406
v 7.21712064743042 -8.010724425315857 14.679664611816406
v 7.21712064743042 -8.010724425315857 14.679664611816406
v 7.21712064743042 -7.612290740013123 14.679664611816406
v -7.61624813079834 -7.612290740013123 14.679664611816406
v -7.61624813079834 -8.010720610618591 14.679664611816406
v -7.61624813079834 -8.010720610618591 13.027860641479492
v 7.21712064743042 -8.010724425315857 13.027860641479492
v 7.21712064743042 -8.010724425315857 13.027860641479492
v 7.21712064743042 -8.010724425315857 14.679664611816406
v -7.61624813079834 -8.010720610618591 14.679664611816406
v -7.777789115905762 9.48374330997467 11.371809005737305
v -7.777789115905762 9.48374330997467 13.023612976074219
v -7.379358291625977 9.48374330997467 13.023612976074219
v -7.379358291625977 9.48374330997467 13.023612976074219
v -7.379358291625977 9.48374330997467 11.371809005737305
v -7.777789115905762 9.48374330997467 11.371809005737305
v -7.777790546417236 -8.751583456993103 11.371809005737305
v -7.379358291625977 -8.751583456993103 11.371809005737305
v -7.379358291625977 -8.751583456993103 13.023611068725586
v -7.379358291625977 -8.751583456993103 13.023611068725586
v -7.777790546417236 -8.751583456993103 13.023611068725586
v -7.777790546417236 -8.751583456993103 11.371809005737305
v -7.777789115905762 9.48374330997467 11.371809005737305
v -7.379358291625977 9.48374330997467 11.371809005737305
v -7.379358291625977 -8.751583456993103 11.371809005737305
v -7.379358291625977 -8.751583456993103 11.371809005737305
v -7.777790546417236 -8.751583456993103 11.371809005737305
v -7.777789115905762 9.48374330997467 11.371809005737305
v -7.379358291625977 9.48374330997467 11.371809005737305
v -7.379358291625977 9.48374330997467 13.023612976074219
v -7.379358291625977 -8.751583456993103 13.023611068725586
v -7.379358291625977 -8.751583456993103 13.023611068725586
v -7.379358291625977 -8.751583456993103 11.371809005737305
v -7.379358291625977 9.48374330997467 11.371809005737305
v -7.379358291625977 9.48374330997467 13.023612976074219
v -7.777789115905762 9.48374330997467 13.023612976074219
v -7.777790546417236 -8.751583456993103 13.023611068725586
v -7.777790546417236 -8.751583456993103 13.023611068725586
v -7.379358291625977 -8.751583456993103 13.023611068725586
v -7.379358291625977 9.48374330997467 13.023612976074219
v -7.777789115905762 9.48374330997467 13.023612976074219
v -7.777789115905762 9.48374330997467 11.371809005737305
v -7.777790546417236 -8.751583456993103 11.371809005737305
v -7.777790546417236 -8.751583456993103 11.371809005737305
v -7.777790546417236 -8.751583456993103 13.023611068725586
v -7.777789115905762 9.48374330997467 13.023612976074219
v -8.290980339050293 7.922352910041809 -0.02622222900390625
v -8.290980339050293 9.076585412025452 -0.02622222900390625
v -7.4102463722229 9.076585412025452 -0.02622222900390625
v -7.4102463722229 9.076585412025452 -0.02622222900390625
v -7.4102463722229 7.922352433204651 -0.02622222900390625
v -8.290980339050293 7.922352910041809 -0.02622222900390625
v -5.947258949279785 6.123026967048645 31.924988746643066
v -5.066526889801025 6.123026967048645 31.924988746643066
v -5.066526889801025 7.003759980201721 31.924988746643066
v -5.066526889801025 7.003759980201721 31.924988746643066
v -5.947258949279785 7.003759980201721 31.924988746643066
v -5.947258949279785 6.123026967048645 31.924988746643066
v -8.290980339050293 7.922352910041809 -0.02622222900390625
v -7.4102463722229 7.922352433204651 -0.02622222900390625
v -5.066526889801025 6.123026967048645 31.924988746643066
v -5.066526889801025 6.123026967048645 31.924988746643066
v -5.947258949279785 6.123026967048645 31.924988746643066
v -8.290980339050293 7.922352910041809 -0.02622222900390625
v -7.4102463722229 7.922352433204651 -0.02622222900390625
v -7.4102463722229 9.076585412025452 -0.02622222900390625
v -5.066526889801025 7.003759980201721 31.924988746643066
v -5.066526889801025 7.003759980201721 31.924988746643066
v -5.066526889801025 6.123026967048645 31.924988746643066
v -7.4102463722229 7.922352433204651 -0.02622222900390625
v -7.4102463722229 9.076585412025452 -0.02622222900390625
v -8.290980339050293 9.076585412025452 -0.02622222900390625
v -5.947258949279785 7.003759980201721 31.924988746643066
v -5.947258949279785 7.003759980201721 31.924988746643066
v -5.066526889801025 7.003759980201721 31.924988746643066
v -7.4102463722229 9.076585412025452 -0.02622222900390625
v -8.290980339050293 9.076585412025452 -0.02622222900390625
v -8.290980339050293 7.922352910041809 -0.02622222900390625
v -5.947258949279785 6.123026967048645 31.924988746643066
v -5.947258949279785 6.123026967048645 31.924988746643066
v -5.947258949279785 7.003759980201721 31.924988746643066
v -8.290980339050293 9.076585412025452 -0.02622222900390625
v 7.926026344299316 7.922352433204651 -0.02622222900390625
v 7.045293807983398 7.922352910041809 -0.02622222900390625
v 7.045293807983398 9.076585412025452 -0.02622222900390625
v 7.045293807983398 9.076585412025452 -0.02622222900390625
v 7.926026344299316 9.076585412025452 -0.02622222900390625
v 7.926026344299316 7.922352433204651 -0.02622222900390625
v 5.582307815551758 6.123026967048645 31.924988746643066
v 5.582307815551758 7.003759980201721 31.924988746643066
v 4.701574325561523 7.003759980201721 31.924988746643066
v 4.701574325561523 7.003759980201721 31.924988746643066
v 4.701574325561523 6.123026967048645 31.924988746643066
v 5.582307815551758 6.123026967048645 31.924988746643066
v 7.926026344299316 7.922352433204651 -0.02622222900390625
v 5.582307815551758 6.123026967048645 31.924988746643066
v 4.701574325561523 6.123026967048645 31.924988746643066
v 4.701574325561523 6.123026967048645 31.924988746643066
v 7.045293807983398 7.922352910041809 -0.02622222900390625
v 7.926026344299316 7.922352433204651 -0.02622222900390625
v 7.045293807983398 7.922352910041809 -0.02622222900390625
v 4.701574325561523 6.123026967048645 31.924988746643066
v 4.701574325561523 7.003759980201721 31.924988746643066
v 4.701574325561523 7.003759980201721 31.924988746643066
v 7.045293807983398 9.076585412025452 -0.02622222900390625
v 7.045293807983398 7.922352910041809 -0.02622222900390625
v 7.045293807983398 9.076585412025452 -0.02622222900390625
v 4.701574325561523 7.003759980201721 31.924988746643066
v 5.582307815551758 7.003759980201721 31.924988746643066
v 5.582307815551758 7.003759980201721 31.924988746643066
v 7.926026344299316 9.076585412025452 -0.02622222900390625
v 7.045293807983398 9.076585412025452 -0.02622222900390625
v 7.926026344299316 9.076585412025452 -0.02622222900390625
v 5.582307815551758 7.003759980201721 31.924988746643066
v 5.582307815551758 6.123026967048645 31.924988746643066
v 5.582307815551758 6.123026967048645 31.924988746643066
v 7.926026344299316 7.922352433204651 -0.02622222900390625
v 7.926026344299316 9.076585412025452 -0.02622222900390625
v 7.926024436950684 -8.41898000240326 -0.026224136352539062
v 7.045292377471924 -8.41898000240326 -0.026224136352539062
v 7.045292377471924 -7.264744162559509 -0.026224136352539062
v 7.045292377471924 -7.264744162559509 -0.026224136352539062
v 7.926024436950684 -7.264745116233826 -0.026224136352539062
v 7.926024436950684 -8.41898000240326 -0.026224136352539062
v 5.582305908203125 -6.346154570579529 31.924988746643066
v 5.582305908203125 -5.465421080589294 31.924988746643066
v 4.701573848724365 -5.465421080589294 31.924988746643066
v 4.701573848724365 -5.465421080589294 31.924988746643066
v 4.701573848724365 -6.346154570579529 31.924988746643066
v 5.582305908203125 -6.346154570579529 31.924988746643066
v 7.926024436950684 -8.41898000240326 -0.026224136352539062
v 5.582305908203125 -6.346154570579529 31.924988746643066
v 4.701573848724365 -6.346154570579529 31.924988746643066
v 4.701573848724365 -6.346154570579529 31.924988746643066
v 7.045292377471924 -8.41898000240326 -0.026224136352539062
v 7.926024436950684 -8.41898000240326 -0.026224136352539062
v 7.045292377471924 -8.41898000240326 -0.026224136352539062
v 4.701573848724365 -6.346154570579529 31.924988746643066
v 4.701573848724365 -5.465421080589294 31.924988746643066
v 4.701573848724365 -5.465421080589294 31.924988746643066
v 7.045292377471924 -7.264744162559509 -0.026224136352539062
v 7.045292377471924 -8.41898000240326 -0.026224136352539062
v 7.045292377471924 -7.264744162559509 -0.026224136352539062
v 4.701573848724365 -5.465421080589294 31.924988746643066
v 5.582305908203125 -5.465421080589294 31.924988746643066
v 5.582305908203125 -5.465421080589294 31.924988746643066
v 7.926024436950684 -7.264745116233826 -0.026224136352539062
v 7.045292377471924 -7.264744162559509 -0.026224136352539062
v 7.926024436950684 -7.264745116233826 -0.026224136352539062
v 5.582305908203125 -5.465421080589294 31.924988746643066
v 5.582305908203125 -6.346154570579529 31.924988746643066
v 5.582305908203125 -6.346154570579529 31.924988746643066
v 7.926024436950684 -8.41898000240326 -0.026224136352539062
v 7.926024436950684 -7.264745116233826 -0.026224136352539062
v -8.29098129272461 -8.41898000240326 -0.026224136352539062
v -8.29098129272461 -7.264745116233826 -0.026224136352539062
v -7.410247802734375 -7.2647465467453 -0.026224136352539062
v -7.410247802734375 -7.2647465467453 -0.026224136352539062
v -7.410247802734375 -8.41898000240326 -0.026224136352539062
v -8.29098129272461 -8.41898000240326 -0.026224136352539062
v -5.94726037979126 -6.346154570579529 31.924988746643066
v -5.066527366638184 -6.346154570579529 31.924988746643066
v -5.066527366638184 -5.465421080589294 31.924988746643066
v -5.066527366638184 -5.465421080589294 31.924988746643066
v -5.94726037979126 -5.465421080589294 31.924988746643066
v -5.94726037979126 -6.346154570579529 31.924988746643066
v -8.29098129272461 -8.41898000240326 -0.026224136352539062
v -7.410247802734375 -8.41898000240326 -0.026224136352539062
v -5.066527366638184 -6.346154570579529 31.924988746643066
v -5.066527366638184 -6.346154570579529 31.924988746643066
v -5.94726037979126 -6.346154570579529 31.924988746643066
v -8.29098129272461 -8.41898000240326 -0.026224136352539062
v -7.410247802734375 -8.41898000240326 -0.026224136352539062
v -7.410247802734375 -7.2647465467453 -0.026224136352539062
v -5.066527366638184 -5.465421080589294 31.924988746643066
v -5.066527366638184 -5.465421080589294 31.924988746643066
v -5.066527366638184 -6.346154570579529 31.924988746643066
v -7.410247802734375 -8.41898000240326 -0.026224136352539062
v -7.410247802734375 -7.2647465467453 -0.026224136352539062
v -8.29098129272461 -7.264745116233826 -0.026224136352539062
v -5.94726037979126 -5.465421080589294 31.924988746643066
v -5.94726037979126 -5.465421080589294 31.924988746643066
v -5.066527366638184 -5.465421080589294 31.924988746643066
v -7.410247802734375 -7.2647465467453 -0.026224136352539062
v -8.29098129272461 -7.264745116233826 -0.026224136352539062
v -8.29098129272461 -8.41898000240326 -0.026224136352539062
v -5.94726037979126 -6.346154570579529 31.924988746643066
v -5.94726037979126 -6.346154570579529 31.924988746643066
v -5.94726037979126 -5.465421080589294 31.924988746643066
v -8.29098129272461 -7.264745116233826 -0.026224136352539062
v -3.3755569458007812 -53.04104745388031 0.3968944549560547
v -3.3755550384521484 -16.312812209129333 32.08116149902344
v 4.058202743530273 -16.312812209129333 32.08116149902344
v 4.058202743530273 -16.312812209129333 32.08116149902344
v 4.058200836181641 -53.04104745388031 0.3968944549560547
v -3.3755569458007812 -53.04104745388031 0.3968944549560547
v -3.3755569458007812 -53.04104745388031 1.1492462158203125
v 4.058200836181641 -53.04104745388031 1.1492462158203125
v 4.058202743530273 -16.312812209129333 32.833510398864746
v 4.058202743530273 -16.312812209129333 32.833510398864746
v -3.3755550384521484 -16.312812209129333 32.833510398864746
v -3.3755569458007812 -53.04104745388031 1.1492462158203125
v -3.3755569458007812 -53.04104745388031 0.3968944549560547
v 4.058200836181641 -53.04104745388031 0.3968944549560547
v 4.058200836181641 -53.04104745388031 1.1492462158203125
v 4.058200836181641 -53.04104745388031 1.1492462158203125
v -3.3755569458007812 -53.04104745388031 1.1492462158203125
v -3.3755569458007812 -53.04104745388031 0.3968944549560547
v 4.058200836181641 -53.04104745388031 0.3968944549560547
v 4.058202743530273 -16.312812209129333 32.08116149902344
v 4.058202743530273 -16.312812209129333 32.833510398864746
v 4.058202743530273 -16.312812209129333 32.833510398864746
v 4.058200836181641 -53.04104745388031 1.1492462158203125
v 4.058200836181641 -53.04104745388031 0.3968944549560547
v 4.058202743530273 -16.312812209129333 32.08116149902344
v -3.3755550384521484 -16.312812209129333 32.08116149902344
v -3.3755550384521484 -16.312812209129333 32.833510398864746
v -3.3755550384521484 -16.312812209129333 32.833510398864746
v 4.058202743530273 -16.312812209129333 32.833510398864746
v 4.058202743530273 -16.312812209129333 32.08116149902344
v -3.3755550384521484 -16.312812209129333 32.08116149902344
v -3.3755569458007812 -53.04104745388031 0.3968944549560547
v -3.3755569458007812 -53.04104745388031 1.1492462158203125
v -3.3755569458007812 -53.04104745388031 1.1492462158203125
v -3.3755550384521484 -16.312812209129333 32.833510398864746
v -3.3755550384521484 -16.312812209129333 32.08116149902344
v 11.195108413696289 -10.34209954738617 31.89671516418457
v 11.195109367370605 -10.34209954738617 32.15661430358887
v 11.199414253234863 -16.2631334066391 32.15661430358887
v 11.199414253234863 -16.2631334066391 32.15661430358887
v 11.199413299560547 -16.263135313987732 31.89671504497528
v 11.195108413696289 -10.34209954738617 31.89671516418457
v -10.885804176330566 -10.440390944480896 31.8967148065567
v -10.881502151489258 -16.36142861843109 31.896714568138123
v -10.881501197814941 -16.36142671108246 32.15661382675171
v -10.881501197814941 -16.36142671108246 32.15661382675171
v -10.88580322265625 -10.440392851829529 32.15661382675171
v -10.885804176330566 -10.440390944480896 31.8967148065567
v 11.195108413696289 -10.34209954738617 31.89671516418457
v 11.199413299560547 -16.263135313987732 31.89671504497528
v -10.881502151489258 -16.36142861843109 31.896714568138123
v -10.881502151489258 -16.36142861843109 31.896714568138123
v -10.885804176330566 -10.440390944480896 31.8967148065567
v 11.195108413696289 -10.34209954738617 31.89671516418457
v 11.199413299560547 -16.263135313987732 31.89671504497528
v 11.199414253234863 -16.2631334066391 32.15661430358887
v -10.881501197814941 -16.36142671108246 32.15661382675171
v -10.881501197814941 -16.36142671108246 32.15661382675171
v -10.881502151489258 -16.36142861843109 31.896714568138123
v 11.199413299560547 -16.263135313987732 31.89671504497528
v 11.199414253234863 -16.2631334066391 32.15661430358887
v 11.195109367370605 -10.34209954738617 32.15661430358887
v -10.88580322265625 -10.440392851829529 32.15661382675171
v -10.88580322265625 -10.440392851829529 32.15661382675171
v -10.881501197814941 -16.36142671108246 32.15661382675171
v 11.199414253234863 -16.2631334066391 32.15661430358887
v 11.195109367370605 -10.34209954738617 32.15661430358887
v 11.195108413696289 -10.34209954738617 31.89671516418457
v -10.885804176330566 -10.440390944480896 31.8967148065567
v -10.885804176330566 -10.440390944480896 31.8967148065567
v -10.88580322265625 -10.440392851829529 32.15661382675171
v 11.195109367370605 -10.34209954738617 32.15661430358887
v -2.3999505043029785 -10.944583296775818 34.161542892456055
v 3.0814671516418457 -10.944583296775818 34.161542892456055
v 3.0814671516418457 -10.944583296775818 45.55429267883301
v 3.0814671516418457 -10.944583296775818 45.55429267883301
v -2.3999505043029785 -10.944583296775818 45.55429267883301
v -2.3999505043029785 -10.944583296775818 34.161542892456055
v -2.3999505043029785 -10.299710631370544 34.161542892456055
v 3.0814671516418457 -10.299710631370544 34.161542892456055
v 3.0814671516418457 -10.944583296775818 34.161542892456055
v 3.0814671516418457 -10.944583296775818 34.161542892456055
v -2.3999505043029785 -10.944583296775818 34.161542892456055
v -2.3999505043029785 -10.299710631370544 34.161542892456055
v 3.0814671516418457 -10.299710631370544 34.161542892456055
v 3.0814671516418457 -10.299710631370544 45.55429267883301
v 3.0814671516418457 -10.944583296775818 45.55429267883301
v 3.0814671516418457 -10.944583296775818 45.55429267883301
v 3.0814671516418457 -10.944583296775818 34.161542892456055
v 3.0814671516418457 -10.299710631370544 34.161542892456055
v 3.0814671516418457 -10.299710631370544 45.55429267883301
v -2.3999505043029785 -10.299710631370544 45.55429267883301
v -2.3999505043029785 -10.944583296775818 45.55429267883301
v -2.3999505043029785 -10.944583296775818 45.55429267883301
v 3.0814671516418457 -10.944583296775818 45.55429267883301
v 3.0814671516418457 -10.299710631370544 45.55429267883301
v -2.3999505043029785 -10.299710631370544 45.55429267883301
v -2.3999505043029785 -10.299710631370544 34.161542892456055
v -2.3999505043029785 -10.944583296775818 34.161542892456055
v -2.3999505043029785 -10.944583296775818 34.161542892456055
v -2.3999505043029785 -10.944583296775818 45.55429267883301
v -2.3999505043029785 -10.299710631370544 45.55429267883301
v -10.588155746459961 11.827149987220764 60.217607498168945
v -10.588155746459961 11.827149987220764 62.26957893371582
v -9.600170135498047 11.827149987220764 62.26957893371582
v -9.600170135498047 11.827149987220764 62.26957893371582
v -9.600170135498047 11.827149987220764 60.217607498168945
v -10.588155746459961 11.827149987220764 60.217607498168945
v -10.588155746459961 -11.301559805870056 60.217607498168945
v -9.600170135498047 -11.301559805870056 60.217607498168945
v -9.600170135498047 -11.301559805870056 62.26957893371582
v -9.600170135498047 -11.301559805870056 62.26957893371582
v -10.588155746459961 -11.301559805870056 62.26957893371582
v -10.588155746459961 -11.301559805870056 60.217607498168945
v -10.588155746459961 11.827149987220764 60.217607498168945
v -9.600170135498047 11.827149987220764 60.217607498168945
v -9.600170135498047 -11.301559805870056 60.217607498168945
v -9.600170135498047 -11.301559805870056 60.217607498168945
v -10.588155746459961 -11.301559805870056 60.217607498168945
v -10.588155746459961 11.827149987220764 60.217607498168945
v -9.600170135498047 11.827149987220764 60.217607498168945
v -9.600170135498047 11.827149987220764 62.26957893371582
v -9.600170135498047 -11.301559805870056 62.26957893371582
v -9.600170135498047 -11.301559805870056 62.26957893371582
v -9.600170135498047 -11.301559805870056 60.217607498168945
v -9.600170135498047 11.827149987220764 60.217607498168945
v -9.600170135498047 11.827149987220764 62.26957893371582
v -10.588155746459961 11.827149987220764 62.26957893371582
v -10.588155746459961 -11.301559805870056 62.26957893371582
v -10.588155746459961 -11.301559805870056 62.26957893371582
v -9.600170135498047 -11.301559805870056 62.26957893371582
v -9.600170135498047 11.827149987220764 62.26957893371582
v -10.588155746459961 11.827149987220764 62.26957893371582
v -10.588155746459961 11.827149987220764 60.217607498168945
v -10.588155746459961 -11.301559805870056 60.217607498168945
v -10.588155746459961 -11.301559805870056 60.217607498168945
v -10.588155746459961 -11.301559805870056 62.26957893371582
v -10.588155746459961 11.827149987220764 62.26957893371582
v 10.233175277709961 11.827149987220764 62.26957893371582
v 10.233175277709961 11.827149987220764 60.21760559082031
v 9.245189666748047 11.827149987220764 60.21760559082031
v 9.245189666748047 11.827149987220764 60.21760559082031
v 9.245189666748047 11.827149987220764 62.269575119018555
v 10.233175277709961 11.827149987220764 62.26957893371582
v 10.233175277709961 -11.301559805870056 62.269575119018555
v 9.245189666748047 -11.301559805870056 62.269575119018555
v 9.245189666748047 -11.301559805870056 60.21760177612305
v 9.245189666748047 -11.301559805870056 60.21760177612305
v 10.233175277709961 -11.301559805870056 60.21760177612305
v 10.233175277709961 -11.301559805870056 62.269575119018555
v 10.233175277709961 11.827149987220764 62.26957893371582
v 9.245189666748047 11.827149987220764 62.269575119018555
v 9.245189666748047 -11.301559805870056 62.269575119018555
v 9.245189666748047 -11.301559805870056 62.269575119018555
v 10.233175277709961 -11.301559805870056 62.269575119018555
v 10.233175277709961 11.827149987220764 62.26957893371582
v 9.245189666748047 11.827149987220764 62.269575119018555
v 9.245189666748047 11.827149987220764 60.21760559082031
v 9.245189666748047 -11.301559805870056 60.21760177612305
v 9.245189666748047 -11.301559805870056 60.21760177612305
v 9.245189666748047 -11.301559805870056 62.269575119018555
v 9.245189666748047 11.827149987220764 62.269575119018555
v 9.245189666748047 11.827149987220764 60.21760559082031
v 10.233175277709961 11.827149987220764 60.21760559082031
v 10.233175277709961 -11.301559805870056 60.21760177612305
v 10.233175277709961 -11.301559805870056 60.21760177612305
v 9.245189666748047 -11.301559805870056 60.21760177612305
v 9.245189666748047 11.827149987220764 60.21760559082031
v 10.233175277709961 11.827149987220764 60.21760559082031
v 10.233175277709961 11.827149987220764 62.26957893371582
v 10.233175277709961 -11.301559805870056 62.269575119018555
v 10.233175277709961 -11.301559805870056 62.269575119018555
v 10.233175277709961 -11.301559805870056 60.21760177612305
v 10.233175277709961 11.827149987220764 60.21760559082031
v 9.851044654846191 9.716460824012756 60.897804260253906
v 9.851045608520508 11.768434166908264 60.897804260253906
v 8.863059997558594 11.768434166908264 60.897804260253906
v 8.863059997558594 11.768434166908264 60.897804260253906
v 8.863059043884277 9.716464638710022 60.897804260253906
v 9.851044654846191 9.716460824012756 60.897804260253906
v 9.851046562194824 9.716465592384338 31.689950942993164
v 8.86306095123291 9.716465592384338 31.689950942993164
v 8.86306095123291 11.768438935279846 31.689950942993164
v 8.86306095123291 11.768438935279846 31.689950942993164
v 9.851046562194824 11.768438935279846 31.689950942993164
v 9.851046562194824 9.716465592384338 31.689950942993164
v 9.851044654846191 9.716460824012756 60.897804260253906
v 8.863059043884277 9.716464638710022 60.897804260253906
v 8.86306095123291 9.716465592384338 31.689950942993164
v 8.86306095123291 9.716465592384338 31.689950942993164
v 9.851046562194824 9.716465592384338 31.689950942993164
v 9.851044654846191 9.716460824012756 60.897804260253906
v 8.863059043884277 9.716464638710022 60.897804260253906
v 8.863059997558594 11.768434166908264 60.897804260253906
v 8.86306095123291 11.768438935279846 31.689950942993164
v 8.86306095123291 11.768438935279846 31.689950942993164
v 8.86306095123291 9.716465592384338 31.689950942993164
v 8.863059043884277 9.716464638710022 60.897804260253906
v 8.863059997558594 11.768434166908264 60.897804260253906
v 9.851045608520508 11.768434166908264 60.897804260253906
v 9.851046562194824 11.768438935279846 31.689950942993164
v 9.851046562194824 11.768438935279846 31.689950942993164
v 8.86306095123291 11.768438935279846 31.689950942993164
v 8.863059997558594 11.768434166908264 60.897804260253906
v 9.851045608520508 11.768434166908264 60.897804260253906
v 9.851044654846191 9.716460824012756 60.897804260253906
v 9.851046562194824 9.716465592384338 31.689950942993164
v 9.851046562194824 9.716465592384338 31.689950942993164
v 9.851046562194824 11.768438935279846 31.689950942993164
v 9.851045608520508 11.768434166908264 60.897804260253906
v 9.851044654846191 -10.841623663902283 60.897804260253906
v 9.851045608520508 -8.789648413658142 60.897804260253906
v 8.863059997558594 -8.789648413658142 60.897804260253906
v 8.863059997558594 -8.789648413658142 60.897804260253906
v 8.863059043884277 -10.841619849205017 60.897804260253906
v 9.851044654846191 -10.841623663902283 60.897804260253906
v 9.851046562194824 -10.841616988182068 31.689950942993164
v 8.86306095123291 -10.841616988182068 31.689950942993164
v 8.86306095123291 -8.78964364528656 31.689950942993164
v 8.86306095123291 -8.78964364528656 31.689950942993164
v 9.851046562194824 -8.78964364528656 31.689950942993164
v 9.851046562194824 -10.841616988182068 31.689950942993164
v 9.851044654846191 -10.841623663902283 60.897804260253906
v 8.863059043884277 -10.841619849205017 60.897804260253906
v 8.86306095123291 -10.841616988182068 31.689950942993164
v 8.86306095123291 -10.841616988182068 31.689950942993164
v 9.851046562194824 -10.841616988182068 31.689950942993164
v 9.851044654846191 -10.841623663902283 60.897804260253906
v 8.863059043884277 -10.841619849205017 60.897804260253906
v 8.863059997558594 -8.789648413658142 60.897804260253906
v 8.86306095123291 -8.78964364528656 31.689950942993164
v 8.86306095123291 -8.78964364528656 31.689950942993164
v 8.86306095123291 -10.841616988182068 31.689950942993164
v 8.863059043884277 -10.841619849205017 60.897804260253906
v 8.863059997558594 -8.789648413658142 60.897804260253906
v 9.851045608520508 -8.789648413658142 60.897804260253906
v 9.851046562194824 -8.78964364528656 31.689950942993164
v 9.851046562194824 -8.78964364528656 31.689950942993164
v 8.86306095123291 -8.78964364528656 31.689950942993164
v 8.863059997558594 -8.789648413658142 60.897804260253906
v 9.851045608520508 -8.789648413658142 60.897804260253906
v 9.851044654846191 -10.841623663902283 60.897804260253906
v 9.851046562194824 -10.841616988182068 31.689950942993164
v 9.851046562194824 -10.841616988182068 31.689950942993164
v 9.851046562194824 -8.78964364528656 31.689950942993164
v 9.851045608520508 -8.789648413658142 60.897804260253906
v -10.272677421569824 11.7214857339859 60.897804260253906
v -10.093836784362793 9.677321076393127 60.897804260253906
v -9.109610557556152 9.763429284095764 60.897804260253906
v -9.109610557556152 9.763429284095764 60.897804260253906
v -9.288450241088867 11.807590126991272 60.897804260253906
v -10.272677421569824 11.7214857339859 60.897804260253906
v -10.27267837524414 11.721480965614319 31.689950942993164
v -9.2884521484375 11.807589173316956 31.689950942993164
v -9.109611511230469 9.763424515724182 31.689950942993164
v -9.109611511230469 9.763424515724182 31.689950942993164
v -10.09383773803711 9.677316308021545 31.689950942993164
v -10.27267837524414 11.721480965614319 31.689950942993164
v -10.272677421569824 11.7214857339859 60.897804260253906
v -9.288450241088867 11.807590126991272 60.897804260253906
v -9.2884521484375 11.807589173316956 31.689950942993164
v -9.2884521484375 11.807589173316956 31.689950942993164
v -10.27267837524414 11.721480965614319 31.689950942993164
v -10.272677421569824 11.7214857339859 60.897804260253906
v -9.288450241088867 11.807590126991272 60.897804260253906
v -9.109610557556152 9.763429284095764 60.897804260253906
v -9.109611511230469 9.763424515724182 31.689950942993164
v -9.109611511230469 9.763424515724182 31.689950942993164
v -9.2884521484375 11.807589173316956 31.689950942993164
v -9.288450241088867 11.807590126991272 60.897804260253906
v -9.109610557556152 9.763429284095764 60.897804260253906
v -10.093836784362793 9.677321076393127 60.897804260253906
v -10.09383773803711 9.677316308021545 31.689950942993164
v -10.09383773803711 9.677316308021545 31.689950942993164
v -9.109611511230469 9.763424515724182 31.689950942993164
v -9.109610557556152 9.763429284095764 60.897804260253906
v -10.093836784362793 9.677321076393127 60.897804260253906
v -10.272677421569824 11.7214857339859 60.897804260253906
v -10.27267837524414 11.721480965614319 31.689950942993164
v -10.27267837524414 11.721480965614319 31.689950942993164
v -10.09383773803711 9.677316308021545 31.689950942993164
v -10.093836784362793 9.677321076393127 60.897804260253906
v -10.272676467895508 -8.836600661277771 60.897804260253906
v -10.093836784362793 -10.880768179893494 60.897804260253906
v -9.109610557556152 -10.794659972190857 60.897804260253906
v -9.109610557556152 -10.794659972190857 60.897804260253906
v -9.288450241088867 -8.7504962682724 60.897804260253906
v -10.272676467895508 -8.836600661277771 60.897804260253906
v -10.27267837524414 -8.836607336997986 31.689950942993164
v -9.2884521484375 -8.75049912929535 31.689950942993164
v -9.109611511230469 -10.794664740562439 31.689950942993164
v -9.109611511230469 -10.794664740562439 31.689950942993164
v -10.09383773803711 -10.880772948265076 31.689950942993164
v -10.27267837524414 -8.836607336997986 31.689950942993164
v -10.272676467895508 -8.836600661277771 60.897804260253906
v -9.288450241088867 -8.7504962682724 60.897804260253906
v -9.2884521484375 -8.75049912929535 31.689950942993164
v -9.2884521484375 -8.75049912929535 31.689950942993164
v -10.27267837524414 -8.836607336997986 31.689950942993164
v -10.272676467895508 -8.836600661277771 60.897804260253906
v -9.288450241088867 -8.7504962682724 60.897804260253906
v -9.109610557556152 -10.794659972190857 60.897804260253906
v -9.109611511230469 -10.794664740562439 31.689950942993164
v -9.109611511230469 -10.794664740562439 31.689950942993164
v -9.2884521484375 -8.75049912929535 31.689950942993164
v -9.288450241088867 -8.7504962682724 60.897804260253906
v -9.109610557556152 -10.794659972190857 60.897804260253906
v -10.093836784362793 -10.880768179893494 60.897804260253906
v -10.09383773803711 -10.880772948265076 31.689950942993164
v -10.09383773803711 -10.880772948265076 31.689950942993164
v -9.109611511230469 -10.794664740562439 31.689950942993164
v -9.109610557556152 -10.794659972190857 60.897804260253906
v -10.093836784362793 -10.880768179893494 60.897804260253906
v -10.272676467895508 -8.836600661277771 60.897804260253906
v -10.27267837524414 -8.836607336997986 31.689950942993164
v -10.27267837524414 -8.836607336997986 31.689950942993164
v -10.09383773803711 -10.880772948265076 31.689950942993164
v -10.093836784362793 -10.880768179893494 60.897804260253906
v -12.172931671142578 -11.022884726524353 60.217607498168945
v -12.172931671142578 -11.022884726524353 62.26957893371582
v -12.172931671142578 -10.034899115562439 62.26957893371582
v -12.172931671142578 -10.034899115562439 62.26957893371582
v -12.172931671142578 -10.034899115562439 60.217607498168945
v -12.172931671142578 -11.022884726524353 60.217607498168945
v 10.955778121948242 -11.022884726524353 60.217607498168945
v 10.955778121948242 -10.034899115562439 60.217607498168945
v 10.955778121948242 -10.034899115562439 62.26957893371582
v 10.955778121948242 -10.034899115562439 62.26957893371582
v 10.955778121948242 -11.022884726524353 62.26957893371582
v 10.955778121948242 -11.022884726524353 60.217607498168945
v -12.172931671142578 -11.022884726524353 60.217607498168945
v -12.172931671142578 -10.034899115562439 60.217607498168945
v 10.955778121948242 -10.034899115562439 60.217607498168945
v 10.955778121948242 -10.034899115562439 60.217607498168945
v 10.955778121948242 -11.022884726524353 60.217607498168945
v -12.172931671142578 -11.022884726524353 60.217607498168945
v -12.172931671142578 -10.034899115562439 60.217607498168945
v -12.172931671142578 -10.034899115562439 62.26957893371582
v 10.955778121948242 -10.034899115562439 62.26957893371582
v 10.955778121948242 -10.034899115562439 62.26957893371582
v 10.955778121948242 -10.034899115562439 60.217607498168945
v -12.172931671142578 -10.034899115562439 60.217607498168945
v -12.172931671142578 -10.034899115562439 62.26957893371582
v -12.172931671142578 -11.022884726524353 62.26957893371582
v 10.955778121948242 -11.022884726524353 62.26957893371582
v 10.955778121948242 -11.022884726524353 62.26957893371582
v 10.955778121948242 -10.034899115562439 62.26957893371582
v -12.172931671142578 -10.034899115562439 62.26957893371582
v -12.172931671142578 -11.022884726524353 62.26957893371582
v -12.172931671142578 -11.022884726524353 60.217607498168945
v 10.955778121948242 -11.022884726524353 60.217607498168945
v 10.955778121948242 -11.022884726524353 60.217607498168945
v 10.955778121948242 -11.022884726524353 62.26957893371582
v -12.172931671142578 -11.022884726524353 62.26957893371582
f 1 2 3
f 4 5 6
f 7 8 9
f 10 11 12
f 13 14 15
f 16 17 18
f 19 20 21
f 22 23 24
f 25 26 27
f 28 29 30
f 31 32 33
f 34 35 36
f 37 38 39
f 40 41 42
f 43 44 45
f 46 47 48
f 49 50 51
f 52 53 54
f 55 56 57
f 58 59 60
f 61 62 63
f 64 65 66
f 67 68 69
f 70 71 72
f 73 74 75
f 76 77 78
f 79 80 81
f 82 83 84
f 85 86 87
f 88 89 90
f 91 92 93
f 94 95 96
f 97 98 99
f 100 101 102
f 103 104 105
f 106 107 108
f 109 110 111
f 112 113 114
f 115 116 117
f 118 119 120
f 121 122 123
f 124 125 126
f 127 128 129
f 130 131 132
f 133 134 135
f 136 137 138
f 139 140 141
f 142 143 144
f 145 146 147
f 148 149 150
f 151 152 153
f 154 155 156
f 157 158 159
f 160 161 162
f 163 164 165
f 166 167 168
f 169 170 171
f 172 173 174
f 175 176 177
f 178 179 180
f 181 182 183
f 184 185 186
f 187 188 189
f 190 191 192
f 193 194 195
f 196 197 198
f 199 200 201
f 202 203 204
f 205 206 207
f 208 209 210
f 211 212 213
f 214 215 216
f 217 218 219
f 220 221 222
f 223 224 225
f 226 227 228
f 229 230 231
f 232 233 234
f 235 236 237
f 238 239 240
f 241 242 243
f 244 245 246
f 247 248 249
f 250 251 252
f 253 254 255
f 256 257 258
f 259 260 261
f 262 263 264
f 265 266 267
f 268 269 270
f 271 272 273
f 274 275 276
f 277 278 279
f 280 281 282
f 283 284 285
f 286 287 288
f 289 290 291
f 292 293 294
f 295 296 297
f 298 299 300
f 301 302 303
f 304 305 306
f 307 308 309
f 310 311 312
f 313 314 315
f 316 317 318
f 319 320 321
f 322 323 324
f 325 326 327
f 328 329 330
f 331 332 333
f 334 335 336
f 337 338 339
f 340 341 342
f 343 344 345
f 346 347 348
f 349 350 351
f 352 353 354
f 355 356 357
f 358 359 360
f 361 362 363
f 364 365 366
f 367 368 369
f 370 371 372
f 373 374 375
f 376 377 378
f 379 380 381
f 382 383 384
f 385 386 387
f 388 389 390
f 391 392 393
f 394 395 396
f 397 398 399
f 400 401 402
f 403 404 405
f 406 407 408
f 409 410 411
f 412 413 414
f 415 416 417
f 418 419 420
f 421 422 423
f 424 425 426
f 427 428 429
f 430 431 432
f 433 434 435
f 436 437 438
f 439 440 441
f 442 443 444
f 445 446 447
f 448 449 450
f 451 452 453
f 454 455 456
f 457 458 459
f 460 461 462
f 463 464 465
f 466 467 468
f 469 470 471
f 472 473 474
f 475 476 477
f 478 479 480
f 481 482 483
f 484 485 486
f 487 488 489
f 490 491 492
f 493 494 495
f 496 497 498
f 499 500 501
f 502 503 504
f 505 506 507
f 508 509 510
f 511 512 513
f 514 515 516
f 517 518 519
f 520 521 522
f 523 524 525
f 526 527 528
f 529 530 531
f 532 533 534
f 535 536 537
f 538 539 540
f 541 542 543
f 544 545 546
f 547 548 549
f 550 551 552
f 553 554 555
f 556 557 558
f 559 560 561
f 562 563 564
f 565 566 567
f 568 569 570
f 571 572 573
f 574 575 576
f 577 578 579
f 580 581 582
f 583 584 585
f 586 587 588
f 589 590 591
f 592 593 594
f 595 596 597
f 598 599 600
f 601 602 603
f 604 605 606
f 607 608 609
f 610 611 612
f 613 614 615
f 616 617 618
f 619 620 621
f 622 623 624
f 625 626 627
f 628 629 630
f 631 632 633
f 634 635 636
f 637 638 639
f 640 641 642
f 643 644 645
f 646 647 648
f 649 650 651
f 652 653 654
f 655 656 657
f 658 659 660
f 661 662 663
f 664 665 666
f 667 668 669
f 670 671 672
f 673 674 675
f 676 677 678
f 679 680 681
f 682 683 684
f 685 686 687
f 688 689 690
f 691 692 693
f 694 695 696
f 697 698 699
f 700 701 702
f 703 704 705
f 706 707 708
f 709 710 711
f 712 713 714
f 715 716 717
f 718 719 720
f 721 722 723
f 724 725 726
f 727 728 729
f 730 731 732
f 733 734 735
f 736 737 738
f 739 740 741
f 742 743 744
f 745 746 747
f 748 749 750
f 751 752 753
f 754 755 756
f 757 758 759
f 760 761 762
f 763 764 765
f 766 767 768
f 769 770 771
f 772 773 774
f 775 776 777
f 778 779 780
f 781 782 783
f 784 785 786
f 787 788 789
f 790 791 792
f 793 794 795
f 796 797 798
f 799 800 801
f 802 803 804
f 805 806 807
f 808 809 810
f 811 812 813
f 814 815 816
f 817 818 819
f 820 821 822
f 823 824 825
f 826 827 828
f 829 830 831
f 832 833 834
f 835 836 837
f 838 839 840
f 841 842 843
f 844 845 846
f 847 848 849
f 850 851 852
f 853 854 855
f 856 857 858
f 859 860 861
f 862 863 864
f 865 866 867
f 868 869 870
f 871 872 873
f 874 875 876
f 877 878 879
f 880 881 882
f 883 884 885
f 886 887 888
f 889 890 891
f 892 893 894
f 895 896 897
f 898 899 900
f 901 902 903
f 904 905 906
f 907 908 909
f 910 911 912
f 913 914 915
f 916 917 918
f 919 920 921
f 922 923 924
f 925 926 927
f 928 929 930
f 931 932 933
f 934 935 936
f 937 938 939
f 940 941 942
f 943 944 945
f 946 947 948
f 949 950 951
f 952 953 954
f 955 956 957
f 958 959 960
f 961 962 963
f 964 965 966
f 967 968 969
f 970 971 972
f 973 974 975
f 976 977 978
f 979 980 981
f 982 983 984
v -0.5392203057714786 18.64526512060755 61.719463618265806
v -0.5392203190595652 18.79726310406321 61.71946360497772
v -2.930780515936091 18.797262894986375 61.719463814054556
v -2.9307805026480045 18.645264911530717 61.71946382734264
v -0.5392203364213839 18.64526508250706 61.36886952983063
v -2.9307805332979098 18.645264873430225 61.36886973890747
v -2.930780546585997 18.797262856885883 61.36886972561938
v -0.539220349709471 18.797263065962717 61.368869516542546
v -0.5392203057714786 18.64526512060755 61.719463618265806
v -2.9307805026480045 18.645264911530717 61.71946382734264
v -2.9307805332979098 18.645264873430225 61.36886973890747
v -0.5392203364213839 18.64526508250706 61.36886952983063
v -2.9307805026480045 18.645264911530717 61.71946382734264
v -2.930780515936091 18.797262894986375 61.719463814054556
v -2.930780546585997 18.797262856885883 61.36886972561938
v -2.9307805332979098 18.645264873430225 61.36886973890747
v -2.930780515936091 18.797262894986375 61.719463814054556
v -0.5392203190595652 18.79726310406321 61.71946360497772
v -0.539220349709471 18.797263065962717 61.368869516542546
v -2.930780546585997 18.797262856885883 61.36886972561938
v -0.5392203190595652 18.79726310406321 61.71946360497772
v -0.5392203057714786 18.64526512060755 61.719463618265806
v -0.5392203364213839 18.64526508250706 61.36886952983063
v -0.539220349709471 18.797263065962717 61.368869516542546
v -2.0019623859128255 18.64106287499042 64.55779832180563
v -2.001962664962743 18.641062461829996 61.365838940702126
v -21.07770538652036 18.6410607941756 61.36584060835652
v -21.077705035944835 18.641061316114552 65.3759576623421
v -2.00196236598071 18.413066071170288 64.55779834173775
v -21.077705016012715 18.413064475041516 65.37595768227422
v -21.07770536658824 18.413063945651984 61.36584062828864
v -2.001962645030624 18.41306561330638 61.36583896063424
v -2.0019623859128255 18.64106287499042 64.55779832180563
v -21.077705035944835 18.641061316114552 65.3759576623421
v -21.077705016012715 18.413064475041516 65.37595768227422
v -2.00196236598071 18.413066071170288 64.55779834173775
v -21.077705035944835 18.641061316114552 65.3759576623421
v -21.07770538652036 18.6410607941756 61.36584060835652
v -21.07770536658824 18.413063945651984 61.36584062828864
v -21.077705016012715 18.413064475041516 65.37595768227422
v -21.07770538652036 18.6410607941756 61.36584060835652
v -2.001962664962743 18.641062461829996 61.365838940702126
v -2.001962645030624 18.41306561330638 61.36583896063424
v -21.07770536658824 18.413063945651984 61.36584062828864
v -2.001962664962743 18.641062461829996 61.365838940702126
v -2.0019623859128255 18.64106287499042 64.55779832180563
v -2.00196236598071 18.413066071170288 64.55779834173775
v -2.001962645030624 18.41306561330638 61.36583896063424
v -0.31217792681039835 18.64526508281757 61.06015422611126
v -0.312177940098485 18.797263066273228 61.06015421282317
v -0.31217814917531106 18.79726285719637 58.668593896737356
v -0.31217813588722443 18.64526487374071 58.66859391002544
v 0.03841611692129199 18.645265106016893 61.06015419546135
v 0.038415907844486785 18.645264896940056 58.668594117794115
v 0.03841589455639971 18.797262880395714 58.66859410450603
v 0.03841610363320491 18.79726308947255 61.060154182173264
v -0.31217792681039835 18.64526508281757 61.06015422611126
v -0.31217813588722443 18.64526487374071 58.66859391002544
v 0.038415907844486785 18.645264896940056 58.668594117794115
v 0.03841611692129199 18.645265106016893 61.06015419546135
v -0.31217813588722443 18.64526487374071 58.66859391002544
v -0.31217814917531106 18.79726285719637 58.668593896737356
v 0.03841589455639971 18.797262880395714 58.66859410450603
v 0.038415907844486785 18.645264896940056 58.668594117794115
v -0.31217814917531106 18.79726285719637 58.668593896737356
v -0.312177940098485 18.797263066273228 61.06015421282317
v 0.03841610363320491 18.79726308947255 61.060154182173264
v 0.03841589455639971 18.797262880395714 58.66859410450603
v -0.312177940098485 18.797263066273228 61.06015421282317
v -0.31217792681039835 18.64526508281757 61.06015422611126
v 0.03841611692129199 18.645265106016893 61.06015419546135
v 0.03841610363320491 18.79726308947255 61.060154182173264
v -3.150512614714299 18.641062340930223 59.59741202676064
v 0.041446766389239276 18.641062485869732 59.59741186691999
v 0.04144581399071834 18.641060818215266 40.52166914536231
v -3.968671239994893 18.64106063900305 40.52166949593786
v -3.1505125947821835 18.41306553711009 59.59741204669275
v -3.968671220062774 18.413063797930015 40.521669515869974
v 0.041445833922837405 18.41306396969165 40.521669165294426
v 0.04144678632135834 18.413065637346115 59.59741188685211
v -3.150512614714299 18.641062340930223 59.59741202676064
v -3.968671239994893 18.64106063900305 40.52166949593786
v -3.968671220062774 18.413063797930015 40.521669515869974
v -3.1505125947821835 18.41306553711009 59.59741204669275
v -3.968671239994893 18.64106063900305 40.52166949593786
v 0.04144581399071834 18.641060818215266 40.52166914536231
v 0.041445833922837405 18.41306396969165 40.521669165294426
v -3.968671220062774 18.413063797930015 40.521669515869974
v 0.04144581399071834 18.641060818215266 40.52166914536231
v 0.041446766389239276 18.641062485869732 59.59741186691999
v 0.04144678632135834 18.413065637346115 59.59741188685211
v 0.041445833922837405 18.41306396969165 40.521669165294426
v 0.041446766389239276 18.641062485869732 59.59741186691999
v -3.150512614714299 18.641062340930223 59.59741202676064
v -3.1505125947821835 18.41306553711009 59.59741204669275
v 0.04144678632135834 18.413065637346115 59.59741188685211
v 0.34713076498953743 18.64526516030481 61.28719618783988
v 0.3471307517014508 18.797263143760468 61.287196174551795
v 2.738690829368706 18.79726335283731 61.28719617409123
v 2.7386908426567924 18.64526536938165 61.287196187379315
v 0.3471307956394436 18.64526518350414 61.637790261373894
v 2.738690873306698 18.64526539258098 61.63779026091333
v 2.738690860018611 18.79726337603664 61.63779024762524
v 0.3471307823513565 18.797263166959798 61.63779024808581
v 0.34713076498953743 18.64526516030481 61.28719618783988
v 2.7386908426567924 18.64526536938165 61.287196187379315
v 2.738690873306698 18.64526539258098 61.63779026091333
v 0.3471307956394436 18.64526518350414 61.637790261373894
v 2.7386908426567924 18.64526536938165 61.287196187379315
v 2.738690829368706 18.79726335283731 61.28719617409123
v 2.738690860018611 18.79726337603664 61.63779024762524
v 2.738690873306698 18.64526539258098 61.63779026091333
v 2.738690829368706 18.79726335283731 61.28719617409123
v 0.3471307517014508 18.797263143760468 61.287196174551795
v 0.3471307823513565 18.797263166959798 61.63779024808581
v 2.738690860018611 18.79726337603664 61.63779024762524
v 0.3471307517014508 18.797263143760468 61.287196174551795
v 0.34713076498953743 18.64526516030481 61.28719618783988
v 0.3471307956394436 18.64526518350414 61.637790261373894
v 0.3471307823513565 18.797263166959798 61.63779024808581
v 1.809873322702825 18.64106267417151 58.44886167874987
v 1.8098731249156015 18.641062819110985 61.64082098534764
v 20.885616323310522 18.64106448676557 61.640820986623254
v 20.885615972734975 18.641064307553332 57.63070400714345
v 1.8098733426349405 18.413065870351378 58.44886169868199
v 20.88561599266709 18.413067466480296 57.630704027075566
v 20.885616343242642 18.41306763824195 61.64082100655537
v 1.8098731448477205 18.41306597058737 61.640821005279754
v 1.809873322702825 18.64106267417151 58.44886167874987
v 20.885615972734975 18.641064307553332 57.63070400714345
v 20.88561599266709 18.413067466480296 57.630704027075566
v 1.8098733426349405 18.413065870351378 58.44886169868199
v 20.885615972734975 18.641064307553332 57.63070400714345
v 20.885616323310522 18.64106448676557 61.640820986623254
v 20.885616343242642 18.41306763824195 61.64082100655537
v 20.88561599266709 18.413067466480296 57.630704027075566
v 20.885616323310522 18.64106448676557 61.640820986623254
v 1.8098731249156015 18.641062819110985 61.64082098534764
v 1.8098731448477205 18.41306597058737 61.640821005279754
v 20.885616343242642 18.41306763824195 61.64082100655537
v 1.8098731249156015 18.641062819110985 61.64082098534764
v 1.809873322702825 18.64106267417151 58.44886167874987
v 1.8098733426349405 18.413065870351378 58.44886169868199
v 1.8098731448477205 18.41306597058737 61.640821005279754
v 0.12008838602847449 18.64526519809481 61.946505773709525
v 0.12008837274038786 18.797263181550466 61.94650576042144
v 0.12008834339863483 18.797263390627304 64.33806607650727
v 0.12008835668672146 18.645265407171646 64.33806608979536
v -0.23050589612179317 18.645265159994302 61.946505804359454
v -0.23050568704498797 18.64526536907114 64.33806588202668
v -0.23050570033307505 18.797263352526798 64.3380658687386
v -0.23050590940988025 18.79726314344996 61.94650579107137
v 0.12008838602847449 18.64526519809481 61.946505773709525
v 0.12008835668672146 18.645265407171646 64.33806608979536
v -0.23050568704498797 18.64526536907114 64.33806588202668
v -0.23050589612179317 18.645265159994302 61.946505804359454
v 0.12008835668672146 18.645265407171646 64.33806608979536
v 0.12008834339863483 18.797263390627304 64.33806607650727
v -0.23050570033307505 18.797263352526798 64.3380658687386
v -0.23050568704498797 18.64526536907114 64.33806588202668
v 0.12008834339863483 18.797263390627304 64.33806607650727
v 0.12008837274038786 18.797263181550466 61.94650576042144
v -0.23050590940988025 18.79726314344996 61.94650579107137
v -0.23050570033307505 18.797263352526798 64.3380658687386
v 0.12008837274038786 18.797263181550466 61.94650576042144
v 0.12008838602847449 18.64526519809481 61.946505773709525
v -0.23050589612179317 18.645265159994302 61.946505804359454
v -0.23050590940988025 18.79726314344996 61.94650579107137
v 2.9584228362485714 18.641063208231657 63.409248093004216
v -0.23353654485495312 18.641062795071235 63.4092481336356
v -0.2335363077121695 18.641064462725637 82.48499085519335
v 3.7765807462734107 18.64106498466456 82.48499050461777
v 2.958422856180687 18.413066404411524 63.40924811293633
v 3.7765807662055293 18.413068143591524 82.48499052454989
v -0.23353628778005042 18.41306761420202 82.48499087512546
v -0.23353652492283405 18.41306594654762 63.40924815356772
v 2.9584228362485714 18.641063208231657 63.409248093004216
v 3.7765807462734107 18.64106498466456 82.48499050461777
v 3.7765807662055293 18.413068143591524 82.48499052454989
v 2.958422856180687 18.413066404411524 63.40924811293633
v 3.7765807462734107 18.64106498466456 82.48499050461777
v -0.2335363077121695 18.641064462725637 82.48499085519335
v -0.23353628778005042 18.41306761420202 82.48499087512546
v 3.7765807662055293 18.413068143591524 82.48499052454989
v -0.2335363077121695 18.641064462725637 82.48499085519335
v -0.23353654485495312 18.641062795071235 63.4092481336356
v -0.23353652492283405 18.41306594654762 63.40924815356772
v -0.23353628778005042 18.41306761420202 82.48499087512546
v -0.23353654485495312 18.641062795071235 63.4092481336356
v 2.9584228362485714 18.641063208231657 63.409248093004216
v 2.958422856180687 18.413066404411524 63.40924811293633
v -0.23353652492283405 18.41306594654762 63.40924815356772
f 985 986 987
f 985 987 988
f 989 990 991
f 989 991 992
f 993 994 995
f 993 995 996
f 997 998 999
f 997 999 1000
f 1001 1002 1003
f 1001 1003 1004
f 1005 1006 1007
f 1005 1007 1008
f 1009 1010 1011
f 1009 1011 1012
f 1013 1014 1015
f 1013 1015 1016
f 1017 1018 1019
f 1017 1019 1020
f 1021 1022 1023
f 1021 1023 1024
f 1025 1026 1027
f 1025 1027 1028
f 1029 1030 1031
f 1029 1031 1032
f 1033 1034 1035
f 1033 1035 1036
f 1037 1038 1039
f 1037 1039 1040
f 1041 1042 1043
f 1041 1043 1044
f 1045 1046 1047
f 1045 1047 1048
f 1049 1050 1051
f 1049 1051 1052
f 1053 1054 1055
f 1053 1055 1056
f 1057 1058 1059
f 1057 1059 1060
f 1061 1062 1063
f 1061 1063 1064
f 1065 1066 1067
f 1065 1067 1068
f 1069 1070 1071
f 1069 1071 1072
f 1073 1074 1075
f 1073 1075 1076
f 1077 1078 1079
f 1077 1079 1080
f 1081 1082 1083
f 1081 1083 1084
f 1085 1086 1087
f 1085 1087 1088
f 1089 1090 1091
f 1089 1091 1092
f 1093 1094 1095
f 1093 1095 1096
f 1097 1098 1099
f 1097 1099 1100
f 1101 1102 1103
f 1101 1103 1104
f 1105 1106 1107
f 1105 1107 1108
f 1109 1110 1111
f 1109 1111 1112
f 1113 1114 1115
f 1113 1115 1116
f 1117 1118 1119
f 1117 1119 1120
f 1121 1122 1123
f 1121 1123 1124
f 1125 1126 1127
f 1125 1127 1128
f 1129 1130 1131
f 1129 1131 1132
f 1133 1134 1135
f 1133 1135 1136
f 1137 1138 1139
f 1137 1139 1140
f 1141 1142 1143
f 1141 1143 1144
f 1145 1146 1147
f 1145 1147 1148
f 1149 1150 1151
f 1149 1151 1152
f 1153 1154 1155
f 1153 1155 1156
f 1157 1158 1159
f 1157 1159 1160
f 1161 1162 1163
f 1161 1163 1164
f 1165 1166 1167
f 1165 1167 1168
f 1169 1170 1171
f 1169 1171 1172
f 1173 1174 1175
f 1173 1175 1176
