o convex_0
v -3.995305 -53.363356 0.296085
v 4.384741 -17.264698 32.527029
v -3.995305 -17.264698 32.527029
v 4.384741 -21.133926 26.725081
v 4.384741 -50.133699 4.810815
v 4.384741 -52.073613 0.296085
v -3.995305 -21.133926 26.725081
v -3.995305 -50.133699 4.810815
v -3.995305 -48.851023 2.876832
v -3.995305 -21.777030 29.302673
v 4.384741 -17.911336 32.527029
v -3.995305 -17.264698 30.593047
v 4.384741 -53.363356 1.586459
v 4.384741 -17.264698 30.593047
v 4.384741 -48.851023 2.876832
v -3.995305 -53.363356 1.586459
v -3.995305 -52.073613 0.296085
v 4.384741 -21.777030 29.302673
v -3.995305 -17.911336 32.527029
v -3.995305 -40.465930 13.190356
v 4.384741 -53.363356 0.296085
v -3.995305 -39.826359 10.615919
v 4.384741 -40.465930 13.190356
v 4.384741 -39.826359 10.615919
v 4.384741 -52.073613 2.876832
v 4.384741 -19.844183 28.012300
v -3.995305 -52.073613 2.876832
v -3.995305 -19.844183 28.012300
f 12 26 28 
f 4 2 5 
f 4 5 6 
f 1 3 7 
f 3 1 8 
f 1 7 9 
f 3 8 10 
f 2 3 11 
f 5 2 11 
f 3 2 12 
f 7 3 12 
f 6 5 13 
f 2 4 14 
f 12 2 14 
f 4 6 15 
f 6 9 15 
f 8 1 16 
f 1 13 16 
f 6 1 17 
f 1 9 17 
f 9 6 17 
f 5 11 18 
f 11 10 18 
f 3 10 19 
f 11 3 19 
f 10 11 19 
f 10 8 20 
f 18 10 20 
f 1 6 21 
f 13 1 21 
f 6 13 21 
f 7 4 22 
f 9 7 22 
f 15 9 22 
f 8 5 23 
f 5 18 23 
f 20 8 23 
f 18 20 23 
f 4 15 24 
f 22 4 24 
f 15 22 24 
f 5 8 25 
f 13 5 25 
f 4 7 26 
f 14 4 26 
f 12 14 26 
f 8 16 27 
f 16 13 27 
f 25 8 27 
f 13 25 27 
f 7 12 28 
f 26 7 28 
o convex_1
v -3.993917 -17.264698 31.237792
v 11.473340 -13.396985 32.526714
v 11.473340 -13.396985 31.882726
v -11.083904 -13.396985 32.526714
v 4.383352 -17.264698 33.171648
v 11.473340 -16.619574 31.882726
v -11.083904 -16.619574 32.526714
v -11.083904 -13.396985 31.882726
v -3.993917 -15.974829 33.171648
v 4.383352 -15.974829 31.237792
v -3.993917 -17.264698 33.171648
v 4.383352 -17.264698 31.237792
v -11.083904 -16.619574 31.882726
v 11.473340 -16.619574 32.526714
v 4.383352 -15.974829 33.171648
v -3.993917 -15.974829 31.237792
f 36 38 44 
f 30 31 32 
f 31 30 34 
f 32 31 36 
f 35 32 36 
f 30 32 37 
f 32 35 37 
f 31 34 38 
f 36 31 38 
f 29 33 39 
f 35 29 39 
f 33 37 39 
f 37 35 39 
f 33 29 40 
f 34 33 40 
f 29 38 40 
f 38 34 40 
f 29 35 41 
f 36 29 41 
f 35 36 41 
f 30 33 42 
f 34 30 42 
f 33 34 42 
f 33 30 43 
f 30 37 43 
f 37 33 43 
f 29 36 44 
f 38 29 44 
o convex_2
v 10.185806 12.387771 58.956404
v -11.083904 -13.396985 31.884304
v -11.083904 -11.461109 29.303935
v 11.473340 -13.396985 31.884304
v 10.830677 12.387771 29.303935
v -10.439033 12.387771 58.956404
v -10.439033 -11.461109 58.956404
v -11.083904 12.387771 29.303935
v 10.185806 -11.461109 58.956404
v 10.830677 -10.817500 29.303935
v 11.473340 11.741637 33.817403
v -11.083904 11.741637 33.817403
v 11.473340 -13.396985 32.531573
v 11.473340 11.741637 31.239937
v -11.083904 -13.396985 32.531573
v 11.473340 -11.461109 33.817403
v -11.083904 -11.461109 33.817403
v 11.473340 -11.461109 31.239937
v -9.151499 -11.461109 29.303935
v 10.830677 12.387771 31.884304
v -11.083904 12.387771 31.884304
f 52 56 65 
f 46 47 48 
f 45 49 50 
f 45 50 51 
f 47 46 52 
f 49 47 52 
f 50 49 52 
f 45 51 53 
f 47 49 54 
f 45 53 55 
f 51 50 56 
f 52 46 56 
f 46 48 57 
f 53 51 57 
f 48 55 57 
f 54 49 58 
f 49 55 58 
f 55 48 58 
f 56 46 59 
f 46 57 59 
f 57 51 59 
f 55 53 60 
f 53 57 60 
f 57 55 60 
f 51 56 61 
f 59 51 61 
f 56 59 61 
f 48 54 62 
f 58 48 62 
f 54 58 62 
f 48 47 63 
f 47 54 63 
f 54 48 63 
f 49 45 64 
f 45 55 64 
f 55 49 64 
f 50 52 65 
f 56 50 65 
o convex_3
v -0.127592 13.028099 82.160412
v -12.375350 -12.745930 62.181706
v 11.472772 -12.752366 62.181706
v 1.160006 19.473215 60.248796
v -0.772589 -12.745930 82.160412
v -12.375350 13.028099 64.761948
v 12.120167 13.031317 64.759677
v -10.437960 -11.458838 58.960946
v 10.185175 12.384553 58.956404
v -10.437960 12.384553 58.960946
v 10.185175 -11.462056 58.956404
v 12.120167 -12.752366 64.759677
v -11.727955 -12.745930 66.049798
v 1.805003 -12.745930 80.225230
v -0.772589 20.119979 62.181706
v -0.772589 13.028099 82.160412
v 1.805003 13.028099 80.225230
v 12.120167 13.031317 62.181706
v -12.375350 -9.524981 59.603736
v 11.472772 -11.462056 59.603736
v 0.515008 20.119979 62.181706
v -12.375350 13.028099 62.181706
v -9.150363 13.028099 69.917890
v -1.415189 19.473215 60.248796
v 12.120167 -12.752366 62.181706
v -12.375350 -12.745930 64.761948
v -0.127592 -12.745930 82.160412
v -11.727955 13.028099 66.049798
v -9.150363 -12.745930 69.917890
v 10.830172 12.384553 59.603736
v -11.085355 12.384553 59.603736
v 1.805003 19.473215 62.181706
f 86 82 97 
f 68 67 73 
f 74 73 75 
f 68 73 76 
f 73 74 76 
f 77 72 79 
f 70 66 81 
f 66 80 81 
f 66 79 82 
f 79 72 82 
f 72 77 83 
f 67 71 84 
f 73 67 84 
f 75 73 84 
f 76 74 85 
f 80 66 86 
f 69 80 86 
f 66 82 86 
f 71 80 87 
f 84 71 87 
f 70 81 88 
f 81 80 88 
f 69 74 89 
f 74 75 89 
f 80 69 89 
f 87 80 89 
f 68 76 90 
f 77 68 90 
f 83 77 90 
f 76 85 90 
f 85 83 90 
f 67 68 91 
f 71 67 91 
f 68 77 91 
f 78 71 91 
f 77 78 91 
f 66 70 92 
f 70 77 92 
f 79 66 92 
f 77 79 92 
f 71 78 93 
f 80 71 93 
f 78 88 93 
f 88 80 93 
f 77 70 94 
f 78 77 94 
f 88 78 94 
f 70 88 94 
f 74 69 95 
f 69 83 95 
f 85 74 95 
f 83 85 95 
f 75 84 96 
f 84 87 96 
f 89 75 96 
f 87 89 96 
f 82 72 97 
f 83 69 97 
f 72 83 97 
f 69 86 97 
o convex_4
v 6.963279 -4.372320 11.254606
v 7.607772 5.296963 13.188463
v 7.607772 5.296963 11.254606
v 6.963279 5.296963 13.188463
v 7.607772 -4.372320 13.188463
v 6.963279 5.296963 11.254606
v 7.607772 -4.372320 11.254606
v 6.963279 -4.372320 13.188463
f 102 101 105 
f 99 100 101 
f 100 99 102 
f 99 101 102 
f 100 98 103 
f 101 100 103 
f 98 101 103 
f 98 100 104 
f 102 98 104 
f 100 102 104 
f 101 98 105 
f 98 102 105 
o convex_5
v -7.862829 9.809295 11.254606
v -6.573907 8.519679 15.766939
v -7.218431 8.519679 15.766939
v -7.218431 -4.372320 11.254606
v -6.573907 8.519679 11.254606
v -7.862829 -4.372320 13.188778
v -7.862829 9.163793 15.122067
v -7.862829 -4.372320 11.254606
v -6.573907 6.585948 15.766939
v -7.218431 -4.372320 13.188778
v -7.218431 9.809295 13.188778
v -7.218431 6.585948 15.766939
v -6.573907 6.585948 11.899478
v -7.862829 6.585948 15.122067
v -6.573907 9.163793 15.122067
v -7.218431 9.809295 11.254606
v -6.573907 9.163793 12.544349
v -7.862829 9.809295 13.188778
v -6.573907 7.230062 11.254606
f 110 118 124 
f 109 106 110 
f 108 107 112 
f 106 111 112 
f 106 109 113 
f 111 106 113 
f 109 111 113 
f 107 108 114 
f 110 107 114 
f 114 111 115 
f 111 109 115 
f 109 114 115 
f 108 112 117 
f 114 108 117 
f 111 114 117 
f 114 109 118 
f 110 114 118 
f 112 111 119 
f 117 112 119 
f 111 117 119 
f 107 110 120 
f 112 107 120 
f 116 112 120 
f 116 120 121 
f 110 106 121 
f 106 116 121 
f 110 121 122 
f 120 110 122 
f 121 120 122 
f 106 112 123 
f 116 106 123 
f 112 116 123 
f 109 110 124 
f 118 109 124 
o convex_6
v 5.028287 -7.595478 15.122067
v -5.928089 -8.239908 12.544096
v -5.928089 -8.239908 15.122067
v -5.928089 -7.595478 12.544096
v 5.028287 -8.239908 12.544096
v -5.928089 -7.595478 15.122067
v 5.028287 -8.239908 15.122067
v 5.028287 -7.595478 12.544096
f 129 128 132 
f 126 127 128 
f 127 126 129 
f 126 128 129 
f 127 125 130 
f 128 127 130 
f 125 128 130 
f 125 127 131 
f 129 125 131 
f 127 129 131 
f 128 125 132 
f 125 129 132 
o convex_7
v -7.218273 -6.306177 15.766939
v -4.640050 -5.017192 29.303935
v -4.640050 -6.950165 29.303935
v -6.573717 -5.017192 29.303935
v -7.218273 -7.595162 22.857431
v -5.929162 -7.595162 15.766939
v -5.929162 -5.662189 16.412251
v -6.573717 -6.950165 29.303935
v -5.284606 -7.595162 19.634841
v -7.218273 -5.662189 16.412251
v -7.218273 -7.595162 15.766939
v -7.218273 -5.662189 23.501419
v -5.284606 -5.662189 19.634841
v -5.284606 -7.595162 22.857431
v -4.640050 -5.017192 28.657297
v -6.573717 -5.017192 28.014634
v -5.929162 -6.306177 15.766939
v -4.640050 -6.950165 28.657297
v -5.284606 -5.017192 28.011984
v -7.218273 -6.950165 23.501419
v -5.929162 -5.017192 28.011984
f 148 151 153 
f 135 134 136 
f 135 136 140 
f 137 135 140 
f 137 138 141 
f 133 137 142 
f 139 133 142 
f 137 133 143 
f 138 137 143 
f 133 138 143 
f 140 136 144 
f 142 137 144 
f 136 142 144 
f 141 138 145 
f 135 137 146 
f 141 135 146 
f 137 141 146 
f 134 135 147 
f 136 134 147 
f 145 139 147 
f 141 145 147 
f 142 136 148 
f 136 147 148 
f 138 133 149 
f 133 139 149 
f 145 138 149 
f 139 145 149 
f 135 141 150 
f 147 135 150 
f 141 147 150 
f 139 142 151 
f 147 139 151 
f 148 147 151 
f 137 140 152 
f 140 144 152 
f 144 137 152 
f 142 148 153 
f 151 142 153 
o convex_8
v 4.384993 -5.661937 27.368816
v 6.962964 -5.661937 22.213127
v 6.962964 -7.595162 22.213127
v 5.673978 -7.595162 15.122320
v 4.384993 -6.950417 29.303935
v 6.318219 -5.017192 29.303935
v 5.673978 -5.661937 16.411936
v 6.962964 -6.306177 15.122320
v 6.318219 -6.950417 29.303935
v 4.384993 -5.017192 29.303935
v 5.029738 -7.595162 18.345666
v 5.029738 -5.661937 18.345666
v 6.962964 -7.595162 15.122320
v 6.962964 -5.661937 16.411936
v 5.029738 -7.595162 22.855853
v 4.384993 -5.017192 28.014319
v 5.673978 -6.306177 15.122320
v 4.384993 -6.950417 27.368816
v 6.318219 -5.017192 28.014319
v 6.318219 -7.595162 22.855853
f 162 168 173 
f 156 155 159 
f 155 156 161 
f 156 159 162 
f 159 158 162 
f 154 158 163 
f 158 159 163 
f 157 156 164 
f 157 164 165 
f 164 154 165 
f 156 157 166 
f 157 161 166 
f 161 156 166 
f 159 155 167 
f 161 160 167 
f 155 161 167 
f 162 158 168 
f 164 156 168 
f 158 164 168 
f 154 163 169 
f 163 159 169 
f 160 165 169 
f 165 154 169 
f 161 157 170 
f 160 161 170 
f 157 165 170 
f 165 160 170 
f 158 154 171 
f 154 164 171 
f 164 158 171 
f 159 167 172 
f 167 160 172 
f 169 159 172 
f 160 169 172 
f 156 162 173 
f 168 156 173 
o convex_9
v -8.507637 7.875754 -0.347398
v -6.573780 8.519931 11.252335
v -6.573780 7.230819 11.252335
v -6.573780 7.230819 2.231456
v -7.218715 9.164676 -0.347398
v -8.507637 9.164676 6.096898
v -7.862703 7.230819 11.252335
v -8.507637 7.230819 6.096898
v -6.573780 9.164676 2.231456
v -8.507637 9.164676 -0.347398
v -7.862703 9.164676 8.674617
v -7.218715 7.230819 0.297600
v -7.862703 8.519931 11.252335
v -6.573780 9.164676 8.674617
v -8.507637 7.230819 0.297600
v -7.218715 7.875754 -0.347398
f 177 185 189 
f 175 176 177 
f 176 175 180 
f 177 176 180 
f 180 179 181 
f 179 174 181 
f 177 180 181 
f 175 177 182 
f 177 178 182 
f 178 179 182 
f 178 174 183 
f 179 178 183 
f 174 179 183 
f 182 179 184 
f 177 181 185 
f 180 175 186 
f 179 180 186 
f 175 184 186 
f 184 179 186 
f 175 182 187 
f 184 175 187 
f 182 184 187 
f 181 174 188 
f 174 185 188 
f 185 181 188 
f 174 178 189 
f 178 177 189 
f 185 174 189 
o convex_10
v -5.927584 8.519584 15.766939
v -6.573780 7.231419 11.254606
v -6.573780 8.519584 11.254606
v 5.673978 7.875628 12.544349
v -6.573780 6.586705 15.766939
v 5.673978 9.164550 15.122067
v -6.573780 9.164298 15.122067
v 5.673978 9.164550 12.544349
v 5.673978 7.875628 15.122067
v -5.927584 6.586705 11.899478
v -6.573780 9.164298 12.544349
v -5.927584 6.586705 15.766939
v -5.927584 7.231419 11.254606
v -6.573780 6.586705 11.899478
v -5.927584 8.519584 11.254606
v -6.573780 8.519584 15.766939
v 1.161394 9.164550 12.544349
v 1.161394 9.164550 15.122067
f 206 196 207 
f 192 191 194 
f 192 194 196 
f 195 193 197 
f 193 195 198 
f 193 198 199 
f 192 196 200 
f 190 194 201 
f 195 190 201 
f 198 195 201 
f 194 199 201 
f 199 198 201 
f 191 192 202 
f 199 191 202 
f 193 199 202 
f 194 191 203 
f 191 199 203 
f 199 194 203 
f 192 197 204 
f 197 193 204 
f 202 192 204 
f 193 202 204 
f 194 190 205 
f 190 195 205 
f 196 194 205 
f 195 197 206 
f 197 192 206 
f 192 200 206 
f 200 196 206 
f 205 195 207 
f 196 205 207 
f 195 206 207 
o convex_11
v -7.218336 8.519805 15.766939
v -4.640176 7.230820 29.303935
v -4.640176 5.942339 29.303935
v -6.573733 5.942339 29.303935
v -5.928878 6.586579 15.766939
v -6.573733 7.874808 28.658622
v -5.928878 8.519553 15.766939
v -7.218336 6.586327 15.766939
v -7.218336 7.875060 23.501419
v -5.285032 5.942339 23.501419
v -5.285032 6.586579 19.637491
v -5.285032 7.874808 28.658622
v -7.218336 8.519805 18.990853
v -7.218336 6.586327 23.501419
v -6.573733 5.942339 23.501419
v -5.285032 7.874808 19.637491
v -5.928878 8.519553 18.993503
v -6.573733 7.230820 29.303935
v -4.640176 5.942339 28.658622
v -4.640176 7.230820 28.658622
v -6.573733 8.519805 18.990853
v -6.573733 6.586327 15.766939
v -6.573733 8.519805 15.766939
f 228 214 230 
f 210 209 211 
f 212 208 214 
f 208 212 215 
f 208 215 216 
f 210 211 217 
f 212 214 218 
f 217 212 218 
f 213 209 219 
f 208 216 220 
f 216 213 220 
f 213 219 220 
f 215 211 221 
f 211 216 221 
f 216 215 221 
f 211 215 222 
f 217 211 222 
f 215 217 222 
f 218 214 223 
f 209 214 224 
f 219 209 224 
f 211 209 225 
f 209 213 225 
f 213 216 225 
f 216 211 225 
f 209 210 226 
f 210 217 226 
f 217 218 226 
f 218 223 226 
f 226 223 227 
f 214 209 227 
f 223 214 227 
f 209 226 227 
f 220 219 228 
f 208 220 228 
f 224 214 228 
f 219 224 228 
f 215 212 229 
f 212 217 229 
f 217 215 229 
f 214 208 230 
f 208 228 230 
o convex_12
v -7.218147 -4.372320 13.187951
v -7.862766 -8.884653 11.254104
v -7.218147 -8.884653 11.254104
v -8.507385 -6.950922 -0.347398
v -6.574033 -8.884211 2.231590
v -5.929414 -7.595352 15.766939
v -6.574033 -6.950922 2.231590
v -7.862766 -6.306493 15.121797
v -8.507385 -8.884211 -0.347398
v -5.929414 -6.306493 11.254104
v -8.507385 -6.306934 6.097706
v -7.862766 -8.239781 15.121797
v -7.218652 -6.950922 -0.347398
v -7.862766 -4.372320 11.254104
v -5.929414 -8.239781 15.121797
v -5.929414 -6.306493 15.766939
v -7.218147 -4.372320 11.254104
v -8.507385 -8.239340 6.097706
v -7.218652 -8.884211 -0.347398
v -7.862766 -4.372320 13.187951
v -7.862766 -8.884653 13.187951
v -5.929414 -8.239781 11.254104
v -7.218147 -6.306493 15.766939
v -7.218147 -8.884653 13.187951
v -8.507385 -8.884211 2.876731
v -7.218147 -7.595352 15.766939
v -6.574033 -6.306934 5.454142
v -6.574033 -8.884211 2.876731
v -8.507385 -6.306934 5.454142
f 241 244 259 
f 233 232 239 
f 235 237 240 
f 234 239 241 
f 238 241 242 
f 237 235 243 
f 239 234 243 
f 243 234 244 
f 240 236 245 
f 236 242 245 
f 240 231 246 
f 236 240 246 
f 231 240 247 
f 237 243 247 
f 244 231 247 
f 243 244 247 
f 241 239 248 
f 242 241 248 
f 235 233 249 
f 233 239 249 
f 243 235 249 
f 239 243 249 
f 241 238 250 
f 231 244 250 
f 244 241 250 
f 246 231 250 
f 232 233 251 
f 239 232 251 
f 245 242 251 
f 242 248 251 
f 235 240 252 
f 245 235 252 
f 240 245 252 
f 238 242 253 
f 236 246 253 
f 250 238 253 
f 246 250 253 
f 233 235 254 
f 251 233 254 
f 245 251 254 
f 248 239 255 
f 239 251 255 
f 251 248 255 
f 242 236 256 
f 236 253 256 
f 253 242 256 
f 240 237 257 
f 247 240 257 
f 237 247 257 
f 235 245 258 
f 254 235 258 
f 245 254 258 
f 234 241 259 
f 244 234 259 
o convex_13
v 7.607519 9.809295 13.189585
v 6.962459 5.296963 11.256560
v 6.318913 7.231135 0.944188
v 4.384867 7.875123 28.656691
v 6.318534 5.941834 29.303935
v 4.384867 5.941834 27.365105
v 8.252201 7.231135 0.299846
v 6.318913 9.164424 0.944188
v 7.607519 5.296963 13.189585
v 6.318534 7.875123 28.656691
v 8.252201 9.164424 -0.347398
v 5.674609 9.164424 15.122610
v 7.607519 9.164424 15.122610
v 8.252201 9.164424 4.810239
v 6.962459 9.809295 11.256560
v 4.384867 5.941834 29.301033
v 8.252201 7.231135 4.810239
v 6.963216 7.875565 -0.347398
v 4.384867 7.875123 27.365105
v 7.607519 7.875123 15.122610
v 6.318534 7.231135 29.303935
v 6.962459 9.809295 13.189585
v 6.963216 9.164424 -0.347398
v 5.674609 9.164424 12.545243
v 5.674609 8.519552 9.320632
v 7.607519 5.296963 11.256560
v 6.963216 7.231135 0.299846
v 4.384867 7.231135 29.301033
v 8.252201 7.875565 -0.347398
v 5.674609 7.231135 9.320632
v 6.962459 5.296963 13.189585
v 7.607519 9.809295 11.256560
f 270 274 291 
f 262 261 265 
f 260 263 269 
f 260 269 272 
f 270 260 273 
f 266 270 273 
f 260 272 273 
f 265 261 275 
f 263 265 275 
f 268 266 276 
f 266 273 276 
f 273 272 276 
f 262 267 277 
f 265 263 278 
f 263 271 278 
f 264 268 279 
f 272 264 279 
f 268 276 279 
f 276 272 279 
f 269 263 280 
f 264 272 280 
f 272 269 280 
f 275 264 280 
f 263 260 281 
f 271 263 281 
f 260 274 281 
f 274 271 281 
f 274 270 282 
f 267 274 282 
f 277 267 282 
f 270 277 282 
f 274 267 283 
f 271 274 283 
f 267 278 283 
f 278 271 283 
f 267 262 284 
f 265 278 284 
f 278 267 284 
f 261 266 285 
f 268 261 285 
f 266 268 285 
f 261 262 286 
f 266 261 286 
f 262 277 286 
f 277 266 286 
f 263 275 287 
f 280 263 287 
f 275 280 287 
f 270 266 288 
f 266 277 288 
f 277 270 288 
f 262 265 289 
f 284 262 289 
f 265 284 289 
f 268 264 290 
f 261 268 290 
f 264 275 290 
f 275 261 290 
f 260 270 291 
f 274 260 291 
o convex_14
v 7.607431 -4.372320 13.187083
v 6.962661 -8.884653 11.253360
v 7.607431 -8.884653 11.253360
v 6.962976 -6.950922 -0.345947
v 5.029927 -7.595352 15.120805
v 8.252201 -8.884211 -0.345947
v 6.319152 -8.884211 0.942697
v 7.607431 -8.239781 15.120805
v 5.674698 -6.306934 9.319638
v 8.252201 -6.950922 -0.345947
v 6.962661 -4.372320 11.253360
v 5.029927 -8.239781 15.120805
v 8.252201 -6.950922 4.810142
v 6.319152 -6.950922 0.942697
v 5.674382 -6.306493 15.120805
v 5.029927 -7.595352 12.543518
v 8.252201 -8.884211 2.876420
v 7.607431 -8.884653 13.187083
v 6.962661 -6.306493 15.120805
v 7.607431 -4.372320 11.253360
v 6.962976 -8.884211 -0.345947
v 6.962661 -4.372320 13.187083
v 5.029927 -8.239781 12.543518
v 7.607431 -7.595352 15.120805
v 8.252201 -8.239340 4.810142
v 6.962661 -8.884653 13.187083
v 6.319152 -8.884211 2.876420
v 5.674382 -6.306493 10.609796
f 306 313 319 
f 294 293 297 
f 297 295 301 
f 299 296 303 
f 301 292 304 
f 297 301 304 
f 295 298 305 
f 302 295 305 
f 300 302 305 
f 296 299 306 
f 303 296 307 
f 305 298 307 
f 300 305 307 
f 296 306 307 
f 294 297 308 
f 297 304 308 
f 293 294 309 
f 299 303 309 
f 294 308 309 
f 308 299 309 
f 292 306 310 
f 306 299 310 
f 292 301 311 
f 301 295 311 
f 302 292 311 
f 295 302 311 
f 297 293 312 
f 295 297 312 
f 298 295 312 
f 293 298 312 
f 292 302 313 
f 306 292 313 
f 298 303 314 
f 303 307 314 
f 307 298 314 
f 304 292 315 
f 299 304 315 
f 292 310 315 
f 310 299 315 
f 304 299 316 
f 299 308 316 
f 308 304 316 
f 298 293 317 
f 293 309 317 
f 309 303 317 
f 303 298 318 
f 298 317 318 
f 317 303 318 
f 302 300 319 
f 300 307 319 
f 307 306 319 
f 313 302 319 
