o convex_0
v -20.902916 7.345466 -0.015513
v -14.987647 10.431693 19.014359
v -14.987647 7.345466 19.014359
v -14.987647 10.431693 -0.015513
v -20.902916 10.431693 19.014359
v -20.902916 7.345466 19.014359
v -14.987647 7.345466 -0.015513
v -20.902916 10.431693 -0.015513
f 5 4 8 
f 2 3 4 
f 3 2 5 
f 2 4 5 
f 1 3 6 
f 5 1 6 
f 3 5 6 
f 3 1 7 
f 4 3 7 
f 1 4 7 
f 4 1 8 
f 1 5 8 
o convex_1
v -12.418710 10.431693 24.414376
v -20.901456 7.345466 19.014913
v -21.929292 7.345466 19.272426
v -28.616420 10.174004 19.529385
v -28.100437 7.603155 24.157417
v -7.531328 7.603155 19.529385
v -7.531328 10.174004 19.529385
v -8.047310 7.603155 24.157417
v -28.100437 10.174004 24.157417
v -28.616420 7.603155 19.529385
v -14.988301 7.345466 24.671889
v -14.988301 10.431693 19.014913
v -7.531328 10.174004 23.899904
v -20.901456 10.431693 24.671889
v -24.245019 10.431693 19.272426
v -14.988301 7.345466 19.014913
v -20.901456 7.345466 24.671889
v -28.616420 7.603155 23.899904
v -28.616420 10.174004 23.899904
v -11.132883 10.431693 19.529385
v -7.531328 7.603155 23.899904
v -25.014865 10.431693 24.157417
v -14.988301 10.431693 24.671889
v -20.901456 10.431693 19.014913
v -8.047310 10.174004 24.157417
v -13.960465 7.345466 24.414376
v -11.132883 10.431693 24.157417
v -21.929292 7.345466 24.414376
v -13.960465 7.345466 19.272426
v -25.014865 10.431693 19.529385
v -11.902728 10.431693 19.272426
v -23.729037 10.431693 24.414376
f 22 30 40 
f 10 11 18 
f 11 10 19 
f 15 14 20 
f 14 15 21 
f 17 13 22 
f 9 20 22 
f 22 20 23 
f 19 10 24 
f 10 20 24 
f 20 14 24 
f 11 19 25 
f 22 13 25 
f 19 22 25 
f 13 17 26 
f 18 11 26 
f 12 18 26 
f 12 26 27 
f 26 17 27 
f 20 9 28 
f 21 15 28 
f 14 21 29 
f 21 16 29 
f 22 23 30 
f 27 17 30 
f 12 27 30 
f 19 16 31 
f 22 19 31 
f 9 22 31 
f 10 18 32 
f 18 12 32 
f 20 10 32 
f 23 20 32 
f 12 23 32 
f 16 21 33 
f 9 31 33 
f 31 16 33 
f 16 19 34 
f 19 24 34 
f 14 29 34 
f 29 16 34 
f 28 9 35 
f 21 28 35 
f 9 33 35 
f 33 21 35 
f 11 25 36 
f 25 13 36 
f 13 26 36 
f 26 11 36 
f 24 14 37 
f 34 24 37 
f 14 34 37 
f 23 12 38 
f 30 23 38 
f 12 30 38 
f 15 20 39 
f 20 28 39 
f 28 15 39 
f 17 22 40 
f 30 17 40 
o convex_2
v -20.902916 7.603155 29.817111
v -14.987647 10.431693 25.960057
v -14.987647 7.345466 25.960057
v -15.502395 10.174004 36.500665
v -20.902916 10.431693 24.673600
v -20.644673 7.603155 36.500665
v -20.644673 10.174004 36.500665
v -15.502395 7.603155 36.500665
v -20.902916 7.345466 24.673600
v -14.987647 7.345466 24.673600
v -14.987647 10.431693 24.673600
v -15.245889 10.431693 32.643610
v -20.902916 10.431693 29.817111
v -15.245889 7.603155 33.673007
v -20.902916 7.345466 26.731236
v -20.644673 10.431693 32.643610
v -15.245889 10.174004 33.673007
v -15.245889 7.345466 26.731236
f 55 43 58 
f 41 46 47 
f 46 44 47 
f 44 46 48 
f 41 45 49 
f 42 43 50 
f 49 45 50 
f 43 49 50 
f 45 42 51 
f 42 50 51 
f 50 45 51 
f 42 45 52 
f 47 44 52 
f 45 41 53 
f 41 47 53 
f 52 45 53 
f 43 42 54 
f 48 43 54 
f 44 48 54 
f 46 41 55 
f 41 49 55 
f 49 43 55 
f 47 52 56 
f 53 47 56 
f 52 53 56 
f 42 52 57 
f 52 44 57 
f 54 42 57 
f 44 54 57 
f 43 48 58 
f 48 46 58 
f 46 55 58 
o convex_3
v -26.301196 -0.628295 -1.046119
v -28.103735 -10.914712 -1.303304
v -27.845194 -10.914712 -1.303304
v -15.761419 1.944568 -1.303304
v -15.761419 1.428485 -1.046119
v -27.845194 -10.914712 -1.046119
v -26.558529 -0.886336 -1.303304
v -21.161786 1.944568 -1.046119
v -21.161786 1.944568 -1.303304
v -28.103735 -9.113456 -1.046119
v -15.761419 1.428485 -1.303304
v -15.761419 1.944568 -1.046119
v -28.103735 -9.113456 -1.303304
v -26.815862 -1.655426 -1.046119
v -26.815862 -1.655426 -1.303304
v -26.301196 -0.628295 -1.303304
v -28.103735 -10.914712 -1.046119
v -26.558529 -0.886336 -1.046119
v -27.845194 -7.571501 -1.303304
v -27.589069 -10.656671 -1.046119
v -27.845194 -7.571501 -1.046119
v -27.589069 -10.656671 -1.303304
f 69 78 80 
f 61 60 62 
f 60 61 64 
f 63 59 64 
f 62 60 65 
f 59 63 66 
f 62 65 67 
f 66 62 67 
f 59 66 67 
f 64 59 68 
f 61 62 69 
f 62 63 69 
f 63 62 70 
f 62 66 70 
f 66 63 70 
f 65 60 71 
f 60 68 71 
f 68 59 72 
f 72 65 73 
f 65 71 73 
f 65 59 74 
f 59 67 74 
f 67 65 74 
f 60 64 75 
f 68 60 75 
f 64 68 75 
f 59 65 76 
f 72 59 76 
f 65 72 76 
f 71 68 77 
f 72 73 77 
f 73 71 77 
f 64 61 78 
f 63 64 78 
f 69 63 78 
f 68 72 79 
f 77 68 79 
f 72 77 79 
f 61 69 80 
f 78 61 80 
o convex_4
v -8.815293 -9.630849 -0.531747
v -9.843934 -7.060453 -1.046018
v -9.843934 -7.060453 -0.788933
v -9.586698 -21.459322 -0.788933
v -8.300821 -20.173294 -1.303304
v -9.072377 -20.429170 -0.274562
v -8.300821 -9.632510 -1.303304
v -9.843934 -4.485072 -1.303304
v -9.586698 -8.858234 -0.274562
v -9.072377 -5.000148 -1.046119
v -9.586698 -20.942585 -0.274562
v -8.815746 -20.173294 -1.303304
v -8.300821 -20.173294 -1.046119
v -8.300821 -9.632510 -1.046119
v -9.072377 -10.401801 -0.274562
v -9.329462 -6.801253 -0.531747
v -9.843934 -4.485072 -1.046119
v -9.072377 -5.000148 -1.303304
v -9.072377 -21.200123 -0.531747
v -9.072377 -6.030300 -0.788933
v -9.329009 -4.485072 -1.046119
v -9.843934 -5.772762 -0.788933
v -9.843934 -4.744272 -1.303304
v -8.558057 -9.117434 -0.788933
v -9.329462 -8.858234 -0.274562
v -9.329462 -21.459322 -0.788933
v -9.586698 -21.459322 -0.531747
v -9.586698 -6.801253 -0.531747
v -9.329009 -4.485072 -1.303304
v -8.815293 -20.686708 -0.531747
v -9.329462 -20.942585 -0.274562
v -9.329462 -21.459322 -0.531747
f 99 111 112 
f 83 82 84 
f 87 85 88 
f 82 83 88 
f 89 83 91 
f 86 89 91 
f 85 84 92 
f 88 85 92 
f 85 87 93 
f 93 87 94 
f 87 90 94 
f 86 93 94 
f 89 86 95 
f 86 94 95 
f 88 83 97 
f 87 88 98 
f 90 87 98 
f 85 93 99 
f 96 100 101 
f 88 97 101 
f 97 96 101 
f 90 98 101 
f 100 90 101 
f 83 89 102 
f 97 83 102 
f 84 82 103 
f 82 88 103 
f 92 84 103 
f 88 92 103 
f 94 90 104 
f 81 95 104 
f 95 94 104 
f 100 81 104 
f 90 100 104 
f 89 95 105 
f 95 81 105 
f 96 89 105 
f 81 100 105 
f 100 96 105 
f 84 85 106 
f 85 99 106 
f 83 84 107 
f 91 83 107 
f 84 106 107 
f 89 96 108 
f 96 97 108 
f 102 89 108 
f 97 102 108 
f 98 88 109 
f 88 101 109 
f 101 98 109 
f 93 86 110 
f 86 99 110 
f 99 93 110 
f 86 91 111 
f 99 86 111 
f 91 107 111 
f 111 107 112 
f 106 99 112 
f 107 106 112 
o convex_5
v -10.615844 -9.629036 0.754394
v -14.216090 -20.943541 2.554009
v -13.958703 -20.943541 2.297108
v -12.930061 -6.028186 1.525751
v -9.844589 -20.428465 -0.531747
v -13.186995 -20.943541 2.554009
v -13.701316 -9.629036 2.811565
v -9.844589 -20.428465 0.239937
v -9.586749 -10.403211 -0.531747
v -12.930061 -21.973694 1.525751
v -14.216090 -9.629036 2.554009
v -12.672674 -6.028186 1.782652
v -9.586749 -10.403211 -0.017291
v -12.415740 -9.629036 2.039880
v -9.844589 -10.403211 -0.531747
v -14.216090 -20.943541 2.811565
v -9.586749 -20.428465 -0.531747
v -12.672674 -21.973694 1.782652
v -14.216090 -9.629036 2.811565
v -13.701316 -20.943541 2.811565
v -9.586749 -20.428465 -0.017291
v -10.872777 -8.086929 0.497165
v -9.844589 -10.403211 0.239937
v -12.415740 -20.943541 2.039880
v -13.186995 -9.629036 2.554009
v -10.872777 -8.086929 0.754394
v -13.958703 -9.629036 2.297108
v -10.872777 -21.201079 0.754394
v -10.615844 -20.943541 0.754394
v -12.930061 -6.028186 1.782652
v -10.872777 -21.201079 0.497165
v -12.415740 -21.716155 1.782652
f 130 141 144 
f 114 115 122 
f 115 116 122 
f 116 117 122 
f 115 114 123 
f 117 116 127 
f 121 117 127 
f 114 122 128 
f 123 114 128 
f 117 121 129 
f 122 117 129 
f 121 125 129 
f 128 122 130 
f 116 123 131 
f 119 124 131 
f 128 119 131 
f 123 128 131 
f 118 119 132 
f 119 128 132 
f 128 130 132 
f 125 120 133 
f 129 125 133 
f 116 124 134 
f 125 121 134 
f 127 116 134 
f 121 127 134 
f 120 125 135 
f 113 126 135 
f 126 120 135 
f 126 118 136 
f 120 126 136 
f 119 118 137 
f 124 119 137 
f 118 126 137 
f 126 124 137 
f 126 113 138 
f 124 126 138 
f 134 124 138 
f 125 134 138 
f 113 135 138 
f 135 125 138 
f 116 115 139 
f 115 123 139 
f 123 116 139 
f 129 133 140 
f 133 120 141 
f 120 136 141 
f 130 140 141 
f 140 133 141 
f 124 116 142 
f 116 131 142 
f 131 124 142 
f 122 129 143 
f 130 122 143 
f 129 140 143 
f 140 130 143 
f 118 132 144 
f 132 130 144 
f 136 118 144 
f 141 136 144 
o convex_6
v -21.674120 -9.885970 3.583222
v -22.445601 -21.459322 2.811665
v -21.674120 -21.459322 2.811665
v -18.074302 -21.459322 3.583222
v -18.074302 -9.885970 3.325986
v -22.445601 -9.885970 2.811665
v -21.674120 -21.459322 3.583222
v -18.074302 -21.459322 3.068901
v -18.074302 -9.885970 3.583222
v -22.445601 -21.459322 3.068901
v -21.931280 -9.885970 2.811665
v -22.188441 -9.885970 3.325986
v -22.445601 -9.885970 3.068901
v -22.188441 -21.459322 3.325986
v -18.074302 -21.199896 3.068901
v -21.674120 -21.199896 2.811665
f 159 147 160 
f 146 147 148 
f 147 146 150 
f 145 149 150 
f 146 148 151 
f 148 145 151 
f 148 147 152 
f 149 148 152 
f 145 148 153 
f 149 145 153 
f 148 149 153 
f 150 146 154 
f 146 151 154 
f 147 150 155 
f 150 149 155 
f 145 150 156 
f 151 145 156 
f 154 156 157 
f 150 154 157 
f 156 150 157 
f 154 151 158 
f 151 156 158 
f 156 154 158 
f 152 147 159 
f 149 152 159 
f 155 149 159 
f 155 159 160 
f 147 155 160 
o convex_7
v -23.730745 -24.801763 1.783200
v -14.217701 -21.459448 3.068750
v -14.217701 -21.459448 2.811640
v -14.987659 -26.088663 1.783200
v -23.473455 -22.231135 1.525914
v -21.673379 -22.231135 3.325860
v -14.987659 -24.801763 1.525914
v -21.417046 -26.088210 1.525914
v -22.445250 -21.459448 3.068750
v -14.732281 -22.231135 3.325860
v -21.417046 -26.088210 1.783200
v -14.474991 -21.459448 3.325860
v -23.988992 -22.231135 1.783200
v -14.987659 -26.088663 1.525914
v -23.730745 -24.801763 1.525914
v -22.445250 -21.459448 2.811640
v -21.929713 -21.459448 3.325860
v -22.445250 -22.231135 3.068750
v -23.473455 -25.059143 1.783200
v -23.473455 -22.488968 2.297244
v -23.988992 -22.231135 1.525914
v -23.988992 -23.517582 1.783200
v -14.217701 -21.716828 3.068750
v -21.930670 -24.031436 2.554354
v -23.988992 -23.517582 1.525914
v -23.473455 -25.059143 1.525914
v -14.217701 -21.716828 2.811640
v -22.187960 -23.260655 2.811640
v -14.474991 -21.716828 3.325860
v -21.929713 -21.974208 3.325860
v -23.473455 -22.231135 2.297244
v -21.673379 -23.517582 2.811640
f 188 184 192 
f 165 163 167 
f 165 167 168 
f 162 163 169 
f 168 164 171 
f 162 169 172 
f 166 170 172 
f 167 163 174 
f 168 167 174 
f 164 168 174 
f 165 168 175 
f 163 165 176 
f 169 163 176 
f 173 169 176 
f 172 169 177 
f 166 172 177 
f 177 169 178 
f 168 171 179 
f 161 175 179 
f 178 169 180 
f 165 175 181 
f 176 165 181 
f 173 176 181 
f 175 161 182 
f 161 178 182 
f 180 173 182 
f 178 180 182 
f 173 181 182 
f 163 162 183 
f 162 172 183 
f 164 174 183 
f 179 171 184 
f 181 175 185 
f 175 182 185 
f 182 181 185 
f 175 168 186 
f 168 179 186 
f 179 175 186 
f 174 163 187 
f 163 183 187 
f 183 174 187 
f 178 161 188 
f 166 178 188 
f 161 179 188 
f 179 184 188 
f 170 164 189 
f 172 170 189 
f 164 183 189 
f 183 172 189 
f 166 177 190 
f 178 166 190 
f 177 178 190 
f 169 173 191 
f 173 180 191 
f 180 169 191 
f 164 170 192 
f 170 166 192 
f 171 164 192 
f 184 171 192 
f 166 188 192 
o convex_8
v -8.301551 -20.173394 -1.046119
v -15.758473 -32.775489 -1.303304
v -15.758473 -32.775489 -1.046119
v -9.844765 -29.944459 -1.303304
v -9.073158 -20.432443 -1.303304
v -9.844765 -29.944459 -1.046119
v -8.301551 -21.203421 -1.303304
v -15.243825 -31.232300 -1.046119
v -9.073158 -20.432443 -1.046119
v -15.243825 -31.232300 -1.303304
v -15.243825 -32.775489 -1.046119
v -9.073158 -25.832988 -1.046119
v -10.101724 -30.202274 -1.303304
v -15.243825 -32.775489 -1.303304
v -9.587806 -28.916899 -1.303304
v -8.301551 -21.203421 -1.046119
v -8.301551 -20.173394 -1.303304
v -10.101724 -30.202274 -1.046119
v -15.758473 -32.261093 -1.303304
v -8.816199 -20.173394 -1.303304
v -15.758473 -32.261093 -1.046119
v -9.587806 -28.916899 -1.046119
v -8.816199 -20.173394 -1.046119
v -11.131020 -24.031984 -1.303304
v -14.215259 -29.430062 -1.046119
v -11.131020 -24.031984 -1.046119
v -14.215259 -29.430062 -1.303304
v -9.073158 -25.832988 -1.303304
f 204 207 220 
f 196 194 197 
f 193 195 198 
f 196 197 199 
f 195 193 200 
f 200 193 201 
f 197 194 202 
f 195 194 203 
f 198 195 203 
f 193 198 204 
f 194 196 205 
f 196 198 205 
f 205 203 206 
f 203 194 206 
f 194 205 206 
f 198 196 207 
f 196 199 207 
f 199 193 208 
f 193 204 208 
f 204 199 208 
f 193 199 209 
f 199 197 209 
f 198 203 210 
f 205 198 210 
f 203 205 210 
f 194 195 211 
f 202 194 211 
f 200 202 211 
f 197 201 212 
f 193 209 212 
f 209 197 212 
f 195 200 213 
f 211 195 213 
f 200 211 213 
f 204 198 214 
f 198 207 214 
f 207 204 214 
f 201 193 215 
f 212 201 215 
f 193 212 215 
f 201 197 216 
f 197 202 216 
f 200 201 217 
f 202 200 217 
f 217 201 218 
f 201 216 218 
f 216 217 218 
f 216 202 219 
f 202 217 219 
f 217 216 219 
f 199 204 220 
f 207 199 220 
o convex_9
v -15.760311 0.914648 -0.531267
v -21.673013 -2.942985 0.497327
v -21.158516 -5.255954 1.268396
v -20.644748 -7.570937 2.811665
v -14.475163 -8.084482 2.296991
v -16.788575 0.657875 -1.045942
v -20.902362 1.685973 -0.788794
v -14.732047 -6.798605 2.554139
v -20.902362 0.657875 -1.045942
v -14.217550 -2.942985 0.497327
v -20.644748 -8.342262 2.554139
v -14.475163 -8.600042 2.811665
v -21.413940 -2.170653 0.754476
v -16.788575 1.685973 -0.788794
v -14.217550 -2.686213 0.754476
v -16.788575 1.685973 -1.045942
v -14.475163 -7.570937 2.811665
v -15.246544 -3.456531 1.268396
v -14.475163 -6.798605 1.782693
v -15.760311 0.143322 -0.788794
v -20.644748 -6.798605 2.554139
v -20.644748 -8.342262 2.811665
v -20.902362 1.685973 -1.045942
v -21.673013 -2.686213 0.754476
v -14.475163 -8.600042 2.554139
v -20.644748 -7.827710 2.296991
v -15.760311 0.914648 -0.788794
v -15.248003 -2.170653 0.754476
v -21.158516 -3.456531 1.268396
v -15.760311 0.401102 -0.274496
v -14.732047 -6.798605 1.782693
v -15.760311 -0.628003 -0.531267
f 226 240 252 
f 223 222 229 
f 222 223 231 
f 232 230 235 
f 226 229 236 
f 234 221 236 
f 227 234 236 
f 228 224 237 
f 224 232 237 
f 235 228 237 
f 232 235 237 
f 229 226 239 
f 230 225 239 
f 226 236 240 
f 224 228 241 
f 233 224 241 
f 228 238 241 
f 222 231 242 
f 231 232 242 
f 232 224 242 
f 229 222 243 
f 236 229 243 
f 227 236 243 
f 224 233 244 
f 233 227 244 
f 222 242 244 
f 242 224 244 
f 243 222 244 
f 227 243 244 
f 225 230 245 
f 232 231 245 
f 230 232 245 
f 231 223 246 
f 225 245 246 
f 245 231 246 
f 221 235 247 
f 235 230 247 
f 236 221 247 
f 230 240 247 
f 240 236 247 
f 228 235 248 
f 238 228 248 
f 233 238 248 
f 238 233 249 
f 233 241 249 
f 241 238 249 
f 227 233 250 
f 221 234 250 
f 234 227 250 
f 235 221 250 
f 233 248 250 
f 248 235 250 
f 223 229 251 
f 239 225 251 
f 229 239 251 
f 246 223 251 
f 225 246 251 
f 239 226 252 
f 230 239 252 
f 240 230 252 
o convex_10
v -11.645366 -2.684186 0.239709
v -16.787946 0.657282 -1.046043
v -16.787946 0.657282 -0.788782
v -15.244102 -5.255537 1.268199
v -10.358306 -1.399316 -1.303304
v -15.244102 1.686789 -0.788782
v -15.244102 -4.226835 1.525737
v -13.445364 -6.285044 1.268199
v -10.616347 -0.369809 -1.046043
v -15.244102 1.944568 -1.303304
v -12.930539 -5.255537 1.525737
v -16.787946 1.686789 -0.788782
v -12.930539 -6.285044 1.525737
v -14.986690 -3.455913 1.268199
v -11.645366 -4.226835 0.496693
v -10.616347 -1.399316 -1.303304
v -15.244102 -5.255537 1.525737
v -15.757668 1.429815 -1.303304
v -10.358306 -0.627588 -1.303304
v -10.873759 -0.626783 -0.788782
v -10.358306 -0.627588 -1.046043
v -12.930539 -6.285044 1.268199
v -11.645366 -3.455108 0.496693
v -13.701517 0.915061 -0.788782
v -16.787946 1.686789 -1.046043
v -15.244102 1.944568 -1.046043
v -14.215083 -4.484615 1.525737
v -10.358306 -1.399316 -1.046043
v -11.645366 -4.226835 0.239709
v -13.700888 0.144139 -1.303304
v -10.616347 -0.369809 -1.303304
v -13.445364 -6.285044 1.525737
f 265 269 284 
f 255 254 256 
f 256 254 260 
f 254 255 264 
f 255 259 264 
f 263 259 265 
f 258 264 266 
f 264 259 266 
f 263 265 267 
f 260 254 268 
f 257 260 268 
f 262 257 268 
f 255 256 269 
f 259 255 269 
f 256 260 269 
f 265 259 269 
f 262 268 270 
f 257 262 271 
f 261 272 273 
f 271 261 273 
f 257 271 273 
f 260 257 274 
f 265 260 274 
f 267 265 274 
f 253 263 275 
f 263 267 275 
f 272 253 275 
f 273 272 275 
f 267 273 275 
f 261 258 276 
f 258 266 276 
f 253 272 276 
f 272 261 276 
f 254 264 277 
f 264 262 277 
f 270 254 277 
f 262 270 277 
f 258 261 278 
f 261 262 278 
f 264 258 278 
f 262 264 278 
f 263 253 279 
f 259 263 279 
f 266 259 279 
f 253 276 279 
f 276 266 279 
f 267 257 280 
f 273 267 280 
f 257 273 280 
f 257 267 281 
f 274 257 281 
f 267 274 281 
f 268 254 282 
f 254 270 282 
f 270 268 282 
f 262 261 283 
f 261 271 283 
f 271 262 283 
f 260 265 284 
f 269 260 284 
o convex_11
v -9.587353 -1.913745 -1.303304
v -14.473275 -9.371070 2.554278
v -13.701416 -9.628155 2.039907
v -11.644133 -2.171761 -0.788530
v -9.586849 -10.400341 -0.531143
v -13.444634 -7.827629 2.554278
v -9.844639 -10.400341 0.239809
v -14.473275 -6.285120 1.525536
v -9.844136 -1.399575 -0.788530
v -14.473275 -5.257711 1.782923
v -10.359212 -10.400341 -0.274159
v -11.644133 -1.142490 -0.788530
v -9.844136 -4.486457 -1.303304
v -13.701416 -9.628155 2.811665
v -9.329563 -4.484594 -0.788530
v -13.958703 -7.827629 2.811665
v -10.359212 -0.884473 -0.788530
v -10.359212 -0.884473 -1.303304
v -9.844639 -9.113054 -0.788530
v -9.329563 -4.486457 -1.303304
v -9.586849 -9.368276 -0.017175
v -14.473275 -7.827629 2.811665
v -11.644133 -1.142490 -0.531143
v -13.958703 -5.257711 1.782923
v -13.187347 -9.371070 2.554278
v -14.215485 -9.628155 2.811665
v -14.473275 -5.257711 1.525536
v -11.129560 -2.943016 0.239809
v -10.872777 -10.400341 0.497196
v -9.844136 -0.884473 -1.303304
v -9.329563 -5.770018 -0.788530
v -9.329563 -3.456254 -1.045514
f 299 304 316 
f 287 286 292 
f 292 286 294 
f 289 291 295 
f 287 292 295 
f 288 292 296 
f 288 296 302 
f 285 297 302 
f 297 288 302 
f 296 301 302 
f 292 288 303 
f 289 295 303 
f 295 292 303 
f 288 297 303 
f 303 297 304 
f 297 285 304 
f 289 303 304 
f 291 289 305 
f 293 290 305 
f 299 293 305 
f 294 286 306 
f 300 294 306 
f 298 300 306 
f 296 294 307 
f 301 296 307 
f 301 307 308 
f 294 300 308 
f 307 294 308 
f 298 291 309 
f 290 300 309 
f 300 298 309 
f 305 290 309 
f 291 305 309 
f 286 287 310 
f 287 295 310 
f 306 286 310 
f 298 306 310 
f 292 294 311 
f 296 292 311 
f 294 296 311 
f 290 293 312 
f 300 290 312 
f 293 301 312 
f 301 308 312 
f 308 300 312 
f 295 291 313 
f 291 298 313 
f 310 295 313 
f 298 310 313 
f 293 285 314 
f 301 293 314 
f 285 302 314 
f 302 301 314 
f 304 299 315 
f 289 304 315 
f 305 289 315 
f 299 305 315 
f 285 293 316 
f 293 299 316 
f 304 285 316 
o convex_12
v -22.445324 -32.259926 -1.303128
v -23.987834 -26.603639 0.496819
v -23.987834 -26.603639 0.239532
v -14.730461 -31.231620 -0.788908
v -26.560999 -29.432991 -1.303128
v -21.674070 -29.175008 0.496819
v -15.502874 -28.404081 0.239532
v -15.246947 -32.517909 -0.788908
v -14.730461 -31.231620 -1.046018
v -26.301598 -29.946540 -0.788908
v -21.162216 -32.517305 -0.788908
v -15.502874 -29.175008 0.496819
v -15.759959 -32.775288 -1.303128
v -24.759089 -27.375170 0.496819
v -26.044513 -29.432991 -1.303128
v -21.415827 -32.774079 -1.046018
v -24.759089 -26.603639 0.496819
v -15.502874 -28.404081 0.496819
v -21.416985 -29.945936 0.239532
v -26.301598 -30.203918 -1.303128
v -15.759959 -32.260531 -1.303128
v -26.560999 -28.918234 -0.788908
v -24.759089 -26.603639 0.239532
v -15.502874 -29.946540 0.239532
v -21.415827 -32.774079 -1.303128
v -23.216579 -28.404081 0.496819
v -25.788586 -28.918234 -1.046018
v -26.560999 -29.689765 -0.788908
v -15.759959 -32.775288 -1.046018
v -26.301598 -30.203918 -1.046018
v -26.560999 -28.918234 -1.046018
v -21.674070 -30.460693 -0.017578
f 342 326 348 
f 319 318 323 
f 320 324 325 
f 319 323 325 
f 323 320 325 
f 318 322 328 
f 324 320 328 
f 317 321 329 
f 325 324 329 
f 322 318 330 
f 329 321 331 
f 327 326 332 
f 318 319 333 
f 330 318 333 
f 323 318 334 
f 320 323 334 
f 318 328 334 
f 328 320 334 
f 321 317 336 
f 325 329 337 
f 331 325 337 
f 329 331 337 
f 330 333 338 
f 338 333 339 
f 333 319 339 
f 327 324 340 
f 328 322 340 
f 324 328 340 
f 322 335 340 
f 335 327 340 
f 317 329 341 
f 332 317 341 
f 329 332 341 
f 322 330 342 
f 330 326 342 
f 319 325 343 
f 331 321 343 
f 325 331 343 
f 339 319 343 
f 326 330 344 
f 321 336 344 
f 338 321 344 
f 330 338 344 
f 324 327 345 
f 329 324 345 
f 327 332 345 
f 332 329 345 
f 317 332 346 
f 332 326 346 
f 336 317 346 
f 326 344 346 
f 344 336 346 
f 321 338 347 
f 338 339 347 
f 343 321 347 
f 339 343 347 
f 326 327 348 
f 335 322 348 
f 327 335 348 
f 322 342 348 
o convex_13
v -21.931885 -21.971582 2.811665
v -25.789216 -21.456476 0.496995
v -25.274578 -24.542806 0.496995
v -23.217536 -9.885970 1.783024
v -22.960783 -9.885970 2.811665
v -22.961161 -21.199641 2.811665
v -25.789216 -11.174451 0.754382
v -24.503564 -23.770865 0.496995
v -25.274578 -11.174451 0.496995
v -22.189015 -9.885970 2.554278
v -25.531708 -20.942806 1.011542
v -23.732551 -24.542806 1.011542
v -24.246434 -24.285970 1.525863
v -21.931885 -22.228417 2.554278
v -22.189015 -9.885970 2.811665
v -25.531708 -11.174451 1.011542
v -24.246057 -9.885970 1.525863
v -23.475044 -24.542806 1.525863
v -22.704030 -22.228417 2.811665
v -25.789216 -11.174451 0.496995
v -24.760317 -11.174451 0.754382
v -25.274578 -24.542806 0.754382
v -25.789216 -21.456476 0.754382
v -23.732551 -24.029135 1.011542
v -24.246057 -9.885970 1.783024
v -21.931885 -22.228417 2.811665
v -24.503564 -24.542806 0.496995
v -23.989304 -24.542806 1.525863
v -23.731796 -9.885970 1.525863
v -23.475044 -24.542806 1.268703
v -21.931885 -21.971582 2.554278
v -24.245679 -22.228417 1.783024
f 370 361 380 
f 349 353 354 
f 351 350 356 
f 356 350 357 
f 352 353 358 
f 353 349 363 
f 349 358 363 
f 358 353 363 
f 354 353 364 
f 359 354 364 
f 355 359 364 
f 353 352 365 
f 351 360 366 
f 349 354 367 
f 354 361 367 
f 350 355 368 
f 357 350 368 
f 355 365 368 
f 365 357 368 
f 352 356 369 
f 357 352 369 
f 356 357 369 
f 350 351 370 
f 351 366 370 
f 355 350 371 
f 359 355 371 
f 350 370 371 
f 370 359 371 
f 356 352 372 
f 352 358 372 
f 360 356 372 
f 362 360 372 
f 364 353 373 
f 355 364 373 
f 353 365 373 
f 365 355 373 
f 362 349 374 
f 366 362 374 
f 349 367 374 
f 367 366 374 
f 351 356 375 
f 360 351 375 
f 356 360 375 
f 367 361 376 
f 366 367 376 
f 361 370 376 
f 370 366 376 
f 352 357 377 
f 365 352 377 
f 357 365 377 
f 360 362 378 
f 366 360 378 
f 362 366 378 
f 358 349 379 
f 349 362 379 
f 372 358 379 
f 362 372 379 
f 354 359 380 
f 361 354 380 
f 359 370 380 
o convex_14
v -21.418487 -3.457085 1.268406
v -28.103081 -10.913856 -1.045917
v -27.330827 -10.913856 -1.045917
v -20.903895 1.687383 -1.045917
v -20.646963 -8.340993 2.554141
v -22.960805 -9.627425 2.811665
v -27.845419 -9.884208 -0.788770
v -21.161556 -0.113873 -1.045917
v -23.988530 -11.171898 1.268406
v -21.676148 0.914517 -0.788770
v -20.646963 -7.569386 2.811665
v -24.759324 -11.171898 1.525553
v -22.190011 -9.884208 2.811665
v -21.933080 -7.827428 2.811665
v -20.646963 -6.543514 1.782700
v -20.903895 1.687383 -0.788770
v -27.330827 -10.140990 -0.274476
v -21.676148 0.914517 -1.045917
v -28.103081 -10.913856 -0.788770
v -20.903895 0.398434 -1.045917
v -27.845419 -9.884208 -1.045917
v -22.190011 -7.055820 2.296994
v -20.646963 -5.513865 2.039847
v -21.675418 -6.799038 2.554141
v -21.161556 1.687383 -0.788770
v -25.789239 -11.171898 0.497342
v -22.190741 -1.143522 -0.274476
v -20.646963 -8.340993 2.811665
v -22.960805 -9.884208 2.811665
v -20.646963 -4.999040 1.525553
v -23.988530 -11.171898 1.525553
v -20.646963 -7.827428 2.296994
f 389 395 412 
f 383 382 384 
f 383 384 388 
f 383 388 389 
f 389 385 393 
f 391 386 393 
f 386 391 394 
f 389 388 395 
f 391 385 395 
f 384 382 398 
f 387 390 398 
f 387 382 399 
f 397 387 399 
f 386 397 399 
f 388 384 400 
f 395 388 400 
f 382 387 401 
f 398 382 401 
f 387 398 401 
f 386 394 402 
f 397 386 402 
f 391 395 403 
f 396 381 403 
f 394 391 404 
f 402 394 404 
f 390 402 404 
f 403 381 404 
f 391 403 404 
f 396 384 405 
f 381 396 405 
f 384 398 405 
f 398 390 405 
f 404 381 405 
f 390 404 405 
f 382 383 406 
f 383 389 406 
f 389 392 406 
f 399 382 406 
f 392 399 406 
f 390 387 407 
f 387 397 407 
f 402 390 407 
f 397 402 407 
f 385 391 408 
f 393 385 408 
f 391 393 408 
f 392 393 409 
f 393 386 409 
f 386 399 409 
f 399 392 409 
f 384 396 410 
f 400 384 410 
f 395 400 410 
f 403 395 410 
f 396 403 410 
f 392 389 411 
f 389 393 411 
f 393 392 411 
f 385 389 412 
f 395 385 412 
o convex_15
v -25.532257 -10.401147 0.496995
v -27.589540 -18.629475 -0.788933
v -27.589540 -18.629475 -0.531647
v -27.589540 -10.401147 -0.788933
v -25.789618 -18.629475 -0.017452
v -26.046779 -18.629475 0.496995
v -26.560898 -10.401147 0.239709
v -26.560898 -10.401147 -0.531647
v -27.075018 -18.629475 -0.788933
v -25.532257 -18.629475 0.496995
v -25.532257 -10.401147 0.239709
v -27.589540 -10.401147 -0.531647
v -27.332178 -18.629475 -0.274486
v -27.075018 -10.401147 -0.788933
v -26.046779 -10.401147 0.496995
v -25.532257 -18.629475 0.239709
v -27.332178 -10.401147 -0.274486
v -25.789618 -10.401147 -0.017452
v -26.560898 -18.629475 0.239709
v -26.560898 -18.629475 -0.531647
f 421 420 432 
f 414 415 416 
f 415 414 417 
f 415 417 418 
f 413 416 419 
f 416 413 420 
f 414 416 421 
f 417 414 421 
f 413 418 422 
f 418 417 422 
f 420 413 423 
f 413 422 423 
f 416 415 424 
f 419 416 424 
f 415 418 425 
f 424 415 425 
f 416 420 426 
f 420 421 426 
f 421 416 426 
f 418 413 427 
f 413 419 427 
f 419 418 427 
f 422 417 428 
f 417 423 428 
f 423 422 428 
f 419 424 429 
f 425 419 429 
f 424 425 429 
f 417 420 430 
f 420 423 430 
f 423 417 430 
f 418 419 431 
f 419 425 431 
f 425 418 431 
f 420 417 432 
f 417 421 432 
o convex_16
v -10.873566 -20.432795 0.496950
v -15.502018 -31.744481 -0.788794
v -15.502018 -31.744481 -0.531267
v -14.986839 -21.975607 2.554139
v -14.215431 -22.489877 2.811665
v -8.558661 -20.691063 -0.788794
v -9.845248 -21.204201 -1.045942
v -15.243069 -30.714807 -1.045942
v -14.471661 -31.230211 -0.788794
v -13.700932 -20.947066 2.811665
v -15.501338 -26.601776 1.525544
v -9.331429 -22.233875 -1.045942
v -13.444702 -20.947066 1.782693
v -15.501338 -26.343508 1.011247
v -9.331429 -22.233875 -0.788794
v -9.073160 -20.173394 -1.045942
v -14.729929 -23.261283 2.811665
v -14.471661 -31.230211 -1.045942
v -14.986839 -30.971943 -0.274496
v -9.845248 -20.689930 0.239801
v -8.558661 -20.173394 -0.788794
v -15.243069 -29.430264 -0.531267
v -14.215431 -20.947066 2.811665
v -13.187112 -21.203068 2.554139
v -11.388065 -21.718471 1.011247
v -14.986839 -21.975607 2.811665
v -10.102158 -20.432795 -0.531267
v -15.243069 -31.229078 -0.274496
v -15.502018 -29.944534 -0.531267
v -14.729929 -21.461336 2.554139
v -14.986839 -23.261283 2.811665
v -8.558661 -20.691063 -1.045942
f 453 438 464 
f 435 434 441 
f 440 439 444 
f 444 438 447 
f 441 444 447 
f 444 439 448 
f 437 442 449 
f 434 440 450 
f 441 434 450 
f 440 444 450 
f 444 441 450 
f 441 447 451 
f 437 449 451 
f 447 438 452 
f 433 442 453 
f 448 433 453 
f 442 452 453 
f 452 438 453 
f 439 440 454 
f 446 445 454 
f 442 433 455 
f 433 448 455 
f 448 445 455 
f 449 442 455 
f 442 437 456 
f 452 442 456 
f 452 456 457 
f 437 451 457 
f 451 447 457 
f 447 452 457 
f 456 437 457 
f 446 443 458 
f 436 446 458 
f 449 455 458 
f 448 439 459 
f 445 448 459 
f 439 454 459 
f 454 445 459 
f 435 441 460 
f 443 435 460 
f 449 443 460 
f 441 451 460 
f 451 449 460 
f 434 435 461 
f 440 434 461 
f 435 443 461 
f 443 446 461 
f 454 440 461 
f 446 454 461 
f 446 436 462 
f 445 446 462 
f 455 445 462 
f 436 458 462 
f 458 455 462 
f 443 449 463 
f 458 443 463 
f 449 458 463 
f 438 444 464 
f 444 448 464 
f 448 453 464 
o convex_17
v -24.503816 -25.830061 0.496995
v -27.589741 -21.461456 -0.788933
v -27.589741 -21.461456 -0.531647
v -26.303536 -29.174082 -0.531647
v -24.760876 -28.917105 -0.788933
v -25.532961 -18.631388 0.239709
v -26.046779 -22.232386 0.496995
v -27.074716 -18.631388 -0.788933
v -26.046779 -18.631388 0.496995
v -25.018238 -27.374137 0.496995
v -24.760876 -29.945013 -0.531647
v -26.303536 -29.174082 -0.788933
v -27.332078 -18.631388 -0.274486
v -26.560294 -18.631388 -0.531647
v -24.503816 -25.830061 0.239709
v -25.532961 -18.631388 0.496995
v -27.589741 -18.631388 -0.788933
v -25.789719 -18.631388 -0.017452
v -25.275600 -26.602099 0.496995
v -26.560294 -21.203371 0.239709
v -24.760876 -29.945013 -0.788933
v -24.503816 -26.602099 0.496995
v -25.532659 -29.688036 -0.531647
v -27.332078 -20.946395 -0.274486
v -24.760876 -27.374137 0.496995
v -27.589741 -18.631388 -0.531647
v -26.560294 -18.631388 0.239709
v -25.532659 -27.374137 0.239709
v -25.018238 -29.945013 -0.531647
v -26.046477 -29.431059 -0.788933
v -26.046477 -29.431059 -0.531647
v -26.560294 -25.571977 -0.274486
f 492 471 496 
f 467 466 468 
f 469 466 472 
f 470 472 473 
f 471 465 473 
f 465 471 474 
f 468 466 476 
f 466 469 476 
f 473 472 477 
f 469 472 478 
f 472 470 478 
f 469 470 479 
f 470 465 479 
f 465 470 480 
f 470 473 480 
f 473 465 480 
f 466 467 481 
f 472 466 481 
f 477 472 481 
f 470 469 482 
f 469 478 482 
f 478 470 482 
f 474 471 483 
f 471 473 484 
f 476 469 485 
f 469 479 485 
f 485 479 486 
f 465 474 486 
f 479 465 486 
f 475 485 486 
f 467 468 488 
f 477 467 488 
f 471 484 488 
f 484 477 488 
f 474 475 489 
f 486 474 489 
f 475 486 489 
f 467 477 490 
f 481 467 490 
f 477 481 490 
f 473 477 491 
f 484 473 491 
f 477 484 491 
f 468 474 492 
f 483 471 492 
f 474 483 492 
f 475 474 493 
f 485 475 493 
f 474 487 493 
f 493 487 494 
f 468 476 494 
f 476 485 494 
f 485 493 494 
f 474 468 495 
f 487 474 495 
f 494 487 495 
f 468 494 495 
f 488 468 496 
f 471 488 496 
f 468 492 496 
o convex_18
v -22.956464 -27.888332 0.496995
v -23.217578 -24.545550 1.525737
v -23.217578 -24.545550 1.268552
v -14.218154 -26.603173 0.754281
v -25.017885 -24.545550 0.496995
v -15.503635 -26.603173 1.525737
v -15.247807 -28.659991 0.497096
v -21.414099 -27.374027 1.268552
v -23.988232 -25.317611 1.525737
v -21.415156 -28.659991 0.754281
v -14.218154 -26.603173 0.496995
v -15.503635 -25.831917 1.268552
v -24.756772 -26.860527 0.754281
v -15.247807 -28.659991 0.754281
v -21.673098 -26.603173 1.525737
v -15.503635 -25.831917 1.525737
v -24.503059 -24.545550 0.496995
v -21.415156 -28.659991 0.497096
v -24.503059 -24.545550 1.268552
v -14.991980 -27.374027 1.268552
v -24.756772 -26.860527 0.496995
v -25.017885 -26.088465 0.754281
v -14.218154 -27.117478 0.754281
v -24.245117 -26.602770 1.011366
v -14.734038 -26.603173 1.268552
v -25.017885 -24.545550 0.754281
v -14.732980 -28.145686 0.497096
v -14.732980 -28.145686 0.754281
v -23.988232 -24.545550 1.525737
v -23.471291 -27.631380 0.754281
v -23.731347 -25.574563 1.525737
v -25.017885 -26.088465 0.496995
f 518 501 528 
f 498 499 501 
f 502 498 505 
f 497 501 507 
f 503 497 507 
f 499 498 508 
f 500 507 508 
f 504 506 510 
f 506 503 510 
f 504 502 511 
f 502 505 511 
f 506 504 511 
f 498 502 512 
f 508 498 512 
f 500 508 512 
f 501 499 513 
f 507 501 513 
f 499 508 513 
f 508 507 513 
f 497 503 514 
f 503 506 514 
f 498 501 515 
f 502 504 516 
f 504 510 516 
f 501 497 517 
f 517 509 518 
f 509 505 518 
f 505 515 518 
f 507 500 519 
f 505 509 520 
f 512 502 521 
f 500 512 521 
f 502 516 521 
f 519 500 521 
f 516 519 521 
f 515 501 522 
f 501 518 522 
f 518 515 522 
f 503 507 523 
f 510 503 523 
f 507 519 523 
f 523 519 524 
f 516 510 524 
f 519 516 524 
f 510 523 524 
f 505 498 525 
f 498 515 525 
f 515 505 525 
f 497 514 526 
f 514 506 526 
f 517 497 526 
f 509 517 526 
f 520 509 526 
f 506 520 526 
f 511 505 527 
f 506 511 527 
f 505 520 527 
f 520 506 527 
f 501 517 528 
f 517 518 528 
o convex_19
v -13.958904 -9.885970 3.068901
v -18.073471 -21.459322 3.068901
v -18.073471 -21.459322 3.583222
v -18.073471 -9.885970 3.325986
v -14.730990 -21.459322 3.583222
v -13.958904 -21.459322 2.811665
v -14.730990 -9.885970 3.583222
v -14.730990 -9.885970 2.811665
v -18.073471 -9.885970 3.583222
v -14.730990 -21.459322 2.811665
v -13.958904 -9.885970 2.811665
v -13.958904 -21.459322 3.068901
v -18.073471 -21.199896 3.068901
f 532 536 541 
f 530 531 532 
f 531 530 533 
f 533 530 534 
f 529 532 535 
f 533 529 535 
f 531 533 535 
f 532 529 536 
f 532 531 537 
f 531 535 537 
f 535 532 537 
f 534 530 538 
f 530 536 538 
f 536 534 538 
f 529 534 539 
f 536 529 539 
f 534 536 539 
f 529 533 540 
f 534 529 540 
f 533 534 540 
f 530 532 541 
f 536 530 541 
o convex_20
v -26.046829 -27.371369 -0.789034
v -28.104113 -21.714846 -1.303304
v -27.589389 -24.799563 -1.303304
v -27.846751 -10.914712 -1.303304
v -28.104113 -20.683587 -0.789034
v -27.332430 -10.918337 -0.789034
v -26.303990 -27.886093 -1.303304
v -26.818512 -29.171089 -1.046144
v -28.104113 -10.918337 -0.789034
v -27.332430 -10.918337 -1.046093
v -26.561150 -28.917352 -0.789034
v -28.104113 -10.914712 -1.303304
v -26.046829 -27.371369 -1.046093
v -26.303990 -29.430264 -1.303304
v -26.818512 -29.171089 -1.303304
v -26.046829 -28.917352 -0.789034
v -28.104113 -21.714846 -1.046144
v -26.818512 -28.143455 -0.789034
v -26.561150 -29.430264 -1.046144
v -26.046829 -28.917352 -1.046093
v -27.589389 -24.799563 -1.046144
v -26.303990 -29.430264 -1.046144
v -26.561150 -29.430264 -1.303304
v -27.846549 -22.227758 -0.789034
v -27.846751 -10.914712 -1.046144
v -28.104113 -10.914712 -1.046144
f 550 566 567 
f 544 543 545 
f 546 542 547 
f 544 545 548 
f 543 546 550 
f 546 547 550 
f 547 542 551 
f 545 547 551 
f 548 545 551 
f 542 546 552 
f 545 543 553 
f 543 550 553 
f 551 542 554 
f 548 551 554 
f 544 548 555 
f 548 554 555 
f 549 544 556 
f 544 555 556 
f 542 552 557 
f 554 542 557 
f 543 544 558 
f 546 543 558 
f 552 546 559 
f 549 552 559 
f 552 549 560 
f 549 556 560 
f 557 552 560 
f 555 554 561 
f 554 557 561 
f 557 555 561 
f 544 549 562 
f 558 544 562 
f 549 559 562 
f 555 557 563 
f 560 555 563 
f 557 560 563 
f 556 555 564 
f 560 556 564 
f 555 560 564 
f 546 558 565 
f 559 546 565 
f 558 562 565 
f 562 559 565 
f 547 545 566 
f 550 547 566 
f 545 553 566 
f 566 553 567 
f 553 550 567 
o convex_21
v -22.445601 -9.885970 2.811665
v -14.731479 -8.085671 3.068901
v -14.731479 -9.371397 3.583222
v -13.959735 -9.885970 2.811665
v -21.673857 -8.085671 2.811665
v -21.673857 -9.885970 3.583222
v -21.673857 -8.085671 3.068901
v -14.217260 -8.342957 2.811665
v -14.731479 -9.885970 3.583222
v -21.673857 -9.371397 3.583222
v -22.445601 -9.371397 3.068901
v -13.959735 -9.113935 3.068901
v -14.731479 -8.085671 2.811665
v -14.217260 -8.342957 3.068901
v -13.959735 -9.885970 3.068901
v -22.188076 -9.885970 3.325986
v -22.445601 -9.371397 2.811665
v -22.188076 -8.857706 3.068901
v -13.959735 -9.113935 2.811665
v -22.445601 -9.885970 3.068901
v -22.188076 -9.628684 3.325986
v -22.188076 -8.857706 2.811665
f 585 572 589 
f 571 568 572 
f 568 571 573 
f 570 569 574 
f 569 572 574 
f 571 572 575 
f 570 573 576 
f 573 571 576 
f 573 570 577 
f 570 574 577 
f 570 576 579 
f 572 569 580 
f 569 575 580 
f 575 572 580 
f 569 570 581 
f 575 569 581 
f 570 579 581 
f 579 575 581 
f 576 571 582 
f 571 579 582 
f 579 576 582 
f 568 573 583 
f 573 577 583 
f 572 568 584 
f 568 578 584 
f 584 578 585 
f 574 572 585 
f 577 574 585 
f 578 577 585 
f 571 575 586 
f 575 579 586 
f 579 571 586 
f 578 568 587 
f 568 583 587 
f 583 578 587 
f 577 578 588 
f 583 577 588 
f 578 583 588 
f 572 584 589 
f 584 585 589 
