v 20.13306427001953 9.998043060302734 0.0
v 20.13306427001953 5.782581329345703 0.0
v 0.087890625 5.782581329345703 0.0
v 0.087890625 5.782581329345703 0.0
v 0.087890625 9.998043060302734 0.0
v 20.13306427001953 9.998043060302734 0.0
v 10.110477447509766 5.782581329345703 37.2802734375
v 10.110477447509766 9.998043060302734 37.2802734375
v 5.099184036254883 9.998043060302734 36.345115661621094
v 5.099184036254883 9.998043060302734 36.345115661621094
v 5.099184036254883 5.782581329345703 36.345115661621094
v 10.110477447509766 5.782581329345703 37.2802734375
v 20.13306427001953 5.782581329345703 0.0
v 10.110477447509766 5.782581329345703 37.2802734375
v 5.099184036254883 5.782581329345703 36.345115661621094
v 5.099184036254883 5.782581329345703 36.345115661621094
v 0.087890625 5.782581329345703 0.0
v 20.13306427001953 5.782581329345703 0.0
v 20.13306427001953 5.782581329345703 0.0
v 20.13306427001953 9.998043060302734 0.0
v 20.13306427001953 9.998043060302734 33.53963851928711
v 20.13306427001953 9.998043060302734 33.53963851928711
v 20.13306427001953 5.782581329345703 33.53963851928711
v 20.13306427001953 5.782581329345703 0.0
v 20.13306427001953 9.998043060302734 0.0
v 10.110477447509766 9.998043060302734 37.2802734375
v 15.121770858764648 9.998043060302734 36.345115661621094
v 0.087890625 9.998043060302734 0.0
v 0.087890625 5.782581329345703 0.0
v 0.087890625 5.782581329345703 33.53963851928711
v 0.087890625 5.782581329345703 33.53963851928711
v 0.087890625 9.998043060302734 33.53963851928711
v 0.087890625 9.998043060302734 0.0
v 20.13306427001953 5.782581329345703 33.53963851928711
v 20.13306427001953 9.998043060302734 33.53963851928711
v 15.121770858764648 9.998043060302734 36.345115661621094
v 15.121770858764648 9.998043060302734 36.345115661621094
v 15.121770858764648 5.782581329345703 36.345115661621094
v 20.13306427001953 5.782581329345703 33.53963851928711
v 15.121770858764648 5.782581329345703 36.345115661621094
v 15.121770858764648 9.998043060302734 36.345115661621094
v 10.110477447509766 9.998043060302734 37.2802734375
v 10.110477447509766 9.998043060302734 37.2802734375
v 10.110477447509766 5.782581329345703 37.2802734375
v 15.121770858764648 5.782581329345703 36.345115661621094
v 0.087890625 9.998043060302734 33.53963851928711
v 0.087890625 5.782581329345703 33.53963851928711
v 5.099184036254883 5.782581329345703 36.345115661621094
v 5.099184036254883 5.782581329345703 36.345115661621094
v 5.099184036254883 9.998043060302734 36.345115661621094
v 0.087890625 9.998043060302734 33.53963851928711
v 20.13306427001953 5.782581329345703 0.0
v 20.13306427001953 5.782581329345703 33.53963851928711
v 15.121770858764648 5.782581329345703 36.345115661621094
v 20.13306427001953 5.782581329345703 0.0
v 15.121770858764648 5.782581329345703 36.345115661621094
v 10.110477447509766 5.782581329345703 37.2802734375
v 5.099184036254883 5.782581329345703 36.345115661621094
v 0.087890625 5.782581329345703 33.53963851928711
v 0.087890625 5.782581329345703 0.0
v 0.087890625 9.998043060302734 0.0
v 0.087890625 9.998043060302734 33.53963851928711
v 5.099184036254883 9.998043060302734 36.345115661621094
v 0.087890625 9.998043060302734 0.0
v 5.099184036254883 9.998043060302734 36.345115661621094
v 10.110477447509766 9.998043060302734 37.2802734375
v 10.110477447509766 9.998043060302734 37.2802734375
v 20.13306427001953 9.998043060302734 0.0
v 0.087890625 9.998043060302734 0.0
v 15.121770858764648 9.998043060302734 36.345115661621094
v 20.13306427001953 9.998043060302734 33.53963851928711
v 20.13306427001953 9.998043060302734 0.0
v 2.612065315246582 -29.80451202392578 -1.1746296882629395
v 8.086521625518799 -32.64689636230469 -1.1747114658355713
v 7.545097589492798 -21.17197608947754 3.394460439682007
v 7.545097589492798 -21.17197608947754 3.394460439682007
v 0.9877958297729492 -20.22451400756836 -1.1747114658355713
v 2.612065315246582 -29.80451202392578 -1.1746296882629395
v 8.086521625518799 -32.64689636230469 -1.1747114658355713
v 13.560978174209595 -32.64689636230469 -1.1747114658355713
v 14.102401971817017 -21.171977996826172 3.394460439682007
v 14.102401971817017 -21.171977996826172 3.394460439682007
v 7.545097589492798 -21.17197608947754 3.394460439682007
v 8.086521625518799 -32.64689636230469 -1.1747114658355713
v 13.560978174209595 -32.64689636230469 -1.1747114658355713
v 19.035433769226074 -29.80451202392578 -1.1746296882629395
v 20.659703254699707 -20.22451400756836 -1.1747114658355713
v 20.659703254699707 -20.22451400756836 -1.1747114658355713
v 14.102401971817017 -21.171977996826172 3.394460439682007
v 13.560978174209595 -32.64689636230469 -1.1747114658355713
v 0.9877958297729492 -20.22451400756836 -1.1747114658355713
v 7.545097589492798 -21.17197608947754 3.394460439682007
v 7.545097589492798 -9.697052001953125 3.394460439682007
v 7.545097589492798 -9.697052001953125 3.394460439682007
v 0.9877958297729492 -10.644514083862305 -1.1747114658355713
v 0.9877958297729492 -20.22451400756836 -1.1747114658355713
v 7.545097589492798 -21.17197608947754 3.394460439682007
v 14.102401971817017 -21.171977996826172 3.394460439682007
v 14.102401971817017 -9.697052001953125 3.394460439682007
v 14.102401971817017 -9.697052001953125 3.394460439682007
v 7.545097589492798 -9.697052001953125 3.394460439682007
v 7.545097589492798 -21.17197608947754 3.394460439682007
v 14.102401971817017 -21.171977996826172 3.394460439682007
v 20.659703254699707 -20.22451400756836 -1.1747114658355713
v 20.659703254699707 -10.644514083862305 -1.1747114658355713
v 20.659703254699707 -10.644514083862305 -1.1747114658355713
v 14.102401971817017 -9.697052001953125 3.394460439682007
v 14.102401971817017 -21.171977996826172 3.394460439682007
v 0.9877958297729492 -10.644514083862305 -1.1747114658355713
v 7.545097589492798 -9.697052001953125 3.394460439682007
v 8.086521625518799 1.7778682708740234 -1.1747114658355713
v 8.086521625518799 1.7778682708740234 -1.1747114658355713
v 2.612067222595215 -1.0645160675048828 -1.174629807472229
v 0.9877958297729492 -10.644514083862305 -1.1747114658355713
v 7.545097589492798 -9.697052001953125 3.394460439682007
v 14.102401971817017 -9.697052001953125 3.394460439682007
v 13.560978174209595 1.7778682708740234 -1.1747114658355713
v 13.560978174209595 1.7778682708740234 -1.1747114658355713
v 8.086521625518799 1.7778682708740234 -1.1747114658355713
v 7.545097589492798 -9.697052001953125 3.394460439682007
v 14.102401971817017 -9.697052001953125 3.394460439682007
v 20.659703254699707 -10.644514083862305 -1.1747114658355713
v 19.035433769226074 -1.0645160675048828 -1.174629807472229
v 19.035433769226074 -1.0645160675048828 -1.174629807472229
v 13.560978174209595 1.7778682708740234 -1.1747114658355713
v 14.102401971817017 -9.697052001953125 3.394460439682007
f 1 2 3
f 4 5 6
f 7 8 9
f 10 11 12
f 13 14 15
f 16 17 18
f 19 20 21
f 22 23 24
f 25 26 27
f 28 29 30
f 31 32 33
f 34 35 36
f 37 38 39
f 40 41 42
f 43 44 45
f 46 47 48
f 49 50 51
f 52 53 54
f 55 56 57
f 58 59 60
f 61 62 63
f 64 65 66
f 67 68 69
f 70 71 72
f 73 74 75
f 76 77 78
f 79 80 81
f 82 83 84
f 85 86 87
f 88 89 90
f 91 92 93
f 94 95 96
f 97 98 99
f 100 101 102
f 103 104 105
f 106 107 108
f 109 110 111
f 112 113 114
f 115 116 117
f 118 119 120
f 121 122 123
f 124 125 126
