v -61.01242256164551 41.0895676612854 4.665279388427734
v -56.82461738586426 40.78110218048096 6.854811668395996
v -55.53481864929199 44.032746374607086 9.36178970336914
v -55.53481864929199 44.032746374607086 9.36178970336914
v -61.98013496398926 43.95066607743502 6.618212699890137
v -61.01242256164551 41.0895676612854 4.665279388427734
v -57.74222373962402 39.273090839385986 4.76837158203125e-07
v -56.82461738586426 40.78110218048096 6.854811668395996
v -61.01242256164551 41.0895676612854 4.665279388427734
v -61.01242256164551 41.0895676612854 4.665279388427734
v -62.18455696105957 39.70121622085571 4.76837158203125e-07
v -57.74222373962402 39.273090839385986 4.76837158203125e-07
v 22.14727210998535 43.00603187084198 0.0
v 20.999956130981445 43.007726311683655 7.21279239654541
v 18.25178337097168 39.444411277770996 4.567290306091309
v 18.25178337097168 39.444411277770996 4.567290306091309
v 19.19862174987793 38.340205669403076 4.76837158203125e-07
v 22.14727210998535 43.00603187084198 0.0
v 16.199277877807617 47.77624869346619 -4.5299533013576365e-08
v 16.72505760192871 46.33170795440674 6.814350128173828
v 19.53391456604004 45.725276947021484 4.493551254272461
v 19.53391456604004 45.725276947021484 4.493551254272461
v 20.605112075805664 47.0661256313324 0.0
v 16.199277877807617 47.77624869346619 -4.5299533013576365e-08
v -63.80716896057129 43.950666069984436 0.0
v -61.98013496398926 43.95066607743502 6.618212699890137
v -61.34661293029785 45.86140537261963 4.591540336608887
v -61.34661293029785 45.86140537261963 4.591540336608887
v -62.08244514465332 47.21553087234497 -4.76837158203125e-07
v -63.80716896057129 43.950666069984436 0.0
v 19.53391456604004 45.725276947021484 4.493551254272461
v 16.72505760192871 46.33170795440674 6.814350128173828
v 15.769216537475586 42.934189319610596 9.533591270446777
v 15.769216537475586 42.934189319610596 9.533591270446777
v 20.999956130981445 43.007726311683655 7.21279239654541
v 19.53391456604004 45.725276947021484 4.493551254272461
v 20.605112075805664 47.0661256313324 0.0
v 19.53391456604004 45.725276947021484 4.493551254272461
v 20.999956130981445 43.007726311683655 7.21279239654541
v 20.999956130981445 43.007726311683655 7.21279239654541
v 22.14727210998535 43.00603187084198 0.0
v 20.605112075805664 47.0661256313324 0.0
v -62.18455696105957 39.70121622085571 4.76837158203125e-07
v -61.01242256164551 41.0895676612854 4.665279388427734
v -61.98013496398926 43.95066607743502 6.618212699890137
v -61.98013496398926 43.95066607743502 6.618212699890137
v -63.80716896057129 43.950666069984436 0.0
v -62.18455696105957 39.70121622085571 4.76837158203125e-07
v -24.77978491783142 40.95979118347168 7.509291648864746
v 14.37791633605957 39.05656671524048 6.888089179992676
v 15.769216537475586 42.934189319610596 9.533591270446777
v 15.769216537475586 42.934189319610596 9.533591270446777
v -26.153343200683594 44.81466966867447 10.154793739318848
v -24.77978491783142 40.95979118347168 7.509291648864746
v -24.77969741821289 40.48945665359497 0.0
v 14.564760208129883 38.07724189758301 4.76837158203125e-07
v 14.37791633605957 39.05656671524048 6.888089179992676
v 14.37791633605957 39.05656671524048 6.888089179992676
v -24.77978491783142 40.95979118347168 7.509291648864746
v -24.77969741821289 40.48945665359497 0.0
v -27.01393747329712 48.893569469451904 -4.76837158203125e-07
v -56.63506889343262 48.60244035720825 -4.76837158203125e-07
v -55.9659366607666 47.009700775146484 7.269323348999023
v -55.9659366607666 47.009700775146484 7.269323348999023
v -26.769817352294922 47.29910683631897 7.435552597045898
v -27.01393747329712 48.893569469451904 -4.76837158203125e-07
v -55.9659366607666 47.009700775146484 7.269323348999023
v -55.53481864929199 44.032746374607086 9.36178970336914
v -26.153343200683594 44.81466966867447 10.154793739318848
v -26.153343200683594 44.81466966867447 10.154793739318848
v -26.769817352294922 47.29910683631897 7.435552597045898
v -55.9659366607666 47.009700775146484 7.269323348999023
v -56.82461738586426 40.78110218048096 6.854811668395996
v -24.77978491783142 40.95979118347168 7.509291648864746
v -26.153343200683594 44.81466966867447 10.154793739318848
v -26.153343200683594 44.81466966867447 10.154793739318848
v -55.53481864929199 44.032746374607086 9.36178970336914
v -56.82461738586426 40.78110218048096 6.854811668395996
v -24.77969741821289 40.48945665359497 0.0
v -24.77978491783142 40.95979118347168 7.509291648864746
v -56.82461738586426 40.78110218048096 6.854811668395996
v -56.82461738586426 40.78110218048096 6.854811668395996
v -57.74222373962402 39.273090839385986 4.76837158203125e-07
v -24.77969741821289 40.48945665359497 0.0
v -56.63506889343262 48.60244035720825 -4.76837158203125e-07
v -62.08244514465332 47.21553087234497 -4.76837158203125e-07
v -61.34661293029785 45.86140537261963 4.591540336608887
v -61.34661293029785 45.86140537261963 4.591540336608887
v -55.9659366607666 47.009700775146484 7.269323348999023
v -56.63506889343262 48.60244035720825 -4.76837158203125e-07
v -61.34661293029785 45.86140537261963 4.591540336608887
v -61.98013496398926 43.95066607743502 6.618212699890137
v -55.53481864929199 44.032746374607086 9.36178970336914
v -55.53481864929199 44.032746374607086 9.36178970336914
v -55.9659366607666 47.009700775146484 7.269323348999023
v -61.34661293029785 45.86140537261963 4.591540336608887
v -27.01393747329712 48.893569469451904 -4.76837158203125e-07
v -26.769817352294922 47.29910683631897 7.435552597045898
v 16.72505760192871 46.33170795440674 6.814350128173828
v 16.72505760192871 46.33170795440674 6.814350128173828
v 16.199277877807617 47.77624869346619 -4.5299533013576365e-08
v -27.01393747329712 48.893569469451904 -4.76837158203125e-07
v 16.72505760192871 46.33170795440674 6.814350128173828
v -26.769817352294922 47.29910683631897 7.435552597045898
v -26.153343200683594 44.81466966867447 10.154793739318848
v -26.153343200683594 44.81466966867447 10.154793739318848
v 15.769216537475586 42.934189319610596 9.533591270446777
v 16.72505760192871 46.33170795440674 6.814350128173828
v 18.25178337097168 39.444411277770996 4.567290306091309
v 20.999956130981445 43.007726311683655 7.21279239654541
v 15.769216537475586 42.934189319610596 9.533591270446777
v 15.769216537475586 42.934189319610596 9.533591270446777
v 14.37791633605957 39.05656671524048 6.888089179992676
v 18.25178337097168 39.444411277770996 4.567290306091309
v 14.564760208129883 38.07724189758301 4.76837158203125e-07
v 19.19862174987793 38.340205669403076 4.76837158203125e-07
v 18.25178337097168 39.444411277770996 4.567290306091309
v 18.25178337097168 39.444411277770996 4.567290306091309
v 14.37791633605957 39.05656671524048 6.888089179992676
v 14.564760208129883 38.07724189758301 4.76837158203125e-07
f 1 2 3
f 4 5 6
f 7 8 9
f 10 11 12
f 13 14 15
f 16 17 18
f 19 20 21
f 22 23 24
f 25 26 27
f 28 29 30
f 31 32 33
f 34 35 36
f 37 38 39
f 40 41 42
f 43 44 45
f 46 47 48
f 49 50 51
f 52 53 54
f 55 56 57
f 58 59 60
f 61 62 63
f 64 65 66
f 67 68 69
f 70 71 72
f 73 74 75
f 76 77 78
f 79 80 81
f 82 83 84
f 85 86 87
f 88 89 90
f 91 92 93
f 94 95 96
f 97 98 99
f 100 101 102
f 103 104 105
f 106 107 108
f 109 110 111
f 112 113 114
f 115 116 117
f 118 119 120
