v 142.10047912597656 210.2655485868454 13.09973430633545
v 140.8743656873703 216.9724636077881 10.022317886352539
v 135.22695589065552 215.56792163848877 9.688177108764648
v 142.10047912597656 210.2655485868454 13.09973430633545
v 135.22695589065552 215.56792163848877 9.688177108764648
v 134.08309841156006 210.36972254514694 9.373113632202148
v 142.10047912597656 210.2655485868454 13.09973430633545
v 134.08309841156006 210.36972254514694 9.373113632202148
v 137.29894018173218 203.68844413757324 10.258878707885742
v 142.10047912597656 210.2655485868454 13.09973430633545
v 137.29894018173218 203.68844413757324 10.258878707885742
v 146.3173360824585 203.12707996368408 9.042644500732422
v 142.10047912597656 210.2655485868454 13.09973430633545
v 146.3173360824585 203.12707996368408 9.042644500732422
v 152.81761169433594 209.0305597782135 9.042644500732422
v 142.10047912597656 210.2655485868454 13.09973430633545
v 152.81761169433594 209.0305597782135 9.042644500732422
v 152.8194169998169 217.71974229812622 9.042646408081055
v 142.10047912597656 210.2655485868454 13.09973430633545
v 152.8194169998169 217.71974229812622 9.042646408081055
v 140.8743656873703 216.9724636077881 10.022317886352539
v 133.80184412002563 217.2339367866516 -2.173037528991699
v 133.5305233001709 216.41820287704468 4.78504753112793
v 140.63559651374817 218.55086040496826 5.224356651306152
v 140.63559651374817 218.55086040496826 5.224356651306152
v 142.26144361495972 219.90970134735107 -2.173037528991699
v 133.80184412002563 217.2339367866516 -2.173037528991699
v 131.96343326568604 209.17932677268982 -2.173037528991699
v 132.0266523361206 209.58394491672516 4.370826244354248
v 133.5305233001709 216.41820287704468 4.78504753112793
v 133.5305233001709 216.41820287704468 4.78504753112793
v 133.80184412002563 217.2339367866516 -2.173037528991699
v 131.96343326568604 209.17932677268982 -2.173037528991699
v 137.12849712371826 199.59780883789062 -2.173037528991699
v 136.25463485717773 200.7998275756836 5.535369873046875
v 132.0266523361206 209.58394491672516 4.370826244354248
v 132.0266523361206 209.58394491672516 4.370826244354248
v 131.96343326568604 209.17932677268982 -2.173037528991699
v 137.12849712371826 199.59780883789062 -2.173037528991699
v 149.16094303131104 198.96713542938232 -2.173037528991699
v 148.29907131195068 200.14854431152344 3.936345100402832
v 136.25463485717773 200.7998275756836 5.535369873046875
v 136.25463485717773 200.7998275756836 5.535369873046875
v 137.12849712371826 199.59780883789062 -2.173037528991699
v 149.16094303131104 198.96713542938232 -2.173037528991699
v 157.4879608154297 207.1612777709961 -2.173037528991699
v 155.84564590454102 207.36404275894165 3.936345338821411
v 148.29907131195068 200.14854431152344 3.936345100402832
v 148.29907131195068 200.14854431152344 3.936345100402832
v 149.16094303131104 198.96713542938232 -2.173037528991699
v 157.4879608154297 207.1612777709961 -2.173037528991699
v 156.6954402923584 219.38406944274902 -2.173037528991699
v 155.28933143615723 218.56783246994019 3.936347246170044
v 155.84564590454102 207.36404275894165 3.936345338821411
v 155.84564590454102 207.36404275894165 3.936345338821411
v 157.4879608154297 207.1612777709961 -2.173037528991699
v 156.6954402923584 219.38406944274902 -2.173037528991699
v 142.26144361495972 219.90970134735107 -2.173037528991699
v 140.63559651374817 218.55086040496826 5.224356651306152
v 155.28933143615723 218.56783246994019 3.936347246170044
v 155.28933143615723 218.56783246994019 3.936347246170044
v 156.6954402923584 219.38406944274902 -2.173037528991699
v 142.26144361495972 219.90970134735107 -2.173037528991699
v 141.9688262939453 210.26554834842682 -2.1514835357666016
v 133.80184412002563 217.2339367866516 -2.173037528991699
v 142.26144361495972 219.90970134735107 -2.173037528991699
v 141.9688262939453 210.26554834842682 -2.1514835357666016
v 131.96343326568604 209.17932677268982 -2.173037528991699
v 133.80184412002563 217.2339367866516 -2.173037528991699
v 141.9688262939453 210.26554834842682 -2.1514835357666016
v 137.12849712371826 199.59780883789062 -2.173037528991699
v 131.96343326568604 209.17932677268982 -2.173037528991699
v 141.9688262939453 210.26554834842682 -2.1514835357666016
v 149.16094303131104 198.96713542938232 -2.173037528991699
v 137.12849712371826 199.59780883789062 -2.173037528991699
v 141.9688262939453 210.26554834842682 -2.1514835357666016
v 157.4879608154297 207.1612777709961 -2.173037528991699
v 149.16094303131104 198.96713542938232 -2.173037528991699
v 141.9688262939453 210.26554834842682 -2.1514835357666016
v 156.6954402923584 219.38406944274902 -2.173037528991699
v 157.4879608154297 207.1612777709961 -2.173037528991699
v 141.9688262939453 210.26554834842682 -2.1514835357666016
v 142.26144361495972 219.90970134735107 -2.173037528991699
v 156.6954402923584 219.38406944274902 -2.173037528991699
v 133.5305233001709 216.41820287704468 4.78504753112793
v 135.22695589065552 215.56792163848877 9.688177108764648
v 140.8743656873703 216.9724636077881 10.022317886352539
v 140.8743656873703 216.9724636077881 10.022317886352539
v 140.63559651374817 218.55086040496826 5.224356651306152
v 133.5305233001709 216.41820287704468 4.78504753112793
v 132.0266523361206 209.58394491672516 4.370826244354248
v 134.08309841156006 210.36972254514694 9.373113632202148
v 135.22695589065552 215.56792163848877 9.688177108764648
v 135.22695589065552 215.56792163848877 9.688177108764648
v 133.5305233001709 216.41820287704468 4.78504753112793
v 132.0266523361206 209.58394491672516 4.370826244354248
v 136.25463485717773 200.7998275756836 5.535369873046875
v 137.29894018173218 203.68844413757324 10.258878707885742
v 134.08309841156006 210.36972254514694 9.373113632202148
v 134.08309841156006 210.36972254514694 9.373113632202148
v 132.0266523361206 209.58394491672516 4.370826244354248
v 136.25463485717773 200.7998275756836 5.535369873046875
v 148.29907131195068 200.14854431152344 3.936345100402832
v 146.3173360824585 203.12707996368408 9.042644500732422
v 137.29894018173218 203.68844413757324 10.258878707885742
v 137.29894018173218 203.68844413757324 10.258878707885742
v 136.25463485717773 200.7998275756836 5.535369873046875
v 148.29907131195068 200.14854431152344 3.936345100402832
v 155.84564590454102 207.36404275894165 3.936345338821411
v 152.81761169433594 209.0305597782135 9.042644500732422
v 146.3173360824585 203.12707996368408 9.042644500732422
v 146.3173360824585 203.12707996368408 9.042644500732422
v 148.29907131195068 200.14854431152344 3.936345100402832
v 155.84564590454102 207.36404275894165 3.936345338821411
v 155.28933143615723 218.56783246994019 3.936347246170044
v 152.8194169998169 217.71974229812622 9.042646408081055
v 152.81761169433594 209.0305597782135 9.042644500732422
v 152.81761169433594 209.0305597782135 9.042644500732422
v 155.84564590454102 207.36404275894165 3.936345338821411
v 155.28933143615723 218.56783246994019 3.936347246170044
v 155.28933143615723 218.56783246994019 3.936347246170044
v 140.63559651374817 218.55086040496826 5.224356651306152
v 140.8743656873703 216.9724636077881 10.022317886352539
v 140.8743656873703 216.9724636077881 10.022317886352539
v 152.8194169998169 217.71974229812622 9.042646408081055
v 155.28933143615723 218.56783246994019 3.936347246170044
v 157.8240852355957 199.06092643737793 2.693042755126953
v 157.1374740600586 204.38397932052612 1.3022713661193848
v 154.2316541671753 201.61579036712646 1.2870721817016602
v 157.8240852355957 199.06092643737793 2.693042755126953
v 154.2316541671753 201.61579036712646 1.2870721817016602
v 153.22709846496582 197.57529640197754 1.2340145111083984
v 157.8240852355957 199.06092643737793 2.693042755126953
v 153.22709846496582 197.57529640197754 1.2340145111083984
v 155.38640975952148 192.1134262084961 1.3267676830291748
v 157.8240852355957 199.06092643737793 2.693042755126953
v 155.38640975952148 192.1134262084961 1.3267676830291748
v 161.21319770812988 192.16119384765625 0.6828004717826843
v 157.8240852355957 199.06092643737793 2.693042755126953
v 161.21319770812988 192.16119384765625 0.6828004717826843
v 163.02626419067383 195.70725917816162 0.35827088356018066
v 157.8240852355957 199.06092643737793 2.693042755126953
v 163.02626419067383 195.70725917816162 0.35827088356018066
v 162.0817584991455 201.6776466369629 0.5174875259399414
v 157.8240852355957 199.06092643737793 2.693042755126953
v 162.0817584991455 201.6776466369629 0.5174875259399414
v 157.1374740600586 204.38397932052612 1.3022713661193848
v 153.02078819274902 202.11210441589355 -2.057363748550415
v 154.2316541671753 201.61579036712646 1.2870721817016602
v 157.1374740600586 204.38397932052612 1.3022713661193848
v 157.1374740600586 204.38397932052612 1.3022713661193848
v 157.1183738708496 205.77330493927002 -2.069554328918457
v 153.02078819274902 202.11210441589355 -2.057363748550415
v 151.56264209747314 197.26233005523682 -2.053548812866211
v 153.22709846496582 197.57529640197754 1.2340145111083984
v 154.2316541671753 201.61579036712646 1.2870721817016602
v 154.2316541671753 201.61579036712646 1.2870721817016602
v 153.02078819274902 202.11210441589355 -2.057363748550415
v 151.56264209747314 197.26233005523682 -2.053548812866211
v 154.66759204864502 190.9448013305664 -2.0634570121765137
v 155.38640975952148 192.1134262084961 1.3267676830291748
v 153.22709846496582 197.57529640197754 1.2340145111083984
v 153.22709846496582 197.57529640197754 1.2340145111083984
v 151.56264209747314 197.26233005523682 -2.053548812866211
v 154.66759204864502 190.9448013305664 -2.0634570121765137
v 161.587251663208 191.18153953552246 -2.0770974159240723
v 161.21319770812988 192.16119384765625 0.6828004717826843
v 155.38640975952148 192.1134262084961 1.3267676830291748
v 155.38640975952148 192.1134262084961 1.3267676830291748
v 154.66759204864502 190.9448013305664 -2.0634570121765137
v 161.587251663208 191.18153953552246 -2.0770974159240723
v 163.94865036010742 195.58788871765137 -2.0783472061157227
v 163.02626419067383 195.70725917816162 0.35827088356018066
v 161.21319770812988 192.16119384765625 0.6828004717826843
v 161.21319770812988 192.16119384765625 0.6828004717826843
v 161.587251663208 191.18153953552246 -2.0770974159240723
v 163.94865036010742 195.58788871765137 -2.0783472061157227
v 162.94236946105957 201.96549129486084 -2.0780367851257324
v 162.0817584991455 201.6776466369629 0.5174875259399414
v 163.02626419067383 195.70725917816162 0.35827088356018066
v 163.02626419067383 195.70725917816162 0.35827088356018066
v 163.94865036010742 195.58788871765137 -2.0783472061157227
v 162.94236946105957 201.96549129486084 -2.0780367851257324
v 157.1183738708496 205.77330493927002 -2.069554328918457
v 157.1374740600586 204.38397932052612 1.3022713661193848
v 162.0817584991455 201.6776466369629 0.5174875259399414
v 162.0817584991455 201.6776466369629 0.5174875259399414
v 162.94236946105957 201.96549129486084 -2.0780367851257324
v 157.1183738708496 205.77330493927002 -2.069554328918457
v 157.46203994750977 199.0604305267334 -2.0577778816223145
v 153.02078819274902 202.11210441589355 -2.057363748550415
v 157.1183738708496 205.77330493927002 -2.069554328918457
v 157.46203994750977 199.0604305267334 -2.0577778816223145
v 151.56264209747314 197.26233005523682 -2.053548812866211
v 153.02078819274902 202.11210441589355 -2.057363748550415
v 157.46203994750977 199.0604305267334 -2.0577778816223145
v 154.66759204864502 190.9448013305664 -2.0634570121765137
v 151.56264209747314 197.26233005523682 -2.053548812866211
v 157.46203994750977 199.0604305267334 -2.0577778816223145
v 161.587251663208 191.18153953552246 -2.0770974159240723
v 154.66759204864502 190.9448013305664 -2.0634570121765137
v 157.46203994750977 199.0604305267334 -2.0577778816223145
v 163.94865036010742 195.58788871765137 -2.0783472061157227
v 161.587251663208 191.18153953552246 -2.0770974159240723
v 157.46203994750977 199.0604305267334 -2.0577778816223145
v 162.94236946105957 201.96549129486084 -2.0780367851257324
v 163.94865036010742 195.58788871765137 -2.0783472061157227
v 157.46203994750977 199.0604305267334 -2.0577778816223145
v 157.1183738708496 205.77330493927002 -2.069554328918457
v 162.94236946105957 201.96549129486084 -2.0780367851257324
v 140.97975957393646 189.96086502075195 6.661144733428955
v 139.86180806159973 196.07612800598145 5.108659744262695
v 134.7125849723816 194.7954864501953 4.803995132446289
v 140.97975957393646 189.96086502075195 6.661144733428955
v 134.7125849723816 194.7954864501953 4.803995132446289
v 133.6696333885193 190.05584907531738 4.516725063323975
v 140.97975957393646 189.96086502075195 6.661144733428955
v 133.6696333885193 190.05584907531738 4.516725063323975
v 140.98242163658142 185.06504249572754 5.324352264404297
v 140.97975957393646 189.96086502075195 6.661144733428955
v 140.98242163658142 185.06504249572754 5.324352264404297
v 149.96874713897705 182.0496711730957 4.2154083251953125
v 140.97975957393646 189.96086502075195 6.661144733428955
v 149.96874713897705 182.0496711730957 4.2154083251953125
v 154.01950931549072 188.55593872070312 4.2154083251953125
v 140.97975957393646 189.96086502075195 6.661144733428955
v 154.01950931549072 188.55593872070312 4.2154083251953125
v 146.85548639297485 194.97394180297852 4.215410232543945
v 140.97975957393646 189.96086502075195 6.661144733428955
v 146.85548639297485 194.97394180297852 4.215410232543945
v 139.86180806159973 196.07612800598145 5.108659744262695
v 133.50653076171875 196.3145351409912 -1.9813426733016968
v 133.16580390930176 195.5707607269287 1.6787985563278198
v 139.64410185813904 197.51528549194336 2.0793535709381104
v 139.64410185813904 197.51528549194336 2.0793535709381104
v 141.2198650240898 198.75425624847412 -1.9813426733016968
v 133.50653076171875 196.3145351409912 -1.9813426733016968
v 131.83029556274414 188.97046279907227 -1.9813426733016968
v 131.7945966720581 189.33938789367676 1.3011174201965332
v 133.16580390930176 195.5707607269287 1.6787985563278198
v 133.16580390930176 195.5707607269287 1.6787985563278198
v 133.50653076171875 196.3145351409912 -1.9813426733016968
v 131.83029556274414 188.97046279907227 -1.9813426733016968
v 140.920354783535 181.33526229858398 -1.9813426733016968
v 140.03023993968964 182.43124389648438 2.3629305362701416
v 131.7945966720581 189.33938789367676 1.3011174201965332
v 131.7945966720581 189.33938789367676 1.3011174201965332
v 131.83029556274414 188.97046279907227 -1.9813426733016968
v 140.920354783535 181.33526229858398 -1.9813426733016968
v 152.65484523773193 178.25669860839844 -1.9813426733016968
v 151.7756633758545 179.33388900756836 0.9049640893936157
v 140.03023993968964 182.43124389648438 2.3629305362701416
v 140.03023993968964 182.43124389648438 2.3629305362701416
v 140.920354783535 181.33526229858398 -1.9813426733016968
v 152.65484523773193 178.25669860839844 -1.9813426733016968
v 158.3712043762207 186.8515567779541 -1.9813426733016968
v 156.78042602539062 187.03643417358398 0.9049645662307739
v 151.7756633758545 179.33388900756836 0.9049640893936157
v 151.7756633758545 179.33388900756836 0.9049640893936157
v 152.65484523773193 178.25669860839844 -1.9813426733016968
v 158.3712043762207 186.8515567779541 -1.9813426733016968
v 150.48292636871338 196.49145030975342 -1.9813426733016968
v 149.10751724243164 195.74721813201904 0.9049662947654724
v 156.78042602539062 187.03643417358398 0.9049645662307739
v 156.78042602539062 187.03643417358398 0.9049645662307739
v 158.3712043762207 186.8515567779541 -1.9813426733016968
v 150.48292636871338 196.49145030975342 -1.9813426733016968
v 141.2198650240898 198.75425624847412 -1.9813426733016968
v 139.64410185813904 197.51528549194336 2.0793535709381104
v 149.10751724243164 195.74721813201904 0.9049662947654724
v 149.10751724243164 195.74721813201904 0.9049662947654724
v 150.48292636871338 196.49145030975342 -1.9813426733016968
v 141.2198650240898 198.75425624847412 -1.9813426733016968
v 140.95306104421616 189.96086311340332 -1.961690068244934
v 133.50653076171875 196.3145351409912 -1.9813426733016968
v 141.2198650240898 198.75425624847412 -1.9813426733016968
v 140.95306104421616 189.96086311340332 -1.961690068244934
v 131.83029556274414 188.97046279907227 -1.9813426733016968
v 133.50653076171875 196.3145351409912 -1.9813426733016968
v 140.95306104421616 189.96086311340332 -1.961690068244934
v 140.920354783535 181.33526229858398 -1.9813426733016968
v 131.83029556274414 188.97046279907227 -1.9813426733016968
v 140.95306104421616 189.96086311340332 -1.961690068244934
v 152.65484523773193 178.25669860839844 -1.9813426733016968
v 140.920354783535 181.33526229858398 -1.9813426733016968
v 140.95306104421616 189.96086311340332 -1.961690068244934
v 158.3712043762207 186.8515567779541 -1.9813426733016968
v 152.65484523773193 178.25669860839844 -1.9813426733016968
v 140.95306104421616 189.96086311340332 -1.961690068244934
v 150.48292636871338 196.49145030975342 -1.9813426733016968
v 158.3712043762207 186.8515567779541 -1.9813426733016968
v 140.95306104421616 189.96086311340332 -1.961690068244934
v 141.2198650240898 198.75425624847412 -1.9813426733016968
v 150.48292636871338 196.49145030975342 -1.9813426733016968
v 133.16580390930176 195.5707607269287 1.6787985563278198
v 134.7125849723816 194.7954864501953 4.803995132446289
v 139.86180806159973 196.07612800598145 5.108659744262695
v 139.86180806159973 196.07612800598145 5.108659744262695
v 139.64410185813904 197.51528549194336 2.0793535709381104
v 133.16580390930176 195.5707607269287 1.6787985563278198
v 131.7945966720581 189.33938789367676 1.3011174201965332
v 133.6696333885193 190.05584907531738 4.516725063323975
v 134.7125849723816 194.7954864501953 4.803995132446289
v 134.7125849723816 194.7954864501953 4.803995132446289
v 133.16580390930176 195.5707607269287 1.6787985563278198
v 131.7945966720581 189.33938789367676 1.3011174201965332
v 140.03023993968964 182.43124389648438 2.3629305362701416
v 140.98242163658142 185.06504249572754 5.324352264404297
v 133.6696333885193 190.05584907531738 4.516725063323975
v 133.6696333885193 190.05584907531738 4.516725063323975
v 131.7945966720581 189.33938789367676 1.3011174201965332
v 140.03023993968964 182.43124389648438 2.3629305362701416
v 151.7756633758545 179.33388900756836 0.9049640893936157
v 149.96874713897705 182.0496711730957 4.2154083251953125
v 140.98242163658142 185.06504249572754 5.324352264404297
v 140.98242163658142 185.06504249572754 5.324352264404297
v 140.03023993968964 182.43124389648438 2.3629305362701416
v 151.7756633758545 179.33388900756836 0.9049640893936157
v 156.78042602539062 187.03643417358398 0.9049645662307739
v 154.01950931549072 188.55593872070312 4.2154083251953125
v 149.96874713897705 182.0496711730957 4.2154083251953125
v 149.96874713897705 182.0496711730957 4.2154083251953125
v 151.7756633758545 179.33388900756836 0.9049640893936157
v 156.78042602539062 187.03643417358398 0.9049645662307739
v 149.10751724243164 195.74721813201904 0.9049662947654724
v 146.85548639297485 194.97394180297852 4.215410232543945
v 154.01950931549072 188.55593872070312 4.2154083251953125
v 154.01950931549072 188.55593872070312 4.2154083251953125
v 156.78042602539062 187.03643417358398 0.9049645662307739
v 149.10751724243164 195.74721813201904 0.9049662947654724
v 149.10751724243164 195.74721813201904 0.9049662947654724
v 139.64410185813904 197.51528549194336 2.0793535709381104
v 139.86180806159973 196.07612800598145 5.108659744262695
v 139.86180806159973 196.07612800598145 5.108659744262695
v 146.85548639297485 194.97394180297852 4.215410232543945
v 149.10751724243164 195.74721813201904 0.9049662947654724
v 125.58735752105713 188.14816093444824 3.54833984375
v 123.80630874633789 191.81900787353516 2.2668063640594482
v 119.64622497558594 191.22127532958984 1.2870721817016602
v 125.58735752105713 188.14816093444824 3.54833984375
v 119.64622497558594 191.22127532958984 1.2870721817016602
v 120.62334251403809 186.90352821350098 1.2340145111083984
v 125.58735752105713 188.14816093444824 3.54833984375
v 120.62334251403809 186.90352821350098 1.2340145111083984
v 123.66014289855957 182.97657012939453 2.29130220413208
v 125.58735752105713 188.14816093444824 3.54833984375
v 123.66014289855957 182.97657012939453 2.29130220413208
v 130.31156253814697 182.30113220214844 1.6495201587677002
v 125.58735752105713 188.14816093444824 3.54833984375
v 130.31156253814697 182.30113220214844 1.6495201587677002
v 131.52778816223145 186.66735649108887 1.3249905109405518
v 125.58735752105713 188.14816093444824 3.54833984375
v 131.52778816223145 186.66735649108887 1.3249905109405518
v 129.84503173828125 190.7648811340332 1.4842071533203125
v 125.58735752105713 188.14816093444824 3.54833984375
v 129.84503173828125 190.7648811340332 1.4842071533203125
v 123.80630874633789 191.81900787353516 2.2668063640594482
v 118.43535995483398 191.71758842468262 -2.057363986968994
v 119.64622497558594 191.22127532958984 1.2870721817016602
v 123.80630874633789 191.81900787353516 2.2668063640594482
v 123.80630874633789 191.81900787353516 2.2668063640594482
v 123.78721046447754 193.2083339691162 -2.069554328918457
v 118.43535995483398 191.71758842468262 -2.057363986968994
v 118.95888710021973 186.59056282043457 -2.053548812866211
v 120.62334251403809 186.90352821350098 1.2340145111083984
v 119.64622497558594 191.22127532958984 1.2870721817016602
v 119.64622497558594 191.22127532958984 1.2870721817016602
v 118.43535995483398 191.71758842468262 -2.057363986968994
v 118.95888710021973 186.59056282043457 -2.053548812866211
v 122.94132423400879 181.80794525146484 -2.0634567737579346
v 123.66014289855957 182.97657012939453 2.29130220413208
v 120.62334251403809 186.90352821350098 1.2340145111083984
v 120.62334251403809 186.90352821350098 1.2340145111083984
v 118.95888710021973 186.59056282043457 -2.053548812866211
v 122.94132423400879 181.80794525146484 -2.0634567737579346
v 130.68561553955078 181.32147789001465 -2.0770974159240723
v 130.31156253814697 182.30113220214844 1.6495201587677002
v 123.66014289855957 182.97657012939453 2.29130220413208
v 123.66014289855957 182.97657012939453 2.29130220413208
v 122.94132423400879 181.80794525146484 -2.0634567737579346
v 130.68561553955078 181.32147789001465 -2.0770974159240723
v 132.45017433166504 186.54798698425293 -2.0783474445343018
v 131.52778816223145 186.66735649108887 1.3249905109405518
v 130.31156253814697 182.30113220214844 1.6495201587677002
v 130.31156253814697 182.30113220214844 1.6495201587677002
v 130.68561553955078 181.32147789001465 -2.0770974159240723
v 132.45017433166504 186.54798698425293 -2.0783474445343018
v 130.70564365386963 191.05272674560547 -2.0780367851257324
v 129.84503173828125 190.7648811340332 1.4842071533203125
v 131.52778816223145 186.66735649108887 1.3249905109405518
v 131.52778816223145 186.66735649108887 1.3249905109405518
v 132.45017433166504 186.54798698425293 -2.0783474445343018
v 130.70564365386963 191.05272674560547 -2.0780367851257324
v 123.78721046447754 193.2083339691162 -2.069554328918457
v 123.80630874633789 191.81900787353516 2.2668063640594482
v 129.84503173828125 190.7648811340332 1.4842071533203125
v 129.84503173828125 190.7648811340332 1.4842071533203125
v 130.70564365386963 191.05272674560547 -2.0780367851257324
v 123.78721046447754 193.2083339691162 -2.069554328918457
v 125.22531318664551 188.1476650238037 -2.0577778816223145
v 118.43535995483398 191.71758842468262 -2.057363986968994
v 123.78721046447754 193.2083339691162 -2.069554328918457
v 125.22531318664551 188.1476650238037 -2.0577778816223145
v 118.95888710021973 186.59056282043457 -2.053548812866211
v 118.43535995483398 191.71758842468262 -2.057363986968994
v 125.22531318664551 188.1476650238037 -2.0577778816223145
v 122.94132423400879 181.80794525146484 -2.0634567737579346
v 118.95888710021973 186.59056282043457 -2.053548812866211
v 125.22531318664551 188.1476650238037 -2.0577778816223145
v 130.68561553955078 181.32147789001465 -2.0770974159240723
v 122.94132423400879 181.80794525146484 -2.0634567737579346
v 125.22531318664551 188.1476650238037 -2.0577778816223145
v 132.45017433166504 186.54798698425293 -2.0783474445343018
v 130.68561553955078 181.32147789001465 -2.0770974159240723
v 125.22531318664551 188.1476650238037 -2.0577778816223145
v 130.70564365386963 191.05272674560547 -2.0780367851257324
v 132.45017433166504 186.54798698425293 -2.0783474445343018
v 125.22531318664551 188.1476650238037 -2.0577778816223145
v 123.78721046447754 193.2083339691162 -2.069554328918457
v 130.70564365386963 191.05272674560547 -2.0780367851257324
v 121.35081481933594 205.400146484375 8.490065574645996
v 120.46750259399414 213.0351505279541 4.561914443969727
v 114.71252822875977 210.16049337387085 2.976780652999878
v 121.35081481933594 205.400146484375 8.490065574645996
v 114.71252822875977 210.16049337387085 2.976780652999878
v 113.29116821289062 203.70119714736938 2.5852856636047363
v 121.35081481933594 205.400146484375 8.490065574645996
v 113.29116821289062 203.70119714736938 2.5852856636047363
v 117.28718185424805 195.39902114868164 3.6859359741210938
v 121.35081481933594 205.400146484375 8.490065574645996
v 117.28718185424805 195.39902114868164 3.6859359741210938
v 128.82214260101318 195.04401206970215 5.456047534942627
v 121.35081481933594 205.400146484375 8.490065574645996
v 128.82214260101318 195.04401206970215 5.456047534942627
v 132.95301628112793 200.2239646911621 5.456047534942627
v 121.35081481933594 205.400146484375 8.490065574645996
v 132.95301628112793 200.2239646911621 5.456047534942627
v 130.74951457977295 210.15184211730957 5.456048011779785
v 121.35081481933594 205.400146484375 8.490065574645996
v 130.74951457977295 210.15184211730957 5.456048011779785
v 120.46750259399414 213.0351505279541 4.561914443969727
v 113.88161659240723 211.3362011909485 -2.173037528991699
v 114.71252822875977 210.16049337387085 2.976780652999878
v 120.46750259399414 213.0351505279541 4.561914443969727
v 120.46750259399414 213.0351505279541 4.561914443969727
v 121.3251953125 214.9208402633667 -2.173037528991699
v 113.88161659240723 211.3362011909485 -2.173037528991699
v 112.04320526123047 203.28159141540527 -2.173037528991699
v 113.29116821289062 203.70119714736938 2.5852856636047363
v 114.71252822875977 210.16049337387085 2.976780652999878
v 114.71252822875977 210.16049337387085 2.976780652999878
v 113.88161659240723 211.3362011909485 -2.173037528991699
v 112.04320526123047 203.28159141540527 -2.173037528991699
v 117.20827102661133 193.7000732421875 -2.173037528991699
v 117.28718185424805 195.39902114868164 3.6859359741210938
v 113.29116821289062 203.70119714736938 2.5852856636047363
v 113.29116821289062 203.70119714736938 2.5852856636047363
v 112.04320526123047 203.28159141540527 -2.173037528991699
v 117.20827102661133 193.7000732421875 -2.173037528991699
v 129.8368616104126 193.34506607055664 -2.173037528991699
v 128.82214260101318 195.04401206970215 5.456047534942627
v 117.28718185424805 195.39902114868164 3.6859359741210938
v 117.28718185424805 195.39902114868164 3.6859359741210938
v 117.20827102661133 193.7000732421875 -2.173037528991699
v 129.8368616104126 193.34506607055664 -2.173037528991699
v 134.98797607421875 199.80435943603516 -2.173037528991699
v 132.95301628112793 200.2239646911621 5.456047534942627
v 128.82214260101318 195.04401206970215 5.456047534942627
v 128.82214260101318 195.04401206970215 5.456047534942627
v 129.8368616104126 193.34506607055664 -2.173037528991699
v 134.98797607421875 199.80435943603516 -2.173037528991699
v 132.42035484313965 211.32755041122437 -2.173037528991699
v 130.74951457977295 210.15184211730957 5.456048011779785
v 132.95301628112793 200.2239646911621 5.456047534942627
v 132.95301628112793 200.2239646911621 5.456047534942627
v 134.98797607421875 199.80435943603516 -2.173037528991699
v 132.42035484313965 211.32755041122437 -2.173037528991699
v 121.3251953125 214.9208402633667 -2.173037528991699
v 120.46750259399414 213.0351505279541 4.561914443969727
v 130.74951457977295 210.15184211730957 5.456048011779785
v 130.74951457977295 210.15184211730957 5.456048011779785
v 132.42035484313965 211.32755041122437 -2.173037528991699
v 121.3251953125 214.9208402633667 -2.173037528991699
v 121.3251953125 205.40014600753784 -2.1514835357666016
v 113.88161659240723 211.3362011909485 -2.173037528991699
v 121.3251953125 214.9208402633667 -2.173037528991699
v 121.3251953125 205.40014600753784 -2.1514835357666016
v 112.04320526123047 203.28159141540527 -2.173037528991699
v 113.88161659240723 211.3362011909485 -2.173037528991699
v 121.3251953125 205.40014600753784 -2.1514835357666016
v 117.20827102661133 193.7000732421875 -2.173037528991699
v 112.04320526123047 203.28159141540527 -2.173037528991699
v 121.3251953125 205.40014600753784 -2.1514835357666016
v 129.8368616104126 193.34506607055664 -2.173037528991699
v 117.20827102661133 193.7000732421875 -2.173037528991699
v 121.3251953125 205.40014600753784 -2.1514835357666016
v 134.98797607421875 199.80435943603516 -2.173037528991699
v 129.8368616104126 193.34506607055664 -2.173037528991699
v 121.3251953125 205.40014600753784 -2.1514835357666016
v 132.42035484313965 211.32755041122437 -2.173037528991699
v 134.98797607421875 199.80435943603516 -2.173037528991699
v 121.3251953125 205.40014600753784 -2.1514835357666016
v 121.3251953125 214.9208402633667 -2.173037528991699
v 132.42035484313965 211.32755041122437 -2.173037528991699
f 1 2 3
f 4 5 6
f 7 8 9
f 10 11 12
f 13 14 15
f 16 17 18
f 19 20 21
f 22 23 24
f 25 26 27
f 28 29 30
f 31 32 33
f 34 35 36
f 37 38 39
f 40 41 42
f 43 44 45
f 46 47 48
f 49 50 51
f 52 53 54
f 55 56 57
f 58 59 60
f 61 62 63
f 64 65 66
f 67 68 69
f 70 71 72
f 73 74 75
f 76 77 78
f 79 80 81
f 82 83 84
f 85 86 87
f 88 89 90
f 91 92 93
f 94 95 96
f 97 98 99
f 100 101 102
f 103 104 105
f 106 107 108
f 109 110 111
f 112 113 114
f 115 116 117
f 118 119 120
f 121 122 123
f 124 125 126
f 127 128 129
f 130 131 132
f 133 134 135
f 136 137 138
f 139 140 141
f 142 143 144
f 145 146 147
f 148 149 150
f 151 152 153
f 154 155 156
f 157 158 159
f 160 161 162
f 163 164 165
f 166 167 168
f 169 170 171
f 172 173 174
f 175 176 177
f 178 179 180
f 181 182 183
f 184 185 186
f 187 188 189
f 190 191 192
f 193 194 195
f 196 197 198
f 199 200 201
f 202 203 204
f 205 206 207
f 208 209 210
f 211 212 213
f 214 215 216
f 217 218 219
f 220 221 222
f 223 224 225
f 226 227 228
f 229 230 231
f 232 233 234
f 235 236 237
f 238 239 240
f 241 242 243
f 244 245 246
f 247 248 249
f 250 251 252
f 253 254 255
f 256 257 258
f 259 260 261
f 262 263 264
f 265 266 267
f 268 269 270
f 271 272 273
f 274 275 276
f 277 278 279
f 280 281 282
f 283 284 285
f 286 287 288
f 289 290 291
f 292 293 294
f 295 296 297
f 298 299 300
f 301 302 303
f 304 305 306
f 307 308 309
f 310 311 312
f 313 314 315
f 316 317 318
f 319 320 321
f 322 323 324
f 325 326 327
f 328 329 330
f 331 332 333
f 334 335 336
f 337 338 339
f 340 341 342
f 343 344 345
f 346 347 348
f 349 350 351
f 352 353 354
f 355 356 357
f 358 359 360
f 361 362 363
f 364 365 366
f 367 368 369
f 370 371 372
f 373 374 375
f 376 377 378
f 379 380 381
f 382 383 384
f 385 386 387
f 388 389 390
f 391 392 393
f 394 395 396
f 397 398 399
f 400 401 402
f 403 404 405
f 406 407 408
f 409 410 411
f 412 413 414
f 415 416 417
f 418 419 420
f 421 422 423
f 424 425 426
f 427 428 429
f 430 431 432
f 433 434 435
f 436 437 438
f 439 440 441
f 442 443 444
f 445 446 447
f 448 449 450
f 451 452 453
f 454 455 456
f 457 458 459
f 460 461 462
f 463 464 465
f 466 467 468
f 469 470 471
f 472 473 474
f 475 476 477
f 478 479 480
f 481 482 483
f 484 485 486
f 487 488 489
f 490 491 492
f 493 494 495
f 496 497 498
f 499 500 501
f 502 503 504
