v 42.010520935058594 -29.495858725975914 23.468121298964665
v 46.932376861572266 -29.49585869438082 22.74530983846967
v 46.932376861572266 -29.49585864418119 21.596876153166935
v 46.932376861572266 -29.49585864418119 21.596876153166935
v 42.010520935058594 -29.49585867577628 22.319687539156124
v 42.010520935058594 -29.495858725975914 23.468121298964665
v 46.932376861572266 -30.999660943680702 21.59687608743365
v 46.932376861572266 -30.999660993880333 22.745309772736384
v 42.010520935058594 -30.999661025475426 23.46812123323138
v 42.010520935058594 -30.999661025475426 23.46812123323138
v 42.010520935058594 -30.99966097527579 22.319687488324
v 46.932376861572266 -30.999660943680702 21.59687608743365
v 46.932376861572266 -29.49585864418119 21.596876153166935
v 46.932376861572266 -30.999660943680702 21.59687608743365
v 42.010520935058594 -30.99966097527579 22.319687488324
v 42.010520935058594 -30.99966097527579 22.319687488324
v 42.010520935058594 -29.49585867577628 22.319687539156124
v 46.932376861572266 -29.49585864418119 21.596876153166935
v 51.85423278808594 -29.49585867577628 22.319687539156124
v 51.85423278808594 -29.495858725975914 23.468121298964665
v 51.85423278808594 -30.999661025475426 23.46812123323138
v 51.85423278808594 -30.999661025475426 23.46812123323138
v 51.85423278808594 -30.99966097527579 22.319687488324
v 51.85423278808594 -29.49585867577628 22.319687539156124
v 46.932376861572266 -29.49585869438082 22.74530983846967
v 46.932376861572266 -30.999660993880333 22.745309772736384
v 51.85423278808594 -30.999661025475426 23.46812123323138
v 51.85423278808594 -30.999661025475426 23.46812123323138
v 51.85423278808594 -29.495858725975914 23.468121298964665
v 46.932376861572266 -29.49585869438082 22.74530983846967
v 42.010520935058594 -29.495858725975914 23.468121298964665
v 42.010520935058594 -29.49585867577628 22.319687539156124
v 42.010520935058594 -30.99966097527579 22.319687488324
v 42.010520935058594 -30.99966097527579 22.319687488324
v 42.010520935058594 -30.999661025475426 23.46812123323138
v 42.010520935058594 -29.495858725975914 23.468121298964665
v 51.85423278808594 -29.495858725975914 23.468121298964665
v 51.85423278808594 -29.49585867577628 22.319687539156124
v 46.932376861572266 -29.49585864418119 21.596876153166935
v 46.932376861572266 -29.49585864418119 21.596876153166935
v 46.932376861572266 -29.49585869438082 22.74530983846967
v 51.85423278808594 -29.495858725975914 23.468121298964665
v 51.85423278808594 -30.99966097527579 22.319687488324
v 51.85423278808594 -30.999661025475426 23.46812123323138
v 46.932376861572266 -30.999660993880333 22.745309772736384
v 46.932376861572266 -30.999660993880333 22.745309772736384
v 46.932376861572266 -30.999660943680702 21.59687608743365
v 51.85423278808594 -30.99966097527579 22.319687488324
v 51.85423278808594 -29.49585867577628 22.319687539156124
v 51.85423278808594 -30.99966097527579 22.319687488324
v 46.932376861572266 -30.999660943680702 21.59687608743365
v 46.932376861572266 -30.999660943680702 21.59687608743365
v 46.932376861572266 -29.49585864418119 21.596876153166935
v 51.85423278808594 -29.49585867577628 22.319687539156124
v 42.010520935058594 -29.495858725975914 23.468121298964665
v 42.010520935058594 -30.999661025475426 23.46812123323138
v 46.932376861572266 -30.999660993880333 22.745309772736384
v 46.932376861572266 -30.999660993880333 22.745309772736384
v 46.932376861572266 -29.49585869438082 22.74530983846967
v 42.010520935058594 -29.495858725975914 23.468121298964665
v 46.35779023170471 -29.696212535645575 22.33882522583009
v 47.506223917007446 -29.69621258584522 22.338825225830085
v 47.83344787359238 -29.696212704739708 14.574997425079333
v 47.83344787359238 -29.696212704739708 14.574997425079333
v 46.030565321445465 -29.696212645135063 14.574997425079337
v 46.35779023170471 -29.696212535645575 22.33882522583009
v 46.35779017210007 -30.68058419960781 22.338825182801838
v 46.030565083026886 -30.680584277472633 14.574997382051086
v 47.8334476351738 -30.680584337077278 14.574997382051084
v 47.8334476351738 -30.680584337077278 14.574997382051084
v 47.5062238574028 -30.680584259212456 22.338825182801834
v 46.35779017210007 -30.68058419960781 22.338825182801838
v 46.35779023170471 -29.696212535645575 22.33882522583009
v 46.030565321445465 -29.696212645135063 14.574997425079337
v 46.030565083026886 -30.680584277472633 14.574997382051086
v 46.030565083026886 -30.680584277472633 14.574997382051086
v 46.35779017210007 -30.68058419960781 22.338825182801838
v 46.35779023170471 -29.696212535645575 22.33882522583009
v 46.030565321445465 -29.696212645135063 14.574997425079337
v 47.83344787359238 -29.696212704739708 14.574997425079333
v 47.8334476351738 -30.680584337077278 14.574997382051084
v 47.8334476351738 -30.680584337077278 14.574997382051084
v 46.030565083026886 -30.680584277472633 14.574997382051086
v 46.030565321445465 -29.696212645135063 14.574997425079337
v 47.83344787359238 -29.696212704739708 14.574997425079333
v 47.506223917007446 -29.69621258584522 22.338825225830085
v 47.5062238574028 -30.680584259212456 22.338825182801834
v 47.5062238574028 -30.680584259212456 22.338825182801834
v 47.8334476351738 -30.680584337077278 14.574997382051084
v 47.83344787359238 -29.696212704739708 14.574997425079333
v 47.506223917007446 -29.69621258584522 22.338825225830085
v 46.35779023170471 -29.696212535645575 22.33882522583009
v 46.35779017210007 -30.68058419960781 22.338825182801838
v 46.35779017210007 -30.68058419960781 22.338825182801838
v 47.5062238574028 -30.680584259212456 22.338825182801834
v 47.506223917007446 -29.69621258584522 22.338825225830085
v 46.02619552612305 -30.064040880457867 57.1940460044296
v 46.93818283081055 -29.85855646720147 59.736011498030756
v 46.93818283081055 -29.858554847891327 22.690513603743646
v 46.93818283081055 -29.858554847891327 22.690513603743646
v 46.02619552612305 -30.064040385539528 22.69051359476159
v 46.02619552612305 -30.064040880457867 57.1940460044296
v 46.93818283081055 -30.4665470350337 22.690513577167465
v 46.93818283081055 -30.466548654343843 59.736011471454574
v 46.02619552612305 -30.261062960879315 57.19404599581749
v 46.02619552612305 -30.261062960879315 57.19404599581749
v 46.02619552612305 -30.261062465960975 22.690513586149482
v 46.93818283081055 -30.4665470350337 22.690513577167465
v 46.93818283081055 -29.858554847891327 22.690513603743646
v 46.93818283081055 -30.4665470350337 22.690513577167465
v 46.02619552612305 -30.261062465960975 22.690513586149482
v 46.02619552612305 -30.261062465960975 22.690513586149482
v 46.02619552612305 -30.064040385539528 22.69051359476159
v 46.93818283081055 -29.858554847891327 22.690513603743646
v 47.85017013549805 -30.064040385539528 22.69051359476159
v 47.85017013549805 -30.064040880457867 57.1940460044296
v 47.85017013549805 -30.261062960879315 57.19404599581749
v 47.85017013549805 -30.261062960879315 57.19404599581749
v 47.85017013549805 -30.261062465960975 22.690513586149482
v 47.85017013549805 -30.064040385539528 22.69051359476159
v 46.93818283081055 -29.85855646720147 59.736011498030756
v 46.93818283081055 -30.466548654343843 59.736011471454574
v 47.85017013549805 -30.261062960879315 57.19404599581749
v 47.85017013549805 -30.261062960879315 57.19404599581749
v 47.85017013549805 -30.064040880457867 57.1940460044296
v 46.93818283081055 -29.85855646720147 59.736011498030756
v 46.02619552612305 -30.064040880457867 57.1940460044296
v 46.02619552612305 -30.064040385539528 22.69051359476159
v 46.02619552612305 -30.261062465960975 22.690513586149482
v 46.02619552612305 -30.261062465960975 22.690513586149482
v 46.02619552612305 -30.261062960879315 57.19404599581749
v 46.02619552612305 -30.064040880457867 57.1940460044296
v 47.85017013549805 -30.064040880457867 57.1940460044296
v 47.85017013549805 -30.064040385539528 22.69051359476159
v 46.93818283081055 -29.858554847891327 22.690513603743646
v 46.93818283081055 -29.858554847891327 22.690513603743646
v 46.93818283081055 -29.85855646720147 59.736011498030756
v 47.85017013549805 -30.064040880457867 57.1940460044296
v 47.85017013549805 -30.261062465960975 22.690513586149482
v 47.85017013549805 -30.261062960879315 57.19404599581749
v 46.93818283081055 -30.466548654343843 59.736011471454574
v 46.93818283081055 -30.466548654343843 59.736011471454574
v 46.93818283081055 -30.4665470350337 22.690513577167465
v 47.85017013549805 -30.261062465960975 22.690513586149482
v 47.85017013549805 -30.064040385539528 22.69051359476159
v 47.85017013549805 -30.261062465960975 22.690513586149482
v 46.93818283081055 -30.4665470350337 22.690513577167465
v 46.93818283081055 -30.4665470350337 22.690513577167465
v 46.93818283081055 -29.858554847891327 22.690513603743646
v 47.85017013549805 -30.064040385539528 22.69051359476159
v 46.02619552612305 -30.064040880457867 57.1940460044296
v 46.02619552612305 -30.261062960879315 57.19404599581749
v 46.93818283081055 -30.466548654343843 59.736011471454574
v 46.93818283081055 -30.466548654343843 59.736011471454574
v 46.93818283081055 -29.85855646720147 59.736011498030756
v 46.02619552612305 -30.064040880457867 57.1940460044296
f 1 2 3
f 4 5 6
f 7 8 9
f 10 11 12
f 13 14 15
f 16 17 18
f 19 20 21
f 22 23 24
f 25 26 27
f 28 29 30
f 31 32 33
f 34 35 36
f 37 38 39
f 40 41 42
f 43 44 45
f 46 47 48
f 49 50 51
f 52 53 54
f 55 56 57
f 58 59 60
f 61 62 63
f 64 65 66
f 67 68 69
f 70 71 72
f 73 74 75
f 76 77 78
f 79 80 81
f 82 83 84
f 85 86 87
f 88 89 90
f 91 92 93
f 94 95 96
f 97 98 99
f 100 101 102
f 103 104 105
f 106 107 108
f 109 110 111
f 112 113 114
f 115 116 117
f 118 119 120
f 121 122 123
f 124 125 126
f 127 128 129
f 130 131 132
f 133 134 135
f 136 137 138
f 139 140 141
f 142 143 144
f 145 146 147
f 148 149 150
f 151 152 153
f 154 155 156
