v 19.695667266845703 -30.475773799065124 61.13873539271526
v 30.02049119338028 -33.915953623894225 61.138735242340225
v 30.020491220793815 -33.28880503091484 40.12776133939483
v 30.020491220793815 -33.28880503091484 40.12776133939483
v 19.695667266845703 -29.848625206085696 40.12776053609555
v 19.695667266845703 -30.475773799065124 61.13873539271526
v 30.020491220793588 -34.216882728668665 40.127759391478634
v 30.020491193380053 -34.84403132164813 61.138735201772654
v 19.695667266845703 -31.40384577477313 61.13873535214795
v 19.695667266845703 -31.40384577477313 61.13873535214795
v 19.695667266845703 -30.776699089142337 40.12776049552815
v 30.020491220793588 -34.216882728668665 40.127759391478634
v 22.417149543762207 -28.86425912623131 26.02165286733154
v 22.417149543762207 -29.79233300928795 26.021652826764143
v 19.695667266845703 -30.776699089142337 40.12776049552815
v 19.695667266845703 -30.776699089142337 40.12776049552815
v 19.695667266845703 -29.848625206085696 40.12776053609555
v 22.417149543762207 -28.86425912623131 26.02165286733154
v 40.34531593322754 -29.848625206085696 40.12776053609555
v 40.34531593322754 -30.475773799065124 61.13873539271526
v 40.34531593322754 -31.403849589470397 61.138735352147776
v 40.34531593322754 -31.403849589470397 61.138735352147776
v 40.34531593322754 -30.776699089142337 40.12776049552815
v 40.34531593322754 -29.848625206085696 40.12776053609555
v 30.02049119338028 -33.915953623894225 61.138735242340225
v 30.020491193380053 -34.84403132164813 61.138735201772654
v 40.34531593322754 -31.403849589470397 61.138735352147776
v 40.34531593322754 -31.403849589470397 61.138735352147776
v 40.34531593322754 -30.475773799065124 61.13873539271526
v 30.02049119338028 -33.915953623894225 61.138735242340225
v 19.695667266845703 -30.475773799065124 61.13873539271526
v 19.695667266845703 -29.848625206085696 40.12776053609555
v 19.695667266845703 -30.776699089142337 40.12776049552815
v 19.695667266845703 -30.776699089142337 40.12776049552815
v 19.695667266845703 -31.40384577477313 61.13873535214795
v 19.695667266845703 -30.475773799065124 61.13873539271526
v 40.34531593322754 -30.475773799065124 61.13873539271526
v 40.34531593322754 -29.848625206085696 40.12776053609555
v 30.020491220793815 -33.28880503091484 40.12776133939483
v 30.020491220793815 -33.28880503091484 40.12776133939483
v 30.02049119338028 -33.915953623894225 61.138735242340225
v 40.34531593322754 -30.475773799065124 61.13873539271526
v 30.02049142168653 -29.62098379651849 11.357462541895627
v 37.62383270263672 -29.79233300928795 26.021652826764143
v 30.020491263821555 -33.23251471872824 25.501480557248396
v 37.62383270263672 -28.86425912623131 26.02165286733154
v 37.62383270263672 -29.79233300928795 26.021652826764143
v 30.02049142168653 -29.62098379651849 11.357462541895627
v 30.02049142168653 -29.62098379651849 11.357462541895627
v 30.020491421686756 -28.69290991346185 11.357462582463025
v 37.62383270263672 -28.86425912623131 26.02165286733154
v 19.695667266845703 -30.475773799065124 61.13873539271526
v 19.695667266845703 -31.40384577477313 61.13873535214795
v 30.020491193380053 -34.84403132164813 61.138735201772654
v 30.020491193380053 -34.84403132164813 61.138735201772654
v 30.02049119338028 -33.915953623894225 61.138735242340225
v 19.695667266845703 -30.475773799065124 61.13873539271526
v 30.020491263821782 -32.3044408356716 25.501480597815796
v 30.020491421686756 -28.69290991346185 11.357462582463025
v 22.417149543762207 -28.86425912623131 26.02165286733154
v 22.417149543762207 -29.79233300928795 26.021652826764143
v 30.02049142168653 -29.62098379651849 11.357462541895627
v 30.020491263821555 -33.23251471872824 25.501480557248396
v 30.020491421686756 -28.69290991346185 11.357462582463025
v 30.02049142168653 -29.62098379651849 11.357462541895627
v 22.417149543762207 -29.79233300928795 26.021652826764143
v 22.417149543762207 -29.79233300928795 26.021652826764143
v 22.417149543762207 -28.86425912623131 26.02165286733154
v 30.020491421686756 -28.69290991346185 11.357462582463025
v 37.62383270263672 -28.86425912623131 26.02165286733154
v 30.020491421686756 -28.69290991346185 11.357462582463025
v 30.020491263821782 -32.3044408356716 25.501480597815796
v 40.34531593322754 -31.403849589470397 61.138735352147776
v 30.020491193380053 -34.84403132164813 61.138735201772654
v 30.020491220793588 -34.216882728668665 40.127759391478634
v 30.020491220793588 -34.216882728668665 40.127759391478634
v 40.34531593322754 -30.776699089142337 40.12776049552815
v 40.34531593322754 -31.403849589470397 61.138735352147776
v 40.34531593322754 -29.848625206085696 40.12776053609555
v 40.34531593322754 -30.776699089142337 40.12776049552815
v 37.62383270263672 -29.79233300928795 26.021652826764143
v 37.62383270263672 -29.79233300928795 26.021652826764143
v 37.62383270263672 -28.86425912623131 26.02165286733154
v 40.34531593322754 -29.848625206085696 40.12776053609555
v 22.417149543762207 -29.79233300928795 26.021652826764143
v 30.020491263821555 -33.23251471872824 25.501480557248396
v 30.020491220793588 -34.216882728668665 40.127759391478634
v 30.020491220793588 -34.216882728668665 40.127759391478634
v 19.695667266845703 -30.776699089142337 40.12776049552815
v 22.417149543762207 -29.79233300928795 26.021652826764143
v 30.020491220793588 -34.216882728668665 40.127759391478634
v 30.020491263821555 -33.23251471872824 25.501480557248396
v 37.62383270263672 -29.79233300928795 26.021652826764143
v 37.62383270263672 -29.79233300928795 26.021652826764143
v 40.34531593322754 -30.776699089142337 40.12776049552815
v 30.020491220793588 -34.216882728668665 40.127759391478634
v 37.62383270263672 -28.86425912623131 26.02165286733154
v 30.020491263821782 -32.3044408356716 25.501480597815796
v 30.020491220793815 -33.28880503091484 40.12776133939483
v 30.020491220793815 -33.28880503091484 40.12776133939483
v 40.34531593322754 -29.848625206085696 40.12776053609555
v 37.62383270263672 -28.86425912623131 26.02165286733154
v 30.020491220793815 -33.28880503091484 40.12776133939483
v 30.020491263821782 -32.3044408356716 25.501480597815796
v 22.417149543762207 -28.86425912623131 26.02165286733154
v 22.417149543762207 -28.86425912623131 26.02165286733154
v 19.695667266845703 -29.848625206085696 40.12776053609555
v 30.020491220793815 -33.28880503091484 40.12776133939483
f 1 2 3
f 4 5 6
f 7 8 9
f 10 11 12
f 13 14 15
f 16 17 18
f 19 20 21
f 22 23 24
f 25 26 27
f 28 29 30
f 31 32 33
f 34 35 36
f 37 38 39
f 40 41 42
f 43 44 45
f 46 47 48
f 49 50 51
f 52 53 54
f 55 56 57
f 58 59 60
f 61 62 63
f 64 65 66
f 67 68 69
f 70 71 72
f 73 74 75
f 76 77 78
f 79 80 81
f 82 83 84
f 85 86 87
f 88 89 90
f 91 92 93
f 94 95 96
f 97 98 99
f 100 101 102
f 103 104 105
f 106 107 108
