v 18.894642339146827 -58.701888693098795 0.31632795240809486
v 29.228003992640282 -58.701888693098795 0.31632795240809486
v 29.228003992640282 -48.53121219801449 0.3163281295270295
v 18.894642339146827 -48.53121219801449 0.3163281295270295
v 16.655665945784676 -60.95513980987852 0.0
v 31.466980386002433 -60.95513980987852 0.0
v 31.466980386002433 -60.95513980987852 11.93435458160468
v 16.655665945784676 -60.95513980987852 11.93435458160468
v 31.466980386002433 -60.95513980987852 0.0
v 31.466980386002433 -46.277961081234764 0.0
v 31.466980386002433 -46.277961081234764 11.93435458160468
v 31.466980386002433 -60.95513980987852 11.93435458160468
v 31.466980386002433 -46.277961081234764 0.0
v 16.655665945784676 -46.277961081234764 0.0
v 16.655665945784676 -46.277961081234764 11.93435458160468
v 31.466980386002433 -46.277961081234764 11.93435458160468
v 16.655665945784676 -46.277961081234764 0.0
v 16.655665945784676 -60.95513980987852 0.0
v 16.655665945784676 -60.95513980987852 11.93435458160468
v 16.655665945784676 -46.277961081234764 11.93435458160468
v 16.655665945784676 -60.95513980987852 11.93435458160468
v 31.466980386002433 -60.95513980987852 11.93435458160468
v 29.228003992640282 -58.701888693098795 11.920979976612898
v 18.894642339146827 -58.701888693098795 11.920979976612898
v 31.466980386002433 -60.95513980987852 11.93435458160468
v 31.466980386002433 -46.277961081234764 11.93435458160468
v 29.228003992640282 -48.53121219801449 11.920979976612898
v 29.228003992640282 -58.701888693098795 11.920979976612898
v 31.466980386002433 -46.277961081234764 11.93435458160468
v 16.655665945784676 -46.277961081234764 11.93435458160468
v 18.894642339146827 -48.53121219801449 11.920979976612898
v 29.228003992640282 -48.53121219801449 11.920979976612898
v 16.655665945784676 -46.277961081234764 11.93435458160468
v 16.655665945784676 -60.95513980987852 11.93435458160468
v 18.894642339146827 -58.701888693098795 11.920979976612898
v 18.894642339146827 -48.53121219801449 11.920979976612898
v 18.894642339146827 -58.701888693098795 11.920979976612898
v 29.228003992640282 -58.701888693098795 11.920979976612898
v 29.228003992640282 -58.701888693098795 0.31632795240809486
v 18.894642339146827 -58.701888693098795 0.31632795240809486
v 29.228003992640282 -58.701888693098795 11.920979976612898
v 29.228003992640282 -48.53121219801449 11.920979976612898
v 29.228003992640282 -48.53121219801449 0.3163281295270295
v 29.228003992640282 -58.701888693098795 0.31632795240809486
v 29.228003992640282 -48.53121219801449 11.920979976612898
v 18.894642339146827 -48.53121219801449 11.920979976612898
v 18.894642339146827 -48.53121219801449 0.3163281295270295
v 29.228003992640282 -48.53121219801449 0.3163281295270295
v 18.894642339146827 -48.53121219801449 11.920979976612898
v 18.894642339146827 -58.701888693098795 11.920979976612898
v 18.894642339146827 -58.701888693098795 0.31632795240809486
v 18.894642339146827 -48.53121219801449 0.3163281295270295
v 31.68110442540683 -45.388454913532314 11.664956682032425
v 31.56689105160001 -45.388454913532314 12.806347937526652
v 31.56689105160001 -61.595904396641004 12.806347937526652
v 31.68110442540683 -61.595904396641004 11.664956682032425
v 31.56689105160001 -45.388454913532314 12.806347937526652
v 30.603303826774948 -45.388454913532314 13.428698531369264
v 30.603303826774948 -61.595904396641004 13.428698531369264
v 31.56689105160001 -61.595904396641004 12.806347937526652
v 30.603303826774948 -45.388454913532314 13.428698531369264
v 29.420174848573026 -45.388454913532314 13.06336451509253
v 29.420174848573026 -61.595904396641004 13.06336451509253
v 30.603303826774948 -61.595904396641004 13.428698531369264
v 29.420174848573026 -45.388454913532314 13.06336451509253
v 29.0278464897072 -45.388454913532314 11.985451268818224
v 29.0278464897072 -61.595904396641004 11.985451268818224
v 29.420174848573026 -61.595904396641004 13.06336451509253
v 29.0278464897072 -45.388454913532314 11.985451268818224
v 29.62598067433146 -45.388454913532314 11.006648110556966
v 29.62598067433146 -61.595904396641004 11.006648110556966
v 29.0278464897072 -61.595904396641004 11.985451268818224
v 29.62598067433146 -45.388454913532314 11.006648110556966
v 30.8599392443935 -45.388454913532314 10.864014940975153
v 30.8599392443935 -61.595904396641004 10.864014232499414
v 29.62598067433146 -61.595904396641004 11.006648110556966
v 30.8599392443935 -45.388454913532314 10.864014940975153
v 31.68110442540683 -45.388454913532314 11.664956682032425
v 31.68110442540683 -61.595904396641004 11.664956682032425
v 30.8599392443935 -61.595904396641004 10.864014232499414
v 30.8599392443935 -45.388454913532314 10.864014940975153
v 29.62598067433146 -45.388454913532314 11.006648110556966
v 29.0278464897072 -45.388454913532314 11.985451268818224
v 29.420174848573026 -45.388454913532314 13.06336451509253
v 30.603303826774948 -45.388454913532314 13.428698531369264
v 31.56689105160001 -45.388454913532314 12.806347937526652
v 31.68110442540683 -45.388454913532314 11.664956682032425
v 31.68110442540683 -61.595904396641004 11.664956682032425
v 31.56689105160001 -61.595904396641004 12.806347937526652
v 30.603303826774948 -61.595904396641004 13.428698531369264
v 29.420174848573026 -61.595904396641004 13.06336451509253
v 29.0278464897072 -61.595904396641004 11.985451268818224
v 29.62598067433146 -61.595904396641004 11.006648110556966
v 30.8599392443935 -61.595904396641004 10.864014232499414
v 32.56890670895814 -48.68253730219433 11.30635885307754
v 32.56890670895814 -48.568323574149645 12.447750108571768
v 14.980483563762846 -48.568322865673906 12.447750108571768
v 14.980483563762846 -48.682536593718595 11.30635885307754
v 32.56890670895814 -48.568323574149645 12.447750108571768
v 32.56890670895814 -47.60473634932458 13.07010070241438
v 14.980483563762846 -47.604735640848844 13.07010070241438
v 14.980483563762846 -48.568322865673906 12.447750108571768
v 32.56890670895814 -47.60473634932458 13.07010070241438
v 32.56890670895814 -46.42160737112266 12.704766686137646
v 14.980483563762846 -46.42160666264692 12.704766686137646
v 14.980483563762846 -47.604735640848844 13.07010070241438
v 32.56890670895814 -46.42160737112266 12.704766686137646
v 32.56890670895814 -46.029279012256836 11.62685343986334
v 14.980483563762846 -46.0292783037811 11.62685343986334
v 14.980483563762846 -46.42160666264692 12.704766686137646
v 32.56890670895814 -46.029279012256836 11.62685343986334
v 32.56890670895814 -46.62741319688109 10.648050281602082
v 14.980483563762846 -46.627412488405355 10.648050281602082
v 14.980483563762846 -46.0292783037811 11.62685343986334
v 32.56890670895814 -46.62741319688109 10.648050281602082
v 32.56890670895814 -47.86137176694314 10.505417112020268
v 14.980483563762846 -47.86137070422953 10.50541640354453
v 14.980483563762846 -46.627412488405355 10.648050281602082
v 32.56890670895814 -47.86137176694314 10.505417112020268
v 32.56890670895814 -48.68253730219433 11.30635885307754
v 14.980483563762846 -48.682536593718595 11.30635885307754
v 14.980483563762846 -47.86137070422953 10.50541640354453
v 32.56890670895814 -47.86137176694314 10.505417112020268
v 32.56890670895814 -46.62741319688109 10.648050281602082
v 32.56890670895814 -46.029279012256836 11.62685343986334
v 32.56890670895814 -46.42160737112266 12.704766686137646
v 32.56890670895814 -47.60473634932458 13.07010070241438
v 32.56890670895814 -48.568323574149645 12.447750108571768
v 32.56890670895814 -48.68253730219433 11.30635885307754
v 14.980483563762846 -48.682536593718595 11.30635885307754
v 14.980483563762846 -48.568322865673906 12.447750108571768
v 14.980483563762846 -47.604735640848844 13.07010070241438
v 14.980483563762846 -46.42160666264692 12.704766686137646
v 14.980483563762846 -46.0292783037811 11.62685343986334
v 14.980483563762846 -46.627412488405355 10.648050281602082
v 14.980483563762846 -47.86137070422953 10.50541640354453
v 18.9583870894823 -45.388454913532314 11.843535076683793
v 18.84417371567548 -45.388454913532314 12.98492633217802
v 18.84417371567548 -61.595904396641004 12.98492633217802
v 18.9583870894823 -61.595904396641004 11.843535076683793
v 18.84417371567548 -45.388454913532314 12.98492633217802
v 17.88058649085042 -45.388454913532314 13.607276926020631
v 17.88058649085042 -61.595904396641004 13.607276926020631
v 18.84417371567548 -61.595904396641004 12.98492633217802
v 17.88058649085042 -45.388454913532314 13.607276926020631
v 16.793226429078686 -45.388454913532314 13.241942909743898
v 16.793226429078686 -61.595904396641004 13.241942909743898
v 17.88058649085042 -61.595904396641004 13.607276926020631
v 16.793226429078686 -45.388454913532314 13.241942909743898
v 16.40089807021286 -45.388454913532314 12.164029663469591
v 16.40089807021286 -61.595904396641004 12.164029663469591
v 16.793226429078686 -61.595904396641004 13.241942909743898
v 16.40089807021286 -45.388454913532314 12.164029663469591
v 16.999032254837118 -45.388454913532314 11.185226505208334
v 16.999032254837118 -61.595904396641004 11.185226505208334
v 16.40089807021286 -61.595904396641004 12.164029663469591
v 16.999032254837118 -45.388454913532314 11.185226505208334
v 18.137221554231104 -45.388454913532314 11.04259333562652
v 18.137221554231104 -61.595904396641004 11.042592627150782
v 16.999032254837118 -61.595904396641004 11.185226505208334
v 18.137221554231104 -45.388454913532314 11.04259333562652
v 18.9583870894823 -45.388454913532314 11.843535076683793
v 18.9583870894823 -61.595904396641004 11.843535076683793
v 18.137221554231104 -61.595904396641004 11.042592627150782
v 18.137221554231104 -45.388454913532314 11.04259333562652
v 16.999032254837118 -45.388454913532314 11.185226505208334
v 16.40089807021286 -45.388454913532314 12.164029663469591
v 16.793226429078686 -45.388454913532314 13.241942909743898
v 17.88058649085042 -45.388454913532314 13.607276926020631
v 18.84417371567548 -45.388454913532314 12.98492633217802
v 18.9583870894823 -45.388454913532314 11.843535076683793
v 18.9583870894823 -61.595904396641004 11.843535076683793
v 18.84417371567548 -61.595904396641004 12.98492633217802
v 17.88058649085042 -61.595904396641004 13.607276926020631
v 16.793226429078686 -61.595904396641004 13.241942909743898
v 16.40089807021286 -61.595904396641004 12.164029663469591
v 16.999032254837118 -61.595904396641004 11.185226505208334
v 18.137221554231104 -61.595904396641004 11.042592627150782
v 32.56890670895814 -61.09364044047754 11.30635885307754
v 32.56890670895814 -60.97942706667072 12.447750108571768
v 14.980483563762846 -60.979426358194985 12.447750108571768
v 14.980483563762846 -61.093639732001805 11.30635885307754
v 32.56890670895814 -60.97942706667072 12.447750108571768
v 32.56890670895814 -60.01583984184566 13.07010070241438
v 14.980483563762846 -60.01583913336992 13.07010070241438
v 14.980483563762846 -60.979426358194985 12.447750108571768
v 32.56890670895814 -60.01583984184566 13.07010070241438
v 32.56890670895814 -58.83271086364374 12.704766686137646
v 14.980483563762846 -58.832710155168 12.704766686137646
v 14.980483563762846 -60.01583913336992 13.07010070241438
v 32.56890670895814 -58.83271086364374 12.704766686137646
v 32.56890670895814 -58.440382150540046 11.62685343986334
v 14.980483563762846 -58.44038179630218 11.62685343986334
v 14.980483563762846 -58.832710155168 12.704766686137646
v 32.56890670895814 -58.440382150540046 11.62685343986334
v 32.56890670895814 -59.03851668940217 10.648050281602082
v 14.980483563762846 -59.038515980926434 10.648050281602082
v 14.980483563762846 -58.44038179630218 11.62685343986334
v 32.56890670895814 -59.03851668940217 10.648050281602082
v 32.56890670895814 -60.272475259464215 10.505417112020268
v 14.980483563762846 -60.27247455098848 10.50541640354453
v 14.980483563762846 -59.038515980926434 10.648050281602082
v 32.56890670895814 -60.272475259464215 10.505417112020268
v 32.56890670895814 -61.09364044047754 11.30635885307754
v 14.980483563762846 -61.093639732001805 11.30635885307754
v 14.980483563762846 -60.27247455098848 10.50541640354453
v 32.56890670895814 -60.272475259464215 10.505417112020268
v 32.56890670895814 -59.03851668940217 10.648050281602082
v 32.56890670895814 -58.440382150540046 11.62685343986334
v 32.56890670895814 -58.83271086364374 12.704766686137646
v 32.56890670895814 -60.01583984184566 13.07010070241438
v 32.56890670895814 -60.97942706667072 12.447750108571768
v 32.56890670895814 -61.09364044047754 11.30635885307754
v 14.980483563762846 -61.093639732001805 11.30635885307754
v 14.980483563762846 -60.979426358194985 12.447750108571768
v 14.980483563762846 -60.01583913336992 13.07010070241438
v 14.980483563762846 -58.832710155168 12.704766686137646
v 14.980483563762846 -58.44038179630218 11.62685343986334
v 14.980483563762846 -59.038515980926434 10.648050281602082
v 14.980483563762846 -60.27247455098848 10.50541640354453
v 25.578495620904732 -47.49638277835106 19.88275664462458
v 25.464282247097913 -47.4963834868268 21.024147900118805
v 25.464282247097913 -60.04130245988807 21.024147900118805
v 25.578495620904732 -60.041301751412334 19.88275664462458
v 25.464282247097913 -47.4963834868268 21.024147900118805
v 24.50069502227285 -47.4963834868268 21.646498493961417
v 24.50069502227285 -60.04130245988807 21.646498493961417
v 25.464282247097913 -60.04130245988807 21.024147900118805
v 24.50069502227285 -47.4963834868268 21.646498493961417
v 23.413334960501118 -47.4963834868268 21.281164477684683
v 23.413334960501118 -60.04130245988807 21.281164477684683
v 24.50069502227285 -60.04130245988807 21.646498493961417
v 23.413334960501118 -47.4963834868268 21.281164477684683
v 23.021006601635293 -47.49638277835106 20.203251231410377
v 23.021006601635293 -60.041301751412334 20.203251231410377
v 23.413334960501118 -60.04130245988807 21.281164477684683
v 23.021006601635293 -47.49638277835106 20.203251231410377
v 23.61914078625955 -47.49638277835106 19.224446656197642
v 23.61914078625955 -60.041301751412334 19.22444807314912
v 23.021006601635293 -60.041301751412334 20.203251231410377
v 23.61914078625955 -47.49638277835106 19.224446656197642
v 24.757330085653535 -47.49638277835106 19.08181348661583
v 24.757330085653535 -60.041301751412334 19.08181348661583
v 23.61914078625955 -60.041301751412334 19.22444807314912
v 24.757330085653535 -47.49638277835106 19.08181348661583
v 25.578495620904732 -47.49638277835106 19.88275664462458
v 25.578495620904732 -60.041301751412334 19.88275664462458
v 24.757330085653535 -60.041301751412334 19.08181348661583
v 24.757330085653535 -47.49638277835106 19.08181348661583
v 23.61914078625955 -47.49638277835106 19.224446656197642
v 23.021006601635293 -47.49638277835106 20.203251231410377
v 23.413334960501118 -47.4963834868268 21.281164477684683
v 24.50069502227285 -47.4963834868268 21.646498493961417
v 25.464282247097913 -47.4963834868268 21.024147900118805
v 25.578495620904732 -47.49638277835106 19.88275664462458
v 25.578495620904732 -60.041301751412334 19.88275664462458
v 25.464282247097913 -60.04130245988807 21.024147900118805
v 24.50069502227285 -60.04130245988807 21.646498493961417
v 23.413334960501118 -60.04130245988807 21.281164477684683
v 23.021006601635293 -60.041301751412334 20.203251231410377
v 23.61914078625955 -60.041301751412334 19.22444807314912
v 24.757330085653535 -60.041301751412334 19.08181348661583
v 23.092199911647697 -46.04751234386339 22.81056805784567
v 25.424570056526647 -46.04751234386339 22.81056805784567
v 25.424570056526647 -45.17287353953378 22.81056805784567
v 23.092199911647697 -45.17287353953378 22.81056805784567
v 23.092199911647697 -46.04751163538765 0.0
v 25.424570056526647 -46.04751163538765 0.0
v 25.424570056526647 -46.04751234386339 22.81056805784567
v 23.092199911647697 -46.04751234386339 22.81056805784567
v 25.424570056526647 -46.04751163538765 0.0
v 25.424570056526647 -45.172872831058044 0.0
v 25.424570056526647 -45.17287353953378 22.81056805784567
v 25.424570056526647 -46.04751234386339 22.81056805784567
v 25.424570056526647 -45.172872831058044 0.0
v 23.092199911647697 -45.172872831058044 0.0
v 23.092199911647697 -45.17287353953378 22.81056805784567
v 25.424570056526647 -45.17287353953378 22.81056805784567
v 23.092199911647697 -45.172872831058044 0.0
v 23.092199911647697 -46.04751163538765 0.0
v 23.092199911647697 -46.04751234386339 22.81056805784567
v 23.092199911647697 -45.17287353953378 22.81056805784567
v 24.03656204953161 -45.87764182451417 20.38352146612533
v 24.218474553148322 -45.87764182451417 20.201608984648487
v 24.21847450886859 -47.8008785660096 20.201608984648487
v 24.03656200525188 -47.8008785660096 20.38352146612533
v 24.218474553148322 -45.87764182451417 20.201608984648487
v 24.40948361956923 -45.87764182451417 20.392618294607928
v 24.409483575289492 -47.8008785660096 20.392618294607928
v 24.21847450886859 -47.8008785660096 20.201608984648487
v 24.40948361956923 -45.87764182451417 20.392618294607928
v 24.227571104882585 -45.87764182451417 20.57453077608477
v 24.227571071672784 -47.8008785660096 20.57453077608477
v 24.409483575289492 -47.8008785660096 20.392618294607928
v 24.227571104882585 -45.87764182451417 20.57453077608477
v 24.03656204953161 -45.87764182451417 20.38352146612533
v 24.03656200525188 -47.8008785660096 20.38352146612533
v 24.227571071672784 -47.8008785660096 20.57453077608477
v 24.03656204953161 -59.74128069651829 20.38352146612533
v 24.218474553148322 -59.74128069651829 20.201608984648487
v 24.218474453518922 -62.73217266406999 20.219078579408915
v 24.036561960972143 -62.80905220035976 20.383946551568442
v 24.218474553148322 -59.74128069651829 20.201608984648487
v 24.40948361956923 -59.74128069651829 20.392618294607928
v 24.409483531009762 -62.812897806668445 20.392190375261862
v 24.218474453518922 -62.73217266406999 20.219078579408915
v 24.40948361956923 -59.74128069651829 20.392618294607928
v 24.227571104882585 -59.74128069651829 20.57453077608477
v 24.227571016323118 -62.889775926006735 20.55705834742139
v 24.409483531009762 -62.812897806668445 20.392190375261862
v 24.227571104882585 -59.74128069651829 20.57453077608477
v 24.03656204953161 -59.74128069651829 20.38352146612533
v 24.036561960972143 -62.80905220035976 20.383946551568442
v 24.227571016323118 -62.889775926006735 20.55705834742139
v 23.092199911647697 -62.03266339449664 22.81056805784567
v 25.424570056526647 -62.03266339449664 22.81056805784567
v 25.424570056526647 -61.15802459016703 22.81056805784567
v 23.092199911647697 -61.15802459016703 22.81056805784567
v 23.092199911647697 -62.0326626860209 0.0
v 25.424570056526647 -62.0326626860209 0.0
v 25.424570056526647 -62.03266339449664 22.81056805784567
v 23.092199911647697 -62.03266339449664 22.81056805784567
v 25.424570056526647 -62.0326626860209 0.0
v 25.424570056526647 -61.15802388169129 0.0
v 25.424570056526647 -61.15802459016703 22.81056805784567
v 25.424570056526647 -62.03266339449664 22.81056805784567
v 25.424570056526647 -61.15802388169129 0.0
v 23.092199911647697 -61.15802388169129 0.0
v 23.092199911647697 -61.15802459016703 22.81056805784567
v 25.424570056526647 -61.15802459016703 22.81056805784567
v 23.092199911647697 -61.15802388169129 0.0
v 23.092199911647697 -62.0326626860209 0.0
v 23.092199911647697 -62.03266339449664 22.81056805784567
v 23.092199911647697 -61.15802459016703 22.81056805784567
v 24.036561960972143 -62.80905220035976 20.383946551568442
v 24.218474453518922 -62.73217266406999 20.219078579408915
v 24.21847440923919 -63.83423501436749 16.16025649721439
v 24.036561905622477 -63.91111455065726 16.325124469373918
v 24.218474453518922 -62.73217266406999 20.219078579408915
v 24.409483531009762 -62.812897806668445 20.392190375261862
v 24.409483508869894 -63.91496015696595 16.333368293067338
v 24.21847440923919 -63.83423501436749 16.16025649721439
v 24.409483531009762 -62.812897806668445 20.392190375261862
v 24.227571016323118 -62.889775926006735 20.55705834742139
v 24.227570972043385 -63.991838276304236 16.498236265226865
v 24.409483508869894 -63.91496015696595 16.333368293067338
v 24.227571016323118 -62.889775926006735 20.55705834742139
v 24.036561960972143 -62.80905220035976 20.383946551568442
v 24.036561905622477 -63.91111455065726 16.325124469373918
v 24.227570972043385 -63.991838276304236 16.498236265226865
v 24.036561905622477 -63.91111455065726 16.325124469373918
v 24.21847440923919 -63.83423501436749 16.16025649721439
v 24.21847425426012 -67.18751657302664 16.16025649721439
v 24.03656175064341 -67.26439469236493 16.325124469373918
v 24.21847440923919 -63.83423501436749 16.16025649721439
v 24.409483508869894 -63.91496015696595 16.333368293067338
v 24.40948333175096 -67.26824029867362 16.333368293067338
v 24.21847425426012 -67.18751657302664 16.16025649721439
v 24.409483508869894 -63.91496015696595 16.333368293067338
v 24.227570972043385 -63.991838276304236 16.498236265226865
v 24.227570817064315 -67.34511841801191 16.498236265226865
v 24.40948333175096 -67.26824029867362 16.333368293067338
v 24.227570972043385 -63.991838276304236 16.498236265226865
v 24.036561905622477 -63.91111455065726 16.325124469373918
v 24.03656175064341 -67.26439469236493 16.325124469373918
v 24.227570817064315 -67.34511841801191 16.498236265226865
v 24.21847425426012 -67.18751657302664 16.16025649721439
v 24.40948333175096 -67.26824029867362 16.333368293067338
v 24.227570817064315 -67.34511841801191 16.498236265226865
v 24.03656175064341 -67.26439469236493 16.325124469373918
v 28.34786316572533 -60.00081236295591 13.069086165156818
v 27.815961898230228 -58.8963082510256 13.069086165156818
v 28.156836498110295 -58.46886535489364 16.689346178741175
v 28.894583266005185 -60.00081236295591 16.689346178741175
v 27.815961898230228 -58.8963082510256 13.069086165156818
v 26.62079095790068 -58.62351852385518 13.069086165156818
v 26.49913433798497 -58.09050565792634 16.689346178741175
v 28.156836498110295 -58.46886535489364 16.689346178741175
v 26.62079095790068 -58.62351852385518 13.069086165156818
v 25.66233823387161 -59.38785899130903 13.069086165156818
v 25.16976038088626 -59.150646081824135 16.689346178741175
v 26.49913433798497 -58.09050565792634 16.689346178741175
v 25.66233823387161 -59.38785899130903 13.069086165156818
v 25.662338410990543 -60.613765734602794 13.069086165156818
v 25.169760558005194 -60.85097899832556 16.689346178741175
v 25.16976038088626 -59.150646081824135 16.689346178741175
v 25.662338410990543 -60.613765734602794 13.069086165156818
v 26.62079095790068 -61.37810620205664 13.069086165156818
v 26.499134160866035 -61.91111942222335 16.689346178741175
v 25.169760558005194 -60.85097899832556 16.689346178741175
v 26.62079095790068 -61.37810620205664 13.069086165156818
v 27.815961898230228 -61.10531682912409 13.069086165156818
v 28.156836498110295 -61.53275937101819 16.689346178741175
v 26.499134160866035 -61.91111942222335 16.689346178741175
v 27.815961898230228 -61.10531682912409 13.069086165156818
v 28.34786316572533 -60.00081236295591 13.069086165156818
v 28.894583266005185 -60.00081236295591 16.689346178741175
v 28.156836498110295 -61.53275937101819 16.689346178741175
v 25.66233823387161 -59.38785899130903 13.069086165156818
v 26.62079095790068 -58.62351852385518 13.069086165156818
v 27.815961898230228 -58.8963082510256 13.069086165156818
v 28.34786316572533 -60.00081236295591 13.069086165156818
v 27.815961898230228 -61.10531682912409 13.069086165156818
v 26.62079095790068 -61.37810620205664 13.069086165156818
v 25.662338410990543 -60.613765734602794 13.069086165156818
v 28.017021290778445 -58.644187949288636 16.723211319042434
v 27.711870163061775 -59.02683534142545 13.222581684761622
v 28.180912629132422 -60.00081236295591 13.222581684761622
v 28.670336879486683 -60.00081236295591 16.723211319042434
v 26.54903387831935 -58.30912958098395 16.723211319042434
v 26.65794094596359 -58.78628303154704 13.222581684761622
v 27.711870163061775 -59.02683534142545 13.222581684761622
v 28.017021290778445 -58.644187949288636 16.723211319042434
v 25.37179924114298 -59.24794282618444 16.723211319042434
v 25.812755603511476 -59.46029603048041 13.222581684761622
v 26.65794094596359 -58.78628303154704 13.222581684761622
v 26.54903387831935 -58.30912958098395 16.723211319042434
v 25.371799418261915 -60.75368260820312 16.723211319042434
v 25.812755603511476 -60.54132904966929 13.222581684761622
v 25.812755603511476 -59.46029603048041 13.222581684761622
v 25.37179924114298 -59.24794282618444 16.723211319042434
v 26.549033701200415 -61.692495144927875 16.723211319042434
v 26.65794094596359 -61.21534169436478 13.222581684761622
v 25.812755603511476 -60.54132904966929 13.222581684761622
v 25.371799418261915 -60.75368260820312 16.723211319042434
v 28.017020936540575 -61.35743713086106 16.723211319042434
v 27.711869808823906 -60.97478938448637 13.222581684761622
v 26.65794094596359 -61.21534169436478 13.222581684761622
v 26.549033701200415 -61.692495144927875 16.723211319042434
v 28.670336879486683 -60.00081236295591 16.723211319042434
v 28.180912629132422 -60.00081236295591 13.222581684761622
v 27.711869808823906 -60.97478938448637 13.222581684761622
v 28.017020936540575 -61.35743713086106 16.723211319042434
v 27.711870163061775 -59.02683534142545 13.222581684761622
v 26.65794094596359 -58.78628303154704 13.222581684761622
v 25.812755603511476 -59.46029603048041 13.222581684761622
v 25.812755603511476 -60.54132904966929 13.222581684761622
v 26.65794094596359 -61.21534169436478 13.222581684761622
v 27.711869808823906 -60.97478938448637 13.222581684761622
v 28.180912629132422 -60.00081236295591 13.222581684761622
v 28.894583266005185 -60.00081236295591 16.689346178741175
v 28.156836498110295 -58.46886535489364 16.689346178741175
v 28.017021290778445 -58.644187949288636 16.723211319042434
v 28.670336879486683 -60.00081236295591 16.723211319042434
v 28.156836498110295 -58.46886535489364 16.689346178741175
v 26.49913433798497 -58.09050565792634 16.689346178741175
v 26.54903387831935 -58.30912958098395 16.723211319042434
v 28.017021290778445 -58.644187949288636 16.723211319042434
v 26.49913433798497 -58.09050565792634 16.689346178741175
v 25.16976038088626 -59.150646081824135 16.689346178741175
v 25.37179924114298 -59.24794282618444 16.723211319042434
v 26.54903387831935 -58.30912958098395 16.723211319042434
v 25.16976038088626 -59.150646081824135 16.689346178741175
v 25.169760558005194 -60.85097899832556 16.689346178741175
v 25.371799418261915 -60.75368260820312 16.723211319042434
v 25.37179924114298 -59.24794282618444 16.723211319042434
v 25.169760558005194 -60.85097899832556 16.689346178741175
v 26.499134160866035 -61.91111942222335 16.689346178741175
v 26.549033701200415 -61.692495144927875 16.723211319042434
v 25.371799418261915 -60.75368260820312 16.723211319042434
v 26.499134160866035 -61.91111942222335 16.689346178741175
v 28.156836498110295 -61.53275937101819 16.689346178741175
v 28.017020936540575 -61.35743713086106 16.723211319042434
v 26.549033701200415 -61.692495144927875 16.723211319042434
v 28.156836498110295 -61.53275937101819 16.689346178741175
v 28.894583266005185 -60.00081236295591 16.689346178741175
v 28.670336879486683 -60.00081236295591 16.723211319042434
v 28.017020936540575 -61.35743713086106 16.723211319042434
v 30.683217764652795 -62.058037453071734 2.6489617388212423
v 29.777747867372142 -61.41883080445825 2.1251416998375703
v 27.196650665305867 -63.82987930552707 3.089488764892195
v 28.452536913712976 -64.7164587599537 3.816027446603698
v 29.777747867372142 -61.41883080445825 2.1251416998375703
v 29.435375549780844 -61.40246926575287 0.9481278414132177
v 26.72177974645335 -63.8071854106708 1.4569711460819121
v 27.196650665305867 -63.82987930552707 3.089488764892195
v 29.435375549780844 -61.40246926575287 0.9481278414132177
v 29.913912653461267 -62.02127323004845 0.004236242119013411
v 27.385511168350376 -64.66546621867371 0.14779326406385707
v 26.72177974645335 -63.8071854106708 1.4569711460819121
v 29.913912653461267 -62.02127323004845 0.004236242119013411
v 30.85301247709799 -62.80927111936296 0.004236330678480726
v 28.68804133395443 -65.75841898792532 0.1477934411827917
v 27.385511168350376 -64.66546621867371 0.14779326406385707
v 30.85301247709799 -62.80927111936296 0.004236330678480726
v 31.545512087714428 -63.17308474670483 0.9481277528537504
v 29.648539250321676 -66.26302799878329 1.4569709689629775
v 28.68804133395443 -65.75841898792532 0.1477934411827917
v 31.545512087714428 -63.17308474670483 0.9481277528537504
v 31.469946773919617 -62.838754337221474 2.1251415227186357
v 29.54373053770584 -65.79931362450418 3.089488764892195
v 29.648539250321676 -66.26302799878329 1.4569709689629775
v 31.469946773919617 -62.838754337221474 2.1251415227186357
v 30.683217764652795 -62.058037453071734 2.6489617388212423
v 28.452536913712976 -64.7164587599537 3.816027446603698
v 29.54373053770584 -65.79931362450418 3.089488764892195
v 29.913912653461267 -62.02127323004845 0.004236242119013411
v 29.435375549780844 -61.40246926575287 0.9481278414132177
v 29.777747867372142 -61.41883080445825 2.1251416998375703
v 30.683217764652795 -62.058037453071734 2.6489617388212423
v 31.469946773919617 -62.838754337221474 2.1251415227186357
v 31.545512087714428 -63.17308474670483 0.9481277528537504
v 30.85301247709799 -62.80927111936296 0.004236330678480726
v 27.293912340117117 -63.986721664520644 2.957678270692014
v 29.768953203792023 -61.63237601918428 2.049285202514227
v 30.56741740519169 -62.19604356760527 2.5112016424879045
v 28.40606976121279 -64.77183676605512 3.6010688227793253
v 26.87338841804754 -63.966624333246045 1.5119931431247267
v 29.467041227151867 -61.61794791076932 1.0113675371065938
v 29.768953203792023 -61.63237601918428 2.049285202514227
v 27.293912340117117 -63.986721664520644 2.957678270692014
v 27.461158665330856 -64.7266813563848 0.3526433560510256
v 29.889026380432142 -62.16362442628633 0.17902243182048494
v 29.467041227151867 -61.61794791076932 1.0113675371065938
v 26.87338841804754 -63.966624333246045 1.5119931431247267
v 28.614621638933727 -65.69455131704922 0.35264362172942754
v 30.717145250819044 -62.85849813910255 0.17902252037995225
v 29.889026380432142 -62.16362442628633 0.17902243182048494
v 27.461158665330856 -64.7266813563848 0.3526433560510256
v 29.465195647853022 -66.14140963655746 1.511992966005792
v 31.32780741192755 -63.17931720777659 1.0113675371065938
v 30.717145250819044 -62.85849813910255 0.17902252037995225
v 28.614621638933727 -65.69455131704922 0.35264362172942754
v 29.3723817837282 -65.73076434594793 2.957678270692014
v 31.261173143292524 -62.88449707327902 2.0492848482763577
v 31.32780741192755 -63.17931720777659 1.0113675371065938
v 29.465195647853022 -66.14140963655746 1.511992966005792
v 28.40606976121279 -64.77183676605512 3.6010688227793253
v 30.56741740519169 -62.19604356760527 2.5112016424879045
v 31.261173143292524 -62.88449707327902 2.0492848482763577
v 29.3723817837282 -65.73076434594793 2.957678270692014
v 29.768953203792023 -61.63237601918428 2.049285202514227
v 29.467041227151867 -61.61794791076932 1.0113675371065938
v 29.889026380432142 -62.16362442628633 0.17902243182048494
v 30.717145250819044 -62.85849813910255 0.17902252037995225
v 31.32780741192755 -63.17931720777659 1.0113675371065938
v 31.261173143292524 -62.88449707327902 2.0492848482763577
v 30.56741740519169 -62.19604356760527 2.5112016424879045
v 28.452536913712976 -64.7164587599537 3.816027446603698
v 27.196650665305867 -63.82987930552707 3.089488764892195
v 27.293912340117117 -63.986721664520644 2.957678270692014
v 28.40606976121279 -64.77183676605512 3.6010688227793253
v 27.196650665305867 -63.82987930552707 3.089488764892195
v 26.72177974645335 -63.8071854106708 1.4569711460819121
v 26.87338841804754 -63.966624333246045 1.5119931431247267
v 27.293912340117117 -63.986721664520644 2.957678270692014
v 26.72177974645335 -63.8071854106708 1.4569711460819121
v 27.385511168350376 -64.66546621867371 0.14779326406385707
v 27.461158665330856 -64.7266813563848 0.3526433560510256
v 26.87338841804754 -63.966624333246045 1.5119931431247267
v 27.385511168350376 -64.66546621867371 0.14779326406385707
v 28.68804133395443 -65.75841898792532 0.1477934411827917
v 28.614621638933727 -65.69455131704922 0.35264362172942754
v 27.461158665330856 -64.7266813563848 0.3526433560510256
v 28.68804133395443 -65.75841898792532 0.1477934411827917
v 29.648539250321676 -66.26302799878329 1.4569709689629775
v 29.465195647853022 -66.14140963655746 1.511992966005792
v 28.614621638933727 -65.69455131704922 0.35264362172942754
v 29.648539250321676 -66.26302799878329 1.4569709689629775
v 29.54373053770584 -65.79931362450418 3.089488764892195
v 29.3723817837282 -65.73076434594793 2.957678270692014
v 29.465195647853022 -66.14140963655746 1.511992966005792
v 29.54373053770584 -65.79931362450418 3.089488764892195
v 28.452536913712976 -64.7164587599537 3.816027446603698
v 28.40606976121279 -64.77183676605512 3.6010688227793253
v 29.3723817837282 -65.73076434594793 2.957678270692014
f 1 2 3
f 1 3 4
f 5 6 7
f 5 7 8
f 9 10 11
f 9 11 12
f 13 14 15
f 13 15 16
f 17 18 19
f 17 19 20
f 21 22 23
f 21 23 24
f 25 26 27
f 25 27 28
f 29 30 31
f 29 31 32
f 33 34 35
f 33 35 36
f 37 38 39
f 37 39 40
f 41 42 43
f 41 43 44
f 45 46 47
f 45 47 48
f 49 50 51
f 49 51 52
f 53 54 55
f 53 55 56
f 57 58 59
f 57 59 60
f 61 62 63
f 61 63 64
f 65 66 67
f 65 67 68
f 69 70 71
f 69 71 72
f 73 74 75
f 73 75 76
f 77 78 79
f 77 79 80
f 87 81 82
f 87 82 83
f 87 83 84
f 87 84 85
f 85 86 87
f 94 88 89
f 94 89 90
f 94 90 91
f 94 91 92
f 92 93 94
f 95 96 97
f 95 97 98
f 99 100 101
f 99 101 102
f 103 104 105
f 103 105 106
f 107 108 109
f 107 109 110
f 111 112 113
f 111 113 114
f 115 116 117
f 115 117 118
f 119 120 121
f 119 121 122
f 129 123 124
f 129 124 125
f 129 125 126
f 129 126 127
f 127 128 129
f 136 130 131
f 136 131 132
f 136 132 133
f 136 133 134
f 134 135 136
f 137 138 139
f 137 139 140
f 141 142 143
f 141 143 144
f 145 146 147
f 145 147 148
f 149 150 151
f 149 151 152
f 153 154 155
f 153 155 156
f 157 158 159
f 157 159 160
f 161 162 163
f 161 163 164
f 171 165 166
f 171 166 167
f 171 167 168
f 171 168 169
f 169 170 171
f 178 172 173
f 178 173 174
f 178 174 175
f 178 175 176
f 176 177 178
f 179 180 181
f 179 181 182
f 183 184 185
f 183 185 186
f 187 188 189
f 187 189 190
f 191 192 193
f 191 193 194
f 195 196 197
f 195 197 198
f 199 200 201
f 199 201 202
f 203 204 205
f 203 205 206
f 213 207 208
f 213 208 209
f 213 209 210
f 213 210 211
f 211 212 213
f 220 214 215
f 220 215 216
f 220 216 217
f 220 217 218
f 218 219 220
f 221 222 223
f 221 223 224
f 225 226 227
f 225 227 228
f 229 230 231
f 229 231 232
f 233 234 235
f 233 235 236
f 237 238 239
f 237 239 240
f 241 242 243
f 241 243 244
f 245 246 247
f 245 247 248
f 255 249 250
f 255 250 251
f 255 251 252
f 255 252 253
f 253 254 255
f 262 256 257
f 262 257 258
f 262 258 259
f 262 259 260
f 260 261 262
f 263 264 265
f 263 265 266
f 267 268 269
f 267 269 270
f 271 272 273
f 271 273 274
f 275 276 277
f 275 277 278
f 279 280 281
f 279 281 282
f 283 284 285
f 283 285 286
f 287 288 289
f 287 289 290
f 291 292 293
f 291 293 294
f 295 296 297
f 295 297 298
f 299 300 301
f 299 301 302
f 303 304 305
f 303 305 306
f 307 308 309
f 307 309 310
f 311 312 313
f 311 313 314
f 315 316 317
f 315 317 318
f 319 320 321
f 319 321 322
f 323 324 325
f 323 325 326
f 327 328 329
f 327 329 330
f 331 332 333
f 331 333 334
f 335 336 337
f 335 337 338
f 339 340 341
f 339 341 342
f 343 344 345
f 343 345 346
f 347 348 349
f 347 349 350
f 351 352 353
f 351 353 354
f 355 356 357
f 355 357 358
f 359 360 361
f 359 361 362
f 363 364 365
f 363 365 366
f 367 368 369
f 367 369 370
f 371 372 373
f 371 373 374
f 375 376 377
f 375 377 378
f 379 380 381
f 379 381 382
f 383 384 385
f 383 385 386
f 387 388 389
f 387 389 390
f 391 392 393
f 391 393 394
f 395 396 397
f 395 397 398
f 405 399 400
f 405 400 401
f 405 401 402
f 405 402 403
f 403 404 405
f 406 407 408
f 406 408 409
f 410 411 412
f 410 412 413
f 414 415 416
f 414 416 417
f 418 419 420
f 418 420 421
f 422 423 424
f 422 424 425
f 426 427 428
f 426 428 429
f 430 431 432
f 430 432 433
f 440 434 435
f 440 435 436
f 440 436 437
f 440 437 438
f 438 439 440
f 441 442 443
f 441 443 444
f 445 446 447
f 445 447 448
f 449 450 451
f 449 451 452
f 453 454 455
f 453 455 456
f 457 458 459
f 457 459 460
f 461 462 463
f 461 463 464
f 465 466 467
f 465 467 468
f 469 470 471
f 469 471 472
f 473 474 475
f 473 475 476
f 477 478 479
f 477 479 480
f 481 482 483
f 481 483 484
f 485 486 487
f 485 487 488
f 489 490 491
f 489 491 492
f 493 494 495
f 493 495 496
f 503 497 498
f 503 498 499
f 503 499 500
f 503 500 501
f 501 502 503
f 504 505 506
f 504 506 507
f 508 509 510
f 508 510 511
f 512 513 514
f 512 514 515
f 516 517 518
f 516 518 519
f 520 521 522
f 520 522 523
f 524 525 526
f 524 526 527
f 528 529 530
f 528 530 531
f 538 532 533
f 538 533 534
f 538 534 535
f 538 535 536
f 536 537 538
f 539 540 541
f 539 541 542
f 543 544 545
f 543 545 546
f 547 548 549
f 547 549 550
f 551 552 553
f 551 553 554
f 555 556 557
f 555 557 558
f 559 560 561
f 559 561 562
f 563 564 565
f 563 565 566
