o convex_0
v 17.923867 21.530784 19.221733
v -10.797988 17.729917 12.462872
v -10.797988 21.953544 12.462872
v 21.732219 16.885390 13.308391
v -10.797988 17.729917 18.798974
v 21.732219 16.885390 19.221733
v 21.732219 21.108521 13.308391
v -10.797988 21.953544 18.798974
v 16.656539 21.530784 12.886293
v 0.190828 17.307653 19.221733
v 2.725484 21.953544 19.221733
v 21.732219 21.108521 19.221733
v 15.392395 16.885390 12.886293
v 2.725484 21.953544 12.886293
v -5.722308 17.729917 12.462872
v 15.392395 16.885390 19.221733
v 0.190828 17.307653 12.886293
v -5.722308 21.953544 12.462872
v -0.235861 21.953544 19.221733
v 17.923867 21.530784 13.308391
v 16.656539 16.885390 12.886293
v -0.235861 17.729917 19.221733
f 10 19 22 
f 3 2 5 
f 6 4 7 
f 3 5 8 
f 7 4 9 
f 6 1 10 
f 3 8 11 
f 10 1 11 
f 1 6 12 
f 7 1 12 
f 6 7 12 
f 4 6 13 
f 3 11 14 
f 11 1 14 
f 2 3 15 
f 13 2 15 
f 6 10 16 
f 13 6 16 
f 10 13 16 
f 5 2 17 
f 10 5 17 
f 2 13 17 
f 13 10 17 
f 14 9 18 
f 3 14 18 
f 15 3 18 
f 9 15 18 
f 8 5 19 
f 11 8 19 
f 10 11 19 
f 1 7 20 
f 7 9 20 
f 14 1 20 
f 9 14 20 
f 9 4 21 
f 4 13 21 
f 15 9 21 
f 13 15 21 
f 5 10 22 
f 19 5 22 
o convex_1
v 21.732219 22.376510 35.276264
v -10.797988 18.151808 28.939210
v -10.797988 18.151808 34.852594
v 21.732219 18.151808 29.362880
v -10.797988 22.376510 28.939210
v 21.732219 22.376510 29.362880
v -10.797988 22.376510 34.852594
v 21.732219 18.151808 35.276264
v 16.236219 18.151808 28.939210
v -3.614340 22.376510 35.276264
v 16.236219 22.376510 28.939210
v -3.614340 18.151808 35.276264
f 30 32 34 
f 25 24 26 
f 24 25 27 
f 23 26 28 
f 27 23 28 
f 23 27 29 
f 27 25 29 
f 25 26 30 
f 26 23 30 
f 26 24 31 
f 24 27 31 
f 28 26 31 
f 23 29 32 
f 29 25 32 
f 30 23 32 
f 27 28 33 
f 31 27 33 
f 28 31 33 
f 25 30 34 
f 32 25 34 
o convex_2
v 24.270679 21.108521 19.644162
v 48.766675 17.729917 12.463575
v 48.766675 21.953544 12.463575
v 51.305135 17.729917 18.799222
v 21.738008 16.885390 13.308515
v 22.157708 16.885390 19.644162
v 21.738008 21.108521 13.308515
v 51.305135 21.953544 18.799222
v 51.305135 17.729917 12.463575
v 41.162872 21.953544 19.221692
v 30.184105 16.885390 12.886045
v 43.698438 17.307653 19.221692
v 21.738008 21.108521 19.221692
v 28.919216 21.530784 12.886045
v 51.305135 21.953544 12.463575
v 27.651434 21.530784 19.221692
v 41.162872 21.953544 12.886045
v 30.184105 16.885390 19.221692
v 43.698438 17.307653 12.886045
v 44.118138 21.953544 19.221692
v 21.738008 16.885390 19.221692
v 27.651434 21.530784 13.308515
v 28.919216 16.885390 12.886045
v 24.270679 16.885390 19.644162
v 22.157708 21.108521 19.644162
v 44.118138 17.729917 19.221692
f 54 58 60 
f 42 38 43 
f 36 37 43 
f 42 37 44 
f 40 39 45 
f 36 43 45 
f 43 38 46 
f 41 39 47 
f 37 36 48 
f 39 41 48 
f 37 42 49 
f 42 43 49 
f 43 37 49 
f 41 47 50 
f 44 37 51 
f 37 48 51 
f 50 44 51 
f 40 45 52 
f 45 46 52 
f 45 43 53 
f 43 46 53 
f 46 45 53 
f 38 42 54 
f 44 35 54 
f 42 44 54 
f 39 40 55 
f 40 47 55 
f 47 39 55 
f 48 41 56 
f 41 50 56 
f 51 48 56 
f 50 51 56 
f 36 45 57 
f 45 39 57 
f 48 36 57 
f 39 48 57 
f 35 40 58 
f 40 52 58 
f 52 46 58 
f 54 35 58 
f 40 35 59 
f 35 44 59 
f 47 40 59 
f 44 50 59 
f 50 47 59 
f 46 38 60 
f 38 54 60 
f 58 46 60 
o convex_3
v 51.304886 22.376097 36.121204
v 21.740944 18.151808 29.361681
v 21.740944 18.151808 35.274940
v 21.740944 22.376510 29.361681
v 51.304886 18.151808 29.785143
v 51.727605 22.376097 29.784482
v 51.304886 18.151808 36.120542
v 23.425951 22.376510 35.697741
v 43.273216 18.151808 29.361681
v 23.425951 18.151808 35.697741
v 21.740944 22.376510 35.274940
v 43.273216 22.376510 29.361681
v 51.727605 21.953875 36.121204
v 50.456511 22.376510 36.120542
v 50.456511 18.151808 36.120542
v 51.727605 21.953875 29.784482
v 51.727605 22.376097 36.121204
v 51.304886 22.376510 29.785143
v 51.304886 22.376510 36.120542
v 51.304886 21.953875 36.121204
f 75 73 80 
f 62 63 64 
f 63 62 65 
f 63 65 67 
f 62 64 69 
f 65 62 69 
f 63 67 70 
f 68 63 70 
f 64 63 71 
f 63 68 71 
f 68 64 71 
f 64 68 72 
f 69 64 72 
f 66 69 72 
f 67 65 73 
f 68 70 74 
f 72 68 74 
f 70 67 75 
f 67 73 75 
f 61 74 75 
f 74 70 75 
f 65 69 76 
f 69 66 76 
f 73 65 76 
f 66 73 76 
f 73 66 77 
f 61 73 77 
f 74 61 77 
f 66 72 78 
f 72 74 78 
f 77 66 78 
f 74 77 79 
f 78 74 79 
f 77 78 79 
f 73 61 80 
f 61 75 80 
o convex_4
v -10.797988 17.729710 18.799925
v -18.824923 18.152718 12.463492
v -18.824923 21.953999 12.463492
v -18.824923 18.152718 18.799925
v -10.797988 21.953999 12.463492
v -10.797988 21.953999 18.799925
v -10.797988 17.729710 12.463492
v -18.824923 21.953999 18.799925
v -15.444747 17.729710 18.799925
v -15.444747 17.729710 12.463492
f 89 82 90 
f 83 82 84 
f 82 83 85 
f 85 83 86 
f 84 81 86 
f 81 85 86 
f 85 81 87 
f 82 85 87 
f 83 84 88 
f 86 83 88 
f 84 86 88 
f 84 82 89 
f 81 84 89 
f 87 81 89 
f 87 89 90 
f 82 87 90 
o convex_5
v -10.797988 21.531570 34.853793
v -18.824923 18.151808 28.516740
v -18.824923 21.531570 28.516740
v -10.797988 18.151808 28.516740
v -18.824923 18.151808 34.853793
v -10.797988 18.151808 34.853793
v -10.797988 21.531570 28.516740
v -18.824923 21.531570 34.853793
f 93 95 98 
f 92 93 94 
f 93 92 95 
f 92 94 95 
f 94 91 96 
f 91 95 96 
f 95 94 96 
f 93 91 97 
f 94 93 97 
f 91 94 97 
f 91 93 98 
f 95 91 98 
o convex_6
v 60.599480 18.152470 18.799925
v 51.305135 17.729710 12.463492
v 51.305135 21.531570 12.463492
v 51.305135 17.729710 18.799925
v 51.305135 21.531570 18.799925
v 60.599480 21.531570 12.463492
v 60.599480 18.152470 12.463492
v 60.599480 21.531570 18.799925
v 57.641775 17.729710 18.799925
v 57.641775 17.729710 12.463492
f 107 100 108 
f 101 100 102 
f 102 99 103 
f 101 102 103 
f 101 103 104 
f 100 101 104 
f 104 99 105 
f 100 104 105 
f 103 99 106 
f 104 103 106 
f 99 104 106 
f 102 100 107 
f 99 102 107 
f 105 99 107 
f 105 107 108 
f 100 105 108 
o convex_7
v 60.599480 21.531570 36.121204
v 51.305135 18.151808 29.784151
v 51.305135 21.531570 29.784151
v 60.599480 18.151808 29.784151
v 51.305135 18.151808 36.121204
v 60.599480 18.151808 36.121204
v 60.599480 21.531570 29.784151
v 51.305135 21.531570 36.121204
f 111 113 116 
f 110 111 112 
f 111 110 113 
f 110 112 113 
f 112 109 114 
f 109 113 114 
f 113 112 114 
f 111 109 115 
f 112 111 115 
f 109 112 115 
f 109 111 116 
f 113 109 116 
o convex_8
v 58.064658 21.531570 12.465187
v 60.599480 22.376510 36.121204
v 60.599480 21.531570 36.121204
v 58.064658 22.376510 36.121204
v 60.599480 22.376510 12.465187
v 58.064658 21.531570 36.121204
v 60.599480 21.531570 12.465187
v 58.064658 22.376510 12.465187
f 120 121 124 
f 119 118 120 
f 118 119 121 
f 120 118 121 
f 117 119 122 
f 119 120 122 
f 120 117 122 
f 119 117 123 
f 117 121 123 
f 121 119 123 
f 117 120 124 
f 121 117 124 
o convex_9
v -18.824923 22.376428 28.518725
v -10.797988 22.376428 34.855737
v -11.221492 22.798981 43.724097
v -18.824923 21.531570 34.855737
v -10.797988 21.531570 28.518725
v -11.221492 22.798981 27.673371
v -17.134049 22.798981 43.724097
v -11.221492 21.954123 43.724097
v -18.824923 21.531570 28.518725
v -17.134049 22.798981 27.673371
v -17.134049 21.954123 43.724097
v -10.797988 21.531570 34.855737
v -11.221492 21.954123 27.673371
v -18.824923 22.376428 34.855737
v -17.134049 21.954123 27.673371
v -10.797988 22.376428 28.518725
f 129 130 140 
f 127 126 130 
f 127 130 131 
f 126 127 132 
f 127 131 132 
f 128 125 133 
f 129 128 133 
f 125 131 134 
f 131 130 134 
f 133 125 134 
f 131 128 135 
f 128 132 135 
f 132 131 135 
f 128 129 136 
f 129 126 136 
f 126 132 136 
f 132 128 136 
f 130 129 137 
f 129 133 137 
f 134 130 137 
f 125 128 138 
f 128 131 138 
f 131 125 138 
f 133 134 139 
f 137 133 139 
f 134 137 139 
f 126 129 140 
f 130 126 140 
o convex_10
v 51.305135 21.531611 12.465187
v 58.064658 21.953999 36.121204
v 58.064658 21.531611 36.121204
v 58.064658 21.953999 12.465187
v 51.305135 21.953999 36.121204
v 51.305135 21.531611 36.121204
v 58.064658 21.531611 12.465187
v 51.305135 21.953999 12.465187
f 145 144 148 
f 142 143 144 
f 143 142 145 
f 142 144 145 
f 141 143 146 
f 145 141 146 
f 143 145 146 
f 143 141 147 
f 144 143 147 
f 141 144 147 
f 144 141 148 
f 141 145 148 
o convex_11
v 52.150075 23.643921 42.880728
v 51.727605 21.954206 -0.211235
v 52.572545 21.954206 -0.211235
v 51.727605 21.954206 42.880728
v 51.727605 23.643921 -0.211235
v 52.572545 21.954206 42.880728
v 52.150075 23.643921 -0.211235
v 51.727605 23.643921 42.880728
v 52.572545 22.376800 -0.211235
v 52.572545 22.376800 42.880728
f 154 157 158 
f 150 151 152 
f 151 150 153 
f 150 152 153 
f 152 151 154 
f 149 152 154 
f 153 149 155 
f 151 153 155 
f 152 149 156 
f 149 153 156 
f 153 152 156 
f 154 151 157 
f 151 155 157 
f 157 155 158 
f 149 154 158 
f 155 149 158 
o convex_12
v -18.824923 21.954040 12.466593
v -11.221203 22.798898 27.671800
v -17.133884 22.798898 27.671800
v -11.221203 22.798898 -0.211235
v -11.221203 21.954040 27.671800
v -11.221203 21.954040 -0.211235
v -17.133884 22.798898 -0.211235
v -17.133884 21.954040 27.671800
v -17.133884 21.954040 -0.211235
v -18.824923 22.376469 18.798684
v -18.824923 22.376469 12.466593
v -18.824923 21.954040 18.798684
f 166 168 170 
f 161 160 162 
f 160 161 163 
f 162 160 163 
f 163 159 164 
f 162 163 164 
f 161 162 165 
f 162 164 165 
f 159 163 166 
f 163 161 166 
f 164 159 167 
f 159 165 167 
f 165 164 167 
f 161 165 168 
f 166 161 168 
f 165 159 169 
f 159 168 169 
f 168 165 169 
f 159 166 170 
f 168 159 170 
o convex_13
v -17.135042 22.799477 42.880810
v -11.220748 25.333554 43.725586
v -11.220748 22.799477 43.725586
v -11.220748 25.333554 42.880810
v -17.135042 25.333554 43.725586
v -17.135042 25.333554 42.880810
v -17.135042 22.799477 43.725586
v -11.220748 22.799477 42.880810
f 171 174 178 
f 172 173 174 
f 173 172 175 
f 172 174 175 
f 174 171 176 
f 171 175 176 
f 175 174 176 
f 171 173 177 
f 175 171 177 
f 173 175 177 
f 173 171 178 
f 174 173 178 
o convex_14
v 54.684897 24.911042 -0.211235
v 58.064658 25.333637 42.880728
v 58.064658 23.643921 42.880728
v 54.684897 25.333637 42.880728
v 58.064658 25.333637 -0.211235
v 58.064658 23.643921 -0.211235
v 54.684897 25.333637 -0.211235
v 54.684897 24.911042 42.880728
v 57.642188 23.643921 -0.211235
v 57.642188 23.643921 42.880728
f 187 181 188 
f 181 180 182 
f 180 181 183 
f 182 180 183 
f 179 183 184 
f 183 181 184 
f 179 182 185 
f 183 179 185 
f 182 183 185 
f 181 182 186 
f 182 179 186 
f 179 184 187 
f 184 181 187 
f 186 179 187 
f 186 187 188 
f 181 186 188 
o convex_15
v 51.727605 23.643921 -0.211235
v 54.684897 25.333637 42.880728
v 54.684897 24.911042 42.880728
v 54.684897 25.333637 -0.211235
v 51.727605 25.333637 42.880728
v 51.727605 25.333637 -0.211235
v 51.727605 23.643921 42.880728
v 52.150530 23.643921 -0.211235
v 54.684897 24.911042 -0.211235
v 52.150530 23.643921 42.880728
f 195 196 198 
f 190 191 192 
f 191 190 193 
f 190 192 193 
f 192 189 194 
f 189 193 194 
f 193 192 194 
f 193 189 195 
f 191 193 195 
f 189 192 196 
f 195 189 196 
f 192 191 197 
f 191 196 197 
f 196 192 197 
f 191 195 198 
f 196 191 198 
o convex_16
v -16.290184 25.333554 42.880728
v -17.135042 22.799477 -0.211235
v -16.712613 22.799477 -0.211235
v -17.135042 22.799477 42.880728
v -17.135042 25.333554 -0.211235
v -17.135042 25.333554 42.880728
v -16.290184 25.333554 -0.211235
v -16.712613 22.799477 42.880728
v -16.290184 24.911042 42.880728
v -16.290184 24.911042 -0.211235
f 205 207 208 
f 200 201 202 
f 201 200 203 
f 200 202 203 
f 202 199 204 
f 199 203 204 
f 203 202 204 
f 203 199 205 
f 201 203 205 
f 202 201 206 
f 199 202 206 
f 205 199 207 
f 199 206 207 
f 207 206 208 
f 201 205 208 
f 206 201 208 
o convex_17
v -16.290101 24.911373 -0.211235
v -12.065399 25.333761 42.880728
v -12.065399 24.911373 42.880728
v -12.065399 25.333761 -0.211235
v -16.290101 25.333761 42.880728
v -16.290101 24.911373 42.880728
v -12.065399 24.911373 -0.211235
v -16.290101 25.333761 -0.211235
f 213 212 216 
f 210 211 212 
f 211 210 213 
f 210 212 213 
f 209 211 214 
f 213 209 214 
f 211 213 214 
f 211 209 215 
f 212 211 215 
f 209 212 215 
f 212 209 216 
f 209 213 216 
o convex_18
v 52.572545 21.954081 -0.211235
v 56.797248 22.376469 42.880728
v 56.797248 21.954081 42.880728
v 56.797248 22.376469 -0.211235
v 52.572545 22.376469 42.880728
v 52.572545 21.954081 42.880728
v 56.797248 21.954081 -0.211235
v 52.572545 22.376469 -0.211235
f 221 220 224 
f 218 219 220 
f 219 218 221 
f 218 220 221 
f 217 219 222 
f 221 217 222 
f 219 221 222 
f 219 217 223 
f 220 219 223 
f 217 220 223 
f 220 217 224 
f 217 221 224 
o convex_19
v -12.065399 25.333554 42.880728
v -11.642970 22.799477 -0.211235
v -11.220541 22.799477 -0.211235
v -12.065399 25.333554 -0.211235
v -11.220541 25.333554 42.880728
v -11.220541 22.799477 42.880728
v -11.220541 25.333554 -0.211235
v -11.642970 22.799477 42.880728
v -12.065399 24.911042 42.880728
v -12.065399 24.911042 -0.211235
f 233 228 234 
f 227 226 228 
f 228 225 229 
f 227 229 230 
f 226 227 230 
f 229 225 230 
f 227 228 231 
f 228 229 231 
f 229 227 231 
f 226 230 232 
f 230 225 232 
f 225 228 233 
f 226 232 233 
f 232 225 233 
f 228 226 234 
f 226 233 234 
o convex_20
v 58.064658 23.643921 43.717067
v 56.797248 21.954206 -0.202634
v 58.064658 21.954206 -0.202634
v 56.797248 21.954206 43.717067
v 57.642105 23.643921 -0.202634
v 56.797248 23.643921 43.717067
v 58.064658 21.954206 43.717067
v 58.064658 23.643921 -0.202634
v 56.797248 22.376800 -0.202634
v 56.797248 23.643921 43.295672
f 239 243 244 
f 236 237 238 
f 237 236 239 
f 236 238 240 
f 238 235 240 
f 235 239 240 
f 237 235 241 
f 238 237 241 
f 235 238 241 
f 235 237 242 
f 239 235 242 
f 237 239 242 
f 239 236 243 
f 236 240 243 
f 243 240 244 
f 240 239 244 
o convex_21
v 51.727605 21.954206 42.880810
v 58.064658 25.333637 43.725586
v 58.064658 23.643921 43.725586
v 51.727605 25.333637 43.725586
v 58.064658 25.333637 42.880810
v 51.727605 25.333637 42.880810
v 51.727605 21.954206 43.725586
v 56.796751 21.954206 42.880810
v 56.796751 21.954206 43.725586
v 58.064658 23.643921 42.880810
f 247 252 254 
f 247 246 248 
f 246 247 249 
f 248 246 249 
f 245 248 250 
f 249 245 250 
f 248 249 250 
f 247 248 251 
f 248 245 251 
f 245 249 252 
f 251 245 252 
f 251 252 253 
f 247 251 253 
f 252 247 253 
f 249 247 254 
f 252 249 254 
