o convex_0
v -339.570051 -416.879609 68.001821
v -260.341913 -412.917426 68.001821
v -260.341913 -416.879609 68.001821
v -260.341913 -412.917426 60.081334
v -260.341913 -436.685868 62.723306
v -339.570051 -412.917426 60.081334
v -339.570051 -436.685868 65.362564
v -339.570051 -436.685868 62.723306
v -260.341913 -436.685868 65.362564
v -315.800059 -412.917426 69.324617
v -289.393264 -416.879609 69.324617
v -339.570051 -416.879609 60.081334
v -260.341913 -416.879609 60.081334
v -339.570051 -412.917426 68.001821
v -315.800059 -416.879609 69.324617
v -289.393264 -412.917426 69.324617
f 10 11 16 
f 2 3 4 
f 4 3 5 
f 2 4 6 
f 1 6 7 
f 5 7 8 
f 7 6 8 
f 5 3 9 
f 7 5 9 
f 2 6 10 
f 3 2 11 
f 9 3 11 
f 7 9 11 
f 6 4 12 
f 5 8 12 
f 8 6 12 
f 4 5 13 
f 12 4 13 
f 5 12 13 
f 6 1 14 
f 10 6 14 
f 10 14 15 
f 1 7 15 
f 7 11 15 
f 11 10 15 
f 14 1 15 
f 2 10 16 
f 11 2 16 
o convex_1
v -391.068342 -448.567245 95.733996
v -348.813334 -439.326806 99.694499
v -348.813334 -439.326806 97.055370
v -348.813334 -451.209217 101.015355
v -391.068342 -451.209217 101.015355
v -391.068342 -439.326806 97.055370
v -355.427054 -451.209217 97.054853
v -384.454622 -452.531496 95.734513
v -376.542149 -439.326806 95.733996
v -391.068342 -452.531496 101.015355
v -379.172746 -439.326806 98.374676
v -348.813334 -451.209217 98.374676
v -391.068342 -439.326806 95.733996
v -372.579708 -452.531496 101.015355
v -391.068342 -452.531496 95.734513
v -348.813334 -443.289764 97.055370
v -348.813334 -449.890816 101.015355
v -372.579708 -452.531496 97.054853
v -373.899143 -449.890816 101.015355
v -350.136905 -439.326806 99.694499
v -377.861584 -443.289764 95.733996
v -352.784048 -448.567245 97.055370
v -376.542149 -440.649085 95.733996
v -354.095210 -449.890816 97.054853
v -381.824025 -448.567245 95.733996
f 37 24 41 
f 19 18 20 
f 18 19 22 
f 17 21 22 
f 22 19 25 
f 21 17 26 
f 20 21 26 
f 18 22 27 
f 22 21 27 
f 19 20 28 
f 17 22 29 
f 25 17 29 
f 22 25 29 
f 20 26 30 
f 26 24 30 
f 28 20 30 
f 17 24 31 
f 26 17 31 
f 24 26 31 
f 25 19 32 
f 19 28 32 
f 20 18 33 
f 21 20 33 
f 24 23 34 
f 23 28 34 
f 30 24 34 
f 28 30 34 
f 33 18 35 
f 21 33 35 
f 18 27 36 
f 27 21 36 
f 35 18 36 
f 21 35 36 
f 17 25 37 
f 32 24 37 
f 24 32 38 
f 32 28 38 
f 25 32 39 
f 37 25 39 
f 32 37 39 
f 23 24 40 
f 28 23 40 
f 24 38 40 
f 38 28 40 
f 24 17 41 
f 17 37 41 
o convex_2
v -402.951399 -407.634258 -0.660239
v -391.068342 -404.995905 107.609945
v -397.669394 -402.353675 110.259155
v -400.309815 -410.276489 107.609945
v -391.068342 -406.315082 -0.660239
v -397.669394 -402.353675 -0.660239
v -391.068342 -410.276489 97.045676
v -402.951399 -403.675178 110.259155
v -398.989604 -410.276489 -0.660239
v -401.630025 -402.353675 -0.660239
v -402.951399 -407.634258 110.259155
v -391.068342 -404.995905 -0.660239
v -401.630025 -402.353675 110.259155
v -402.951399 -403.675178 -0.660239
v -391.068342 -408.954985 107.609945
v -400.309815 -410.276489 -0.660239
v -397.669394 -407.634258 110.259155
v -396.351510 -410.276489 107.609945
v -396.351510 -403.675178 110.259155
v -391.068342 -410.276489 98.370281
v -396.351510 -406.315082 110.259155
f 60 58 62 
f 44 43 47 
f 46 42 47 
f 46 43 48 
f 42 46 50 
f 48 45 50 
f 46 48 50 
f 47 42 51 
f 44 47 51 
f 42 45 52 
f 44 49 52 
f 49 42 52 
f 43 46 53 
f 47 43 53 
f 46 47 53 
f 49 44 54 
f 44 51 54 
f 51 49 54 
f 42 49 55 
f 51 42 55 
f 49 51 55 
f 48 43 56 
f 45 42 57 
f 42 50 57 
f 50 45 57 
f 44 52 58 
f 52 45 58 
f 56 58 59 
f 45 48 59 
f 58 45 59 
f 43 44 60 
f 44 58 60 
f 48 56 61 
f 56 59 61 
f 59 48 61 
f 56 43 62 
f 58 56 62 
f 43 60 62 
o convex_3
v -339.568242 -440.647921 -0.660239
v -321.083486 -439.326806 58.760865
v -321.083486 -443.288213 58.760865
v -321.083486 -439.326806 -0.660239
v -339.568242 -443.288213 58.760865
v -321.083486 -443.288213 -0.660239
v -331.644911 -439.326806 58.760865
v -339.568242 -443.288213 -0.660239
v -339.568242 -440.647921 58.760865
v -331.644911 -439.326806 -0.660239
f 63 69 72 
f 64 65 66 
f 65 64 67 
f 66 65 68 
f 63 66 68 
f 65 67 68 
f 64 66 69 
f 67 64 69 
f 67 63 70 
f 63 68 70 
f 68 67 70 
f 63 67 71 
f 69 63 71 
f 67 69 71 
f 66 63 72 
f 69 66 72 
o convex_4
v -260.341913 -436.686385 65.364244
v -339.570051 -441.967227 60.081334
v -339.570051 -441.967227 68.004148
v -260.341913 -441.967227 60.081334
v -260.341913 -440.646500 75.926962
v -339.570051 -438.007112 75.926962
v -339.570051 -436.686385 62.722789
v -260.341913 -438.007112 60.081334
v -260.341913 -438.007112 75.926962
v -339.570051 -440.646500 75.926962
v -260.341913 -441.967227 68.004148
v -339.570051 -438.007112 60.081334
v -339.570051 -436.686385 65.364244
v -260.341913 -436.686385 62.722789
v -289.393264 -441.967227 69.324100
v -315.800059 -441.967227 69.324100
f 87 82 88 
f 75 74 76 
f 76 73 77 
f 74 75 78 
f 74 78 79 
f 76 74 80 
f 73 76 80 
f 77 73 81 
f 78 77 81 
f 73 78 81 
f 78 75 82 
f 77 78 82 
f 75 76 83 
f 76 77 83 
f 74 79 84 
f 80 74 84 
f 79 80 84 
f 78 73 85 
f 73 79 85 
f 79 78 85 
f 79 73 86 
f 73 80 86 
f 80 79 86 
f 77 82 87 
f 75 83 87 
f 83 77 87 
f 82 75 88 
f 75 87 88 
o convex_5
v -280.148947 -440.647921 -0.660239
v -260.343852 -439.326806 58.760865
v -260.343852 -443.288213 58.760865
v -260.343852 -439.326806 -0.660239
v -280.148947 -443.288213 58.760865
v -260.343852 -443.288213 -0.660239
v -280.148947 -440.647921 58.760865
v -280.148947 -443.288213 -0.660239
v -265.626632 -439.326806 58.760865
v -265.626632 -439.326806 -0.660239
f 89 97 98 
f 90 91 92 
f 91 90 93 
f 92 91 94 
f 89 92 94 
f 91 93 94 
f 89 93 95 
f 93 90 95 
f 93 89 96 
f 89 94 96 
f 94 93 96 
f 90 92 97 
f 95 90 97 
f 89 95 97 
f 92 89 98 
f 97 92 98 
o convex_6
v -348.813076 -449.885647 98.377648
v -344.852832 -410.279332 107.617054
v -346.174206 -410.279332 107.617054
v -344.852832 -410.279332 95.735160
v -351.454272 -410.279332 97.057567
v -343.533009 -449.885647 107.617054
v -348.812300 -438.001814 107.617054
v -343.533009 -449.885647 95.735160
v -351.454272 -439.320085 97.057567
v -343.532234 -420.844893 107.617054
v -348.812300 -412.923630 107.617054
v -347.492478 -449.885647 107.617054
v -343.532234 -420.844893 95.735160
v -351.454272 -439.320085 98.377648
v -346.174206 -422.167042 95.735160
v -351.454272 -410.279332 98.377648
v -344.852832 -449.885647 95.735160
v -348.812300 -410.279332 106.294647
v -346.174206 -410.279332 95.735160
v -348.813076 -449.885647 99.697730
v -343.532234 -439.320085 95.735160
v -343.532234 -439.320085 107.617054
f 119 108 120 
f 101 100 102 
f 101 102 103 
f 100 101 104 
f 104 101 105 
f 104 99 106 
f 102 100 108 
f 100 104 108 
f 105 101 109 
f 99 104 110 
f 104 105 110 
f 106 102 111 
f 102 108 111 
f 103 107 112 
f 107 99 112 
f 105 109 112 
f 110 105 112 
f 102 106 113 
f 107 103 113 
f 101 103 114 
f 103 112 114 
f 112 109 114 
f 106 99 115 
f 99 107 115 
f 113 106 115 
f 107 113 115 
f 109 101 116 
f 101 114 116 
f 114 109 116 
f 103 102 117 
f 102 113 117 
f 113 103 117 
f 99 110 118 
f 112 99 118 
f 110 112 118 
f 104 106 119 
f 106 111 119 
f 111 108 119 
f 108 104 120 
f 104 119 120 
o convex_7
v -260.341913 -403.674144 -0.660239
v -248.457692 -401.034240 108.934550
v -253.741377 -399.712737 110.259155
v -257.698907 -407.635551 107.609945
v -248.457692 -402.354967 -0.660239
v -248.457692 -407.635551 98.370281
v -256.379730 -407.635551 -0.660239
v -259.019246 -399.712737 -0.660239
v -260.341913 -402.354967 110.259155
v -253.741377 -399.712737 -0.660239
v -259.019246 -399.712737 110.259155
v -248.457692 -401.034240 -0.660239
v -248.457692 -406.314048 108.934550
v -257.698907 -407.635551 -0.660239
v -260.341913 -403.674144 110.259155
v -260.341913 -402.354967 -0.660239
v -253.741377 -404.993320 110.259155
v -253.741377 -407.635551 107.609945
v -259.019246 -404.993320 110.259155
v -248.457692 -407.635551 99.694886
f 133 138 140 
f 125 122 126 
f 121 125 127 
f 125 126 127 
f 126 124 127 
f 125 121 128 
f 123 122 130 
f 128 123 130 
f 125 128 130 
f 123 128 131 
f 129 123 131 
f 128 129 131 
f 122 125 132 
f 130 122 132 
f 125 130 132 
f 122 123 133 
f 126 122 133 
f 124 121 134 
f 121 127 134 
f 127 124 134 
f 121 124 135 
f 123 129 135 
f 129 121 135 
f 128 121 136 
f 121 129 136 
f 129 128 136 
f 133 123 137 
f 123 135 137 
f 124 126 138 
f 133 137 138 
f 137 124 138 
f 135 124 139 
f 124 137 139 
f 137 135 139 
f 126 133 140 
f 138 126 140 
o convex_8
v -401.631059 -456.491869 -0.660239
v -391.069376 -451.212061 106.295034
v -391.069376 -455.171141 106.295034
v -401.631059 -453.851965 111.579624
v -398.989346 -449.890558 -0.660239
v -391.069376 -455.171141 -0.660239
v -396.349700 -457.813372 111.579624
v -400.309686 -449.890558 106.295034
v -391.069376 -449.890558 95.714867
v -396.349700 -457.813372 -0.660239
v -400.309686 -457.813372 111.579624
v -400.309686 -449.890558 -0.660239
v -391.069376 -453.851965 -0.660239
v -400.309686 -457.813372 -0.660239
v -401.631059 -456.491869 111.579624
v -401.631059 -453.851965 -0.660239
v -396.349700 -451.212061 111.579624
v -395.031429 -449.890558 106.295034
v -395.031429 -456.491869 111.579624
v -400.309686 -451.212061 111.579624
v -395.031429 -452.532788 111.579624
v -391.069376 -449.890558 97.044254
f 158 142 162 
f 142 143 146 
f 141 145 146 
f 146 143 147 
f 145 148 149 
f 142 146 149 
f 141 146 150 
f 146 147 150 
f 150 147 151 
f 147 144 151 
f 145 141 152 
f 144 148 152 
f 148 145 152 
f 146 145 153 
f 145 149 153 
f 149 146 153 
f 141 150 154 
f 150 151 154 
f 151 141 154 
f 144 141 155 
f 141 151 155 
f 151 144 155 
f 141 144 156 
f 152 141 156 
f 144 152 156 
f 144 147 157 
f 148 157 158 
f 149 148 158 
f 157 142 158 
f 143 142 159 
f 147 143 159 
f 157 147 159 
f 148 144 160 
f 144 157 160 
f 157 148 160 
f 142 157 161 
f 159 142 161 
f 157 159 161 
f 142 149 162 
f 149 158 162 
o convex_9
v -207.523154 -451.210251 -0.660239
v -199.601891 -448.571123 111.579624
v -199.601891 -453.851318 111.579624
v -199.601891 -448.571123 -0.660239
v -207.523154 -447.249620 107.613435
v -199.601891 -453.851318 -0.660239
v -207.523154 -452.530462 107.613435
v -203.562135 -447.249620 -0.660239
v -204.881182 -453.851318 -0.660239
v -204.881182 -453.851318 111.579624
v -202.242312 -447.249620 107.613435
v -207.523154 -452.530462 -0.660239
v -202.242312 -447.249620 -0.660239
v -207.523154 -447.249620 97.044254
v -206.201780 -449.891333 111.579624
v -204.881182 -448.571123 111.579624
v -206.201780 -451.210251 111.579624
f 172 177 179 
f 164 165 166 
f 166 165 168 
f 163 166 168 
f 167 163 169 
f 166 163 170 
f 163 168 171 
f 168 165 171 
f 169 171 172 
f 165 164 172 
f 171 165 172 
f 164 166 173 
f 167 164 173 
f 170 167 173 
f 169 163 174 
f 163 171 174 
f 171 169 174 
f 166 170 175 
f 173 166 175 
f 170 173 175 
f 163 167 176 
f 170 163 176 
f 167 170 176 
f 167 169 177 
f 172 164 177 
f 164 167 178 
f 177 164 178 
f 167 177 178 
f 169 172 179 
f 177 169 179 
o convex_10
v -398.991285 -410.280366 94.413527
v -400.311495 -449.890558 -0.660239
v -398.991285 -449.890558 -0.660239
v -400.311495 -410.280366 -0.660239
v -400.311495 -449.890558 94.413527
v -398.991285 -410.280366 -0.660239
v -398.991285 -449.890558 94.413527
v -400.311495 -410.280366 94.413527
f 183 184 187 
f 182 181 183 
f 181 182 184 
f 183 181 184 
f 180 182 185 
f 182 183 185 
f 183 180 185 
f 182 180 186 
f 180 184 186 
f 184 182 186 
f 180 183 187 
f 184 180 187 
o convex_11
v -391.068342 -455.172304 -0.660239
v -348.813334 -453.852094 101.015872
v -391.068342 -453.852094 101.015872
v -348.813334 -455.172304 101.015872
v -348.813334 -453.852094 -0.660239
v -348.813334 -455.172304 -0.660239
v -391.068342 -453.852094 -0.660239
v -391.068342 -455.172304 101.015872
f 188 191 195 
f 189 190 191 
f 190 189 192 
f 189 191 192 
f 191 188 193 
f 188 192 193 
f 192 191 193 
f 188 190 194 
f 192 188 194 
f 190 192 194 
f 190 188 195 
f 191 190 195 
o convex_12
v -342.211894 -451.212061 111.579624
v -344.852315 -457.813372 -0.660239
v -348.813334 -455.171141 -0.660239
v -343.532492 -449.890558 -0.660239
v -348.813334 -449.890558 107.613435
v -344.852315 -457.813372 111.579624
v -340.891296 -456.491869 -0.660239
v -340.891296 -456.491869 111.579624
v -348.813334 -455.171141 107.613435
v -340.891296 -452.532788 -0.660239
v -342.211894 -457.813372 111.579624
v -343.532492 -449.890558 107.613435
v -344.852315 -449.890558 -0.660239
v -340.891296 -452.532788 111.579624
v -348.813334 -453.851965 -0.660239
v -342.211894 -457.813372 -0.660239
v -348.813334 -449.890558 98.373642
v -346.171362 -451.212061 111.579624
v -346.171362 -456.491869 111.579624
f 201 213 214 
f 197 198 199 
f 198 197 201 
f 197 199 202 
f 196 201 203 
f 200 198 204 
f 198 201 204 
f 202 199 205 
f 203 202 205 
f 201 197 206 
f 203 201 206 
f 202 203 206 
f 200 196 207 
f 199 200 207 
f 205 199 207 
f 199 198 208 
f 200 199 208 
f 196 203 209 
f 203 205 209 
f 207 196 209 
f 205 207 209 
f 198 200 210 
f 208 198 210 
f 197 202 211 
f 206 197 211 
f 202 206 211 
f 200 208 212 
f 210 200 212 
f 208 210 212 
f 196 200 213 
f 201 196 213 
f 200 204 213 
f 213 204 214 
f 204 201 214 
o convex_13
v -391.068342 -407.635551 106.283014
v -351.454272 -404.995259 106.283014
v -372.579708 -404.995259 107.607618
v -380.497868 -403.674144 -0.649640
v -351.454272 -406.314435 -0.649640
v -351.454272 -407.635551 106.283014
v -391.068342 -406.314435 -0.649640
v -391.068342 -404.995259 107.607618
v -365.983826 -403.674144 29.720887
v -351.454272 -404.995259 -0.649640
v -391.068342 -404.995259 -0.649640
v -365.983826 -403.674144 -0.649640
v -380.497868 -403.674144 29.720887
v -369.942906 -407.635551 107.607618
v -351.454272 -407.635551 104.958410
v -391.068342 -407.635551 107.607618
v -373.898109 -407.635551 104.958410
v -369.942906 -406.314435 107.607618
f 228 216 232 
f 219 216 220 
f 218 219 221 
f 221 215 222 
f 217 216 223 
f 222 217 223 
f 219 218 224 
f 216 219 224 
f 223 216 224 
f 218 221 225 
f 222 218 225 
f 221 222 225 
f 218 223 226 
f 224 218 226 
f 223 224 226 
f 218 222 227 
f 223 218 227 
f 222 223 227 
f 220 216 228 
f 215 220 228 
f 217 222 228 
f 219 220 229 
f 220 215 229 
f 221 219 229 
f 222 215 230 
f 215 228 230 
f 228 222 230 
f 215 221 231 
f 229 215 231 
f 221 229 231 
f 216 217 232 
f 217 228 232 
o convex_14
v -253.739568 -444.608682 106.295034
v -259.020410 -453.850155 -0.660239
v -260.340620 -452.530203 -0.660239
v -259.020410 -453.850155 111.579624
v -253.739568 -452.530203 -0.660239
v -257.700199 -444.608682 -0.660239
v -260.340620 -449.889395 111.579624
v -253.739568 -452.530203 111.579624
v -257.700199 -444.608682 107.613435
v -255.061071 -453.850155 -0.660239
v -253.739568 -449.889395 -0.660239
v -260.340620 -449.889395 -0.660239
v -256.381281 -444.608682 -0.660239
v -255.061071 -453.850155 111.579624
v -260.340620 -452.530203 111.579624
v -255.061071 -448.571252 111.579624
v -253.739568 -444.608682 97.044254
v -259.020410 -448.571252 111.579624
v -253.739568 -449.889395 111.579624
v -256.381281 -444.608682 107.613435
f 241 248 252 
f 235 234 236 
f 234 235 237 
f 237 235 238 
f 237 233 240 
f 239 236 240 
f 233 238 241 
f 238 239 241 
f 236 234 242 
f 234 237 242 
f 237 240 242 
f 233 237 243 
f 237 238 243 
f 238 235 244 
f 235 239 244 
f 239 238 244 
f 238 233 245 
f 243 238 245 
f 240 236 246 
f 236 242 246 
f 242 240 246 
f 235 236 247 
f 239 235 247 
f 236 239 247 
f 239 240 248 
f 233 243 249 
f 245 233 249 
f 243 245 249 
f 241 239 250 
f 239 248 250 
f 248 241 250 
f 240 233 251 
f 233 248 251 
f 248 240 251 
f 233 241 252 
f 248 233 252 
o convex_15
v -253.739051 -451.210962 -0.650803
v -207.527160 -451.210962 95.733996
v -207.527160 -452.531237 95.733996
v -253.739051 -449.890946 95.733996
v -224.698297 -449.890946 -0.650803
v -207.527160 -452.531237 -0.650803
v -226.014631 -452.531237 95.733996
v -253.739051 -449.890946 -0.650803
v -224.698297 -449.890946 95.733996
v -253.739051 -451.210962 95.733996
v -226.014631 -452.531237 -0.650803
v -207.527160 -451.210962 -0.650803
f 258 257 264 
f 255 254 256 
f 254 255 258 
f 253 257 258 
f 258 255 259 
f 255 256 259 
f 253 256 260 
f 257 253 260 
f 256 257 260 
f 256 254 261 
f 257 256 261 
f 254 257 261 
f 256 253 262 
f 259 256 262 
f 259 262 263 
f 253 258 263 
f 258 259 263 
f 262 253 263 
f 257 254 264 
f 254 258 264 
o convex_16
v -207.527160 -447.249792 107.615891
v -253.739051 -451.209907 95.733996
v -253.739051 -449.889352 95.733996
v -207.527160 -452.530462 95.736323
v -223.372917 -452.530462 107.615891
v -253.739051 -444.608682 97.055370
v -253.739051 -447.250568 106.296843
v -207.527160 -447.249792 97.056533
v -253.739051 -451.209907 106.296843
v -207.527160 -452.530462 107.615891
v -226.014631 -452.530462 95.736323
v -248.455624 -444.608682 98.376744
v -229.968154 -447.249792 107.615891
v -224.698297 -449.890127 95.736323
v -232.605344 -449.890127 107.615891
v -248.455624 -444.608682 97.055370
v -253.739051 -444.608682 98.376744
v -226.014631 -452.530462 106.295680
v -207.527160 -451.209907 95.736323
v -231.284487 -451.209907 107.615891
v -232.605344 -448.570347 107.615891
v -248.455624 -449.889352 95.733996
v -248.455624 -451.209907 95.733996
f 286 268 287 
f 267 266 270 
f 270 266 271 
f 265 268 272 
f 271 266 273 
f 268 265 274 
f 265 269 274 
f 269 268 274 
f 266 268 275 
f 268 269 275 
f 273 266 275 
f 265 272 276 
f 269 265 277 
f 265 276 277 
f 271 273 279 
f 269 277 279 
f 267 270 280 
f 270 276 280 
f 276 272 280 
f 272 278 280 
f 270 271 281 
f 276 270 281 
f 271 277 281 
f 277 276 281 
f 269 273 282 
f 275 269 282 
f 273 275 282 
f 272 268 283 
f 278 272 283 
f 273 269 284 
f 269 279 284 
f 279 273 284 
f 277 271 285 
f 271 279 285 
f 279 277 285 
f 266 267 286 
f 267 280 286 
f 280 278 286 
f 283 268 286 
f 278 283 286 
f 268 266 287 
f 266 286 287 
o convex_17
v -248.453944 -402.353675 -0.638785
v -210.167840 -401.033464 108.917232
v -248.453944 -401.033464 108.917232
v -210.167840 -403.673885 108.917232
v -210.167840 -401.033464 -0.638785
v -248.453944 -403.673885 108.917232
v -248.453944 -401.033464 -0.638785
v -210.167840 -402.353675 -0.638785
v -210.167840 -403.673885 107.597926
v -248.453944 -403.673885 107.597926
f 296 293 297 
f 289 290 291 
f 290 289 292 
f 289 291 292 
f 290 288 293 
f 291 290 293 
f 288 290 294 
f 292 288 294 
f 290 292 294 
f 288 292 295 
f 292 291 295 
f 291 293 296 
f 288 295 296 
f 295 291 296 
f 293 288 297 
f 288 296 297 
o convex_18
v -400.311366 -449.890558 94.416112
v -396.350347 -410.280366 107.617442
v -397.670686 -410.280366 107.617442
v -400.311366 -410.280366 94.416112
v -395.030007 -449.890558 99.696644
v -400.311366 -449.890558 106.295370
v -395.030007 -419.523778 99.696644
v -395.030007 -449.890558 106.296663
v -400.311366 -410.280366 106.295370
v -398.991026 -410.280366 94.416112
v -398.991026 -449.890558 94.416112
v -395.030007 -423.490226 106.296663
v -396.350347 -410.280366 99.696644
v -398.991026 -412.928542 107.616149
v -396.350347 -414.246814 107.617442
v -395.030007 -419.523778 102.336910
v -398.991026 -410.280366 107.616149
v -397.670686 -414.246814 107.617442
v -397.670686 -449.890558 106.296663
v -395.030007 -422.164199 104.975884
f 309 313 317 
f 300 299 301 
f 301 298 303 
f 298 302 303 
f 302 304 305 
f 303 302 305 
f 300 301 306 
f 301 303 306 
f 301 299 307 
f 298 301 307 
f 304 302 307 
f 302 298 308 
f 298 307 308 
f 307 302 308 
f 305 304 309 
f 299 305 309 
f 307 299 310 
f 304 307 310 
f 306 303 311 
f 299 300 312 
f 305 299 312 
f 309 304 313 
f 310 299 313 
f 304 310 313 
f 300 306 314 
f 311 300 314 
f 306 311 314 
f 300 311 315 
f 311 303 315 
f 312 300 315 
f 305 312 315 
f 303 305 316 
f 315 303 316 
f 305 315 316 
f 299 309 317 
f 313 299 317 
o convex_19
v -203.562652 -447.249620 95.735160
v -203.562652 -424.806042 107.617054
v -207.522637 -424.806042 107.617054
v -203.562652 -424.806042 95.735160
v -202.241795 -447.249620 107.617054
v -207.522637 -447.249620 97.056404
v -207.522637 -445.926954 107.617054
v -207.522637 -424.806042 97.056404
v -202.241795 -426.124314 95.735160
v -202.241795 -426.124314 107.617054
v -202.241795 -447.249620 95.735160
v -204.882474 -424.806042 95.735160
v -207.522637 -447.249620 106.295810
v -206.202297 -447.249620 107.617054
v -204.882474 -427.444783 95.735160
f 323 329 332 
f 320 319 321 
f 319 320 322 
f 318 322 323 
f 322 320 324 
f 320 323 324 
f 320 321 325 
f 323 320 325 
f 321 319 326 
f 318 321 326 
f 322 326 327 
f 319 322 327 
f 326 319 327 
f 322 318 328 
f 318 326 328 
f 326 322 328 
f 321 318 329 
f 325 321 329 
f 323 325 329 
f 323 322 330 
f 324 323 330 
f 324 330 331 
f 322 324 331 
f 330 322 331 
f 318 323 332 
f 329 318 332 
o convex_20
v -339.570827 -439.327840 60.078749
v -344.850893 -449.889524 -0.660239
v -347.492865 -443.288859 -0.660239
v -344.850893 -449.889524 75.926962
v -347.492865 -439.327840 68.002855
v -339.570827 -440.648180 -0.660239
v -344.850893 -439.327840 -0.660239
v -339.570827 -443.288859 58.751817
v -339.570827 -439.327840 75.926962
v -343.531846 -449.889524 -0.660239
v -343.531846 -449.889524 75.926962
v -347.492865 -443.288859 58.751817
v -339.570827 -443.288859 -0.660239
v -347.492865 -440.648180 -0.660239
v -344.850893 -439.327840 75.926962
v -343.531846 -439.327840 -0.660239
v -339.570827 -440.648180 75.926962
v -347.492865 -441.968519 68.002855
v -347.492865 -439.327840 60.078749
v -339.570827 -441.968519 68.002855
f 349 343 352 
f 335 334 336 
f 334 335 338 
f 337 333 339 
f 338 335 339 
f 338 333 340 
f 333 337 341 
f 340 333 341 
f 336 334 342 
f 334 338 342 
f 341 336 343 
f 336 342 343 
f 335 336 344 
f 337 335 344 
f 338 340 345 
f 342 338 345 
f 340 343 345 
f 343 342 345 
f 335 337 346 
f 339 335 346 
f 337 336 347 
f 341 337 347 
f 336 341 347 
f 333 338 348 
f 339 333 348 
f 338 339 348 
f 340 341 349 
f 341 343 349 
f 336 337 350 
f 344 336 350 
f 337 344 350 
f 337 339 351 
f 346 337 351 
f 339 346 351 
f 343 340 352 
f 340 349 352 
o convex_21
v -391.068342 -439.323962 95.734255
v -351.454272 -410.279332 98.374676
v -351.454272 -439.323962 98.374676
v -391.068342 -410.279332 98.374676
v -367.302227 -426.120824 95.734255
v -391.068342 -432.722393 98.374676
v -391.068342 -410.279332 97.054465
v -351.454272 -410.279332 97.054465
v -351.454272 -439.323962 97.054465
v -377.861067 -439.323962 98.374676
v -375.220387 -439.323962 95.734255
v -391.068342 -431.400373 95.734255
v -391.068342 -439.323962 97.054465
v -372.579708 -426.120824 95.734255
v -368.624505 -430.081197 95.734255
v -383.138548 -428.762020 95.734255
v -371.261307 -434.041570 95.734255
v -367.302227 -427.440001 95.734255
v -377.861067 -427.440001 95.734255
f 366 368 371 
f 355 354 356 
f 355 356 358 
f 356 353 358 
f 356 354 359 
f 353 356 359 
f 357 359 360 
f 354 355 360 
f 359 354 360 
f 355 353 361 
f 357 360 361 
f 360 355 361 
f 353 355 362 
f 355 358 362 
f 353 357 363 
f 361 353 363 
f 357 353 364 
f 353 359 364 
f 358 353 365 
f 353 362 365 
f 362 358 365 
f 359 357 366 
f 357 364 366 
f 363 357 367 
f 364 359 368 
f 366 364 368 
f 361 363 369 
f 367 361 369 
f 363 367 369 
f 357 361 370 
f 367 357 370 
f 361 367 370 
f 359 366 371 
f 368 359 371 
o convex_22
v -351.454272 -407.635809 106.297748
v -391.068342 -410.276230 97.054465
v -391.068342 -410.276230 98.374934
v -391.068342 -407.635809 97.054465
v -351.454272 -410.276230 97.054465
v -391.068342 -408.956020 107.618217
v -351.454272 -407.635809 97.054465
v -391.068342 -407.635809 107.618217
v -351.454272 -408.956020 106.297748
v -351.454272 -410.276230 98.374934
v -372.579708 -408.956020 107.618217
v -372.579708 -407.635809 107.618217
f 379 382 383 
f 373 374 375 
f 374 373 376 
f 373 375 376 
f 375 374 377 
f 375 372 378 
f 372 376 378 
f 376 375 378 
f 372 375 379 
f 375 377 379 
f 376 372 380 
f 374 376 381 
f 377 374 381 
f 376 380 381 
f 379 377 382 
f 380 372 382 
f 377 381 382 
f 381 380 382 
f 372 379 383 
f 382 372 383 
o convex_23
v -344.852057 -407.635551 58.760865
v -344.852057 -439.326806 -0.660239
v -343.531717 -439.326806 -0.660239
v -346.172396 -407.635551 -0.660239
v -344.852057 -439.326806 58.760865
v -346.172396 -422.162777 58.760865
v -343.531717 -420.844376 58.760865
v -343.531717 -420.844376 -0.660239
v -343.531717 -439.326806 58.760865
v -346.172396 -422.162777 -0.660239
v -346.172396 -407.635551 58.760865
v -344.852057 -407.635551 -0.660239
f 384 391 395 
f 386 385 387 
f 385 386 388 
f 388 384 389 
f 384 388 390 
f 386 387 391 
f 390 386 391 
f 384 390 391 
f 388 386 392 
f 386 390 392 
f 390 388 392 
f 387 385 393 
f 385 388 393 
f 388 389 393 
f 389 387 393 
f 384 387 394 
f 387 389 394 
f 389 384 394 
f 387 384 395 
f 391 387 395 
o convex_24
v -350.132123 -403.675953 110.259155
v -346.174206 -410.276489 58.751559
v -350.132123 -407.634258 -0.660239
v -343.532234 -403.675178 -0.660239
v -343.532234 -403.675953 110.259155
v -351.454272 -410.276489 98.370281
v -348.812300 -402.354450 -0.660239
v -344.852832 -410.276489 106.296197
v -351.454272 -404.995130 -0.660239
v -343.532234 -406.315082 -0.660239
v -344.852832 -402.353675 110.259155
v -351.454272 -404.996681 106.296197
v -348.812300 -402.353675 110.259155
v -344.852832 -402.354450 -0.660239
v -343.532234 -406.315082 110.259155
v -344.852832 -407.634258 -0.660239
v -350.132123 -407.633482 110.259155
v -344.852832 -410.276489 58.751559
v -351.454272 -406.315082 -0.660239
v -351.454272 -408.954210 106.296197
v -348.812300 -410.276489 106.296197
v -344.852832 -407.633482 110.259155
v -351.454272 -410.276489 97.045676
v -348.812300 -402.353675 58.751559
v -351.454272 -404.995130 58.751559
v -344.852832 -402.353675 58.751559
v -343.532234 -403.675178 58.751559
f 399 406 422 
f 399 398 402 
f 401 397 403 
f 402 398 404 
f 398 399 405 
f 399 400 405 
f 396 400 406 
f 404 401 407 
f 396 406 408 
f 407 396 408 
f 399 402 409 
f 400 396 410 
f 405 400 410 
f 403 405 410 
f 397 398 411 
f 398 405 411 
f 396 407 412 
f 410 396 412 
f 403 397 413 
f 405 403 413 
f 397 411 413 
f 411 405 413 
f 401 404 414 
f 404 398 414 
f 407 401 415 
f 412 407 415 
f 412 415 416 
f 401 403 416 
f 403 412 416 
f 415 401 416 
f 403 410 417 
f 412 403 417 
f 410 412 417 
f 398 397 418 
f 397 401 418 
f 414 398 418 
f 401 414 418 
f 402 404 419 
f 404 408 419 
f 408 406 419 
f 409 402 419 
f 404 407 420 
f 408 404 420 
f 407 408 420 
f 406 399 421 
f 399 409 421 
f 419 406 421 
f 409 419 421 
f 400 399 422 
f 406 400 422 
o convex_25
v -346.172396 -410.280366 69.324617
v -343.531588 -439.327082 95.733996
v -344.851992 -439.327082 95.733996
v -343.531588 -449.889524 75.929547
v -343.531846 -420.842808 69.324617
v -344.851992 -410.284244 95.731411
v -344.851992 -449.889524 75.929547
v -346.172396 -422.165052 95.731411
v -344.851992 -449.889524 95.733996
v -343.531846 -420.842808 95.731411
v -346.172396 -422.165052 69.324617
v -346.172396 -410.284244 95.731411
v -343.531846 -436.682594 69.324617
v -344.851992 -410.280366 69.324617
v -343.531588 -449.889524 95.733996
v -344.851992 -436.682594 69.324617
v -344.851992 -410.280366 81.208321
v -346.172396 -410.280366 81.208321
v -343.531588 -439.327082 75.929547
f 427 424 441 
f 425 424 428 
f 430 429 431 
f 424 425 431 
f 429 426 431 
f 425 430 431 
f 424 427 432 
f 428 424 432 
f 423 427 433 
f 430 423 433 
f 429 430 433 
f 425 428 434 
f 423 430 434 
f 430 425 434 
f 427 426 435 
f 426 429 435 
f 433 427 435 
f 427 423 436 
f 432 427 436 
f 426 424 437 
f 424 431 437 
f 431 426 437 
f 429 433 438 
f 435 429 438 
f 433 435 438 
f 428 432 439 
f 434 428 439 
f 436 423 439 
f 432 436 439 
f 423 434 440 
f 439 423 440 
f 434 439 440 
f 424 426 441 
f 426 427 441 
o convex_26
v -344.850893 -436.685868 58.760865
v -344.850893 -410.276489 69.324617
v -339.570827 -412.921046 68.004148
v -346.171492 -410.276489 58.760865
v -344.850893 -436.685868 69.324617
v -339.570827 -436.685868 62.723306
v -339.570827 -412.921046 60.082368
v -347.492865 -416.884004 68.004148
v -347.492865 -416.884004 60.082368
v -339.570827 -436.685868 65.361142
v -343.531846 -436.685868 58.760865
v -343.531846 -436.685868 69.324617
v -347.492865 -412.921046 68.004148
v -346.171492 -410.276489 69.324617
v -344.850893 -410.276489 58.760865
v -339.570827 -416.884004 68.004148
v -347.492865 -412.921046 60.082368
v -339.570827 -416.884004 60.082368
v -343.531846 -420.841791 58.760865
v -343.531846 -420.841791 69.324617
v -346.171492 -422.162777 58.760865
v -346.171492 -422.162777 69.324617
f 455 449 463 
f 446 442 447 
f 443 444 448 
f 444 447 448 
f 442 446 449 
f 442 449 450 
f 447 444 451 
f 446 447 451 
f 442 445 452 
f 447 442 452 
f 443 446 453 
f 446 451 453 
f 450 449 454 
f 443 445 455 
f 446 443 455 
f 445 454 455 
f 454 449 455 
f 445 443 456 
f 443 448 456 
f 452 445 456 
f 451 444 457 
f 453 451 457 
f 445 450 458 
f 454 445 458 
f 450 454 458 
f 448 447 459 
f 447 452 459 
f 452 448 459 
f 448 452 460 
f 456 448 460 
f 452 456 460 
f 444 443 461 
f 443 453 461 
f 457 444 461 
f 453 457 461 
f 445 442 462 
f 442 450 462 
f 450 445 462 
f 449 446 463 
f 446 455 463 
o convex_27
v -347.492865 -439.326548 60.083531
v -339.570827 -438.006337 75.924765
v -339.570827 -439.326548 75.924765
v -339.570827 -439.326548 60.083531
v -343.531846 -436.686127 58.763062
v -344.850893 -436.686127 81.206641
v -344.850893 -439.326548 81.206641
v -339.570827 -436.686127 62.724469
v -347.492865 -438.006337 68.006345
v -344.850893 -436.686127 58.763062
v -343.531846 -436.686127 81.206641
v -343.531846 -439.326548 58.763062
v -347.492865 -439.326548 68.006345
v -347.492865 -438.006337 60.083531
v -343.531846 -439.326548 81.206641
v -339.570827 -436.686127 65.365407
v -339.570827 -438.006337 60.083531
v -344.850893 -439.326548 58.763062
f 473 475 481 
f 465 466 467 
f 466 464 467 
f 464 466 470 
f 465 467 471 
f 468 469 471 
f 470 469 472 
f 469 468 473 
f 472 469 473 
f 466 465 474 
f 469 470 474 
f 471 469 474 
f 467 464 475 
f 468 467 475 
f 473 468 475 
f 464 470 476 
f 472 464 476 
f 470 472 476 
f 464 472 477 
f 473 464 477 
f 472 473 477 
f 470 466 478 
f 466 474 478 
f 474 470 478 
f 465 471 479 
f 474 465 479 
f 471 474 479 
f 467 468 480 
f 471 467 480 
f 468 471 480 
f 464 473 481 
f 475 464 481 
o convex_28
v -255.060037 -439.328099 58.755824
v -257.700716 -444.608682 -0.650803
v -260.341396 -443.287179 -0.650803
v -257.700716 -444.608682 95.733996
v -260.341396 -436.685868 65.360754
v -256.381411 -436.685868 -0.650803
v -256.381411 -436.685868 95.733996
v -255.060037 -443.287179 -0.650803
v -256.381411 -444.608682 95.733996
v -260.341396 -440.647275 75.919206
v -260.341396 -439.328099 -0.650803
v -260.341396 -443.287179 58.755824
v -257.700716 -436.685868 95.733996
v -255.060037 -439.328099 -0.650803
v -255.060037 -443.287179 58.755824
v -257.700716 -436.685868 -0.650803
v -256.381411 -444.608682 -0.650803
v -260.341396 -438.007371 75.919206
v -260.341396 -436.685868 62.718782
v -260.341396 -441.966451 68.002726
f 491 493 501 
f 484 483 485 
f 483 484 487 
f 482 487 488 
f 487 486 488 
f 483 487 489 
f 485 483 490 
f 482 488 490 
f 488 485 490 
f 486 484 491 
f 484 486 492 
f 487 484 492 
f 484 485 493 
f 491 484 493 
f 485 488 494 
f 488 486 494 
f 491 485 494 
f 487 482 495 
f 482 489 495 
f 489 487 495 
f 489 482 496 
f 482 490 496 
f 490 489 496 
f 486 487 497 
f 487 492 497 
f 483 489 498 
f 490 483 498 
f 489 490 498 
f 486 491 499 
f 494 486 499 
f 491 494 499 
f 492 486 500 
f 486 497 500 
f 497 492 500 
f 485 491 501 
f 493 485 501 
o convex_29
v -260.341913 -412.920787 68.002726
v -257.701621 -436.683024 -0.650803
v -256.380506 -436.683024 -0.650803
v -256.380506 -436.683024 95.733996
v -256.380506 -407.638394 -0.650803
v -256.380506 -407.638394 95.733996
v -260.341913 -436.683024 65.360754
v -257.701621 -407.638394 -0.650803
v -257.701621 -407.638394 95.733996
v -257.701621 -436.683024 95.733996
v -260.341913 -412.920787 60.076810
v -260.341913 -436.683024 62.718782
v -260.341913 -416.881160 60.076810
v -260.341913 -416.881160 68.002726
f 511 510 515 
f 503 504 505 
f 504 503 506 
f 505 504 506 
f 505 506 507 
f 503 505 508 
f 506 503 509 
f 507 506 509 
f 505 507 510 
f 507 509 510 
f 508 505 511 
f 505 510 511 
f 508 502 512 
f 509 503 512 
f 502 510 512 
f 510 509 512 
f 503 508 513 
f 508 512 513 
f 513 512 514 
f 512 503 514 
f 503 513 514 
f 502 508 515 
f 510 502 515 
f 508 511 515 
o convex_30
v -257.700587 -444.608682 95.734513
v -253.739568 -407.635551 107.618217
v -257.700975 -407.635551 107.618217
v -257.700975 -444.608682 107.618217
v -256.380247 -407.635551 95.734513
v -253.739568 -444.608682 101.017969
v -253.739568 -443.284077 107.618217
v -253.739568 -407.635551 101.017969
v -257.700587 -407.635551 95.734513
v -256.380247 -444.608682 95.734513
v -253.739568 -444.608682 106.295608
v -255.060683 -444.608682 107.618217
v -257.700975 -444.608682 101.017969
v -257.700975 -407.635551 101.017969
f 528 518 529 
f 517 518 519 
f 518 517 520 
f 519 516 521 
f 517 519 522 
f 521 517 522 
f 520 517 523 
f 517 521 523 
f 521 520 523 
f 520 516 524 
f 518 520 524 
f 516 520 525 
f 520 521 525 
f 521 516 525 
f 519 521 526 
f 521 522 526 
f 526 522 527 
f 522 519 527 
f 519 526 527 
f 519 518 528 
f 516 519 528 
f 524 516 528 
f 524 528 529 
f 518 524 529 
o convex_31
v -235.248479 -431.401666 95.733996
v -210.171717 -407.635551 97.055241
v -207.527419 -424.809661 98.374547
v -248.453944 -407.635551 99.694240
v -248.453944 -447.249620 98.374159
v -207.527419 -447.245742 98.374547
v -248.453944 -407.635551 97.055241
v -210.171717 -407.635551 95.733996
v -207.527419 -447.245742 97.054853
v -248.453944 -447.249620 97.055241
v -210.171717 -424.809661 95.733996
v -218.092592 -407.635551 98.374159
v -220.736890 -407.635551 95.733996
v -247.127788 -411.606264 99.694240
v -245.809645 -407.635551 99.694240
v -207.527419 -424.809661 97.054853
v -235.248479 -427.442585 95.733996
v -223.373176 -428.760986 95.733996
v -248.453944 -411.606264 99.694240
v -233.926329 -431.401666 95.733996
v -245.809645 -408.965584 99.694240
v -214.130151 -426.124184 95.733996
v -224.695325 -412.920787 95.733996
v -210.171717 -447.249620 98.374159
v -210.171717 -447.249620 97.055241
v -210.167710 -447.245742 98.374547
v -210.167710 -447.245742 97.054853
f 538 539 556 
f 533 531 536 
f 534 533 536 
f 531 532 537 
f 536 531 537 
f 532 535 538 
f 534 536 539 
f 530 537 540 
f 537 538 540 
f 532 531 541 
f 531 533 541 
f 537 530 542 
f 536 537 542 
f 535 532 544 
f 532 541 544 
f 541 533 544 
f 533 543 544 
f 537 532 545 
f 532 538 545 
f 538 537 545 
f 530 539 546 
f 539 536 546 
f 542 530 546 
f 530 540 547 
f 533 534 548 
f 543 533 548 
f 535 543 548 
f 538 530 549 
f 530 547 549 
f 547 538 549 
f 543 535 550 
f 535 544 550 
f 544 543 550 
f 540 538 551 
f 538 547 551 
f 547 540 551 
f 536 542 552 
f 546 536 552 
f 542 546 552 
f 535 534 553 
f 538 535 553 
f 534 539 553 
f 553 539 554 
f 539 538 554 
f 538 553 554 
f 534 535 555 
f 548 534 555 
f 535 548 555 
f 530 538 556 
f 539 530 556 
o convex_32
v -244.492278 -407.635551 99.696567
v -219.410476 -407.635551 95.735289
v -219.410476 -406.314435 95.735289
v -210.167840 -403.674144 108.937394
v -245.811584 -404.995259 97.056146
v -248.453944 -406.314435 108.937394
v -210.167840 -406.314435 108.937394
v -248.453944 -403.674144 108.937394
v -210.167840 -404.995259 95.735289
v -210.167840 -407.635551 97.056146
v -247.130890 -407.635551 97.056146
v -248.453944 -403.674144 106.295680
v -248.453944 -404.995259 98.377002
v -210.167840 -403.674144 107.616537
v -248.453944 -407.635551 99.696567
v -216.771865 -407.635551 98.377002
v -210.167840 -407.635551 95.735289
v -218.091170 -404.995259 95.735289
v -248.453944 -407.635551 98.377002
v -247.130890 -406.314435 97.056146
v -247.130890 -403.674144 106.295680
f 568 570 577 
f 560 562 563 
f 562 560 564 
f 558 559 565 
f 560 563 565 
f 557 558 566 
f 565 563 566 
f 558 557 567 
f 559 558 567 
f 564 560 568 
f 562 564 568 
f 562 568 569 
f 568 561 569 
f 560 565 570 
f 568 560 570 
f 557 563 571 
f 563 562 571 
f 567 557 571 
f 562 569 571 
f 563 557 572 
f 557 566 572 
f 566 563 572 
f 558 565 573 
f 566 558 573 
f 565 566 573 
f 565 559 574 
f 561 568 574 
f 568 565 574 
f 569 567 575 
f 567 571 575 
f 571 569 575 
f 559 567 576 
f 569 561 576 
f 567 569 576 
f 574 559 576 
f 561 574 576 
f 565 568 577 
f 570 565 577 
o convex_33
v -203.561876 -406.315082 95.733996
v -203.561876 -447.249620 -0.650803
v -202.241795 -447.249620 -0.650803
v -203.561876 -447.249620 95.733996
v -204.882216 -406.315082 -0.650803
v -204.882216 -427.439483 95.733996
v -202.241795 -426.125218 -0.650803
v -202.241795 -447.249620 95.733996
v -204.882216 -427.439483 -0.650803
v -204.882216 -406.315082 95.733996
v -202.241795 -426.125218 95.733996
v -203.561876 -406.315082 -0.650803
f 584 582 589 
f 579 580 581 
f 580 579 582 
f 579 581 583 
f 581 578 583 
f 580 582 584 
f 581 580 585 
f 578 581 585 
f 580 584 585 
f 582 579 586 
f 579 583 586 
f 583 582 586 
f 578 582 587 
f 582 583 587 
f 583 578 587 
f 584 578 588 
f 578 585 588 
f 585 584 588 
f 582 578 589 
f 578 584 589 
o convex_34
v -210.164092 -401.034369 95.733996
v -207.522378 -406.315082 -0.650803
v -203.563039 -406.315082 -0.650803
v -203.563039 -399.712737 -0.650803
v -203.563039 -406.315082 95.733996
v -203.563039 -399.712737 95.733996
v -208.842589 -399.712737 -0.650803
v -207.522378 -406.315082 95.733996
v -210.164092 -402.354062 -0.650803
v -208.842589 -399.712737 95.733996
v -208.842589 -404.993449 95.733996
v -210.164092 -401.034369 -0.650803
v -210.164092 -402.354062 95.733996
v -208.842589 -404.993449 -0.650803
f 600 598 603 
f 592 591 593 
f 591 592 594 
f 592 593 594 
f 590 594 595 
f 594 593 595 
f 593 591 596 
f 595 593 596 
f 594 590 597 
f 591 594 597 
f 596 591 598 
f 590 595 599 
f 595 596 599 
f 591 597 600 
f 597 590 600 
f 596 598 601 
f 598 590 601 
f 590 599 601 
f 599 596 601 
f 590 598 602 
f 600 590 602 
f 598 600 602 
f 598 591 603 
f 591 600 603 
o convex_35
v -207.522378 -424.799191 107.616279
v -203.563039 -399.712737 110.259155
v -208.842589 -399.712737 110.259155
v -203.563039 -399.712737 95.736840
v -210.164092 -424.799191 95.736840
v -203.563039 -424.799191 95.736840
v -210.164092 -401.036307 95.736840
v -203.563039 -420.835846 108.937006
v -210.164092 -406.318313 108.937006
v -203.563039 -424.799191 107.616279
v -207.522378 -422.156961 108.937006
v -210.164092 -424.799191 98.376873
v -208.842589 -399.712737 95.736840
v -210.164092 -401.036307 108.937006
v -204.883250 -406.318313 110.259155
v -208.842589 -404.997197 110.259155
v -203.563039 -404.997197 110.259155
v -204.883250 -422.156961 108.937006
v -207.522378 -406.318313 110.259155
f 618 619 622 
f 606 605 607 
f 607 605 609 
f 604 608 609 
f 608 607 609 
f 607 608 610 
f 609 605 611 
f 610 608 612 
f 604 609 613 
f 609 611 613 
f 612 604 614 
f 608 604 615 
f 604 612 615 
f 612 608 615 
f 606 607 616 
f 610 606 616 
f 607 610 616 
f 606 610 617 
f 612 606 617 
f 610 612 617 
f 605 606 618 
f 606 612 619 
f 612 614 619 
f 618 606 619 
f 611 605 620 
f 605 618 620 
f 618 611 620 
f 604 613 621 
f 613 611 621 
f 614 604 621 
f 611 618 621 
f 618 614 621 
f 614 618 622 
f 619 614 622 
o convex_36
v -391.068342 -434.040278 98.374417
v -397.670040 -420.845927 98.374417
v -397.670040 -420.845927 99.694628
v -396.349183 -449.890558 99.694628
v -396.349183 -449.890558 95.733996
v -391.068342 -410.280366 97.054982
v -391.068342 -449.890558 95.733996
v -397.670040 -410.280366 97.054982
v -396.349183 -410.280366 99.694628
v -391.068342 -431.399857 95.733996
v -391.068342 -410.280366 98.374417
v -395.028973 -449.890558 99.694628
v -396.349183 -432.722006 95.733996
v -391.068342 -449.890558 97.054982
v -395.028973 -418.205506 99.694628
v -397.670040 -410.280366 99.694628
v -397.670040 -419.523778 97.054982
v -392.389844 -431.399857 95.733996
f 632 635 640 
f 625 624 627 
f 626 625 627 
f 626 627 629 
f 628 623 629 
f 624 625 630 
f 628 630 631 
f 625 626 631 
f 629 627 632 
f 628 629 632 
f 630 628 632 
f 623 628 633 
f 628 631 633 
f 626 629 634 
f 631 626 634 
f 623 633 634 
f 627 630 635 
f 632 627 635 
f 629 623 636 
f 623 634 636 
f 634 629 636 
f 633 631 637 
f 631 634 637 
f 634 633 637 
f 630 625 638 
f 631 630 638 
f 625 631 638 
f 627 624 639 
f 624 630 639 
f 630 627 639 
f 630 632 640 
f 635 630 640 
o convex_37
v -248.458985 -407.635551 99.694886
v -255.060037 -444.608682 97.054465
v -255.060037 -444.608682 101.015097
v -248.458985 -444.608682 97.054465
v -255.060037 -407.635551 98.375451
v -248.458985 -410.281142 97.054465
v -255.060037 -407.635551 101.015097
v -248.458985 -444.608682 98.375451
v -255.060037 -416.886072 97.054465
v -253.738534 -444.608682 101.015097
v -253.738534 -407.635551 101.015097
v -248.458985 -412.923114 99.694886
v -248.458985 -407.635551 98.375451
v -251.099405 -411.602128 97.054465
v -249.779195 -410.281142 97.054465
v -252.418324 -412.923114 97.054465
f 654 649 656 
f 643 642 644 
f 642 643 645 
f 644 642 646 
f 641 644 646 
f 641 645 647 
f 645 643 647 
f 643 644 648 
f 644 641 648 
f 642 645 649 
f 646 642 649 
f 647 643 650 
f 643 648 650 
f 641 647 651 
f 647 650 651 
f 651 650 652 
f 648 641 652 
f 650 648 652 
f 641 651 652 
f 645 641 653 
f 646 645 653 
f 641 646 653 
f 646 649 654 
f 645 646 655 
f 654 645 655 
f 646 654 655 
f 649 645 656 
f 645 654 656 
o convex_38
v -348.813334 -449.891075 107.618217
v -391.068342 -455.171917 101.017165
v -391.068342 -455.171917 106.296714
v -348.813334 -455.171917 101.017165
v -375.214442 -449.891075 101.017165
v -348.813334 -455.171917 107.618217
v -391.068342 -451.211802 106.296714
v -348.813334 -449.891075 101.017165
v -375.214442 -449.891075 107.618217
v -391.068342 -451.211802 101.017165
v -375.214442 -455.171917 107.618217
v -376.542149 -453.851189 107.618217
v -376.542149 -451.211802 107.618217
f 659 668 669 
f 659 658 660 
f 660 658 661 
f 659 660 662 
f 660 657 662 
f 658 659 663 
f 657 660 664 
f 661 657 664 
f 660 661 664 
f 657 661 665 
f 662 657 665 
f 661 663 665 
f 661 658 666 
f 658 663 666 
f 663 661 666 
f 659 662 667 
f 662 665 667 
f 667 665 668 
f 659 667 668 
f 663 659 669 
f 665 663 669 
f 668 665 669 
