o convex_0
v 32.178321 -144.840611 29.951637
v 32.178321 -182.672949 25.173751
v 54.079109 -182.672949 25.173751
v 32.178321 -144.840611 28.357761
v 54.076965 -147.632856 29.951637
v 32.178321 -181.869345 26.766691
v 54.076965 -144.840611 28.358229
v 54.079109 -181.869345 26.766691
v 54.079109 -179.084506 25.173751
v 32.178321 -179.084506 25.173751
v 32.178321 -147.632856 29.951637
v 54.076965 -144.840611 29.951637
v 54.076965 -157.187225 27.164693
v 32.178321 -182.672949 26.368222
v 54.079109 -177.892061 27.164693
v 32.178321 -157.187225 27.164693
v 54.079109 -182.672949 26.368222
v 32.178321 -177.892061 27.164693
v 54.076965 -148.825301 27.959760
v 32.178321 -148.825301 27.959760
v 32.178321 -165.941693 26.368222
v 54.076965 -165.941693 26.368222
v 53.678184 -144.840611 28.357761
v 54.079109 -175.099815 25.572220
v 54.079109 -175.503469 27.164693
v 54.079109 -175.099815 26.368222
f 25 24 26 
f 2 1 4 
f 1 2 6 
f 4 1 7 
f 3 2 9 
f 8 3 9 
f 2 4 10 
f 9 2 10 
f 5 1 11 
f 1 6 11 
f 1 5 12 
f 7 1 12 
f 2 3 14 
f 6 2 14 
f 8 6 14 
f 8 9 15 
f 12 5 15 
f 10 4 16 
f 3 8 17 
f 14 3 17 
f 8 14 17 
f 6 8 18 
f 5 11 18 
f 11 6 18 
f 8 15 18 
f 15 5 18 
f 7 9 19 
f 9 13 19 
f 13 16 19 
f 19 16 20 
f 16 4 20 
f 4 19 20 
f 9 10 21 
f 10 16 21 
f 16 13 21 
f 13 9 22 
f 9 21 22 
f 21 13 22 
f 4 7 23 
f 19 4 23 
f 7 19 23 
f 9 7 24 
f 7 12 24 
f 15 9 24 
f 15 24 25 
f 12 15 25 
f 12 25 26 
f 24 12 26 
o convex_1
v 27.795746 -169.528305 0.085327
v 29.388531 -153.601784 19.597523
v 29.388531 -153.601784 -0.314234
v 29.388531 -180.283538 19.597523
v 28.194098 -153.601784 19.597523
v 29.388531 -180.283538 -0.314234
v 27.795746 -176.300602 19.597523
v 27.795746 -155.994157 -0.314234
v 28.194098 -180.283538 -0.314234
v 28.194098 -180.283538 19.597523
v 27.795746 -155.197570 4.864460
v 28.194098 -153.601784 -0.314234
v 27.795746 -170.324892 19.597523
v 27.795746 -176.300602 18.402740
v 27.795746 -164.357017 -0.314234
v 27.795746 -155.197570 0.880550
v 27.795746 -158.381307 8.049250
v 27.795746 -157.584720 7.254027
f 37 43 44 
f 29 28 30 
f 28 29 31 
f 30 28 31 
f 29 30 32 
f 30 31 33 
f 29 32 34 
f 27 33 34 
f 34 32 35 
f 32 30 35 
f 30 33 36 
f 35 30 36 
f 33 35 36 
f 34 33 37 
f 31 29 38 
f 29 34 38 
f 37 31 38 
f 33 31 39 
f 37 33 39 
f 33 27 40 
f 35 33 40 
f 27 35 40 
f 27 34 41 
f 34 35 41 
f 35 27 41 
f 34 37 42 
f 38 34 42 
f 37 38 42 
f 39 31 43 
f 37 39 43 
f 31 37 44 
f 43 31 44 
o convex_2
v 31.777747 -146.434019 24.774073
v 29.786961 -148.822494 -0.314234
v 29.786961 -146.434019 -0.314234
v 29.786961 -148.822494 24.774073
v 31.777747 -148.822494 -0.314234
v 31.777747 -146.434019 -0.314234
v 29.786961 -146.434019 24.774073
v 31.777747 -148.822494 24.774073
f 48 49 52 
f 47 46 48 
f 46 47 49 
f 48 46 49 
f 47 45 50 
f 45 49 50 
f 49 47 50 
f 45 47 51 
f 47 48 51 
f 48 45 51 
f 45 48 52 
f 49 45 52 
o convex_3
v 27.397550 -176.300602 19.598030
v 29.388336 -153.601784 24.774073
v 29.388336 -153.601784 19.598030
v 29.388336 -180.283538 24.774073
v 28.193981 -153.601784 24.774073
v 29.388336 -180.283538 19.598030
v 28.193981 -180.283538 24.774073
v 28.193981 -153.601784 19.598030
v 27.397550 -170.324892 20.792852
v 28.193981 -180.283538 19.598030
v 27.397550 -170.324892 19.598030
v 27.397550 -176.300602 20.394578
v 27.397550 -173.111641 20.792852
f 64 59 65 
f 55 54 56 
f 54 55 57 
f 56 54 57 
f 53 55 58 
f 55 56 58 
f 58 56 59 
f 56 57 59 
f 55 53 60 
f 57 55 60 
f 57 60 61 
f 59 57 61 
f 53 58 62 
f 58 59 62 
f 59 53 62 
f 60 53 63 
f 61 60 63 
f 53 61 63 
f 53 59 64 
f 61 53 64 
f 61 64 65 
f 59 61 65 
o convex_4
v 46.910495 -132.893751 11.234585
v 46.910885 -138.069639 0.085196
v 46.910885 -137.671883 -0.313844
v 45.716171 -133.690275 10.038595
v 46.512712 -134.088538 11.234585
v 47.707230 -136.477604 0.483106
v 47.707230 -137.273621 2.473786
v 45.716171 -132.893751 10.437635
v 46.512907 -136.875359 0.085196
v 46.512907 -137.273621 2.473786
v 46.910495 -132.893751 10.038595
v 47.308862 -134.884555 8.446956
v 45.716171 -133.690275 11.234585
v 46.910885 -135.681079 2.473786
v 47.707230 -137.671883 -0.313844
v 47.308862 -138.069639 0.483106
v 46.114734 -134.088538 11.234585
v 47.308862 -134.486293 8.446956
v 46.910885 -136.875359 -0.313844
v 46.512907 -137.273621 0.085196
v 47.707230 -136.477604 3.269606
v 46.910495 -134.088538 10.835545
v 46.114734 -132.893751 10.038595
v 46.512907 -136.079341 1.677966
v 45.716171 -132.893751 11.234585
v 47.707230 -136.875359 -0.313844
v 46.910495 -133.292520 8.844865
v 46.910885 -138.069639 0.483106
v 46.910495 -133.690275 11.234585
v 47.707230 -137.671883 1.280056
v 46.910495 -134.486293 10.038595
v 46.910885 -136.477604 0.483106
f 84 89 97 
f 69 73 74 
f 73 66 76 
f 70 66 78 
f 73 69 78 
f 69 75 78 
f 67 68 80 
f 71 72 80 
f 72 70 81 
f 67 80 81 
f 70 78 82 
f 78 75 82 
f 81 70 82 
f 76 66 83 
f 71 76 83 
f 66 77 83 
f 68 74 84 
f 80 68 84 
f 68 67 85 
f 74 68 85 
f 69 74 85 
f 75 69 85 
f 67 75 85 
f 72 71 86 
f 77 72 86 
f 71 83 86 
f 83 77 86 
f 73 76 88 
f 88 79 89 
f 74 73 89 
f 84 74 89 
f 73 88 89 
f 66 73 90 
f 78 66 90 
f 73 78 90 
f 71 80 91 
f 84 71 91 
f 80 84 91 
f 76 71 92 
f 71 79 92 
f 88 76 92 
f 79 88 92 
f 75 67 93 
f 67 81 93 
f 82 75 93 
f 81 82 93 
f 66 70 94 
f 77 66 94 
f 70 87 94 
f 87 77 94 
f 80 72 95 
f 72 81 95 
f 81 80 95 
f 70 72 96 
f 72 77 96 
f 87 70 96 
f 77 87 96 
f 79 71 97 
f 71 84 97 
f 89 79 97 
o convex_5
v 46.114406 -132.894024 0.085196
v 47.309003 -138.069756 10.437635
v 47.706942 -138.069756 10.437635
v 46.911064 -134.088657 8.046785
v 47.309003 -132.894024 -0.313844
v 46.513125 -136.476911 3.668646
v 46.114601 -135.283798 8.046785
v 48.105075 -136.875122 11.234585
v 47.308613 -136.476911 3.668646
v 46.911064 -137.671544 11.234585
v 46.114601 -134.088657 8.046785
v 46.114406 -134.088657 0.085196
v 48.105075 -137.273333 8.844865
v 47.309003 -132.894024 1.280056
v 47.309003 -133.690446 -0.313844
v 46.911064 -136.875122 11.234585
v 48.105075 -138.069756 11.234585
v 47.308613 -134.487375 8.046785
v 46.114601 -135.283798 5.262546
v 46.114406 -132.894024 0.881016
v 46.114406 -133.690446 -0.313844
v 48.105075 -136.875122 8.844865
v 48.105075 -138.069756 10.834415
v 46.911064 -137.671544 9.640685
v 46.910869 -134.088657 0.085196
v 46.512735 -132.894024 -0.313844
v 47.309003 -138.069756 11.234585
v 47.707137 -134.885080 6.455145
v 46.910869 -132.894024 1.280056
v 47.707137 -134.885080 4.067686
v 47.707137 -135.680489 4.465596
v 48.105075 -137.671544 9.640685
f 110 120 129 
f 100 99 103 
f 100 103 106 
f 105 101 108 
f 104 107 108 
f 106 103 109 
f 102 98 111 
f 105 102 111 
f 108 101 111 
f 107 105 113 
f 105 108 113 
f 108 107 113 
f 99 100 114 
f 105 107 114 
f 110 105 114 
f 101 105 115 
f 111 101 115 
f 107 104 116 
f 104 109 116 
f 109 103 116 
f 104 108 117 
f 98 109 117 
f 109 104 117 
f 111 98 117 
f 109 98 118 
f 102 112 118 
f 112 109 118 
f 102 105 119 
f 105 110 119 
f 100 106 120 
f 114 100 120 
f 110 114 120 
f 103 99 121 
f 99 107 121 
f 116 103 121 
f 107 116 121 
f 106 109 122 
f 109 112 122 
f 112 106 122 
f 98 102 123 
f 118 98 123 
f 102 118 123 
f 107 99 124 
f 99 114 124 
f 114 107 124 
f 105 111 125 
f 115 105 125 
f 111 115 125 
f 108 111 126 
f 117 108 126 
f 111 117 126 
f 112 102 127 
f 110 112 127 
f 102 119 127 
f 119 110 127 
f 110 106 128 
f 106 112 128 
f 112 110 128 
f 106 110 129 
f 120 106 129 
o convex_6
v 57.265107 -180.283538 -0.314234
v 58.459579 -153.601784 24.772124
v 58.459579 -153.601784 -0.314234
v 57.265107 -153.601784 24.772124
v 58.459579 -180.283538 24.772124
v 57.265107 -180.283538 24.772124
v 58.459579 -180.283538 -0.314234
v 57.265107 -153.601784 -0.314234
f 130 133 137 
f 131 132 133 
f 132 131 134 
f 131 133 134 
f 133 130 135 
f 130 134 135 
f 134 133 135 
f 130 132 136 
f 134 130 136 
f 132 134 136 
f 132 130 137 
f 133 132 137 
o convex_7
v 54.477578 -148.822494 -0.314234
v 56.866755 -146.434019 24.772124
v 56.866755 -148.822494 24.772124
v 54.477578 -146.434019 24.772124
v 56.866755 -146.434019 -0.314234
v 54.477578 -146.434019 -0.314234
v 56.866755 -148.822494 -0.314234
v 54.477578 -148.822494 24.772124
f 141 138 145 
f 140 139 141 
f 139 140 142 
f 141 139 142 
f 138 141 143 
f 142 138 143 
f 141 142 143 
f 140 138 144 
f 138 142 144 
f 142 140 144 
f 138 140 145 
f 140 141 145 
o convex_8
v 54.079538 -182.669986 26.367988
v 57.662641 -152.410041 29.155167
v 54.079538 -152.410041 29.155167
v 58.459267 -153.606812 24.774580
v 58.459267 -180.279406 25.969636
v 54.079538 -179.085597 25.172932
v 54.079538 -153.206901 27.561758
v 58.459267 -180.279406 24.774580
v 57.662641 -181.873126 26.766341
v 57.264328 -153.606812 24.774580
v 58.459267 -155.597481 28.358462
v 54.079538 -155.994430 29.155167
v 57.662641 -155.994430 29.155167
v 54.079538 -177.888826 27.163406
v 54.079538 -182.669986 25.172932
v 57.662641 -182.669986 25.172932
v 57.264328 -180.279406 24.774580
v 54.079538 -152.410041 27.960110
v 58.459267 -153.606812 28.358462
v 57.662641 -152.410041 27.960110
v 54.079538 -181.873126 26.766341
v 57.662641 -182.669986 26.367988
v 57.662641 -177.888826 27.163406
v 54.079538 -157.191201 27.163406
v 58.459267 -176.695017 26.367988
v 58.459267 -159.978730 27.960110
v 57.662641 -164.756928 28.358462
v 54.079538 -164.756928 28.358462
f 159 172 173 
f 146 148 151 
f 151 148 152 
f 149 150 153 
f 149 153 155 
f 150 149 156 
f 148 146 157 
f 147 148 157 
f 156 147 158 
f 147 157 158 
f 157 146 159 
f 146 151 160 
f 151 155 160 
f 153 150 161 
f 146 160 161 
f 160 153 161 
f 155 153 162 
f 153 160 162 
f 160 155 162 
f 148 147 163 
f 152 148 163 
f 149 155 163 
f 155 152 163 
f 149 147 164 
f 147 156 164 
f 156 149 164 
f 147 149 165 
f 163 147 165 
f 149 163 165 
f 146 154 166 
f 159 146 166 
f 154 159 166 
f 154 146 167 
f 150 154 167 
f 161 150 167 
f 146 161 167 
f 159 154 168 
f 151 152 169 
f 152 155 169 
f 155 151 169 
f 154 150 170 
f 150 156 170 
f 168 154 170 
f 168 170 171 
f 156 158 171 
f 170 156 171 
f 171 158 172 
f 159 168 172 
f 168 171 172 
f 158 157 173 
f 157 159 173 
f 172 158 173 
o convex_9
v 54.079109 -152.407078 29.154504
v 57.663226 -144.841351 29.951637
v 54.079109 -144.841351 29.951637
v 56.866132 -146.434331 24.774580
v 57.663226 -152.407078 27.959565
v 54.478007 -148.821949 24.774580
v 57.663226 -151.609478 29.553324
v 54.079109 -144.841351 28.357878
v 54.478007 -146.434331 24.774580
v 54.079109 -152.407078 27.959565
v 57.663226 -144.841351 28.357878
v 56.866132 -148.821949 24.774580
v 54.079109 -147.628880 29.951637
v 54.079109 -151.609478 29.553324
v 57.663226 -147.628880 29.951637
v 57.663226 -152.407078 29.154504
v 57.663226 -148.821949 27.959565
v 54.079109 -148.821949 27.959565
f 182 183 191 
f 178 175 180 
f 174 176 181 
f 176 175 181 
f 177 179 182 
f 181 177 182 
f 178 174 183 
f 179 178 183 
f 174 181 183 
f 182 179 183 
f 175 178 184 
f 181 175 184 
f 177 181 184 
f 179 177 185 
f 178 179 185 
f 176 174 186 
f 175 176 186 
f 180 186 187 
f 174 180 187 
f 186 174 187 
f 180 175 188 
f 175 186 188 
f 186 180 188 
f 174 178 189 
f 180 174 189 
f 178 180 189 
f 177 184 190 
f 184 178 190 
f 185 177 190 
f 178 185 190 
f 181 182 191 
f 183 181 191 
o convex_10
v 22.220298 -169.531189 0.085561
v 27.795590 -159.974481 8.844278
v 22.220298 -159.974481 8.844278
v 22.220298 -155.991818 -0.312441
v 27.795590 -164.352885 -0.312441
v 27.795590 -168.734095 5.658475
v 27.795590 -155.194724 0.881563
v 22.220298 -155.194724 4.862472
v 22.220298 -167.538454 6.454477
v 27.795590 -169.531189 0.085561
v 27.795590 -155.194724 4.862472
v 22.220298 -169.531189 3.668469
v 27.795590 -155.991818 -0.312441
v 27.795590 -164.751432 7.649378
v 27.795590 -158.383100 8.047379
v 22.220298 -164.352885 -0.312441
v 22.220298 -155.194724 0.881563
v 27.795590 -169.531189 3.668469
v 22.220298 -160.770172 8.844278
v 22.220298 -158.383100 8.047379
v 22.220298 -168.734095 5.658475
v 22.220298 -164.751432 7.649378
v 27.795590 -160.770172 8.844278
v 27.795590 -167.538454 6.454477
v 22.220298 -169.131239 4.862472
v 27.795590 -169.131239 4.862472
v 22.220298 -157.584603 7.251376
v 27.795590 -157.584603 7.251376
v 22.220298 -159.177387 8.445380
v 27.795590 -159.177387 8.445380
f 206 220 221 
f 192 194 195 
f 196 193 197 
f 193 196 198 
f 195 194 199 
f 194 192 200 
f 196 197 201 
f 193 198 202 
f 198 199 202 
f 200 192 203 
f 192 201 203 
f 196 195 204 
f 195 198 204 
f 198 196 204 
f 197 193 205 
f 193 202 206 
f 192 195 207 
f 195 196 207 
f 201 192 207 
f 196 201 207 
f 198 195 208 
f 195 199 208 
f 199 198 208 
f 201 197 209 
f 203 201 209 
f 193 194 210 
f 194 200 210 
f 199 194 211 
f 197 200 212 
f 200 203 212 
f 200 205 213 
f 210 200 213 
f 205 210 213 
f 205 193 214 
f 193 210 214 
f 210 205 214 
f 200 197 215 
f 197 205 215 
f 205 200 215 
f 203 209 216 
f 197 212 216 
f 212 203 216 
f 209 197 217 
f 197 216 217 
f 216 209 217 
f 202 199 218 
f 199 211 218 
f 211 206 218 
f 206 202 219 
f 202 218 219 
f 218 206 219 
f 194 193 220 
f 211 194 220 
f 206 211 220 
f 193 206 221 
f 220 193 221 
o convex_11
v 25.408206 -141.653950 12.429291
v 38.547939 -134.088262 12.429291
v 38.547939 -134.088262 11.632898
v 38.547939 -140.458465 12.429291
v 28.195462 -142.449796 11.234585
v 25.804492 -136.876298 11.234585
v 25.007944 -136.876298 12.429291
v 38.547939 -140.458465 11.632898
v 27.398914 -142.849435 12.429291
v 25.804492 -142.849435 11.632898
v 36.953517 -134.088262 11.632898
v 25.007944 -136.876298 11.632898
v 27.797851 -136.080451 12.429291
v 27.001303 -136.876298 11.234585
v 27.398914 -142.849435 11.632898
v 36.953517 -134.088262 12.429291
v 27.001303 -142.051873 11.234585
v 27.797851 -136.080451 11.632898
v 25.408206 -141.653950 11.632898
v 25.804492 -142.849435 12.429291
v 31.381655 -142.051873 11.632898
v 25.007944 -138.070925 11.632898
v 28.195462 -141.256026 11.234585
v 31.381655 -142.051873 12.429291
v 25.007944 -138.070925 12.429291
v 26.204755 -136.479232 11.632898
v 25.804492 -137.275078 11.234585
v 27.398914 -142.449796 11.234585
v 26.204755 -136.479232 12.429291
f 234 247 250 
f 224 223 225 
f 223 222 225 
f 222 223 228 
f 224 225 229 
f 226 224 229 
f 225 222 230 
f 223 224 232 
f 224 227 232 
f 228 223 234 
f 227 224 235 
f 226 227 235 
f 231 226 236 
f 230 231 236 
f 223 232 237 
f 234 223 237 
f 232 234 237 
f 227 226 238 
f 232 227 239 
f 234 232 239 
f 231 222 240 
f 238 231 240 
f 230 222 241 
f 222 231 241 
f 231 230 241 
f 226 229 242 
f 236 226 242 
f 230 236 242 
f 228 233 243 
f 233 227 243 
f 240 222 243 
f 224 226 244 
f 235 224 244 
f 226 235 244 
f 229 225 245 
f 225 230 245 
f 242 229 245 
f 230 242 245 
f 222 228 246 
f 243 222 246 
f 228 243 246 
f 233 228 247 
f 227 233 247 
f 239 227 247 
f 234 239 247 
f 227 238 248 
f 238 240 248 
f 243 227 248 
f 240 243 248 
f 226 231 249 
f 238 226 249 
f 231 238 249 
f 228 234 250 
f 247 228 250 
o convex_12
v 28.592528 -182.672949 26.367988
v 32.175787 -152.805313 29.155167
v 32.175787 -152.805313 27.960110
v 28.194215 -153.603460 24.774580
v 32.175787 -182.672949 25.172932
v 28.592528 -152.805313 29.155167
v 28.194215 -180.281433 24.774580
v 32.175787 -181.874802 26.766341
v 29.388765 -153.603460 24.774580
v 28.592528 -155.992052 29.155167
v 28.194215 -155.597364 28.358462
v 28.592528 -181.874802 26.766341
v 32.175787 -157.190734 27.163406
v 32.175787 -155.992052 29.155167
v 32.175787 -179.085675 25.172932
v 29.388765 -180.281433 24.774580
v 28.194215 -180.281433 25.969636
v 28.592528 -182.672949 25.172932
v 28.592528 -177.889917 27.163406
v 32.175787 -153.208772 27.561758
v 28.592528 -152.805313 27.960110
v 32.175787 -182.672949 26.367988
v 28.194215 -153.603460 28.358462
v 32.175787 -177.889917 27.163406
v 28.194215 -176.697083 26.367988
v 28.194215 -159.976937 27.960110
v 28.592528 -160.374549 28.756815
v 32.175787 -160.374549 28.756815
v 32.175787 -174.703178 25.571284
f 263 265 279 
f 253 252 255 
f 252 253 256 
f 255 252 258 
f 254 253 259 
f 257 254 259 
f 252 256 260 
f 254 257 261 
f 260 256 261 
f 251 258 262 
f 253 255 263 
f 258 252 264 
f 252 260 264 
f 255 259 265 
f 263 255 265 
f 255 257 266 
f 259 255 266 
f 257 259 266 
f 257 251 267 
f 261 257 267 
f 251 262 267 
f 255 251 268 
f 251 257 268 
f 257 255 268 
f 262 258 269 
f 259 253 270 
f 253 263 270 
f 263 259 270 
f 253 254 271 
f 256 253 271 
f 254 256 271 
f 251 255 272 
f 258 251 272 
f 255 258 272 
f 256 254 273 
f 254 261 273 
f 261 256 273 
f 258 264 274 
f 269 258 274 
f 261 267 275 
f 267 262 275 
f 262 269 275 
f 275 269 276 
f 261 275 276 
f 261 276 277 
f 260 261 277 
f 264 260 277 
f 269 274 277 
f 276 269 277 
f 274 264 278 
f 264 277 278 
f 277 274 278 
f 259 263 279 
f 265 259 279 
o convex_13
v 28.592060 -152.804534 29.154504
v 32.176177 -144.841390 29.951637
v 28.592060 -144.841390 29.951637
v 31.777630 -146.434642 24.774580
v 32.176177 -152.804534 29.154504
v 29.787351 -148.822962 24.774580
v 28.592060 -144.841390 28.357878
v 32.176177 -152.804534 27.959565
v 28.592060 -152.804534 27.959565
v 29.787351 -146.434642 24.774580
v 28.592060 -151.609594 29.553324
v 31.777630 -148.822962 24.774580
v 32.176177 -144.841390 28.357878
v 32.176177 -147.628802 29.951637
v 32.176177 -151.609594 29.553324
v 28.592060 -147.628802 29.951637
v 28.592060 -148.822962 27.959565
v 32.176177 -148.822962 27.959565
f 292 287 297 
f 280 282 286 
f 282 281 286 
f 284 280 287 
f 281 284 287 
f 285 287 288 
f 280 286 288 
f 287 280 288 
f 283 285 289 
f 286 283 289 
f 285 288 289 
f 282 280 290 
f 280 284 290 
f 285 283 291 
f 283 287 291 
f 287 285 291 
f 286 281 292 
f 283 286 292 
f 281 287 292 
f 281 282 293 
f 284 281 293 
f 293 290 294 
f 290 284 294 
f 284 293 294 
f 282 290 295 
f 293 282 295 
f 290 293 295 
f 288 286 296 
f 286 289 296 
f 289 288 296 
f 287 283 297 
f 283 292 297 
o convex_14
v 27.795317 -170.327659 19.597523
v 25.007944 -176.301187 8.450760
v 25.406569 -176.301187 8.450760
v 25.804648 -170.327659 -0.314234
v 25.007944 -170.727025 14.021218
v 27.795317 -176.301187 19.597523
v 25.007944 -173.115617 -0.314234
v 26.203000 -173.115617 2.474894
v 27.795317 -170.327659 14.416880
v 26.998886 -176.301187 19.197963
v 27.795317 -176.301187 17.207957
v 25.007944 -176.301187 12.029262
v 25.007944 -170.327659 -0.314234
v 25.804648 -173.115617 -0.314234
v 26.600534 -170.727025 18.402740
v 27.795317 -173.115617 14.416880
v 25.007944 -173.513229 14.021218
v 27.396965 -170.327659 19.597523
v 25.007944 -170.327659 3.270116
v 26.600534 -173.910840 18.402740
v 26.998886 -170.327659 18.003179
v 26.203000 -176.301187 11.234040
v 27.396965 -176.301187 19.597523
v 26.203000 -170.327659 2.474894
v 27.396965 -176.301187 15.613613
v 26.998886 -173.513229 19.197963
v 26.203000 -176.301187 16.410785
v 26.600534 -170.327659 15.216001
f 318 316 325 
f 299 300 303 
f 300 299 304 
f 299 302 304 
f 301 298 306 
f 298 303 306 
f 299 303 307 
f 303 300 308 
f 306 303 308 
f 302 299 309 
f 299 307 309 
f 298 301 310 
f 301 304 310 
f 304 302 310 
f 300 304 311 
f 304 301 311 
f 301 305 311 
f 305 308 311 
f 305 306 313 
f 308 305 313 
f 306 308 313 
f 302 309 314 
f 312 302 314 
f 303 298 315 
f 298 310 315 
f 302 312 315 
f 310 302 316 
f 315 310 316 
f 307 312 317 
f 314 307 317 
f 312 314 317 
f 302 315 318 
f 315 316 318 
f 308 300 319 
f 300 311 319 
f 307 303 320 
f 303 315 320 
f 315 307 320 
f 305 301 321 
f 301 306 321 
f 306 305 321 
f 311 308 322 
f 308 319 322 
f 319 311 322 
f 312 307 323 
f 307 315 323 
f 315 312 323 
f 309 307 324 
f 314 309 324 
f 307 314 324 
f 316 302 325 
f 302 318 325 
o convex_15
v 47.309086 -138.069054 11.234585
v 47.706905 -132.097866 12.429291
v 48.900363 -134.885044 12.429291
v 38.548641 -140.061009 12.429135
v 38.947512 -133.692210 11.632821
v 46.910214 -132.497036 11.234585
v 43.326683 -134.089821 12.827526
v 49.299235 -138.069054 12.429291
v 38.548641 -140.061009 11.632821
v 38.548641 -134.089821 12.429135
v 45.714651 -137.671442 12.827526
v 49.299235 -136.078658 11.632976
v 40.539842 -140.061009 11.632821
v 45.715704 -132.497036 11.234585
v 46.114575 -132.097866 12.429291
v 49.299235 -138.069054 11.632976
v 45.714651 -134.089821 12.827526
v 42.529991 -136.079437 12.827526
v 40.539842 -140.061009 12.429135
v 47.706905 -132.097866 11.632976
v 48.104725 -138.069054 11.234585
v 38.548641 -134.089821 11.632821
v 38.947512 -133.692210 12.429135
v 46.114575 -132.097866 11.632976
v 43.724502 -137.671442 12.827526
v 49.299235 -136.078658 12.429291
v 45.715704 -133.691430 11.234585
v 47.706905 -138.468225 12.429291
v 48.104725 -136.875440 11.234585
v 46.910214 -137.672222 11.234585
v 47.706905 -138.468225 11.632976
v 48.900363 -134.885044 11.632976
f 331 345 357 
f 334 329 335 
f 329 334 338 
f 334 326 338 
f 331 326 339 
f 332 327 340 
f 337 333 341 
f 328 327 342 
f 327 332 342 
f 332 336 342 
f 336 333 342 
f 332 335 343 
f 335 329 343 
f 336 332 343 
f 336 329 344 
f 329 338 344 
f 327 328 345 
f 331 339 345 
f 340 327 345 
f 326 331 346 
f 338 326 346 
f 337 341 346 
f 335 330 347 
f 334 335 347 
f 330 339 347 
f 339 334 347 
f 330 335 348 
f 335 332 348 
f 332 340 348 
f 340 330 348 
f 339 330 349 
f 330 340 349 
f 345 339 349 
f 340 345 349 
f 329 336 350 
f 343 329 350 
f 336 343 350 
f 337 328 351 
f 333 337 351 
f 328 342 351 
f 342 333 351 
f 339 326 352 
f 334 339 352 
f 333 336 353 
f 341 333 353 
f 336 344 353 
f 344 338 353 
f 331 337 354 
f 346 331 354 
f 337 346 354 
f 326 334 355 
f 352 326 355 
f 334 352 355 
f 338 346 356 
f 346 341 356 
f 341 353 356 
f 353 338 356 
f 328 337 357 
f 337 331 357 
f 345 328 357 
o convex_16
v 44.919481 -138.070223 13.226034
v 45.716164 -134.088652 15.614509
v 46.114506 -134.089041 15.614509
v 46.114506 -134.487354 12.429291
v 42.530290 -135.283591 12.827838
v 44.123656 -137.671910 16.013407
v 46.512418 -137.273207 15.614509
v 43.326973 -134.088652 15.614509
v 46.512418 -137.273207 12.429291
v 46.910760 -134.885667 15.614509
v 42.929489 -136.875284 15.614509
v 43.326973 -134.088652 12.827838
v 43.725315 -137.671910 12.827838
v 44.919481 -134.885667 16.013407
v 45.316965 -138.070223 15.614509
v 46.910760 -134.885667 14.022426
v 42.530290 -136.079437 12.827838
v 45.716164 -134.088652 12.827838
v 42.929489 -134.885667 15.614509
v 46.910760 -136.079048 15.614509
v 43.725315 -137.671910 15.614509
v 42.530290 -135.283591 14.022426
v 45.716164 -137.273207 12.429291
v 46.512418 -134.885667 12.429291
v 45.316965 -136.079437 16.013407
v 42.929489 -136.875284 12.827838
v 46.114506 -137.672300 14.420272
v 45.316965 -138.070223 13.226034
v 45.716164 -134.487354 12.429291
v 44.123656 -136.079437 16.013407
v 46.512418 -134.487354 13.624230
v 46.910760 -135.681904 14.022426
f 373 377 389 
f 365 359 369 
f 362 365 369 
f 360 359 371 
f 359 365 371 
f 367 360 371 
f 364 363 372 
f 360 367 373 
f 359 360 375 
f 369 359 375 
f 361 369 375 
f 368 363 376 
f 364 366 377 
f 373 367 377 
f 363 368 378 
f 370 358 378 
f 368 370 378 
f 358 372 378 
f 372 363 378 
f 365 362 379 
f 362 374 379 
f 374 368 379 
f 376 365 379 
f 368 376 379 
f 361 366 380 
f 366 370 380 
f 374 362 380 
f 366 361 381 
f 373 366 381 
f 363 364 382 
f 371 363 382 
f 367 371 382 
f 364 377 382 
f 377 367 382 
f 370 368 383 
f 368 374 383 
f 380 370 383 
f 374 380 383 
f 366 364 384 
f 364 372 384 
f 384 372 385 
f 358 370 385 
f 370 366 385 
f 372 358 385 
f 366 384 385 
f 369 361 386 
f 362 369 386 
f 361 380 386 
f 380 362 386 
f 363 371 387 
f 371 365 387 
f 365 376 387 
f 376 363 387 
f 360 373 388 
f 375 360 388 
f 361 375 388 
f 381 361 388 
f 373 381 388 
f 366 373 389 
f 377 366 389 
o convex_17
v 45.715860 -135.283542 17.208839
v 43.725142 -142.051878 20.393799
v 42.929042 -142.051878 20.393799
v 45.317342 -134.486497 19.198796
v 44.123348 -136.080587 16.013836
v 43.327248 -144.043556 19.597130
v 44.919448 -137.274284 16.013836
v 45.715860 -136.477239 19.198796
v 44.521554 -134.885955 18.800461
v 42.530524 -142.449465 19.597130
v 44.123348 -137.671871 16.013836
v 44.919448 -134.885955 16.013836
v 42.530524 -144.043556 19.597130
v 43.725142 -143.246510 20.393799
v 45.317342 -136.875762 16.810505
v 44.521554 -135.682065 19.597130
v 45.317342 -135.682065 19.597130
v 42.530524 -142.847988 20.393799
v 45.715860 -134.486497 18.800461
v 44.521554 -134.885955 16.013836
v 42.530524 -144.043556 20.393799
v 44.123348 -136.080587 18.402127
v 45.317342 -135.283542 16.013836
v 43.725142 -143.246510 19.995036
v 45.715860 -136.477239 18.800461
v 45.715860 -134.486497 18.004221
v 44.919448 -134.486497 19.198796
v 44.521554 -137.671871 16.013836
v 43.725142 -142.847988 19.199224
v 43.327248 -144.043556 20.393799
v 42.530524 -142.449465 19.995036
v 45.317342 -136.080587 16.013836
f 412 390 421 
f 394 396 400 
f 399 394 400 
f 396 394 401 
f 400 395 402 
f 399 400 402 
f 391 392 403 
f 392 391 405 
f 391 403 406 
f 403 397 406 
f 405 391 406 
f 393 405 406 
f 399 402 407 
f 403 392 407 
f 392 405 407 
f 397 390 408 
f 393 406 408 
f 406 397 408 
f 394 398 409 
f 401 394 409 
f 402 395 410 
f 407 402 410 
f 403 407 410 
f 398 394 411 
f 394 399 411 
f 396 401 412 
f 403 395 413 
f 397 403 413 
f 413 404 414 
f 390 397 414 
f 404 390 414 
f 397 413 414 
f 408 390 415 
f 393 408 415 
f 401 409 415 
f 412 401 415 
f 390 412 415 
f 405 393 416 
f 398 405 416 
f 409 398 416 
f 393 415 416 
f 415 409 416 
f 396 395 417 
f 395 400 417 
f 400 396 417 
f 395 396 418 
f 396 404 418 
f 413 395 418 
f 404 413 418 
f 395 403 419 
f 410 395 419 
f 403 410 419 
f 405 398 420 
f 399 407 420 
f 407 405 420 
f 398 411 420 
f 411 399 420 
f 390 404 421 
f 404 396 421 
f 396 412 421 
o convex_18
v 26.601134 -136.876375 0.084800
v 26.999307 -142.051990 10.038030
v 27.795458 -142.051990 10.038030
v 27.397285 -140.857773 11.234001
v 27.397285 -138.071099 -0.314234
v 28.193825 -141.256015 11.234001
v 26.202766 -138.468833 0.482703
v 26.202766 -137.672858 2.474480
v 27.397285 -137.274617 1.677543
v 26.999307 -142.051990 11.234001
v 28.193825 -142.051990 10.437064
v 26.999307 -140.857773 10.834967
v 27.397285 -137.274617 -0.314234
v 26.202766 -137.274617 -0.314234
v 26.600939 -140.460039 7.650612
v 27.795458 -141.654256 8.844321
v 28.193825 -141.256015 9.640127
v 27.795458 -140.857773 11.234001
v 26.601134 -137.274617 1.677543
v 26.999112 -139.265822 2.474480
v 26.600939 -140.460039 5.659965
v 26.600939 -139.663557 7.650612
v 26.202766 -138.468833 2.872383
v 26.202766 -138.071099 -0.314234
v 28.193825 -142.051990 11.234001
v 27.795458 -139.663557 8.048515
v 26.999112 -136.876375 0.482703
v 26.202766 -137.274617 1.279640
v 26.999307 -141.256015 11.234001
v 28.193825 -141.654256 9.640127
v 26.999307 -140.460039 10.038030
v 26.999307 -141.654256 8.844321
f 423 442 453 
f 423 424 431 
f 427 425 431 
f 431 424 432 
f 430 427 434 
f 428 429 435 
f 422 434 435 
f 434 426 435 
f 423 431 436 
f 424 423 437 
f 432 424 437 
f 426 432 437 
f 427 432 438 
f 426 434 438 
f 434 427 438 
f 425 427 439 
f 430 425 439 
f 425 430 440 
f 428 426 441 
f 426 437 441 
f 423 436 442 
f 436 428 442 
f 428 441 442 
f 436 431 443 
f 436 443 444 
f 429 428 444 
f 428 436 444 
f 443 429 444 
f 426 428 445 
f 435 426 445 
f 428 435 445 
f 427 431 446 
f 432 427 446 
f 431 432 446 
f 427 430 447 
f 439 427 447 
f 430 439 447 
f 434 422 448 
f 430 434 448 
f 440 430 448 
f 440 448 449 
f 422 435 449 
f 435 429 449 
f 429 440 449 
f 448 422 449 
f 431 425 450 
f 425 433 450 
f 433 443 450 
f 443 431 450 
f 432 426 451 
f 426 438 451 
f 438 432 451 
f 433 425 452 
f 425 440 452 
f 440 429 452 
f 429 443 452 
f 443 433 452 
f 437 423 453 
f 441 437 453 
f 442 441 453 
o convex_19
v 26.202650 -136.876181 10.834967
v 26.999120 -142.052458 0.084800
v 26.999120 -141.654166 -0.314234
v 27.795590 -139.265427 6.854805
v 26.202650 -138.867134 9.640127
v 27.795434 -140.460303 0.881737
v 27.795434 -142.052458 0.881737
v 26.600885 -140.460303 1.279640
v 26.999120 -136.876181 11.234001
v 26.999120 -138.071057 11.234001
v 26.600885 -141.256380 3.269155
v 26.202650 -138.468842 6.455772
v 27.397355 -138.071057 7.252708
v 26.600885 -139.265427 3.668189
v 27.397355 -138.867134 9.242224
v 26.202650 -138.071057 11.234001
v 27.795434 -141.256380 -0.314234
v 26.202650 -139.265427 6.057869
v 26.999120 -136.876181 10.437064
v 26.999120 -140.857581 0.084800
v 26.600885 -141.256380 1.279640
v 27.397199 -141.256380 3.269155
v 27.397199 -139.265427 3.668189
v 27.795434 -139.265427 4.463995
v 27.795590 -139.663212 6.854805
v 27.795434 -142.052458 0.084800
v 26.999120 -142.052458 0.881737
v 26.600885 -138.867134 9.640127
v 26.202650 -136.876181 11.234001
v 26.202650 -139.265427 8.445287
v 26.600885 -136.876181 10.437064
v 27.795434 -140.857581 4.066092
f 460 478 485 
f 458 454 465 
f 461 465 467 
f 465 454 467 
f 457 462 468 
f 462 463 468 
f 454 458 469 
f 458 463 469 
f 463 462 469 
f 459 457 470 
f 465 461 471 
f 458 465 471 
f 454 462 472 
f 462 457 472 
f 457 466 472 
f 456 461 473 
f 467 459 473 
f 461 467 473 
f 470 456 473 
f 459 470 473 
f 456 455 474 
f 461 456 474 
f 455 464 474 
f 464 471 474 
f 471 461 474 
f 464 460 475 
f 458 464 475 
f 459 467 476 
f 472 466 476 
f 467 472 476 
f 457 459 477 
f 466 457 477 
f 459 476 477 
f 476 466 477 
f 457 468 478 
f 470 457 478 
f 470 478 479 
f 455 456 479 
f 460 455 479 
f 456 470 479 
f 478 460 479 
f 455 460 480 
f 464 455 480 
f 460 464 480 
f 463 458 481 
f 468 463 481 
f 458 475 481 
f 475 468 481 
f 462 454 482 
f 454 469 482 
f 469 462 482 
f 464 458 483 
f 458 471 483 
f 471 464 483 
f 467 454 484 
f 454 472 484 
f 472 467 484 
f 475 460 485 
f 468 475 485 
f 478 468 485 
o convex_20
v 21.424062 -170.327971 -0.314234
v 25.007944 -170.726167 12.826240
v 25.007944 -173.513229 12.826240
v 20.627358 -170.327971 0.880823
v 23.414536 -173.513229 4.863486
v 20.627358 -173.115033 0.880823
v 25.007944 -170.726167 9.639852
v 24.609592 -173.513229 12.826240
v 21.424062 -173.115033 -0.314234
v 23.016184 -170.327971 8.047301
v 25.007944 -173.513229 9.639852
v 24.211240 -170.327971 7.249739
v 20.627358 -173.115033 -0.314234
v 24.609592 -170.726167 12.826240
v 22.220766 -173.513229 5.659761
v 21.822414 -170.327971 0.483328
v 20.627358 -170.327971 -0.314234
v 21.822414 -173.115033 0.483328
v 23.414536 -170.327971 4.863486
v 24.211240 -170.327971 8.444795
v 22.619118 -173.513229 4.464705
v 22.220766 -173.513229 4.863486
v 23.414536 -170.327971 8.444795
v 23.016184 -173.513229 4.464705
v 24.211240 -173.513229 7.249739
f 490 497 510 
f 487 488 492 
f 488 487 493 
f 490 488 493 
f 486 489 495 
f 489 491 495 
f 491 493 495 
f 488 490 496 
f 492 488 496 
f 492 496 497 
f 487 492 497 
f 486 495 497 
f 491 489 498 
f 486 494 498 
f 493 487 499 
f 495 493 499 
f 490 493 500 
f 493 491 500 
f 491 498 500 
f 494 486 501 
f 486 497 501 
f 489 486 502 
f 486 498 502 
f 498 489 502 
f 490 494 503 
f 494 501 503 
f 501 490 503 
f 497 490 504 
f 490 501 504 
f 501 497 504 
f 487 497 505 
f 497 495 505 
f 499 487 505 
f 498 494 506 
f 490 500 506 
f 506 500 507 
f 500 498 507 
f 498 506 507 
f 495 499 508 
f 505 495 508 
f 499 505 508 
f 494 490 509 
f 490 506 509 
f 506 494 509 
f 496 490 510 
f 497 496 510 
o convex_21
v 23.016768 -176.300914 -0.314234
v 25.007944 -173.513541 10.438115
v 25.007944 -176.300914 10.438115
v 21.822063 -176.300914 0.482509
v 21.822063 -173.513541 -0.314234
v 25.007944 -173.513541 7.252195
v 23.016768 -173.513541 -0.314234
v 24.609709 -173.513541 10.438115
v 25.007944 -176.300914 7.252195
v 24.609709 -176.300914 10.438115
v 21.822063 -173.513541 0.482509
v 21.822063 -176.300914 -0.314234
v 23.016768 -176.300914 4.864071
v 24.211474 -176.300914 4.068380
v 23.016768 -173.513541 4.864071
v 24.211474 -173.513541 4.068380
v 24.609709 -173.513541 5.658709
v 24.609709 -176.300914 5.658709
f 524 527 528 
f 511 513 514 
f 515 512 516 
f 512 513 516 
f 511 515 517 
f 515 516 517 
f 513 512 518 
f 512 515 518 
f 513 511 519 
f 516 513 519 
f 514 513 520 
f 513 518 520 
f 515 514 521 
f 518 515 521 
f 511 514 522 
f 515 511 522 
f 514 515 522 
f 514 520 523 
f 521 514 523 
f 519 511 524 
f 520 518 525 
f 518 521 525 
f 523 520 525 
f 521 523 525 
f 511 517 526 
f 517 516 526 
f 524 511 526 
f 524 526 527 
f 516 519 527 
f 526 516 527 
f 527 519 528 
f 519 524 528 
