v -11.29637614311397 2.9666071764410587e-05 -37.1263260157715
v 9.044032410671239 2.966607074242466e-05 -37.126337000694456
v 9.044037655056284 2.6084649418167926e-05 -21.69186814840624
v -11.29637013270406 2.608465400156053e-05 -21.691841843105582
v -11.296370132704425 10.711970052898776 -21.691843247807533
v -11.29637013270406 2.608465400156053e-05 -21.691841843105582
v 9.044037655056284 2.6084649418167926e-05 -21.69186814840624
v 9.044037655058306 10.711970052896824 -21.69186342495699
v -11.296376143114335 10.711965730853892 -37.12632742047241
v -11.29637614311397 2.9666071764410587e-05 -37.1263260157715
v -11.29637013270406 2.608465400156053e-05 -21.691841843105582
v -11.296370132704425 10.711970052898776 -21.691843247807533
v 9.044032410672067 10.711965730853548 -37.126335341319766
v 9.044032410671239 2.966607074242466e-05 -37.126337000694456
v -11.29637614311397 2.9666071764410587e-05 -37.1263260157715
v -11.296376143114335 10.711965730853892 -37.12632742047241
v 23.51160593773239 6.940531138496311 -23.93483931274571
v 23.51160593773263 -0.05103040758258553 -23.934838395913047
v 23.511603546848125 -0.051033045210342166 -34.00874069176263
v 23.511603546847887 6.940528285425755 -34.00874160859527
v 23.51160593773263 -0.05103040758258553 -23.934838395913047
v 9.044037655056284 2.6084649418167926e-05 -21.69186814840624
v 9.044032410671239 2.966607074242466e-05 -37.126337000694456
v 23.511603546848125 -0.051033045210342166 -34.00874069176263
v 23.51160593773239 6.940531138496311 -23.93483931274571
v 9.044037655058306 10.711970052896824 -21.69186342495699
v 9.044037655056284 2.6084649418167926e-05 -21.69186814840624
v 23.51160593773263 -0.05103040758258553 -23.934838395913047
v 23.511603546847887 6.940528285425755 -34.00874160859527
v 9.044032410672067 10.711965730853548 -37.126335341319766
v 9.044037655058306 10.711970052896824 -21.69186342495699
v 23.51160593773239 6.940531138496311 -23.93483931274571
v 23.511603546848125 -0.051033045210342166 -34.00874069176263
v 9.044032410671239 2.966607074242466e-05 -37.126337000694456
v 9.044032410672067 10.711965730853548 -37.126335341319766
v 23.511603546847887 6.940528285425755 -34.00874160859527
v -6.997346180912622 16.67769679687483 -24.961882337333694
v -11.296370132704425 10.711970052898776 -21.691843247807533
v 9.044037655058306 10.711970052896824 -21.69186342495699
v 4.6959106855239625 16.67769679687463 -24.961886890855936
v -11.296370132704425 10.711970052898776 -21.691843247807533
v -6.997346180912622 16.67769679687483 -24.961882337333694
v -6.997346355100811 16.677696222308107 -29.343400137852232
v -6.997348112486231 16.677694098475904 -33.85629324377277
v -11.296376143114335 10.711965730853892 -37.12632742047241
v 4.695906934655467 16.677694098475705 -33.8562977972943
v 9.044032410672067 10.711965730853548 -37.126335341319766
v -11.296376143114335 10.711965730853892 -37.12632742047241
v -6.997348112486231 16.677694098475904 -33.85629324377277
v 9.044032410672067 10.711965730853548 -37.126335341319766
v 4.695906934655467 16.677694098475705 -33.8562977972943
v 4.695909347985007 16.677696281973542 -28.88840784930652
v 4.6959106855239625 16.67769679687463 -24.961886890855936
v 9.044037655058306 10.711970052896824 -21.69186342495699
v -13.125747263273967 43.382970455739795 -13.573370161773394
v -6.997346180912622 16.67769679687483 -24.961882337333694
v 4.6959106855239625 16.67769679687463 -24.961886890855936
v 1.0379410061829284 38.69402477011711 -16.135119979976704
v -13.125756910491594 45.50241623453234 -34.41281656016882
v -6.997348112486231 16.677694098475904 -33.85629324377277
v -6.997346355100811 16.677696222308107 -29.343400137852232
v -15.828146314793191 44.39415385771463 -23.515828822805933
v 1.0379340946410194 40.49911826958199 -33.88367394803561
v 4.695906934655467 16.677694098475705 -33.8562977972943
v -6.997348112486231 16.677694098475904 -33.85629324377277
v -13.125756910491594 45.50241623453234 -34.41281656016882
v 6.209237505330551 39.54453439489577 -24.497781075890728
v 4.695909347985007 16.677696281973542 -28.88840784930652
v 4.695906934655467 16.677694098475705 -33.8562977972943
v 1.0379340946410194 40.49911826958199 -33.88367394803561
v 1.0379410061829284 38.69402477011711 -16.135119979976704
v 4.6959106855239625 16.67769679687463 -24.961886890855936
v 4.695909347985007 16.677696281973542 -28.88840784930652
v 6.209237505330551 39.54453439489577 -24.497781075890728
v -6.997346180912622 16.67769679687483 -24.961882337333694
v -13.125747263273967 43.382970455739795 -13.573370161773394
v -15.828146314793191 44.39415385771463 -23.515828822805933
v -6.997346355100811 16.677696222308107 -29.343400137852232
v -8.446975888578741 61.375819773592575 -27.49696896595263
v -13.125756910491594 45.50241623453234 -34.41281656016882
v -15.828146314793191 44.39415385771463 -23.515828822805933
v -10.561401986258346 60.63166100376783 -20.180078076472768
v 2.4802993256621866 61.375819773593186 -27.496967093039412
v 1.0379340946410194 40.49911826958199 -33.88367394803561
v -13.125756910491594 45.50241623453234 -34.41281656016882
v -8.446975888578741 61.375819773592575 -27.49696896595263
v 7.876130602631902 60.62892785206185 -20.153194928493537
v 6.209237505330551 39.54453439489577 -24.497781075890728
v 1.0379340946410194 40.49911826958199 -33.88367394803561
v 2.4802993256621866 61.375819773593186 -27.496967093039412
v -8.446972012839295 59.963466692632835 -13.610020502195066
v -13.125747263273967 43.382970455739795 -13.573370161773394
v 1.0379410061829284 38.69402477011711 -16.135119979976704
v 2.4803046376799105 59.96346669263104 -13.610037013736003
v 2.4803046376799105 59.96346669263104 -13.610037013736003
v 1.0379410061829284 38.69402477011711 -16.135119979976704
v 6.209237505330551 39.54453439489577 -24.497781075890728
v 7.876130602631902 60.62892785206185 -20.153194928493537
v -10.561401986258346 60.63166100376783 -20.180078076472768
v -15.828146314793191 44.39415385771463 -23.515828822805933
v -13.125747263273967 43.382970455739795 -13.573370161773394
v -8.446972012839295 59.963466692632835 -13.610020502195066
v -8.446976256714981 66.24805518195193 -26.475222955470226
v -8.446975888578741 61.375819773592575 -27.49696896595263
v -10.561401986258346 60.63166100376783 -20.180078076472768
v -10.56140465244651 65.50388415582731 -19.158319809685466
v 2.48029943628776 66.24805518195254 -26.475221082557194
v 2.4802993256621866 61.375819773593186 -27.496967093039412
v -8.446975888578741 61.375819773592575 -27.49696896595263
v -8.446976256714981 66.24805518195193 -26.475222955470226
v 7.876131766540622 65.50116326042362 -19.13143053355813
v 7.876130602631902 60.62892785206185 -20.153194928493537
v 2.4802993256621866 61.375819773593186 -27.496967093039412
v 2.48029943628776 66.24805518195254 -26.475221082557194
v 2.4803049398149817 64.8356898446905 -12.588278746949856
v 2.4803046376799105 59.96346669263104 -13.610037013736003
v 7.876130602631902 60.62892785206185 -20.153194928493537
v 7.876131766540622 65.50116326042362 -19.13143053355813
v -8.446972380975534 64.83568984469069 -12.588274491711056
v -8.446972012839295 59.963466692632835 -13.610020502195066
v 2.4803046376799105 59.96346669263104 -13.610037013736003
v 2.4803049398149817 64.8356898446905 -12.588278746949856
v -10.56140465244651 65.50388415582731 -19.158319809685466
v -10.561401986258346 60.63166100376783 -20.180078076472768
v -8.446972012839295 59.963466692632835 -13.610020502195066
v -8.446972380975534 64.83568984469069 -12.588274491711056
v -7.86954733315418 80.24347071391608 -26.35518066177065
v -8.446976256714981 66.24805518195193 -26.475222955470226
v -10.56140465244651 65.50388415582731 -19.158319809685466
v -14.085553622153977 78.94714789499133 -13.567528195446332
v 8.282241533457517 80.24347071391499 -26.355193079660513
v 2.48029943628776 66.24805518195254 -26.475221082557194
v -8.446976256714981 66.24805518195193 -26.475222955470226
v -7.86954733315418 80.24347071391608 -26.35518066177065
v 12.442765567936817 78.93081024676792 -13.554871635284377
v 7.876131766540622 65.50116326042362 -19.13143053355813
v 2.48029943628776 66.24805518195254 -26.475221082557194
v 8.282241533457517 80.24347071391499 -26.355193079660513
v 15.150740475199179 78.17674234494156 -5.568806895946961
v 2.4803049398149817 64.8356898446905 -12.588278746949856
v 7.876131766540622 65.50116326042362 -19.13143053355813
v 12.442765567936817 78.93081024676792 -13.554871635284377
v -16.346911859943578 78.19534740306199 -5.62628894729675
v -8.446972380975534 64.83568984469069 -12.588274491711056
v 2.4803049398149817 64.8356898446905 -12.588278746949856
v 15.150740475199179 78.17674234494156 -5.568806895946961
v -14.085553622153977 78.94714789499133 -13.567528195446332
v -10.56140465244651 65.50388415582731 -19.158319809685466
v -8.446972380975534 64.83568984469069 -12.588274491711056
v -16.346911859943578 78.19534740306199 -5.62628894729675
v 9.238753284639312 112.06655372799223 -21.341610053754223
v 8.282241533457517 80.24347071391499 -26.355193079660513
v -7.86954733315418 80.24347071391608 -26.35518066177065
v -7.020075032616001 111.79363060288777 -19.84360776671905
v 14.827902519250154 109.0134370228062 -9.648412989374407
v 12.442765567936817 78.93081024676792 -13.554871635284377
v 8.282241533457517 80.24347071391499 -26.355193079660513
v 9.238753284639312 112.06655372799223 -21.341610053754223
v -17.771298870519402 110.17825110843782 -11.899693225326356
v -14.085553622153977 78.94714789499133 -13.567528195446332
v -16.346911859943578 78.19534740306199 -5.62628894729675
v -21.86462193865806 109.0647309097699 -4.590151893098856e-06
v -17.771298870519402 110.17825110843782 -11.899693225326356
v -15.52028928985601 122.95472236568705 -11.30943838200341
v -4.8365023188380185 122.95646184438114 -18.29554716574274
v -7.020075032616001 111.79363060288777 -19.84360776671905
v 10.214010284157789 122.95646184438169 -18.295546898477408
v 9.238753284639312 112.06655372799223 -21.341610053754223
v -7.020075032616001 111.79363060288777 -19.84360776671905
v -4.8365023188380185 122.95646184438114 -18.29554716574274
v 16.730951639871865 121.14148858082287 -9.584259705949453
v 14.827902519250154 109.0134370228062 -9.648412989374407
v 9.238753284639312 112.06655372799223 -21.341610053754223
v 10.214010284157789 122.95646184438169 -18.295546898477408
v 16.73702530587937 121.14015390078346 -8.949386235764141e-06
v 17.87873051499766 108.11673050224778 -7.686166749838134e-06
v 14.827902519250154 109.0134370228062 -9.648412989374407
v 16.730951639871865 121.14148858082287 -9.584259705949453
v -21.86462193865806 109.0647309097699 -4.590151893098856e-06
v -18.618206264341584 122.95340016817906 -7.675632005859278e-06
v -15.52028928985601 122.95472236568705 -11.30943838200341
v -17.771298870519402 110.17825110843782 -11.899693225326356
v -14.085553622153977 78.94714789499133 -13.567528195446332
v -17.771298870519402 110.17825110843782 -11.899693225326356
v -7.020075032616001 111.79363060288777 -19.84360776671905
v -7.86954733315418 80.24347071391608 -26.35518066177065
v -5.57468470083806 131.7513264630012 -17.892211504130778
v -4.8365023188380185 122.95646184438114 -18.29554716574274
v -15.52028928985601 122.95472236568705 -11.30943838200341
v -12.673617596611088 131.74958690371784 -11.520659631219363
v 11.699701033436686 131.75131420669942 -17.892218231023186
v 10.214010284157789 122.95646184438169 -18.295546898477408
v -4.8365023188380185 122.95646184438114 -18.29554716574274
v -5.57468470083806 131.7513264630012 -17.892211504130778
v 16.586857107375387 131.74959933000403 -10.224401587012641
v 16.730951639871865 121.14148858082287 -9.584259705949453
v 10.214010284157789 122.95646184438169 -18.295546898477408
v 11.699701033436686 131.75131420669942 -17.892218231023186
v 16.592927958587218 131.74803186418063 -1.0284327996636089e-05
v 16.73702530587937 121.14015390078346 -8.949386235764141e-06
v 16.730951639871865 121.14148858082287 -9.584259705949453
v 16.586857107375387 131.74959933000403 -10.224401587012641
v -12.673617596611088 131.74958690371784 -11.520659631219363
v -15.52028928985601 122.95472236568705 -11.30943838200341
v -18.618206264341584 122.95340016817906 -7.675632005859278e-06
v -14.587488351055857 131.74805637678256 -1.0398531474853498e-05
v -4.395002903272676 141.76669793223368 -18.741054140194123
v -5.57468470083806 131.7513264630012 -17.892211504130778
v -12.673617596611088 131.74958690371784 -11.520659631219363
v -15.487639626508034 141.7649586486119 -10.267367134456785
v 8.875006009628157 141.76669793223425 -18.74105317957507
v 11.699701033436686 131.75131420669942 -17.892218231023186
v -5.57468470083806 131.7513264630012 -17.892211504130778
v -4.395002903272676 141.76669793223368 -18.741054140194123
v 15.53574860069283 141.76499530432977 -11.130510927331475
v 16.586857107375387 131.74959933000403 -10.224401587012641
v 11.699701033436686 131.75131420669942 -17.892218231023186
v 8.875006009628157 141.76669793223425 -18.74105317957507
v 18.28707067790836 144.47463215326994 -1.8741094958432897e-05
v 16.592927958587218 131.74803186418063 -1.0284327996636089e-05
v 16.586857107375387 131.74959933000403 -10.224401587012641
v 15.53574860069283 141.76499530432977 -11.130510927331475
v -15.487639626508034 141.7649586486119 -10.267367134456785
v -12.673617596611088 131.74958690371784 -11.520659631219363
v -14.587488351055857 131.74805637678256 -1.0398531474853498e-05
v -17.37672096536316 143.13594987950393 -4.67755505177117e-06
v -5.811021617435658 151.4984582346624 -22.261683856883213
v -4.395002903272676 141.76669793223368 -18.741054140194123
v -15.487639626508034 141.7649586486119 -10.267367134456785
v -18.407293017166314 159.307707336233 -25.82572079080761
v 8.458239605320097 159.6377326523553 -26.695487539272424
v 8.875006009628157 141.76669793223425 -18.74105317957507
v -4.395002903272676 141.76669793223368 -18.741054140194123
v -5.811021617435658 151.4984582346624 -22.261683856883213
v 17.101444304625378 153.89357354951173 -13.611832188712755
v 15.53574860069283 141.76499530432977 -11.130510927331475
v 8.875006009628157 141.76669793223425 -18.74105317957507
v 8.458239605320097 159.6377326523553 -26.695487539272424
v 17.10882330319087 155.92510633139017 -1.9783816999720477e-05
v 18.28707067790836 144.47463215326994 -1.8741094958432897e-05
v 15.53574860069283 141.76499530432977 -11.130510927331475
v 17.101444304625378 153.89357354951173 -13.611832188712755
v -18.407293017166314 159.307707336233 -25.82572079080761
v -15.487639626508034 141.7649586486119 -10.267367134456785
v -17.37672096536316 143.13594987950393 -4.67755505177117e-06
v -23.51163304711492 153.89185945227624 -1.5955301875646448e-05
v 17.055751836292774 106.54548937640995 -59.386743823516035
v 6.434807393345091 102.80681462549049 -61.587563585903226
v 16.955355510898237 106.84709180753008 -64.23602034142863
v 15.709862682201363 170.8018644795039 -14.336383564769648
v 19.984958472402905 157.3748534065148 -13.747235268849893
v 8.458239605320097 159.6377326523553 -26.695487539272424
v 7.3913835974191135 170.50946464848937 -23.841197950003497
v 19.96895556279614 159.5190461294302 -2.1368881932970463e-05
v 17.10882330319087 155.92510633139017 -1.9783816999720477e-05
v 17.101444304625378 153.89357354951173 -13.611832188712755
v 19.984958472402905 157.3748534065148 -13.747235268849893
v 19.984958472402905 157.3748534065148 -13.747235268849893
v 15.709862682201363 170.8018644795039 -14.336383564769648
v 15.71723583476579 170.8001382209811 -2.119253789757751e-05
v 19.96895556279614 159.5190461294302 -2.1368881932970463e-05
v -18.53446814715122 170.62332571861486 -23.61776773262452
v -18.407293017166314 159.307707336233 -25.82572079080761
v -23.51163304711492 153.89185945227624 -1.5955301875646448e-05
v -23.36299167570965 169.68439807128712 -1.808412650403145e-05
v -5.014265756840706 178.9280246070376 -19.132911144277887
v -18.53446814715122 170.62332571861486 -23.61776773262452
v -11.240331867470779 179.2295924266695 -7.530210455703146
v -4.379644801158337 180.51728811164796 -10.386801952389273
v -5.014265756840706 178.9280246070376 -19.132911144277887
v -4.379644801158337 180.51728811164796 -10.386801952389273
v 1.8792416327943144 180.2862939636862 -7.594322292915349
v 7.3913835974191135 170.50946464848937 -23.841197950003497
v 7.262573781182947 179.26725702860938 -1.9010499661098462e-05
v 15.709862682201363 170.8018644795039 -14.336383564769648
v 7.3913835974191135 170.50946464848937 -23.841197950003497
v 1.8792416327943144 180.2862939636862 -7.594322292915349
v 15.709862682201363 170.8018644795039 -14.336383564769648
v 7.262573781182947 179.26725702860938 -1.9010499661098462e-05
v 15.71723583476579 170.8001382209811 -2.119253789757751e-05
v -11.240331867470779 179.2295924266695 -7.530210455703146
v -18.53446814715122 170.62332571861486 -23.61776773262452
v -23.36299167570965 169.68439807128712 -1.808412650403145e-05
v -16.40690273719006 178.1687737514116 -1.5777367903687788e-05
v -14.929284273011948 166.54510171000513 -31.013699464411584
v -18.53446814715122 170.62332571861486 -23.61776773262452
v -5.372722509943099 178.54223180254976 -28.303198971213003
v -3.434024738651393 171.5713859143271 -35.00548424051711
v -18.407293017166314 159.307707336233 -25.82572079080761
v -18.53446814715122 170.62332571861486 -23.61776773262452
v -14.929284273011948 166.54510171000513 -31.013699464411584
v 8.458239605320097 159.6377326523553 -26.695487539272424
v 7.271258657604834 166.58700599065642 -31.121514551008786
v 7.3913835974191135 170.50946464848937 -23.841197950003497
v -3.434024738651393 171.5713859143271 -35.00548424051711
v -5.372722509943099 178.54223180254976 -28.303198971213003
v 7.3913835974191135 170.50946464848937 -23.841197950003497
v 7.271258657604834 166.58700599065642 -31.121514551008786
v -3.479650935585268 141.2530102702437 -30.591581295520538
v -5.811021617435658 151.4984582346624 -22.261683856883213
v -18.407293017166314 159.307707336233 -25.82572079080761
v -10.039450525391251 142.86651540003908 -32.05759817949419
v 3.1715540609888033 143.01248789527617 -32.48075218347782
v 8.458239605320097 159.6377326523553 -26.695487539272424
v -5.811021617435658 151.4984582346624 -22.261683856883213
v -3.479650935585268 141.2530102702437 -30.591581295520538
v -10.609466603616344 150.0942269554846 -39.83948992272882
v -14.929284273011948 166.54510171000513 -31.013699464411584
v -3.434024738651393 171.5713859143271 -35.00548424051711
v -3.4674460840472237 153.06231059634445 -42.72186594549606
v -10.039450525391251 142.86651540003908 -32.05759817949419
v -18.407293017166314 159.307707336233 -25.82572079080761
v -14.929284273011948 166.54510171000513 -31.013699464411584
v -10.609466603616344 150.0942269554846 -39.83948992272882
v 3.1837586620223846 150.11784483969797 -39.906255376267275
v 7.271258657604834 166.58700599065642 -31.121514551008786
v 8.458239605320097 159.6377326523553 -26.695487539272424
v 3.1715540609888033 143.01248789527617 -32.48075218347782
v -3.4674460840472237 153.06231059634445 -42.72186594549606
v -3.434024738651393 171.5713859143271 -35.00548424051711
v 7.271258657604834 166.58700599065642 -31.121514551008786
v 3.1837586620223846 150.11784483969797 -39.906255376267275
v -0.03976004743152961 136.7772045196956 -34.76910595154083
v -3.479650935585268 141.2530102702437 -30.591581295520538
v -10.039450525391251 142.86651540003908 -32.05759817949419
v -6.270878887731357 136.07982078657423 -36.129791997663645
v -9.084299063430397 142.1927972823578 -43.35264519205715
v -10.609466603616344 150.0942269554846 -39.83948992272882
v -3.4674460840472237 153.06231059634445 -42.72186594549606
v -3.8147013572310273 147.06756926031483 -46.02795663484715
v -6.270878887731357 136.07982078657423 -36.129791997663645
v -10.039450525391251 142.86651540003908 -32.05759817949419
v -10.609466603616344 150.0942269554846 -39.83948992272882
v -9.084299063430397 142.1927972823578 -43.35264519205715
v 5.189743056505254 140.4418874599924 -36.522534922572426
v 3.1715540609888033 143.01248789527617 -32.48075218347782
v -3.479650935585268 141.2530102702437 -30.591581295520538
v -0.03976004743152961 136.7772045196956 -34.76910595154083
v 2.92269350651537 146.63489764787428 -43.414587674431424
v 3.1837586620223846 150.11784483969797 -39.906255376267275
v 3.1715540609888033 143.01248789527617 -32.48075218347782
v 5.189743056505254 140.4418874599924 -36.522534922572426
v -3.8147013572310273 147.06756926031483 -46.02795663484715
v -3.4674460840472237 153.06231059634445 -42.72186594549606
v 3.1837586620223846 150.11784483969797 -39.906255376267275
v 2.92269350651537 146.63489764787428 -43.414587674431424
v 2.862485753544762 128.86348176147624 -38.39435789724214
v -0.03976004743152961 136.7772045196956 -34.76910595154083
v -6.270878887731357 136.07982078657423 -36.129791997663645
v -5.297776780260878 127.95017870979319 -40.17629840538044
v -8.982233321694677 135.9557239629636 -49.63535371423538
v -9.084299063430397 142.1927972823578 -43.35264519205715
v -3.8147013572310273 147.06756926031483 -46.02795663484715
v -2.081165821025021 142.3397245412829 -53.13894077815179
v -5.297776780260878 127.95017870979319 -40.17629840538044
v -6.270878887731357 136.07982078657423 -36.129791997663645
v -9.084299063430397 142.1927972823578 -43.35264519205715
v -8.982233321694677 135.9557239629636 -49.63535371423538
v 9.711045426817266 133.66274271566385 -40.69066524187546
v 5.189743056505254 140.4418874599924 -36.522534922572426
v -0.03976004743152961 136.7772045196956 -34.76910595154083
v 2.862485753544762 128.86348176147624 -38.39435789724214
v 6.742124627386589 141.77310391597328 -49.71649732225757
v 2.92269350651537 146.63489764787428 -43.414587674431424
v 5.189743056505254 140.4418874599924 -36.522534922572426
v 9.711045426817266 133.66274271566385 -40.69066524187546
v -2.081165821025021 142.3397245412829 -53.13894077815179
v -3.8147013572310273 147.06756926031483 -46.02795663484715
v 2.92269350651537 146.63489764787428 -43.414587674431424
v 6.742124627386589 141.77310391597328 -49.71649732225757
v 6.6410760582421995 118.49075140744054 -52.05208279141511
v 2.862485753544762 128.86348176147624 -38.39435789724214
v -5.297776780260878 127.95017870979319 -40.17629840538044
v 2.650526591943408 118.04415617953495 -52.92349508713602
v 0.8487440638263002 121.95903888176477 -57.54917662760887
v -8.982233321694677 135.9557239629636 -49.63535371423538
v -2.081165821025021 142.3397245412829 -53.13894077815179
v 4.223516214020911 125.08093925960931 -59.2624776711536
v 2.650526591943408 118.04415617953495 -52.92349508713602
v -5.297776780260878 127.95017870979319 -40.17629840538044
v -8.982233321694677 135.9557239629636 -49.63535371423538
v 0.8487440638263002 121.95903888176477 -57.54917662760887
v 9.990158318856345 120.83772268849518 -53.1750282775865
v 9.711045426817266 133.66274271566385 -40.69066524187546
v 2.862485753544762 128.86348176147624 -38.39435789724214
v 6.6410760582421995 118.49075140744054 -52.05208279141511
v 8.538294551476723 124.8038490150287 -57.588859774095276
v 6.742124627386589 141.77310391597328 -49.71649732225757
v 9.711045426817266 133.66274271566385 -40.69066524187546
v 9.990158318856345 120.83772268849518 -53.1750282775865
v 4.223516214020911 125.08093925960931 -59.2624776711536
v -2.081165821025021 142.3397245412829 -53.13894077815179
v 6.742124627386589 141.77310391597328 -49.71649732225757
v 8.538294551476723 124.8038490150287 -57.588859774095276
v 15.815340014706699 117.52636345894636 -58.65510174473299
v 9.990158318856345 120.83772268849518 -53.1750282775865
v 6.6410760582421995 118.49075140744054 -52.05208279141511
v 2.650526591943408 118.04415617953495 -52.92349508713602
v 0.9771081524346945 111.98710350589656 -58.52373831917678
v -0.5457443367365409 114.22706425564076 -65.46526800319934
v 0.8487440638263002 121.95903888176477 -57.54917662760887
v 4.223516214020911 125.08093925960931 -59.2624776711536
v 8.538294551476723 124.8038490150287 -57.588859774095276
v 14.232105059224473 119.47626661891792 -65.28205804578583
v 0.9771081524346945 111.98710350589656 -58.52373831917678
v 2.650526591943408 118.04415617953495 -52.92349508713602
v 0.8487440638263002 121.95903888176477 -57.54917662760887
v -0.5457443367365409 114.22706425564076 -65.46526800319934
v 14.232105059224473 119.47626661891792 -65.28205804578583
v 8.538294551476723 124.8038490150287 -57.588859774095276
v 9.990158318856345 120.83772268849518 -53.1750282775865
v 15.815340014706699 117.52636345894636 -58.65510174473299
v 17.055751836292774 106.54548937640995 -59.386743823516035
v 15.815340014706699 117.52636345894636 -58.65510174473299
v 0.9771081524346945 111.98710350589656 -58.52373831917678
v 6.434807393345091 102.80681462549049 -61.587563585903226
v 6.434807393345091 102.80681462549049 -61.587563585903226
v -0.5457443367365409 114.22706425564076 -65.46526800319934
v 14.232105059224473 119.47626661891792 -65.28205804578583
v 16.955355510898237 106.84709180753008 -64.23602034142863
v -0.5457443367365409 114.22706425564076 -65.46526800319934
v 6.434807393345091 102.80681462549049 -61.587563585903226
v 0.9771081524346945 111.98710350589656 -58.52373831917678
v 16.955355510898237 106.84709180753008 -64.23602034142863
v 14.232105059224473 119.47626661891792 -65.28205804578583
v 15.815340014706699 117.52636345894636 -58.65510174473299
v 17.055751836292774 106.54548937640995 -59.386743823516035
v 8.458239605320097 159.6377326523553 -26.695487539272424
v 19.984958472402905 157.3748534065148 -13.747235268849893
v 17.101444304625378 153.89357354951173 -13.611832188712755
v 7.262573781182947 179.26725702860938 -1.9010499661098462e-05
v 1.8792416327943144 180.2862939636862 -7.594322292915349
v 1.468460082232942 188.87631944978662 -3.8794502589035553
v 3.3180747182212045 188.8535722629495 -2.485969979890875e-05
v 7.262573781182947 179.26725702860938 -1.9010499661098462e-05
v 1.468460082232942 188.87631944978662 -3.8794502589035553
v -16.40690273719006 178.1687737514116 -1.5777367903687788e-05
v -9.867938666333316 188.85357226294892 -2.5853027919575666e-05
v -5.560757276392589 188.87607418035918 -4.972967077833944
v -11.240331867470779 179.2295924266695 -7.530210455703146
v 15.150740475199179 78.17674234494156 -5.568806895946961
v 12.442765567936817 78.93081024676792 -13.554871635284377
v 14.827902519250154 109.0134370228062 -9.648412989374407
v 17.87873051499766 108.11673050224778 -7.686166749838134e-06
v -4.379644801158337 180.51728811164796 -10.386801952389273
v -11.240331867470779 179.2295924266695 -7.530210455703146
v -5.560757276392589 188.87607418035918 -4.972967077833944
v -2.213749176887981 188.59468161617733 -6.027690575307128
v 1.8792416327943144 180.2862939636862 -7.594322292915349
v -4.379644801158337 180.51728811164796 -10.386801952389273
v -2.213749176887981 188.59468161617733 -6.027690575307128
v 1.468460082232942 188.87631944978662 -3.8794502589035553
v -5.372722509943099 178.54223180254976 -28.303198971213003
v -18.53446814715122 170.62332571861486 -23.61776773262452
v -5.014265756840706 178.9280246070376 -19.132911144277887
v -5.372722509943099 178.54223180254976 -28.303198971213003
v -5.014265756840706 178.9280246070376 -19.132911144277887
v 7.3913835974191135 170.50946464848937 -23.841197950003497
v 3.3180747182212045 188.8535722629495 -2.485969979890875e-05
v 1.468460082232942 188.87631944978662 -3.8794502589035553
v -2.0008579210521567 192.05747977872502 -2.3208572775681253e-05
v -5.560757276392589 188.87607418035918 -4.972967077833944
v -9.867938666333316 188.85357226294892 -2.5853027919575666e-05
v -2.0008579210521567 192.05747977872502 -2.3208572775681253e-05
v -2.213749176887981 188.59468161617733 -6.027690575307128
v -5.560757276392589 188.87607418035918 -4.972967077833944
v -2.0008579210521567 192.05747977872502 -2.3208572775681253e-05
v 1.468460082232942 188.87631944978662 -3.8794502589035553
v -2.213749176887981 188.59468161617733 -6.027690575307128
v -2.0008579210521567 192.05747977872502 -2.3208572775681253e-05
v -16.346911859943578 78.19534740306199 -5.62628894729675
v -16.38637580395189 78.07940427731256 5.708137311840285
v -21.86462193865806 109.0647309097699 -4.590151893098856e-06
v -16.38637580395189 78.07940427731256 5.708137311840285
v -16.346911859943578 78.19534740306199 -5.62628894729675
v 15.150740475199179 78.17674234494156 -5.568806895946961
v 15.153956739076962 78.20892885636549 5.593160896104433
v -11.296336503783465 4.257905675490354e-05 37.12636784957255
v -11.296347110306774 3.785641739163181e-05 21.69188367690952
v 9.044065273583673 3.7856424140794634e-05 21.691900268665467
v 9.044074731073861 4.2579059111691135e-05 37.126372185026554
v -11.296347110307138 10.711981104119747 21.691882272207668
v 9.044065273583309 10.711981104122616 21.691898863963615
v 9.044065273583673 3.7856424140794634e-05 21.691900268665467
v -11.296347110306774 3.785641739163181e-05 21.69188367690952
v -11.296336503783829 10.7119831281081 37.12636644487105
v -11.296347110307138 10.711981104119747 21.691882272207668
v -11.296347110306774 3.785641739163181e-05 21.69188367690952
v -11.296336503783465 4.257905675490354e-05 37.12636784957255
v 9.044074731073495 10.711983128109363 37.126370780325054
v -11.296336503783829 10.7119831281081 37.12636644487105
v -11.296336503783465 4.257905675490354e-05 37.12636784957255
v 9.044074731073861 4.2579059111691135e-05 37.126372185026554
v 23.51163989926326 6.940541245945461 23.93487060127232
v 23.511646886258774 6.940541800958684 34.008766768969195
v 23.511646886259012 -0.051017848026671773 34.00876768580161
v 23.511639899263496 -0.05102092850826843 23.934871518105066
v 23.511639899263496 -0.05102092850826843 23.934871518105066
v 23.511646886259012 -0.051017848026671773 34.00876768580161
v 9.044074731073861 4.2579059111691135e-05 37.126372185026554
v 9.044065273583673 3.7856424140794634e-05 21.691900268665467
v 23.51163989926326 6.940541245945461 23.93487060127232
v 23.511639899263496 -0.05102092850826843 23.934871518105066
v 9.044065273583673 3.7856424140794634e-05 21.691900268665467
v 9.044065273583309 10.711981104122616 21.691898863963615
v 23.511646886258774 6.940541800958684 34.008766768969195
v 23.51163989926326 6.940541245945461 23.93487060127232
v 9.044065273583309 10.711981104122616 21.691898863963615
v 9.044074731073495 10.711983128109363 37.126370780325054
v 23.511646886259012 -0.051017848026671773 34.00876768580161
v 23.511646886258774 6.940541800958684 34.008766768969195
v 9.044074731073495 10.711983128109363 37.126370780325054
v 9.044074731073861 4.2579059111691135e-05 37.126372185026554
v -6.997317547638849 16.67770640766719 24.96192257705831
v 4.6959406593308115 16.677706407666992 24.96191802353555
v 9.044065273583309 10.711981104122616 21.691898863963615
v -11.296347110307138 10.711981104119747 21.691882272207668
v -11.296347110307138 10.711981104119747 21.691882272207668
v -11.296336503783829 10.7119831281081 37.12636644487105
v -6.997311019951841 16.677706041990742 33.856333483496
v -6.99731430937506 16.67770545019623 29.343440377575856
v -6.997317547638849 16.67770640766719 24.96192257705831
v 4.695946325246557 16.677706041990543 33.85632892997357
v -6.997311019951841 16.677706041990742 33.856333483496
v -11.296336503783829 10.7119831281081 37.12636644487105
v 9.044074731073495 10.711983128109363 37.126370780325054
v 9.044074731073495 10.711983128109363 37.126370780325054
v 9.044065273583309 10.711981104122616 21.691898863963615
v 4.6959406593308115 16.677706407666992 24.96191802353555
v 4.695943337405228 16.677706922568884 28.88844511013681
v 4.695946325246557 16.677706041990543 33.85632892997357
v -13.125732095819792 43.382974015608575 13.573395914228403
v 1.0379612328732613 38.69403206592588 16.13513593110386
v 4.6959406593308115 16.677706407666992 24.96191802353555
v -6.997317547638849 16.67770640766719 24.96192257705831
v -13.125719384531482 45.502431388077426 34.41282950045517
v -15.82812187183036 44.394163089250455 23.515850286610025
v -6.99731430937506 16.67770545019623 29.343440377575856
v -6.997311019951841 16.677706041990742 33.856333483496
v 1.03797274052606 40.4991271561985 33.883683297590665
v -13.125719384531482 45.502431388077426 34.41282950045517
v -6.997311019951841 16.677706041990742 33.856333483496
v 4.695946325246557 16.677706041990543 33.85632892997357
v 6.209266926166162 39.544537755814574 24.49779277639874
v 1.03797274052606 40.4991271561985 33.883683297590665
v 4.695946325246557 16.677706041990543 33.85632892997357
v 4.695943337405228 16.677706922568884 28.88844511013681
v 1.0379612328732613 38.69403206592588 16.13513593110386
v 6.209266926166162 39.544537755814574 24.49779277639874
v 4.695943337405228 16.677706922568884 28.88844511013681
v 4.6959406593308115 16.677706407666992 24.96191802353555
v -6.997317547638849 16.67770640766719 24.96192257705831
v -6.99731430937506 16.67770545019623 29.343440377575856
v -15.82812187183036 44.394163089250455 23.515850286610025
v -13.125732095819792 43.382974015608575 13.573395914228403
v -8.44694604693922 61.375826985177945 27.4969740991825
v -10.5613801412797 60.63166629636454 20.180085051651105
v -15.82812187183036 44.394163089250455 23.515850286610025
v -13.125719384531482 45.502431388077426 34.41282950045517
v 2.480331369603659 61.37582698517775 27.49696984394366
v -8.44694604693922 61.375826985177945 27.4969740991825
v -13.125719384531482 45.502431388077426 34.41282950045517
v 1.03797274052606 40.4991271561985 33.883683297590665
v 7.87615663977631 60.62893313760768 20.15319980100923
v 2.480331369603659 61.37582698517775 27.49696984394366
v 1.03797274052606 40.4991271561985 33.883683297590665
v 6.209266926166162 39.544537755814574 24.49779277639874
v -8.446956050824994 59.96347026211279 13.61003826214571
v 2.480322323248667 59.96347026211502 13.610052391360098
v 1.0379612328732613 38.69403206592588 16.13513593110386
v -13.125732095819792 43.382974015608575 13.573395914228403
v 2.480322323248667 59.96347026211502 13.610052391360098
v 7.87615663977631 60.62893313760768 20.15319980100923
v 6.209266926166162 39.544537755814574 24.49779277639874
v 1.0379612328732613 38.69403206592588 16.13513593110386
v -10.5613801412797 60.63166629636454 20.180085051651105
v -8.446956050824994 59.96347026211279 13.61003826214571
v -13.125732095819792 43.382974015608575 13.573395914228403
v -15.82812187183036 44.394163089250455 23.515850286610025
v -8.446947210841113 66.24806212556548 26.47522681086757
v -10.561382071205264 65.503889180449 19.158325507035688
v -10.5613801412797 60.63166629636454 20.180085051651105
v -8.44694604693922 61.375826985177945 27.4969740991825
v 2.480330588711217 66.2480621255653 26.475222555628587
v -8.446947210841113 66.24806212556548 26.47522681086757
v -8.44694604693922 61.375826985177945 27.4969740991825
v 2.480331369603659 61.37582698517775 27.49696984394366
v 7.876155858874322 65.50116827799202 19.131428000089358
v 2.480330588711217 66.2480621255653 26.475222555628587
v 2.480331369603659 61.37582698517775 27.49696984394366
v 7.87615663977631 60.62893313760768 20.15319980100923
v 2.480321542351452 64.83569314619946 12.588292846744233
v 7.876155858874322 65.50116827799202 19.131428000089358
v 7.87615663977631 60.62893313760768 20.15319980100923
v 2.480322323248667 59.96347026211502 13.610052391360098
v -8.446957214726888 64.83569314619885 12.588290973832393
v 2.480321542351452 64.83569314619946 12.588292846744233
v 2.480322323248667 59.96347026211502 13.610052391360098
v -8.446956050824994 59.96347026211279 13.61003826214571
v -10.561382071205264 65.503889180449 19.158325507035688
v -8.446957214726888 64.83569314619885 12.588290973832393
v -8.446956050824994 59.96347026211279 13.61003826214571
v -10.5613801412797 60.63166629636454 20.180085051651105
v -7.869518380771917 80.24347762604661 26.35518652504642
v -14.085538459255423 78.94714532517527 13.567539239917497
v -10.561382071205264 65.503889180449 19.158325507035688
v -8.446947210841113 66.24806212556548 26.47522681086757
v 8.282273549922538 80.24347762604793 26.35519249160896
v -7.869518380771917 80.24347762604661 26.35518652504642
v -8.446947210841113 66.24806212556548 26.47522681086757
v 2.480330588711217 66.2480621255653 26.475222555628587
v 12.442786083104721 78.93080767363055 13.554868151172164
v 8.282273549922538 80.24347762604793 26.35519249160896
v 2.480330588711217 66.2480621255653 26.475222555628587
v 7.876155858874322 65.50116827799202 19.131428000089358
v 15.153956739076962 78.20892885636549 5.593160896104433
v 12.442786083104721 78.93080767363055 13.554868151172164
v 7.876155858874322 65.50116827799202 19.131428000089358
v 2.480321542351452 64.83569314619946 12.588292846744233
v -16.38637580395189 78.07940427731256 5.708137311840285
v 15.153956739076962 78.20892885636549 5.593160896104433
v 2.480321542351452 64.83569314619946 12.588292846744233
v -8.446957214726888 64.83569314619885 12.588290973832393
v -14.085538459255423 78.94714532517527 13.567539239917497
v -16.38637580395189 78.07940427731256 5.708137311840285
v -8.446957214726888 64.83569314619885 12.588290973832393
v -10.561382071205264 65.503889180449 19.158325507035688
v 9.238779864335681 112.06655932521822 21.34158811825617
v -7.020051917656215 111.79363580723765 19.843604693795424
v -7.869518380771917 80.24347762604661 26.35518652504642
v 8.282273549922538 80.24347762604793 26.35519249160896
v 14.82791922593072 109.01343955327702 9.648393629777646
v 9.238779864335681 112.06655932521822 21.34158811825617
v 8.282273549922538 80.24347762604793 26.35519249160896
v 12.442786083104721 78.93080767363055 13.554868151172164
v -17.771281942509894 110.17825422934988 11.899686693128023
v -21.86462193865806 109.0647309097699 -4.590151893098856e-06
v -16.38637580395189 78.07940427731256 5.708137311840285
v -14.085538459255423 78.94714532517527 13.567539239917497
v -17.771281942509894 110.17825422934988 11.899686693128023
v -7.020051917656215 111.79363580723765 19.843604693795424
v -4.836481175575405 122.9564666427223 18.2955333363822
v -15.52027588562914 122.95471307549258 11.309432873944258
v 10.214033725474716 122.95646664272205 18.29552747549544
v -4.836481175575405 122.9564666427223 18.2955333363822
v -7.020051917656215 111.79363580723765 19.843604693795424
v 9.238779864335681 112.06655932521822 21.34158811825617
v 16.73096676455078 121.14147883816702 9.58424181155267
v 10.214033725474716 122.95646664272205 18.29552747549544
v 9.238779864335681 112.06655932521822 21.34158811825617
v 14.82791922593072 109.01343955327702 9.648393629777646
v 16.73702530587937 121.14015390078346 -8.949386235764141e-06
v 16.73096676455078 121.14147883816702 9.58424181155267
v 14.82791922593072 109.01343955327702 9.648393629777646
v 17.87873051499766 108.11673050224778 -7.686166749838134e-06
v -21.86462193865806 109.0647309097699 -4.590151893098856e-06
v -17.771281942509894 110.17825422934988 11.899686693128023
v -15.52027588562914 122.95471307549258 11.309432873944258
v -18.618206264341584 122.95340016817906 -7.675632005859278e-06
v -14.085538459255423 78.94714532517527 13.567539239917497
v -7.869518380771917 80.24347762604661 26.35518652504642
v -7.020051917656215 111.79363580723765 19.843604693795424
v -17.771281942509894 110.17825422934988 11.899686693128023
v -5.574664637722038 131.75131889925927 17.892202071226475
v -12.673602495843 131.74957766891941 11.52064959947519
v -15.52027588562914 122.95471307549258 11.309432873944258
v -4.836481175575405 122.9564666427223 18.2955333363822
v 11.699724926647207 131.7513066429575 17.892195344332574
v -5.574664637722038 131.75131889925927 17.892202071226475
v -4.836481175575405 122.9564666427223 18.2955333363822
v 10.214033725474716 122.95646664272205 18.29552747549544
v 16.586871198576354 131.7495897552368 10.224381022669473
v 11.699724926647207 131.7513066429575 17.892195344332574
v 10.214033725474716 122.95646664272205 18.29552747549544
v 16.73096676455078 121.14147883816702 9.58424181155267
v 16.592927958587218 131.74803186418063 -1.0284327996636089e-05
v 16.586871198576354 131.7495897552368 10.224381022669473
v 16.73096676455078 121.14147883816702 9.58424181155267
v 16.73702530587937 121.14015390078346 -8.949386235764141e-06
v -12.673602495843 131.74957766891941 11.52064959947519
v -14.587488351055857 131.74805637678256 -1.0398531474853498e-05
v -18.618206264341584 122.95340016817906 -7.675632005859278e-06
v -15.52027588562914 122.95471307549258 11.309432873944258
v -4.394980647019583 141.76669059111504 18.74103503365268
v -15.487628565918314 141.76494908511367 10.267350539489208
v -12.673602495843 131.74957766891941 11.52064959947519
v -5.574664637722038 131.75131889925927 17.892202071226475
v 8.875029797916664 141.7666905911148 18.74102986611994
v -4.394980647019583 141.76669059111504 18.74103503365268
v -5.574664637722038 131.75131889925927 17.892202071226475
v 11.699724926647207 131.7513066429575 17.892195344332574
v 15.535764929630117 141.7649859672045 11.130476298597115
v 8.875029797916664 141.7666905911148 18.74102986611994
v 11.699724926647207 131.7513066429575 17.892195344332574
v 16.586871198576354 131.7495897552368 10.224381022669473
v 18.28707067790836 144.47463215326994 -1.8741094958432897e-05
v 15.535764929630117 141.7649859672045 11.130476298597115
v 16.586871198576354 131.7495897552368 10.224381022669473
v 16.592927958587218 131.74803186418063 -1.0284327996636089e-05
v -15.487628565918314 141.76494908511367 10.267350539489208
v -17.37672096536316 143.13594987950393 -4.67755505177117e-06
v -14.587488351055857 131.74805637678256 -1.0398531474853498e-05
v -12.673602495843 131.74957766891941 11.52064959947519
v -5.810995853194246 151.49845181689412 22.261669428994807
v -18.40726677520658 159.307701853199 25.82570799698695
v -15.487628565918314 141.76494908511367 10.267350539489208
v -4.394980647019583 141.76669059111504 18.74103503365268
v 8.458272269812738 159.6377273974309 26.695453735245188
v -5.810995853194246 151.49845181689412 22.261669428994807
v -4.394980647019583 141.76669059111504 18.74103503365268
v 8.875029797916664 141.7666905911148 18.74102986611994
v 17.101467162201043 153.8935648631587 13.611799287775925
v 8.458272269812738 159.6377273974309 26.695453735245188
v 8.875029797916664 141.7666905911148 18.74102986611994
v 15.535764929630117 141.7649859672045 11.130476298597115
v 17.10882330319087 155.92510633139017 -1.9783816999720477e-05
v 17.101467162201043 153.8935648631587 13.611799287775925
v 15.535764929630117 141.7649859672045 11.130476298597115
v 18.28707067790836 144.47463215326994 -1.8741094958432897e-05
v -18.40726677520658 159.307701853199 25.82570799698695
v -23.51163304711492 153.89185945227624 -1.5955301875646448e-05
v -17.37672096536316 143.13594987950393 -4.67755505177117e-06
v -15.487628565918314 141.76494908511367 10.267350539489208
v 17.05582106895691 106.54550495167143 59.3867295041998
v 16.95542852031947 106.84710865460372 64.23600908527712
v 6.434875467500051 102.80683690610809 61.587549326792576
v 15.709883806015684 170.80185598317573 14.336335056825222
v 7.391412889872701 170.50945864497245 23.84114374111095
v 8.458272269812738 159.6377273974309 26.695453735245188
v 19.984976839317362 157.3748447556725 13.747193080970376
v 19.96895556279614 159.5190461294302 -2.1368881932970463e-05
v 19.984976839317362 157.3748447556725 13.747193080970376
v 17.101467162201043 153.8935648631587 13.611799287775925
v 17.10882330319087 155.92510633139017 -1.9783816999720477e-05
v 19.984976839317362 157.3748447556725 13.747193080970376
v 19.96895556279614 159.5190461294302 -2.1368881932970463e-05
v 15.71723583476579 170.8001382209811 -2.119253789757751e-05
v 15.709883806015684 170.80185598317573 14.336335056825222
v -18.534443624817055 170.6233196565019 23.617733685670068
v -23.36299167570965 169.68439807128712 -1.808412650403145e-05
v -23.51163304711492 153.89185945227624 -1.5955301875646448e-05
v -18.40726677520658 159.307701853199 25.82570799698695
v -5.014243195408884 178.92801736868702 19.132864389342497
v -4.379631349502363 180.51727857947043 10.386760414534372
v -11.240321406627041 179.2295821452992 7.53017459887158
v -18.534443624817055 170.6233196565019 23.617733685670068
v -5.014243195408884 178.92801736868702 19.132864389342497
v 7.391412889872701 170.50945864497245 23.84114374111095
v 1.8792531010921183 180.28628369912983 7.5942820691943504
v -4.379631349502363 180.51727857947043 10.386760414534372
v 7.262573781182947 179.26725702860938 -1.9010499661098462e-05
v 1.8792531010921183 180.28628369912983 7.5942820691943504
v 7.391412889872701 170.50945864497245 23.84114374111095
v 15.709883806015684 170.80185598317573 14.336335056825222
v 15.709883806015684 170.80185598317573 14.336335056825222
v 15.71723583476579 170.8001382209811 -2.119253789757751e-05
v 7.262573781182947 179.26725702860938 -1.9010499661098462e-05
v -11.240321406627041 179.2295821452992 7.53017459887158
v -16.40690273719006 178.1687737514116 -1.5777367903687788e-05
v -23.36299167570965 169.68439807128712 -1.808412650403145e-05
v -18.534443624817055 170.6233196565019 23.617733685670068
v -14.929252458476485 166.54509758761077 31.013663679222322
v -3.4339859851087344 171.57138283885018 35.00543818425127
v -5.372690508370739 178.542239225577 28.30315259662968
v -18.534443624817055 170.6233196565019 23.617733685670068
v -18.40726677520658 159.307701853199 25.82570799698695
v -14.929252458476485 166.54509758761077 31.013663679222322
v -18.534443624817055 170.6233196565019 23.617733685670068
v 8.458272269812738 159.6377273974309 26.695453735245188
v 7.391412889872701 170.50945864497245 23.84114374111095
v 7.271295152221217 166.58700189653788 31.12147372070911
v -3.4339859851087344 171.57138283885018 35.00543818425127
v 7.271295152221217 166.58700189653788 31.12147372070911
v 7.391412889872701 170.50945864497245 23.84114374111095
v -5.372690508370739 178.542239225577 28.30315259662968
v -3.4796156197044112 141.25301829344548 30.591567738944793
v -10.039417897829377 142.86652380773052 32.057583180557344
v -18.40726677520658 159.307701853199 25.82570799698695
v -5.810995853194246 151.49845181689412 22.261669428994807
v 3.171591709976916 143.01249641394614 32.48072685714501
v -3.4796156197044112 141.25301829344548 30.591567738944793
v -5.810995853194246 151.49845181689412 22.261669428994807
v 8.458272269812738 159.6377273974309 26.695453735245188
v -10.609423319179522 150.09423740412018 39.83947653620806
v -3.4673990227013713 153.06232180093397 42.7218370259017
v -3.4339859851087344 171.57138283885018 35.00543818425127
v -14.929252458476485 166.54509758761077 31.013663679222322
v -10.039417897829377 142.86652380773052 32.057583180557344
v -10.609423319179522 150.09423740412018 39.83947653620806
v -14.929252458476485 166.54509758761077 31.013663679222322
v -18.40726677520658 159.307701853199 25.82570799698695
v 3.1838040331915782 150.11785530584257 39.90623124099125
v 3.171591709976916 143.01249641394614 32.48072685714501
v 8.458272269812738 159.6377273974309 26.695453735245188
v 7.271295152221217 166.58700189653788 31.12147372070911
v -3.4673990227013713 153.06232180093397 42.7218370259017
v 3.1838040331915782 150.11785530584257 39.90623124099125
v 7.271295152221217 166.58700189653788 31.12147372070911
v -3.4339859851087344 171.57138283885018 35.00543818425127
v -0.0397207119561056 136.7772136385297 34.769090889739694
v -6.270839258533862 136.07983026227308 36.129775843587254
v -10.039417897829377 142.86652380773052 32.057583180557344
v -3.4796156197044112 141.25301829344548 30.591567738944793
v -9.084252276831627 142.1928086523817 43.35262349775874
v -3.8146501889646403 147.06758133198875 46.02793875016119
v -3.4673990227013713 153.06232180093397 42.7218370259017
v -10.609423319179522 150.09423740412018 39.83947653620806
v -6.270839258533862 136.07983026227308 36.129775843587254
v -9.084252276831627 142.1928086523817 43.35262349775874
v -10.609423319179522 150.09423740412018 39.83947653620806
v -10.039417897829377 142.86652380773052 32.057583180557344
v 5.18978509813147 140.44189703869435 36.52251176267693
v -0.0397207119561056 136.7772136385297 34.769090889739694
v -3.4796156197044112 141.25301829344548 30.591567738944793
v 3.171591709976916 143.01249641394614 32.48072685714501
v 2.922742160649904 146.6349090341432 43.41456159187027
v 5.18978509813147 140.44189703869435 36.52251176267693
v 3.171591709976916 143.01249641394614 32.48072685714501
v 3.1838040331915782 150.11785530584257 39.90623124099125
v -3.8146501889646403 147.06758133198875 46.02793875016119
v 2.922742160649904 146.6349090341432 43.41456159187027
v 3.1838040331915782 150.11785530584257 39.90623124099125
v -3.4673990227013713 153.06232180093397 42.7218370259017
v 2.8625294923809106 128.86349183109797 38.394333458378966
v -5.297732467490766 127.95018924676236 40.17628056149444
v -6.270839258533862 136.07983026227308 36.129775843587254
v -0.0397207119561056 136.7772136385297 34.769090889739694
v -8.982180109901169 135.95573698074412 49.635339704380655
v -2.0811079654915243 142.3397384779429 53.13892278329973
v -3.8146501889646403 147.06758133198875 46.02793875016119
v -9.084252276831627 142.1928086523817 43.35262349775874
v -5.297732467490766 127.95018924676236 40.17628056149444
v -8.982180109901169 135.95573698074412 49.635339704380655
v -9.084252276831627 142.1928086523817 43.35262349775874
v -6.270839258533862 136.07983026227308 36.129775843587254
v 9.71109243824739 133.66275338753505 40.69064646676398
v 2.8625294923809106 128.86349183109797 38.394333458378966
v -0.0397207119561056 136.7772136385297 34.769090889739694
v 5.18978509813147 140.44189703869435 36.52251176267693
v 6.742180583437858 141.77311695503337 49.716469540105265
v 9.71109243824739 133.66275338753505 40.69064646676398
v 5.18978509813147 140.44189703869435 36.52251176267693
v 2.922742160649904 146.6349090341432 43.41456159187027
v -2.0811079654915243 142.3397384779429 53.13892278329973
v 6.742180583437858 141.77311695503337 49.716469540105265
v 2.922742160649904 146.6349090341432 43.41456159187027
v -3.8146501889646403 147.06758133198875 46.02793875016119
v 6.641134407834714 118.49076505905283 52.05207038641236
v 2.6505850457027478 118.04417005969113 52.92348284313999
v -5.297732467490766 127.95018924676236 40.17628056149444
v 2.8625294923809106 128.86349183109797 38.394333458378966
v 0.8488070777207395 121.95905397509006 57.54915863198989
v 4.223581663437845 125.08095480227999 59.26246542061521
v -2.0811079654915243 142.3397384779429 53.13892278329973
v -8.982180109901169 135.95573698074412 49.635339704380655
v 2.6505850457027478 118.04417005969113 52.92348284313999
v 0.8488070777207395 121.95905397509006 57.54915863198989
v -8.982180109901169 135.95573698074412 49.635339704380655
v -5.297732467490766 127.95018924676236 40.17628056149444
v 9.990219649582986 120.8377366346205 53.17501571276035
v 6.641134407834714 118.49076505905283 52.05207038641236
v 2.8625294923809106 128.86349183109797 38.394333458378966
v 9.71109243824739 133.66275338753505 40.69064646676398
v 8.538358936810376 124.80386411876154 57.58884117168039
v 9.990219649582986 120.8377366346205 53.17501571276035
v 9.71109243824739 133.66275338753505 40.69064646676398
v 6.742180583437858 141.77311695503337 49.716469540105265
v 4.223581663437845 125.08095480227999 59.26246542061521
v 8.538358936810376 124.80386411876154 57.58884117168039
v 6.742180583437858 141.77311695503337 49.716469540105265
v -2.0811079654915243 142.3397384779429 53.13892278329973
v 15.815405613471807 117.52637884232144 58.65508857562641
v 0.977172308359795 111.98711885482005 58.52373203113354
v 2.6505850457027478 118.04417005969113 52.92348284313999
v 6.641134407834714 118.49076505905283 52.05207038641236
v 9.990219649582986 120.8377366346205 53.17501571276035
v -0.5456734340159293 114.22708142510767 65.4652607816859
v 14.232178117311166 119.47628374033418 65.28204713038491
v 8.538358936810376 124.80386411876154 57.58884117168039
v 4.223581663437845 125.08095480227999 59.26246542061521
v 0.8488070777207395 121.95905397509006 57.54915863198989
v 0.977172308359795 111.98711885482005 58.52373203113354
v -0.5456734340159293 114.22708142510767 65.4652607816859
v 0.8488070777207395 121.95905397509006 57.54915863198989
v 2.6505850457027478 118.04417005969113 52.92348284313999
v 14.232178117311166 119.47628374033418 65.28204713038491
v 15.815405613471807 117.52637884232144 58.65508857562641
v 9.990219649582986 120.8377366346205 53.17501571276035
v 8.538358936810376 124.80386411876154 57.58884117168039
v 17.05582106895691 106.54550495167143 59.3867295041998
v 6.434875467500051 102.80683690610809 61.587549326792576
v 0.977172308359795 111.98711885482005 58.52373203113354
v 15.815405613471807 117.52637884232144 58.65508857562641
v 6.434875467500051 102.80683690610809 61.587549326792576
v 16.95542852031947 106.84710865460372 64.23600908527712
v 14.232178117311166 119.47628374033418 65.28204713038491
v -0.5456734340159293 114.22708142510767 65.4652607816859
v -0.5456734340159293 114.22708142510767 65.4652607816859
v 0.977172308359795 111.98711885482005 58.52373203113354
v 6.434875467500051 102.80683690610809 61.587549326792576
v 16.95542852031947 106.84710865460372 64.23600908527712
v 17.05582106895691 106.54550495167143 59.3867295041998
v 15.815405613471807 117.52637884232144 58.65508857562641
v 14.232178117311166 119.47628374033418 65.28204713038491
v 8.458272269812738 159.6377273974309 26.695453735245188
v 17.101467162201043 153.8935648631587 13.611799287775925
v 19.984976839317362 157.3748447556725 13.747193080970376
v 7.262573781182947 179.26725702860938 -1.9010499661098462e-05
v 1.4684676997524995 188.8763204672365 3.8793958459168234
v 1.8792531010921183 180.28628369912983 7.5942820691943504
v 3.3180747182212045 188.8535722629495 -2.485969979890875e-05
v 1.4684676997524995 188.8763204672365 3.8793958459168234
v 7.262573781182947 179.26725702860938 -1.9010499661098462e-05
v -16.40690273719006 178.1687737514116 -1.5777367903687788e-05
v -11.240321406627041 179.2295821452992 7.53017459887158
v -5.560750339260695 188.87606322829834 4.972881370562661
v -9.867938666333316 188.85357226294892 -2.5853027919575666e-05
v 15.153956739076962 78.20892885636549 5.593160896104433
v 17.87873051499766 108.11673050224778 -7.686166749838134e-06
v 14.82791922593072 109.01343955327702 9.648393629777646
v 12.442786083104721 78.93080767363055 13.554868151172164
v -4.379631349502363 180.51727857947043 10.386760414534372
v -2.2137398862703033 188.59467094073673 6.027602335089163
v -5.560750339260695 188.87606322829834 4.972881370562661
v -11.240321406627041 179.2295821452992 7.53017459887158
v 1.8792531010921183 180.28628369912983 7.5942820691943504
v 1.4684676997524995 188.8763204672365 3.8793958459168234
v -2.2137398862703033 188.59467094073673 6.027602335089163
v -4.379631349502363 180.51727857947043 10.386760414534372
v -5.372690508370739 178.542239225577 28.30315259662968
v -5.014243195408884 178.92801736868702 19.132864389342497
v -18.534443624817055 170.6233196565019 23.617733685670068
v -5.372690508370739 178.542239225577 28.30315259662968
v 7.391412889872701 170.50945864497245 23.84114374111095
v -5.014243195408884 178.92801736868702 19.132864389342497
v 15.153956739076962 78.20892885636549 5.593160896104433
v 15.150740475199179 78.17674234494156 -5.568806895946961
v 17.87873051499766 108.11673050224778 -7.686166749838134e-06
v 3.3180747182212045 188.8535722629495 -2.485969979890875e-05
v -2.0008579210521567 192.05747977872502 -2.3208572775681253e-05
v 1.4684676997524995 188.8763204672365 3.8793958459168234
v -5.560750339260695 188.87606322829834 4.972881370562661
v -2.0008579210521567 192.05747977872502 -2.3208572775681253e-05
v -9.867938666333316 188.85357226294892 -2.5853027919575666e-05
v -2.2137398862703033 188.59467094073673 6.027602335089163
v -2.0008579210521567 192.05747977872502 -2.3208572775681253e-05
v -5.560750339260695 188.87606322829834 4.972881370562661
v 1.4684676997524995 188.8763204672365 3.8793958459168234
v -2.0008579210521567 192.05747977872502 -2.3208572775681253e-05
v -2.2137398862703033 188.59467094073673 6.027602335089163
f 1 2 3
f 1 3 4
f 5 6 7
f 5 7 8
f 9 10 11
f 9 11 12
f 13 14 15
f 13 15 16
f 17 18 19
f 17 19 20
f 21 22 23
f 21 23 24
f 25 26 27
f 25 27 28
f 29 30 31
f 29 31 32
f 33 34 35
f 33 35 36
f 37 38 39
f 37 39 40
f 45 41 42
f 45 42 43
f 43 44 45
f 46 47 48
f 46 48 49
f 54 50 51
f 54 51 52
f 52 53 54
f 55 56 57
f 55 57 58
f 59 60 61
f 59 61 62
f 63 64 65
f 63 65 66
f 67 68 69
f 67 69 70
f 71 72 73
f 71 73 74
f 75 76 77
f 75 77 78
f 79 80 81
f 79 81 82
f 83 84 85
f 83 85 86
f 87 88 89
f 87 89 90
f 91 92 93
f 91 93 94
f 95 96 97
f 95 97 98
f 99 100 101
f 99 101 102
f 103 104 105
f 103 105 106
f 107 108 109
f 107 109 110
f 111 112 113
f 111 113 114
f 115 116 117
f 115 117 118
f 119 120 121
f 119 121 122
f 123 124 125
f 123 125 126
f 127 128 129
f 127 129 130
f 131 132 133
f 131 133 134
f 135 136 137
f 135 137 138
f 139 140 141
f 139 141 142
f 143 144 145
f 143 145 146
f 147 148 149
f 147 149 150
f 151 152 153
f 151 153 154
f 155 156 157
f 155 157 158
f 159 160 161
f 159 161 162
f 163 164 165
f 163 165 166
f 167 168 169
f 167 169 170
f 171 172 173
f 171 173 174
f 175 176 177
f 175 177 178
f 179 180 181
f 179 181 182
f 183 184 185
f 183 185 186
f 187 188 189
f 187 189 190
f 191 192 193
f 191 193 194
f 195 196 197
f 195 197 198
f 199 200 201
f 199 201 202
f 203 204 205
f 203 205 206
f 207 208 209
f 207 209 210
f 211 212 213
f 211 213 214
f 215 216 217
f 215 217 218
f 219 220 221
f 219 221 222
f 223 224 225
f 223 225 226
f 227 228 229
f 227 229 230
f 231 232 233
f 231 233 234
f 235 236 237
f 235 237 238
f 239 240 241
f 239 241 242
f 243 244 245
f 243 245 246
f 247 248 249
f 250 251 252
f 250 252 253
f 254 255 256
f 254 256 257
f 258 259 260
f 258 260 261
f 262 263 264
f 262 264 265
f 266 267 268
f 266 268 269
f 270 271 272
f 270 272 273
f 274 275 276
f 274 276 277
f 278 279 280
f 281 282 283
f 281 283 284
f 285 286 287
f 285 287 288
f 289 290 291
f 292 293 294
f 295 296 297
f 295 297 298
f 299 300 301
f 299 301 302
f 303 304 305
f 303 305 306
f 307 308 309
f 307 309 310
f 311 312 313
f 311 313 314
f 315 316 317
f 315 317 318
f 319 320 321
f 319 321 322
f 323 324 325
f 323 325 326
f 327 328 329
f 327 329 330
f 331 332 333
f 331 333 334
f 335 336 337
f 335 337 338
f 339 340 341
f 339 341 342
f 343 344 345
f 343 345 346
f 347 348 349
f 347 349 350
f 351 352 353
f 351 353 354
f 355 356 357
f 355 357 358
f 359 360 361
f 359 361 362
f 363 364 365
f 363 365 366
f 367 368 369
f 367 369 370
f 371 372 373
f 371 373 374
f 375 376 377
f 375 377 378
f 379 380 381
f 379 381 382
f 383 384 385
f 383 385 386
f 387 388 389
f 387 389 390
f 391 392 393
f 391 393 394
f 399 395 396
f 399 396 397
f 397 398 399
f 404 400 401
f 404 401 402
f 402 403 404
f 405 406 407
f 405 407 408
f 409 410 411
f 409 411 412
f 413 414 415
f 413 415 416
f 417 418 419
f 417 419 420
f 421 422 423
f 424 425 426
f 424 426 427
f 428 429 430
f 431 432 433
f 434 435 436
f 437 438 439
f 437 439 440
f 441 442 443
f 441 443 444
f 445 446 447
f 445 447 448
f 449 450 451
f 449 451 452
f 453 454 455
f 456 457 458
f 459 460 461
f 462 463 464
f 465 466 467
f 468 469 470
f 471 472 473
f 474 475 476
f 474 476 477
f 478 479 480
f 478 480 481
f 482 483 484
f 482 484 485
f 486 487 488
f 486 488 489
f 490 491 492
f 490 492 493
f 494 495 496
f 494 496 497
f 498 499 500
f 498 500 501
f 502 503 504
f 502 504 505
f 506 507 508
f 506 508 509
f 510 511 512
f 510 512 513
f 514 515 516
f 514 516 517
f 522 518 519
f 519 520 521
f 519 521 522
f 523 524 525
f 523 525 526
f 531 527 528
f 531 528 529
f 529 530 531
f 532 533 534
f 532 534 535
f 536 537 538
f 536 538 539
f 540 541 542
f 540 542 543
f 544 545 546
f 544 546 547
f 548 549 550
f 548 550 551
f 552 553 554
f 552 554 555
f 556 557 558
f 556 558 559
f 560 561 562
f 560 562 563
f 564 565 566
f 564 566 567
f 568 569 570
f 568 570 571
f 572 573 574
f 572 574 575
f 576 577 578
f 576 578 579
f 580 581 582
f 580 582 583
f 584 585 586
f 584 586 587
f 588 589 590
f 588 590 591
f 592 593 594
f 592 594 595
f 596 597 598
f 596 598 599
f 600 601 602
f 600 602 603
f 604 605 606
f 604 606 607
f 608 609 610
f 608 610 611
f 612 613 614
f 612 614 615
f 616 617 618
f 616 618 619
f 620 621 622
f 620 622 623
f 624 625 626
f 624 626 627
f 628 629 630
f 628 630 631
f 632 633 634
f 632 634 635
f 636 637 638
f 636 638 639
f 640 641 642
f 640 642 643
f 644 645 646
f 644 646 647
f 648 649 650
f 648 650 651
f 652 653 654
f 652 654 655
f 656 657 658
f 656 658 659
f 660 661 662
f 660 662 663
f 664 665 666
f 664 666 667
f 668 669 670
f 668 670 671
f 672 673 674
f 672 674 675
f 676 677 678
f 676 678 679
f 680 681 682
f 680 682 683
f 684 685 686
f 684 686 687
f 688 689 690
f 688 690 691
f 692 693 694
f 692 694 695
f 696 697 698
f 696 698 699
f 700 701 702
f 700 702 703
f 704 705 706
f 704 706 707
f 708 709 710
f 708 710 711
f 712 713 714
f 712 714 715
f 716 717 718
f 716 718 719
f 720 721 722
f 720 722 723
f 724 725 726
f 727 728 729
f 727 729 730
f 731 732 733
f 731 733 734
f 735 736 737
f 735 737 738
f 739 740 741
f 739 741 742
f 743 744 745
f 743 745 746
f 747 748 749
f 747 749 750
f 751 752 753
f 751 753 754
f 755 756 757
f 758 759 760
f 758 760 761
f 762 763 764
f 762 764 765
f 766 767 768
f 769 770 771
f 772 773 774
f 772 774 775
f 776 777 778
f 776 778 779
f 780 781 782
f 780 782 783
f 784 785 786
f 784 786 787
f 788 789 790
f 788 790 791
f 792 793 794
f 792 794 795
f 796 797 798
f 796 798 799
f 800 801 802
f 800 802 803
f 804 805 806
f 804 806 807
f 808 809 810
f 808 810 811
f 812 813 814
f 812 814 815
f 816 817 818
f 816 818 819
f 820 821 822
f 820 822 823
f 824 825 826
f 824 826 827
f 828 829 830
f 828 830 831
f 832 833 834
f 832 834 835
f 836 837 838
f 836 838 839
f 840 841 842
f 840 842 843
f 844 845 846
f 844 846 847
f 848 849 850
f 848 850 851
f 852 853 854
f 852 854 855
f 856 857 858
f 856 858 859
f 860 861 862
f 860 862 863
f 864 865 866
f 864 866 867
f 868 869 870
f 868 870 871
f 876 872 873
f 876 873 874
f 874 875 876
f 881 877 878
f 881 878 879
f 879 880 881
f 882 883 884
f 882 884 885
f 886 887 888
f 886 888 889
f 890 891 892
f 890 892 893
f 894 895 896
f 894 896 897
f 898 899 900
f 901 902 903
f 901 903 904
f 905 906 907
f 908 909 910
f 911 912 913
f 914 915 916
f 914 916 917
f 918 919 920
f 918 920 921
f 922 923 924
f 922 924 925
f 926 927 928
f 926 928 929
f 930 931 932
f 933 934 935
f 936 937 938
f 939 940 941
f 942 943 944
f 945 946 947
f 948 949 950
v 0.6813490674048481 185.1856140003583 -5.334439146503739
v 10.421665289624825 183.4355188773693 4.300640374028484
v 0.681350263148091 181.47324293023624 8.197185421772447
v 0.6813490674048481 185.1856140003583 -5.334439146503739
v 13.009250954270279 185.18560813285717 -5.334440722367546
v 10.421665289624825 183.4355188773693 4.300640374028484
v 0.6813490674048481 185.1856140003583 -5.334439146503739
v 10.42166208221908 185.3754134363361 -14.469166387702648
v 13.009250954270279 185.18560813285717 -5.334440722367546
v 0.6813490674048481 185.1856140003583 -5.334439146503739
v 0.6813450662508393 183.62820970558457 -20.05501583986674
v 10.42166208221908 185.3754134363361 -14.469166387702648
v 0.6813490674048481 185.1856140003583 -5.334439146503739
v -9.058973925430736 185.37542268661542 -14.469163614669556
v 0.6813450662508393 183.62820970558457 -20.05501583986674
v 0.6813490674048481 185.1856140003583 -5.334439146503739
v -11.646552819460371 185.1856197804194 -5.334436424943572
v -9.058973925430736 185.37542268661542 -14.469163614669556
v 0.6813490674048481 185.1856140003583 -5.334439146503739
v -9.058970718024712 183.4355280110619 4.300644674656722
v -11.646552819460371 185.1856197804194 -5.334436424943572
v 0.6813490674048481 185.1856140003583 -5.334439146503739
v 0.681350263148091 181.47324293023624 8.197185421772447
v -9.058970718024712 183.4355280110619 4.300644674656722
v 0.5417025685371119 196.20432798947795 6.447763843343923
v 8.5603498307014 196.30099244529728 3.4158062954520823
v 7.139291685119317 207.104347494995 1.332027253206201
v 0.6813677347184625 206.9007881251761 3.99923534239133
v 10.421665289624825 183.4355188773693 4.300640374028484
v 13.009250954270279 185.18560813285717 -5.334440722367546
v 9.814258314201041 206.7374030443115 -5.172690977607989
v 7.139291685119317 207.104347494995 1.332027253206201
v 8.5603498307014 196.30099244529728 3.4158062954520823
v 13.009250954270279 185.18560813285717 -5.334440722367546
v 10.42166208221908 185.3754134363361 -14.469166387702648
v 7.13929451003259 206.10773187084843 -11.452878507336775
v 9.814258314201041 206.7374030443115 -5.172690977607989
v 10.42166208221908 185.3754134363361 -14.469166387702648
v 0.6813450662508393 183.62820970558457 -20.05501583986674
v 0.6813627078006332 205.64924668641845 -16.036577023509906
v 7.13929451003259 206.10773187084843 -11.452878507336775
v 0.6813450662508393 183.62820970558457 -20.05501583986674
v -9.058973925430736 185.37542268661542 -14.469163614669556
v -5.776560500052815 206.10773804316398 -11.452877183572717
v 0.6813627078006332 205.64924668641845 -16.036577023509906
v -9.058973925430736 185.37542268661542 -14.469163614669556
v -11.646552819460371 185.1856197804194 -5.334436424943572
v -8.451520923768996 206.73741160840623 -5.172686945176709
v -5.776560500052815 206.10773804316398 -11.452877183572717
v -11.646552819460371 185.1856197804194 -5.334436424943572
v -9.058970718024712 183.4355280110619 4.300644674656722
v -7.1976493613725445 196.3009998773141 3.4158092014069705
v -5.776557196815694 207.10435362358768 1.3320291498170853
v -8.451520923768996 206.73741160840623 -5.172686945176709
v -9.058970718024712 183.4355280110619 4.300644674656722
v 0.681350263148091 181.47324293023624 8.197185421772447
v 0.5417025685371119 196.20432798947795 6.447763843343923
v -7.1976493613725445 196.3009998773141 3.4158092014069705
v 0.6813611232651304 211.06945823939623 -7.302521981982833
v 0.6813677347184625 206.9007881251761 3.99923534239133
v 7.139291685119317 207.104347494995 1.332027253206201
v 0.6813611232651304 211.06945823939623 -7.302521981982833
v 7.139291685119317 207.104347494995 1.332027253206201
v 9.814258314201041 206.7374030443115 -5.172690977607989
v 0.6813611232651304 211.06945823939623 -7.302521981982833
v 9.814258314201041 206.7374030443115 -5.172690977607989
v 7.13929451003259 206.10773187084843 -11.452878507336775
v 0.6813611232651304 211.06945823939623 -7.302521981982833
v 7.13929451003259 206.10773187084843 -11.452878507336775
v 0.6813627078006332 205.64924668641845 -16.036577023509906
v 0.6813611232651304 211.06945823939623 -7.302521981982833
v 0.6813627078006332 205.64924668641845 -16.036577023509906
v -5.776560500052815 206.10773804316398 -11.452877183572717
v 0.6813611232651304 211.06945823939623 -7.302521981982833
v -5.776560500052815 206.10773804316398 -11.452877183572717
v -8.451520923768996 206.73741160840623 -5.172686945176709
v 0.6813611232651304 211.06945823939623 -7.302521981982833
v -8.451520923768996 206.73741160840623 -5.172686945176709
v -5.776557196815694 207.10435362358768 1.3320291498170853
v 0.6813611232651304 211.06945823939623 -7.302521981982833
v -5.776557196815694 207.10435362358768 1.3320291498170853
v 0.6813677347184625 206.9007881251761 3.99923534239133
v 0.5417025685371119 196.20432798947795 6.447763843343923
v 0.681350263148091 181.47324293023624 8.197185421772447
v 10.421665289624825 183.4355188773693 4.300640374028484
v 8.5603498307014 196.30099244529728 3.4158062954520823
v -7.1976493613725445 196.3009998773141 3.4158092014069705
v 0.5417025685371119 196.20432798947795 6.447763843343923
v 0.6813677347184625 206.9007881251761 3.99923534239133
v -5.776557196815694 207.10435362358768 1.3320291498170853
f 951 952 953
f 954 955 956
f 957 958 959
f 960 961 962
f 963 964 965
f 966 967 968
f 969 970 971
f 972 973 974
f 975 976 977
f 975 977 978
f 983 979 980
f 983 980 981
f 981 982 983
f 984 985 986
f 984 986 987
f 988 989 990
f 988 990 991
f 992 993 994
f 992 994 995
f 996 997 998
f 996 998 999
f 1004 1000 1001
f 1004 1001 1002
f 1002 1003 1004
f 1005 1006 1007
f 1005 1007 1008
f 1009 1010 1011
f 1012 1013 1014
f 1015 1016 1017
f 1018 1019 1020
f 1021 1022 1023
f 1024 1025 1026
f 1027 1028 1029
f 1030 1031 1032
f 1033 1034 1035
f 1033 1035 1036
f 1037 1038 1039
f 1037 1039 1040
v 59.89748474795741 57.87213675194442 -17.267708953492104
v 36.580602018329955 84.49914972074555 16.185543305283772
v 50.419372231103665 95.75299741075426 -2.982437788671575
v 59.89748474795741 57.87213675194442 -17.267708953492104
v 50.419372231103665 95.75299741075426 -2.982437788671575
v 56.272442004091545 105.54261692020265 -26.55099676403688
v 36.580602018329955 84.49914972074555 16.185543305283772
v 12.41500831619851 143.24824605591346 40.490791832391096
v 28.316356975020284 156.70624640171948 16.846462845457665
v 50.419372231103665 95.75299741075426 -2.982437788671575
v 50.419372231103665 95.75299741075426 -2.982437788671575
v 28.316356975020284 156.70624640171948 16.846462845457665
v 36.23200578458591 168.70001919802849 -11.198445304493362
v 56.272442004091545 105.54261692020265 -26.55099676403688
v 51.92918065494365 96.02983019875806 -2.1504468314861924
v 36.580602018329955 84.49914972074555 16.185543305283772
v 59.89748474795741 57.87213675194442 -17.267708953492104
v 56.272442004091545 105.54261692020265 -26.55099676403688
v 51.92918065494365 96.02983019875806 -2.1504468314861924
v 59.89748474795741 57.87213675194442 -17.267708953492104
v 36.580602018329955 84.49914972074555 16.185543305283772
v 51.92918065494365 96.02983019875806 -2.1504468314861924
v 29.82616539886027 156.9830791897233 17.678453802643048
v 12.41500831619851 143.24824605591346 40.490791832391096
v 51.92918065494365 96.02983019875806 -2.1504468314861924
v 56.272442004091545 105.54261692020265 -26.55099676403688
v 36.23200578458591 168.70001919802849 -11.198445304493362
v 29.82616539886027 156.9830791897233 17.678453802643048
v 36.23200578458591 168.70001919802849 -11.198445304493362
v 28.316356975020284 156.70624640171948 16.846462845457665
v 29.82616539886027 156.9830791897233 17.678453802643048
v 12.41500831619851 143.24824605591346 40.490791832391096
v 29.82616539886027 156.9830791897233 17.678453802643048
v 28.316356975020284 156.70624640171948 16.846462845457665
f 1041 1042 1043
f 1044 1045 1046
f 1047 1048 1049
f 1047 1049 1050
f 1051 1052 1053
f 1051 1053 1054
f 1055 1056 1057
f 1058 1059 1060
f 1061 1062 1063
f 1061 1063 1064
f 1065 1066 1067
f 1065 1067 1068
f 1069 1070 1071
f 1072 1073 1074
v -47.568275244031234 103.553409692016 -12.848354881287975
v -45.75818325992518 103.60423920858531 -13.421141415037113
v -45.771669148233045 98.42848495821221 -10.7743280718163
v -45.75818325992518 103.60423920858531 -13.421141415037113
v -47.568275244031234 103.553409692016 -12.848354881287975
v -45.009789739975105 104.86406252687385 -7.795577032447227
v -14.453098640401844 50.86487795936541 83.97625503040913
v -8.764874962433378 46.02247638841503 101.52218219899784
v -47.568275244031234 103.553409692016 -12.848354881287975
v -45.771669148233045 98.42848495821221 -10.7743280718163
v -8.764874962433378 46.02247638841503 101.52218219899784
v -13.69121686148819 57.30045358436842 86.95501338892677
v -45.009789739975105 104.86406252687385 -7.795577032447227
v -47.568275244031234 103.553409692016 -12.848354881287975
v -13.69121686148819 57.30045358436842 86.95501338892677
v -8.764874962433378 46.02247638841503 101.52218219899784
v -45.75818325992518 103.60423920858531 -13.421141415037113
v -45.009789739975105 104.86406252687385 -7.795577032447227
v -8.764874962433378 46.02247638841503 101.52218219899784
v -14.453098640401844 50.86487795936541 83.97625503040913
v -45.771669148233045 98.42848495821221 -10.7743280718163
v -45.75818325992518 103.60423920858531 -13.421141415037113
v -40.68002116569825 78.02403416673405 3.505346458359284
v -41.17675689526717 95.24649865399263 3.4639226012189397
v -38.651229762736875 93.25396767625705 7.122819613550959
v -40.68002116569825 78.02403416673405 3.505346458359284
v -38.651229762736875 93.25396767625705 7.122819613550959
v -41.03423090879255 93.18705037079368 7.876897935535325
v -40.68002116569825 78.02403416673405 3.505346458359284
v -41.03423090879255 93.18705037079368 7.876897935535325
v -41.17675689526717 95.24649865399263 3.4639226012189397
v -41.17675689526717 95.24649865399263 3.4639226012189397
v -37.37506388939623 105.94092966960397 16.426872187596118
v -38.651229762736875 93.25396767625705 7.122819613550959
v -38.651229762736875 93.25396767625705 7.122819613550959
v -37.37506388939623 105.94092966960397 16.426872187596118
v -41.03423090879255 93.18705037079368 7.876897935535325
v -41.03423090879255 93.18705037079368 7.876897935535325
v -37.37506388939623 105.94092966960397 16.426872187596118
v -41.17675689526717 95.24649865399263 3.4639226012189397
f 1075 1076 1077
f 1078 1079 1080
f 1081 1082 1083
f 1081 1083 1084
f 1085 1086 1087
f 1085 1087 1088
f 1089 1090 1091
f 1089 1091 1092
f 1093 1094 1095
f 1093 1095 1096
f 1097 1098 1099
f 1100 1101 1102
f 1103 1104 1105
f 1106 1107 1108
f 1109 1110 1111
f 1112 1113 1114
