../models/pack2/casstle_wall.FBX
0.01908838
-5.471179e-10
-0.99981767
173.45688
0.0
0.99999994
2.8269511e-09
125.47438
0.9998178
4.26996e-10
0.019088378
-89.763504
0.0
0.0
0.0
1.0
../models/pack2/casstle_wall.FBX
-0.8882511
-0.45935822
4.2331028e-10
-106.52179
0.0
3.6365577e-11
1.0
-167.13908
-0.45935825
0.8882511
-1.3108314e-09
18.310295
0.0
0.0
0.0
1.0
../models/pack2/casstle_wall.FBX
-0.41226065
-0.91106594
1.1727198e-08
-33.33286
0.0
-5.1833515e-09
1.0
-165.50082
-0.91106594
0.41226065
5.8898264e-09
57.24258
0.0
0.0
0.0
1.0
../models/pack2/casstle_wall.FBX
-0.06705279
-0.99774945
3.2250043e-09
-0.27436066
0.0
6.6885377e-09
1.0
-165.0544
-0.99774945
0.06705279
4.4442894e-10
125.96198
0.0
0.0
0.0
1.0
../models/pack2/casstle_wall.FBX
0.19178768
-0.98143643
-3.4416114e-10
7.873474
0.0
-1.4533619e-10
1.0
-164.15991
-0.98143643
-0.19178769
-3.82816e-11
200.17857
0.0
0.0
0.0
1.0
../models/pack2/casstle_wall.FBX
0.4948656
-0.8689695
-7.533785e-09
-7.9512863
0.0
4.524214e-09
1.0
-162.13931
-0.8689695
-0.4948656
-5.9449334e-11
270.24875
0.0
0.0
0.0
1.0
../models/pack2/casstle_wall.FBX
0.69166386
-0.7222196
9.671055e-10
-45.48256
0.0
-5.4268554e-09
1.0
-160.56035
-0.7222196
-0.69166386
-3.0668161e-09
334.25885
0.0
0.0
0.0
1.0
../models/pack2/casstle_wall.FBX
0.78978086
-0.6133891
-5.5865144e-09
-93.0859
0.0
5.474057e-10
1.0
-164.15991
-0.6133891
-0.78978086
1.2167675e-08
389.86377
0.0
0.0
0.0
1.0
../models/pack2/casstle_wall.FBX
0.84307307
-0.5377991
7.4185635e-09
-146.67119
0.0
-4.916421e-09
1.0
-164.38376
-0.53779906
-0.8430731
7.520544e-10
437.62372
0.0
0.0
0.0
1.0
../models/pack2/casstle_wall.FBX
0.9671359
-0.2542599
-5.492562e-10
-206.98772
0.0
-4.445427e-09
1.0
-164.38376
-0.2542599
-0.96713597
-7.0453794e-09
480.57062
0.0
0.0
0.0
1.0
../models/pack2/casstle_wall.FBX
0.9965344
0.08318189
-1.3767687e-10
-281.0475
0.0
-4.129901e-09
1.0
-163.26323
0.08318189
-0.9965344
-3.459215e-10
504.33517
0.0
0.0
0.0
1.0
../models/pack2/casstle_wall.FBX
0.9456669
0.32513702
1.7048407e-10
-355.0995
0.0
1.362892e-09
0.99999994
-162.36438
0.32513702
-0.94566685
-1.1757528e-08
499.08984
0.0
0.0
0.0
1.0
../models/pack2/casstle_wall.FBX
0.885596
0.46445644
-2.628151e-10
-424.6435
0.0
-3.7038435e-09
1.0
-163.26323
0.46445644
-0.88559604
6.1768954e-09
477.54556
0.0
0.0
0.0
1.0
../models/pack2/casstle_wall.FBX
0.7806866
0.6249227
-1.0482388e-09
-491.12762
0.0
6.4410006e-09
1.0
-162.13934
0.6249227
-0.7806866
-2.755895e-09
445.1054
0.0
0.0
0.0
1.0
../models/pack2/casstle_wall.FBX
0.6214135
0.7834828
-3.4312055e-09
-548.39905
0.0
4.17141e-09
1.0
-164.60747
0.78348273
-0.6214136
3.6420253e-09
401.35065
0.0
0.0
0.0
1.0
../models/pack2/casstle_wall.FBX
0.36192966
0.9322055
1.734608e-09
-596.32965
0.0
5.2727174e-09
1.0
-163.48763
0.93220544
-0.36192966
-1.0953811e-09
342.84616
0.0
0.0
0.0
1.0
../models/pack2/casstle_wall.FBX
0.20818676
0.9780891
-8.998386e-09
-617.89185
0.0
-1.3611663e-09
1.0
-164.15994
0.9780891
-0.20818676
1.2772667e-09
277.1703
0.0
0.0
0.0
1.0
../models/pack2/casstle_wall.FBX
0.050833806
0.9987071
-5.631433e-10
-633.7548
0.0
-6.9076753e-09
0.99999994
-164.38377
0.9987071
-0.050833806
1.6757568e-10
208.25568
0.0
0.0
0.0
1.0
../models/pack2/casstle_wall.FBX
-0.14588743
0.9893012
-5.7663554e-09
-635.2687
0.0
-3.3231924e-09
1.0
-164.83101
0.9893012
0.14588743
5.74355e-10
135.9834
0.0
0.0
0.0
1.0
../models/pack2/casstle_wall.FBX
-0.5662903
0.8242058
-7.2788238e-09
-620.53217
0.0
2.221098e-09
1.0
-165.27771
0.8242058
0.5662904
7.8369666e-10
62.987568
0.0
0.0
0.0
1.0
../models/pack2/casstle_wall.FBX
-0.60866
0.79343116
-4.66601e-10
-583.2026
0.0
-6.9076753e-09
0.99999994
-164.38377
0.79343116
0.60866
-3.3173428e-09
7.3603363
0.0
0.0
0.0
1.0
../models/pack2/casstle_wall.FBX
-0.71072215
0.7034728
-4.3302553e-09
-536.538
0.0
-1.822996e-09
0.99999994
-164.15993
0.70347285
0.7107221
1.0401138e-09
-47.60489
0.0
0.0
0.0
1.0
../models/pack2/casstle_wall.FBX
-0.93296826
0.35995865
2.5401508e-09
-483.6815
0.0
3.9312846e-09
1.0
-164.60747
0.35995865
0.9329683
-5.225523e-09
-95.61983
0.0
0.0
0.0
1.0
../models/pack2/casstle_wall.FBX
-0.96990275
0.24349268
-4.925631e-10
-418.11145
0.0
-2.8335965e-09
1.0
-164.83102
0.24349268
0.96990275
-2.7229943e-09
-118.81245
0.0
0.0
0.0
1.0
../models/pack2/casstle_wall.FBX
-0.9960182
-0.089150645
6.1848493e-10
-348.38013
0.0
6.891068e-09
1.0
-165.05444
-0.089150645
0.99601823
-8.392734e-09
-133.70645
0.0
0.0
0.0
1.0
../models/pack2/casstle_wall.FBX
-0.81985044
-0.5725777
1.288111e-09
-270.33813
0.0
-1.3869883e-10
1.0000001
-163.71187
-0.5725777
0.81985044
9.667278e-09
-125.358215
0.0
0.0
0.0
1.0
../models/pack2/tower.FBX
-0.98987156
0.14196591
1.1309598e-09
-430.43616
0.0
-4.4862283e-09
0.99999994
-162.83694
0.14196591
0.9898715
-2.335118e-08
134.34447
0.0
0.0
0.0
1.0
../models/pack2/big_house.FBX
-0.83033633
-0.5572626
-4.55292e-09
-256.67184
0.0
2.8882923e-09
0.99999994
-164.92082
-0.5572626
0.8303363
-4.7111124e-09
281.27347
0.0
0.0
0.0
1.0
../models/pack2/big_house.FBX
-0.85927564
-0.51151276
5.260148e-10
-514.5208
0.0
-1.6554127e-09
0.99999994
-165.89784
-0.5115128
0.85927564
-1.9863844e-10
89.365585
0.0
0.0
0.0
1.0
../models/pack2/tree_01.FBX
-0.7861867
-0.61798906
-5.296368e-09
-440.4301
0.0
-4.2884913e-09
0.99999994
-163.75868
-0.61798906
0.78618664
-3.4171892e-09
26.223938
0.0
0.0
0.0
1.0
../models/pack2/wood_building.FBX
-0.80535984
0.59278625
2.02008e-09
-51.857635
0.0
-1.2164694e-08
1.0
-165.12387
0.59278625
0.80535984
-5.26941e-09
498.13693
0.0
0.0
0.0
1.0
../models/pack2/house_02.FBX
-0.786471
-0.6176272
6.543667e-09
-529.00476
0.0
2.5304807e-09
1.0
-161.87329
-0.6176272
0.786471
1.7839824e-08
179.31435
0.0
0.0
0.0
1.0
../models/pack2/ambar.FBX
0.52334845
-0.85211885
-4.5807305e-09
-397.77716
0.0
-5.7800165e-10
1.0
-160.12556
-0.8521188
-0.52334845
9.942482e-10
495.30707
0.0
0.0
0.0
1.0
../models/pack2/rock_03.FBX
-0.67095256
-0.7415003
-9.181398e-10
-133.68811
0.0
-3.3438186e-10
1.0
-162.56819
-0.7415003
0.67095256
-1.1511534e-09
-230.46977
0.0
0.0
0.0
1.0
../models/pack2/rock_03.FBX
-0.67095256
-0.7415003
-9.181398e-10
-209.69185
0.0
-3.3438186e-10
1.0
-162.56819
-0.7415003
0.67095256
-1.1511534e-09
-260.4131
0.0
0.0
0.0
1.0
../models/pack2/rock_03.FBX
-0.67095256
-0.7415003
-9.181398e-10
-209.17633
0.0
-3.3438186e-10
1.0
-162.56819
-0.7415003
0.67095256
-1.1511534e-09
-219.2548
0.0
0.0
0.0
1.0
../models/pack2/rock_03.FBX
-0.67095256
-0.7415003
-9.181398e-10
-167.61356
0.0
-3.3438186e-10
1.0
-162.56819
-0.7415003
0.67095256
-1.1511534e-09
-262.3181
0.0
0.0
0.0
1.0
../models/pack2/rock_03.FBX
-0.67095256
-0.7415003
-9.181398e-10
-153.55975
0.0
-3.3438186e-10
1.0
-162.56819
-0.7415003
0.67095256
-1.1511534e-09
-328.52496
0.0
0.0
0.0
1.0
../models/pack2/rock_wall_small.FBX
-0.8759139
-0.48246744
-1.4586141e-08
-78.27367
0.0
5.4378155e-09
1.0
-108.274216
-0.48246744
0.87591386
-3.7623167e-09
4.969528
0.0
0.0
0.0
1.0
../models/pack2/rock_wall_small.FBX
-0.8438628
-0.5365591
-7.639537e-09
-258.26697
0.0
5.4378155e-09
1.0
-108.274216
-0.5365591
0.8438627
-5.5156946e-10
-136.55133
0.0
0.0
0.0
1.0
../models/pack2/wood_wall.FBX
0.27353135
-0.96186304
1.8706555e-08
218.23727
0.0
-1.0527469e-08
1.0
-162.88148
-0.9618631
-0.27353135
3.9396078e-09
293.46878
0.0
0.0
0.0
1.0
../models/pack2/wood_wall.FBX
0.77913177
-0.62686014
-2.9391511e-09
300.91638
0.0
-1.1349984e-08
1.0
-162.68631
-0.62686014
-0.77913177
-1.980948e-08
191.99391
0.0
0.0
0.0
1.0
../models/pack2/wood_wall.FBX
0.9997868
0.020647619
-8.5094876e-10
428.94553
0.0
-4.3584336e-09
0.99999994
-161.39554
0.020647619
-0.9997868
7.3900353e-09
164.33237
0.0
0.0
0.0
1.0
../models/pack2/wood_wall.FBX
0.6074828
0.7943328
-1.502633e-08
534.9978
0.0
-2.3631515e-09
1.0
-161.91246
0.7943328
-0.6074828
9.749272e-09
239.23935
0.0
0.0
0.0
1.0
../models/pack2/wood_wall.FBX
-0.2486222
0.9686005
5.7690155e-09
541.9312
0.0
-9.31154e-09
1.0
-162.94386
0.9686005
0.2486222
-5.716214e-10
369.54492
0.0
0.0
0.0
1.0
../models/pack2/wood_wall.FBX
-0.9150126
0.40342522
5.187072e-09
444.15735
0.0
-3.325404e-09
1.0
-163.45831
0.40342522
0.9150126
9.619825e-10
455.47253
0.0
0.0
0.0
1.0
../models/pack2/wood_wall.FBX
-0.9747235
0.22341458
1.0753083e-09
321.14145
0.0
-6.895588e-09
1.0
-164.2284
0.22341458
0.9747235
4.524443e-09
491.998
0.0
0.0
0.0
1.0
../models/pack2/wood_wall.FBX
0.54349494
0.83941245
2.0659332e-08
277.2864
0.0
1.5113173e-09
1.0
-167.54288
0.83941245
-0.54349494
-1.3406343e-09
436.4685
0.0
0.0
0.0
1.0
../models/pack2/rock_01.FBX
0.2793299
0.9601951
3.1162042e-09
230.71265
0.0
7.2197395e-09
1.0
-154.6097
0.9601952
-0.2793299
-2.6394975e-10
182.57999
0.0
0.0
0.0
1.0
../models/pack2/house_2.FBX
-0.77476454
0.63224983
1.0359749e-09
216.26883
0.0
1.908539e-09
1.0
-156.03851
0.63224983
0.77476454
-8.352572e-10
595.37115
0.0
0.0
0.0
1.0
../models/pack2/tree_02.FBX
-0.7372543
-0.67561525
-5.5360996e-09
-17.7724
0.0
1.097885e-08
1.0
-163.61415
-0.6756153
0.73725426
1.19113786e-08
348.70218
0.0
0.0
0.0
1.0
../models/pack2/church.FBX
0.6728965
0.7397367
2.3700117e-09
61.77391
0.0
8.345268e-09
1.0
-169.97388
0.7397366
-0.67289656
-1.1438985e-08
4.722252
0.0
0.0
0.0
1.0
../models/pack4/FBX/Willow_Autumn_5.fbx
-0.9635803
1.1424444e-09
0.26741907
-755.0743
0.0
1.0000001
3.2653134e-09
-164.9011
-0.26741904
-3.3805119e-09
-0.96358037
-5.299103
0.0
0.0
0.0
1.0
../models/pack4/FBX/Cactus_4.fbx
-0.87102216
9.686842e-10
0.49124372
-783.3072
0.0
0.99999994
2.1600242e-09
-104.72005
-0.49124375
-3.3652814e-09
-0.8710221
-230.73477
0.0
0.0
0.0
1.0
../models/pack4/FBX/Bush_2.fbx
-0.9977717
-1.9507662e-09
0.06672117
-651.9818
0.0
1.0
2.6385152e-09
-179.66669
-0.06672117
1.30386955e-08
-0.9977717
-28.62857
0.0
0.0
0.0
1.0
../models/pack4/FBX/CommonTree_Dead_Snow_2.fbx
-0.95085615
-4.029248e-10
0.3096329
-748.7015
0.0
1.0000001
2.549036e-09
-168.66397
-0.3096329
4.027044e-09
-0.95085615
-136.82437
0.0
0.0
0.0
1.0
../models/pack4/FBX/CactusFlower_1.fbx
-0.90593284
-7.397162e-09
0.42342132
151.66872
0.0
1.0
5.8604144e-09
-143.18716
-0.42342135
1.0678519e-08
-0.90593284
379.0728
0.0
0.0
0.0
1.0
../models/pack3/FBX/LargeTower.fbx
0.1149981
1.7575807e-09
0.99336576
-416.57544
0.0
1.0000001
-4.8420095e-09
-180.98526
-0.9933657
6.213081e-10
0.1149981
6.6673126
0.0
0.0
0.0
1.0
../models/bunny/bunny.obj
0.66791373
2.0665041e-08
-0.7442387
463.6552
0.0
1.0
9.340136e-09
-152.29317
0.7442387
1.9225283e-08
0.66791373
304.1914
0.0
0.0
0.0
1.0
../models/bunny/bunny.obj
0.73261946
-2.3224752e-08
-0.68063843
416.03156
0.0
1.0
1.41568055e-08
-153.12701
0.68063843
-8.7029814e-09
0.7326195
304.5353
0.0
0.0
0.0
1.0
../models/bunny/bunny.obj
0.7314293
-1.45684105e-08
-0.6819173
336.56674
0.0
1.0
1.41568055e-08
-153.12701
0.6819173
2.6149278e-08
0.7314293
307.48093
0.0
0.0
0.0
1.0
../models/bunny/bunny.obj
0.622588
3.0762894e-09
-0.78254986
264.3501
0.0
1.0000001
-1.0168391e-08
-149.27629
0.7825498
1.3536781e-09
0.62258804
311.53693
0.0
0.0
0.0
1.0
../models/bunny/bunny.obj
-0.55773664
-1.3180127e-08
-0.830018
247.33836
0.0
1.0
-8.199226e-09
-155.54123
0.830018
-8.201884e-09
-0.55773664
368.77408
0.0
0.0
0.0
1.0
../models/bunny/bunny.obj
-0.3353167
-5.4696603e-09
-0.94210553
304.54224
0.0
1.0
-2.0815367e-09
-146.99236
0.9421055
1.0708012e-09
-0.33531672
409.16425
0.0
0.0
0.0
1.0
../models/pack1/armored_swordman/armored_swordman_walking.FBX
-0.60166526
-9.950125e-09
0.79874825
-251.46217
0.0
1.0
-1.2484467e-09
-170.08391
-0.7987483
6.1359158e-09
-0.60166526
85.48865
0.0
0.0
0.0
1.0
../models/pack1/worker/worker_repairing.FBX
-0.90021265
-3.6443293e-11
0.4354505
156.52571
0.0
0.99999994
-1.681812e-09
-160.47687
-0.43545052
-2.8963232e-09
-0.90021265
702.7057
0.0
0.0
0.0
1.0
../models/pack1/archer/archer_dying.FBX
-0.52863944
-7.37703e-10
-0.8488465
579.35583
0.0
1.0
4.4603365e-10
-161.7883
0.8488465
-9.73569e-10
-0.52863944
398.42868
0.0
0.0
0.0
1.0
../models/pack1/archer/arrow.FBX
-0.57504153
1.2300691e-10
-0.81812423
289.95645
0.0
1.0
6.718753e-11
-8.850743
0.81812423
-4.6684212e-11
-0.57504153
248.23407
0.0
0.0
0.0
1.0
