v 9.952370461326325 212.84311517264848 1.2769529613894406
v 1.7828026516806688 214.34071640673093 4.623439009056426
v 9.239196169191516 211.9148422582924 8.326859394774743
v 1.7828026516806688 214.34071640673093 4.623439009056426
v 6.789467832987015 213.37608193829612 -2.6600962228009166
v 1.1312409685957618 213.72409646542587 -4.239633843217803
v 7.7039182906538315 189.7901888391715 0.6681419372110895
v 1.1460405575347608 186.4462789775801 -2.027523552663581
v 7.656874811192409 192.59519289532784 -6.7652773247317555
v 2.233348651203343 184.30011620306766 12.99686502084569
v 1.1460405575347608 186.4462789775801 -2.027523552663581
v 7.764400172279274 186.1836589851864 10.22572696646931
v 7.656874811192409 192.59519289532784 -6.7652773247317555
v 1.1460405575347608 186.4462789775801 -2.027523552663581
v 0.6747463688947306 192.76470139706555 -8.93683849242359
v 12.419756291997572 204.3564648755363 -1.0531672564462156
v 11.378174473086986 195.7973077974913 -0.5407954152046273
v 7.656874811192409 192.59519289532784 -6.7652773247317555
v 8.08417009866372 205.02349961287777 -7.618470632780145
v 11.378174473086986 195.7973077974913 -0.5407954152046273
v 12.419756291997572 204.3564648755363 -1.0531672564462156
v 11.47822462961983 203.08608442675157 8.241649252411197
v 9.662965438323575 194.11988097516215 9.364573747513035
v 9.662965438323575 194.11988097516215 9.364573747513035
v 11.47822462961983 203.08608442675157 8.241649252411197
v 2.492616687677284 201.82737812390235 15.250352482936876
v 4.168030868423074 193.53194214894174 13.521883476356976
v 8.08417009866372 205.02349961287777 -7.618470632780145
v 7.656874811192409 192.59519289532784 -6.7652773247317555
v 0.6747463688947306 192.76470139706555 -8.93683849242359
v 0.6802286989834698 204.7687157694493 -9.746307275998902
v 9.952370461326325 212.84311517264848 1.2769529613894406
v 12.419756291997572 204.3564648755363 -1.0531672564462156
v 8.08417009866372 205.02349961287777 -7.618470632780145
v 6.789467832987015 213.37608193829612 -2.6600962228009166
v 9.239196169191516 211.9148422582924 8.326859394774743
v 11.47822462961983 203.08608442675157 8.241649252411197
v 12.419756291997572 204.3564648755363 -1.0531672564462156
v 9.952370461326325 212.84311517264848 1.2769529613894406
v 2.4708567863515327 211.2778534134543 14.25655163126396
v 2.492616687677284 201.82737812390235 15.250352482936876
v 11.47822462961983 203.08608442675157 8.241649252411197
v 9.239196169191516 211.9148422582924 8.326859394774743
v 0.6802286989834698 204.7687157694493 -9.746307275998902
v 1.1312409685957618 213.72409646542587 -4.239633843217803
v 6.789467832987015 213.37608193829612 -2.6600962228009166
v 8.08417009866372 205.02349961287777 -7.618470632780145
v 2.492616687677284 201.82737812390235 15.250352482936876
v 2.596611236676111 192.962007746631 17.32540084784273
v 4.168030868423074 193.53194214894174 13.521883476356976
v 2.596611236676111 192.962007746631 17.32540084784273
v 2.344673803088426 191.82112900690623 13.96483306471768
v 4.168030868423074 193.53194214894174 13.521883476356976
v 7.764400172279274 186.1836589851864 10.22572696646931
v 9.662965438323575 194.11988097516215 9.364573747513035
v 4.168030868423074 193.53194214894174 13.521883476356976
v 2.344673803088426 191.82112900690623 13.96483306471768
v 2.233348651203343 184.30011620306766 12.99686502084569
v 2.4708567863515327 211.2778534134543 14.25655163126396
v 9.239196169191516 211.9148422582924 8.326859394774743
v 1.7828026516806688 214.34071640673093 4.623439009056426
v 1.7828026516806688 214.34071640673093 4.623439009056426
v 9.952370461326325 212.84311517264848 1.2769529613894406
v 6.789467832987015 213.37608193829612 -2.6600962228009166
v 7.656874811192409 192.59519289532784 -6.7652773247317555
v 11.378174473086986 195.7973077974913 -0.5407954152046273
v 7.7039182906538315 189.7901888391715 0.6681419372110895
v 7.764400172279274 186.1836589851864 10.22572696646931
v 11.378174473086986 195.7973077974913 -0.5407954152046273
v 9.662965438323575 194.11988097516215 9.364573747513035
v 7.7039182906538315 189.7901888391715 0.6681419372110895
v 11.378174473086986 195.7973077974913 -0.5407954152046273
v 7.764400172279274 186.1836589851864 10.22572696646931
v 7.764400172279274 186.1836589851864 10.22572696646931
v 1.1460405575347608 186.4462789775801 -2.027523552663581
v 7.7039182906538315 189.7901888391715 0.6681419372110895
v -6.802317902993224 212.93337713039838 2.5023759360557847
v -5.080991386714537 211.99198540621637 9.374224496543931
v 1.7828026516806688 214.34071640673093 4.623439009056426
v 1.7828026516806688 214.34071640673093 4.623439009056426
v 1.1312409685957618 213.72409646542587 -4.239633843217803
v -4.240367767584985 213.43549428771408 -1.8533849660585702
v -4.913624427220114 189.85816904569904 1.5909785729970736
v -5.918548561450166 192.66832269547925 -5.772383562839309
v 1.1460405575347608 186.4462789775801 -2.027523552663581
v 2.233348651203343 184.30011620306766 12.99686502084569
v -3.621529605094942 186.2450024778173 11.058483533587648
v 1.1460405575347608 186.4462789775801 -2.027523552663581
v -5.918548561450166 192.66832269547925 -5.772383562839309
v 0.6747463688947306 192.76470139706555 -8.93683849242359
v 1.1460405575347608 186.4462789775801 -2.027523552663581
v -9.67330297172441 204.47549380043338 0.5627004235161053
v -6.332179639005602 205.10116112483777 -6.564073629214022
v -5.918548561450166 192.66832269547925 -5.772383562839309
v -8.660069635062015 195.9052640051636 0.9247837631579614
v -8.660069635062015 195.9052640051636 0.9247837631579614
v -5.540001534129775 194.20178113392402 10.47650500255822
v -7.403104090154303 203.1878062463942 9.622613211865417
v -9.67330297172441 204.47549380043338 0.5627004235161053
v -5.540001534129775 194.20178113392402 10.47650500255822
v 0.49471089480968544 193.55171242052683 13.790543575602186
v 2.492616687677284 201.82737812390235 15.250352482936876
v -7.403104090154303 203.1878062463942 9.622613211865417
v -6.332179639005602 205.10116112483777 -6.564073629214022
v 0.6802286989834698 204.7687157694493 -9.746307275998902
v 0.6747463688947306 192.76470139706555 -8.93683849242359
v -5.918548561450166 192.66832269547925 -5.772383562839309
v -6.802317902993224 212.93337713039838 2.5023759360557847
v -4.240367767584985 213.43549428771408 -1.8533849660585702
v -6.332179639005602 205.10116112483777 -6.564073629214022
v -9.67330297172441 204.47549380043338 0.5627004235161053
v -5.080991386714537 211.99198540621637 9.374224496543931
v -6.802317902993224 212.93337713039838 2.5023759360557847
v -9.67330297172441 204.47549380043338 0.5627004235161053
v -7.403104090154303 203.1878062463942 9.622613211865417
v 2.4708567863515327 211.2778534134543 14.25655163126396
v -5.080991386714537 211.99198540621637 9.374224496543931
v -7.403104090154303 203.1878062463942 9.622613211865417
v 2.492616687677284 201.82737812390235 15.250352482936876
v 0.6802286989834698 204.7687157694493 -9.746307275998902
v -6.332179639005602 205.10116112483777 -6.564073629214022
v -4.240367767584985 213.43549428771408 -1.8533849660585702
v 1.1312409685957618 213.72409646542587 -4.239633843217803
v 2.492616687677284 201.82737812390235 15.250352482936876
v 0.49471089480968544 193.55171242052683 13.790543575602186
v 2.596611236676111 192.962007746631 17.32540084784273
v 2.596611236676111 192.962007746631 17.32540084784273
v 0.49471089480968544 193.55171242052683 13.790543575602186
v 2.344673803088426 191.82112900690623 13.96483306471768
v -3.621529605094942 186.2450024778173 11.058483533587648
v 2.233348651203343 184.30011620306766 12.99686502084569
v 2.344673803088426 191.82112900690623 13.96483306471768
v 0.49471089480968544 193.55171242052683 13.790543575602186
v -5.540001534129775 194.20178113392402 10.47650500255822
v 2.4708567863515327 211.2778534134543 14.25655163126396
v 1.7828026516806688 214.34071640673093 4.623439009056426
v -5.080991386714537 211.99198540621637 9.374224496543931
v 1.7828026516806688 214.34071640673093 4.623439009056426
v -4.240367767584985 213.43549428771408 -1.8533849660585702
v -6.802317902993224 212.93337713039838 2.5023759360557847
v -5.918548561450166 192.66832269547925 -5.772383562839309
v -4.913624427220114 189.85816904569904 1.5909785729970736
v -8.660069635062015 195.9052640051636 0.9247837631579614
v -3.621529605094942 186.2450024778173 11.058483533587648
v -5.540001534129775 194.20178113392402 10.47650500255822
v -8.660069635062015 195.9052640051636 0.9247837631579614
v -4.913624427220114 189.85816904569904 1.5909785729970736
v -3.621529605094942 186.2450024778173 11.058483533587648
v -8.660069635062015 195.9052640051636 0.9247837631579614
v -3.621529605094942 186.2450024778173 11.058483533587648
v -4.913624427220114 189.85816904569904 1.5909785729970736
v 1.1460405575347608 186.4462789775801 -2.027523552663581
f 1 2 3
f 4 5 6
f 7 8 9
f 10 11 12
f 13 14 15
f 16 17 18
f 16 18 19
f 20 21 22
f 20 22 23
f 24 25 26
f 24 26 27
f 28 29 30
f 28 30 31
f 32 33 34
f 32 34 35
f 36 37 38
f 36 38 39
f 40 41 42
f 40 42 43
f 44 45 46
f 44 46 47
f 48 49 50
f 51 52 53
f 58 54 55
f 58 55 56
f 56 57 58
f 59 60 61
f 62 63 64
f 65 66 67
f 68 69 70
f 71 72 73
f 74 75 76
f 77 78 79
f 80 81 82
f 83 84 85
f 86 87 88
f 89 90 91
f 92 93 94
f 92 94 95
f 96 97 98
f 96 98 99
f 100 101 102
f 100 102 103
f 104 105 106
f 104 106 107
f 108 109 110
f 108 110 111
f 112 113 114
f 112 114 115
f 116 117 118
f 116 118 119
f 120 121 122
f 120 122 123
f 124 125 126
f 127 128 129
f 134 130 131
f 134 131 132
f 132 133 134
f 135 136 137
f 138 139 140
f 141 142 143
f 144 145 146
f 147 148 149
f 150 151 152
v 53.454806294480335 115.50201364729043 -3.75151070429672
v 36.866363857251486 140.54024158017887 -29.285586221811855
v 40.4372056135137 119.7132111622791 -40.72292989300263
v 53.454806294480335 115.50201364729043 -3.75151070429672
v 37.23399263345601 151.2078059641907 -7.758944267533252
v 36.866363857251486 140.54024158017887 -29.285586221811855
v 53.454806294480335 115.50201364729043 -3.75151070429672
v 41.39967695020064 147.64127084689102 15.634549056345236
v 37.23399263345601 151.2078059641907 -7.758944267533252
v 53.454806294480335 115.50201364729043 -3.75151070429672
v 47.77224873251339 131.20293401447043 31.959373768973137
v 41.39967695020064 147.64127084689102 15.634549056345236
v 53.454806294480335 115.50201364729043 -3.75151070429672
v 53.91761206724482 108.17167879746967 34.97999860719847
v 47.77224873251339 131.20293401447043 31.959373768973137
v 53.454806294480335 115.50201364729043 -3.75151070429672
v 57.48845858648872 87.34466076439708 23.54265151531058
v 53.91761206724482 108.17167879746967 34.97999860719847
v 53.454806294480335 115.50201364729043 -3.75151070429672
v 57.120829093140586 76.67709619640911 2.0160113271754767
v 57.48845858648872 87.34466076439708 23.54265151531058
v 53.454806294480335 115.50201364729043 -3.75151070429672
v 52.95514520668212 80.24363142409447 -21.37748305638911
v 57.120829093140586 76.67709619640911 2.0160113271754767
v 53.454806294480335 115.50201364729043 -3.75151070429672
v 46.58257141636727 96.68196774138187 -37.70230282381522
v 52.95514520668212 80.24363142409447 -21.37748305638911
v 53.454806294480335 115.50201364729043 -3.75151070429672
v 40.4372056135137 119.7132111622791 -40.72292989300263
v 46.58257141636727 96.68196774138187 -37.70230282381522
v 40.4372056135137 119.7132111622791 -40.72292989300263
v 36.866363857251486 140.54024158017887 -29.285586221811855
v 58.184741586042776 116.6771163146185 -4.414614316480765
v 36.866363857251486 140.54024158017887 -29.285586221811855
v 37.23399263345601 151.2078059641907 -7.758944267533252
v 58.184741586042776 116.6771163146185 -4.414614316480765
v 37.23399263345601 151.2078059641907 -7.758944267533252
v 41.39967695020064 147.64127084689102 15.634549056345236
v 58.184741586042776 116.6771163146185 -4.414614316480765
v 41.39967695020064 147.64127084689102 15.634549056345236
v 47.77224873251339 131.20293401447043 31.959373768973137
v 58.184741586042776 116.6771163146185 -4.414614316480765
v 47.77224873251339 131.20293401447043 31.959373768973137
v 53.91761206724482 108.17167879746967 34.97999860719847
v 58.184741586042776 116.6771163146185 -4.414614316480765
v 53.91761206724482 108.17167879746967 34.97999860719847
v 57.48845858648872 87.34466076439708 23.54265151531058
v 58.184741586042776 116.6771163146185 -4.414614316480765
v 57.48845858648872 87.34466076439708 23.54265151531058
v 57.120829093140586 76.67709619640911 2.0160113271754767
v 58.184741586042776 116.6771163146185 -4.414614316480765
v 57.120829093140586 76.67709619640911 2.0160113271754767
v 52.95514520668212 80.24363142409447 -21.37748305638911
v 58.184741586042776 116.6771163146185 -4.414614316480765
v 52.95514520668212 80.24363142409447 -21.37748305638911
v 46.58257141636727 96.68196774138187 -37.70230282381522
v 58.184741586042776 116.6771163146185 -4.414614316480765
v 46.58257141636727 96.68196774138187 -37.70230282381522
v 40.4372056135137 119.7132111622791 -40.72292989300263
v 58.184741586042776 116.6771163146185 -4.414614316480765
f 153 154 155
f 156 157 158
f 159 160 161
f 162 163 164
f 165 166 167
f 168 169 170
f 171 172 173
f 174 175 176
f 177 178 179
f 180 181 182
f 183 184 185
f 186 187 188
f 189 190 191
f 192 193 194
f 195 196 197
f 198 199 200
f 201 202 203
f 204 205 206
f 207 208 209
f 210 211 212
v -45.10110152225934 110.36264802694666 -4.853166296161476
v -43.28506368702392 110.77077059138117 -5.230715130571184
v -42.559242713732374 105.75294943592291 -2.386590154706255
v -43.28506368702392 110.77077059138117 -5.230715130571184
v -45.10110152225934 110.36264802694666 -4.853166296161476
v -43.446402350115704 112.2645590411384 0.3850539197662215
v -13.264817542764831 67.40897808266675 97.07394483026508
v -8.744128695791233 64.16696418074457 115.3144681377654
v -45.10110152225934 110.36264802694666 -4.853166296161476
v -42.559242713732374 105.75294943592291 -2.386590154706255
v -8.744128695791233 64.16696418074457 115.3144681377654
v -14.151974314115478 73.92058623345162 99.84560073238055
v -43.446402350115704 112.2645590411384 0.3850539197662215
v -45.10110152225934 110.36264802694666 -4.853166296161476
v -14.151974314115478 73.92058623345162 99.84560073238055
v -8.744128695791233 64.16696418074457 115.3144681377654
v -43.28506368702392 110.77077059138117 -5.230715130571184
v -43.446402350115704 112.2645590411384 0.3850539197662215
v -8.744128695791233 64.16696418074457 115.3144681377654
v -13.264817542764831 67.40897808266675 97.07394483026508
v -42.559242713732374 105.75294943592291 -2.386590154706255
v -43.28506368702392 110.77077059138117 -5.230715130571184
v -35.12669576190888 87.09482852658005 13.195673090876767
v -39.061205205599435 103.84950551981899 12.381833269290723
v -36.61798035127367 102.48487951605813 16.369873530652455
v -35.12669576190888 87.09482852658005 13.195673090876767
v -36.61798035127367 102.48487951605813 16.369873530652455
v -39.00881526755893 101.94758305980321 16.86691123102929
v -35.12669576190888 87.09482852658005 13.195673090876767
v -39.00881526755893 101.94758305980321 16.86691123102929
v -39.061205205599435 103.84950551981899 12.381833269290723
v -39.061205205599435 103.84950551981899 12.381833269290723
v -38.9750925121125 115.34152432194253 25.218803105971915
v -36.61798035127367 102.48487951605813 16.369873530652455
v -36.61798035127367 102.48487951605813 16.369873530652455
v -38.9750925121125 115.34152432194253 25.218803105971915
v -39.00881526755893 101.94758305980321 16.86691123102929
v -39.00881526755893 101.94758305980321 16.86691123102929
v -38.9750925121125 115.34152432194253 25.218803105971915
v -39.061205205599435 103.84950551981899 12.381833269290723
f 213 214 215
f 216 217 218
f 219 220 221
f 219 221 222
f 223 224 225
f 223 225 226
f 227 228 229
f 227 229 230
f 231 232 233
f 231 233 234
f 235 236 237
f 238 239 240
f 241 242 243
f 244 245 246
f 247 248 249
f 250 251 252
v 34.44475739912987 3.4456279361420366e-05 -8.614779549100454
v 34.44476377707893 3.53453863569864e-05 11.725629004685452
v 19.010294924791136 3.108930297526332e-05 11.725630753261159
v 19.010273226464204 3.020019890491278e-05 -8.614777034503348
v 19.0102741629322 10.71197416844368 -8.614777502737443
v 19.010273226464204 3.020019890491278e-05 -8.614777034503348
v 19.010294924791136 3.108930297526332e-05 11.725630753261159
v 19.010289733107932 10.711975057550113 11.725630285028064
v 34.44475833559718 10.71197052106149 -8.614780017334201
v 34.44475739912987 3.4456279361420366e-05 -8.614779549100454
v 19.010273226464204 3.020019890491278e-05 -8.614777034503348
v 19.0102741629322 10.71197416844368 -8.614777502737443
v 34.444761649470635 10.711971410169028 11.725628536452202
v 34.44476377707893 3.53453863569864e-05 11.725629004685452
v 34.44475739912987 3.4456279361420366e-05 -8.614779549100454
v 34.44475833559718 10.71197052106149 -8.614780017334201
v 21.253262508938562 6.940536873590768 26.193199240575584
v 21.253261897716765 -0.05102467248812788 26.193199546186545
v 31.327164193566066 -0.051026869771586894 26.193199436977256
v 31.32716480478784 6.94053446086451 26.193199131366306
v 21.253261897716765 -0.05102467248812788 26.193199546186545
v 19.010294924791136 3.108930297526332e-05 11.725630753261159
v 34.44476377707893 3.53453863569864e-05 11.725629004685452
v 31.327164193566066 -0.051026869771586894 26.193199436977256
v 21.253262508938562 6.940536873590768 26.193199240575584
v 19.010289733107932 10.711975057550113 11.725630285028064
v 19.010294924791136 3.108930297526332e-05 11.725630753261159
v 21.253261897716765 -0.05102467248812788 26.193199546186545
v 31.32716480478784 6.94053446086451 26.193199131366306
v 34.444761649470635 10.711971410169028 11.725628536452202
v 19.010289733107932 10.711975057550113 11.725630285028064
v 21.253262508938562 6.940536873590768 26.193199240575584
v 31.327164193566066 -0.051026869771586894 26.193199436977256
v 34.44476377707893 3.53453863569864e-05 11.725629004685452
v 34.444761649470635 10.711971410169028 11.725628536452202
v 31.32716480478784 6.94053446086451 26.193199131366306
v 22.280312017986116 16.67770124327401 -4.315753071073121
v 19.0102741629322 10.71197416844368 -8.614777502737443
v 19.010289733107932 10.711975057550113 11.725630285028064
v 22.28031392305963 16.677701754402527 7.377503795363465
v 19.0102741629322 10.71197416844368 -8.614777502737443
v 22.280312017986116 16.67770124327401 -4.315753071073121
v 26.661829818504305 16.67770086022957 -4.315752252875238
v 31.17472292442491 16.677698933662178 -4.3157529881188434
v 34.44475833559718 10.71197052106149 -8.614780017334201
v 31.17472482949813 16.677699444790612 7.377502059022854
v 34.444761649470635 10.711971410169028 11.725628536452202
v 34.44475833559718 10.71197052106149 -8.614780017334201
v 31.17472292442491 16.677698933662178 -4.3157529881188434
v 34.444761649470635 10.711971410169028 11.725628536452202
v 31.17472482949813 16.677699444790612 7.377502059022854
v 26.206834881510172 16.677701411135118 7.377503347156674
v 22.28031392305963 16.677701754402527 7.377503795363465
v 19.010289733107932 10.711975057550113 11.725630285028064
v 10.891800063146363 43.38297413645004 -10.444157900184688
v 22.280312017986116 16.67770124327401 -4.315753071073121
v 22.28031392305963 16.677701754402527 7.377503795363465
v 13.453546878323946 38.694029181919575 3.7195311544514453
v 31.7312463688981 45.50242082616359 -10.44416292004356
v 31.17472292442491 16.677698933662178 -4.3157529881188434
v 26.661829818504305 16.67770086022957 -4.315752252875238
v 20.834259292054032 44.39415785489807 -13.146554743999967
v 31.202100767479603 40.49912345719834 3.7195281839414993
v 31.17472482949813 16.677699444790612 7.377502059022854
v 31.17472292442491 16.677698933662178 -4.3157529881188434
v 31.7312463688981 45.50242082616359 -10.44416292004356
v 21.816206765794277 39.54453939828643 8.890829510511448
v 26.206834881510172 16.677701411135118 7.377503347156674
v 31.17472482949813 16.677699444790612 7.377502059022854
v 31.202100767479603 40.49912345719834 3.7195281839414993
v 13.453546878323946 38.694029181919575 3.7195311544514453
v 22.28031392305963 16.677701754402527 7.377503795363465
v 26.206834881510172 16.677701411135118 7.377503347156674
v 21.816206765794277 39.54453939828643 8.890829510511448
v 22.280312017986116 16.67770124327401 -4.315753071073121
v 10.891800063146363 43.38297413645004 -10.444157900184688
v 20.834259292054032 44.39415785489807 -13.146554743999967
v 26.661829818504305 16.67770086022957 -4.315752252875238
v 24.81539702111973 61.37582426743836 -5.765384158375483
v 31.7312463688981 45.50242082616359 -10.44416292004356
v 20.834259292054032 44.39415785489807 -13.146554743999967
v 17.498506643072904 60.63166508535755 -7.879811880756152
v 24.815392673247782 61.37582474508528 5.161891055864056
v 31.202100767479603 40.49912345719834 3.7195281839414993
v 31.7312463688981 45.50242082616359 -10.44416292004356
v 24.81539702111973 61.37582426743836 -5.765384158375483
v 17.47161931922862 60.628932738406654 10.557720702163078
v 21.816206765794277 39.54453939828643 8.890829510511448
v 31.202100767479603 40.49912345719834 3.7195281839414993
v 24.815392673247782 61.37582474508528 5.161891055864056
v 10.928448619098505 59.9634705794608 -5.76538336620603
v 10.891800063146363 43.38297413645004 -10.444157900184688
v 13.453546878323946 38.694029181919575 3.7195311544514453
v 10.92846265568039 59.963471057106176 5.161893284315951
v 10.92846265568039 59.963471057106176 5.161893284315951
v 13.453546878323946 38.694029181919575 3.7195311544514453
v 21.816206765794277 39.54453939828643 8.890829510511448
v 17.47161931922862 60.628932738406654 10.557720702163078
v 17.498506643072904 60.63166508535755 -7.879811880756152
v 20.834259292054032 44.39415785489807 -13.146554743999967
v 10.891800063146363 43.38297413645004 -10.444157900184688
v 10.928448619098505 59.9634705794608 -5.76538336620603
v 23.793650797665325 66.24805963113572 -5.765384970902947
v 24.81539702111973 61.37582426743836 -5.765384158375483
v 17.498506643072904 60.63166508535755 -7.879811880756152
v 16.47674816331466 65.5038881927544 -7.879814991337782
v 23.793646449793457 66.24806010878267 5.161890722098405
v 24.815392673247782 61.37582474508528 5.161891055864056
v 24.81539702111973 61.37582426743836 -5.765384158375483
v 23.793650797665325 66.24805963113572 -5.765384970902947
v 16.44985471132087 65.50116810210568 10.557721421676408
v 17.47161931922862 60.628932738406654 10.557720702163078
v 24.815392673247782 61.37582474508528 5.161891055864056
v 23.793646449793457 66.24806010878267 5.161890722098405
v 9.906704175922627 64.83569416450315 5.161893142057557
v 10.92846265568039 59.963471057106176 5.161893284315951
v 17.47161931922862 60.628932738406654 10.557720702163078
v 16.44985471132087 65.50116810210568 10.557721421676408
v 9.90670239564303 64.83569368685667 -5.76538417873296
v 10.928448619098505 59.9634705794608 -5.76538336620603
v 10.92846265568039 59.963471057106176 5.161893284315951
v 9.906704175922627 64.83569416450315 5.161893142057557
v 16.47674816331466 65.5038881927544 -7.879814991337782
v 17.498506643072904 60.63166508535755 -7.879811880756152
v 10.928448619098505 59.9634705794608 -5.76538336620603
v 9.90670239564303 64.83569368685667 -5.76538417873296
v 23.673607761422705 80.24347518309278 -5.187956686290196
v 23.793650797665325 66.24805963113572 -5.765384970902947
v 16.47674816331466 65.5038881927544 -7.879814991337782
v 10.885956759649773 78.94715153349154 -11.4039658149477
v 23.67361652103454 80.24347588910939 10.963832180322889
v 23.793646449793457 66.24806010878267 5.161890722098405
v 23.793650797665325 66.24805963113572 -5.765384970902947
v 23.673607761422705 80.24347518309278 -5.187956686290196
v 10.873294191705439 78.93081504430462 15.124353372988267
v 16.44985471132087 65.50116810210568 10.557721421676408
v 23.793646449793457 66.24806010878267 5.161890722098405
v 23.67361652103454 80.24347588910939 10.963832180322889
v 2.8872288719909385 78.17674691176552 17.83232650441864
v 9.906704175922627 64.83569416450315 5.161893142057557
v 16.44985471132087 65.50116810210568 10.557721421676408
v 10.873294191705439 78.93081504430462 15.124353372988267
v 2.94471805654652 78.19535059559237 -13.665325818515274
v 9.90670239564303 64.83569368685667 -5.76538417873296
v 9.906704175922627 64.83569416450315 5.161893142057557
v 2.8872288719909385 78.17674691176552 17.83232650441864
v 10.885956759649773 78.94715153349154 -11.4039658149477
v 16.47674816331466 65.5038881927544 -7.879814991337782
v 9.90670239564303 64.83569368685667 -5.76538417873296
v 2.94471805654652 78.19535059559237 -13.665325818515274
v 18.660031887453695 112.06655872584616 11.92034140492833
v 23.67361652103454 80.24347588910939 10.963832180322889
v 23.673607761422705 80.24347518309278 -5.187956686290196
v 17.162033294870298 111.79363482456593 -4.338487239683732
v 6.966833690623996 109.0134417538436 17.50948812455956
v 10.873294191705439 78.93081504430462 15.124353372988267
v 23.67361652103454 80.24347588910939 10.963832180322889
v 18.660031887453695 112.06655872584616 11.92034140492833
v 9.218121259173037 110.1782545129254 -15.089712806222046
v 10.885956759649773 78.94715153349154 -11.4039658149477
v 2.94471805654652 78.19535059559237 -13.665325818515274
v -2.681566400215007 109.06473361518057 -19.183038520890968
v 9.218121259173037 110.1782545129254 -15.089712806222046
v 8.627865347533405 122.95472584276844 -12.838703917725262
v 15.613971711385863 122.95646609383833 -2.1549153644748307
v 17.162033294870298 111.79363482456593 -4.338487239683732
v 15.61396803527461 122.95646675171771 12.89559723851959
v 18.660031887453695 112.06655872584616 11.92034140492833
v 17.162033294870298 111.79363482456593 -4.338487239683732
v 15.613971711385863 122.95646609383833 -2.1549153644748307
v 6.902679446036477 121.14149339224087 19.412536700516704
v 6.966833690623996 109.0134417538436 17.50948812455956
v 18.660031887453695 112.06655872584616 11.92034140492833
v 15.61396803527461 122.95646675171771 12.89559723851959
v -2.681571311843147 121.14015829352591 19.41860819581042
v -2.6815722643797137 108.11673494489575 20.56031397420037
v 6.966833690623996 109.0134417538436 17.50948812455956
v 6.902679446036477 121.14149339224087 19.412536700516704
v -2.681566400215007 109.06473361518057 -19.183038520890968
v -2.6815646571205396 122.95340301549513 -15.936623453667229
v 8.627865347533405 122.95472584276844 -12.838703917725262
v 9.218121259173037 110.1782545129254 -15.089712806222046
v 10.885956759649773 78.94715153349154 -11.4039658149477
v 9.218121259173037 110.1782545129254 -15.089712806222046
v 17.162033294870298 111.79363482456593 -4.338487239683732
v 23.673607761422705 80.24347518309278 -5.187956686290196
v 15.210635832531828 131.751330662561 -2.8930982222636077
v 15.613971711385863 122.95646609383833 -2.1549153644748307
v 8.627865347533405 122.95472584276844 -12.838703917725262
v 8.839085567560458 131.74959051446393 -9.992032561076138
v 15.210638646885656 131.75131916134694 14.38128751201167
v 15.61396803527461 122.95646675171771 12.89559723851959
v 15.613971711385863 122.95646609383833 -2.1549153644748307
v 15.210635832531828 131.751330662561 -2.8930982222636077
v 7.5428208960408485 131.74960416310492 19.26844184931297
v 6.902679446036477 121.14149339224087 19.412536700516704
v 15.61396803527461 122.95646675171771 12.89559723851959
v 15.210638646885656 131.75131916134694 14.38128751201167
v -2.681570407949329 131.7480362506244 19.274510384833413
v -2.681571311843147 121.14015829352591 19.41860819581042
v 6.902679446036477 121.14149339224087 19.412536700516704
v 7.5428208960408485 131.74960416310492 19.26844184931297
v 8.839085567560458 131.74959051446393 -9.992032561076138
v 8.627865347533405 122.95472584276844 -12.838703917725262
v -2.6815646571205396 122.95340301549513 -15.936623453667229
v -2.6815632315798257 131.74805940028693 -11.905905924807962
v 16.05947776361883 141.76670222046303 -1.7134166702267342
v 15.210635832531828 131.751330662561 -2.8930982222636077
v 8.839085567560458 131.74959051446393 -9.992032561076138
v 7.585793270370378 141.76496208156996 -12.806055312621556
v 16.059473797426683 141.7667028005141 11.55659224267271
v 15.210638646885656 131.75131916134694 14.38128751201167
v 15.210635832531828 131.751330662561 -2.8930982222636077
v 16.05947776361883 141.76670222046303 -1.7134166702267342
v 8.448930036642155 141.76500013109248 18.21733311007158
v 7.5428208960408485 131.74960416310492 19.26844184931297
v 15.210638646885656 131.75131916134694 14.38128751201167
v 16.059473797426683 141.7667028005141 11.55659224267271
v -2.681562891192357 144.47463661376733 20.96865254785883
v -2.681570407949329 131.7480362506244 19.274510384833413
v 7.5428208960408485 131.74960416310492 19.26844184931297
v 8.448930036642155 141.76500013109248 18.21733311007158
v 7.585793270370378 141.76496208156996 -12.806055312621556
v 8.839085567560458 131.74959051446393 -9.992032561076138
v -2.6815632315798257 131.74805940028693 -11.905905924807962
v -2.6815688185933464 143.1359527810868 -14.695139036897059
v 19.58010737563811 151.4984626148872 -3.129435012378096
v 16.05947776361883 141.76670222046303 -1.7134166702267342
v 7.585793270370378 141.76496208156996 -12.806055312621556
v 23.144146821184854 159.3077113216463 -15.725705946229027
v 24.013907470350492 159.63773785011713 11.139826858825806
v 16.059473797426683 141.7667028005141 11.55659224267271
v 16.05947776361883 141.76670222046303 -1.7134166702267342
v 19.58010737563811 151.4984626148872 -3.129435012378096
v 10.930250413246025 153.8935785531751 19.783028845850435
v 8.448930036642155 141.76500013109248 18.21733311007158
v 16.059473797426683 141.7667028005141 11.55659224267271
v 24.013907470350492 159.63773785011713 11.139826858825806
v -2.681562082120869 155.9251107403847 19.790404672625442
v -2.681562891192357 144.47463661376733 20.96865254785883
v 8.448930036642155 141.76500013109248 18.21733311007158
v 10.930250413246025 153.8935785531751 19.783028845850435
v 23.144146821184854 159.3077113216463 -15.725705946229027
v 7.585793270370378 141.76496208156996 -12.806055312621556
v -2.6815688185933464 143.1359527810868 -14.695139036897059
v -2.6815566214834843 153.891862085694 -20.830051588801567
v 56.70516412804459 106.54549637896197 19.737348814896514
v 58.905986459430984 102.8068212599872 9.116405033844213
v 61.5544406555124 106.8470990176623 19.636953574648953
v 11.6548013654024 170.8018694540104 18.391446648447808
v 11.065652688113849 157.3748585421393 22.666542892124035
v 24.013907470350492 159.63773785011713 11.139826858825806
v 21.159617647499463 170.50946967485237 10.072969729227788
v -2.6815613019539053 159.51905066344514 22.65053677513469
v -2.681562082120869 155.9251107403847 19.790404672625442
v 10.930250413246025 153.8935785531751 19.783028845850435
v 11.065652688113849 157.3748585421393 22.666542892124035
v 11.065652688113849 157.3748585421393 22.666542892124035
v 11.6548013654024 170.8018694540104 18.391446648447808
v -2.681561008422518 170.80014256914737 18.39881655399236
v -2.6815613019539053 159.51905066344514 22.65053677513469
v 20.93619329718494 170.62332960195639 -15.852882070922814
v 23.144146821184854 159.3077113216463 -15.725705946229027
v -2.6815566214834843 153.891862085694 -20.830051588801567
v -2.6815552166389875 169.68440071120222 -20.681410907709775
v 16.45133328358847 178.92802888532654 -2.332681059415121
v 20.93619329718494 170.62332960195639 -15.852882070922814
v 4.848633991997464 179.2295959256381 -8.558749811164855
v 7.705223878494125 180.51729203537235 -1.6980621541401053
v 16.45133328358847 178.92802888532654 -2.332681059415121
v 7.705223878494125 180.51729203537235 -1.6980621541401053
v 4.912742811519345 180.28629803893202 4.560823657430105
v 21.159617647499463 170.50946967485237 10.072969729227788
v -2.681561645642795 179.26726100721046 9.944154130300172
v 11.6548013654024 170.8018694540104 18.391446648447808
v 21.159617647499463 170.50946967485237 10.072969729227788
v 4.912742811519345 180.28629803893202 4.560823657430105
v 11.6548013654024 170.8018694540104 18.391446648447808
v -2.681561645642795 179.26726100721046 9.944154130300172
v -2.681561008422518 170.80014256914737 18.39881655399236
v 4.848633991997464 179.2295959256381 -8.558749811164855
v 20.93619329718494 170.62332960195639 -15.852882070922814
v -2.6815552166389875 169.68440071120222 -20.681410907709775
v -2.681559469771586 178.16877669538684 -13.725322340055241
v 28.332124390684797 166.54510607422083 -12.247696343387265
v 20.93619329718494 170.62332960195639 -15.852882070922814
v 25.621621208574446 178.54223646601622 -2.691135718641796
v 32.3239063434805 171.57139095550303 -0.7524361246196536
v 23.144146821184854 159.3077113216463 -15.725705946229027
v 20.93619329718494 170.62332960195639 -15.852882070922814
v 28.332124390684797 166.54510607422083 -12.247696343387265
v 24.013907470350492 159.63773785011713 11.139826858825806
v 28.439934447167726 166.58701133000145 9.952846609815294
v 21.159617647499463 170.50946967485237 10.072969729227788
v 32.3239063434805 171.57139095550303 -0.7524361246196536
v 25.621621208574446 178.54223646601622 -2.691135718641796
v 21.159617647499463 170.50946967485237 10.072969729227788
v 28.439934447167726 166.58701133000145 9.952846609815294
v 27.9100047340767 141.25301511648752 -0.7980619960160151
v 19.58010737563811 151.4984626148872 -3.129435012378096
v 23.144146821184854 159.3077113216463 -15.725705946229027
v 29.376023033274787 142.86652002362663 -7.35786132430644
v 29.799174038668724 143.01249311483173 5.85314335153349
v 24.013907470350492 159.63773785011713 11.139826858825806
v 19.58010737563811 151.4984626148872 -3.129435012378096
v 27.9100047340767 141.25301511648752 -0.7980619960160151
v 37.157914589680416 150.09423189431334 -7.927875955915638
v 28.332124390684797 166.54510607422083 -12.247696343387265
v 32.3239063434805 171.57139095550303 -0.7524361246196536
v 40.04028886508584 153.0623159733535 -0.785854913246312
v 29.376023033274787 142.86652002362663 -7.35786132430644
v 23.144146821184854 159.3077113216463 -15.725705946229027
v 28.332124390684797 166.54510607422083 -12.247696343387265
v 37.157914589680416 150.09423189431334 -7.927875955915638
v 37.224676918108194 150.11785038436614 5.865349323811454
v 28.439934447167726 166.58701133000145 9.952846609815294
v 24.013907470350492 159.63773785011713 11.139826858825806
v 29.799174038668724 143.01249311483173 5.85314335153349
v 40.04028886508584 153.0623159733535 -0.785854913246312
v 32.3239063434805 171.57139095550303 -0.7524361246196536
v 28.439934447167726 166.58701133000145 9.952846609815294
v 37.224676918108194 150.11785038436614 5.865349323811454
v 32.08752880662676 136.77720969890737 2.6418300339640375
v 27.9100047340767 141.25301511648752 -0.7980619960160151
v 29.376023033274787 142.86652002362663 -7.35786132430644
v 33.448216294542064 136.07982575289262 -3.589288467664846
v 40.671069858950084 142.19280244141865 -6.402707274639861
v 37.157914589680416 150.09423189431334 -7.927875955915638
v 40.04028886508584 153.0623159733535 -0.785854913246312
v 43.34637989512622 147.06757476665874 -1.1331091755829474
v 33.448216294542064 136.07982575289262 -3.589288467664846
v 29.376023033274787 142.86652002362663 -7.35786132430644
v 37.157914589680416 150.09423189431334 -7.927875955915638
v 40.671069858950084 142.19280244141865 -6.402707274639861
v 33.84095643302043 140.44189294443783 7.871333374852507
v 29.799174038668724 143.01249311483173 5.85314335153349
v 27.9100047340767 141.25301511648752 -0.7980619960160151
v 32.08752880662676 136.77720969890737 2.6418300339640375
v 40.73300942764608 146.6349033344851 5.60428511516401
v 37.224676918108194 150.11785038436614 5.865349323811454
v 29.799174038668724 143.01249311483173 5.85314335153349
v 33.84095643302043 140.44189294443783 7.871333374852507
v 43.34637989512622 147.06757476665874 -1.1331091755829474
v 40.04028886508584 153.0623159733535 -0.785854913246312
v 37.224676918108194 150.11785038436614 5.865349323811454
v 40.73300942764608 146.6349033344851 5.60428511516401
v 35.712780440907224 128.86348722601412 5.544077001956575
v 32.08752880662676 136.77720969890737 2.6418300339640375
v 33.448216294542064 136.07982575289262 -3.589288467664846
v 37.49472283721496 127.95018389552574 -2.616185088328347
v 46.95377863064161 135.95572940111197 -6.3006398372792445
v 40.671069858950084 142.19280244141865 -6.402707274639861
v 43.34637989512622 147.06757476665874 -1.1331091755829474
v 50.45736385245601 142.3397304342332 0.6004281778765037
v 37.49472283721496 127.95018389552574 -2.616185088328347
v 33.448216294542064 136.07982575289262 -3.589288467664846
v 40.671069858950084 142.19280244141865 -6.402707274639861
v 46.95377863064161 135.95572940111197 -6.3006398372792445
v 38.0090860246025 133.66274857993656 12.392636985545147
v 33.84095643302043 140.44189294443783 7.871333374852507
v 32.08752880662676 136.77720969890737 2.6418300339640375
v 35.712780440907224 128.86348722601412 5.544077001956575
v 47.034918422910394 141.77311004500206 9.423717875893338
v 40.73300942764608 146.6349033344851 5.60428511516401
v 33.84095643302043 140.44189294443783 7.871333374852507
v 38.0090860246025 133.66274857993656 12.392636985545147
v 50.45736385245601 142.3397304342332 0.6004281778765037
v 43.34637989512622 147.06757476665874 -1.1331091755829474
v 40.73300942764608 146.6349033344851 5.60428511516401
v 47.034918422910394 141.77311004500206 9.423717875893338
v 49.370504932658555 118.49075763414422 9.322670853448459
v 35.712780440907224 128.86348722601412 5.544077001956575
v 37.49472283721496 127.95018389552574 -2.616185088328347
v 50.24191815173489 118.0441622698968 5.33212160404069
v 54.8675999291747 121.95904509556323 3.5303399524863326
v 46.95377863064161 135.95572940111197 -6.3006398372792445
v 50.45736385245601 142.3397304342332 0.6004281778765037
v 56.58090007189212 125.0809456958145 6.905112354269857
v 50.24191815173489 118.0441622698968 5.33212160404069
v 37.49472283721496 127.95018389552574 -2.616185088328347
v 46.95377863064161 135.95572940111197 -6.3006398372792445
v 54.8675999291747 121.95904509556323 3.5303399524863326
v 50.49344955769451 120.8377291106774 12.671753265812956
v 38.0090860246025 133.66274857993656 12.392636985545147
v 35.712780440907224 128.86348722601412 5.544077001956575
v 49.370504932658555 118.49075763414422 9.322670853448459
v 54.90728120967594 124.80385556668267 11.21989032477343
v 47.034918422910394 141.77311004500206 9.423717875893338
v 38.0090860246025 133.66274857993656 12.392636985545147
v 50.49344955769451 120.8377291106774 12.671753265812956
v 56.58090007189212 125.0809456958145 6.905112354269857
v 50.45736385245601 142.3397304342332 0.6004281778765037
v 47.034918422910394 141.77311004500206 9.423717875893338
v 54.90728120967594 124.80385556668267 11.21989032477343
v 55.973521850217786 117.52637037529709 18.49693634760889
v 50.49344955769451 120.8377291106774 12.671753265812956
v 49.370504932658555 118.49075763414422 9.322670853448459
v 50.24191815173489 118.0441622698968 5.33212160404069
v 55.842162027556014 111.98710976790548 3.6587046977140067
v 62.78369195858258 114.22707075450766 2.1358536828436216
v 54.8675999291747 121.95904509556323 3.5303399524863326
v 56.58090007189212 125.0809456958145 6.905112354269857
v 54.90728120967594 124.80385556668267 11.21989032477343
v 62.600478424629735 119.47627375573678 16.913702807857465
v 55.842162027556014 111.98710976790548 3.6587046977140067
v 50.24191815173489 118.0441622698968 5.33212160404069
v 54.8675999291747 121.95904509556323 3.5303399524863326
v 62.78369195858258 114.22707075450766 2.1358536828436216
v 62.600478424629735 119.47627375573678 16.913702807857465
v 54.90728120967594 124.80385556668267 11.21989032477343
v 50.49344955769451 120.8377291106774 12.671753265812956
v 55.973521850217786 117.52637037529709 18.49693634760889
v 56.70516412804459 106.54549637896197 19.737348814896514
v 55.973521850217786 117.52637037529709 18.49693634760889
v 55.842162027556014 111.98710976790548 3.6587046977140067
v 58.905986459430984 102.8068212599872 9.116405033844213
v 58.905986459430984 102.8068212599872 9.116405033844213
v 62.78369195858258 114.22707075450766 2.1358536828436216
v 62.600478424629735 119.47627375573678 16.913702807857465
v 61.5544406555124 106.8470990176623 19.636953574648953
v 62.78369195858258 114.22707075450766 2.1358536828436216
v 58.905986459430984 102.8068212599872 9.116405033844213
v 55.842162027556014 111.98710976790548 3.6587046977140067
v 61.5544406555124 106.8470990176623 19.636953574648953
v 62.600478424629735 119.47627375573678 16.913702807857465
v 55.973521850217786 117.52637037529709 18.49693634760889
v 56.70516412804459 106.54549637896197 19.737348814896514
v 24.013907470350492 159.63773785011713 11.139826858825806
v 11.065652688113849 157.3748585421393 22.666542892124035
v 10.930250413246025 153.8935785531751 19.783028845850435
v -2.681561645642795 179.26726100721046 9.944154130300172
v 4.912742811519345 180.28629803893202 4.560823657430105
v 1.197870495065377 188.8763233446943 4.150040889991746
v -2.6815553220697215 188.85357606913126 5.99965464830886
v -2.681561645642795 179.26726100721046 9.944154130300172
v 1.197870495065377 188.8763233446943 4.150040889991746
v -2.681559469771586 178.16877669538684 -13.725322340055241
v -2.681551342192963 188.85357549275176 -7.186358736244273
v 2.29138890607966 188.87607781580914 -2.879176220947807
v 4.848633991997464 179.2295959256381 -8.558749811164855
v 2.8872288719909385 78.17674691176552 17.83232650441864
v 10.873294191705439 78.93081504430462 15.124353372988267
v 6.966833690623996 109.0134417538436 17.50948812455956
v -2.6815722643797137 108.11673494489575 20.56031397420037
v 7.705223878494125 180.51729203537235 -1.6980621541401053
v 4.848633991997464 179.2295959256381 -8.558749811164855
v 2.29138890607966 188.87607781580914 -2.879176220947807
v 3.346111657776638 188.5946854440331 0.46783212974476474
v 4.912742811519345 180.28629803893202 4.560823657430105
v 7.705223878494125 180.51729203537235 -1.6980621541401053
v 3.346111657776638 188.5946854440331 0.46783212974476474
v 1.197870495065377 188.8763233446943 4.150040889991746
v 25.621621208574446 178.54223646601622 -2.691135718641796
v 20.93619329718494 170.62332960195639 -15.852882070922814
v 16.45133328358847 178.92802888532654 -2.332681059415121
v 25.621621208574446 178.54223646601622 -2.691135718641796
v 16.45133328358847 178.92802888532654 -2.332681059415121
v 21.159617647499463 170.50946967485237 10.072969729227788
v -2.6815553220697215 188.85357606913126 5.99965464830886
v 1.197870495065377 188.8763233446943 4.150040889991746
v -2.6815559085393894 192.05748335240875 0.6807218689883188
v 2.29138890607966 188.87607781580914 -2.879176220947807
v -2.681551342192963 188.85357549275176 -7.186358736244273
v -2.6815559085393894 192.05748335240875 0.6807218689883188
v 3.346111657776638 188.5946854440331 0.46783212974476474
v 2.29138890607966 188.87607781580914 -2.879176220947807
v -2.6815559085393894 192.05748335240875 0.6807218689883188
v 1.197870495065377 188.8763233446943 4.150040889991746
v 3.346111657776638 188.5946854440331 0.46783212974476474
v -2.6815559085393894 192.05748335240875 0.6807218689883188
v 2.94471805654652 78.19535059559237 -13.665325818515274
v -8.389708188583082 78.07940697267426 -13.704792324631343
v -2.681566400215007 109.06473361518057 -19.183038520890968
v -8.389708188583082 78.07940697267426 -13.704792324631343
v 2.94471805654652 78.19535059559237 -13.665325818515274
v 2.8872288719909385 78.17674691176552 17.83232650441864
v -8.274738922194787 78.20893293542474 17.83554023877446
v -39.80793646621675 4.41235766658953e-05 -8.614756727535642
v -24.373452293552557 4.007559979537852e-05 -8.614763838245784
v -24.373473492283267 4.09647135240972e-05 11.725648545639114
v -39.80794540864525 4.5012686487753066e-05 11.725654507318907
v -24.373451357084623 10.711983323302151 -8.614764306479845
v -24.373472555815333 10.711984212412 11.72564807740505
v -24.373473492283267 4.09647135240972e-05 11.725648545639114
v -24.373452293552557 4.007559979537852e-05 -8.614763838245784
v -39.80793552974905 10.711984672628013 -8.614757195769586
v -24.373451357084623 10.711983323302151 -8.614764306479845
v -24.373452293552557 4.007559979537852e-05 -8.614763838245784
v -39.80793646621675 4.41235766658953e-05 -8.614756727535642
v -39.80794447217755 10.711985561736737 11.725654039084963
v -39.80793552974905 10.711984672628013 -8.614757195769586
v -39.80793646621675 4.41235766658953e-05 -8.614756727535642
v -39.80794540864525 4.5012686487753066e-05 11.725654507318907
v -26.616447405083107 6.940544888589225 26.193222359919734
v -36.69034357278064 6.94054500325862 26.193227065241512
v -36.69034418400227 -0.051014645726735704 26.19322737085239
v -26.616448016304957 -0.051017285864503506 26.193222665530723
v -26.616448016304957 -0.051017285864503506 26.193222665530723
v -36.69034418400227 -0.051014645726735704 26.19322737085239
v -39.80794540864525 4.5012686487753066e-05 11.725654507318907
v -24.373473492283267 4.09647135240972e-05 11.725648545639114
v -26.616447405083107 6.940544888589225 26.193222359919734
v -26.616448016304957 -0.051017285864503506 26.193222665530723
v -24.373473492283267 4.09647135240972e-05 11.725648545639114
v -24.373472555815333 10.711984212412 11.72564807740505
v -36.69034357278064 6.94054500325862 26.193227065241512
v -26.616447405083107 6.940544888589225 26.193222359919734
v -24.373472555815333 10.711984212412 11.72564807740505
v -39.80794447217755 10.711985561736737 11.725654039084963
v -36.69034418400227 -0.051014645726735704 26.19322737085239
v -36.69034357278064 6.94054500325862 26.193227065241512
v -39.80794447217755 10.711985561736737 11.725654039084963
v -39.80794540864525 4.5012686487753066e-05 11.725654507318907
v -27.643492896408105 16.67770867182807 -4.315735745225555
v -27.643490991334374 16.677709182956644 7.377522461744104
v -24.373472555815333 10.711984212412 11.72564807740505
v -24.373451357084623 10.711983323302151 -8.614764306479845
v -24.373451357084623 10.711983323302151 -8.614764306479845
v -39.80793552974905 10.711984672628013 -8.614757195769586
v -36.53790380284642 16.677707917364728 -4.315731232066298
v -32.02501069692593 16.67770752283496 -4.315733499347771
v -27.643492896408105 16.67770867182807 -4.315735745225555
v -36.53790189777283 16.677708428493265 7.377526113132098
v -36.53790380284642 16.677707917364728 -4.315731232066298
v -39.80793552974905 10.711984672628013 -8.614757195769586
v -39.80794447217755 10.711985561736737 11.725654039084963
v -39.80794447217755 10.711985561736737 11.725654039084963
v -24.373472555815333 10.711984212412 11.72564807740505
v -27.643490991334374 16.677709182956644 7.377522461744104
v -31.570018077935895 16.677709526224643 7.377524250484969
v -36.53790189777283 16.677708428493265 7.377526113132098
v -16.254966012856475 43.382976509696256 -10.444148881301345
v -18.81670903275849 38.69403506715107 3.7195440721327713
v -27.643490991334374 16.677709182956644 7.377522461744104
v -27.643492896408105 16.67770867182807 -4.315735745225555
v -37.09439969172859 45.50243297124477 -10.44414098265727
v -26.19741981736345 44.39416503061429 -13.14654095341514
v -32.02501069692593 16.67770752283496 -4.315733499347771
v -36.53790380284642 16.677707917364728 -4.315731232066298
v -36.56525647814945 40.499129381610274 3.7195514809487116
v -37.09439969172859 45.50243297124477 -10.44414098265727
v -36.53790380284642 16.677707917364728 -4.315731232066298
v -36.53790189777283 16.677708428493265 7.377526113132098
v -27.1793670864974 39.54454061754126 8.890847834159583
v -36.56525647814945 40.499129381610274 3.7195514809487116
v -36.53790189777283 16.677708428493265 7.377526113132098
v -31.570018077935895 16.677709526224643 7.377524250484969
v -18.81670903275849 38.69403506715107 3.7195440721327713
v -27.1793670864974 39.54454061754126 8.890847834159583
v -31.570018077935895 16.677709526224643 7.377524250484969
v -27.643490991334374 16.677709182956644 7.377522461744104
v -27.643492896408105 16.67770867182807 -4.315735745225555
v -32.02501069692593 16.67770752283496 -4.315733499347771
v -26.19741981736345 44.39416503061429 -13.14654095341514
v -16.254966012856475 43.382976509696256 -10.444148881301345
v -30.17854604401731 61.37582907516263 -5.765366772516262
v -22.861656485052357 60.63166861375586 -7.8797991770992
v -26.19741981736345 44.39416503061429 -13.14654095341514
v -37.09439969172859 45.50243297124477 -10.44414098265727
v -30.1785442637377 61.375829552809115 5.161910644026616
v -30.17854604401731 61.37582907516263 -5.765366772516262
v -37.09439969172859 45.50243297124477 -10.44414098265727
v -36.56525647814945 40.499129381610274 3.7195514809487116
v -22.83477541027649 60.62893626210457 10.557737610163993
v -30.1785442637377 61.375829552809115 5.161910644026616
v -36.56525647814945 40.499129381610274 3.7195514809487116
v -27.1793670864974 39.54454061754126 8.890847834159583
v -16.29161014524349 59.9634729591145 -5.7653735693628905
v -16.29162674941732 59.963473436762634 5.161904804706608
v -18.81670903275849 38.69403506715107 3.7195440721327713
v -16.254966012856475 43.382976509696256 -10.444148881301345
v -16.29162674941732 59.963473436762634 5.161904804706608
v -22.83477541027649 60.62893626210457 10.557737610163993
v -27.1793670864974 39.54454061754126 8.890847834159583
v -18.81670903275849 38.69403506715107 3.7195440721327713
v -22.861656485052357 60.63166861375586 -7.8797991770992
v -16.29161014524349 59.9634729591145 -5.7653735693628905
v -16.254966012856475 43.382976509696256 -10.444148881301345
v -26.19741981736345 44.39416503061429 -13.14654095341514
v -29.156798968674384 66.2480642602121 -5.765367917971072
v -21.839897153408227 65.50389154250274 -7.879801088574371
v -22.861656485052357 60.63166861375586 -7.8797991770992
v -30.17854604401731 61.37582907516263 -5.765366772516262
v -29.15679718839471 66.24806473785861 5.1619098815812565
v -29.156798968674384 66.2480642602121 -5.765367917971072
v -30.17854604401731 61.37582907516263 -5.765366772516262
v -30.1785442637377 61.375829552809115 5.161910644026616
v -21.813003822328703 65.50117144715192 10.55773684771464
v -29.15679718839471 66.24806473785861 5.1619098815812565
v -30.1785442637377 61.375829552809115 5.161910644026616
v -22.83477541027649 60.62893626210457 10.557737610163993
v -15.269867417773002 64.83569636550956 5.1619040422597875
v -21.813003822328703 65.50117144715192 10.55773684771464
v -22.83477541027649 60.62893626210457 10.557737610163993
v -16.29162674941732 59.963473436762634 5.161904804706608
v -15.269863069901632 64.83569588786249 -5.765374714817165
v -15.269867417773002 64.83569636550956 5.1619040422597875
v -16.29162674941732 59.963473436762634 5.161904804706608
v -16.29161014524349 59.9634729591145 -5.7653735693628905
v -21.839897153408227 65.50389154250274 -7.879801088574371
v -15.269863069901632 64.83569588786249 -5.765374714817165
v -16.29161014524349 59.9634729591145 -5.7653735693628905
v -22.861656485052357 60.63166861375586 -7.8797991770992
v -29.036759425396273 80.24347979118048 -5.187939672472741
v -16.24911067571483 78.94714777756428 -11.403956797970036
v -21.839897153408227 65.50389154250274 -7.879801088574371
v -29.156798968674384 66.2480642602121 -5.765367917971072
v -29.036769050237535 80.24348049719885 10.963852258218939
v -29.036759425396273 80.24347979118048 -5.187939672472741
v -29.156798968674384 66.2480642602121 -5.765367917971072
v -29.15679718839471 66.24806473785861 5.1619098815812565
v -16.23644559475309 78.93081128616339 15.12436774797183
v -29.036769050237535 80.24348049719885 10.963852258218939
v -29.15679718839471 66.24806473785861 5.1619098815812565
v -21.813003822328703 65.50117144715192 10.55773684771464
v -8.274738922194787 78.20893293542474 17.83554023877446
v -16.23644559475309 78.93081128616339 15.12436774797183
v -21.813003822328703 65.50117144715192 10.55773684771464
v -15.269867417773002 64.83569636550956 5.1619040422597875
v -8.389708188583082 78.07940697267426 -13.704792324631343
v -8.274738922194787 78.20893293542474 17.83554023877446
v -15.269867417773002 64.83569636550956 5.1619040422597875
v -15.269863069901632 64.83569588786249 -5.765374714817165
v -16.24911067571483 78.94714777756428 -11.403956797970036
v -8.389708188583082 78.07940697267426 -13.704792324631343
v -15.269863069901632 64.83569588786249 -5.765374714817165
v -21.839897153408227 65.50389154250274 -7.879801088574371
v -24.023166284558954 112.06656245733086 11.92035831715026
v -22.525179165645913 111.79363829413307 -4.338473113626571
v -29.036759425396273 80.24347979118048 -5.187939672472741
v -29.036769050237535 80.24348049719885 10.963852258218939
v -12.329972928530138 109.01344344082466 17.509500460635472
v -24.023166284558954 112.06656245733086 11.92035831715026
v -29.036769050237535 80.24348049719885 10.963852258218939
v -16.23644559475309 78.93081128616339 15.12436774797183
v -14.581258659283078 110.17825659353392 -15.089701268621575
v -2.681566400215007 109.06473361518057 -19.183038520890968
v -8.389708188583082 78.07940697267426 -13.704792324631343
v -16.24911067571483 78.94714777756428 -11.403956797970036
v -14.581258659283078 110.17825659353392 -15.089701268621575
v -22.525179165645913 111.79363829413307 -4.338473113626571
v -20.977108790740637 122.95646929273298 -2.154902508860534
v -13.991005908414769 122.95471556387197 -12.838695636529145
v -20.977106338700317 122.9564699506119 12.895612392189587
v -20.977108790740637 122.95646929273298 -2.154902508860534
v -22.525179165645913 111.79363829413307 -4.338473113626571
v -24.023166284558954 112.06656245733086 11.92035831715026
v -12.265822071466847 121.1414828117036 19.412547483651792
v -20.977106338700317 122.9564699506119 12.895612392189587
v -24.023166284558954 112.06656245733086 11.92035831715026
v -12.329972928530138 109.01344344082466 17.509500460635472
v -2.681571311843147 121.14015829352591 19.41860819581042
v -12.265822071466847 121.1414828117036 19.412547483651792
v -12.329972928530138 109.01344344082466 17.509500460635472
v -2.6815722643797137 108.11673494489575 20.56031397420037
v -2.681566400215007 109.06473361518057 -19.183038520890968
v -14.581258659283078 110.17825659353392 -15.089701268621575
v -13.991005908414769 122.95471556387197 -12.838695636529145
v -2.6815646571205396 122.95340301549513 -15.936623453667229
v -16.24911067571483 78.94714777756428 -11.403956797970036
v -29.036759425396273 80.24347979118048 -5.187939672472741
v -22.525179165645913 111.79363829413307 -4.338473113626571
v -14.581258659283078 110.17825659353392 -15.089701268621575
v -20.573777742826273 131.75132153463306 -2.893086264090411
v -14.202223663134948 131.7495802724982 -9.992022679018335
v -13.991005908414769 122.95471556387197 -12.838695636529145
v -20.977108790740637 122.95646929273298 -2.154902508860534
v -20.573774928471824 131.75131003341914 14.38130330027937
v -20.573777742826273 131.75132153463306 -2.893086264090411
v -20.977108790740637 122.95646929273298 -2.154902508860534
v -20.977106338700317 122.9564699506119 12.895612392189587
v -12.90596171364212 131.74959369449329 19.268451308994543
v -20.573774928471824 131.75131003341914 14.38130330027937
v -20.977106338700317 122.9564699506119 12.895612392189587
v -12.265822071466847 121.1414828117036 19.412547483651792
v -2.681570407949329 131.7480362506244 19.274510384833413
v -12.90596171364212 131.74959369449329 19.268451308994543
v -12.265822071466847 121.1414828117036 19.412547483651792
v -2.681571311843147 121.14015829352591 19.41860819581042
v -14.202223663134948 131.7495802724982 -9.992022679018335
v -2.6815632315798257 131.74805940028693 -11.905905924807962
v -2.6815646571205396 122.95340301549513 -15.936623453667229
v -13.991005908414769 122.95471556387197 -12.838695636529145
v -21.422611410229173 141.76669324095067 -1.7134029034292517
v -12.948924403575774 141.76495162047092 -12.806048903014982
v -14.202223663134948 131.7495802724982 -9.992022679018335
v -20.573777742826273 131.75132153463306 -2.893086264090411
v -21.422609248269872 141.7666938210013 11.556607541506995
v -21.422611410229173 141.76669324095067 -1.7134029034292517
v -20.573777742826273 131.75132153463306 -2.893086264090411
v -20.573774928471824 131.75131003341914 14.38130330027937
v -13.812057189287636 141.76498982090894 18.21734439703658
v -21.422609248269872 141.7666938210013 11.556607541506995
v -20.573774928471824 131.75131003341914 14.38130330027937
v -12.90596171364212 131.74959369449329 19.268451308994543
v -2.681562891192357 144.47463661376733 20.96865254785883
v -13.812057189287636 141.76498982090894 18.21734439703658
v -12.90596171364212 131.74959369449329 19.268451308994543
v -2.681570407949329 131.7480362506244 19.274510384833413
v -12.948924403575774 141.76495162047092 -12.806048903014982
v -2.6815688185933464 143.1359527810868 -14.695139036897059
v -2.6815632315798257 131.74805940028693 -11.905905924807962
v -14.202223663134948 131.7495802724982 -9.992022679018335
v -24.94324591024128 151.49845425094182 -3.1294193323940824
v -28.50728196661056 159.30770358085707 -15.725691402990712
v -12.948924403575774 141.76495162047092 -12.806048903014982
v -21.422611410229173 141.76669324095067 -1.7134029034292517
v -29.377033804169272 159.63773026140117 11.139847430608448
v -24.94324591024128 151.49845425094182 -3.1294193323940824
v -21.422611410229173 141.76669324095067 -1.7134029034292517
v -21.422609248269872 141.7666938210013 11.556607541506995
v -16.293381063244897 153.89356867683998 19.783045537446277
v -29.377033804169272 159.63773026140117 11.139847430608448
v -21.422609248269872 141.7666938210013 11.556607541506995
v -13.812057189287636 141.76498982090894 18.21734439703658
v -2.681562082120869 155.9251107403847 19.790404672625442
v -16.293381063244897 153.89356867683998 19.783045537446277
v -13.812057189287636 141.76498982090894 18.21734439703658
v -2.681562891192357 144.47463661376733 20.96865254785883
v -28.50728196661056 159.30770358085707 -15.725691402990712
v -2.6815566214834843 153.891862085694 -20.830051588801567
v -2.6815688185933464 143.1359527810868 -14.695139036897059
v -12.948924403575774 141.76495162047092 -12.806048903014982
v -62.06830919967645 106.5455067624713 19.73739114612011
v -66.91758877119855 106.84711024904648 19.63699748596803
v -64.26912645326964 102.8068381564508 9.116445209614838
v -17.01791725619419 170.80185970435838 18.39146127807323
v -26.52272404361688 170.50946158707467 10.07298822193308
v -29.377033804169272 159.63773026140117 11.139847430608448
v -16.428775661707622 157.37484868947777 22.666555031724897
v -2.6815613019539053 159.51905066344514 22.65053677513469
v -16.428775661707622 157.37484868947777 22.666555031724897
v -16.293381063244897 153.89356867683998 19.783045537446277
v -2.681562082120869 155.9251107403847 19.790404672625442
v -16.428775661707622 157.37484868947777 22.666555031724897
v -2.6815613019539053 159.51905066344514 22.65053677513469
v -2.681561008422518 170.80014256914737 18.39881655399236
v -17.01791725619419 170.80185970435838 18.39146127807323
v -26.299308121110503 170.62332147511447 -15.852868247130449
v -2.6815552166389875 169.68440071120222 -20.681410907709775
v -2.6815566214834843 153.891862085694 -20.830051588801567
v -28.50728196661056 159.30770358085707 -15.725691402990712
v -21.81444225003312 178.92801997432622 -2.332667164938913
v -13.068338488430198 180.51728159515386 -1.6980534075640916
v -10.211751062577767 179.22958498595773 -8.558742761402549
v -26.299308121110503 170.62332147511447 -15.852868247130449
v -21.81444225003312 178.92801997432622 -2.332667164938913
v -26.52272404361688 170.50946158707467 10.07298822193308
v -10.275861550591076 180.28628711046096 4.560831685605615
v -13.068338488430198 180.51728159515386 -1.6980534075640916
v -2.681561645642795 179.26726100721046 9.944154130300172
v -10.275861550591076 180.28628711046096 4.560831685605615
v -26.52272404361688 170.50946158707467 10.07298822193308
v -17.01791725619419 170.80185970435838 18.39146127807323
v -17.01791725619419 170.80185970435838 18.39146127807323
v -2.681561008422518 170.80014256914737 18.39881655399236
v -2.681561645642795 179.26726100721046 9.944154130300172
v -10.211751062577767 179.22958498595773 -8.558742761402549
v -2.681559469771586 178.16877669538684 -13.725322340055241
v -2.6815552166389875 169.68440071120222 -20.681410907709775
v -26.299308121110503 170.62332147511447 -15.852868247130449
v -33.69523875295031 166.5450992405248 -12.247678577656739
v -37.68701608128995 171.57138481975218 -0.7524132281076117
v -30.98473035927049 178.5422414147018 -2.691116538050064
v -26.299308121110503 170.62332147511447 -15.852868247130449
v -28.50728196661056 159.30770358085707 -15.725691402990712
v -33.69523875295031 166.5450992405248 -12.247678577656739
v -26.299308121110503 170.62332147511447 -15.852868247130449
v -29.377033804169272 159.63773026140117 11.139847430608448
v -26.52272404361688 170.50946158707467 10.07298822193308
v -33.80305382455241 166.58700451515617 9.95286900678902
v -37.68701608128995 171.57138481975218 -0.7524132281076117
v -33.80305382455241 166.58700451515617 9.95286900678902
v -26.52272404361688 170.50946158707467 10.07298822193308
v -30.98473035927049 178.5422414147018 -2.691116538050064
v -33.27314430039123 141.2530204652896 -0.7980405377314685
v -34.73915832677849 142.86652562875497 -7.3578432184276545
v -28.50728196661056 159.30770358085707 -15.725691402990712
v -24.94324591024128 151.49845425094182 -3.1294193323940824
v -35.1623050019569 143.01249879394598 5.853166287157443
v -33.27314430039123 141.2530204652896 -0.7980405377314685
v -24.94324591024128 151.49845425094182 -3.1294193323940824
v -29.377033804169272 159.63773026140117 11.139847430608448
v -42.521051869259246 150.09423886007139 -7.927850718260798
v -45.40341410631504 153.06232344308094 -0.7858272043588022
v -37.68701608128995 171.57138481975218 -0.7524132281076117
v -33.69523875295031 166.5450992405248 -12.247678577656739
v -34.73915832677849 142.86652562875497 -7.3578432184276545
v -42.521051869259246 150.09423886007139 -7.927850718260798
v -33.69523875295031 166.5450992405248 -12.247678577656739
v -28.50728196661056 159.30770358085707 -15.725691402990712
v -42.58780969915356 150.11785736179698 5.865376617957195
v -35.1623050019569 143.01249879394598 5.853166287157443
v -29.377033804169272 159.63773026140117 11.139847430608448
v -33.80305382455241 166.58700451515617 9.95286900678902
v -45.40341410631504 153.06232344308094 -0.7858272043588022
v -42.58780969915356 150.11785736179698 5.865376617957195
v -33.80305382455241 166.58700451515617 9.95286900678902
v -37.68701608128995 171.57138481975218 -0.7524132281076117
v -37.450668034656545 136.77721577813105 2.641853619477663
v -38.811351546711435 136.0798320700261 -3.5892652048024702
v -34.73915832677849 142.86652562875497 -7.3578432184276545
v -33.27314430039123 141.2530204652896 -0.7980405377314685
v -46.03419883086877 142.19281002143566 -6.40268012623609
v -48.7095154898856 147.06758281444257 -1.1330788573946675
v -45.40341410631504 153.06232344308094 -0.7858272043588022
v -42.521051869259246 150.09423886007139 -7.927850718260798
v -38.811351546711435 136.0798320700261 -3.5892652048024702
v -46.03419883086877 142.19281002143566 -6.40268012623609
v -42.521051869259246 150.09423886007139 -7.927850718260798
v -34.73915832677849 142.86652562875497 -7.3578432184276545
v -39.20409025223201 140.44189933024015 7.871358872237615
v -37.450668034656545 136.77721577813105 2.641853619477663
v -33.27314430039123 141.2530204652896 -0.7980405377314685
v -35.1623050019569 143.01249879394598 5.853166287157443
v -46.09613983865897 146.63491092533218 5.604314103045378
v -39.20409025223201 140.44189933024015 7.871358872237615
v -35.1623050019569 143.01249879394598 5.853166287157443
v -42.58780969915356 150.11785736179698 5.865376617957195
v -48.7095154898856 147.06758281444257 -1.1330788573946675
v -46.09613983865897 146.63491092533218 5.604314103045378
v -42.58780969915356 150.11785736179698 5.865376617957195
v -45.40341410631504 153.06232344308094 -0.7858272043588022
v -41.07591091471702 128.86349393909632 5.544103348639775
v -42.85785612966287 127.9501909201729 -2.6161589749091885
v -38.811351546711435 136.0798320700261 -3.5892652048024702
v -37.450668034656545 136.77721577813105 2.641853619477663
v -52.31691478797772 135.95573807963353 -6.300609109669968
v -55.82049970899924 142.3397397253412 0.6004619621460474
v -48.7095154898856 147.06758281444257 -1.1330788573946675
v -46.03419883086877 142.19281002143566 -6.40268012623609
v -42.85785612966287 127.9501909201729 -2.6161589749091885
v -52.31691478797772 135.95573807963353 -6.300609109669968
v -46.03419883086877 142.19281002143566 -6.40268012623609
v -38.811351546711435 136.0798320700261 -3.5892652048024702
v -43.372225684040394 133.6627556945185 12.392665564622856
v -41.07591091471702 128.86349393909632 5.544103348639775
v -37.450668034656545 136.77721577813105 2.641853619477663
v -39.20409025223201 140.44189933024015 7.871358872237615
v -52.39804843945633 141.77311873771015 9.423751311006466
v -43.372225684040394 133.6627556945185 12.392665564622856
v -39.20409025223201 140.44189933024015 7.871358872237615
v -46.09613983865897 146.63491092533218 5.604314103045378
v -55.82049970899924 142.3397397253412 0.6004619621460474
v -52.39804843945633 141.77311873771015 9.423751311006466
v -46.09613983865897 146.63491092533218 5.604314103045378
v -48.7095154898856 147.06758281444257 -1.1330788573946675
v -54.73364824517295 118.49076673522045 9.322705624108675
v -55.60505977854502 118.04417152333562 5.332156084128947
v -42.85785612966287 127.9501909201729 -2.6161589749091885
v -41.07591091471702 128.86349393909632 5.544103348639775
v -60.23073533042818 121.95905515778155 3.530376897335763
v -61.94404301988106 125.08095605759651 6.90515095853678
v -55.82049970899924 142.3397397253412 0.6004619621460474
v -52.31691478797772 135.95573807963353 -6.300609109669968
v -55.60505977854502 118.04417152333562 5.332156084128947
v -60.23073533042818 121.95905515778155 3.530376897335763
v -52.31691478797772 135.95573807963353 -6.300609109669968
v -42.85785612966287 127.9501909201729 -2.6161589749091885
v -55.85659443265685 120.83773840809577 12.671790508927234
v -54.73364824517295 118.49076673522045 9.322705624108675
v -41.07591091471702 128.86349393909632 5.544103348639775
v -43.372225684040394 133.6627556945185 12.392665564622856
v -60.270419736104145 124.80386563583943 11.219928623086249
v -55.85659443265685 120.83773840809577 12.671790508927234
v -43.372225684040394 133.6627556945185 12.392665564622856
v -52.39804843945633 141.77311873771015 9.423751311006466
v -61.94404301988106 125.08095605759651 6.90515095853678
v -60.270419736104145 124.80386563583943 11.219928623086249
v -52.39804843945633 141.77311873771015 9.423751311006466
v -55.82049970899924 142.3397397253412 0.6004619621460474
v -61.33666847014612 117.52638063088203 18.496975376357806
v -61.20530832275852 111.98712000052265 3.6587423431273267
v -55.60505977854502 118.04417152333562 5.332156084128947
v -54.73364824517295 118.49076673522045 9.322705624108675
v -55.85659443265685 120.83773840809577 12.671790508927234
v -68.14683682630717 114.22708220082059 2.1358949306275203
v -67.96362675154604 119.47628517001604 16.913746294000074
v -60.270419736104145 124.80386563583943 11.219928623086249
v -61.94404301988106 125.08095605759651 6.90515095853678
v -60.23073533042818 121.95905515778155 3.530376897335763
v -61.20530832275852 111.98712000052265 3.6587423431273267
v -68.14683682630717 114.22708220082059 2.1358949306275203
v -60.23073533042818 121.95905515778155 3.530376897335763
v -55.60505977854502 118.04417152333562 5.332156084128947
v -67.96362675154604 119.47628517001604 16.913746294000074
v -61.33666847014612 117.52638063088203 18.496975376357806
v -55.85659443265685 120.83773840809577 12.671790508927234
v -60.270419736104145 124.80386563583943 11.219928623086249
v -62.06830919967645 106.5455067624713 19.73739114612011
v -64.26912645326964 102.8068381564508 9.116445209614838
v -61.20530832275852 111.98712000052265 3.6587423431273267
v -61.33666847014612 117.52638063088203 18.496975376357806
v -64.26912645326964 102.8068381564508 9.116445209614838
v -66.91758877119855 106.84711024904648 19.63699748596803
v -67.96362675154604 119.47628517001604 16.913746294000074
v -68.14683682630717 114.22708220082059 2.1358949306275203
v -68.14683682630717 114.22708220082059 2.1358949306275203
v -61.20530832275852 111.98712000052265 3.6587423431273267
v -64.26912645326964 102.8068381564508 9.116445209614838
v -66.91758877119855 106.84711024904648 19.63699748596803
v -62.06830919967645 106.5455067624713 19.73739114612011
v -61.33666847014612 117.52638063088203 18.496975376357806
v -67.96362675154604 119.47628517001604 16.913746294000074
v -29.377033804169272 159.63773026140117 11.139847430608448
v -16.293381063244897 153.89356867683998 19.783045537446277
v -16.428775661707622 157.37484868947777 22.666555031724897
v -2.681561645642795 179.26726100721046 9.944154130300172
v -6.560975609756043 188.87632402299445 4.150046750181731
v -10.275861550591076 180.28628711046096 4.560831685605615
v -2.6815553220697215 188.85357606913126 5.99965464830886
v -6.560975609756043 188.87632402299445 4.150046750181731
v -2.681561645642795 179.26726100721046 9.944154130300172
v -2.681559469771586 178.16877669538684 -13.725322340055241
v -10.211751062577767 179.22958498595773 -8.558742761402549
v -7.654459542317103 188.8760664290016 -2.8791715364871484
v -2.681551342192963 188.85357549275176 -7.186358736244273
v -8.274738922194787 78.20893293542474 17.83554023877446
v -2.6815722643797137 108.11673494489575 20.56031397420037
v -12.329972928530138 109.01344344082466 17.509500460635472
v -16.23644559475309 78.93081128616339 15.12436774797183
v -13.068338488430198 180.51728159515386 -1.6980534075640916
v -8.709181252620159 188.59467424163915 0.4678386899153759
v -7.654459542317103 188.8760664290016 -2.8791715364871484
v -10.211751062577767 179.22958498595773 -8.558742761402549
v -10.275861550591076 180.28628711046096 4.560831685605615
v -6.560975609756043 188.87632402299445 4.150046750181731
v -8.709181252620159 188.59467424163915 0.4678386899153759
v -13.068338488430198 180.51728159515386 -1.6980534075640916
v -30.98473035927049 178.5422414147018 -2.691116538050064
v -21.81444225003312 178.92801997432622 -2.332667164938913
v -26.299308121110503 170.62332147511447 -15.852868247130449
v -30.98473035927049 178.5422414147018 -2.691116538050064
v -26.52272404361688 170.50946158707467 10.07298822193308
v -21.81444225003312 178.92801997432622 -2.332667164938913
v -8.274738922194787 78.20893293542474 17.83554023877446
v 2.8872288719909385 78.17674691176552 17.83232650441864
v -2.6815722643797137 108.11673494489575 20.56031397420037
v -2.6815553220697215 188.85357606913126 5.99965464830886
v -2.6815559085393894 192.05748335240875 0.6807218689883188
v -6.560975609756043 188.87632402299445 4.150046750181731
v -7.654459542317103 188.8760664290016 -2.8791715364871484
v -2.6815559085393894 192.05748335240875 0.6807218689883188
v -2.681551342192963 188.85357549275176 -7.186358736244273
v -8.709181252620159 188.59467424163915 0.4678386899153759
v -2.6815559085393894 192.05748335240875 0.6807218689883188
v -7.654459542317103 188.8760664290016 -2.8791715364871484
v -6.560975609756043 188.87632402299445 4.150046750181731
v -2.6815559085393894 192.05748335240875 0.6807218689883188
v -8.709181252620159 188.59467424163915 0.4678386899153759
f 253 254 255
f 253 255 256
f 257 258 259
f 257 259 260
f 261 262 263
f 261 263 264
f 265 266 267
f 265 267 268
f 269 270 271
f 269 271 272
f 273 274 275
f 273 275 276
f 277 278 279
f 277 279 280
f 281 282 283
f 281 283 284
f 285 286 287
f 285 287 288
f 289 290 291
f 289 291 292
f 297 293 294
f 297 294 295
f 295 296 297
f 298 299 300
f 298 300 301
f 306 302 303
f 306 303 304
f 304 305 306
f 307 308 309
f 307 309 310
f 311 312 313
f 311 313 314
f 315 316 317
f 315 317 318
f 319 320 321
f 319 321 322
f 323 324 325
f 323 325 326
f 327 328 329
f 327 329 330
f 331 332 333
f 331 333 334
f 335 336 337
f 335 337 338
f 339 340 341
f 339 341 342
f 343 344 345
f 343 345 346
f 347 348 349
f 347 349 350
f 351 352 353
f 351 353 354
f 355 356 357
f 355 357 358
f 359 360 361
f 359 361 362
f 363 364 365
f 363 365 366
f 367 368 369
f 367 369 370
f 371 372 373
f 371 373 374
f 375 376 377
f 375 377 378
f 379 380 381
f 379 381 382
f 383 384 385
f 383 385 386
f 387 388 389
f 387 389 390
f 391 392 393
f 391 393 394
f 395 396 397
f 395 397 398
f 399 400 401
f 399 401 402
f 403 404 405
f 403 405 406
f 407 408 409
f 407 409 410
f 411 412 413
f 411 413 414
f 415 416 417
f 415 417 418
f 419 420 421
f 419 421 422
f 423 424 425
f 423 425 426
f 427 428 429
f 427 429 430
f 431 432 433
f 431 433 434
f 435 436 437
f 435 437 438
f 439 440 441
f 439 441 442
f 443 444 445
f 443 445 446
f 447 448 449
f 447 449 450
f 451 452 453
f 451 453 454
f 455 456 457
f 455 457 458
f 459 460 461
f 459 461 462
f 463 464 465
f 463 465 466
f 467 468 469
f 467 469 470
f 471 472 473
f 471 473 474
f 475 476 477
f 475 477 478
f 479 480 481
f 479 481 482
f 483 484 485
f 483 485 486
f 487 488 489
f 487 489 490
f 491 492 493
f 491 493 494
f 495 496 497
f 495 497 498
f 499 500 501
f 502 503 504
f 502 504 505
f 506 507 508
f 506 508 509
f 510 511 512
f 510 512 513
f 514 515 516
f 514 516 517
f 518 519 520
f 518 520 521
f 522 523 524
f 522 524 525
f 526 527 528
f 526 528 529
f 530 531 532
f 533 534 535
f 533 535 536
f 537 538 539
f 537 539 540
f 541 542 543
f 544 545 546
f 547 548 549
f 547 549 550
f 551 552 553
f 551 553 554
f 555 556 557
f 555 557 558
f 559 560 561
f 559 561 562
f 563 564 565
f 563 565 566
f 567 568 569
f 567 569 570
f 571 572 573
f 571 573 574
f 575 576 577
f 575 577 578
f 579 580 581
f 579 581 582
f 583 584 585
f 583 585 586
f 587 588 589
f 587 589 590
f 591 592 593
f 591 593 594
f 595 596 597
f 595 597 598
f 599 600 601
f 599 601 602
f 603 604 605
f 603 605 606
f 607 608 609
f 607 609 610
f 611 612 613
f 611 613 614
f 615 616 617
f 615 617 618
f 619 620 621
f 619 621 622
f 623 624 625
f 623 625 626
f 627 628 629
f 627 629 630
f 631 632 633
f 631 633 634
f 635 636 637
f 635 637 638
f 639 640 641
f 639 641 642
f 643 644 645
f 643 645 646
f 651 647 648
f 651 648 649
f 649 650 651
f 656 652 653
f 656 653 654
f 654 655 656
f 657 658 659
f 657 659 660
f 661 662 663
f 661 663 664
f 665 666 667
f 665 667 668
f 669 670 671
f 669 671 672
f 673 674 675
f 676 677 678
f 676 678 679
f 680 681 682
f 683 684 685
f 686 687 688
f 689 690 691
f 689 691 692
f 693 694 695
f 693 695 696
f 697 698 699
f 697 699 700
f 701 702 703
f 701 703 704
f 705 706 707
f 708 709 710
f 711 712 713
f 714 715 716
f 717 718 719
f 720 721 722
f 723 724 725
f 726 727 728
f 726 728 729
f 730 731 732
f 730 732 733
f 734 735 736
f 734 736 737
f 738 739 740
f 738 740 741
f 742 743 744
f 742 744 745
f 746 747 748
f 746 748 749
f 750 751 752
f 750 752 753
f 754 755 756
f 754 756 757
f 758 759 760
f 758 760 761
f 762 763 764
f 762 764 765
f 766 767 768
f 766 768 769
f 774 770 771
f 771 772 773
f 771 773 774
f 775 776 777
f 775 777 778
f 783 779 780
f 783 780 781
f 781 782 783
f 784 785 786
f 784 786 787
f 788 789 790
f 788 790 791
f 792 793 794
f 792 794 795
f 796 797 798
f 796 798 799
f 800 801 802
f 800 802 803
f 804 805 806
f 804 806 807
f 808 809 810
f 808 810 811
f 812 813 814
f 812 814 815
f 816 817 818
f 816 818 819
f 820 821 822
f 820 822 823
f 824 825 826
f 824 826 827
f 828 829 830
f 828 830 831
f 832 833 834
f 832 834 835
f 836 837 838
f 836 838 839
f 840 841 842
f 840 842 843
f 844 845 846
f 844 846 847
f 848 849 850
f 848 850 851
f 852 853 854
f 852 854 855
f 856 857 858
f 856 858 859
f 860 861 862
f 860 862 863
f 864 865 866
f 864 866 867
f 868 869 870
f 868 870 871
f 872 873 874
f 872 874 875
f 876 877 878
f 876 878 879
f 880 881 882
f 880 882 883
f 884 885 886
f 884 886 887
f 888 889 890
f 888 890 891
f 892 893 894
f 892 894 895
f 896 897 898
f 896 898 899
f 900 901 902
f 900 902 903
f 904 905 906
f 904 906 907
f 908 909 910
f 908 910 911
f 912 913 914
f 912 914 915
f 916 917 918
f 916 918 919
f 920 921 922
f 920 922 923
f 924 925 926
f 924 926 927
f 928 929 930
f 928 930 931
f 932 933 934
f 932 934 935
f 936 937 938
f 936 938 939
f 940 941 942
f 940 942 943
f 944 945 946
f 944 946 947
f 948 949 950
f 948 950 951
f 952 953 954
f 952 954 955
f 956 957 958
f 956 958 959
f 960 961 962
f 960 962 963
f 964 965 966
f 964 966 967
f 968 969 970
f 968 970 971
f 972 973 974
f 972 974 975
f 976 977 978
f 979 980 981
f 979 981 982
f 983 984 985
f 983 985 986
f 987 988 989
f 987 989 990
f 991 992 993
f 991 993 994
f 995 996 997
f 995 997 998
f 999 1000 1001
f 999 1001 1002
f 1003 1004 1005
f 1003 1005 1006
f 1007 1008 1009
f 1010 1011 1012
f 1010 1012 1013
f 1014 1015 1016
f 1014 1016 1017
f 1018 1019 1020
f 1021 1022 1023
f 1024 1025 1026
f 1024 1026 1027
f 1028 1029 1030
f 1028 1030 1031
f 1032 1033 1034
f 1032 1034 1035
f 1036 1037 1038
f 1036 1038 1039
f 1040 1041 1042
f 1040 1042 1043
f 1044 1045 1046
f 1044 1046 1047
f 1048 1049 1050
f 1048 1050 1051
f 1052 1053 1054
f 1052 1054 1055
f 1056 1057 1058
f 1056 1058 1059
f 1060 1061 1062
f 1060 1062 1063
f 1064 1065 1066
f 1064 1066 1067
f 1068 1069 1070
f 1068 1070 1071
f 1072 1073 1074
f 1072 1074 1075
f 1076 1077 1078
f 1076 1078 1079
f 1080 1081 1082
f 1080 1082 1083
f 1084 1085 1086
f 1084 1086 1087
f 1088 1089 1090
f 1088 1090 1091
f 1092 1093 1094
f 1092 1094 1095
f 1096 1097 1098
f 1096 1098 1099
f 1100 1101 1102
f 1100 1102 1103
f 1104 1105 1106
f 1104 1106 1107
f 1108 1109 1110
f 1108 1110 1111
f 1112 1113 1114
f 1112 1114 1115
f 1116 1117 1118
f 1116 1118 1119
f 1120 1121 1122
f 1120 1122 1123
f 1128 1124 1125
f 1128 1125 1126
f 1126 1127 1128
f 1133 1129 1130
f 1133 1130 1131
f 1131 1132 1133
f 1134 1135 1136
f 1134 1136 1137
f 1138 1139 1140
f 1138 1140 1141
f 1142 1143 1144
f 1142 1144 1145
f 1146 1147 1148
f 1146 1148 1149
f 1150 1151 1152
f 1153 1154 1155
f 1153 1155 1156
f 1157 1158 1159
f 1160 1161 1162
f 1163 1164 1165
f 1166 1167 1168
f 1166 1168 1169
f 1170 1171 1172
f 1170 1172 1173
f 1174 1175 1176
f 1174 1176 1177
f 1178 1179 1180
f 1178 1180 1181
f 1182 1183 1184
f 1185 1186 1187
f 1188 1189 1190
f 1191 1192 1193
f 1194 1195 1196
f 1197 1198 1199
f 1200 1201 1202
